{
    "luaDataPath": "",
    "dontUseDefaultFinish": true,
    "startBlackKeepTime": 0.5,
    "entityBan": "",
    "disableNpcLod": true,
    "isAutoBanNpc": true,
    "isBanWidgetPet": true,
    "protectNpcMobileLod": true,
    "LIICEPFFGMH": 7,
    "startFade": {
        "startFadeInDuration": 0.5,
        "startFadeOutDuration": 0.5
    },
    "endFade": {
        "startFadeOutDuration": 0.0
    },
    "actors": [
        {
            "alias": "Avatar",
            "visible": true,
            "bornPointName": "[3_5225:4503.125,121.600,4639.570,0.000,148.037,0.000]",
            "relativePosType": "AVATAR_NEW",
            "relativePosNpcAlias": "",
            "notDestroyInTalk": true,
            "bindMovingTargetKey": ""
        },
        {
            "alias": "AvatarNpc",
            "visible": true,
            "bornPointName": "[3_5225:4503.125,121.600,4639.570,0.000,148.037,0.000]",
            "removeActorType": "NEW_REMOVE",
            "relativePosType": "AVATAR_NEW",
            "relativePosNpcAlias": "",
            "notDestroyInTalk": true,
            "bindMovingTargetKey": ""
        },
        {
            "configID": 1078,
            "alias": "1078",
            "visible": true,
            "bornPointName": "[3_6354:4503.480,121.600,4640.063,0.000,153.898,0.000]",
            "relativePosType": "AVATAR_NEW",
            "relativePosNpcAlias": "",
            "notDestroyInTalk": true,
            "bindMovingTargetKey": ""
        }
    ],
    "group": [
        [
            {
                "$type": "MoleMole.Config.ConfigTimeProtectAction",
                "type": "TIME_PROTECT",
                "duration": 1.0,
                "actionId": 104
            },
            {
                "$type": "MoleMole.Config.ConfigBlackScreenAction",
                "type": "BLACK_SCREEN",
                "duration": 1.0,
                "actionId": 124,
                "flag": 2048,
                "blackScreenType": "KEEP_BLACK",
                "durationToBlack": 0.5,
                "durationKeepBlack": 1.0,
                "durationFromBlack": 0.5,
                "inteePos": "",
                "textMapID": "",
                "useTextFade": true,
                "changeAudioState": true
            },
            {
                "$type": "MOOOKOKLLEI",
                "type": "CAMERA_MOVE",
                "duration": 0.5,
                "actionId": 159,
                "DOKGBCKOLJK": {
                    "x": 4500.9990234375,
                    "y": 123.02899932861328,
                    "z": 4643.1259765625
                },
                "HGKCPMDICGG": {
                    "x": 4501.52978515625,
                    "y": 122.98100280761719,
                    "z": 4642.27978515625
                },
                "MGMFMGNANHH": 6,
                "NDFGFJFGHKL": "EaseInOutCubic",
                "IBCBGNHCICN": {},
                "BNBBLLBEIDL": true,
                "HCPFCAHMGMO": false,
                "OMCCMPHDLOO": "",
                "FEFNBKOHPOG": true,
                "OCFGGGHIKOO": "",
                "LJFHGGJDPHH": "",
                "LPKDFKLNEHL": ""
            },
            {
                "$type": "MoleMole.Config.ConfigSitOrStandAction",
                "type": "SIT_OR_STAND",
                "aliasList": [
                    "Avatar"
                ],
                "actionId": 129,
                "banResetFreestyle": true
            },
            {
                "$type": "MoleMole.Config.ConfigVisibleInterAction",
                "type": "VISIBLE",
                "aliasList": [
                    "Avatar"
                ],
                "actionId": 134,
                "extraParam": ""
            },
            {
                "$type": "MoleMole.Config.ConfigTeleportToAction",
                "type": "TELEPORT_TO",
                "aliasList": [
                    "Avatar"
                ],
                "actionId": 188,
                "position": {
                    "x": 4502.01611328125,
                    "y": 121.60600280761719,
                    "z": 4639.22705078125
                },
                "forward": {
                    "x": 1.281000018119812,
                    "y": -0.006000000052154064,
                    "z": 0.5519999861717224
                },
                "openLongDisTeleport": true,
                "syncForward": true,
                "posBindMovingTargetKey": "",
                "forwardBindMovingTargetKey": ""
            },
            {
                "$type": "MoleMole.Config.ConfigPlayerNPCEnergyTypeAction",
                "type": "SET_PLAYER_NPC_ENERGY_TYPE",
                "aliasList": [
                    "AvatarNpc"
                ],
                "actionId": 130,
                "setHeroEngergyType": true
            },
            {
                "$type": "ILCGAGEGDJI",
                "type": "BODY_LANG",
                "aliasList": [
                    "AvatarNpc"
                ],
                "actionId": 131,
                "JLABKFNJCNP": true,
                "PMJAMGLAJGK": true,
                "LIMPPBIAKGL": false,
                "FNDLJGEAMGI": ""
            },
            {
                "$type": "MoleMole.Config.ConfigTeleportToAction",
                "type": "TELEPORT_TO",
                "aliasList": [
                    "AvatarNpc"
                ],
                "actionId": 137,
                "position": {
                    "x": 4502.01611328125,
                    "y": 121.60600280761719,
                    "z": 4639.22705078125
                },
                "forward": {
                    "x": 1.281000018119812,
                    "y": -0.006000000052154064,
                    "z": 0.5519999861717224
                },
                "openLongDisTeleport": true,
                "syncForward": true,
                "posBindMovingTargetKey": "",
                "forwardBindMovingTargetKey": ""
            },
            {
                "$type": "EAMBKPBOPIC",
                "type": "LOOK_AT",
                "aliasList": [
                    "AvatarNpc"
                ],
                "actionId": 154,
                "flag": 64,
                "FIDJDPAIFDN": true,
                "useTargetPos": true,
                "GFKIMGBGADJ": true,
                "GMKIJKADNHN": {
                    "x": 4503.47314453125,
                    "y": 123.23799896240234,
                    "z": 4640.54296875
                },
                "BCHGCKLKNEH": 0.5,
                "OMCCMPHDLOO": "",
                "CEBMBGKJACI": "NONE",
                "EOHIIHMKDJC": true,
                "NALDAIJKCML": 10.0,
                "KPCALFDIHMC": "",
                "DBLNLMOPEBP": ""
            },
            {
                "$type": "ILCGAGEGDJI",
                "type": "BODY_LANG",
                "aliasList": [
                    "1078"
                ],
                "actionId": 122,
                "JLABKFNJCNP": true,
                "PMJAMGLAJGK": true,
                "LIMPPBIAKGL": false,
                "FNDLJGEAMGI": ""
            },
            {
                "$type": "MoleMole.Config.ConfigTeleportToAction",
                "type": "TELEPORT_TO",
                "aliasList": [
                    "1078"
                ],
                "actionId": 136,
                "position": {
                    "x": 4503.451171875,
                    "y": 121.5999984741211,
                    "z": 4640.5390625
                },
                "forward": {
                    "x": 0.31700000166893005,
                    "z": -0.9480000138282776
                },
                "openLongDisTeleport": true,
                "syncForward": true,
                "posBindMovingTargetKey": "",
                "forwardBindMovingTargetKey": ""
            },
            {
                "$type": "EAMBKPBOPIC",
                "type": "LOOK_AT",
                "aliasList": [
                    "1078"
                ],
                "actionId": 153,
                "flag": 64,
                "FIDJDPAIFDN": true,
                "useTargetPos": true,
                "GFKIMGBGADJ": true,
                "GMKIJKADNHN": {
                    "x": 4506.18603515625,
                    "y": 124.27400207519531,
                    "z": 4633.60205078125
                },
                "BCHGCKLKNEH": 0.5,
                "OMCCMPHDLOO": "",
                "CEBMBGKJACI": "NONE",
                "EOHIIHMKDJC": true,
                "NALDAIJKCML": 10.0,
                "KPCALFDIHMC": "",
                "DBLNLMOPEBP": ""
            },
            {
                "$type": "ILCGAGEGDJI",
                "type": "BODY_LANG",
                "delayTime": 0.23000000417232513,
                "aliasList": [
                    "1078"
                ],
                "actionId": 152,
                "FLBOOPHHFJP": 1120,
                "PMJAMGLAJGK": true,
                "LIMPPBIAKGL": false,
                "FNEGLPPEBBF": true,
                "FNDLJGEAMGI": ""
            }
        ],
        [
            {
                "$type": "MoleMole.Config.ConfigBlackScreenAction",
                "type": "BLACK_SCREEN",
                "duration": 0.5,
                "actionId": 125,
                "flag": 2048,
                "blackScreenType": "FROM_BLACK",
                "durationToBlack": 0.5,
                "durationKeepBlack": 0.5,
                "durationFromBlack": 0.5,
                "inteePos": "",
                "textMapID": "",
                "useTextFade": true,
                "changeAudioState": true
            },
            {
                "$type": "MOOOKOKLLEI",
                "type": "CAMERA_MOVE",
                "duration": 0.5,
                "actionId": 148,
                "DOKGBCKOLJK": {
                    "x": 4500.9990234375,
                    "y": 123.02899932861328,
                    "z": 4643.1259765625
                },
                "HGKCPMDICGG": {
                    "x": 4501.52978515625,
                    "y": 122.98100280761719,
                    "z": 4642.27978515625
                },
                "MGMFMGNANHH": 6,
                "NDFGFJFGHKL": "EaseInOutCubic",
                "IBCBGNHCICN": {},
                "BNBBLLBEIDL": true,
                "HCPFCAHMGMO": false,
                "OMCCMPHDLOO": "",
                "FEFNBKOHPOG": true,
                "OCFGGGHIKOO": "",
                "LJFHGGJDPHH": "",
                "LPKDFKLNEHL": ""
            },
            {
                "$type": "EAMBKPBOPIC",
                "type": "LOOK_AT",
                "aliasList": [
                    "AvatarNpc"
                ],
                "actionId": 156,
                "flag": 64,
                "FIDJDPAIFDN": true,
                "useTargetPos": true,
                "GFKIMGBGADJ": true,
                "GMKIJKADNHN": {
                    "x": 4506.18603515625,
                    "y": 124.27400207519531,
                    "z": 4633.60205078125
                },
                "BCHGCKLKNEH": 0.5,
                "OMCCMPHDLOO": "",
                "CEBMBGKJACI": "NONE",
                "EOHIIHMKDJC": true,
                "NALDAIJKCML": 10.0,
                "KPCALFDIHMC": "",
                "DBLNLMOPEBP": ""
            },
            {
                "$type": "DLPFECMKEKH",
                "type": "DIALOG",
                "aliasList": [
                    "1078"
                ],
                "actionId": 107,
                "NMKEDPFEKBH": 140060201,
                "JLCHMAJCAPA": 2.2330000400543213
            },
            {
                "$type": "OPCCDGPJCJI",
                "type": "EMO_SYNC",
                "aliasList": [
                    "1078"
                ],
                "actionId": 140,
                "flag": 320,
                "IONNJBCBACJ": "Cs_Emo_Avatar_Simple_Common_Set/Cs_Emo_Avatar_Talk/Cs_Emo_Avatar_PersonalLine/Cs_Emo_Avatar_Wriothesley/Cs_Emo_140060201",
                "HLEJKBCMNNJ": "",
                "JGHLJJLNGPP": "",
                "MANNKIIBOFM": "",
                "COMNAAFDEDH": "",
                "CPGCCLNOCDK": "",
                "IGEFGCJKCPM": [
                    17411056455447027573,
                    12567538124876996872,
                    7319330955074599706,
                    3387038118373398941
                ]
            },
            {
                "$type": "MOOOKOKLLEI",
                "type": "CAMERA_MOVE",
                "delayTime": 0.10000000149011612,
                "duration": 5.0,
                "actionId": 149,
                "DOKGBCKOLJK": {
                    "x": 4501.05419921875,
                    "y": 123.02400207519531,
                    "z": 4643.0380859375
                },
                "HGKCPMDICGG": {
                    "x": 4501.5849609375,
                    "y": 122.97599792480469,
                    "z": 4642.19189453125
                },
                "NDFGFJFGHKL": "EaseOutQuad",
                "IBCBGNHCICN": {},
                "BNBBLLBEIDL": true,
                "HCPFCAHMGMO": false,
                "OMCCMPHDLOO": "",
                "FEFNBKOHPOG": true,
                "OCFGGGHIKOO": "",
                "LJFHGGJDPHH": "",
                "LPKDFKLNEHL": ""
            },
            {
                "$type": "OOMFCPJAJGL",
                "type": "STEER_TO",
                "delayTime": 0.14900000393390656,
                "duration": 1.0,
                "aliasList": [
                    "AvatarNpc"
                ],
                "actionId": 155,
                "flag": 32,
                "DMGIIHNDNLC": "ABSOLUTE",
                "PLAPKCOMAKJ": {
                    "x": 4502.93310546875,
                    "y": 121.5999984741211,
                    "z": 4638.35400390625
                },
                "HCMINPNPFDF": true,
                "PENAEBFAHCH": true,
                "CKOEAJFMDON": true,
                "OMCCMPHDLOO": "",
                "AKKPIOCLGOP": true,
                "PPGPCHDAOJG": true,
                "DBLNLMOPEBP": ""
            }
        ],
        [
            {
                "$type": "MoleMole.Config.ConfigTimeProtectAction",
                "type": "TIME_PROTECT",
                "duration": 2.5,
                "actionId": 207
            },
            {
                "$type": "MoleMole.Config.ConfigLocalGadgetOP",
                "type": "LOCAL_GADGET_OP",
                "actionId": 208,
                "gadgetId": 707111158,
                "subKey": 1400602,
                "oprCode": 1,
                "questMainId": 14006,
                "slotName": "",
                "sceneId": 3,
                "canReCreate": true,
                "position": {
                    "x": 4506.10791015625,
                    "y": 123.76699829101562,
                    "z": 4636.27978515625
                },
                "euler": {
                    "x": 359.9639892578125,
                    "y": 350.65899658203125,
                    "z": 359.7829895019531
                },
                "gvKey": ""
            },
            {
                "$type": "MOOOKOKLLEI",
                "type": "CAMERA_MOVE",
                "duration": 0.5,
                "actionId": 209,
                "DOKGBCKOLJK": {
                    "x": 4502.97607421875,
                    "y": 123.14099884033203,
                    "z": 4639.0751953125
                },
                "HGKCPMDICGG": {
                    "x": 4503.33203125,
                    "y": 123.19499969482422,
                    "z": 4640.0078125
                },
                "AFODHELHCGB": 20.0,
                "MGMFMGNANHH": 6,
                "NDFGFJFGHKL": "EaseInOutCubic",
                "IBCBGNHCICN": {},
                "BNBBLLBEIDL": true,
                "NHNPMMBMCFC": 0.0010000000474974513,
                "HCPFCAHMGMO": false,
                "OMCCMPHDLOO": "",
                "FEFNBKOHPOG": true,
                "OCFGGGHIKOO": "",
                "LJFHGGJDPHH": "",
                "LPKDFKLNEHL": ""
            },
            {
                "$type": "MoleMole.Config.ConfigTeleportToAction",
                "type": "TELEPORT_TO",
                "aliasList": [
                    "Avatar"
                ],
                "actionId": 217,
                "flag": 4,
                "position": {
                    "x": 4502.01611328125,
                    "y": 121.60600280761719,
                    "z": 4639.22705078125
                },
                "forward": {
                    "x": 0.7239999771118164,
                    "z": -0.6899999976158142
                },
                "openLongDisTeleport": true,
                "syncForward": true,
                "posBindMovingTargetKey": "",
                "forwardBindMovingTargetKey": ""
            },
            {
                "$type": "MoleMole.Config.ConfigTeleportToAction",
                "type": "TELEPORT_TO",
                "aliasList": [
                    "AvatarNpc"
                ],
                "actionId": 211,
                "flag": 4,
                "position": {
                    "x": 4502.01611328125,
                    "y": 121.60600280761719,
                    "z": 4639.22705078125
                },
                "forward": {
                    "x": 0.7239999771118164,
                    "z": -0.6899999976158142
                },
                "openLongDisTeleport": true,
                "syncForward": true,
                "posBindMovingTargetKey": "",
                "forwardBindMovingTargetKey": ""
            },
            {
                "$type": "ILCGAGEGDJI",
                "type": "BODY_LANG",
                "aliasList": [
                    "1078"
                ],
                "actionId": 210,
                "FLBOOPHHFJP": 1121,
                "PMJAMGLAJGK": true,
                "LIMPPBIAKGL": false,
                "FNEGLPPEBBF": true,
                "FNDLJGEAMGI": ""
            },
            {
                "$type": "MOOOKOKLLEI",
                "type": "CAMERA_MOVE",
                "delayTime": 1.5,
                "duration": 0.5,
                "actionId": 212,
                "DOKGBCKOLJK": {
                    "x": 4500.9990234375,
                    "y": 123.02899932861328,
                    "z": 4643.1259765625
                },
                "HGKCPMDICGG": {
                    "x": 4501.52978515625,
                    "y": 122.98100280761719,
                    "z": 4642.27978515625
                },
                "MGMFMGNANHH": 6,
                "NDFGFJFGHKL": "EaseInOutCubic",
                "IBCBGNHCICN": {},
                "BNBBLLBEIDL": true,
                "HCPFCAHMGMO": false,
                "OMCCMPHDLOO": "",
                "FEFNBKOHPOG": true,
                "OCFGGGHIKOO": "",
                "LJFHGGJDPHH": "",
                "LPKDFKLNEHL": ""
            },
            {
                "$type": "MOOOKOKLLEI",
                "type": "CAMERA_MOVE",
                "delayTime": 1.600000023841858,
                "duration": 5.0,
                "actionId": 213,
                "DOKGBCKOLJK": {
                    "x": 4501.05419921875,
                    "y": 123.02400207519531,
                    "z": 4643.0380859375
                },
                "HGKCPMDICGG": {
                    "x": 4501.5849609375,
                    "y": 122.97599792480469,
                    "z": 4642.19189453125
                },
                "NDFGFJFGHKL": "EaseOutQuad",
                "IBCBGNHCICN": {},
                "BNBBLLBEIDL": true,
                "HCPFCAHMGMO": false,
                "OMCCMPHDLOO": "",
                "FEFNBKOHPOG": true,
                "OCFGGGHIKOO": "",
                "LJFHGGJDPHH": "",
                "LPKDFKLNEHL": ""
            },
            {
                "$type": "ILCGAGEGDJI",
                "type": "BODY_LANG",
                "delayTime": 2.0,
                "aliasList": [
                    "1078"
                ],
                "actionId": 215,
                "JLABKFNJCNP": true,
                "PMJAMGLAJGK": true,
                "LIMPPBIAKGL": false,
                "FNEGLPPEBBF": true,
                "FNDLJGEAMGI": ""
            },
            {
                "$type": "ECLBLHOENAG",
                "type": "DIALOG_SELECT",
                "delayTime": 2.0999999046325684,
                "aliasList": [
                    "AvatarNpc"
                ],
                "actionId": 206,
                "NDMMOPDPKNF": [
                    140060202
                ],
                "FPDBIEGHMCD": [
                    2278585630
                ],
                "PKBOIGBGDEG": true,
                "GOJJPCDMMLN": 2278585626
            },
            {
                "$type": "ILCGAGEGDJI",
                "type": "BODY_LANG",
                "delayTime": 2.1689999103546143,
                "aliasList": [
                    "AvatarNpc"
                ],
                "actionId": 216,
                "FLBOOPHHFJP": 1030,
                "PMJAMGLAJGK": true,
                "LIMPPBIAKGL": false,
                "FNEGLPPEBBF": true,
                "FNDLJGEAMGI": ""
            }
        ],
        [
            {
                "$type": "MOOOKOKLLEI",
                "type": "CAMERA_MOVE",
                "duration": 0.5,
                "actionId": 161,
                "DOKGBCKOLJK": {
                    "x": 4502.5400390625,
                    "y": 125.26399993896484,
                    "z": 4640.0458984375
                },
                "HGKCPMDICGG": {
                    "x": 4503.0810546875,
                    "y": 125.1500015258789,
                    "z": 4639.2119140625
                },
                "AFODHELHCGB": 20.0,
                "MGMFMGNANHH": 6,
                "NDFGFJFGHKL": "EaseInOutCubic",
                "IBCBGNHCICN": {},
                "BNBBLLBEIDL": true,
                "HCPFCAHMGMO": false,
                "OMCCMPHDLOO": "",
                "FEFNBKOHPOG": true,
                "OCFGGGHIKOO": "",
                "LJFHGGJDPHH": "",
                "LPKDFKLNEHL": ""
            },
            {
                "$type": "MoleMole.Config.ConfigTeleportToAction",
                "type": "TELEPORT_TO",
                "aliasList": [
                    "Avatar"
                ],
                "actionId": 189,
                "flag": 4,
                "position": {
                    "x": 4502.01611328125,
                    "y": 121.60600280761719,
                    "z": 4639.22705078125
                },
                "forward": {
                    "x": 0.7239999771118164,
                    "z": -0.6899999976158142
                },
                "openLongDisTeleport": true,
                "syncForward": true,
                "posBindMovingTargetKey": "",
                "forwardBindMovingTargetKey": ""
            },
            {
                "$type": "MoleMole.Config.ConfigTeleportToAction",
                "type": "TELEPORT_TO",
                "aliasList": [
                    "AvatarNpc"
                ],
                "actionId": 167,
                "flag": 4,
                "position": {
                    "x": 4502.01611328125,
                    "y": 121.60600280761719,
                    "z": 4639.22705078125
                },
                "forward": {
                    "x": 0.7239999771118164,
                    "z": -0.6899999976158142
                },
                "openLongDisTeleport": true,
                "syncForward": true,
                "posBindMovingTargetKey": "",
                "forwardBindMovingTargetKey": ""
            },
            {
                "$type": "DLPFECMKEKH",
                "type": "DIALOG",
                "aliasList": [
                    "1078"
                ],
                "actionId": 110,
                "NMKEDPFEKBH": 140060203,
                "JLCHMAJCAPA": 1.5
            },
            {
                "$type": "OPCCDGPJCJI",
                "type": "EMO_SYNC",
                "aliasList": [
                    "1078"
                ],
                "actionId": 141,
                "flag": 256,
                "IONNJBCBACJ": "Cs_Emo_Avatar_Simple_Common_Set/Cs_Emo_Avatar_Talk/Cs_Emo_Avatar_PersonalLine/Cs_Emo_Avatar_Wriothesley/Cs_Emo_140060203",
                "HLEJKBCMNNJ": "",
                "JGHLJJLNGPP": "",
                "MANNKIIBOFM": "",
                "COMNAAFDEDH": "",
                "CPGCCLNOCDK": "",
                "IGEFGCJKCPM": [
                    12103048049620378690,
                    11289117618665625744,
                    6003718658897732936,
                    14792268817583369064
                ]
            },
            {
                "$type": "MOOOKOKLLEI",
                "type": "CAMERA_MOVE",
                "delayTime": 0.10000000149011612,
                "duration": 8.54699993133545,
                "actionId": 162,
                "DOKGBCKOLJK": {
                    "x": 4502.783203125,
                    "y": 125.21299743652344,
                    "z": 4639.6708984375
                },
                "HGKCPMDICGG": {
                    "x": 4503.32421875,
                    "y": 125.0989990234375,
                    "z": 4638.8369140625
                },
                "AFODHELHCGB": 20.0,
                "NDFGFJFGHKL": "EaseOutQuad",
                "IBCBGNHCICN": {},
                "BNBBLLBEIDL": true,
                "HCPFCAHMGMO": false,
                "OMCCMPHDLOO": "",
                "FEFNBKOHPOG": true,
                "OCFGGGHIKOO": "",
                "LJFHGGJDPHH": "",
                "LPKDFKLNEHL": ""
            },
            {
                "$type": "MoleMole.Config.ConfigTeleportToAction",
                "type": "TELEPORT_TO",
                "delayTime": 0.8970000147819519,
                "aliasList": [
                    "Avatar"
                ],
                "actionId": 203,
                "position": {
                    "x": 4501.26708984375,
                    "y": 121.60600280761719,
                    "z": 4637.94091796875
                },
                "forward": {
                    "x": 0.7239999771118164,
                    "z": -0.656000018119812
                },
                "openLongDisTeleport": true,
                "syncForward": true,
                "posBindMovingTargetKey": "",
                "forwardBindMovingTargetKey": ""
            },
            {
                "$type": "MoleMole.Config.ConfigTeleportToAction",
                "type": "TELEPORT_TO",
                "delayTime": 0.8970000147819519,
                "aliasList": [
                    "AvatarNpc"
                ],
                "actionId": 195,
                "position": {
                    "x": 4501.26708984375,
                    "y": 121.60600280761719,
                    "z": 4637.94091796875
                },
                "forward": {
                    "x": 0.7239999771118164,
                    "z": -0.656000018119812
                },
                "openLongDisTeleport": true,
                "syncForward": true,
                "posBindMovingTargetKey": "",
                "forwardBindMovingTargetKey": ""
            },
            {
                "$type": "MoleMole.Config.ConfigTeleportToAction",
                "type": "TELEPORT_TO",
                "delayTime": 0.9829999804496765,
                "aliasList": [
                    "1078"
                ],
                "actionId": 196,
                "position": {
                    "x": 4502.0390625,
                    "y": 121.5999984741211,
                    "z": 4638.73876953125
                },
                "forward": {
                    "x": 1.100000023841858,
                    "z": -0.9480000138282776
                },
                "openLongDisTeleport": true,
                "syncForward": true,
                "posBindMovingTargetKey": "",
                "forwardBindMovingTargetKey": ""
            },
            {
                "$type": "EAMBKPBOPIC",
                "type": "LOOK_AT",
                "delayTime": 1.0520000457763672,
                "aliasList": [
                    "1078"
                ],
                "actionId": 201,
                "flag": 64,
                "FIDJDPAIFDN": true,
                "useTargetPos": true,
                "GFKIMGBGADJ": true,
                "GMKIJKADNHN": {
                    "x": 4506.18603515625,
                    "y": 124.27400207519531,
                    "z": 4633.91015625
                },
                "BCHGCKLKNEH": 0.5,
                "OMCCMPHDLOO": "",
                "CEBMBGKJACI": "NONE",
                "EOHIIHMKDJC": true,
                "NALDAIJKCML": 10.0,
                "KPCALFDIHMC": "",
                "DBLNLMOPEBP": ""
            }
        ],
        [
            {
                "$type": "MOOOKOKLLEI",
                "type": "CAMERA_MOVE",
                "duration": 0.5,
                "actionId": 164,
                "DOKGBCKOLJK": {
                    "x": 4506.9091796875,
                    "y": 125.65399932861328,
                    "z": 4633.05322265625
                },
                "HGKCPMDICGG": {
                    "x": 4506.28515625,
                    "y": 125.2020034790039,
                    "z": 4633.68994140625
                },
                "AFODHELHCGB": 40.0,
                "MGMFMGNANHH": 6,
                "NDFGFJFGHKL": "EaseInOutCubic",
                "IBCBGNHCICN": {},
                "BNBBLLBEIDL": true,
                "NHNPMMBMCFC": 0.0010000000474974513,
                "HCPFCAHMGMO": false,
                "OMCCMPHDLOO": "",
                "FEFNBKOHPOG": true,
                "OCFGGGHIKOO": "",
                "LJFHGGJDPHH": "",
                "LPKDFKLNEHL": ""
            },
            {
                "$type": "EAMBKPBOPIC",
                "type": "LOOK_AT",
                "aliasList": [
                    "AvatarNpc"
                ],
                "actionId": 168,
                "flag": 64,
                "FIDJDPAIFDN": true,
                "useTargetPos": true,
                "GFKIMGBGADJ": true,
                "GMKIJKADNHN": {
                    "x": 4502.10888671875,
                    "y": 123.23799896240234,
                    "z": 4638.68896484375
                },
                "BCHGCKLKNEH": 0.5,
                "OMCCMPHDLOO": "",
                "CEBMBGKJACI": "NONE",
                "EOHIIHMKDJC": true,
                "NALDAIJKCML": 10.0,
                "KPCALFDIHMC": "",
                "DBLNLMOPEBP": ""
            },
            {
                "$type": "CJKIHIFAALJ",
                "type": "LOOK_AT_EYECTRL",
                "aliasList": [
                    "AvatarNpc"
                ],
                "actionId": 197,
                "flag": 576,
                "useTargetPos": false,
                "KOPLMCFNFEH": {
                    "x": -3.0
                },
                "DONDAIFPGMK": {
                    "x": -3.0
                },
                "BJMEKPDGMPA": 0.20000000298023224,
                "OMCCMPHDLOO": "",
                "OPPBKKOPIOB": "Face"
            },
            {
                "$type": "DLPFECMKEKH",
                "type": "DIALOG",
                "aliasList": [
                    "1078"
                ],
                "actionId": 112,
                "NMKEDPFEKBH": 140060204,
                "JLCHMAJCAPA": 1.5069999694824219
            },
            {
                "$type": "OPCCDGPJCJI",
                "type": "EMO_SYNC",
                "aliasList": [
                    "1078"
                ],
                "actionId": 142,
                "flag": 256,
                "IONNJBCBACJ": "Cs_Emo_Avatar_Simple_Common_Set/Cs_Emo_Avatar_Talk/Cs_Emo_Avatar_PersonalLine/Cs_Emo_Avatar_Wriothesley/Cs_Emo_140060204",
                "HLEJKBCMNNJ": "",
                "JGHLJJLNGPP": "",
                "MANNKIIBOFM": "",
                "COMNAAFDEDH": "",
                "CPGCCLNOCDK": "",
                "IGEFGCJKCPM": [
                    16031869995171782411,
                    11995316420110613006,
                    2983016735336345413,
                    14786561072248064541
                ]
            },
            {
                "$type": "EAMBKPBOPIC",
                "type": "LOOK_AT",
                "aliasList": [
                    "1078"
                ],
                "actionId": 200,
                "flag": 64,
                "FIDJDPAIFDN": true,
                "useTargetPos": true,
                "GFKIMGBGADJ": true,
                "GMKIJKADNHN": {
                    "x": 4506.18603515625,
                    "y": 124.27400207519531,
                    "z": 4633.91015625
                },
                "BCHGCKLKNEH": 0.5,
                "OMCCMPHDLOO": "",
                "CEBMBGKJACI": "NONE",
                "EOHIIHMKDJC": true,
                "NALDAIJKCML": 10.0,
                "KPCALFDIHMC": "",
                "DBLNLMOPEBP": ""
            },
            {
                "$type": "MOOOKOKLLEI",
                "type": "CAMERA_MOVE",
                "delayTime": 0.10000000149011612,
                "duration": 10.605999946594238,
                "actionId": 165,
                "DOKGBCKOLJK": {
                    "x": 4506.69189453125,
                    "y": 125.49700164794922,
                    "z": 4633.27392578125
                },
                "HGKCPMDICGG": {
                    "x": 4506.06689453125,
                    "y": 125.04499816894531,
                    "z": 4633.912109375
                },
                "AFODHELHCGB": 40.0,
                "NDFGFJFGHKL": "EaseOutQuad",
                "IBCBGNHCICN": {},
                "BNBBLLBEIDL": true,
                "NHNPMMBMCFC": 0.0010000000474974513,
                "HCPFCAHMGMO": false,
                "OMCCMPHDLOO": "",
                "FEFNBKOHPOG": true,
                "OCFGGGHIKOO": "",
                "LJFHGGJDPHH": "",
                "LPKDFKLNEHL": ""
            },
            {
                "$type": "ECLBLHOENAG",
                "type": "DIALOG_SELECT",
                "delayTime": 0.4000000059604645,
                "aliasList": [
                    "AvatarNpc"
                ],
                "actionId": 128,
                "NDMMOPDPKNF": [
                    140060205
                ],
                "FPDBIEGHMCD": [
                    2278585632
                ],
                "PKBOIGBGDEG": true,
                "GOJJPCDMMLN": 2278585626
            },
            {
                "$type": "EAMBKPBOPIC",
                "type": "LOOK_AT",
                "delayTime": 3.505000114440918,
                "aliasList": [
                    "AvatarNpc"
                ],
                "actionId": 169,
                "flag": 64,
                "FIDJDPAIFDN": true,
                "useTargetPos": true,
                "GFKIMGBGADJ": true,
                "GMKIJKADNHN": {
                    "x": 4506.18603515625,
                    "y": 124.27400207519531,
                    "z": 4633.60205078125
                },
                "BCHGCKLKNEH": 0.5,
                "OMCCMPHDLOO": "",
                "CEBMBGKJACI": "NONE",
                "EOHIIHMKDJC": true,
                "NALDAIJKCML": 10.0,
                "KPCALFDIHMC": "",
                "DBLNLMOPEBP": ""
            },
            {
                "$type": "CJKIHIFAALJ",
                "type": "LOOK_AT_EYECTRL",
                "delayTime": 3.5269999504089355,
                "aliasList": [
                    "AvatarNpc"
                ],
                "actionId": 198,
                "flag": 576,
                "useTargetPos": false,
                "BJMEKPDGMPA": 0.20000000298023224,
                "OMCCMPHDLOO": "",
                "OPPBKKOPIOB": "Face"
            },
            {
                "$type": "ILCGAGEGDJI",
                "type": "BODY_LANG",
                "delayTime": 3.9010000228881836,
                "aliasList": [
                    "AvatarNpc"
                ],
                "actionId": 170,
                "FLBOOPHHFJP": 1230,
                "PMJAMGLAJGK": true,
                "LIMPPBIAKGL": false,
                "FNEGLPPEBBF": true,
                "FNDLJGEAMGI": ""
            }
        ],
        [
            {
                "$type": "MOOOKOKLLEI",
                "type": "CAMERA_MOVE",
                "duration": 0.5,
                "actionId": 178,
                "DOKGBCKOLJK": {
                    "x": 4501.54296875,
                    "y": 122.97200012207031,
                    "z": 4637.80322265625
                },
                "HGKCPMDICGG": {
                    "x": 4502.01220703125,
                    "y": 122.97799682617188,
                    "z": 4638.68701171875
                },
                "AFODHELHCGB": 20.0,
                "MGMFMGNANHH": 6,
                "NDFGFJFGHKL": "EaseInOutCubic",
                "IBCBGNHCICN": {},
                "BNBBLLBEIDL": true,
                "NHNPMMBMCFC": 0.0010000000474974513,
                "HCPFCAHMGMO": false,
                "OMCCMPHDLOO": "",
                "FEFNBKOHPOG": true,
                "OCFGGGHIKOO": "",
                "LJFHGGJDPHH": "",
                "LPKDFKLNEHL": ""
            },
            {
                "$type": "MoleMole.Config.ConfigTeleportToAction",
                "type": "TELEPORT_TO",
                "aliasList": [
                    "Avatar"
                ],
                "actionId": 204,
                "position": {
                    "x": 4502.01611328125,
                    "y": 121.60600280761719,
                    "z": 4639.22705078125
                },
                "forward": {
                    "x": 0.7239999771118164,
                    "z": -0.6899999976158142
                },
                "openLongDisTeleport": true,
                "syncForward": true,
                "posBindMovingTargetKey": "",
                "forwardBindMovingTargetKey": ""
            },
            {
                "$type": "ILCGAGEGDJI",
                "type": "BODY_LANG",
                "aliasList": [
                    "AvatarNpc"
                ],
                "actionId": 174,
                "JLABKFNJCNP": true,
                "PMJAMGLAJGK": true,
                "LIMPPBIAKGL": false,
                "FNEGLPPEBBF": true,
                "FNDLJGEAMGI": ""
            },
            {
                "$type": "MoleMole.Config.ConfigTeleportToAction",
                "type": "TELEPORT_TO",
                "aliasList": [
                    "AvatarNpc"
                ],
                "actionId": 192,
                "position": {
                    "x": 4502.01611328125,
                    "y": 121.60600280761719,
                    "z": 4639.22705078125
                },
                "forward": {
                    "x": 0.7239999771118164,
                    "z": -0.6899999976158142
                },
                "openLongDisTeleport": true,
                "syncForward": true,
                "posBindMovingTargetKey": "",
                "forwardBindMovingTargetKey": ""
            },
            {
                "$type": "CJKIHIFAALJ",
                "type": "LOOK_AT_EYECTRL",
                "aliasList": [
                    "AvatarNpc"
                ],
                "actionId": 199,
                "flag": 576,
                "useTargetPos": false,
                "BJMEKPDGMPA": 0.20000000298023224,
                "OMCCMPHDLOO": "",
                "OPPBKKOPIOB": "Face"
            },
            {
                "$type": "EAMBKPBOPIC",
                "type": "LOOK_AT",
                "aliasList": [
                    "AvatarNpc"
                ],
                "actionId": 202,
                "flag": 64,
                "FIDJDPAIFDN": true,
                "useTargetPos": true,
                "GFKIMGBGADJ": true,
                "GMKIJKADNHN": {
                    "x": 4506.18603515625,
                    "y": 124.27400207519531,
                    "z": 4633.60205078125
                },
                "BCHGCKLKNEH": 0.5,
                "OMCCMPHDLOO": "",
                "CEBMBGKJACI": "NONE",
                "EOHIIHMKDJC": true,
                "NALDAIJKCML": 10.0,
                "KPCALFDIHMC": "",
                "DBLNLMOPEBP": ""
            },
            {
                "$type": "DLPFECMKEKH",
                "type": "DIALOG",
                "aliasList": [
                    "1078"
                ],
                "actionId": 115,
                "NMKEDPFEKBH": 140060206,
                "JLCHMAJCAPA": 1.8630000352859497
            },
            {
                "$type": "OPCCDGPJCJI",
                "type": "EMO_SYNC",
                "aliasList": [
                    "1078"
                ],
                "actionId": 143,
                "flag": 256,
                "IONNJBCBACJ": "Cs_Emo_Avatar_Simple_Common_Set/Cs_Emo_Avatar_Talk/Cs_Emo_Avatar_PersonalLine/Cs_Emo_Avatar_Wriothesley/Cs_Emo_140060206",
                "HLEJKBCMNNJ": "",
                "JGHLJJLNGPP": "",
                "MANNKIIBOFM": "",
                "COMNAAFDEDH": "",
                "CPGCCLNOCDK": "",
                "IGEFGCJKCPM": [
                    3998831889226079840,
                    4180322456844445713,
                    3510941309666719595,
                    12284414191085476409
                ]
            },
            {
                "$type": "ILCGAGEGDJI",
                "type": "BODY_LANG",
                "aliasList": [
                    "1078"
                ],
                "actionId": 173,
                "JLABKFNJCNP": true,
                "PMJAMGLAJGK": true,
                "LIMPPBIAKGL": false,
                "FNEGLPPEBBF": true,
                "FNDLJGEAMGI": ""
            },
            {
                "$type": "MoleMole.Config.ConfigTeleportToAction",
                "type": "TELEPORT_TO",
                "aliasList": [
                    "1078"
                ],
                "actionId": 193,
                "position": {
                    "x": 4503.451171875,
                    "y": 121.5999984741211,
                    "z": 4640.5390625
                },
                "forward": {
                    "x": 0.46000000834465027,
                    "z": -0.8880000114440918
                },
                "openLongDisTeleport": true,
                "syncForward": true,
                "posBindMovingTargetKey": "",
                "forwardBindMovingTargetKey": ""
            },
            {
                "$type": "MOOOKOKLLEI",
                "type": "CAMERA_MOVE",
                "delayTime": 0.10000000149011612,
                "duration": 9.006999969482422,
                "actionId": 179,
                "DOKGBCKOLJK": {
                    "x": 4501.57421875,
                    "y": 122.96800231933594,
                    "z": 4637.787109375
                },
                "HGKCPMDICGG": {
                    "x": 4502.0419921875,
                    "y": 122.9739990234375,
                    "z": 4638.669921875
                },
                "AFODHELHCGB": 20.0,
                "NDFGFJFGHKL": "EaseOutQuad",
                "IBCBGNHCICN": {},
                "BNBBLLBEIDL": true,
                "NHNPMMBMCFC": 0.0010000000474974513,
                "HCPFCAHMGMO": false,
                "OMCCMPHDLOO": "",
                "FEFNBKOHPOG": true,
                "OCFGGGHIKOO": "",
                "LJFHGGJDPHH": "",
                "LPKDFKLNEHL": ""
            },
            {
                "$type": "EAMBKPBOPIC",
                "type": "LOOK_AT",
                "delayTime": 0.13600000739097595,
                "aliasList": [
                    "1078"
                ],
                "actionId": 172,
                "flag": 64,
                "FIDJDPAIFDN": true,
                "useTargetPos": true,
                "GFKIMGBGADJ": true,
                "GMKIJKADNHN": {
                    "x": 4502.1162109375,
                    "y": 123.0260009765625,
                    "z": 4639.22998046875
                },
                "BCHGCKLKNEH": 0.5,
                "OMCCMPHDLOO": "",
                "CEBMBGKJACI": "NONE",
                "EOHIIHMKDJC": true,
                "NALDAIJKCML": 10.0,
                "KPCALFDIHMC": "",
                "DBLNLMOPEBP": ""
            },
            {
                "$type": "OOMFCPJAJGL",
                "type": "STEER_TO",
                "delayTime": 0.39100000262260437,
                "duration": 1.0,
                "aliasList": [
                    "1078"
                ],
                "actionId": 171,
                "flag": 32,
                "DMGIIHNDNLC": "ABSOLUTE",
                "PLAPKCOMAKJ": {
                    "x": 4502.8310546875,
                    "y": 121.5999984741211,
                    "z": 4639.248046875
                },
                "HCMINPNPFDF": true,
                "PENAEBFAHCH": true,
                "CKOEAJFMDON": true,
                "OMCCMPHDLOO": "",
                "AKKPIOCLGOP": true,
                "PPGPCHDAOJG": true,
                "DBLNLMOPEBP": ""
            },
            {
                "$type": "EAMBKPBOPIC",
                "type": "LOOK_AT",
                "delayTime": 0.6039999723434448,
                "aliasList": [
                    "AvatarNpc"
                ],
                "actionId": 176,
                "flag": 64,
                "FIDJDPAIFDN": true,
                "useTargetPos": true,
                "GFKIMGBGADJ": true,
                "GMKIJKADNHN": {
                    "x": 4503.43701171875,
                    "y": 123.2509994506836,
                    "z": 4640.5322265625
                },
                "BCHGCKLKNEH": 0.5,
                "OMCCMPHDLOO": "",
                "CEBMBGKJACI": "NONE",
                "EOHIIHMKDJC": true,
                "NALDAIJKCML": 10.0,
                "KPCALFDIHMC": "",
                "DBLNLMOPEBP": ""
            },
            {
                "$type": "OOMFCPJAJGL",
                "type": "STEER_TO",
                "delayTime": 0.8289999961853027,
                "duration": 1.0,
                "aliasList": [
                    "AvatarNpc"
                ],
                "actionId": 175,
                "flag": 32,
                "DMGIIHNDNLC": "ABSOLUTE",
                "PLAPKCOMAKJ": {
                    "x": 4502.93017578125,
                    "y": 121.5999984741211,
                    "z": 4639.93505859375
                },
                "HCMINPNPFDF": true,
                "PENAEBFAHCH": true,
                "CKOEAJFMDON": true,
                "OMCCMPHDLOO": "",
                "AKKPIOCLGOP": true,
                "PPGPCHDAOJG": true,
                "DBLNLMOPEBP": ""
            },
            {
                "$type": "ILCGAGEGDJI",
                "type": "BODY_LANG",
                "delayTime": 1.6629999876022339,
                "aliasList": [
                    "1078"
                ],
                "actionId": 177,
                "FLBOOPHHFJP": 1172,
                "PMJAMGLAJGK": true,
                "LIMPPBIAKGL": false,
                "FNEGLPPEBBF": true,
                "FNDLJGEAMGI": ""
            }
        ],
        [
            {
                "$type": "MOOOKOKLLEI",
                "type": "CAMERA_MOVE",
                "duration": 0.5,
                "actionId": 182,
                "DOKGBCKOLJK": {
                    "x": 4506.35888671875,
                    "y": 128.32899475097656,
                    "z": 4640.1318359375
                },
                "HGKCPMDICGG": {
                    "x": 4506.37890625,
                    "y": 127.85900115966797,
                    "z": 4639.25
                },
                "AFODHELHCGB": 20.0,
                "MGMFMGNANHH": 6,
                "NDFGFJFGHKL": "EaseInOutCubic",
                "IBCBGNHCICN": {},
                "BNBBLLBEIDL": true,
                "NHNPMMBMCFC": 0.0010000000474974513,
                "HCPFCAHMGMO": false,
                "OMCCMPHDLOO": "",
                "FEFNBKOHPOG": true,
                "OCFGGGHIKOO": "",
                "LJFHGGJDPHH": "",
                "LPKDFKLNEHL": ""
            },
            {
                "$type": "MoleMole.Config.ConfigTeleportToAction",
                "type": "TELEPORT_TO",
                "aliasList": [
                    "Avatar"
                ],
                "actionId": 190,
                "position": {
                    "x": 4502.01611328125,
                    "y": 121.60600280761719,
                    "z": 4639.22705078125
                },
                "forward": {
                    "x": 0.7910000085830688,
                    "z": 0.6119999885559082
                },
                "openLongDisTeleport": true,
                "syncForward": true,
                "posBindMovingTargetKey": "",
                "forwardBindMovingTargetKey": ""
            },
            {
                "$type": "MoleMole.Config.ConfigTeleportToAction",
                "type": "TELEPORT_TO",
                "aliasList": [
                    "AvatarNpc"
                ],
                "actionId": 180,
                "position": {
                    "x": 4502.01611328125,
                    "y": 121.60600280761719,
                    "z": 4639.22705078125
                },
                "forward": {
                    "x": 0.7910000085830688,
                    "z": 0.6119999885559082
                },
                "openLongDisTeleport": true,
                "syncForward": true,
                "posBindMovingTargetKey": "",
                "forwardBindMovingTargetKey": ""
            },
            {
                "$type": "DLPFECMKEKH",
                "type": "DIALOG",
                "aliasList": [
                    "1078"
                ],
                "actionId": 117,
                "NMKEDPFEKBH": 140060207,
                "JLCHMAJCAPA": 0.5
            },
            {
                "$type": "OPCCDGPJCJI",
                "type": "EMO_SYNC",
                "aliasList": [
                    "1078"
                ],
                "actionId": 144,
                "flag": 256,
                "IONNJBCBACJ": "Cs_Emo_Avatar_Simple_Common_Set/Cs_Emo_Avatar_Talk/Cs_Emo_Avatar_PersonalLine/Cs_Emo_Avatar_Wriothesley/Cs_Emo_140060207",
                "HLEJKBCMNNJ": "",
                "JGHLJJLNGPP": "",
                "MANNKIIBOFM": "",
                "COMNAAFDEDH": "",
                "CPGCCLNOCDK": "",
                "IGEFGCJKCPM": [
                    9278522153655667657,
                    14980482589591588397,
                    5048253006723163941,
                    5120420624541221190
                ]
            },
            {
                "$type": "MoleMole.Config.ConfigTeleportToAction",
                "type": "TELEPORT_TO",
                "aliasList": [
                    "1078"
                ],
                "actionId": 181,
                "position": {
                    "x": 4503.451171875,
                    "y": 121.5999984741211,
                    "z": 4640.5390625
                },
                "forward": {
                    "x": -0.43299999833106995,
                    "z": -0.9010000228881836
                },
                "openLongDisTeleport": true,
                "syncForward": true,
                "posBindMovingTargetKey": "",
                "forwardBindMovingTargetKey": ""
            },
            {
                "$type": "MOOOKOKLLEI",
                "type": "CAMERA_MOVE",
                "delayTime": 0.10000000149011612,
                "duration": 9.781000137329102,
                "actionId": 183,
                "DOKGBCKOLJK": {
                    "x": 4506.2021484375,
                    "y": 128.3419952392578,
                    "z": 4640.119140625
                },
                "HGKCPMDICGG": {
                    "x": 4506.2470703125,
                    "y": 127.87100219726562,
                    "z": 4639.23779296875
                },
                "AFODHELHCGB": 20.0,
                "NDFGFJFGHKL": "EaseOutQuad",
                "IBCBGNHCICN": {},
                "BNBBLLBEIDL": true,
                "NHNPMMBMCFC": 0.0010000000474974513,
                "HCPFCAHMGMO": false,
                "OMCCMPHDLOO": "",
                "FEFNBKOHPOG": true,
                "OCFGGGHIKOO": "",
                "LJFHGGJDPHH": "",
                "LPKDFKLNEHL": ""
            }
        ],
        [
            {
                "$type": "MOOOKOKLLEI",
                "type": "CAMERA_MOVE",
                "duration": 0.5,
                "actionId": 186,
                "DOKGBCKOLJK": {
                    "x": 4502.5048828125,
                    "y": 122.67400360107422,
                    "z": 4638.9677734375
                },
                "HGKCPMDICGG": {
                    "x": 4503.01123046875,
                    "y": 122.94599914550781,
                    "z": 4639.787109375
                },
                "AFODHELHCGB": 15.0,
                "MGMFMGNANHH": 6,
                "NDFGFJFGHKL": "EaseInOutCubic",
                "IBCBGNHCICN": {},
                "BNBBLLBEIDL": true,
                "NHNPMMBMCFC": 0.0010000000474974513,
                "HCPFCAHMGMO": false,
                "OMCCMPHDLOO": "",
                "FEFNBKOHPOG": true,
                "OCFGGGHIKOO": "",
                "LJFHGGJDPHH": "",
                "LPKDFKLNEHL": ""
            },
            {
                "$type": "DLPFECMKEKH",
                "type": "DIALOG",
                "aliasList": [
                    "1078"
                ],
                "actionId": 119,
                "NMKEDPFEKBH": 140060208,
                "JLCHMAJCAPA": 0.5
            },
            {
                "$type": "OPCCDGPJCJI",
                "type": "EMO_SYNC",
                "aliasList": [
                    "1078"
                ],
                "actionId": 145,
                "flag": 320,
                "IONNJBCBACJ": "Cs_Emo_Avatar_Simple_Common_Set/Cs_Emo_Avatar_Talk/Cs_Emo_Avatar_PersonalLine/Cs_Emo_Avatar_Wriothesley/Cs_Emo_140060208",
                "HLEJKBCMNNJ": "",
                "JGHLJJLNGPP": "",
                "MANNKIIBOFM": "",
                "COMNAAFDEDH": "",
                "CPGCCLNOCDK": "",
                "IGEFGCJKCPM": [
                    3161284637396017508,
                    507801505523237143,
                    5272621119949149836,
                    12859388880567953691
                ]
            },
            {
                "$type": "ILCGAGEGDJI",
                "type": "BODY_LANG",
                "aliasList": [
                    "1078"
                ],
                "actionId": 185,
                "FLBOOPHHFJP": 1120,
                "PMJAMGLAJGK": true,
                "LIMPPBIAKGL": false,
                "FNEGLPPEBBF": true,
                "FNDLJGEAMGI": ""
            },
            {
                "$type": "MOOOKOKLLEI",
                "type": "CAMERA_MOVE",
                "delayTime": 0.10000000149011612,
                "duration": 5.0,
                "actionId": 187,
                "DOKGBCKOLJK": {
                    "x": 4502.5009765625,
                    "y": 122.71299743652344,
                    "z": 4638.95703125
                },
                "HGKCPMDICGG": {
                    "x": 4503.0068359375,
                    "y": 122.98500061035156,
                    "z": 4639.77587890625
                },
                "AFODHELHCGB": 15.0,
                "NDFGFJFGHKL": "EaseOutQuad",
                "IBCBGNHCICN": {},
                "BNBBLLBEIDL": true,
                "NHNPMMBMCFC": 0.0010000000474974513,
                "HCPFCAHMGMO": false,
                "OMCCMPHDLOO": "",
                "FEFNBKOHPOG": true,
                "OCFGGGHIKOO": "",
                "LJFHGGJDPHH": "",
                "LPKDFKLNEHL": ""
            }
        ],
        [
            {
                "$type": "MoleMole.Config.ConfigTimeProtectAction",
                "type": "TIME_PROTECT",
                "duration": 0.10000000149011612,
                "actionId": 105
            },
            {
                "$type": "MoleMole.Config.ConfigSimpleBlackScreenAction",
                "type": "SIMPLE_BLACK_SCREEN",
                "actionId": 120,
                "durationToBlack": 0.5,
                "durationKeepBlack": 1.5,
                "durationFromBlack": 0.5,
                "textMapID": ""
            },
            {
                "$type": "MoleMole.Config.ConfigTimeProtectAction",
                "type": "TIME_PROTECT",
                "duration": 0.699999988079071,
                "actionId": 121
            },
            {
                "$type": "MOOOKOKLLEI",
                "type": "CAMERA_MOVE",
                "delayTime": 0.5,
                "duration": 0.10000000149011612,
                "actionId": 126,
                "IPHEFBOANAL": "EXIT",
                "HGKCPMDICGG": {
                    "z": 1.0
                },
                "AFODHELHCGB": 30.0,
                "MGMFMGNANHH": 5,
                "NDFGFJFGHKL": "EaseInOutCubic",
                "IBCBGNHCICN": {},
                "HCPFCAHMGMO": false,
                "OMCCMPHDLOO": "",
                "FEFNBKOHPOG": true,
                "OCFGGGHIKOO": "",
                "LJFHGGJDPHH": "",
                "LPKDFKLNEHL": ""
            },
            {
                "$type": "MoleMole.Config.ConfigVisibleInterAction",
                "type": "VISIBLE",
                "delayTime": 0.6000000238418579,
                "aliasList": [
                    "Avatar"
                ],
                "actionId": 133,
                "isVisible": true,
                "extraParam": ""
            },
            {
                "$type": "ILCGAGEGDJI",
                "type": "BODY_LANG",
                "delayTime": 0.6000000238418579,
                "aliasList": [
                    "AvatarNpc"
                ],
                "actionId": 132,
                "JLABKFNJCNP": true,
                "PMJAMGLAJGK": true,
                "LIMPPBIAKGL": false,
                "FNDLJGEAMGI": ""
            },
            {
                "$type": "MoleMole.Config.ConfigVisibleInterAction",
                "type": "VISIBLE",
                "delayTime": 0.6000000238418579,
                "aliasList": [
                    "AvatarNpc"
                ],
                "actionId": 191,
                "extraParam": ""
            },
            {
                "$type": "ILCGAGEGDJI",
                "type": "BODY_LANG",
                "delayTime": 0.6000000238418579,
                "aliasList": [
                    "1078"
                ],
                "actionId": 123,
                "JLABKFNJCNP": true,
                "PMJAMGLAJGK": true,
                "LIMPPBIAKGL": false,
                "FNDLJGEAMGI": ""
            }
        ]
    ],
    "groupId": [
        {
            "grpId": 2278585627,
            "nextGrpId": 2278585628
        },
        {
            "index": 1,
            "grpId": 2278585628,
            "nextGrpId": 2278585629
        },
        {
            "index": 2,
            "grpId": 2278585629,
            "nextGrpId": 2278585630
        },
        {
            "index": 3,
            "grpId": 2278585630,
            "nextGrpId": 2278585631
        },
        {
            "index": 4,
            "grpId": 2278585631,
            "nextGrpId": 2278585632
        },
        {
            "index": 5,
            "grpId": 2278585632,
            "nextGrpId": 2278585633
        },
        {
            "index": 6,
            "grpId": 2278585633,
            "nextGrpId": 2278585634
        },
        {
            "index": 7,
            "grpId": 2278585634,
            "nextGrpId": 2278585635
        },
        {
            "index": 8,
            "grpId": 2278585635,
            "nextGrpId": 1916677749
        }
    ],
    "freeStyleDic": {
        "1025": [
            1030,
            1230
        ],
        "1026": [
            1030,
            1230
        ],
        "1078": [
            1120,
            1121,
            1172
        ]
    },
    "NKMHEOFLONH": {
        "AvatarNpc": [
            "SitChat01AS",
            "SitHoldArm01AS",
            "SitShrug01AS",
            "SitThink01AS"
        ],
        "1078": [
            "SitChat01AS",
            "SitHoldArm01AS",
            "SitPutArm01AS",
            "SitRead01AS",
            "SitShrug01AS",
            "SitSpecial02AS",
            "SitThink01AS"
        ]
    }
}