[
    {
        "Default": {
            "$type": "ConfigAbility",
            "abilityName": "DebugTest_AbilityPropData_01",
            "modifiers": {
                "DebugTest_AbilityPropData_01": {
                    "modifierName": "",
                    "duration": 100.0,
                    "bonusCriticalHurt": 100.0,
                    "properties": {
                        "Actor_MaxHPRatio": 6.0,
                        "Actor_DefenceRatio": 6.0,
                        "Actor_AttackRatio": 6.0,
                        "Actor_CriticalDelta": 2.0199999809265137,
                        "Actor_AntiCriticalDelta": 2.0,
                        "Actor_CriticalHurtDelta": 6.0,
                        "Actor_ChargeEfficiencyDelta": 2.0,
                        "Actor_AddHurtDelta": 6.0,
                        "Actor_SubHurtDelta": 1.899999976158142,
                        "Actor_HealAddDelta": 6.0,
                        "Actor_HealedAddDelta": 6.0,
                        "Actor_FireAddHurtDelta": 6.0,
                        "Actor_ElecAddHurtDelta": 6.0,
                        "Actor_WaterAddHurtDelta": 6.0,
                        "Actor_GrassAddHurtDelta": 6.0,
                        "Actor_WindAddHurtDelta": 6.0,
                        "Actor_IceAddHurtDelta": 6.0,
                        "Actor_RockAddHurtDelta": 6.0,
                        "Actor_PhysicalAddHurtDelta": 6.0,
                        "Actor_FireSubHurtDelta": 2.0,
                        "Actor_ElecSubHurtDelta": 2.0,
                        "Actor_WaterSubHurtDelta": 2.0,
                        "Actor_GrassSubHurtDelta": 2.0,
                        "Actor_WindSubHurtDelta": 2.0,
                        "Actor_IceSubHurtDelta": 2.0,
                        "Actor_RockSubHurtDelta": 2.0,
                        "Actor_PhysicalSubHurtDelta": 2.0,
                        "Actor_AddGravityScale": 198.0,
                        "Actor_SkillCDMinusRatio": 1.600000023841858,
                        "Actor_ShieldCostMinusRatio": 1.600000023841858,
                        "Entity_ChargeSpeedRatioDelta": 20.0,
                        "Entity_MassRatio": 20000.0,
                        "Entity_WeightRatio": 20000.0,
                        "Animator_MoveSpeedRatio": 20.0,
                        "Actor_AniDamageDelta": 0.0,
                        "Actor_EndureDelta": 0.0,
                        "Actor_HitHeadDmgRatio": 6.0
                    },
                    "onAdded": [
                        {
                            "$type": "DebugLog",
                            "content": "AAAAAAAAAAAAAAAAAddTestBuff________________________________DebugTest_AbilityPropData_0101010101010101010101"
                        }
                    ],
                    "onRemoved": [
                        {
                            "$type": "DebugLog",
                            "content": "RRRRRRRRRRRRRemovedTestBuff________________________________DebugTest_AbilityPropData_0101010101010101010101"
                        }
                    ],
                    "isLimitedProperties": true
                }
            },
            "onAbilityStart": [
                {
                    "$type": "ApplyModifier",
                    "PositionDampTime": true,
                    "modifierName": "DebugTest_AbilityPropData_01"
                }
            ]
        }
    },
    {
        "Default": {
            "$type": "ConfigAbility",
            "abilityName": "DebugTest_AbilityPropData_02",
            "modifiers": {
                "DebugTest_AbilityPropData_02": {
                    "modifierName": "",
                    "duration": 100.0,
                    "bonusCriticalHurt": 100.0,
                    "properties": {
                        "Actor_MaxHPRatio": 6.0,
                        "Actor_DefenceRatio": 6.0,
                        "Actor_AttackRatio": 6.0,
                        "Actor_CriticalDelta": 2.0199999809265137,
                        "Actor_AntiCriticalDelta": 2.0,
                        "Actor_CriticalHurtDelta": 6.0,
                        "Actor_ChargeEfficiencyDelta": 2.0,
                        "Actor_AddHurtDelta": 6.0,
                        "Actor_SubHurtDelta": 1.899999976158142,
                        "Actor_HealAddDelta": 6.0,
                        "Actor_HealedAddDelta": 6.0,
                        "Actor_FireAddHurtDelta": 6.0,
                        "Actor_ElecAddHurtDelta": 6.0,
                        "Actor_WaterAddHurtDelta": 6.0,
                        "Actor_GrassAddHurtDelta": 6.0,
                        "Actor_WindAddHurtDelta": 6.0,
                        "Actor_IceAddHurtDelta": 6.0,
                        "Actor_RockAddHurtDelta": 6.0,
                        "Actor_PhysicalAddHurtDelta": 6.0,
                        "Actor_FireSubHurtDelta": 2.0,
                        "Actor_ElecSubHurtDelta": 2.0,
                        "Actor_WaterSubHurtDelta": 2.0,
                        "Actor_GrassSubHurtDelta": 2.0,
                        "Actor_WindSubHurtDelta": 2.0,
                        "Actor_IceSubHurtDelta": 2.0,
                        "Actor_RockSubHurtDelta": 2.0,
                        "Actor_PhysicalSubHurtDelta": 2.0,
                        "Actor_AddGravityScale": 198.0,
                        "Actor_SkillCDMinusRatio": 1.600000023841858,
                        "Actor_ShieldCostMinusRatio": 1.600000023841858,
                        "Entity_ChargeSpeedRatioDelta": 20.0,
                        "Entity_MassRatio": 20000.0,
                        "Entity_WeightRatio": 20000.0,
                        "Animator_MoveSpeedRatio": 20.0,
                        "Actor_AniDamageDelta": 0.0,
                        "Actor_EndureDelta": 0.0,
                        "Actor_HitHeadDmgRatio": 6.0
                    },
                    "onAdded": [
                        {
                            "$type": "DebugLog",
                            "content": "AAAAAAAAAAAAAAAAAddTestBuff________________________________DebugTest_AbilityPropData_0202020202020202020202"
                        }
                    ],
                    "onRemoved": [
                        {
                            "$type": "DebugLog",
                            "content": "RRRRRRRRRRRRRemovedTestBuff________________________________DebugTest_AbilityPropData_0202020202020202020202"
                        }
                    ],
                    "isLimitedProperties": true
                }
            },
            "onAbilityStart": [
                {
                    "$type": "ApplyModifier",
                    "PositionDampTime": true,
                    "modifierName": "DebugTest_AbilityPropData_02"
                }
            ]
        }
    },
    {
        "Default": {
            "$type": "ConfigAbility",
            "abilityName": "DebugTest_AbilityPropData_03",
            "modifiers": {
                "DebugTest_AbilityPropData_03": {
                    "modifierName": "",
                    "duration": 100.0,
                    "bonusCriticalHurt": 100.0,
                    "properties": {
                        "Actor_MaxHPRatio": 6.0,
                        "Actor_DefenceRatio": 6.0,
                        "Actor_AttackRatio": 6.0,
                        "Actor_CriticalDelta": 2.0199999809265137,
                        "Actor_AntiCriticalDelta": 2.0,
                        "Actor_CriticalHurtDelta": 6.0,
                        "Actor_ChargeEfficiencyDelta": 2.0,
                        "Actor_AddHurtDelta": 6.0,
                        "Actor_SubHurtDelta": 1.899999976158142,
                        "Actor_HealAddDelta": 6.0,
                        "Actor_HealedAddDelta": 6.0,
                        "Actor_FireAddHurtDelta": 6.0,
                        "Actor_ElecAddHurtDelta": 6.0,
                        "Actor_WaterAddHurtDelta": 6.0,
                        "Actor_GrassAddHurtDelta": 6.0,
                        "Actor_WindAddHurtDelta": 6.0,
                        "Actor_IceAddHurtDelta": 6.0,
                        "Actor_RockAddHurtDelta": 6.0,
                        "Actor_PhysicalAddHurtDelta": 6.0,
                        "Actor_FireSubHurtDelta": 2.0,
                        "Actor_ElecSubHurtDelta": 2.0,
                        "Actor_WaterSubHurtDelta": 2.0,
                        "Actor_GrassSubHurtDelta": 2.0,
                        "Actor_WindSubHurtDelta": 2.0,
                        "Actor_IceSubHurtDelta": 2.0,
                        "Actor_RockSubHurtDelta": 2.0,
                        "Actor_PhysicalSubHurtDelta": 2.0,
                        "Actor_AddGravityScale": 198.0,
                        "Actor_SkillCDMinusRatio": 1.600000023841858,
                        "Actor_ShieldCostMinusRatio": 1.600000023841858,
                        "Entity_ChargeSpeedRatioDelta": 20.0,
                        "Entity_MassRatio": 20000.0,
                        "Entity_WeightRatio": 20000.0,
                        "Animator_MoveSpeedRatio": 20.0,
                        "Actor_AniDamageDelta": 0.0,
                        "Actor_EndureDelta": 0.0,
                        "Actor_HitHeadDmgRatio": 6.0
                    },
                    "onAdded": [
                        {
                            "$type": "DebugLog",
                            "content": "AAAAAAAAAAAAAAAAAddTestBuff________________________________DebugTest_AbilityPropData_0303030303030303030303"
                        }
                    ],
                    "onRemoved": [
                        {
                            "$type": "DebugLog",
                            "content": "RRRRRRRRRRRRRemovedTestBuff________________________________DebugTest_AbilityPropData_0303030303030303030303"
                        }
                    ]
                }
            },
            "onAbilityStart": [
                {
                    "$type": "ApplyModifier",
                    "PositionDampTime": true,
                    "modifierName": "DebugTest_AbilityPropData_03"
                }
            ]
        }
    },
    {
        "Default": {
            "$type": "ConfigAbility",
            "abilityName": "DebugTest_AbilityPropData_04",
            "modifiers": {
                "DebugTest_AbilityPropData_04": {
                    "modifierName": "",
                    "duration": 100.0,
                    "bonusCriticalHurt": 100.0,
                    "properties": {
                        "Actor_MaxHPRatio": 6.0,
                        "Actor_DefenceRatio": 6.0,
                        "Actor_AttackRatio": 6.0,
                        "Actor_CriticalDelta": 2.0199999809265137,
                        "Actor_AntiCriticalDelta": 2.0,
                        "Actor_CriticalHurtDelta": 6.0,
                        "Actor_ChargeEfficiencyDelta": 2.0,
                        "Actor_AddHurtDelta": 6.0,
                        "Actor_SubHurtDelta": 1.899999976158142,
                        "Actor_HealAddDelta": 6.0,
                        "Actor_HealedAddDelta": 6.0,
                        "Actor_FireAddHurtDelta": 6.0,
                        "Actor_ElecAddHurtDelta": 6.0,
                        "Actor_WaterAddHurtDelta": 6.0,
                        "Actor_GrassAddHurtDelta": 6.0,
                        "Actor_WindAddHurtDelta": 6.0,
                        "Actor_IceAddHurtDelta": 6.0,
                        "Actor_RockAddHurtDelta": 6.0,
                        "Actor_PhysicalAddHurtDelta": 6.0,
                        "Actor_FireSubHurtDelta": 2.0,
                        "Actor_ElecSubHurtDelta": 2.0,
                        "Actor_WaterSubHurtDelta": 2.0,
                        "Actor_GrassSubHurtDelta": 2.0,
                        "Actor_WindSubHurtDelta": 2.0,
                        "Actor_IceSubHurtDelta": 2.0,
                        "Actor_RockSubHurtDelta": 2.0,
                        "Actor_PhysicalSubHurtDelta": 2.0,
                        "Actor_AddGravityScale": 198.0,
                        "Actor_SkillCDMinusRatio": 1.600000023841858,
                        "Actor_ShieldCostMinusRatio": 1.600000023841858,
                        "Entity_ChargeSpeedRatioDelta": 20.0,
                        "Entity_MassRatio": 20000.0,
                        "Entity_WeightRatio": 20000.0,
                        "Animator_MoveSpeedRatio": 20.0,
                        "Actor_AniDamageDelta": 0.0,
                        "Actor_EndureDelta": 0.0,
                        "Actor_HitHeadDmgRatio": 6.0
                    },
                    "onAdded": [
                        {
                            "$type": "DebugLog",
                            "content": "AAAAAAAAAAAAAAAAAddTestBuff________________________________DebugTest_AbilityPropData_0404040404040404040404"
                        }
                    ],
                    "onRemoved": [
                        {
                            "$type": "DebugLog",
                            "content": "RRRRRRRRRRRRRemovedTestBuff________________________________DebugTest_AbilityPropData_0404040404040404040404"
                        }
                    ]
                }
            },
            "onAbilityStart": [
                {
                    "$type": "ApplyModifier",
                    "PositionDampTime": true,
                    "modifierName": "DebugTest_AbilityPropData_04"
                }
            ]
        }
    },
    {
        "Default": {
            "$type": "ConfigAbility",
            "abilityName": "DebugTest_AbilityPropData_05",
            "modifiers": {
                "DebugTest_AbilityPropData_05": {
                    "modifierName": "",
                    "duration": 100.0,
                    "bonusCriticalHurt": 100.0,
                    "properties": {
                        "Actor_MaxHPRatio": -1.7999999523162842,
                        "Actor_DefenceRatio": -1.7999999523162842,
                        "Actor_AttackRatio": -1.7999999523162842,
                        "Actor_CriticalDelta": -1.7999999523162842,
                        "Actor_AntiCriticalDelta": -1.7999999523162842,
                        "Actor_CriticalHurtDelta": -1.0,
                        "Actor_ChargeEfficiencyDelta": -1.7999999523162842,
                        "Actor_AddHurtDelta": -1.7999999523162842,
                        "Actor_SubHurtDelta": -2.0,
                        "Actor_HealAddDelta": -1.7999999523162842,
                        "Actor_HealedAddDelta": -1.7999999523162842,
                        "Actor_FireAddHurtDelta": -1.7999999523162842,
                        "Actor_ElecAddHurtDelta": -1.7999999523162842,
                        "Actor_WaterAddHurtDelta": -1.7999999523162842,
                        "Actor_GrassAddHurtDelta": -1.7999999523162842,
                        "Actor_WindAddHurtDelta": -1.7999999523162842,
                        "Actor_IceAddHurtDelta": -1.7999999523162842,
                        "Actor_RockAddHurtDelta": -1.7999999523162842,
                        "Actor_PhysicalAddHurtDelta": -1.7999999523162842,
                        "Actor_FireSubHurtDelta": -4.0,
                        "Actor_ElecSubHurtDelta": -4.0,
                        "Actor_WaterSubHurtDelta": -4.0,
                        "Actor_GrassSubHurtDelta": -4.0,
                        "Actor_WindSubHurtDelta": -4.0,
                        "Actor_IceSubHurtDelta": -4.0,
                        "Actor_RockSubHurtDelta": -4.0,
                        "Actor_PhysicalSubHurtDelta": -4.0,
                        "Actor_AddGravityScale": -4.0,
                        "Actor_SkillCDMinusRatio": -10.0,
                        "Actor_ShieldCostMinusRatio": -10.0,
                        "Entity_ChargeSpeedRatioDelta": -1.600000023841858,
                        "Entity_MassRatio": 0.0,
                        "Entity_WeightRatio": 0.0,
                        "Animator_MoveSpeedRatio": -2.0,
                        "Actor_AniDamageDelta": 0.0,
                        "Actor_EndureDelta": 0.0,
                        "Actor_HitHeadDmgRatio": -1.7999999523162842
                    },
                    "onAdded": [
                        {
                            "$type": "DebugLog",
                            "content": "AAAAAAAAAAAAAAAAAddTestBuff________________________________DebugTest_AbilityPropData_0505050505050505050505"
                        }
                    ],
                    "onRemoved": [
                        {
                            "$type": "DebugLog",
                            "content": "RRRRRRRRRRRRRemovedTestBuff________________________________DebugTest_AbilityPropData_0505050505050505050505"
                        }
                    ],
                    "isLimitedProperties": true
                }
            },
            "onAbilityStart": [
                {
                    "$type": "ApplyModifier",
                    "PositionDampTime": true,
                    "modifierName": "DebugTest_AbilityPropData_05"
                }
            ]
        }
    },
    {
        "Default": {
            "$type": "ConfigAbility",
            "abilityName": "DebugTest_AbilityPropData_06",
            "modifiers": {
                "DebugTest_AbilityPropData_06": {
                    "modifierName": "",
                    "duration": 100.0,
                    "bonusCriticalHurt": 100.0,
                    "properties": {
                        "Actor_MaxHPRatio": -1.7999999523162842,
                        "Actor_DefenceRatio": -1.7999999523162842,
                        "Actor_AttackRatio": -1.7999999523162842,
                        "Actor_CriticalDelta": -1.7999999523162842,
                        "Actor_AntiCriticalDelta": -1.7999999523162842,
                        "Actor_CriticalHurtDelta": -1.0,
                        "Actor_ChargeEfficiencyDelta": -1.7999999523162842,
                        "Actor_AddHurtDelta": -1.7999999523162842,
                        "Actor_SubHurtDelta": -2.0,
                        "Actor_HealAddDelta": -1.7999999523162842,
                        "Actor_HealedAddDelta": -1.7999999523162842,
                        "Actor_FireAddHurtDelta": -1.7999999523162842,
                        "Actor_ElecAddHurtDelta": -1.7999999523162842,
                        "Actor_WaterAddHurtDelta": -1.7999999523162842,
                        "Actor_GrassAddHurtDelta": -1.7999999523162842,
                        "Actor_WindAddHurtDelta": -1.7999999523162842,
                        "Actor_IceAddHurtDelta": -1.7999999523162842,
                        "Actor_RockAddHurtDelta": -1.7999999523162842,
                        "Actor_PhysicalAddHurtDelta": -1.7999999523162842,
                        "Actor_FireSubHurtDelta": -4.0,
                        "Actor_ElecSubHurtDelta": -4.0,
                        "Actor_WaterSubHurtDelta": -4.0,
                        "Actor_GrassSubHurtDelta": -4.0,
                        "Actor_WindSubHurtDelta": -4.0,
                        "Actor_IceSubHurtDelta": -4.0,
                        "Actor_RockSubHurtDelta": -4.0,
                        "Actor_PhysicalSubHurtDelta": -4.0,
                        "Actor_AddGravityScale": -4.0,
                        "Actor_SkillCDMinusRatio": -10.0,
                        "Actor_ShieldCostMinusRatio": -10.0,
                        "Entity_ChargeSpeedRatioDelta": -1.600000023841858,
                        "Entity_MassRatio": 0.0,
                        "Entity_WeightRatio": 0.0,
                        "Animator_MoveSpeedRatio": -2.0,
                        "Actor_AniDamageDelta": 0.0,
                        "Actor_EndureDelta": 0.0,
                        "Actor_HitHeadDmgRatio": -1.7999999523162842
                    },
                    "onAdded": [
                        {
                            "$type": "DebugLog",
                            "content": "AAAAAAAAAAAAAAAAAddTestBuff________________________________DebugTest_AbilityPropData_0606060606060606060606"
                        }
                    ],
                    "onRemoved": [
                        {
                            "$type": "DebugLog",
                            "content": "RRRRRRRRRRRRRemovedTestBuff________________________________DebugTest_AbilityPropData_0606060606060606060606"
                        }
                    ],
                    "isLimitedProperties": true
                }
            },
            "onAbilityStart": [
                {
                    "$type": "ApplyModifier",
                    "PositionDampTime": true,
                    "modifierName": "DebugTest_AbilityPropData_06"
                }
            ]
        }
    },
    {
        "Default": {
            "$type": "ConfigAbility",
            "abilityName": "DebugTest_AbilityPropData_07",
            "modifiers": {
                "DebugTest_AbilityPropData_07": {
                    "modifierName": "",
                    "duration": 100.0,
                    "bonusCriticalHurt": 100.0,
                    "properties": {
                        "Actor_MaxHPRatio": -1.7999999523162842,
                        "Actor_DefenceRatio": -1.7999999523162842,
                        "Actor_AttackRatio": -1.7999999523162842,
                        "Actor_CriticalDelta": -1.7999999523162842,
                        "Actor_AntiCriticalDelta": -1.7999999523162842,
                        "Actor_CriticalHurtDelta": -1.0,
                        "Actor_ChargeEfficiencyDelta": -1.7999999523162842,
                        "Actor_AddHurtDelta": -1.7999999523162842,
                        "Actor_SubHurtDelta": -2.0,
                        "Actor_HealAddDelta": -1.7999999523162842,
                        "Actor_HealedAddDelta": -1.7999999523162842,
                        "Actor_FireAddHurtDelta": -1.7999999523162842,
                        "Actor_ElecAddHurtDelta": -1.7999999523162842,
                        "Actor_WaterAddHurtDelta": -1.7999999523162842,
                        "Actor_GrassAddHurtDelta": -1.7999999523162842,
                        "Actor_WindAddHurtDelta": -1.7999999523162842,
                        "Actor_IceAddHurtDelta": -1.7999999523162842,
                        "Actor_RockAddHurtDelta": -1.7999999523162842,
                        "Actor_PhysicalAddHurtDelta": -1.7999999523162842,
                        "Actor_FireSubHurtDelta": -4.0,
                        "Actor_ElecSubHurtDelta": -4.0,
                        "Actor_WaterSubHurtDelta": -4.0,
                        "Actor_GrassSubHurtDelta": -4.0,
                        "Actor_WindSubHurtDelta": -4.0,
                        "Actor_IceSubHurtDelta": -4.0,
                        "Actor_RockSubHurtDelta": -4.0,
                        "Actor_PhysicalSubHurtDelta": -4.0,
                        "Actor_AddGravityScale": -4.0,
                        "Actor_SkillCDMinusRatio": -10.0,
                        "Actor_ShieldCostMinusRatio": -10.0,
                        "Entity_ChargeSpeedRatioDelta": -1.600000023841858,
                        "Entity_MassRatio": 0.0,
                        "Entity_WeightRatio": 0.0,
                        "Animator_MoveSpeedRatio": -2.0,
                        "Actor_AniDamageDelta": 0.0,
                        "Actor_EndureDelta": 0.0,
                        "Actor_HitHeadDmgRatio": -1.7999999523162842
                    },
                    "onAdded": [
                        {
                            "$type": "DebugLog",
                            "content": "AAAAAAAAAAAAAAAAAddTestBuff________________________________DebugTest_AbilityPropData_0707070707070707070707"
                        }
                    ],
                    "onRemoved": [
                        {
                            "$type": "DebugLog",
                            "content": "RRRRRRRRRRRRRemovedTestBuff________________________________DebugTest_AbilityPropData_0707070707070707070707"
                        }
                    ]
                }
            },
            "onAbilityStart": [
                {
                    "$type": "ApplyModifier",
                    "PositionDampTime": true,
                    "modifierName": "DebugTest_AbilityPropData_07"
                }
            ]
        }
    },
    {
        "Default": {
            "$type": "ConfigAbility",
            "abilityName": "DebugTest_AbilityPropData_08",
            "modifiers": {
                "DebugTest_AbilityPropData_08": {
                    "modifierName": "",
                    "duration": 100.0,
                    "bonusCriticalHurt": 100.0,
                    "properties": {
                        "Actor_MaxHPRatio": -1.7999999523162842,
                        "Actor_DefenceRatio": -1.7999999523162842,
                        "Actor_AttackRatio": -1.7999999523162842,
                        "Actor_CriticalDelta": -1.7999999523162842,
                        "Actor_AntiCriticalDelta": -1.7999999523162842,
                        "Actor_CriticalHurtDelta": -1.0,
                        "Actor_ChargeEfficiencyDelta": -1.7999999523162842,
                        "Actor_AddHurtDelta": -1.7999999523162842,
                        "Actor_SubHurtDelta": -2.0,
                        "Actor_HealAddDelta": -1.7999999523162842,
                        "Actor_HealedAddDelta": -1.7999999523162842,
                        "Actor_FireAddHurtDelta": -1.7999999523162842,
                        "Actor_ElecAddHurtDelta": -1.7999999523162842,
                        "Actor_WaterAddHurtDelta": -1.7999999523162842,
                        "Actor_GrassAddHurtDelta": -1.7999999523162842,
                        "Actor_WindAddHurtDelta": -1.7999999523162842,
                        "Actor_IceAddHurtDelta": -1.7999999523162842,
                        "Actor_RockAddHurtDelta": -1.7999999523162842,
                        "Actor_PhysicalAddHurtDelta": -1.7999999523162842,
                        "Actor_FireSubHurtDelta": -4.0,
                        "Actor_ElecSubHurtDelta": -4.0,
                        "Actor_WaterSubHurtDelta": -4.0,
                        "Actor_GrassSubHurtDelta": -4.0,
                        "Actor_WindSubHurtDelta": -4.0,
                        "Actor_IceSubHurtDelta": -4.0,
                        "Actor_RockSubHurtDelta": -4.0,
                        "Actor_PhysicalSubHurtDelta": -4.0,
                        "Actor_AddGravityScale": -4.0,
                        "Actor_SkillCDMinusRatio": -10.0,
                        "Actor_ShieldCostMinusRatio": -10.0,
                        "Entity_ChargeSpeedRatioDelta": -1.600000023841858,
                        "Entity_MassRatio": 0.0,
                        "Entity_WeightRatio": 0.0,
                        "Animator_MoveSpeedRatio": -2.0,
                        "Actor_AniDamageDelta": 0.0,
                        "Actor_EndureDelta": 0.0,
                        "Actor_HitHeadDmgRatio": -1.7999999523162842
                    },
                    "onAdded": [
                        {
                            "$type": "DebugLog",
                            "content": "AAAAAAAAAAAAAAAAAddTestBuff________________________________DebugTest_AbilityPropData_0808080808080808080808"
                        }
                    ],
                    "onRemoved": [
                        {
                            "$type": "DebugLog",
                            "content": "RRRRRRRRRRRRRemovedTestBuff________________________________DebugTest_AbilityPropData_0808080808080808080808"
                        }
                    ]
                }
            },
            "onAbilityStart": [
                {
                    "$type": "ApplyModifier",
                    "PositionDampTime": true,
                    "modifierName": "DebugTest_AbilityPropData_08"
                }
            ]
        }
    },
    {
        "Default": {
            "$type": "ConfigAbility",
            "abilityName": "DebugTest_AbilityState_Petrifaction",
            "modifiers": {
                "DebugTest_AbilityState_Petrifaction": {
                    "modifierName": "",
                    "duration": 10.0,
                    "bonusCriticalHurt": 100.0,
                    "state": "ElementPetrifaction",
                    "onAdded": [
                        {
                            "$type": "DebugLog",
                            "content": "AAAAAAAAAAAAAAAAAddTestBuff________________________________DebugTest_AbilityState_Petrifaction"
                        }
                    ],
                    "onRemoved": [
                        {
                            "$type": "DebugLog",
                            "content": "RRRRRRRRRRRRRemovedTestBuff________________________________DebugTest_AbilityState_Petrifaction"
                        }
                    ]
                }
            },
            "onAbilityStart": [
                {
                    "$type": "ApplyModifier",
                    "PositionDampTime": true,
                    "modifierName": "DebugTest_AbilityState_Petrifaction"
                }
            ]
        }
    }
]