{
    "talkId": 7405302,
    "type": "NARRATOR",
    "dialogList": [
        {
            "id": 740539904,
            "nextDialogs": [
                740539905
            ],
            "talkRole": {
                "type": "TALK_ROLE_NPC",
                "id": "21084"
            },
            "talkContentTextMapHash": 3636325354,
            "talkAssetPath": "",
            "talkAssetPathAlter": "",
            "talkAudioName": "",
            "actionBefore": "",
            "actionWhile": "",
            "actionAfter": "",
            "optionIcon": ""
        },
        {
            "id": 740539905,
            "nextDialogs": [
                740539906
            ],
            "talkRole": {
                "type": "TALK_ROLE_NPC",
                "id": "21293"
            },
            "talkContentTextMapHash": 258153554,
            "talkAssetPath": "",
            "talkAssetPathAlter": "",
            "talkAudioName": "",
            "actionBefore": "",
            "actionWhile": "",
            "actionAfter": "",
            "optionIcon": ""
        },
        {
            "id": 740539906,
            "nextDialogs": [
                740539907
            ],
            "talkRole": {
                "type": "TALK_ROLE_NPC",
                "id": "21084"
            },
            "talkContentTextMapHash": 2769281250,
            "talkAssetPath": "",
            "talkAssetPathAlter": "",
            "talkAudioName": "",
            "actionBefore": "",
            "actionWhile": "",
            "actionAfter": "",
            "optionIcon": ""
        },
        {
            "id": 740539907,
            "talkRole": {
                "type": "TALK_ROLE_NPC",
                "id": "21084"
            },
            "talkContentTextMapHash": 2971302650,
            "talkAssetPath": "",
            "talkAssetPathAlter": "",
            "talkAudioName": "",
            "actionBefore": "",
            "actionWhile": "",
            "actionAfter": "",
            "optionIcon": ""
        }
    ]
}