{
    "talkId": 7416403,
    "type": "NARRATOR",
    "dialogList": [
        {
            "id": 741649908,
            "nextDialogs": [
                741649909
            ],
            "talkRole": {
                "type": "TALK_ROLE_NPC",
                "id": "5291"
            },
            "talkContentTextMapHash": 4096228266,
            "talkAssetPath": "",
            "talkAssetPathAlter": "",
            "talkAudioName": "",
            "actionBefore": "",
            "actionWhile": "",
            "actionAfter": "",
            "optionIcon": ""
        },
        {
            "id": 741649909,
            "nextDialogs": [
                741649910
            ],
            "talkRole": {
                "type": "TALK_ROLE_NPC",
                "id": "1005"
            },
            "talkContentTextMapHash": 3376186618,
            "talkAssetPath": "",
            "talkAssetPathAlter": "",
            "talkAudioName": "",
            "actionBefore": "",
            "actionWhile": "",
            "actionAfter": "",
            "optionIcon": ""
        },
        {
            "id": 741649910,
            "nextDialogs": [
                741649911
            ],
            "talkRole": {
                "type": "TALK_ROLE_NPC",
                "id": "5291"
            },
            "talkContentTextMapHash": 842585714,
            "talkAssetPath": "",
            "talkAssetPathAlter": "",
            "talkAudioName": "",
            "actionBefore": "",
            "actionWhile": "",
            "actionAfter": "",
            "optionIcon": ""
        },
        {
            "id": 741649911,
            "talkRole": {
                "type": "TALK_ROLE_NPC",
                "id": "5291"
            },
            "talkContentTextMapHash": 947473410,
            "talkAssetPath": "",
            "talkAssetPathAlter": "",
            "talkAudioName": "",
            "actionBefore": "",
            "actionWhile": "",
            "actionAfter": "",
            "optionIcon": ""
        }
    ]
}