{
    "talkId": 7005093,
    "type": "NARRATOR",
    "dialogList": [
        {
            "id": 700509920,
            "nextDialogs": [
                700509921
            ],
            "talkRole": {
                "type": "TALK_ROLE_NPC",
                "id": "1005"
            },
            "talkContentTextMapHash": 3656015218,
            "talkAssetPath": "",
            "talkAssetPathAlter": "",
            "talkAudioName": "",
            "actionBefore": "",
            "actionWhile": "",
            "actionAfter": "",
            "optionIcon": ""
        },
        {
            "id": 700509921,
            "nextDialogs": [
                700509922
            ],
            "talkRole": {
                "type": "TALK_ROLE_NPC",
                "id": "5268"
            },
            "talkContentTextMapHash": 3013175706,
            "talkAssetPath": "",
            "talkAssetPathAlter": "",
            "talkAudioName": "",
            "actionBefore": "",
            "actionWhile": "",
            "actionAfter": "",
            "optionIcon": ""
        },
        {
            "id": 700509922,
            "talkRole": {
                "type": "TALK_ROLE_NPC",
                "id": "5268"
            },
            "talkContentTextMapHash": 3503191394,
            "talkAssetPath": "",
            "talkAssetPathAlter": "",
            "talkAudioName": "",
            "actionBefore": "",
            "actionWhile": "",
            "actionAfter": "",
            "optionIcon": ""
        }
    ]
}