{
    "talkId": 2400102,
    "type": "NARRATOR",
    "dialogList": [
        {
            "id": 240019904,
            "nextDialogs": [
                240019905
            ],
            "talkRole": {
                "type": "TALK_ROLE_NPC",
                "id": "5113"
            },
            "talkContentTextMapHash": 200017266,
            "talkAssetPath": "",
            "talkAssetPathAlter": "",
            "talkAudioName": "",
            "actionBefore": "",
            "actionWhile": "",
            "actionAfter": "",
            "optionIcon": ""
        },
        {
            "id": 240019905,
            "talkRole": {
                "type": "TALK_ROLE_NPC",
                "id": "5113"
            },
            "talkContentTextMapHash": 1142107874,
            "talkAssetPath": "",
            "talkAssetPathAlter": "",
            "talkAudioName": "",
            "actionBefore": "",
            "actionWhile": "",
            "actionAfter": "",
            "optionIcon": ""
        }
    ]
}