{
    "talkId": 7407503,
    "type": "NARRATOR",
    "dialogList": [
        {
            "id": 740759904,
            "talkRole": {
                "type": "TALK_ROLE_NPC",
                "id": "21048"
            },
            "talkContentTextMapHash": 455166914,
            "talkAssetPath": "",
            "talkAssetPathAlter": "",
            "talkAudioName": "",
            "actionBefore": "",
            "actionWhile": "",
            "actionAfter": "",
            "optionIcon": ""
        }
    ]
}