{
    "talkId": 7414416,
    "type": "NARRATOR",
    "dialogList": [
        {
            "id": 741449969,
            "talkRole": {
                "type": "TALK_ROLE_NPC",
                "id": "21319"
            },
            "talkContentTextMapHash": 2481207146,
            "talkAssetPath": "",
            "talkAssetPathAlter": "",
            "talkAudioName": "",
            "actionBefore": "",
            "actionWhile": "",
            "actionAfter": "",
            "optionIcon": ""
        }
    ]
}