{
    "talkId": 7110338,
    "type": "NARRATOR",
    "dialogList": [
        {
            "id": 711033897,
            "nextDialogs": [
                711033898
            ],
            "talkRole": {
                "type": "TALK_ROLE_NPC",
                "id": "1005"
            },
            "talkContentTextMapHash": 1380174002,
            "talkAssetPath": "",
            "talkAssetPathAlter": "",
            "talkAudioName": "",
            "actionBefore": "",
            "actionWhile": "",
            "actionAfter": "",
            "showDuration": 3.0,
            "optionIcon": ""
        },
        {
            "id": 711033898,
            "nextDialogs": [
                711033899
            ],
            "talkRole": {
                "type": "TALK_ROLE_NPC",
                "id": "2501"
            },
            "talkContentTextMapHash": 547130890,
            "talkAssetPath": "",
            "talkAssetPathAlter": "",
            "talkAudioName": "",
            "actionBefore": "",
            "actionWhile": "",
            "actionAfter": "",
            "showDuration": 3.0,
            "optionIcon": ""
        },
        {
            "id": 711033899,
            "talkRole": {
                "type": "TALK_ROLE_NPC",
                "id": "1005"
            },
            "talkContentTextMapHash": 2095438354,
            "talkAssetPath": "",
            "talkAssetPathAlter": "",
            "talkAudioName": "",
            "actionBefore": "",
            "actionWhile": "",
            "actionAfter": "",
            "showDuration": 3.0,
            "optionIcon": ""
        }
    ]
}