{
    "luaDataPath": "",
    "startBlackKeepTime": 1.0,
    "entityBan": "",
    "disableNpcLod": true,
    "isAutoBanNpc": true,
    "isBanWidgetPet": true,
    "protectNpcMobileLod": true,
    "startFade": {
        "startFadeInDuration": 0.5,
        "startFadeOutDuration": 0.5
    },
    "endFade": {
        "startFadeOutDuration": 0.0
    },
    "actors": [
        {
            "alias": "Avatar",
            "visible": true,
            "bornPointName": "N10000005_T7322512",
            "relativePosType": "AVATAR_NEW",
            "relativePosNpcAlias": "",
            "bindMovingTargetKey": ""
        },
        {
            "alias": "AvatarNpc",
            "visible": true,
            "bornPointName": "N10000005_T7322512",
            "removeActorType": "REMOVE",
            "relativePosType": "AVATAR_NEW",
            "relativePosNpcAlias": "",
            "bindMovingTargetKey": ""
        },
        {
            "configID": 4291,
            "alias": "4291",
            "visible": true,
            "bornPointName": "N4291_T7322512",
            "forceCreateDaily": true,
            "relativePosType": "AVATAR_NEW",
            "relativePosNpcAlias": "",
            "bindMovingTargetKey": ""
        },
        {
            "configID": 4296,
            "alias": "4296",
            "visible": true,
            "bornPointName": "N20723_T7322512",
            "relativePosType": "AVATAR_NEW",
            "relativePosNpcAlias": "",
            "bindMovingTargetKey": ""
        },
        {
            "configID": 1005,
            "alias": "1005",
            "visible": true,
            "bornPointName": "",
            "useRelativePos": true,
            "relativePos": {
                "x": 0.5,
                "z": 0.5
            },
            "removeActorType": "REMOVE_WITH_DISAPPEAR",
            "relativePosType": "AVATAR_NEW",
            "relativePosNpcAlias": "",
            "bindMovingTargetKey": ""
        }
    ],
    "group": [
        [
            {
                "$type": "MoleMole.Config.ConfigTimeProtectAction",
                "type": "TIME_PROTECT",
                "duration": 1.0,
                "actionId": 104
            },
            {
                "$type": "ILCGAGEGDJI",
                "type": "BODY_LANG",
                "aliasList": [
                    "1005"
                ],
                "actionId": 182,
                "FLBOOPHHFJP": 1230,
                "PMJAMGLAJGK": true,
                "LIMPPBIAKGL": false,
                "FNEGLPPEBBF": true,
                "FNDLJGEAMGI": ""
            },
            {
                "$type": "MoleMole.Config.ConfigTeleportToAction",
                "type": "TELEPORT_TO",
                "aliasList": [
                    "1005"
                ],
                "actionId": 178,
                "position": {
                    "x": -1543.613037109375,
                    "y": 37.13199996948242,
                    "z": 5088.31298828125
                },
                "forward": {
                    "x": 0.824999988079071,
                    "z": 0.5640000104904175
                },
                "openLongDisTeleport": true,
                "posBindMovingTargetKey": "",
                "forwardBindMovingTargetKey": ""
            },
            {
                "$type": "EAMBKPBOPIC",
                "type": "LOOK_AT",
                "aliasList": [
                    "4296"
                ],
                "actionId": 186,
                "FIDJDPAIFDN": true,
                "useTargetPos": true,
                "GFKIMGBGADJ": true,
                "GMKIJKADNHN": {
                    "x": -1540.0999755859375,
                    "y": 37.7760009765625,
                    "z": 5090.30615234375
                },
                "BCHGCKLKNEH": 0.5,
                "OMCCMPHDLOO": "",
                "CEBMBGKJACI": "NONE",
                "EOHIIHMKDJC": true,
                "KPCALFDIHMC": "",
                "DBLNLMOPEBP": ""
            },
            {
                "$type": "ILCGAGEGDJI",
                "type": "BODY_LANG",
                "aliasList": [
                    "4296"
                ],
                "actionId": 183,
                "FLBOOPHHFJP": 1230,
                "PMJAMGLAJGK": true,
                "LIMPPBIAKGL": false,
                "FNEGLPPEBBF": true,
                "FNDLJGEAMGI": ""
            },
            {
                "$type": "MoleMole.Config.ConfigTeleportToAction",
                "type": "TELEPORT_TO",
                "aliasList": [
                    "4296"
                ],
                "actionId": 179,
                "position": {
                    "x": -1543.14501953125,
                    "y": 37.13199996948242,
                    "z": 5089.34619140625
                },
                "forward": {
                    "x": 0.9129999876022339,
                    "z": 0.4090000092983246
                },
                "openLongDisTeleport": true,
                "posBindMovingTargetKey": "",
                "forwardBindMovingTargetKey": ""
            },
            {
                "$type": "ILCGAGEGDJI",
                "type": "BODY_LANG",
                "aliasList": [
                    "4291"
                ],
                "actionId": 193,
                "FLBOOPHHFJP": 1190,
                "PMJAMGLAJGK": true,
                "LIMPPBIAKGL": false,
                "FNEGLPPEBBF": true,
                "FNDLJGEAMGI": ""
            },
            {
                "$type": "MoleMole.Config.ConfigTeleportToAction",
                "type": "TELEPORT_TO",
                "aliasList": [
                    "4291"
                ],
                "actionId": 180,
                "position": {
                    "x": -1541.5860595703125,
                    "y": 37.13199996948242,
                    "z": 5089.80517578125
                },
                "forward": {
                    "x": -0.9399999976158142,
                    "z": -0.34200000762939453
                },
                "openLongDisTeleport": true,
                "posBindMovingTargetKey": "",
                "forwardBindMovingTargetKey": ""
            },
            {
                "$type": "EAMBKPBOPIC",
                "type": "LOOK_AT",
                "aliasList": [
                    "1005"
                ],
                "actionId": 188,
                "FIDJDPAIFDN": true,
                "useTargetPos": true,
                "GFKIMGBGADJ": true,
                "GMKIJKADNHN": {
                    "x": -1540.0999755859375,
                    "y": 37.6870002746582,
                    "z": 5090.30615234375
                },
                "BCHGCKLKNEH": 0.5,
                "OMCCMPHDLOO": "",
                "CEBMBGKJACI": "NONE",
                "EOHIIHMKDJC": true,
                "KPCALFDIHMC": "",
                "DBLNLMOPEBP": ""
            },
            {
                "$type": "OPCCDGPJCJI",
                "type": "EMO_SYNC",
                "aliasList": [
                    "1005"
                ],
                "actionId": 208,
                "IONNJBCBACJ": "",
                "HLEJKBCMNNJ": "Cs_Emo_Pet_Common/Cs_Emo_Paimon_Angry01",
                "JGHLJJLNGPP": "Cs_Emo_Pet_Common/Cs_Emo_Paimon_Angry01_B",
                "MANNKIIBOFM": "",
                "COMNAAFDEDH": "",
                "CPGCCLNOCDK": "",
                "MFABDGAFKII": [
                    8887624181441475292,
                    18209086005751125871,
                    3291038487434063407,
                    2002509548947436691
                ],
                "IPAGHAALIII": [
                    13881928724929073215,
                    7603214701309324592,
                    1219334094693683373,
                    13358599274641292023
                ]
            },
            {
                "$type": "EAMBKPBOPIC",
                "type": "LOOK_AT",
                "aliasList": [
                    "AvatarNpc"
                ],
                "actionId": 190,
                "FIDJDPAIFDN": true,
                "useTargetPos": true,
                "GFKIMGBGADJ": true,
                "GMKIJKADNHN": {
                    "x": -1541.529052734375,
                    "y": 37.7760009765625,
                    "z": 5089.68798828125
                },
                "BCHGCKLKNEH": 0.5,
                "OMCCMPHDLOO": "",
                "CEBMBGKJACI": "NONE",
                "EOHIIHMKDJC": true,
                "KPCALFDIHMC": "",
                "DBLNLMOPEBP": ""
            },
            {
                "$type": "ILCGAGEGDJI",
                "type": "BODY_LANG",
                "aliasList": [
                    "AvatarNpc"
                ],
                "actionId": 184,
                "FLBOOPHHFJP": 1080,
                "PMJAMGLAJGK": true,
                "LIMPPBIAKGL": false,
                "FNEGLPPEBBF": true,
                "FNDLJGEAMGI": ""
            },
            {
                "$type": "MoleMole.Config.ConfigTeleportToAction",
                "type": "TELEPORT_TO",
                "aliasList": [
                    "AvatarNpc"
                ],
                "actionId": 181,
                "position": {
                    "x": -1543.93701171875,
                    "y": 37.17499923706055,
                    "z": 5090.14599609375
                },
                "forward": {
                    "x": 1.0,
                    "z": -0.00800000037997961
                },
                "openLongDisTeleport": true,
                "posBindMovingTargetKey": "",
                "forwardBindMovingTargetKey": ""
            },
            {
                "$type": "MoleMole.Config.ConfigPlayerNPCEnergyTypeAction",
                "type": "SET_PLAYER_NPC_ENERGY_TYPE",
                "aliasList": [
                    "AvatarNpc"
                ],
                "actionId": 168,
                "setHeroEngergyType": true
            },
            {
                "$type": "MoleMole.Config.ConfigTeleportToAction",
                "type": "TELEPORT_TO",
                "aliasList": [
                    "Avatar"
                ],
                "actionId": 310,
                "position": {
                    "x": -1543.93701171875,
                    "y": 37.17499923706055,
                    "z": 5090.14599609375
                },
                "forward": {
                    "x": 1.0,
                    "z": -0.00800000037997961
                },
                "openLongDisTeleport": true,
                "posBindMovingTargetKey": "",
                "forwardBindMovingTargetKey": ""
            },
            {
                "$type": "MoleMole.Config.ConfigVisibleInterAction",
                "type": "VISIBLE",
                "aliasList": [
                    "Avatar"
                ],
                "actionId": 170,
                "extraParam": ""
            },
            {
                "$type": "MoleMole.Config.ConfigBlackScreenAction",
                "type": "BLACK_SCREEN",
                "duration": 1.0,
                "actionId": 164,
                "blackScreenType": "KEEP_BLACK",
                "durationToBlack": 0.5,
                "durationKeepBlack": 1.0,
                "durationFromBlack": 0.5,
                "inteePos": "",
                "textMapID": "",
                "useTextFade": true
            },
            {
                "$type": "OPCCDGPJCJI",
                "type": "EMO_SYNC",
                "aliasList": [
                    "AvatarNpc"
                ],
                "actionId": 206,
                "IONNJBCBACJ": "",
                "HLEJKBCMNNJ": "Cs_Emo_Avatar_Common/Cs_Emo_Avatar_Angry01",
                "JGHLJJLNGPP": "Cs_Emo_Avatar_Common/Cs_Emo_Avatar_Angry01",
                "MANNKIIBOFM": "",
                "COMNAAFDEDH": "",
                "CPGCCLNOCDK": "",
                "MFABDGAFKII": [
                    14296606849723709100,
                    5508348580450379567,
                    7627497203169383327,
                    8979581647593659876
                ],
                "IPAGHAALIII": [
                    17142441291827365433,
                    5141166644388952532,
                    3717387055984808681,
                    713130900221361119
                ]
            },
            {
                "$type": "MoleMole.Config.ConfigVisibleInterAction",
                "type": "VISIBLE",
                "delayTime": 0.08900000154972076,
                "aliasList": [
                    "4291"
                ],
                "actionId": 176,
                "extraParam": ""
            }
        ],
        [
            {
                "$type": "MoleMole.Config.ConfigBlackScreenAction",
                "type": "BLACK_SCREEN",
                "duration": 0.5,
                "actionId": 165,
                "blackScreenType": "FROM_BLACK",
                "durationToBlack": 0.5,
                "durationKeepBlack": 0.5,
                "durationFromBlack": 0.5,
                "inteePos": "",
                "textMapID": "",
                "useTextFade": true
            },
            {
                "$type": "MOOOKOKLLEI",
                "type": "CAMERA_MOVE",
                "duration": 0.5,
                "actionId": 173,
                "DOKGBCKOLJK": {
                    "x": -1540.4639892578125,
                    "y": 37.66999816894531,
                    "z": 5090.2841796875
                },
                "HGKCPMDICGG": {
                    "x": -1541.405029296875,
                    "y": 37.8120002746582,
                    "z": 5089.97705078125
                },
                "AFODHELHCGB": 35.0,
                "MGMFMGNANHH": 6,
                "NDFGFJFGHKL": "EaseInOutCubic",
                "IBCBGNHCICN": {},
                "BNBBLLBEIDL": true,
                "NHNPMMBMCFC": 12.949000358581543,
                "HCPFCAHMGMO": false,
                "OMCCMPHDLOO": "",
                "FEFNBKOHPOG": true,
                "OCFGGGHIKOO": "",
                "LJFHGGJDPHH": "",
                "LPKDFKLNEHL": ""
            },
            {
                "$type": "ILCGAGEGDJI",
                "type": "BODY_LANG",
                "aliasList": [
                    "AvatarNpc"
                ],
                "actionId": 185,
                "JLABKFNJCNP": true,
                "PMJAMGLAJGK": true,
                "LIMPPBIAKGL": false,
                "FNEGLPPEBBF": true,
                "FNDLJGEAMGI": ""
            },
            {
                "$type": "EAMBKPBOPIC",
                "type": "LOOK_AT",
                "aliasList": [
                    "AvatarNpc"
                ],
                "actionId": 191,
                "FIDJDPAIFDN": true,
                "useTargetPos": true,
                "GFKIMGBGADJ": true,
                "GMKIJKADNHN": {
                    "x": -1540.0999755859375,
                    "y": 38.56399917602539,
                    "z": 5090.30615234375
                },
                "BCHGCKLKNEH": 0.5,
                "OMCCMPHDLOO": "",
                "CEBMBGKJACI": "NONE",
                "EOHIIHMKDJC": true,
                "KPCALFDIHMC": "",
                "DBLNLMOPEBP": ""
            },
            {
                "$type": "DLPFECMKEKH",
                "type": "DIALOG",
                "aliasList": [
                    "4291"
                ],
                "actionId": 107,
                "NMKEDPFEKBH": 732251201,
                "JLCHMAJCAPA": 0.5
            },
            {
                "$type": "EAMBKPBOPIC",
                "type": "LOOK_AT",
                "aliasList": [
                    "4296"
                ],
                "actionId": 187,
                "FIDJDPAIFDN": true,
                "useTargetPos": true,
                "GFKIMGBGADJ": true,
                "GMKIJKADNHN": {
                    "x": -1540.0999755859375,
                    "y": 38.56399917602539,
                    "z": 5090.30615234375
                },
                "BCHGCKLKNEH": 0.5,
                "OMCCMPHDLOO": "",
                "CEBMBGKJACI": "NONE",
                "EOHIIHMKDJC": true,
                "KPCALFDIHMC": "",
                "DBLNLMOPEBP": ""
            },
            {
                "$type": "EAMBKPBOPIC",
                "type": "LOOK_AT",
                "aliasList": [
                    "1005"
                ],
                "actionId": 189,
                "FIDJDPAIFDN": true,
                "useTargetPos": true,
                "GFKIMGBGADJ": true,
                "GMKIJKADNHN": {
                    "x": -1540.0999755859375,
                    "y": 38.56399917602539,
                    "z": 5090.30615234375
                },
                "BCHGCKLKNEH": 0.5,
                "OMCCMPHDLOO": "",
                "CEBMBGKJACI": "NONE",
                "EOHIIHMKDJC": true,
                "KPCALFDIHMC": "",
                "DBLNLMOPEBP": ""
            },
            {
                "$type": "MOOOKOKLLEI",
                "type": "CAMERA_MOVE",
                "delayTime": 0.0949999988079071,
                "duration": 3.808000087738037,
                "actionId": 174,
                "DOKGBCKOLJK": {
                    "x": -1540.383056640625,
                    "y": 38.0880012512207,
                    "z": 5090.2177734375
                },
                "HGKCPMDICGG": {
                    "x": -1541.343017578125,
                    "y": 38.09199905395508,
                    "z": 5089.93798828125
                },
                "AFODHELHCGB": 35.0,
                "NDFGFJFGHKL": "EaseInOutQuad",
                "IBCBGNHCICN": {},
                "BNBBLLBEIDL": true,
                "NHNPMMBMCFC": 353.3739929199219,
                "HCPFCAHMGMO": false,
                "OMCCMPHDLOO": "",
                "FEFNBKOHPOG": true,
                "OCFGGGHIKOO": "",
                "LJFHGGJDPHH": "",
                "LPKDFKLNEHL": ""
            },
            {
                "$type": "MOOOKOKLLEI",
                "type": "CAMERA_MOVE",
                "delayTime": 3.624000072479248,
                "duration": 2.0940001010894775,
                "actionId": 177,
                "DOKGBCKOLJK": {
                    "x": -1540.3929443359375,
                    "y": 38.39400100708008,
                    "z": 5090.244140625
                },
                "HGKCPMDICGG": {
                    "x": -1541.3499755859375,
                    "y": 38.33000183105469,
                    "z": 5089.9619140625
                },
                "AFODHELHCGB": 35.0,
                "NDFGFJFGHKL": "EaseInOutQuad",
                "IBCBGNHCICN": {},
                "BNBBLLBEIDL": true,
                "NHNPMMBMCFC": 1.0369999408721924,
                "HCPFCAHMGMO": false,
                "OMCCMPHDLOO": "",
                "FEFNBKOHPOG": true,
                "OCFGGGHIKOO": "",
                "LJFHGGJDPHH": "",
                "LPKDFKLNEHL": ""
            }
        ],
        [
            {
                "$type": "MOOOKOKLLEI",
                "type": "CAMERA_MOVE",
                "duration": 0.5,
                "actionId": 195,
                "DOKGBCKOLJK": {
                    "x": -1534.7099609375,
                    "y": 46.60599899291992,
                    "z": 5096.91015625
                },
                "HGKCPMDICGG": {
                    "x": -1535.3489990234375,
                    "y": 45.94599914550781,
                    "z": 5096.51513671875
                },
                "AFODHELHCGB": 35.0,
                "MGMFMGNANHH": 6,
                "NDFGFJFGHKL": "EaseInOutCubic",
                "IBCBGNHCICN": {},
                "BNBBLLBEIDL": true,
                "HCPFCAHMGMO": false,
                "OMCCMPHDLOO": "",
                "FEFNBKOHPOG": true,
                "OCFGGGHIKOO": "",
                "LJFHGGJDPHH": "",
                "LPKDFKLNEHL": ""
            },
            {
                "$type": "EAMBKPBOPIC",
                "type": "LOOK_AT",
                "aliasList": [
                    "AvatarNpc"
                ],
                "actionId": 202,
                "FIDJDPAIFDN": true,
                "useTargetPos": true,
                "GFKIMGBGADJ": true,
                "GMKIJKADNHN": {
                    "x": -1541.529052734375,
                    "y": 38.58000183105469,
                    "z": 5089.77099609375
                },
                "BCHGCKLKNEH": 0.5,
                "OMCCMPHDLOO": "",
                "CEBMBGKJACI": "NONE",
                "EOHIIHMKDJC": true,
                "KPCALFDIHMC": "",
                "DBLNLMOPEBP": ""
            },
            {
                "$type": "DLPFECMKEKH",
                "type": "DIALOG",
                "aliasList": [
                    "4291"
                ],
                "actionId": 109,
                "NMKEDPFEKBH": 732251202,
                "JLCHMAJCAPA": 0.5
            },
            {
                "$type": "MoleMole.Config.ConfigVisibleInterAction",
                "type": "VISIBLE",
                "aliasList": [
                    "4291"
                ],
                "actionId": 192,
                "isVisible": true,
                "extraParam": ""
            },
            {
                "$type": "ILCGAGEGDJI",
                "type": "BODY_LANG",
                "aliasList": [
                    "4291"
                ],
                "actionId": 194,
                "FLBOOPHHFJP": 1190,
                "PMJAMGLAJGK": true,
                "LIMPPBIAKGL": false,
                "FNEGLPPEBBF": true,
                "FNDLJGEAMGI": ""
            },
            {
                "$type": "EAMBKPBOPIC",
                "type": "LOOK_AT",
                "aliasList": [
                    "4296"
                ],
                "actionId": 203,
                "FIDJDPAIFDN": true,
                "useTargetPos": true,
                "GFKIMGBGADJ": true,
                "GMKIJKADNHN": {
                    "x": -1541.529052734375,
                    "y": 38.58000183105469,
                    "z": 5089.77099609375
                },
                "BCHGCKLKNEH": 0.5,
                "OMCCMPHDLOO": "",
                "CEBMBGKJACI": "NONE",
                "EOHIIHMKDJC": true,
                "KPCALFDIHMC": "",
                "DBLNLMOPEBP": ""
            },
            {
                "$type": "EAMBKPBOPIC",
                "type": "LOOK_AT",
                "aliasList": [
                    "1005"
                ],
                "actionId": 204,
                "FIDJDPAIFDN": true,
                "useTargetPos": true,
                "GFKIMGBGADJ": true,
                "GMKIJKADNHN": {
                    "x": -1541.529052734375,
                    "y": 38.58000183105469,
                    "z": 5089.77099609375
                },
                "BCHGCKLKNEH": 0.5,
                "OMCCMPHDLOO": "",
                "CEBMBGKJACI": "NONE",
                "EOHIIHMKDJC": true,
                "KPCALFDIHMC": "",
                "DBLNLMOPEBP": ""
            },
            {
                "$type": "EAMBKPBOPIC",
                "type": "LOOK_AT",
                "delayTime": 0.03500000014901161,
                "aliasList": [
                    "4291"
                ],
                "actionId": 197,
                "FIDJDPAIFDN": true,
                "useTargetPos": true,
                "GFKIMGBGADJ": true,
                "GMKIJKADNHN": {
                    "x": -1542.9930419921875,
                    "y": 37.77399826049805,
                    "z": 5089.35009765625
                },
                "BCHGCKLKNEH": 0.5,
                "OMCCMPHDLOO": "",
                "CEBMBGKJACI": "NONE",
                "EOHIIHMKDJC": true,
                "KPCALFDIHMC": "",
                "DBLNLMOPEBP": ""
            },
            {
                "$type": "MOOOKOKLLEI",
                "type": "CAMERA_MOVE",
                "delayTime": 0.10000000149011612,
                "duration": 8.062000274658203,
                "actionId": 196,
                "DOKGBCKOLJK": {
                    "x": -1534.48095703125,
                    "y": 46.55799865722656,
                    "z": 5096.6220703125
                },
                "HGKCPMDICGG": {
                    "x": -1535.1199951171875,
                    "y": 45.89799880981445,
                    "z": 5096.22705078125
                },
                "AFODHELHCGB": 35.0,
                "NDFGFJFGHKL": "EaseOutQuad",
                "IBCBGNHCICN": {},
                "BNBBLLBEIDL": true,
                "HCPFCAHMGMO": false,
                "OMCCMPHDLOO": "",
                "FEFNBKOHPOG": true,
                "OCFGGGHIKOO": "",
                "LJFHGGJDPHH": "",
                "LPKDFKLNEHL": ""
            }
        ],
        [
            {
                "$type": "MOOOKOKLLEI",
                "type": "CAMERA_MOVE",
                "duration": 0.5,
                "actionId": 198,
                "DOKGBCKOLJK": {
                    "x": -1542.9739990234375,
                    "y": 38.68899917602539,
                    "z": 5090.06884765625
                },
                "HGKCPMDICGG": {
                    "x": -1543.0689697265625,
                    "y": 38.58100128173828,
                    "z": 5089.0791015625
                },
                "AFODHELHCGB": 35.0,
                "MGMFMGNANHH": 6,
                "NDFGFJFGHKL": "EaseInOutCubic",
                "IBCBGNHCICN": {},
                "BNBBLLBEIDL": true,
                "HCPFCAHMGMO": false,
                "OMCCMPHDLOO": "",
                "FEFNBKOHPOG": true,
                "OCFGGGHIKOO": "",
                "LJFHGGJDPHH": "",
                "LPKDFKLNEHL": ""
            },
            {
                "$type": "DLPFECMKEKH",
                "type": "DIALOG",
                "aliasList": [
                    "4296"
                ],
                "actionId": 111,
                "NMKEDPFEKBH": 732251203,
                "JLCHMAJCAPA": 0.5
            },
            {
                "$type": "MOOOKOKLLEI",
                "type": "CAMERA_MOVE",
                "delayTime": 0.10000000149011612,
                "duration": 5.0,
                "actionId": 199,
                "DOKGBCKOLJK": {
                    "x": -1543.0159912109375,
                    "y": 38.696998596191406,
                    "z": 5090.07080078125
                },
                "HGKCPMDICGG": {
                    "x": -1543.1109619140625,
                    "y": 38.5890007019043,
                    "z": 5089.0810546875
                },
                "AFODHELHCGB": 35.0,
                "NDFGFJFGHKL": "EaseOutQuad",
                "IBCBGNHCICN": {},
                "BNBBLLBEIDL": true,
                "HCPFCAHMGMO": false,
                "OMCCMPHDLOO": "",
                "FEFNBKOHPOG": true,
                "OCFGGGHIKOO": "",
                "LJFHGGJDPHH": "",
                "LPKDFKLNEHL": ""
            }
        ],
        [
            {
                "$type": "MOOOKOKLLEI",
                "type": "CAMERA_MOVE",
                "duration": 0.5,
                "actionId": 200,
                "DOKGBCKOLJK": {
                    "x": -1541.5880126953125,
                    "y": 38.595001220703125,
                    "z": 5089.7578125
                },
                "HGKCPMDICGG": {
                    "x": -1542.5400390625,
                    "y": 38.51900100708008,
                    "z": 5089.4609375
                },
                "AFODHELHCGB": 35.0,
                "MGMFMGNANHH": 6,
                "NDFGFJFGHKL": "EaseInOutCubic",
                "IBCBGNHCICN": {},
                "BNBBLLBEIDL": true,
                "HCPFCAHMGMO": false,
                "OMCCMPHDLOO": "",
                "FEFNBKOHPOG": true,
                "OCFGGGHIKOO": "",
                "LJFHGGJDPHH": "",
                "LPKDFKLNEHL": ""
            },
            {
                "$type": "MoleMole.Config.ConfigTeleportToAction",
                "type": "TELEPORT_TO",
                "aliasList": [
                    "Avatar"
                ],
                "actionId": 311,
                "position": {
                    "x": -1543.93896484375,
                    "y": 37.13199996948242,
                    "z": 5089.89697265625
                },
                "forward": {
                    "x": 1.0,
                    "z": -0.00800000037997961
                },
                "openLongDisTeleport": true,
                "posBindMovingTargetKey": "",
                "forwardBindMovingTargetKey": ""
            },
            {
                "$type": "MoleMole.Config.ConfigTeleportToAction",
                "type": "TELEPORT_TO",
                "aliasList": [
                    "AvatarNpc"
                ],
                "actionId": 205,
                "position": {
                    "x": -1543.93896484375,
                    "y": 37.13199996948242,
                    "z": 5089.89697265625
                },
                "forward": {
                    "x": 1.0,
                    "z": -0.00800000037997961
                },
                "openLongDisTeleport": true,
                "posBindMovingTargetKey": "",
                "forwardBindMovingTargetKey": ""
            },
            {
                "$type": "DLPFECMKEKH",
                "type": "DIALOG",
                "aliasList": [
                    "4291"
                ],
                "actionId": 113,
                "NMKEDPFEKBH": 732251204,
                "JLCHMAJCAPA": 0.5
            },
            {
                "$type": "MOOOKOKLLEI",
                "type": "CAMERA_MOVE",
                "delayTime": 0.10000000149011612,
                "duration": 5.0,
                "actionId": 201,
                "DOKGBCKOLJK": {
                    "x": -1541.7230224609375,
                    "y": 38.58399963378906,
                    "z": 5089.7158203125
                },
                "HGKCPMDICGG": {
                    "x": -1542.675048828125,
                    "y": 38.507999420166016,
                    "z": 5089.4189453125
                },
                "AFODHELHCGB": 35.0,
                "NDFGFJFGHKL": "EaseOutQuad",
                "IBCBGNHCICN": {},
                "BNBBLLBEIDL": true,
                "HCPFCAHMGMO": false,
                "OMCCMPHDLOO": "",
                "FEFNBKOHPOG": true,
                "OCFGGGHIKOO": "",
                "LJFHGGJDPHH": "",
                "LPKDFKLNEHL": ""
            }
        ],
        [
            {
                "$type": "MOOOKOKLLEI",
                "type": "CAMERA_MOVE",
                "duration": 0.5,
                "actionId": 209,
                "DOKGBCKOLJK": {
                    "x": -1544.0030517578125,
                    "y": 38.7400016784668,
                    "z": 5089.5751953125
                },
                "HGKCPMDICGG": {
                    "x": -1543.0169677734375,
                    "y": 38.61399841308594,
                    "z": 5089.47021484375
                },
                "AFODHELHCGB": 35.0,
                "MGMFMGNANHH": 6,
                "NDFGFJFGHKL": "EaseInOutCubic",
                "IBCBGNHCICN": {},
                "BNBBLLBEIDL": true,
                "HCPFCAHMGMO": false,
                "OMCCMPHDLOO": "",
                "FEFNBKOHPOG": true,
                "OCFGGGHIKOO": "",
                "LJFHGGJDPHH": "",
                "LPKDFKLNEHL": ""
            },
            {
                "$type": "EAMBKPBOPIC",
                "type": "LOOK_AT",
                "aliasList": [
                    "AvatarNpc"
                ],
                "actionId": 211,
                "FIDJDPAIFDN": true,
                "useTargetPos": true,
                "GFKIMGBGADJ": true,
                "GMKIJKADNHN": {
                    "x": -1541.623046875,
                    "y": 38.47700119018555,
                    "z": 5089.7978515625
                },
                "BCHGCKLKNEH": 0.5,
                "OMCCMPHDLOO": "",
                "CEBMBGKJACI": "NONE",
                "EOHIIHMKDJC": true,
                "KPCALFDIHMC": "",
                "DBLNLMOPEBP": ""
            },
            {
                "$type": "DLPFECMKEKH",
                "type": "DIALOG",
                "aliasList": [
                    "4296"
                ],
                "actionId": 115,
                "NMKEDPFEKBH": 732251205,
                "JLCHMAJCAPA": 0.5
            },
            {
                "$type": "MOOOKOKLLEI",
                "type": "CAMERA_MOVE",
                "delayTime": 0.10000000149011612,
                "duration": 5.0,
                "actionId": 212,
                "DOKGBCKOLJK": {
                    "x": -1544.008056640625,
                    "y": 38.74100112915039,
                    "z": 5089.52587890625
                },
                "HGKCPMDICGG": {
                    "x": -1543.02197265625,
                    "y": 38.6150016784668,
                    "z": 5089.4208984375
                },
                "AFODHELHCGB": 35.0,
                "NDFGFJFGHKL": "EaseOutQuad",
                "IBCBGNHCICN": {},
                "BNBBLLBEIDL": true,
                "HCPFCAHMGMO": false,
                "OMCCMPHDLOO": "",
                "FEFNBKOHPOG": true,
                "OCFGGGHIKOO": "",
                "LJFHGGJDPHH": "",
                "LPKDFKLNEHL": ""
            }
        ],
        [
            {
                "$type": "MOOOKOKLLEI",
                "type": "CAMERA_MOVE",
                "duration": 5.0,
                "actionId": 213,
                "DOKGBCKOLJK": {
                    "x": -1544.0150146484375,
                    "y": 38.74100112915039,
                    "z": 5089.466796875
                },
                "HGKCPMDICGG": {
                    "x": -1543.029052734375,
                    "y": 38.6150016784668,
                    "z": 5089.36181640625
                },
                "AFODHELHCGB": 35.0,
                "NDFGFJFGHKL": "EaseOutQuad",
                "IBCBGNHCICN": {},
                "BNBBLLBEIDL": true,
                "HCPFCAHMGMO": false,
                "OMCCMPHDLOO": "",
                "FEFNBKOHPOG": true,
                "OCFGGGHIKOO": "",
                "LJFHGGJDPHH": "",
                "LPKDFKLNEHL": ""
            },
            {
                "$type": "DLPFECMKEKH",
                "type": "DIALOG",
                "aliasList": [
                    "4291"
                ],
                "actionId": 117,
                "NMKEDPFEKBH": 732251206,
                "JLCHMAJCAPA": 0.5
            }
        ],
        [
            {
                "$type": "MOOOKOKLLEI",
                "type": "CAMERA_MOVE",
                "duration": 0.5,
                "actionId": 214,
                "DOKGBCKOLJK": {
                    "x": -1540.803955078125,
                    "y": 38.73400115966797,
                    "z": 5090.72998046875
                },
                "HGKCPMDICGG": {
                    "x": -1541.5860595703125,
                    "y": 38.58700180053711,
                    "z": 5090.1240234375
                },
                "AFODHELHCGB": 35.0,
                "MGMFMGNANHH": 6,
                "NDFGFJFGHKL": "EaseInOutCubic",
                "IBCBGNHCICN": {},
                "BNBBLLBEIDL": true,
                "HCPFCAHMGMO": false,
                "OMCCMPHDLOO": "",
                "FEFNBKOHPOG": true,
                "OCFGGGHIKOO": "",
                "LJFHGGJDPHH": "",
                "LPKDFKLNEHL": ""
            },
            {
                "$type": "DLPFECMKEKH",
                "type": "DIALOG",
                "aliasList": [
                    "4296"
                ],
                "actionId": 119,
                "NMKEDPFEKBH": 732251207,
                "JLCHMAJCAPA": 0.5
            },
            {
                "$type": "ILCGAGEGDJI",
                "type": "BODY_LANG",
                "aliasList": [
                    "4296"
                ],
                "actionId": 216,
                "JLABKFNJCNP": true,
                "PMJAMGLAJGK": true,
                "LIMPPBIAKGL": false,
                "FNEGLPPEBBF": true,
                "FNDLJGEAMGI": ""
            },
            {
                "$type": "MOOOKOKLLEI",
                "type": "CAMERA_MOVE",
                "delayTime": 0.10000000149011612,
                "duration": 5.0,
                "actionId": 215,
                "DOKGBCKOLJK": {
                    "x": -1540.85205078125,
                    "y": 38.73099899291992,
                    "z": 5090.79296875
                },
                "HGKCPMDICGG": {
                    "x": -1541.634033203125,
                    "y": 38.58399963378906,
                    "z": 5090.18701171875
                },
                "AFODHELHCGB": 35.0,
                "NDFGFJFGHKL": "EaseOutQuad",
                "IBCBGNHCICN": {},
                "BNBBLLBEIDL": true,
                "HCPFCAHMGMO": false,
                "OMCCMPHDLOO": "",
                "FEFNBKOHPOG": true,
                "OCFGGGHIKOO": "",
                "LJFHGGJDPHH": "",
                "LPKDFKLNEHL": ""
            }
        ],
        [
            {
                "$type": "MOOOKOKLLEI",
                "type": "CAMERA_MOVE",
                "duration": 0.5,
                "actionId": 218,
                "DOKGBCKOLJK": {
                    "x": -1543.5040283203125,
                    "y": 38.279998779296875,
                    "z": 5091.27783203125
                },
                "HGKCPMDICGG": {
                    "x": -1543.4759521484375,
                    "y": 38.3390007019043,
                    "z": 5090.27978515625
                },
                "AFODHELHCGB": 35.0,
                "MGMFMGNANHH": 6,
                "NDFGFJFGHKL": "EaseInOutCubic",
                "IBCBGNHCICN": {},
                "BNBBLLBEIDL": true,
                "HCPFCAHMGMO": false,
                "OMCCMPHDLOO": "",
                "FEFNBKOHPOG": true,
                "OCFGGGHIKOO": "",
                "LJFHGGJDPHH": "",
                "LPKDFKLNEHL": ""
            },
            {
                "$type": "DLPFECMKEKH",
                "type": "DIALOG",
                "aliasList": [
                    "4296"
                ],
                "actionId": 121,
                "NMKEDPFEKBH": 732251208,
                "JLCHMAJCAPA": 0.5
            },
            {
                "$type": "EAMBKPBOPIC",
                "type": "LOOK_AT",
                "aliasList": [
                    "1005"
                ],
                "actionId": 222,
                "FIDJDPAIFDN": true,
                "useTargetPos": true,
                "GFKIMGBGADJ": true,
                "GMKIJKADNHN": {
                    "x": -1543.14501953125,
                    "y": 38.47700119018555,
                    "z": 5089.34619140625
                },
                "BCHGCKLKNEH": 0.5,
                "OMCCMPHDLOO": "",
                "CEBMBGKJACI": "NONE",
                "EOHIIHMKDJC": true,
                "KPCALFDIHMC": "",
                "DBLNLMOPEBP": ""
            },
            {
                "$type": "ILCGAGEGDJI",
                "type": "BODY_LANG",
                "aliasList": [
                    "1005"
                ],
                "actionId": 223,
                "JLABKFNJCNP": true,
                "PMJAMGLAJGK": true,
                "LIMPPBIAKGL": false,
                "FNEGLPPEBBF": true,
                "FNDLJGEAMGI": ""
            },
            {
                "$type": "MOOOKOKLLEI",
                "type": "CAMERA_MOVE",
                "delayTime": 0.10000000149011612,
                "duration": 5.0,
                "actionId": 219,
                "DOKGBCKOLJK": {
                    "x": -1543.614990234375,
                    "y": 38.277000427246094,
                    "z": 5091.27783203125
                },
                "HGKCPMDICGG": {
                    "x": -1543.5870361328125,
                    "y": 38.33599853515625,
                    "z": 5090.27978515625
                },
                "AFODHELHCGB": 35.0,
                "NDFGFJFGHKL": "EaseOutQuad",
                "IBCBGNHCICN": {},
                "BNBBLLBEIDL": true,
                "HCPFCAHMGMO": false,
                "OMCCMPHDLOO": "",
                "FEFNBKOHPOG": true,
                "OCFGGGHIKOO": "",
                "LJFHGGJDPHH": "",
                "LPKDFKLNEHL": ""
            },
            {
                "$type": "EAMBKPBOPIC",
                "type": "LOOK_AT",
                "delayTime": 0.1679999977350235,
                "aliasList": [
                    "AvatarNpc"
                ],
                "actionId": 221,
                "FIDJDPAIFDN": true,
                "useTargetPos": true,
                "GFKIMGBGADJ": true,
                "GMKIJKADNHN": {
                    "x": -1543.14501953125,
                    "y": 38.47700119018555,
                    "z": 5089.34619140625
                },
                "BCHGCKLKNEH": 0.5,
                "OMCCMPHDLOO": "",
                "CEBMBGKJACI": "NONE",
                "EOHIIHMKDJC": true,
                "KPCALFDIHMC": "",
                "DBLNLMOPEBP": ""
            },
            {
                "$type": "ECLBLHOENAG",
                "type": "DIALOG_SELECT",
                "delayTime": 0.4000000059604645,
                "aliasList": [
                    "AvatarNpc"
                ],
                "actionId": 166,
                "NDMMOPDPKNF": [
                    732251209
                ],
                "FPDBIEGHMCD": [
                    1684126218
                ],
                "PKBOIGBGDEG": true,
                "GOJJPCDMMLN": 3656557285
            }
        ],
        [
            {
                "$type": "MOOOKOKLLEI",
                "type": "CAMERA_MOVE",
                "duration": 0.5,
                "actionId": 224,
                "DOKGBCKOLJK": {
                    "x": -1543.5799560546875,
                    "y": 41.55799865722656,
                    "z": 5092.2841796875
                },
                "HGKCPMDICGG": {
                    "x": -1543.387939453125,
                    "y": 40.7859992980957,
                    "z": 5091.67919921875
                },
                "AFODHELHCGB": 35.0,
                "MGMFMGNANHH": 6,
                "NDFGFJFGHKL": "EaseInOutCubic",
                "IBCBGNHCICN": {},
                "BNBBLLBEIDL": true,
                "HCPFCAHMGMO": false,
                "OMCCMPHDLOO": "",
                "FEFNBKOHPOG": true,
                "OCFGGGHIKOO": "",
                "LJFHGGJDPHH": "",
                "LPKDFKLNEHL": ""
            },
            {
                "$type": "EAMBKPBOPIC",
                "type": "LOOK_AT",
                "aliasList": [
                    "AvatarNpc"
                ],
                "actionId": 227,
                "FIDJDPAIFDN": true,
                "useTargetPos": true,
                "GFKIMGBGADJ": true,
                "GMKIJKADNHN": {
                    "x": -1541.5860595703125,
                    "y": 38.76599884033203,
                    "z": 5089.80517578125
                },
                "BCHGCKLKNEH": 0.5,
                "OMCCMPHDLOO": "",
                "CEBMBGKJACI": "NONE",
                "EOHIIHMKDJC": true,
                "KPCALFDIHMC": "",
                "DBLNLMOPEBP": ""
            },
            {
                "$type": "DLPFECMKEKH",
                "type": "DIALOG",
                "aliasList": [
                    "4296"
                ],
                "actionId": 124,
                "NMKEDPFEKBH": 732251210,
                "JLCHMAJCAPA": 0.5
            },
            {
                "$type": "EAMBKPBOPIC",
                "type": "LOOK_AT",
                "aliasList": [
                    "1005"
                ],
                "actionId": 226,
                "FIDJDPAIFDN": true,
                "useTargetPos": true,
                "GFKIMGBGADJ": true,
                "GMKIJKADNHN": {
                    "x": -1541.5860595703125,
                    "y": 38.76599884033203,
                    "z": 5089.80517578125
                },
                "BCHGCKLKNEH": 0.5,
                "OMCCMPHDLOO": "",
                "CEBMBGKJACI": "NONE",
                "EOHIIHMKDJC": true,
                "KPCALFDIHMC": "",
                "DBLNLMOPEBP": ""
            },
            {
                "$type": "MOOOKOKLLEI",
                "type": "CAMERA_MOVE",
                "delayTime": 0.10000000149011612,
                "duration": 8.53600025177002,
                "actionId": 225,
                "DOKGBCKOLJK": {
                    "x": -1544.2080078125,
                    "y": 41.448001861572266,
                    "z": 5092.14990234375
                },
                "HGKCPMDICGG": {
                    "x": -1543.886962890625,
                    "y": 40.685001373291016,
                    "z": 5091.587890625
                },
                "AFODHELHCGB": 35.0,
                "NDFGFJFGHKL": "EaseOutQuad",
                "IBCBGNHCICN": {},
                "BNBBLLBEIDL": true,
                "HCPFCAHMGMO": false,
                "OMCCMPHDLOO": "",
                "FEFNBKOHPOG": true,
                "OCFGGGHIKOO": "",
                "LJFHGGJDPHH": "",
                "LPKDFKLNEHL": ""
            }
        ],
        [
            {
                "$type": "MOOOKOKLLEI",
                "type": "CAMERA_MOVE",
                "duration": 0.5,
                "actionId": 228,
                "DOKGBCKOLJK": {
                    "x": -1542.530029296875,
                    "y": 38.81399917602539,
                    "z": 5089.73681640625
                },
                "HGKCPMDICGG": {
                    "x": -1543.175048828125,
                    "y": 38.54399871826172,
                    "z": 5089.02197265625
                },
                "AFODHELHCGB": 35.0,
                "MGMFMGNANHH": 6,
                "NDFGFJFGHKL": "EaseInOutCubic",
                "IBCBGNHCICN": {},
                "BNBBLLBEIDL": true,
                "HCPFCAHMGMO": false,
                "OMCCMPHDLOO": "",
                "FEFNBKOHPOG": true,
                "OCFGGGHIKOO": "",
                "LJFHGGJDPHH": "",
                "LPKDFKLNEHL": ""
            },
            {
                "$type": "DLPFECMKEKH",
                "type": "DIALOG",
                "aliasList": [
                    "4296"
                ],
                "actionId": 126,
                "NMKEDPFEKBH": 732251211,
                "JLCHMAJCAPA": 0.5
            },
            {
                "$type": "MOOOKOKLLEI",
                "type": "CAMERA_MOVE",
                "delayTime": 0.10000000149011612,
                "duration": 5.0,
                "actionId": 229,
                "DOKGBCKOLJK": {
                    "x": -1542.60205078125,
                    "y": 38.82600021362305,
                    "z": 5089.7978515625
                },
                "HGKCPMDICGG": {
                    "x": -1543.2469482421875,
                    "y": 38.555999755859375,
                    "z": 5089.0830078125
                },
                "AFODHELHCGB": 35.0,
                "NDFGFJFGHKL": "EaseOutQuad",
                "IBCBGNHCICN": {},
                "BNBBLLBEIDL": true,
                "HCPFCAHMGMO": false,
                "OMCCMPHDLOO": "",
                "FEFNBKOHPOG": true,
                "OCFGGGHIKOO": "",
                "LJFHGGJDPHH": "",
                "LPKDFKLNEHL": ""
            }
        ],
        [
            {
                "$type": "MOOOKOKLLEI",
                "type": "CAMERA_MOVE",
                "duration": 0.5,
                "actionId": 234,
                "DOKGBCKOLJK": {
                    "x": -1543.8509521484375,
                    "y": 38.823001861572266,
                    "z": 5089.7587890625
                },
                "HGKCPMDICGG": {
                    "x": -1542.89697265625,
                    "y": 38.61399841308594,
                    "z": 5089.5419921875
                },
                "AFODHELHCGB": 35.0,
                "MGMFMGNANHH": 6,
                "NDFGFJFGHKL": "EaseInOutCubic",
                "IBCBGNHCICN": {},
                "BNBBLLBEIDL": true,
                "HCPFCAHMGMO": false,
                "OMCCMPHDLOO": "",
                "FEFNBKOHPOG": true,
                "OCFGGGHIKOO": "",
                "LJFHGGJDPHH": "",
                "LPKDFKLNEHL": ""
            },
            {
                "$type": "DLPFECMKEKH",
                "type": "DIALOG",
                "aliasList": [
                    "4296"
                ],
                "actionId": 128,
                "NMKEDPFEKBH": 732251212,
                "JLCHMAJCAPA": 0.5
            },
            {
                "$type": "MOOOKOKLLEI",
                "type": "CAMERA_MOVE",
                "delayTime": 0.10000000149011612,
                "duration": 5.0,
                "actionId": 235,
                "DOKGBCKOLJK": {
                    "x": -1543.873046875,
                    "y": 38.82400131225586,
                    "z": 5089.6630859375
                },
                "HGKCPMDICGG": {
                    "x": -1542.9189453125,
                    "y": 38.6150016784668,
                    "z": 5089.44677734375
                },
                "AFODHELHCGB": 35.0,
                "NDFGFJFGHKL": "EaseOutQuad",
                "IBCBGNHCICN": {},
                "BNBBLLBEIDL": true,
                "HCPFCAHMGMO": false,
                "OMCCMPHDLOO": "",
                "FEFNBKOHPOG": true,
                "OCFGGGHIKOO": "",
                "LJFHGGJDPHH": "",
                "LPKDFKLNEHL": ""
            }
        ],
        [
            {
                "$type": "MOOOKOKLLEI",
                "type": "CAMERA_MOVE",
                "duration": 5.0,
                "actionId": 236,
                "DOKGBCKOLJK": {
                    "x": -1543.873046875,
                    "y": 38.82400131225586,
                    "z": 5089.6630859375
                },
                "HGKCPMDICGG": {
                    "x": -1542.9189453125,
                    "y": 38.6150016784668,
                    "z": 5089.44677734375
                },
                "AFODHELHCGB": 35.0,
                "NDFGFJFGHKL": "EaseOutQuad",
                "IBCBGNHCICN": {},
                "BNBBLLBEIDL": true,
                "HCPFCAHMGMO": false,
                "OMCCMPHDLOO": "",
                "FEFNBKOHPOG": true,
                "OCFGGGHIKOO": "",
                "LJFHGGJDPHH": "",
                "LPKDFKLNEHL": ""
            },
            {
                "$type": "DLPFECMKEKH",
                "type": "DIALOG",
                "aliasList": [
                    "4296"
                ],
                "actionId": 130,
                "NMKEDPFEKBH": 732251213,
                "JLCHMAJCAPA": 0.5
            }
        ],
        [
            {
                "$type": "MOOOKOKLLEI",
                "type": "CAMERA_MOVE",
                "duration": 0.5,
                "actionId": 237,
                "DOKGBCKOLJK": {
                    "x": -1540.697021484375,
                    "y": 38.84600067138672,
                    "z": 5090.93798828125
                },
                "HGKCPMDICGG": {
                    "x": -1541.447021484375,
                    "y": 38.611000061035156,
                    "z": 5090.31982421875
                },
                "AFODHELHCGB": 35.0,
                "MGMFMGNANHH": 6,
                "NDFGFJFGHKL": "EaseInOutCubic",
                "IBCBGNHCICN": {},
                "BNBBLLBEIDL": true,
                "HCPFCAHMGMO": false,
                "OMCCMPHDLOO": "",
                "FEFNBKOHPOG": true,
                "OCFGGGHIKOO": "",
                "LJFHGGJDPHH": "",
                "LPKDFKLNEHL": ""
            },
            {
                "$type": "DLPFECMKEKH",
                "type": "DIALOG",
                "aliasList": [
                    "4291"
                ],
                "actionId": 132,
                "NMKEDPFEKBH": 732251214,
                "JLCHMAJCAPA": 0.5
            },
            {
                "$type": "ILCGAGEGDJI",
                "type": "BODY_LANG",
                "aliasList": [
                    "4291"
                ],
                "actionId": 239,
                "JLABKFNJCNP": true,
                "PMJAMGLAJGK": true,
                "LIMPPBIAKGL": false,
                "FNEGLPPEBBF": true,
                "FNDLJGEAMGI": ""
            },
            {
                "$type": "EAMBKPBOPIC",
                "type": "LOOK_AT",
                "aliasList": [
                    "4291"
                ],
                "actionId": 241,
                "FIDJDPAIFDN": true,
                "useTargetPos": true,
                "GFKIMGBGADJ": true,
                "GMKIJKADNHN": {
                    "x": -1543.14501953125,
                    "y": 38.47700119018555,
                    "z": 5089.34619140625
                },
                "BCHGCKLKNEH": 0.5,
                "OMCCMPHDLOO": "",
                "CEBMBGKJACI": "NONE",
                "EOHIIHMKDJC": true,
                "KPCALFDIHMC": "",
                "DBLNLMOPEBP": ""
            },
            {
                "$type": "MOOOKOKLLEI",
                "type": "CAMERA_MOVE",
                "delayTime": 0.10000000149011612,
                "duration": 5.0,
                "actionId": 238,
                "DOKGBCKOLJK": {
                    "x": -1540.72705078125,
                    "y": 38.926998138427734,
                    "z": 5090.94287109375
                },
                "HGKCPMDICGG": {
                    "x": -1541.47705078125,
                    "y": 38.69200134277344,
                    "z": 5090.3251953125
                },
                "AFODHELHCGB": 35.0,
                "NDFGFJFGHKL": "EaseOutQuad",
                "IBCBGNHCICN": {},
                "BNBBLLBEIDL": true,
                "HCPFCAHMGMO": false,
                "OMCCMPHDLOO": "",
                "FEFNBKOHPOG": true,
                "OCFGGGHIKOO": "",
                "LJFHGGJDPHH": "",
                "LPKDFKLNEHL": ""
            }
        ],
        [
            {
                "$type": "MOOOKOKLLEI",
                "type": "CAMERA_MOVE",
                "duration": 0.5,
                "actionId": 242,
                "DOKGBCKOLJK": {
                    "x": -1541.9949951171875,
                    "y": 38.777000427246094,
                    "z": 5089.85888671875
                },
                "HGKCPMDICGG": {
                    "x": -1541.1190185546875,
                    "y": 38.555999755859375,
                    "z": 5089.43115234375
                },
                "AFODHELHCGB": 35.0,
                "MGMFMGNANHH": 6,
                "NDFGFJFGHKL": "EaseInOutCubic",
                "IBCBGNHCICN": {},
                "BNBBLLBEIDL": true,
                "HCPFCAHMGMO": false,
                "OMCCMPHDLOO": "",
                "FEFNBKOHPOG": true,
                "OCFGGGHIKOO": "",
                "LJFHGGJDPHH": "",
                "LPKDFKLNEHL": ""
            },
            {
                "$type": "DLPFECMKEKH",
                "type": "DIALOG",
                "aliasList": [
                    "4291"
                ],
                "actionId": 134,
                "NMKEDPFEKBH": 732251215,
                "JLCHMAJCAPA": 0.5
            },
            {
                "$type": "MOOOKOKLLEI",
                "type": "CAMERA_MOVE",
                "delayTime": 0.10000000149011612,
                "duration": 11.095999717712402,
                "actionId": 243,
                "DOKGBCKOLJK": {
                    "x": -1541.9599609375,
                    "y": 38.78200149536133,
                    "z": 5089.92578125
                },
                "HGKCPMDICGG": {
                    "x": -1541.0830078125,
                    "y": 38.56100082397461,
                    "z": 5089.498046875
                },
                "AFODHELHCGB": 35.0,
                "NDFGFJFGHKL": "EaseOutQuad",
                "IBCBGNHCICN": {},
                "BNBBLLBEIDL": true,
                "HCPFCAHMGMO": false,
                "OMCCMPHDLOO": "",
                "FEFNBKOHPOG": true,
                "OCFGGGHIKOO": "",
                "LJFHGGJDPHH": "",
                "LPKDFKLNEHL": ""
            }
        ],
        [
            {
                "$type": "MOOOKOKLLEI",
                "type": "CAMERA_MOVE",
                "duration": 0.5,
                "actionId": 244,
                "DOKGBCKOLJK": {
                    "x": -1543.2769775390625,
                    "y": 37.6879997253418,
                    "z": 5094.18798828125
                },
                "HGKCPMDICGG": {
                    "x": -1543.113037109375,
                    "y": 37.76499938964844,
                    "z": 5093.205078125
                },
                "AFODHELHCGB": 35.0,
                "MGMFMGNANHH": 6,
                "NDFGFJFGHKL": "EaseInOutCubic",
                "IBCBGNHCICN": {},
                "BNBBLLBEIDL": true,
                "HCPFCAHMGMO": false,
                "OMCCMPHDLOO": "",
                "FEFNBKOHPOG": true,
                "OCFGGGHIKOO": "",
                "LJFHGGJDPHH": "",
                "LPKDFKLNEHL": ""
            },
            {
                "$type": "DLPFECMKEKH",
                "type": "DIALOG",
                "aliasList": [
                    "4296"
                ],
                "actionId": 136,
                "NMKEDPFEKBH": 732251216,
                "JLCHMAJCAPA": 0.5
            },
            {
                "$type": "ILCGAGEGDJI",
                "type": "BODY_LANG",
                "aliasList": [
                    "4296"
                ],
                "actionId": 247,
                "FLBOOPHHFJP": 1230,
                "PMJAMGLAJGK": true,
                "LIMPPBIAKGL": false,
                "FNEGLPPEBBF": true,
                "FNDLJGEAMGI": ""
            },
            {
                "$type": "MOOOKOKLLEI",
                "type": "CAMERA_MOVE",
                "delayTime": 0.10000000149011612,
                "duration": 5.0,
                "actionId": 245,
                "DOKGBCKOLJK": {
                    "x": -1543.447021484375,
                    "y": 37.6879997253418,
                    "z": 5094.16015625
                },
                "HGKCPMDICGG": {
                    "x": -1543.282958984375,
                    "y": 37.76499938964844,
                    "z": 5093.1767578125
                },
                "AFODHELHCGB": 35.0,
                "NDFGFJFGHKL": "EaseOutQuad",
                "IBCBGNHCICN": {},
                "BNBBLLBEIDL": true,
                "HCPFCAHMGMO": false,
                "OMCCMPHDLOO": "",
                "FEFNBKOHPOG": true,
                "OCFGGGHIKOO": "",
                "LJFHGGJDPHH": "",
                "LPKDFKLNEHL": ""
            }
        ],
        [
            {
                "$type": "MOOOKOKLLEI",
                "type": "CAMERA_MOVE",
                "duration": 5.0,
                "actionId": 248,
                "DOKGBCKOLJK": {
                    "x": -1543.552978515625,
                    "y": 37.68899917602539,
                    "z": 5094.14306640625
                },
                "HGKCPMDICGG": {
                    "x": -1543.3890380859375,
                    "y": 37.76599884033203,
                    "z": 5093.16015625
                },
                "AFODHELHCGB": 35.0,
                "NDFGFJFGHKL": "EaseOutQuad",
                "IBCBGNHCICN": {},
                "BNBBLLBEIDL": true,
                "HCPFCAHMGMO": false,
                "OMCCMPHDLOO": "",
                "FEFNBKOHPOG": true,
                "OCFGGGHIKOO": "",
                "LJFHGGJDPHH": "",
                "LPKDFKLNEHL": ""
            },
            {
                "$type": "DLPFECMKEKH",
                "type": "DIALOG",
                "aliasList": [
                    "4296"
                ],
                "actionId": 138,
                "NMKEDPFEKBH": 732251217,
                "JLCHMAJCAPA": 0.5
            }
        ],
        [
            {
                "$type": "MOOOKOKLLEI",
                "type": "CAMERA_MOVE",
                "duration": 0.5,
                "actionId": 252,
                "DOKGBCKOLJK": {
                    "x": -1542.0400390625,
                    "y": 38.777000427246094,
                    "z": 5089.9912109375
                },
                "HGKCPMDICGG": {
                    "x": -1541.1719970703125,
                    "y": 38.599998474121094,
                    "z": 5089.52783203125
                },
                "AFODHELHCGB": 35.0,
                "MGMFMGNANHH": 6,
                "NDFGFJFGHKL": "EaseInOutCubic",
                "IBCBGNHCICN": {},
                "BNBBLLBEIDL": true,
                "HCPFCAHMGMO": false,
                "OMCCMPHDLOO": "",
                "FEFNBKOHPOG": true,
                "OCFGGGHIKOO": "",
                "LJFHGGJDPHH": "",
                "LPKDFKLNEHL": ""
            },
            {
                "$type": "DLPFECMKEKH",
                "type": "DIALOG",
                "aliasList": [
                    "4291"
                ],
                "actionId": 140,
                "NMKEDPFEKBH": 732251218,
                "JLCHMAJCAPA": 0.5
            }
        ],
        [
            {
                "$type": "MOOOKOKLLEI",
                "type": "CAMERA_MOVE",
                "duration": 0.5,
                "actionId": 253,
                "DOKGBCKOLJK": {
                    "x": -1541.9210205078125,
                    "y": 41.64400100708008,
                    "z": 5092.10009765625
                },
                "HGKCPMDICGG": {
                    "x": -1542.0159912109375,
                    "y": 40.856998443603516,
                    "z": 5091.4912109375
                },
                "AFODHELHCGB": 35.0,
                "MGMFMGNANHH": 6,
                "NDFGFJFGHKL": "EaseInOutCubic",
                "IBCBGNHCICN": {},
                "BNBBLLBEIDL": true,
                "HCPFCAHMGMO": false,
                "OMCCMPHDLOO": "",
                "FEFNBKOHPOG": true,
                "OCFGGGHIKOO": "",
                "LJFHGGJDPHH": "",
                "LPKDFKLNEHL": ""
            },
            {
                "$type": "DLPFECMKEKH",
                "type": "DIALOG",
                "aliasList": [
                    "4296"
                ],
                "actionId": 142,
                "NMKEDPFEKBH": 732251219,
                "JLCHMAJCAPA": 0.5
            },
            {
                "$type": "MOOOKOKLLEI",
                "type": "CAMERA_MOVE",
                "delayTime": 0.10000000149011612,
                "duration": 5.0,
                "actionId": 254,
                "DOKGBCKOLJK": {
                    "x": -1542.2349853515625,
                    "y": 41.672000885009766,
                    "z": 5092.11083984375
                },
                "HGKCPMDICGG": {
                    "x": -1542.3299560546875,
                    "y": 40.8849983215332,
                    "z": 5091.501953125
                },
                "AFODHELHCGB": 35.0,
                "NDFGFJFGHKL": "EaseOutQuad",
                "IBCBGNHCICN": {},
                "BNBBLLBEIDL": true,
                "HCPFCAHMGMO": false,
                "OMCCMPHDLOO": "",
                "FEFNBKOHPOG": true,
                "OCFGGGHIKOO": "",
                "LJFHGGJDPHH": "",
                "LPKDFKLNEHL": ""
            }
        ],
        [
            {
                "$type": "MOOOKOKLLEI",
                "type": "CAMERA_MOVE",
                "duration": 0.5,
                "actionId": 255,
                "DOKGBCKOLJK": {
                    "x": -1542.656005859375,
                    "y": 38.7859992980957,
                    "z": 5089.93798828125
                },
                "HGKCPMDICGG": {
                    "x": -1541.699951171875,
                    "y": 38.624000549316406,
                    "z": 5089.69384765625
                },
                "AFODHELHCGB": 35.0,
                "MGMFMGNANHH": 6,
                "NDFGFJFGHKL": "EaseInOutCubic",
                "IBCBGNHCICN": {},
                "BNBBLLBEIDL": true,
                "HCPFCAHMGMO": false,
                "OMCCMPHDLOO": "",
                "FEFNBKOHPOG": true,
                "OCFGGGHIKOO": "",
                "LJFHGGJDPHH": "",
                "LPKDFKLNEHL": ""
            },
            {
                "$type": "DLPFECMKEKH",
                "type": "DIALOG",
                "aliasList": [
                    "4291"
                ],
                "actionId": 144,
                "NMKEDPFEKBH": 732251220,
                "JLCHMAJCAPA": 0.5
            },
            {
                "$type": "MOOOKOKLLEI",
                "type": "CAMERA_MOVE",
                "delayTime": 0.10000000149011612,
                "duration": 5.0,
                "actionId": 257,
                "DOKGBCKOLJK": {
                    "x": -1542.553955078125,
                    "y": 38.76900100708008,
                    "z": 5089.93798828125
                },
                "HGKCPMDICGG": {
                    "x": -1541.5980224609375,
                    "y": 38.606998443603516,
                    "z": 5089.69384765625
                },
                "AFODHELHCGB": 35.0,
                "NDFGFJFGHKL": "EaseOutQuad",
                "IBCBGNHCICN": {},
                "BNBBLLBEIDL": true,
                "HCPFCAHMGMO": false,
                "OMCCMPHDLOO": "",
                "FEFNBKOHPOG": true,
                "OCFGGGHIKOO": "",
                "LJFHGGJDPHH": "",
                "LPKDFKLNEHL": ""
            }
        ],
        [
            {
                "$type": "MOOOKOKLLEI",
                "type": "CAMERA_MOVE",
                "duration": 0.5,
                "actionId": 258,
                "DOKGBCKOLJK": {
                    "x": -1543.5369873046875,
                    "y": 37.69300079345703,
                    "z": 5094.90380859375
                },
                "HGKCPMDICGG": {
                    "x": -1543.375,
                    "y": 37.749000549316406,
                    "z": 5093.91796875
                },
                "AFODHELHCGB": 35.0,
                "MGMFMGNANHH": 6,
                "NDFGFJFGHKL": "EaseInOutCubic",
                "IBCBGNHCICN": {},
                "BNBBLLBEIDL": true,
                "HCPFCAHMGMO": false,
                "OMCCMPHDLOO": "",
                "FEFNBKOHPOG": true,
                "OCFGGGHIKOO": "",
                "LJFHGGJDPHH": "",
                "LPKDFKLNEHL": ""
            },
            {
                "$type": "DLPFECMKEKH",
                "type": "DIALOG",
                "aliasList": [
                    "4291"
                ],
                "actionId": 146,
                "NMKEDPFEKBH": 732251221,
                "JLCHMAJCAPA": 0.5
            },
            {
                "$type": "MOOOKOKLLEI",
                "type": "CAMERA_MOVE",
                "delayTime": 0.10000000149011612,
                "duration": 5.0,
                "actionId": 260,
                "DOKGBCKOLJK": {
                    "x": -1543.4739990234375,
                    "y": 37.68600082397461,
                    "z": 5095.06591796875
                },
                "HGKCPMDICGG": {
                    "x": -1543.31201171875,
                    "y": 37.742000579833984,
                    "z": 5094.0810546875
                },
                "AFODHELHCGB": 35.0,
                "NDFGFJFGHKL": "EaseOutQuad",
                "IBCBGNHCICN": {},
                "BNBBLLBEIDL": true,
                "HCPFCAHMGMO": false,
                "OMCCMPHDLOO": "",
                "FEFNBKOHPOG": true,
                "OCFGGGHIKOO": "",
                "LJFHGGJDPHH": "",
                "LPKDFKLNEHL": ""
            }
        ],
        [
            {
                "$type": "MOOOKOKLLEI",
                "type": "CAMERA_MOVE",
                "duration": 5.0,
                "actionId": 261,
                "DOKGBCKOLJK": {
                    "x": -1543.5009765625,
                    "y": 37.67599868774414,
                    "z": 5095.22900390625
                },
                "HGKCPMDICGG": {
                    "x": -1543.3389892578125,
                    "y": 37.731998443603516,
                    "z": 5094.244140625
                },
                "AFODHELHCGB": 35.0,
                "NDFGFJFGHKL": "EaseOutQuad",
                "IBCBGNHCICN": {},
                "BNBBLLBEIDL": true,
                "HCPFCAHMGMO": false,
                "OMCCMPHDLOO": "",
                "FEFNBKOHPOG": true,
                "OCFGGGHIKOO": "",
                "LJFHGGJDPHH": "",
                "LPKDFKLNEHL": ""
            },
            {
                "$type": "DLPFECMKEKH",
                "type": "DIALOG",
                "aliasList": [
                    "4291"
                ],
                "actionId": 148,
                "NMKEDPFEKBH": 732251222,
                "JLCHMAJCAPA": 0.5
            }
        ],
        [
            {
                "$type": "MOOOKOKLLEI",
                "type": "CAMERA_MOVE",
                "duration": 0.5,
                "actionId": 264,
                "DOKGBCKOLJK": {
                    "x": -1542.4229736328125,
                    "y": 38.30400085449219,
                    "z": 5090.16796875
                },
                "HGKCPMDICGG": {
                    "x": -1542.947998046875,
                    "y": 38.487998962402344,
                    "z": 5089.3369140625
                },
                "AFODHELHCGB": 35.0,
                "MGMFMGNANHH": 6,
                "NDFGFJFGHKL": "EaseInOutCubic",
                "IBCBGNHCICN": {},
                "BNBBLLBEIDL": true,
                "HCPFCAHMGMO": false,
                "OMCCMPHDLOO": "",
                "FEFNBKOHPOG": true,
                "OCFGGGHIKOO": "",
                "LJFHGGJDPHH": "",
                "LPKDFKLNEHL": ""
            },
            {
                "$type": "DLPFECMKEKH",
                "type": "DIALOG",
                "aliasList": [
                    "4296"
                ],
                "actionId": 150,
                "NMKEDPFEKBH": 732251223,
                "JLCHMAJCAPA": 0.5
            }
        ],
        [
            {
                "$type": "MOOOKOKLLEI",
                "type": "CAMERA_MOVE",
                "duration": 0.5,
                "actionId": 265,
                "DOKGBCKOLJK": {
                    "x": -1544.0140380859375,
                    "y": 38.742000579833984,
                    "z": 5089.52783203125
                },
                "HGKCPMDICGG": {
                    "x": -1543.0369873046875,
                    "y": 38.60100173950195,
                    "z": 5089.3701171875
                },
                "AFODHELHCGB": 35.0,
                "MGMFMGNANHH": 6,
                "NDFGFJFGHKL": "EaseInOutCubic",
                "IBCBGNHCICN": {},
                "BNBBLLBEIDL": true,
                "HCPFCAHMGMO": false,
                "OMCCMPHDLOO": "",
                "FEFNBKOHPOG": true,
                "OCFGGGHIKOO": "",
                "LJFHGGJDPHH": "",
                "LPKDFKLNEHL": ""
            },
            {
                "$type": "DLPFECMKEKH",
                "type": "DIALOG",
                "aliasList": [
                    "4291"
                ],
                "actionId": 152,
                "NMKEDPFEKBH": 732251224,
                "JLCHMAJCAPA": 0.5
            },
            {
                "$type": "ILCGAGEGDJI",
                "type": "BODY_LANG",
                "aliasList": [
                    "4291"
                ],
                "actionId": 266,
                "JLABKFNJCNP": true,
                "PMJAMGLAJGK": true,
                "LIMPPBIAKGL": false,
                "FNEGLPPEBBF": true,
                "FNDLJGEAMGI": ""
            },
            {
                "$type": "MOOOKOKLLEI",
                "type": "CAMERA_MOVE",
                "delayTime": 0.10000000149011612,
                "duration": 5.0,
                "actionId": 270,
                "DOKGBCKOLJK": {
                    "x": -1544.0,
                    "y": 38.762001037597656,
                    "z": 5089.59521484375
                },
                "HGKCPMDICGG": {
                    "x": -1543.02294921875,
                    "y": 38.62099838256836,
                    "z": 5089.43798828125
                },
                "AFODHELHCGB": 35.0,
                "NDFGFJFGHKL": "EaseOutQuad",
                "IBCBGNHCICN": {},
                "BNBBLLBEIDL": true,
                "HCPFCAHMGMO": false,
                "OMCCMPHDLOO": "",
                "FEFNBKOHPOG": true,
                "OCFGGGHIKOO": "",
                "LJFHGGJDPHH": "",
                "LPKDFKLNEHL": ""
            },
            {
                "$type": "ECLBLHOENAG",
                "type": "DIALOG_SELECT",
                "delayTime": 0.4000000059604645,
                "aliasList": [
                    "AvatarNpc"
                ],
                "actionId": 167,
                "NDMMOPDPKNF": [
                    732251225
                ],
                "FPDBIEGHMCD": [
                    1684126254
                ],
                "PKBOIGBGDEG": true,
                "GOJJPCDMMLN": 3656557285
            }
        ],
        [
            {
                "$type": "MOOOKOKLLEI",
                "type": "CAMERA_MOVE",
                "duration": 0.5,
                "actionId": 267,
                "DOKGBCKOLJK": {
                    "x": -1540.125,
                    "y": 37.78799819946289,
                    "z": 5092.31298828125
                },
                "HGKCPMDICGG": {
                    "x": -1540.760986328125,
                    "y": 37.87099838256836,
                    "z": 5091.5458984375
                },
                "AFODHELHCGB": 35.0,
                "MGMFMGNANHH": 6,
                "NDFGFJFGHKL": "EaseInOutCubic",
                "IBCBGNHCICN": {},
                "BNBBLLBEIDL": true,
                "HCPFCAHMGMO": false,
                "OMCCMPHDLOO": "",
                "FEFNBKOHPOG": true,
                "OCFGGGHIKOO": "",
                "LJFHGGJDPHH": "",
                "LPKDFKLNEHL": ""
            },
            {
                "$type": "DLPFECMKEKH",
                "type": "DIALOG",
                "aliasList": [
                    "4296"
                ],
                "actionId": 155,
                "NMKEDPFEKBH": 732251226,
                "JLCHMAJCAPA": 0.5
            },
            {
                "$type": "ILCGAGEGDJI",
                "type": "BODY_LANG",
                "aliasList": [
                    "4296"
                ],
                "actionId": 277,
                "JLABKFNJCNP": true,
                "PMJAMGLAJGK": true,
                "LIMPPBIAKGL": false,
                "FNEGLPPEBBF": true,
                "FNDLJGEAMGI": ""
            },
            {
                "$type": "MOOOKOKLLEI",
                "type": "CAMERA_MOVE",
                "delayTime": 0.10000000149011612,
                "duration": 26.566999435424805,
                "actionId": 268,
                "DOKGBCKOLJK": {
                    "x": -1540.845947265625,
                    "y": 37.68899917602539,
                    "z": 5092.78515625
                },
                "HGKCPMDICGG": {
                    "x": -1541.3179931640625,
                    "y": 37.79600143432617,
                    "z": 5091.91015625
                },
                "AFODHELHCGB": 35.0,
                "NDFGFJFGHKL": "EaseOutQuad",
                "IBCBGNHCICN": {},
                "BNBBLLBEIDL": true,
                "HCPFCAHMGMO": false,
                "OMCCMPHDLOO": "",
                "FEFNBKOHPOG": true,
                "OCFGGGHIKOO": "",
                "LJFHGGJDPHH": "",
                "LPKDFKLNEHL": ""
            }
        ],
        [
            {
                "$type": "MOOOKOKLLEI",
                "type": "CAMERA_MOVE",
                "duration": 0.5,
                "actionId": 269,
                "DOKGBCKOLJK": {
                    "x": -1542.2149658203125,
                    "y": 38.8120002746582,
                    "z": 5089.76904296875
                },
                "HGKCPMDICGG": {
                    "x": -1541.239990234375,
                    "y": 38.59400177001953,
                    "z": 5089.73583984375
                },
                "AFODHELHCGB": 30.0,
                "MGMFMGNANHH": 6,
                "NDFGFJFGHKL": "EaseInOutCubic",
                "IBCBGNHCICN": {},
                "BNBBLLBEIDL": true,
                "HCPFCAHMGMO": false,
                "OMCCMPHDLOO": "",
                "FEFNBKOHPOG": true,
                "OCFGGGHIKOO": "",
                "LJFHGGJDPHH": "",
                "LPKDFKLNEHL": ""
            },
            {
                "$type": "DLPFECMKEKH",
                "type": "DIALOG",
                "aliasList": [
                    "4291"
                ],
                "actionId": 157,
                "NMKEDPFEKBH": 732251227,
                "JLCHMAJCAPA": 0.5
            }
        ],
        [
            {
                "$type": "MOOOKOKLLEI",
                "type": "CAMERA_MOVE",
                "duration": 0.5,
                "actionId": 271,
                "DOKGBCKOLJK": {
                    "x": -1543.1080322265625,
                    "y": 38.691001892089844,
                    "z": 5090.06787109375
                },
                "HGKCPMDICGG": {
                    "x": -1542.9940185546875,
                    "y": 38.638999938964844,
                    "z": 5089.076171875
                },
                "AFODHELHCGB": 30.0,
                "MGMFMGNANHH": 6,
                "NDFGFJFGHKL": "EaseInOutCubic",
                "IBCBGNHCICN": {},
                "BNBBLLBEIDL": true,
                "HCPFCAHMGMO": false,
                "OMCCMPHDLOO": "",
                "FEFNBKOHPOG": true,
                "OCFGGGHIKOO": "",
                "LJFHGGJDPHH": "",
                "LPKDFKLNEHL": ""
            },
            {
                "$type": "DLPFECMKEKH",
                "type": "DIALOG",
                "aliasList": [
                    "4296"
                ],
                "actionId": 159,
                "NMKEDPFEKBH": 732251228,
                "JLCHMAJCAPA": 0.5
            }
        ],
        [
            {
                "$type": "MOOOKOKLLEI",
                "type": "CAMERA_MOVE",
                "duration": 0.5,
                "actionId": 273,
                "DOKGBCKOLJK": {
                    "x": -1542.35498046875,
                    "y": 38.79999923706055,
                    "z": 5089.44580078125
                },
                "HGKCPMDICGG": {
                    "x": -1543.3360595703125,
                    "y": 38.619998931884766,
                    "z": 5089.373046875
                },
                "AFODHELHCGB": 30.0,
                "MGMFMGNANHH": 6,
                "NDFGFJFGHKL": "EaseInOutCubic",
                "IBCBGNHCICN": {},
                "BNBBLLBEIDL": true,
                "HCPFCAHMGMO": false,
                "OMCCMPHDLOO": "",
                "FEFNBKOHPOG": true,
                "OCFGGGHIKOO": "",
                "LJFHGGJDPHH": "",
                "LPKDFKLNEHL": ""
            },
            {
                "$type": "EAMBKPBOPIC",
                "type": "LOOK_AT",
                "aliasList": [
                    "AvatarNpc"
                ],
                "actionId": 279,
                "FIDJDPAIFDN": true,
                "useTargetPos": true,
                "GFKIMGBGADJ": true,
                "GMKIJKADNHN": {
                    "x": -1541.9849853515625,
                    "y": 38.599998474121094,
                    "z": 5089.69384765625
                },
                "BCHGCKLKNEH": 0.5,
                "OMCCMPHDLOO": "4291",
                "CEBMBGKJACI": "NONE",
                "EOHIIHMKDJC": true,
                "KPCALFDIHMC": "",
                "DBLNLMOPEBP": ""
            },
            {
                "$type": "DLPFECMKEKH",
                "type": "DIALOG",
                "aliasList": [
                    "4296"
                ],
                "actionId": 161,
                "NMKEDPFEKBH": 732251229,
                "JLCHMAJCAPA": 0.5
            },
            {
                "$type": "ILCGAGEGDJI",
                "type": "BODY_LANG",
                "aliasList": [
                    "4296"
                ],
                "actionId": 272,
                "JLABKFNJCNP": true,
                "PMJAMGLAJGK": true,
                "LIMPPBIAKGL": false,
                "FNEGLPPEBBF": true,
                "FNDLJGEAMGI": ""
            },
            {
                "$type": "MOOOKOKLLEI",
                "type": "CAMERA_MOVE",
                "delayTime": 0.10000000149011612,
                "duration": 5.0,
                "actionId": 274,
                "DOKGBCKOLJK": {
                    "x": -1542.5179443359375,
                    "y": 38.770999908447266,
                    "z": 5089.43408203125
                },
                "HGKCPMDICGG": {
                    "x": -1543.4990234375,
                    "y": 38.590999603271484,
                    "z": 5089.36083984375
                },
                "AFODHELHCGB": 30.0,
                "IANMAMEMAMI": 15.0,
                "NDFGFJFGHKL": "EaseOutQuad",
                "IBCBGNHCICN": {},
                "BNBBLLBEIDL": true,
                "HCPFCAHMGMO": false,
                "OMCCMPHDLOO": "",
                "FEFNBKOHPOG": true,
                "OCFGGGHIKOO": "",
                "LJFHGGJDPHH": "",
                "LPKDFKLNEHL": ""
            }
        ],
        [
            {
                "$type": "MoleMole.Config.ConfigTimeProtectAction",
                "type": "TIME_PROTECT",
                "duration": 5.495999813079834,
                "actionId": 289
            },
            {
                "$type": "MOOOKOKLLEI",
                "type": "CAMERA_MOVE",
                "duration": 0.5,
                "actionId": 290,
                "DOKGBCKOLJK": {
                    "x": -1542.488037109375,
                    "y": 38.57899856567383,
                    "z": 5089.56103515625
                },
                "HGKCPMDICGG": {
                    "x": -1541.5140380859375,
                    "y": 38.659000396728516,
                    "z": 5089.77197265625
                },
                "AFODHELHCGB": 30.0,
                "MGMFMGNANHH": 6,
                "NDFGFJFGHKL": "EaseInOutCubic",
                "IBCBGNHCICN": {},
                "BNBBLLBEIDL": true,
                "HCPFCAHMGMO": false,
                "OMCCMPHDLOO": "",
                "FEFNBKOHPOG": true,
                "OCFGGGHIKOO": "",
                "LJFHGGJDPHH": "",
                "LPKDFKLNEHL": ""
            },
            {
                "$type": "DLPFECMKEKH",
                "type": "DIALOG_CLEAR",
                "actionId": 292
            },
            {
                "$type": "EAMBKPBOPIC",
                "type": "LOOK_AT",
                "aliasList": [
                    "4291"
                ],
                "actionId": 291,
                "FIDJDPAIFDN": true,
                "useTargetPos": true,
                "GFKIMGBGADJ": true,
                "GMKIJKADNHN": {
                    "x": -1543.14501953125,
                    "y": 37.78099822998047,
                    "z": 5089.34619140625
                },
                "BCHGCKLKNEH": 2.0,
                "OMCCMPHDLOO": "",
                "CEBMBGKJACI": "NONE",
                "EOHIIHMKDJC": true,
                "KPCALFDIHMC": "",
                "DBLNLMOPEBP": ""
            },
            {
                "$type": "MOOOKOKLLEI",
                "type": "CAMERA_MOVE",
                "delayTime": 0.08799999952316284,
                "duration": 5.89900016784668,
                "actionId": 294,
                "DOKGBCKOLJK": {
                    "x": -1542.4410400390625,
                    "y": 38.58300018310547,
                    "z": 5089.57080078125
                },
                "HGKCPMDICGG": {
                    "x": -1541.467041015625,
                    "y": 38.66299819946289,
                    "z": 5089.7822265625
                },
                "AFODHELHCGB": 30.0,
                "MGMFMGNANHH": 1,
                "NDFGFJFGHKL": "EaseOutQuad",
                "IBCBGNHCICN": {},
                "BNBBLLBEIDL": true,
                "HCPFCAHMGMO": false,
                "OMCCMPHDLOO": "",
                "FEFNBKOHPOG": true,
                "OCFGGGHIKOO": "",
                "LJFHGGJDPHH": "",
                "LPKDFKLNEHL": ""
            },
            {
                "$type": "MoleMole.Config.ConfigPlayEffectAction",
                "type": "PLAY_EFFECT",
                "delayTime": 2.6389999389648438,
                "actionId": 288,
                "effectIndex": "1",
                "patternName": "Eff_Quest_Zaoyou_ShockFlash_01",
                "pos": {
                    "x": -1542.488037109375,
                    "y": 38.57899856567383,
                    "z": 5089.56103515625
                },
                "euler": {
                    "x": -4.590000152587891,
                    "y": 77.77999877929688
                },
                "scale": {
                    "x": 1.0,
                    "y": 1.0,
                    "z": 1.0
                },
                "isLoop": true,
                "otherTargetNpcAlias": ""
            },
            {
                "$type": "MoleMole.Config.ConfigSkipGroupAction",
                "type": "SKIP_GROUP",
                "delayTime": 3.8369998931884766,
                "actionId": 293
            }
        ],
        [
            {
                "$type": "MoleMole.Config.ConfigSimpleBlackScreenAction",
                "type": "SIMPLE_BLACK_SCREEN",
                "actionId": 162,
                "durationToBlack": 0.5,
                "durationKeepBlack": 1.0,
                "durationFromBlack": 0.5,
                "textMapID": ""
            },
            {
                "$type": "MoleMole.Config.ConfigTimeProtectAction",
                "type": "TIME_PROTECT",
                "duration": 1.0,
                "actionId": 163
            },
            {
                "$type": "MOOOKOKLLEI",
                "type": "CAMERA_MOVE",
                "delayTime": 0.6000000238418579,
                "duration": 0.10000000149011612,
                "actionId": 307,
                "DOKGBCKOLJK": {
                    "x": 7.896999835968018,
                    "y": 5.5279998779296875,
                    "z": 7.896999835968018
                },
                "HGKCPMDICGG": {
                    "x": 7.263000011444092,
                    "y": 5.084000110626221,
                    "z": 7.263000011444092
                },
                "AFODHELHCGB": 60.0,
                "MGMFMGNANHH": 5,
                "NDFGFJFGHKL": "EaseInOutCubic",
                "IBCBGNHCICN": {},
                "HCPFCAHMGMO": false,
                "OMCCMPHDLOO": "",
                "FEFNBKOHPOG": true,
                "OCFGGGHIKOO": "",
                "LJFHGGJDPHH": "",
                "LPKDFKLNEHL": ""
            },
            {
                "$type": "MoleMole.Config.ConfigVisibleInterAction",
                "type": "VISIBLE",
                "delayTime": 0.6000000238418579,
                "aliasList": [
                    "Avatar"
                ],
                "actionId": 169,
                "isVisible": true,
                "extraParam": ""
            },
            {
                "$type": "MoleMole.Config.ConfigVisibleInterAction",
                "type": "VISIBLE",
                "delayTime": 0.6000000238418579,
                "aliasList": [
                    "AvatarNpc"
                ],
                "actionId": 171,
                "extraParam": ""
            },
            {
                "$type": "MoleMole.Config.ConfigPlayEffectAction",
                "type": "PLAY_EFFECT",
                "delayTime": 0.7519999742507935,
                "actionId": 296,
                "effectIndex": "1",
                "patternName": "Eff_Quest_Zaoyou_ShockFlash_01",
                "pos": {
                    "x": -1542.488037109375,
                    "y": 38.57899856567383,
                    "z": 5089.56103515625
                },
                "euler": {
                    "x": -4.590000152587891,
                    "y": 77.77999877929688
                },
                "scale": {
                    "x": 1.0,
                    "y": 1.0,
                    "z": 1.0
                },
                "isLoop": true,
                "isRemove": true,
                "otherTargetNpcAlias": ""
            }
        ]
    ],
    "groupId": [
        {
            "grpId": 3656557286,
            "nextGrpId": 3656557287
        },
        {
            "index": 1,
            "grpId": 3656557287,
            "nextGrpId": 3656557288
        },
        {
            "index": 2,
            "grpId": 3656557288,
            "nextGrpId": 3656557289
        },
        {
            "index": 3,
            "grpId": 3656557289,
            "nextGrpId": 3656557290
        },
        {
            "index": 4,
            "grpId": 3656557290,
            "nextGrpId": 3656557291
        },
        {
            "index": 5,
            "grpId": 3656557291,
            "nextGrpId": 3656557292
        },
        {
            "index": 6,
            "grpId": 3656557292,
            "nextGrpId": 3656557293
        },
        {
            "index": 7,
            "grpId": 3656557293,
            "nextGrpId": 3656557294
        },
        {
            "index": 8,
            "grpId": 3656557294,
            "nextGrpId": 1684126218
        },
        {
            "index": 9,
            "grpId": 1684126218,
            "nextGrpId": 1684126219
        },
        {
            "index": 10,
            "grpId": 1684126219,
            "nextGrpId": 1684126220
        },
        {
            "index": 11,
            "grpId": 1684126220,
            "nextGrpId": 1684126221
        },
        {
            "index": 12,
            "grpId": 1684126221,
            "nextGrpId": 1684126222
        },
        {
            "index": 13,
            "grpId": 1684126222,
            "nextGrpId": 1684126223
        },
        {
            "index": 14,
            "grpId": 1684126223,
            "nextGrpId": 1684126224
        },
        {
            "index": 15,
            "grpId": 1684126224,
            "nextGrpId": 1684126225
        },
        {
            "index": 16,
            "grpId": 1684126225,
            "nextGrpId": 1684126226
        },
        {
            "index": 17,
            "grpId": 1684126226,
            "nextGrpId": 1684126227
        },
        {
            "index": 18,
            "grpId": 1684126227,
            "nextGrpId": 1684126249
        },
        {
            "index": 19,
            "grpId": 1684126249,
            "nextGrpId": 1684126250
        },
        {
            "index": 20,
            "grpId": 1684126250,
            "nextGrpId": 1684126251
        },
        {
            "index": 21,
            "grpId": 1684126251,
            "nextGrpId": 1684126252
        },
        {
            "index": 22,
            "grpId": 1684126252,
            "nextGrpId": 1684126253
        },
        {
            "index": 23,
            "grpId": 1684126253,
            "nextGrpId": 1684126254
        },
        {
            "index": 24,
            "grpId": 1684126254,
            "nextGrpId": 1684126255
        },
        {
            "index": 25,
            "grpId": 1684126255,
            "nextGrpId": 1684126256
        },
        {
            "index": 26,
            "grpId": 1684126256,
            "nextGrpId": 1684126257
        },
        {
            "index": 27,
            "grpId": 1684126257,
            "nextGrpId": 1684126258
        },
        {
            "index": 28,
            "grpId": 1684126258,
            "nextGrpId": 1684126280
        },
        {
            "index": 29,
            "grpId": 1684126280,
            "nextGrpId": 1684126281
        }
    ],
    "freeStyleDic": {
        "1025": [
            1080
        ],
        "1026": [
            1080
        ]
    }
}