{
    "luaDataPath": "",
    "dontUseDefaultFinish": true,
    "entityBan": "",
    "disableNpcLod": true,
    "isAutoBanNpc": true,
    "isBanWidgetPet": true,
    "protectNpcMobileLod": true,
    "LIICEPFFGMH": 5,
    "startFade": {
        "startFadeOutDuration": 0.0
    },
    "endFade": {
        "startFadeOutDuration": 0.0
    },
    "actors": [
        {
            "alias": "Avatar",
            "visible": true,
            "bornPointName": "[3_5321:2225.441,-283.141,4247.814,0.000,193.525,0.000]",
            "relativePosType": "AVATAR_NEW",
            "relativePosNpcAlias": "",
            "bindMovingTargetKey": ""
        },
        {
            "alias": "AvatarNpc",
            "visible": true,
            "bornPointName": "",
            "removeActorType": "NEW_REMOVE",
            "relativePosType": "AVATAR_NEW",
            "relativePosNpcAlias": "",
            "bindMovingTargetKey": ""
        },
        {
            "configID": 5302,
            "alias": "5302",
            "visible": true,
            "bornPointName": "[3_5322:2224.870,-282.444,4242.150]",
            "relativePosType": "AVATAR_NEW",
            "relativePosNpcAlias": "",
            "bindMovingTargetKey": ""
        }
    ],
    "group": [
        [
            {
                "$type": "MoleMole.Config.ConfigTimeProtectAction",
                "type": "TIME_PROTECT",
                "duration": 0.10000000149011612,
                "actionId": 104
            },
            {
                "$type": "MoleMole.Config.ConfigPlayerNPCEnergyTypeAction",
                "type": "SET_PLAYER_NPC_ENERGY_TYPE",
                "aliasList": [
                    "AvatarNpc"
                ],
                "actionId": 133,
                "setHeroEngergyType": true
            },
            {
                "$type": "MoleMole.Config.ConfigSitOrStandAction",
                "type": "SIT_OR_STAND",
                "duration": 0.10000000149011612,
                "aliasList": [
                    "AvatarNpc"
                ],
                "actionId": 136,
                "isSit": true,
                "banResetFreestyle": true
            },
            {
                "$type": "ILCGAGEGDJI",
                "type": "BODY_LANG",
                "aliasList": [
                    "5302"
                ],
                "actionId": 130,
                "JLABKFNJCNP": true,
                "PMJAMGLAJGK": true,
                "LIMPPBIAKGL": false,
                "FNDLJGEAMGI": ""
            }
        ],
        [
            {
                "$type": "DLPFECMKEKH",
                "type": "DIALOG",
                "aliasList": [
                    "5302"
                ],
                "actionId": 107,
                "NMKEDPFEKBH": 740070802,
                "JLCHMAJCAPA": 0.5
            }
        ],
        [
            {
                "$type": "DLPFECMKEKH",
                "type": "DIALOG",
                "aliasList": [
                    "5302"
                ],
                "actionId": 109,
                "NMKEDPFEKBH": 740070803,
                "JLCHMAJCAPA": 0.5
            }
        ],
        [
            {
                "$type": "DLPFECMKEKH",
                "type": "DIALOG",
                "aliasList": [
                    "5302"
                ],
                "actionId": 111,
                "NMKEDPFEKBH": 740070804,
                "JLCHMAJCAPA": 0.5
            }
        ],
        [
            {
                "$type": "DLPFECMKEKH",
                "type": "DIALOG",
                "aliasList": [
                    "5302"
                ],
                "actionId": 113,
                "NMKEDPFEKBH": 740070805,
                "JLCHMAJCAPA": 0.5
            }
        ],
        [
            {
                "$type": "DLPFECMKEKH",
                "type": "DIALOG",
                "aliasList": [
                    "5302"
                ],
                "actionId": 115,
                "NMKEDPFEKBH": 740070806,
                "JLCHMAJCAPA": 0.5
            }
        ],
        [
            {
                "$type": "DLPFECMKEKH",
                "type": "DIALOG",
                "aliasList": [
                    "5302"
                ],
                "actionId": 117,
                "NMKEDPFEKBH": 740070807,
                "JLCHMAJCAPA": 0.5
            }
        ],
        [
            {
                "$type": "DLPFECMKEKH",
                "type": "DIALOG",
                "aliasList": [
                    "5302"
                ],
                "actionId": 119,
                "NMKEDPFEKBH": 740070808,
                "JLCHMAJCAPA": 0.5
            }
        ],
        [
            {
                "$type": "DLPFECMKEKH",
                "type": "DIALOG",
                "aliasList": [
                    "5302"
                ],
                "actionId": 121,
                "NMKEDPFEKBH": 740070809,
                "JLCHMAJCAPA": 0.5
            }
        ],
        [
            {
                "$type": "DLPFECMKEKH",
                "type": "DIALOG",
                "aliasList": [
                    "5302"
                ],
                "actionId": 123,
                "NMKEDPFEKBH": 740070810,
                "JLCHMAJCAPA": 0.5
            }
        ],
        [
            {
                "$type": "DLPFECMKEKH",
                "type": "DIALOG",
                "aliasList": [
                    "5302"
                ],
                "actionId": 125,
                "NMKEDPFEKBH": 740070811,
                "JLCHMAJCAPA": 0.5
            }
        ],
        [
            {
                "$type": "DLPFECMKEKH",
                "type": "DIALOG",
                "aliasList": [
                    "5302"
                ],
                "actionId": 127,
                "NMKEDPFEKBH": 740070812,
                "JLCHMAJCAPA": 0.5
            }
        ],
        [
            {
                "$type": "DLPFECMKEKH",
                "type": "DIALOG",
                "aliasList": [
                    "5302"
                ],
                "actionId": 129,
                "NMKEDPFEKBH": 740070813,
                "JLCHMAJCAPA": 0.5
            }
        ],
        [
            {
                "$type": "MoleMole.Config.ConfigTimeProtectAction",
                "type": "TIME_PROTECT",
                "duration": 0.10000000149011612,
                "actionId": 105
            },
            {
                "$type": "ILCGAGEGDJI",
                "type": "BODY_LANG",
                "delayTime": 0.6000000238418579,
                "aliasList": [
                    "5302"
                ],
                "actionId": 131,
                "JLABKFNJCNP": true,
                "PMJAMGLAJGK": true,
                "LIMPPBIAKGL": false,
                "FNDLJGEAMGI": ""
            }
        ]
    ],
    "groupId": [
        {
            "grpId": 3175404508,
            "nextGrpId": 3175404509
        },
        {
            "index": 1,
            "grpId": 3175404509,
            "nextGrpId": 3175404510
        },
        {
            "index": 2,
            "grpId": 3175404510,
            "nextGrpId": 3175404511
        },
        {
            "index": 3,
            "grpId": 3175404511,
            "nextGrpId": 3175404512
        },
        {
            "index": 4,
            "grpId": 3175404512,
            "nextGrpId": 3175404513
        },
        {
            "index": 5,
            "grpId": 3175404513,
            "nextGrpId": 3175404514
        },
        {
            "index": 6,
            "grpId": 3175404514,
            "nextGrpId": 3175404515
        },
        {
            "index": 7,
            "grpId": 3175404515,
            "nextGrpId": 3175404516
        },
        {
            "index": 8,
            "grpId": 3175404516,
            "nextGrpId": 3948259284
        },
        {
            "index": 9,
            "grpId": 3948259284,
            "nextGrpId": 3948259285
        },
        {
            "index": 10,
            "grpId": 3948259285,
            "nextGrpId": 3948259286
        },
        {
            "index": 11,
            "grpId": 3948259286,
            "nextGrpId": 3948259287
        },
        {
            "index": 12,
            "grpId": 3948259287,
            "nextGrpId": 3948259288
        },
        {
            "index": 13,
            "grpId": 3948259288,
            "nextGrpId": 3948259289
        }
    ],
    "freeStyleDic": {
        "1025": [],
        "1026": [],
        "5302": []
    }
}