{
    "luaDataPath": "",
    "entityBan": "",
    "group": [
        [
            {
                "$type": "CMAFFIFLMPO",
                "type": "CUTSCENE",
                "PMLLAOHPDMG": {
                    "$type": "OKCNEKHJCNN",
                    "type": "TIME_LINE_PREFAB",
                    "luaDataPath": "",
                    "resPath": "ART/Cutscene/Cs_StormCenterWaterDown_02",
                    "castListPath": "",
                    "entityBan": "",
                    "needYEuler": true,
                    "fadeInDuration": 0.5,
                    "fadeOutDuration": 0.5
                }
            }
        ]
    ]
}