{
    "common": {
        "effectAttachShape": {
            "$type": "DPGKNHENGLM",
            "DDDEJPIFECG": "EffectMesh"
        },
        "mass": 80.0,
        "height": 0.699999988079071,
        "viewSize": 1.2000000476837158,
        "scale": 1.5,
        "shouldPauseAnimatorBeforeReady": true,
        "BKPPECPBMBF": true,
        "LOGFKHMLOOL": true
    },
    "model": {
        "bornEffect": "",
        "attachEffect": "",
        "canBakeMesh": false
    },
    "dither": {
        "showDitherDuration": 2.0
    },
    "combat": {
        "property": {
            "endureType": "Monster_Grunt_Other",
            "weight": 150.0
        },
        "beHit": {
            "hitBloodEffect": ""
        },
        "combatLock": {
            "lockShape": "CircleLockEnemy",
            "lockType": "Avatar&Monster_Lv4"
        },
        "die": {
            "hasAnimatorDie": true,
            "fallWhenAirDie": false,
            "dieEndTime": 1.0,
            "dieForceDisappearTime": 3.0,
            "dieDisappearEffect": "Eff_Death_Common",
            "dieShaderData": "MonsterDie",
            "dieShaderEnableDurationTime": 0.05000000074505806,
            "muteHitBox": true,
            "dieDenyLockOn": true,
            "dieIsGhostToEnemy": true,
            "dieIgnoreTriggerBullet": true,
            "muteBillboard": true,
            "mutePushCollider": true
        }
    },
    "abilities": [
        {
            "abilityID": "",
            "abilityName": "FauneAbyssale_Universal_UnderwaterSettings",
            "abilityOverride": ""
        },
        {
            "abilityID": "",
            "abilityName": "Monster_MachinaIustitia_CoilHanler",
            "abilityOverride": ""
        },
        {
            "abilityID": "",
            "abilityName": "Monster_MachinaIustitia_Nautilus_Pose",
            "abilityOverride": ""
        },
        {
            "abilityID": "",
            "abilityName": "Monster_MachinaIustitia_Nautilus_ResetState",
            "abilityOverride": ""
        },
        {
            "abilityID": "",
            "abilityName": "Monster_MachinaIustitia_Nautilus_Steer",
            "abilityOverride": ""
        },
        {
            "abilityID": "",
            "abilityName": "Monster_MachinaIustitia_Nautilus_Attack02",
            "abilityOverride": ""
        },
        {
            "abilityID": "",
            "abilityName": "Monster_MachinaIustitia_Nautilus_PlayEffect",
            "abilityOverride": ""
        },
        {
            "abilityID": "",
            "abilityName": "Monster_MachinaIustitia_Nautilus_CoilEffect",
            "abilityOverride": ""
        },
        {
            "abilityID": "",
            "abilityName": "Monster_MachinaIustitia_HitSpecial_Common",
            "abilityOverride": ""
        },
        {
            "abilityID": "",
            "abilityName": "Monster_MachinaIustitia_Nautilus_Recover_Pneuma",
            "abilityOverride": ""
        },
        {
            "abilityID": "",
            "abilityName": "Monster_MachinaIustitia_Nautilus_Recover_Ousia",
            "abilityOverride": ""
        },
        {
            "abilityID": "",
            "abilityName": "Monster_MachinaIustitia_Nautilus_RotationControl",
            "abilityOverride": ""
        },
        {
            "abilityID": "",
            "abilityName": "Monster_MachinaIustitia_Nautilus_Recover_Effect_Extra",
            "abilityOverride": ""
        }
    ],
    "stateLayers": {
        "defaultLayer": {
            "$type": "EPAPJJAGHKG",
            "ACOCIAFGIAD": "",
            "stateIDs": {
                "Born": {
                    "$type": "IJOIMFMEGMM",
                    "DLOHGBDFFGB": {
                        "Born": []
                    }
                },
                "Standby": {
                    "$type": "IJOIMFMEGMM",
                    "DLOHGBDFFGB": {
                        "Standby": []
                    },
                    "POLKCLOHPOO": true,
                    "PGKCBIHGAOC": true,
                    "DLAOMOCMANL": [
                        "DoSkill"
                    ],
                    "LIPMJPLGIKD": true
                },
                "Run": {
                    "$type": "IJOIMFMEGMM",
                    "DLOHGBDFFGB": {
                        "Run": []
                    },
                    "POLKCLOHPOO": true,
                    "PGKCBIHGAOC": true,
                    "DLAOMOCMANL": [
                        "DoSkill"
                    ],
                    "LIPMJPLGIKD": true
                },
                "WalkForward": {
                    "$type": "IJOIMFMEGMM",
                    "DLOHGBDFFGB": {
                        "WalkForward": []
                    },
                    "POLKCLOHPOO": true,
                    "PGKCBIHGAOC": true,
                    "DLAOMOCMANL": [
                        "DoSkill"
                    ],
                    "LIPMJPLGIKD": true
                },
                "WalkBack": {
                    "$type": "IJOIMFMEGMM",
                    "DLOHGBDFFGB": {
                        "WalkBack": []
                    },
                    "POLKCLOHPOO": true,
                    "PGKCBIHGAOC": true,
                    "DLAOMOCMANL": [
                        "DoSkill"
                    ],
                    "LIPMJPLGIKD": true
                },
                "HitSpecial": {
                    "$type": "IJOIMFMEGMM",
                    "DLOHGBDFFGB": {
                        "HitSpecial": [
                            "Audio_Monster_MachinaIustitia_Nautilus_HitSpecial"
                        ]
                    },
                    "PGKCBIHGAOC": true,
                    "DLAOMOCMANL": [
                        "BeHit",
                        "DoSkill"
                    ],
                    "LIPMJPLGIKD": true
                },
                "Recover": {
                    "$type": "IJOIMFMEGMM",
                    "DLOHGBDFFGB": {
                        "Recover": [
                            "Monster_MachinaIustitia_Nautilus_Recover_Pneuma"
                        ]
                    },
                    "PGKCBIHGAOC": true,
                    "OGNDLAMHMPB": 0.0,
                    "DLAOMOCMANL": [
                        "BeHit",
                        "DoSkill"
                    ],
                    "LIPMJPLGIKD": true
                },
                "Die": {
                    "$type": "IJOIMFMEGMM",
                    "DLOHGBDFFGB": {
                        "Die": [
                            "Audio_Monster_MachinaIustitia_Nautilus_Die"
                        ]
                    },
                    "AJBLILDCLBO": [
                        "DoSkill"
                    ]
                },
                "Alert": {
                    "$type": "IJOIMFMEGMM",
                    "DLOHGBDFFGB": {
                        "Alert": [
                            "Audio_Monster_MachinaIustitia_Nautilus_Alert"
                        ]
                    },
                    "DLAOMOCMANL": [
                        "DoSkill"
                    ]
                },
                "Attack_02": {
                    "$type": "IJOIMFMEGMM",
                    "DLOHGBDFFGB": {
                        "Attack_02": [
                            "Monster_MachinaIustitia_Nautilus_Attack02",
                            "Audio_Monster_MachinaIustitia_Nautilus_Attack_02"
                        ]
                    },
                    "LAKHIBAPNAB": true,
                    "DLAOMOCMANL": [
                        "BeHit",
                        "DoSkill"
                    ],
                    "LIPMJPLGIKD": true
                },
                "Personality1": {
                    "$type": "IJOIMFMEGMM",
                    "DLOHGBDFFGB": {
                        "Personality1": [
                            "Audio_Monster_MachinaIustitia_Nautilus_Personality1"
                        ]
                    },
                    "POLKCLOHPOO": true,
                    "LAKHIBAPNAB": true,
                    "DLAOMOCMANL": [
                        "BeHit",
                        "DoSkill"
                    ],
                    "LIPMJPLGIKD": true,
                    "OOPPLFOAOGN": true
                }
            }
        }
    },
    "billboard": {
        "$type": "PAOBAEKGGBC",
        "attachPoint": "BillboardAttach",
        "offset": {
            "y": 0.75,
            "z": 0.4000000059604645
        },
        "LOMMBJLKPHE": 1.0,
        "FMJAGHIMLEI": true,
        "KGHAGECNJPO": true
    },
    "initialPoses": {
        "Default": {
            "initialPoseID": 1
        }
    },
    "aibeta": {
        "enable": true,
        "moveSetting": {
            "moveCategory": "Dive",
            "useNavMesh": false,
            "useToTheMoon": true,
            "navMeshAgentName": "Undead01"
        },
        "sensing": {
            "settings": {
                "DefaultSetting": {
                    "viewRange": 10.0,
                    "viewPanoramic": true,
                    "feelRange": 10.0
                },
                "CombatSensing": {
                    "viewRange": 50.0,
                    "viewPanoramic": true,
                    "feelRange": 50.0
                }
            },
            "templates": {
                "DefaultTemplate": {
                    "DefaultPoses": "DefaultSetting",
                    "101": "CombatSensing",
                    "102": "CombatSensing",
                    "201": "CombatSensing",
                    "301": "CombatSensing"
                }
            }
        },
        "threat": {
            "viewAttenuation": [
                {
                    "x": 10.0,
                    "y": 2.0
                },
                {
                    "x": 15.0,
                    "y": 0.800000011920929
                },
                {
                    "x": 20.0,
                    "y": 0.5
                },
                {
                    "x": 25.0,
                    "y": 0.30000001192092896
                },
                {
                    "x": 30.0,
                    "y": 0.20000000298023224
                }
            ],
            "resistTauntLevel": "Monster_TauntLevel_2",
            "JGFOPCOIJOI": ""
        },
        "defendArea": {
            "defendRange": 50.0
        },
        "fly": {
            "enable": true,
            "floatingPoses": [
                1,
                11,
                21,
                101,
                102,
                201,
                301,
                901,
                902,
                903
            ]
        },
        "skillSetting": {
            "skillEliteSet": {
                "0": [
                    101,
                    191,
                    301,
                    601
                ],
                "1": [
                    101,
                    191,
                    301
                ]
            }
        },
        "skills": {
            "101": {
                "name": "Alert",
                "skillType": "OnAlert",
                "publicCDGroup": "",
                "ignoreGCD": true,
                "triggerGCD": false,
                "HGAMDGAEIGO": "",
                "stateIDs": [
                    "Alert"
                ],
                "skillQueryingTime": 5.0,
                "flagTargetReachable": "10",
                "flagSelfOnTemplateCollider": "01",
                "flagSelfInZone": "10",
                "flagTargetInZone": "11"
            },
            "191": {
                "name": "Recover",
                "combatSkillType": "MeleeAttack",
                "priority": 1,
                "castCondition": {
                    "pose": [
                        101
                    ],
                    "CANPLJNCJCF": [
                        0,
                        1,
                        2
                    ],
                    "globalValues": [
                        "_MACHINAIUSTITIA_SELFRECOVER_"
                    ],
                    "CHKHDKJBGCH": "SELF"
                },
                "cd": 5.0,
                "initialCD": 1.0,
                "publicCDGroup": "",
                "ignoreGCD": true,
                "HGAMDGAEIGO": "",
                "stateIDs": [
                    "Recover"
                ],
                "skillQueryingTime": 3.0,
                "flagTargetReachable": "11",
                "flagSelfOnTemplateCollider": "01",
                "flagSelfInZone": "11",
                "flagTargetInZone": "11"
            },
            "301": {
                "name": "Attack_02",
                "combatSkillType": "RangedAttack",
                "castCondition": {
                    "pose": [
                        301
                    ],
                    "CANPLJNCJCF": [
                        2
                    ],
                    "maxTargetAngleXZ": 120.0,
                    "pickRangeMax": 30.0,
                    "pickRangeYMax": 2.0
                },
                "cd": 6.0,
                "cdUpperRange": 2.0,
                "initialCDUpperRange": 1.5,
                "publicCDGroup": "",
                "HGAMDGAEIGO": "Cast_In_Water",
                "stateIDs": [
                    "Attack_02"
                ],
                "flagTargetReachable": "11",
                "flagSelfOnTemplateCollider": "11",
                "flagSelfInZone": "11",
                "flagTargetInZone": "11"
            },
            "601": {
                "name": "Personality1",
                "skillType": "Free",
                "castCondition": {
                    "pose": [
                        1,
                        11,
                        21
                    ]
                },
                "cd": 20.0,
                "cdUpperRange": 10.0,
                "publicCDGroup": "",
                "triggerGCD": false,
                "HGAMDGAEIGO": "",
                "stateIDs": [
                    "Personality1"
                ],
                "flagTargetReachable": "10",
                "flagSelfOnTemplateCollider": "01",
                "flagSelfInZone": "10",
                "flagTargetInZone": "11"
            }
        },
        "skillGCD": 4.0,
        "combatFixedMoveTactic": [
            {
                "$type": "KJNALFIAJNL",
                "enable": true,
                "FJANPNOAAFK": {
                    "pose": [
                        201,
                        301
                    ]
                },
                "LMMKNFEMOMG": {
                    "GEAICNICJAJ": 1.0,
                    "CCBKMKFDEGD": 0.5,
                    "MKIFALNJFHB": 76.0,
                    "JLEIAHICHND": 0.10000000149011612,
                    "JGLOLGPFMPH": 20.0,
                    "PGBEHLJNNFK": "RootNode",
                    "ADFKPOHANDC": 9.0,
                    "DNDNIMHNEAB": 12.0,
                    "KOGKMIIKGHM": 5.0,
                    "NODGFLJFHEG": 15.0,
                    "LLHGHEHHGDM": 1.0,
                    "FOPJPGEEPEC": 1.5,
                    "cd": 1.0,
                    "IHJDMKBCHLP": 25.0,
                    "BOHMLAMEGAG": 0.10000000149011612,
                    "HBBMGJANNMI": 25.0,
                    "BIMMEBCLCJH": 1.0,
                    "OPEDPJFHGLD": 2.0,
                    "JOCOJHEICNA": "",
                    "DBIELIMGBMC": ""
                }
            },
            {
                "$type": "CMCHFECOPPI",
                "LMMKNFEMOMG": {
                    "JOCGOKPMCKI": "Spacial",
                    "JOCOJHEICNA": "Default",
                    "DBIELIMGBMC": ""
                }
            },
            {
                "$type": "ADPPBLEBNLM",
                "LMMKNFEMOMG": {
                    "KIHPEPHJMOG": 1,
                    "JOCOJHEICNA": "Default",
                    "DBIELIMGBMC": "",
                    "JOCGOKPMCKI": "Spacial"
                }
            },
            {
                "$type": "EONBNFNCMNG",
                "LMMKNFEMOMG": {
                    "KIHPEPHJMOG": 1,
                    "IBKLDKBINDG": true,
                    "JOCOJHEICNA": "Default",
                    "DBIELIMGBMC": ""
                }
            },
            {
                "$type": "KMHBGMELMKD",
                "enable": true,
                "LMMKNFEMOMG": {
                    "JOCGOKPMCKI": "Auto",
                    "JOCOJHEICNA": "",
                    "DBIELIMGBMC": ""
                }
            },
            {
                "$type": "APBKGIMHIEJ",
                "enable": true,
                "FJANPNOAAFK": {
                    "pose": [
                        201,
                        301
                    ]
                },
                "LMMKNFEMOMG": {
                    "KIHPEPHJMOG": 2,
                    "EJJMPMENNGE": 25.0,
                    "GABOKKPIPGO": 12.5,
                    "NCOONJCNMJO": 0.0,
                    "EBNPDABAEEB": 1.5,
                    "JOCOJHEICNA": "",
                    "DBIELIMGBMC": ""
                }
            },
            {
                "$type": "PAHHOIMHFPA",
                "enable": true,
                "FJANPNOAAFK": {
                    "pose": [
                        1,
                        11,
                        21
                    ]
                },
                "LMMKNFEMOMG": {
                    "JIFJFPJANHO": 10.0,
                    "CBKHBGCPFBG": 5.0,
                    "LFGIDEOEKIB": 5.5,
                    "EKDHNAGGGAE": 15.0,
                    "BFEJAKFKKFP": 5.0,
                    "KOAMKCEFJED": 9.5,
                    "NIFMKOCLHIJ": false,
                    "JOCOJHEICNA": "",
                    "DBIELIMGBMC": ""
                }
            }
        ]
    },
    "inputKeys": [
        {
            "keyID": 201,
            "inputKeyCode": 257,
            "abilityName": ""
        }
    ],
    "move": {
        "$type": "IIGPJJNGCLE",
        "EIEIGIPKLAO": {
            "excludeForces": [
                "RetreatAirType",
                "RetreatType"
            ]
        },
        "EPDJOKGCLPD": true,
        "MIPACKKJPPI": false,
        "MLKCNHIIMCE": true,
        "MIPNOGBEANL": "ForwardBackward",
        "IJMIGIDACLP": "ForwardBackward",
        "EKMHGNLHCNM": 1.2000000476837158,
        "OMMMNBNJHAI": true,
        "ELNPBLONMHJ": true,
        "FACNOEFNHIB": "RootNode",
        "CFDFNCLFFOG": true
    }
}