{
    "common": {
        "effectAttachShape": {
            "$type": "CMIPFEGOJCH",
            "EJAEFCDBDFB": "EffectMesh"
        },
        "mass": 120.0,
        "height": 2.0,
        "affectedByWorld": true,
        "checkInSurface": true,
        "scale": 1.5,
        "DLFJJCMGIBH": true,
        "NICGCIINMFJ": true
    },
    "model": {
        "bornEffect": "",
        "attachEffect": ""
    },
    "dither": {
        "showDitherDuration": 2.0
    },
    "combat": {
        "property": {
            "endureType": "Monster_Demiboss_Humanoid",
            "weight": 125.0
        },
        "beHit": {
            "hitBloodEffect": "",
            "muteAllHit": true
        },
        "combatLock": {
            "lockShape": "CircleLockEnemy",
            "lockType": "Avatar&Monster_Lv4"
        },
        "die": {
            "hasAnimatorDie": true,
            "dieEndTime": 0.5,
            "dieForceDisappearTime": 4.0,
            "dieDisappearEffect": "Eff_Death_Common",
            "dieShaderData": "MonsterDie",
            "dieShaderEnableDurationTime": 0.10000000149011612,
            "dieModelFadeDelay": 0.5,
            "LDOHFFOEPPI": true,
            "BMOKGIFNILM": true,
            "PHCLLDNDFNG": true,
            "CHBAHMJGJBE": true,
            "OPPHENIKFJA": true,
            "CCNGAIMLPIJ": true
        },
        "animEvents": {
            "DefendAtk1": {
                "attackPattern": {
                    "$type": "HBFCINNBDFD",
                    "triggerType": "TriggerNoRepeat",
                    "born": {
                        "$type": "KDEPFKAAHCG",
                        "offset": {
                            "HMHIOILIGBF": 0.0,
                            "DPPJGBOHAAL": 0.0,
                            "DDOAGBLBCEF": 1.0
                        }
                    },
                    "height": 1.25,
                    "NPLOANBGDOK": 240.0,
                    "DFMMIGEMOHH": 1.899999976158142
                },
                "attackInfo": {
                    "attackTag": "",
                    "attenuationTag": "",
                    "attenuationGroup": "default",
                    "attackProperty": {
                        "PCFAAPMOCGJ": 0.5,
                        "LCCBNOKMNFG": 0.0,
                        "bonusCritical": 100.0,
                        "strikeType": "Blunt",
                        "FKGFPFNOJMN": 0.0
                    },
                    "hitPattern": {
                        "onHitEffectName": "default",
                        "hitImpulseType": "LV3"
                    },
                    "cameraShake": {
                        "shakeRange": 0.4000000059604645,
                        "shakeTime": 0.15000000596046448,
                        "shakeDistance": 30.0
                    }
                }
            },
            "DefendAtk2": {
                "attackPattern": {
                    "$type": "HBFCINNBDFD",
                    "triggerType": "TriggerNoRepeat",
                    "born": {
                        "$type": "KDEPFKAAHCG",
                        "offset": {
                            "HMHIOILIGBF": 0.0,
                            "DPPJGBOHAAL": 0.0,
                            "DDOAGBLBCEF": 0.5
                        }
                    },
                    "height": 1.25,
                    "DFMMIGEMOHH": 1.7999999523162842
                },
                "attackInfo": {
                    "attackTag": "",
                    "attenuationTag": "",
                    "attenuationGroup": "default",
                    "attackProperty": {
                        "PCFAAPMOCGJ": 0.5,
                        "LCCBNOKMNFG": 0.0,
                        "bonusCritical": 100.0,
                        "strikeType": "Blunt",
                        "enBreak": 100.0,
                        "FKGFPFNOJMN": 0.0
                    },
                    "hitPattern": {
                        "onHitEffectName": "default",
                        "hitImpulseType": "LV4"
                    },
                    "cameraShake": {
                        "shakeRange": 0.4000000059604645,
                        "shakeTime": 0.15000000596046448,
                        "shakeDistance": 30.0
                    }
                }
            },
            "WhirlAtk": {
                "attackPattern": {
                    "$type": "HBFCINNBDFD",
                    "triggerType": "TriggerNoRepeat",
                    "born": {
                        "$type": "KDEPFKAAHCG",
                        "offset": {
                            "HMHIOILIGBF": 0.0,
                            "DPPJGBOHAAL": 0.0,
                            "DDOAGBLBCEF": 1.0
                        }
                    },
                    "DFMMIGEMOHH": 2.0
                },
                "attackInfo": {
                    "attackTag": "",
                    "attenuationTag": "FauneAbyssale_HermitCrab_Mature_Whirl",
                    "attenuationGroup": "FauneAbyssale_HermitCrab_Mature_Whirl",
                    "attackProperty": {
                        "PCFAAPMOCGJ": 1.0,
                        "LCCBNOKMNFG": 0.0,
                        "bonusCritical": 100.0,
                        "strikeType": "Blunt",
                        "enBreak": 1.0,
                        "FKGFPFNOJMN": 0.0
                    },
                    "hitPattern": {
                        "onHitEffectName": "default",
                        "hitImpulseType": "LV3"
                    },
                    "cameraShake": {
                        "shakeRange": 0.4000000059604645,
                        "shakeTime": 0.15000000596046448,
                        "shakeDistance": 30.0
                    }
                }
            }
        }
    },
    "abilities": [
        {
            "abilityID": "",
            "abilityName": "FauneAbyssale_HermitCrab_Mature_Born",
            "abilityOverride": ""
        },
        {
            "abilityID": "",
            "abilityName": "FauneAbyssale_HermitCrab_Larva_Born",
            "abilityOverride": ""
        },
        {
            "abilityID": "",
            "abilityName": "Monster_FauneAbyssale_HermitCrab_FireBulletLoop",
            "abilityOverride": ""
        },
        {
            "abilityID": "",
            "abilityName": "Monster_FauneAbyssale_HermitCrab_FireState_Controller",
            "abilityOverride": ""
        },
        {
            "abilityID": "",
            "abilityName": "Monster_FauneAbyssale_HermitCrab_Attack_Turn",
            "abilityOverride": ""
        },
        {
            "abilityID": "",
            "abilityName": "Monster_FauneAbyssale_HermitCrab_NormalAttack01_Alert",
            "abilityOverride": ""
        },
        {
            "abilityID": "",
            "abilityName": "Monster_FauneAbyssale_HermitCrab_NormalAttack01",
            "abilityOverride": ""
        },
        {
            "abilityID": "",
            "abilityName": "Monster_FauneAbyssale_HermitCrab_NormalCollisionInWater",
            "abilityOverride": ""
        },
        {
            "abilityID": "",
            "abilityName": "Monster_FauneAbyssale_HermitCrab_NormalAttack01_JumpRange",
            "abilityOverride": ""
        }
    ],
    "stateLayers": {
        "defaultLayer": {
            "$type": "KFHJINNNDPN",
            "BOPIBFKFKCA": "",
            "stateIDs": {
                "Born": {
                    "$type": "MEECNDLIOBI",
                    "HKPCLGHBKFD": {
                        "Born": []
                    }
                },
                "NormalIdle": {
                    "$type": "MEECNDLIOBI",
                    "HKPCLGHBKFD": {
                        "Standby": [],
                        "StandbyInWater": []
                    },
                    "KNOHBHKACHA": true,
                    "BAABNFCMKIO": true,
                    "ADPGACLPFHN": [
                        "DoSkill"
                    ],
                    "NPMGEMAFACP": true
                },
                "NormalMove": {
                    "$type": "MEECNDLIOBI",
                    "HKPCLGHBKFD": {
                        "WalkForward": [],
                        "WalkBack": [],
                        "WalkLeft": [],
                        "WalkRight": [],
                        "WalkForwardInWater": [],
                        "WalkBackInWater": [],
                        "WalkLeftInWater": [],
                        "WalkRightInWater": []
                    },
                    "KNOHBHKACHA": true,
                    "BAABNFCMKIO": true,
                    "ADPGACLPFHN": [
                        "DoSkill"
                    ],
                    "NPMGEMAFACP": true
                },
                "FlyInWater": {
                    "$type": "MEECNDLIOBI",
                    "HKPCLGHBKFD": {
                        "FlyInWater": []
                    },
                    "KNOHBHKACHA": true,
                    "BAABNFCMKIO": true,
                    "ADPGACLPFHN": [
                        "DoSkill"
                    ],
                    "NPMGEMAFACP": true,
                    "EPHHDGDBFGO": "BlendMove",
                    "GKEDOGCHJAI": true
                },
                "BeHit": {
                    "$type": "MEECNDLIOBI",
                    "HKPCLGHBKFD": {
                        "Hit_H": [
                            "Audio_Monster_FauneAbyssale_HermitCrab_Mature_Hit_L"
                        ],
                        "Hit_InWater": [
                            "Audio_Monster_FauneAbyssale_HermitCrab_Mature_Hit_L_InWater"
                        ]
                    },
                    "PJFELLIJONH": [
                        "BeHit"
                    ],
                    "ADPGACLPFHN": [
                        "DoSkill"
                    ],
                    "MGFHGCKKPDB": true
                },
                "BeHitThrow": {
                    "$type": "MEECNDLIOBI",
                    "HKPCLGHBKFD": {
                        "HitThrow": [],
                        "HitThrowToGround": [
                            "Monster_FauneAbyssale_HermitCrab_Mature_HitThrowToGround",
                            "Audio_Monster_FauneAbyssale_HermitCrab_Mature_HitThrowToGround"
                        ],
                        "Hit_Throw_From_Struggle": []
                    },
                    "PJFELLIJONH": [
                        "BeHit",
                        "HitAir2HitDrop"
                    ],
                    "ADPGACLPFHN": [
                        "DoSkill",
                        "BeHit"
                    ],
                    "GCDDJKIMHDO": true
                },
                "Struggle": {
                    "$type": "MEECNDLIOBI",
                    "HKPCLGHBKFD": {
                        "Struggle": []
                    },
                    "PJFELLIJONH": [
                        "BeHit",
                        "HitAir2HitDrop"
                    ],
                    "ADPGACLPFHN": [
                        "DoSkill"
                    ]
                },
                "DefendBreak": {
                    "$type": "MEECNDLIOBI",
                    "HKPCLGHBKFD": {
                        "DefendBreak": [
                            "Monster_FauneAbyssale_HermitCrab_Mature_DefendBreak",
                            "Audio_Monster_FauneAbyssale_HermitCrab_Mature_DefendBreak"
                        ]
                    },
                    "PJFELLIJONH": [
                        "BeHit",
                        "HitAir2HitDrop"
                    ],
                    "ADPGACLPFHN": [
                        "DoSkill",
                        "BeHit",
                        "HitAir2HitDrop"
                    ],
                    "MGFHGCKKPDB": true
                },
                "Die": {
                    "$type": "MEECNDLIOBI",
                    "HKPCLGHBKFD": {
                        "Die": [
                            "Monster_FauneAbyssale_HermitCrab_Die",
                            "Audio_Monster_FauneAbyssale_HermitCrab_Mature_Die"
                        ]
                    },
                    "PJFELLIJONH": [
                        "BeHit",
                        "DoSkill",
                        "BeHit",
                        "WeakTrigger"
                    ]
                },
                "DieInWater": {
                    "$type": "MEECNDLIOBI",
                    "HKPCLGHBKFD": {
                        "DieInWater": [
                            "Monster_FauneAbyssale_HermitCrab_DieInWater",
                            "Audio_Monster_FauneAbyssale_HermitCrab_Mature_DieInWater"
                        ]
                    },
                    "PJFELLIJONH": [
                        "BeHit",
                        "DoSkill",
                        "BeHit",
                        "WeakTrigger"
                    ]
                },
                "DieInWater_AS": {
                    "$type": "MEECNDLIOBI",
                    "HKPCLGHBKFD": {
                        "DieInWater_AS": []
                    },
                    "PJFELLIJONH": [
                        "BeHit",
                        "DoSkill",
                        "BeHit",
                        "WeakTrigger"
                    ]
                },
                "Defend": {
                    "$type": "MEECNDLIOBI",
                    "HKPCLGHBKFD": {
                        "Defend": [
                            "Audio_Monster_FauneAbyssale_HermitCrab_Mature_Defend"
                        ]
                    },
                    "ADPGACLPFHN": [
                        "BeHit",
                        "DoSkill"
                    ],
                    "NPMGEMAFACP": true
                },
                "DefendAttack01": {
                    "$type": "MEECNDLIOBI",
                    "HKPCLGHBKFD": {
                        "DefendAttack01": [
                            "Monster_FauneAbyssale_HermitCrab_Mature_DefendAttack01",
                            "Audio_Monster_FauneAbyssale_HermitCrab_Mature_DefendAttack01"
                        ]
                    },
                    "ADPGACLPFHN": [
                        "BeHit",
                        "DoSkill"
                    ],
                    "NPMGEMAFACP": true
                },
                "DefendAttack02": {
                    "$type": "MEECNDLIOBI",
                    "HKPCLGHBKFD": {
                        "DefendAttack02": [
                            "Monster_FauneAbyssale_HermitCrab_Mature_DefendAttack02",
                            "Audio_Monster_FauneAbyssale_HermitCrab_Mature_DefendAttack02"
                        ]
                    },
                    "ADPGACLPFHN": [
                        "BeHit",
                        "DoSkill"
                    ],
                    "NPMGEMAFACP": true
                },
                "NormalAttack01_BS": {
                    "$type": "MEECNDLIOBI",
                    "HKPCLGHBKFD": {
                        "NormalAttack01_BS": [
                            "Monster_FauneAbyssale_HermitCrab_Mature_NormalAtk01_BS",
                            "Audio_Monster_FauneAbyssale_HermitCrab_Mature_NormalAttack01_BS"
                        ]
                    },
                    "ADPGACLPFHN": [
                        "BeHit",
                        "DoSkill"
                    ],
                    "NPMGEMAFACP": true
                },
                "NormalAttack01_BS_Loop": {
                    "$type": "MEECNDLIOBI",
                    "HKPCLGHBKFD": {
                        "NormalAttack01_BS_Loop": []
                    },
                    "BAABNFCMKIO": true,
                    "ADPGACLPFHN": [
                        "BeHit",
                        "DoSkill"
                    ],
                    "NPMGEMAFACP": true
                },
                "NormalAttack01": {
                    "$type": "MEECNDLIOBI",
                    "HKPCLGHBKFD": {
                        "NormalAttack01": [
                            "Monster_FauneAbyssale_HermitCrab_Mature_NormalAtk01",
                            "Audio_Monster_FauneAbyssale_HermitCrab_Mature_NormalAttack01"
                        ]
                    },
                    "BGJDNIJICNM": true,
                    "ADPGACLPFHN": [
                        "BeHit",
                        "DoSkill"
                    ],
                    "NPMGEMAFACP": true
                },
                "NormalAttack02_BS": {
                    "$type": "MEECNDLIOBI",
                    "HKPCLGHBKFD": {
                        "NormalAttack02_BS": [
                            "Monster_FauneAbyssale_HermitCrab_Mature_NormalAtk02_BS",
                            "Audio_Monster_FauneAbyssale_HermitCrab_Mature_NormalAttack02_BS"
                        ]
                    },
                    "PAKNCLFMOAC": 0.0,
                    "ADPGACLPFHN": [
                        "BeHit",
                        "DoSkill"
                    ],
                    "NPMGEMAFACP": true
                },
                "NormalAttack02_Loop1": {
                    "$type": "MEECNDLIOBI",
                    "HKPCLGHBKFD": {
                        "NormalAttack02_Loop1": [
                            "Monster_FauneAbyssale_HermitCrab_FireBulletLoop"
                        ]
                    },
                    "PAKNCLFMOAC": 0.0,
                    "ADPGACLPFHN": [
                        "BeHit"
                    ]
                },
                "NormalAttack02_Loop2": {
                    "$type": "MEECNDLIOBI",
                    "HKPCLGHBKFD": {
                        "NormalAttack02_Loop2": [
                            "Monster_FauneAbyssale_HermitCrab_FireBulletLoop"
                        ]
                    },
                    "PAKNCLFMOAC": 0.0,
                    "ADPGACLPFHN": [
                        "BeHit"
                    ]
                },
                "NormalAttack02_Loop3": {
                    "$type": "MEECNDLIOBI",
                    "HKPCLGHBKFD": {
                        "NormalAttack02_Loop3": [
                            "Monster_FauneAbyssale_HermitCrab_FireBulletLoop"
                        ]
                    },
                    "PAKNCLFMOAC": 0.0,
                    "ADPGACLPFHN": [
                        "BeHit"
                    ]
                },
                "NormalAttack02_AS": {
                    "$type": "MEECNDLIOBI",
                    "HKPCLGHBKFD": {
                        "NormalAttack02_AS": [
                            "Audio_Monster_FauneAbyssale_HermitCrab_Mature_NormalAttack02_AS"
                        ]
                    },
                    "ADPGACLPFHN": [
                        "BeHit",
                        "DoSkill"
                    ]
                },
                "NormalAttack03_BS": {
                    "$type": "MEECNDLIOBI",
                    "HKPCLGHBKFD": {
                        "NormalAttack03_BS": [
                            "Audio_Monster_FauneAbyssale_HermitCrab_Mature_NormalAttack03_BS"
                        ]
                    },
                    "ADPGACLPFHN": [
                        "BeHit",
                        "DoSkill"
                    ],
                    "NPMGEMAFACP": true
                },
                "NormalAttack03_Loop": {
                    "$type": "MEECNDLIOBI",
                    "HKPCLGHBKFD": {
                        "NormalAttack03_Loop": [
                            "Monster_FauneAbyssale_HermitCrab_Mature_NormalAtk03_Loop"
                        ]
                    },
                    "ADPGACLPFHN": [
                        "BeHit",
                        "DoSkill"
                    ],
                    "NPMGEMAFACP": true
                },
                "NormalAttack03_AS": {
                    "$type": "MEECNDLIOBI",
                    "HKPCLGHBKFD": {
                        "NormalAttack03_AS": [
                            "Monster_FauneAbyssale_HermitCrab_Mature_NormalAtk03_AS",
                            "Audio_Monster_FauneAbyssale_HermitCrab_Mature_NormalAttack03_AS"
                        ]
                    },
                    "ADPGACLPFHN": [
                        "BeHit",
                        "DoSkill"
                    ],
                    "NPMGEMAFACP": true
                },
                "Land": {
                    "$type": "MEECNDLIOBI",
                    "HKPCLGHBKFD": {
                        "Land": [
                            "Audio_Monster_FauneAbyssale_HermitCrab_Mature_Land"
                        ]
                    },
                    "BAABNFCMKIO": true,
                    "ADPGACLPFHN": [
                        "BeHit",
                        "DoSkill"
                    ],
                    "NPMGEMAFACP": true,
                    "LMGAMOBLNPP": true,
                    "MGFHGCKKPDB": true
                },
                "Launch": {
                    "$type": "MEECNDLIOBI",
                    "HKPCLGHBKFD": {
                        "Launch": [
                            "Audio_Monster_FauneAbyssale_HermitCrab_Mature_Launch"
                        ]
                    },
                    "BAABNFCMKIO": true,
                    "ADPGACLPFHN": [
                        "BeHit",
                        "DoSkill"
                    ],
                    "NPMGEMAFACP": true,
                    "LMGAMOBLNPP": true,
                    "MGFHGCKKPDB": true
                },
                "Alert": {
                    "$type": "MEECNDLIOBI",
                    "HKPCLGHBKFD": {
                        "Alert": [
                            "Monster_FauneAbyssale_HermitCrab_Larva_Alert",
                            "Audio_Monster_FauneAbyssale_HermitCrab_Mature_Alert"
                        ]
                    },
                    "ADPGACLPFHN": [
                        "BeHit",
                        "DoSkill"
                    ],
                    "NPMGEMAFACP": true
                },
                "Personality1InWater": {
                    "$type": "MEECNDLIOBI",
                    "HKPCLGHBKFD": {
                        "Personality1InWater": [
                            "Monster_FauneAbyssale_HermitCrab_Larva_Personality01_Water",
                            "Audio_Monster_FauneAbyssale_HermitCrab_Larva_Personality1InWater"
                        ]
                    },
                    "KNOHBHKACHA": true,
                    "ADPGACLPFHN": [
                        "BeHit",
                        "DoSkill"
                    ],
                    "NPMGEMAFACP": true
                },
                "Personality1": {
                    "$type": "MEECNDLIOBI",
                    "HKPCLGHBKFD": {
                        "Personality1": [
                            "Monster_FauneAbyssale_HermitCrab_Larva_Personality01",
                            "Audio_Monster_FauneAbyssale_HermitCrab_Mature_Personality1"
                        ]
                    },
                    "KNOHBHKACHA": true,
                    "ADPGACLPFHN": [
                        "BeHit",
                        "DoSkill"
                    ],
                    "NPMGEMAFACP": true
                },
                "Personality2": {
                    "$type": "MEECNDLIOBI",
                    "HKPCLGHBKFD": {
                        "Personality2": [
                            "Monster_FauneAbyssale_HermitCrab_Larva_Personality02",
                            "Audio_Monster_FauneAbyssale_HermitCrab_Mature_Personality2"
                        ]
                    },
                    "KNOHBHKACHA": true,
                    "ADPGACLPFHN": [
                        "BeHit",
                        "DoSkill"
                    ],
                    "NPMGEMAFACP": true
                },
                "Personality3": {
                    "$type": "MEECNDLIOBI",
                    "HKPCLGHBKFD": {
                        "Personality3": [
                            "Audio_Monster_FauneAbyssale_HermitCrab_Mature_Personality3"
                        ]
                    },
                    "KNOHBHKACHA": true,
                    "ADPGACLPFHN": [
                        "BeHit",
                        "DoSkill"
                    ],
                    "NPMGEMAFACP": true
                },
                "Personality4_BS": {
                    "$type": "MEECNDLIOBI",
                    "HKPCLGHBKFD": {
                        "Personality4_BS": [
                            "Monster_FauneAbyssale_HermitCrab_Larva_Personality01_Water",
                            "Audio_Monster_FauneAbyssale_HermitCrab_Mature_Personality4_BS"
                        ]
                    },
                    "KNOHBHKACHA": true,
                    "ADPGACLPFHN": [
                        "BeHit",
                        "DoSkill"
                    ],
                    "NPMGEMAFACP": true
                },
                "Personality4_Loop": {
                    "$type": "MEECNDLIOBI",
                    "HKPCLGHBKFD": {
                        "Personality4_Loop": []
                    },
                    "KNOHBHKACHA": true,
                    "ADPGACLPFHN": [
                        "BeHit",
                        "DoSkill"
                    ]
                },
                "Personality4_AS": {
                    "$type": "MEECNDLIOBI",
                    "HKPCLGHBKFD": {
                        "Personality4_AS": [
                            "Audio_Monster_FauneAbyssale_HermitCrab_Mature_Personality4_AS"
                        ]
                    },
                    "KNOHBHKACHA": true,
                    "ADPGACLPFHN": [
                        "BeHit",
                        "DoSkill"
                    ],
                    "NPMGEMAFACP": true
                },
                "Personality5_BS": {
                    "$type": "MEECNDLIOBI",
                    "HKPCLGHBKFD": {
                        "Personality5_BS": [
                            "Audio_Monster_FauneAbyssale_HermitCrab_Mature_Personality4InWater_BS"
                        ]
                    },
                    "KNOHBHKACHA": true,
                    "ADPGACLPFHN": [
                        "BeHit",
                        "DoSkill"
                    ],
                    "NPMGEMAFACP": true
                },
                "Personality5_Loop": {
                    "$type": "MEECNDLIOBI",
                    "HKPCLGHBKFD": {
                        "Personality5_Loop": []
                    },
                    "KNOHBHKACHA": true,
                    "ADPGACLPFHN": [
                        "BeHit",
                        "DoSkill"
                    ]
                },
                "Personality5_AS": {
                    "$type": "MEECNDLIOBI",
                    "HKPCLGHBKFD": {
                        "Personality5_AS": [
                            "Audio_Monster_FauneAbyssale_HermitCrab_Mature_Personality4InWater_AS"
                        ]
                    },
                    "KNOHBHKACHA": true,
                    "ADPGACLPFHN": [
                        "BeHit",
                        "DoSkill"
                    ],
                    "NPMGEMAFACP": true
                }
            }
        }
    },
    "billboard": {
        "$type": "HFEGKLAIGGI",
        "IIKEHINGEME": "BillboardAttach",
        "offset": {
            "y": 0.5
        },
        "HECLHMINJII": 1.0,
        "ABJJCOBEPLC": true,
        "showDistance": 32.0,
        "DMHOOGGGDKG": true,
        "size": "Big"
    },
    "initialPoses": {
        "Default": {
            "initialPoseID": 11,
            "initialPoseParams": {
                "intParams": {
                    "SpacialState": "1",
                    "FreeState": "1"
                }
            }
        },
        "LandInWater": {
            "initialPoseID": 1,
            "initialPoseParams": {
                "intParams": {
                    "SpacialState": "0",
                    "FreeState": "1"
                }
            }
        },
        "Land": {
            "initialPoseID": 21,
            "initialPoseParams": {
                "intParams": {
                    "SpacialState": "0",
                    "FreeState": "1"
                }
            }
        },
        "MuteOnFloorInWater": {
            "initialPoseID": 2,
            "initialPoseParams": {
                "intParams": {
                    "SpacialState": "0",
                    "FreeState": "2"
                }
            }
        },
        "MuteInWater": {
            "initialPoseID": 12,
            "initialPoseParams": {
                "intParams": {
                    "SpacialState": "1",
                    "FreeState": "2"
                }
            }
        },
        "MuteOnFloor": {
            "initialPoseID": 22,
            "initialPoseParams": {
                "intParams": {
                    "SpacialState": "0",
                    "FreeState": "2"
                }
            }
        },
        "MuteShellOnFloorLandInWater": {
            "initialPoseID": 3,
            "initialPoseParams": {
                "intParams": {
                    "SpacialState": "0",
                    "FreeState": "3"
                }
            }
        },
        "MuteShellOnFloorInWater": {
            "initialPoseID": 13,
            "initialPoseParams": {
                "intParams": {
                    "SpacialState": "1",
                    "FreeState": "3"
                }
            }
        },
        "LandMuteShell": {
            "initialPoseID": 23,
            "initialPoseParams": {
                "intParams": {
                    "SpacialState": "0",
                    "FreeState": "3"
                }
            }
        },
        "LandInWaterInShell": {
            "initialPoseID": 31,
            "initialPoseParams": {
                "intParams": {
                    "SpacialState": "0",
                    "FreeState": "4"
                }
            }
        },
        "InWaterInShell": {
            "initialPoseID": 51,
            "initialPoseParams": {
                "intParams": {
                    "SpacialState": "1",
                    "FreeState": "4"
                }
            }
        },
        "LandInShell": {
            "initialPoseID": 41,
            "initialPoseParams": {
                "intParams": {
                    "SpacialState": "0",
                    "FreeState": "4"
                }
            }
        }
    },
    "aibeta": {
        "enable": true,
        "moveSetting": {
            "moveCategory": "DiveSeafloorLandAmphibious",
            "BPLMFAOBAHA": true,
            "navMeshAgentName": "Undead01",
            "almostReachedDistanceWalk": 2.0,
            "almostReachedDistanceRun": 2.0
        },
        "sensing": {
            "settings": {
                "DefaultSetting": {
                    "viewRange": 15.0,
                    "hearAttractionRange": 5.0,
                    "feelRange": 7.0,
                    "sourcelessHitAttractionRange": 10.0
                },
                "NeverCombat": {
                    "enableVision": false,
                    "hearAttractionRange": 0.0,
                    "feelRange": 0.0
                },
                "NormalAlert": {
                    "viewRange": 35.0,
                    "viewPanoramic": true,
                    "verticalFov": 75.0,
                    "hearAttractionRange": 5.0,
                    "feelRange": 10.0,
                    "sourcelessHitAttractionRange": 10.0
                }
            },
            "templates": {
                "DefaultTemplate": {
                    "DefaultPoses": "DefaultSetting",
                    "201": "NormalAlert",
                    "301": "NormalAlert",
                    "401": "NormalAlert",
                    "203": "NormalAlert",
                    "303": "NormalAlert",
                    "403": "NormalAlert"
                },
                "NeverCombatTemplate": {
                    "DefaultPoses": "NeverCombat",
                    "201": "NormalAlert",
                    "301": "NormalAlert",
                    "401": "NormalAlert",
                    "203": "NormalAlert",
                    "303": "NormalAlert",
                    "403": "NormalAlert"
                },
                "NormalAlertTemplate": {
                    "DefaultPoses": "NormalAlert"
                }
            }
        },
        "neurons": {
            "DefaultSetting": [
                "HIT"
            ]
        },
        "threat": {
            "clearThreatTargetDistance": 30.0,
            "FDJGBLDHKIN": false,
            "threatDecreaseSpeed": 60.0,
            "threatBroadcastRange": 5.0,
            "viewAttenuation": [
                {
                    "x": 10.0,
                    "y": 1.0
                },
                {
                    "x": 20.0,
                    "y": 0.44999998807907104
                },
                {
                    "x": 30.0,
                    "y": 0.25
                }
            ]
        },
        "defendArea": {
            "defendRange": 120.0
        },
        "fly": {
            "enable": true,
            "CMKAGLKCJKN": [
                11,
                12,
                13,
                51,
                301,
                303,
                901,
                902,
                903
            ]
        },
        "skills": {
            "231": {
                "name": "NormalAttack02",
                "combatSkillType": "RangedAttack",
                "priority": 2,
                "castCondition": {
                    "pose": [
                        401
                    ],
                    "AHGLPKFFCIK": [
                        0
                    ],
                    "pickRangeMax": 25.0
                },
                "cd": 5.0,
                "cdUpperRange": 1.0,
                "publicCDGroup": "",
                "CLEPNIDJOLN": "",
                "stateIDs": [
                    "NormalAttack02_BS",
                    "NormalAttack02_Loop1",
                    "NormalAttack02_Loop2",
                    "NormalAttack02_Loop3",
                    "NormalAttack02_AS"
                ],
                "flagTargetReachable": "11",
                "flagSelfOnTemplateCollider": "11",
                "flagSelfInZone": "11",
                "flagTargetInZone": "11"
            },
            "201": {
                "name": "Defend",
                "priority": 2,
                "castCondition": {
                    "pose": [
                        203,
                        403,
                        303
                    ],
                    "AHGLPKFFCIK": [
                        0,
                        1,
                        2
                    ]
                },
                "cd": 4.0,
                "cdUpperRange": 2.0,
                "publicCDGroup": "",
                "CLEPNIDJOLN": "",
                "stateIDs": [
                    "Defend"
                ],
                "flagTargetReachable": "11",
                "flagSelfOnTemplateCollider": "11",
                "flagSelfInZone": "11",
                "flagTargetInZone": "11"
            },
            "211": {
                "name": "DefendAttack",
                "priority": 3,
                "castCondition": {
                    "pose": [
                        201,
                        203,
                        401,
                        403
                    ],
                    "AHGLPKFFCIK": [
                        0,
                        1,
                        2
                    ],
                    "pickRangeMax": 4.0
                },
                "cd": 10.0,
                "cdUpperRange": 1.0,
                "publicCDGroup": "",
                "CLEPNIDJOLN": "",
                "stateIDs": [
                    "DefendAttack01",
                    "DefendAttack02"
                ],
                "flagTargetReachable": "11",
                "flagSelfOnTemplateCollider": "11",
                "flagSelfInZone": "11",
                "flagTargetInZone": "11"
            },
            "221": {
                "name": "NormalAttack01",
                "priority": 3,
                "castCondition": {
                    "pose": [
                        401
                    ],
                    "AHGLPKFFCIK": [
                        0
                    ],
                    "pickRangeMax": 12.0
                },
                "cd": 12.0,
                "cdUpperRange": 2.0,
                "publicCDGroup": "",
                "CLEPNIDJOLN": "",
                "stateIDs": [
                    "NormalAttack01_BS",
                    "NormalAttack01_BS_Loop",
                    "NormalAttack01"
                ],
                "flagTargetReachable": "11",
                "flagSelfOnTemplateCollider": "11",
                "flagSelfInZone": "11",
                "flagTargetInZone": "11"
            },
            "241": {
                "name": "NormalAttack03",
                "priority": 3,
                "castCondition": {
                    "pose": [
                        301
                    ],
                    "AHGLPKFFCIK": [
                        1,
                        2
                    ],
                    "maxTargetAngleY": 45.0,
                    "minTargetAngleY": -45.0,
                    "pickRangeMax": 15.0,
                    "SkillAnchorRangeMin": 3.0
                },
                "cd": 5.0,
                "cdUpperRange": 2.0,
                "publicCDGroup": "",
                "CLEPNIDJOLN": "Cast_In_Water",
                "stateIDs": [
                    "NormalAttack03_BS",
                    "NormalAttack03_Loop",
                    "NormalAttack03_AS"
                ],
                "flagTargetReachable": "11",
                "flagSelfOnTemplateCollider": "11",
                "flagSelfInZone": "11",
                "flagTargetInZone": "11"
            },
            "301": {
                "name": "Launch",
                "priority": 1,
                "needLineOfSight": true,
                "castCondition": {
                    "pose": [
                        201,
                        203
                    ],
                    "AHGLPKFFCIK": [
                        0,
                        1,
                        2
                    ],
                    "SkillAnchorRangeMin": 4.0
                },
                "cd": 5.0,
                "cdUpperRange": 2.0,
                "initialCD": 5.0,
                "publicCDGroup": "",
                "CLEPNIDJOLN": "",
                "stateIDs": [
                    "Launch"
                ],
                "flagTargetReachable": "11",
                "flagSelfOnTemplateCollider": "11",
                "flagSelfInZone": "11",
                "flagTargetInZone": "11"
            },
            "302": {
                "name": "Launch2",
                "skillType": "Free",
                "priority": 3,
                "needLineOfSight": true,
                "castCondition": {
                    "pose": [
                        1,
                        3
                    ],
                    "ELMBIHAGCOP": -1.0,
                    "OMBNCOLOMCG": -1.0,
                    "SkillAnchorRangeMin": 4.0
                },
                "cd": 15.0,
                "cdUpperRange": 2.0,
                "initialCD": 15.0,
                "publicCDGroup": "",
                "CLEPNIDJOLN": "",
                "stateIDs": [
                    "Launch"
                ],
                "flagTargetReachable": "10",
                "flagSelfOnTemplateCollider": "01",
                "flagSelfInZone": "10",
                "flagTargetInZone": "11"
            },
            "311": {
                "name": "Land",
                "priority": 1,
                "castCondition": {
                    "pose": [
                        301,
                        303
                    ],
                    "AHGLPKFFCIK": [
                        0
                    ],
                    "EDDMDKHIIOH": [
                        {
                            "max": 2.5399999618530273,
                            "AGIFMABFMHE": "DownToGroundOnlyInWater"
                        }
                    ]
                },
                "cd": 15.0,
                "cdUpperRange": 2.0,
                "initialCD": 10.0,
                "publicCDGroup": "",
                "CLEPNIDJOLN": "",
                "stateIDs": [
                    "Land"
                ],
                "flagTargetReachable": "11",
                "flagSelfOnTemplateCollider": "11",
                "flagSelfInZone": "11",
                "flagTargetInZone": "11"
            },
            "312": {
                "name": "Land2",
                "skillType": "Free",
                "priority": 2,
                "needLineOfSight": true,
                "castCondition": {
                    "pose": [
                        11,
                        13
                    ],
                    "EDDMDKHIIOH": [
                        {
                            "max": 2.5399999618530273,
                            "AGIFMABFMHE": "DownToGroundOnlyInWater"
                        }
                    ],
                    "ELMBIHAGCOP": -1.0,
                    "OMBNCOLOMCG": -1.0
                },
                "cd": 10.0,
                "cdUpperRange": 2.0,
                "initialCD": 10.0,
                "publicCDGroup": "",
                "CLEPNIDJOLN": "",
                "stateIDs": [
                    "Land"
                ],
                "flagTargetReachable": "11",
                "flagSelfOnTemplateCollider": "11",
                "flagSelfInZone": "11",
                "flagTargetInZone": "11"
            },
            "1": {
                "name": "OnAlert",
                "skillType": "OnAlert",
                "faceTarget": true,
                "publicCDGroup": "",
                "ignoreGCD": true,
                "triggerGCD": false,
                "CLEPNIDJOLN": "",
                "stateIDs": [
                    "Alert"
                ],
                "skillQueryingTime": 3.0,
                "flagTargetReachable": "10",
                "flagSelfOnTemplateCollider": "01",
                "flagSelfInZone": "10",
                "flagTargetInZone": "11"
            },
            "101": {
                "name": "Personality1InWater",
                "skillType": "Free",
                "priority": 2,
                "castCondition": {
                    "pose": [
                        1
                    ]
                },
                "cd": 15.0,
                "cdUpperRange": 2.0,
                "initialCD": 5.0,
                "publicCDGroup": "",
                "CLEPNIDJOLN": "",
                "stateIDs": [
                    "Personality1InWater"
                ],
                "flagTargetReachable": "10",
                "flagSelfOnTemplateCollider": "01",
                "flagSelfInZone": "10",
                "flagTargetInZone": "11"
            },
            "102": {
                "name": "Personality1",
                "skillType": "Free",
                "priority": 2,
                "castCondition": {
                    "pose": [
                        21
                    ]
                },
                "cd": 15.0,
                "cdUpperRange": 2.0,
                "initialCD": 5.0,
                "publicCDGroup": "",
                "CLEPNIDJOLN": "",
                "stateIDs": [
                    "Personality1"
                ],
                "flagTargetReachable": "10",
                "flagSelfOnTemplateCollider": "01",
                "flagSelfInZone": "10",
                "flagTargetInZone": "11"
            },
            "111": {
                "name": "Personality2",
                "skillType": "Free",
                "priority": 2,
                "needLineOfSight": true,
                "castCondition": {
                    "pose": [
                        11,
                        13
                    ],
                    "EDDMDKHIIOH": [
                        {
                            "min": 1.25,
                            "max": -1.0,
                            "AGIFMABFMHE": "DownToGroundOnlyInWater"
                        }
                    ],
                    "ELMBIHAGCOP": -1.0,
                    "OMBNCOLOMCG": -1.0,
                    "SkillAnchorRangeMin": 2.0
                },
                "cd": 10.0,
                "cdUpperRange": 2.0,
                "initialCD": 5.0,
                "publicCDGroup": "",
                "CLEPNIDJOLN": "",
                "stateIDs": [
                    "Personality2"
                ],
                "flagTargetReachable": "11",
                "flagSelfOnTemplateCollider": "11",
                "flagSelfInZone": "11",
                "flagTargetInZone": "11"
            },
            "121": {
                "name": "Personality3",
                "skillType": "Free",
                "priority": 2,
                "castCondition": {
                    "pose": [
                        1,
                        21,
                        3,
                        23
                    ]
                },
                "cd": 15.0,
                "cdUpperRange": 2.0,
                "initialCD": 5.0,
                "publicCDGroup": "",
                "CLEPNIDJOLN": "",
                "stateIDs": [
                    "Personality3"
                ],
                "flagTargetReachable": "10",
                "flagSelfOnTemplateCollider": "01",
                "flagSelfInZone": "10",
                "flagTargetInZone": "11"
            },
            "131": {
                "name": "Personality4",
                "skillType": "Free",
                "priority": 2,
                "castCondition": {
                    "pose": [
                        31
                    ]
                },
                "cd": 10.0,
                "cdUpperRange": 2.0,
                "publicCDGroup": "",
                "CLEPNIDJOLN": "",
                "stateIDs": [
                    "Personality4_BS",
                    "Personality4_Loop",
                    "Personality4_AS"
                ],
                "flagTargetReachable": "10",
                "flagSelfOnTemplateCollider": "01",
                "flagSelfInZone": "10",
                "flagTargetInZone": "11"
            },
            "132": {
                "name": "Personality5",
                "skillType": "Free",
                "priority": 2,
                "castCondition": {
                    "pose": [
                        41
                    ]
                },
                "cd": 10.0,
                "cdUpperRange": 2.0,
                "publicCDGroup": "",
                "CLEPNIDJOLN": "",
                "stateIDs": [
                    "Personality5_BS",
                    "Personality5_Loop",
                    "Personality5_AS"
                ],
                "flagTargetReachable": "10",
                "flagSelfOnTemplateCollider": "01",
                "flagSelfInZone": "10",
                "flagTargetInZone": "11"
            }
        },
        "skillGCD": 1.5,
        "combatFollowMoveTactic": {
            "Temp1": {
                "CJLEEDNPOPP": 1.5,
                "DFFPDGGEBHM": 5.0,
                "FBPKFCBDJAJ": 5.0,
                "DILKKAOLEOK": 5.0
            },
            "Temp2": {
                "CJLEEDNPOPP": 3.0,
                "DFFPDGGEBHM": 5.0,
                "FBPKFCBDJAJ": 5.0,
                "DILKKAOLEOK": 5.0
            }
        },
        "combatFixedMoveTactic": [
            {
                "$type": "KIMPOLMEFNK",
                "enable": true,
                "EGJMGEHLDOL": {
                    "pose": [
                        201,
                        203,
                        401,
                        403
                    ]
                },
                "NGIEOIGFFDH": {
                    "rangeMin": 4.0,
                    "rangeMax": 7.0,
                    "ODLFCBFIAEG": {
                        "ACLMEMJMCHO": 0.05000000074505806,
                        "MKGIHLDDOPO": 0.05000000074505806,
                        "AIMKHLAPJGH": 0.20000000298023224,
                        "LJGPLFGCHJM": 0.3499999940395355,
                        "ODFJMMCNEHI": 0.3499999940395355
                    },
                    "EOBOHLNDGNC": "1111",
                    "JFAHEKLBENF": "1111",
                    "JNOHNAPKHCF": true,
                    "FCFLCFFJKLO": ""
                },
                "LKIMAMPDDDI": {
                    "203": {
                        "rangeMin": 4.5,
                        "rangeMax": 20.0,
                        "FIEBJKLPGNF": 2.0,
                        "OHCPDFPNLEP": 3.0,
                        "ODLFCBFIAEG": {
                            "ACLMEMJMCHO": 0.30000001192092896,
                            "MKGIHLDDOPO": 0.0,
                            "AIMKHLAPJGH": 0.20000000298023224,
                            "LJGPLFGCHJM": 0.3499999940395355,
                            "ODFJMMCNEHI": 0.3499999940395355
                        },
                        "EOBOHLNDGNC": "1111",
                        "JFAHEKLBENF": "1111",
                        "JNOHNAPKHCF": true,
                        "FCFLCFFJKLO": ""
                    },
                    "403": {
                        "rangeMin": 4.5,
                        "rangeMax": 20.0,
                        "FIEBJKLPGNF": 2.0,
                        "OHCPDFPNLEP": 3.0,
                        "ODLFCBFIAEG": {
                            "ACLMEMJMCHO": 0.30000001192092896,
                            "MKGIHLDDOPO": 0.0,
                            "AIMKHLAPJGH": 0.20000000298023224,
                            "LJGPLFGCHJM": 0.3499999940395355,
                            "ODFJMMCNEHI": 0.3499999940395355
                        },
                        "EOBOHLNDGNC": "1111",
                        "JFAHEKLBENF": "1111",
                        "JNOHNAPKHCF": true,
                        "FCFLCFFJKLO": "",
                        "PALGNLHFNIC": true
                    }
                }
            },
            {
                "$type": "AFDJLHBOOMF",
                "NGIEOIGFFDH": {
                    "ODJCANIELOC": 2.0,
                    "OKABCEDCDJM": 2.0,
                    "CJBBENAKMKA": "Auto",
                    "FCFLCFFJKLO": "Temp1",
                    "BKCOJDIDEGN": ""
                }
            },
            {
                "$type": "FFPDAEHGBGJ",
                "NGIEOIGFFDH": {
                    "NHPKGHAHIFA": 1,
                    "FCFLCFFJKLO": "Temp1",
                    "BKCOJDIDEGN": "",
                    "CJBBENAKMKA": "Auto"
                }
            },
            {
                "$type": "PFPAILLHEOL",
                "enable": true,
                "EGJMGEHLDOL": {
                    "pose": [
                        2,
                        12,
                        22
                    ]
                },
                "NGIEOIGFFDH": {
                    "NHPKGHAHIFA": 1,
                    "CJBBENAKMKA": "Auto",
                    "FCFLCFFJKLO": "Temp1",
                    "BKCOJDIDEGN": ""
                }
            },
            {
                "$type": "GJGILIGEJMO",
                "enable": true,
                "NGIEOIGFFDH": {
                    "MONCHHKIDKL": 5.0,
                    "CJBBENAKMKA": "Auto",
                    "FCFLCFFJKLO": "Temp2",
                    "BKCOJDIDEGN": ""
                }
            },
            {
                "$type": "BIIGCKAIPPG",
                "NGIEOIGFFDH": {
                    "NHPKGHAHIFA": 1,
                    "OKLCDKFIAPP": true,
                    "FCFLCFFJKLO": "Temp1",
                    "BKCOJDIDEGN": ""
                }
            },
            {
                "$type": "DCLDANBAMMK",
                "enable": true,
                "EGJMGEHLDOL": {
                    "pose": [
                        301
                    ]
                },
                "NGIEOIGFFDH": {
                    "NHPKGHAHIFA": 2,
                    "DJLKEFHINHG": 0.5,
                    "EDFNFFEIKGL": 2.0,
                    "FCFLCFFJKLO": "Default"
                }
            },
            {
                "$type": "NAJPEMALIHG",
                "enable": true,
                "EGJMGEHLDOL": {
                    "pose": [
                        301
                    ]
                },
                "NGIEOIGFFDH": {
                    "NHPKGHAHIFA": 2,
                    "EABOPMAOKHG": 13.5,
                    "BMBHANCLNON": 5.5,
                    "JLPNNIIGBIL": 0.0,
                    "AIEFFAPNOMO": 1.0,
                    "FCFLCFFJKLO": "Temp2",
                    "BKCOJDIDEGN": ""
                }
            },
            {
                "$type": "IJEBEDOFNJP",
                "enable": true,
                "EGJMGEHLDOL": {
                    "pose": [
                        301,
                        303
                    ]
                },
                "NGIEOIGFFDH": {
                    "NHPKGHAHIFA": 2,
                    "CCNPABODAPO": 3.0,
                    "FIEBJKLPGNF": 2.5,
                    "OHCPDFPNLEP": 4.0,
                    "DDDDMJLFJNG": 1.0,
                    "EBEKKNCJBLL": 1.5,
                    "EKNKGKBCADJ": 3.0,
                    "AHNAPEOFNPD": {
                        "ACLMEMJMCHO": 0.0,
                        "MKGIHLDDOPO": 0.0,
                        "LBMNDFCKDOA": 0.5,
                        "HGPFHLEEDFC": 1.5,
                        "AKKAHCLDFOJ": 2.0,
                        "LDJKEDKOGKK": 4.0,
                        "AFBJIELDPCB": 2.0,
                        "EPNMHGNOKLJ": 4.0,
                        "IGIPKNOENJL": 2.0,
                        "JDLKEKHPCJN": 4.0,
                        "CGDEFBJFOJL": 1.0,
                        "MLNEMAIEKOA": 0.5,
                        "NFMCGDBACDH": 2.0
                    },
                    "JDKIBAHAEFI": false,
                    "FCFLCFFJKLO": "Temp1",
                    "BKCOJDIDEGN": "",
                    "PALGNLHFNIC": true
                }
            },
            {
                "$type": "EPJPKHELFCE",
                "enable": true,
                "EGJMGEHLDOL": {
                    "pose": [
                        11,
                        13,
                        51
                    ]
                },
                "NGIEOIGFFDH": {
                    "NHPKGHAHIFA": 1,
                    "ABMMNMAMDKF": {
                        "IEKCLNLKGOI": 0.20000000298023224,
                        "LBMNDFCKDOA": 3.5,
                        "HGPFHLEEDFC": 7.5,
                        "AKKAHCLDFOJ": 2.0,
                        "LDJKEDKOGKK": 5.0,
                        "AFBJIELDPCB": 3.0,
                        "EPNMHGNOKLJ": 7.0,
                        "IGIPKNOENJL": 3.0,
                        "JDLKEKHPCJN": 7.0,
                        "MHKNNENCDFP": 0.0,
                        "DMDLBIOHHLP": 1.0
                    },
                    "MONCHHKIDKL": 2.0,
                    "DIHFJALHEDD": 10.0,
                    "HOKGJAONGHG": 0.20000000298023224,
                    "GJOBDMEBGLM": 0.10000000149011612,
                    "FCFLCFFJKLO": "Temp1",
                    "BKCOJDIDEGN": "",
                    "LJHHPEJFCAP": 1.5,
                    "NPKEFCGNJHC": 3.0,
                    "JFFDJOKBJFD": 2.0,
                    "GLALONNMICP": 1.5,
                    "EEJLIBNKODF": 0.5,
                    "FHDMGIOGCPI": 0.33000001311302185,
                    "MGDCIEKHPOC": -0.5,
                    "MKNAIFGPIBB": 0.5,
                    "LPJFOKMCAJO": 0.6600000262260437
                }
            },
            {
                "$type": "IKIHDEMELGB",
                "enable": true,
                "EGJMGEHLDOL": {
                    "pose": [
                        1,
                        3,
                        21,
                        23
                    ]
                },
                "NGIEOIGFFDH": {
                    "MONCHHKIDKL": 2.0,
                    "HOKGJAONGHG": 3.0,
                    "GJOBDMEBGLM": 1.5,
                    "KDLAOJIPGHP": 10.0,
                    "OEFFOIEOJNC": 2.75,
                    "HAHMEDHEBKE": 4.5,
                    "FCFLCFFJKLO": ""
                }
            }
        ]
    },
    "inputKeys": [
        {
            "keyID": 101,
            "inputKeyCode": 257,
            "abilityName": ""
        },
        {
            "keyID": 111,
            "inputKeyCode": 258,
            "abilityName": ""
        },
        {
            "keyID": 241,
            "inputKeyCode": 260,
            "abilityName": ""
        },
        {
            "keyID": 261,
            "inputKeyCode": 261,
            "abilityName": ""
        },
        {
            "keyID": 311,
            "inputKeyCode": 262,
            "abilityName": ""
        },
        {
            "keyID": 211,
            "inputKeyCode": 263,
            "abilityName": ""
        },
        {
            "keyID": 221,
            "inputKeyCode": 264,
            "abilityName": ""
        },
        {
            "keyID": 231,
            "inputKeyCode": 265,
            "abilityName": ""
        }
    ],
    "move": {
        "$type": "JKDLANFKJIL",
        "MFABCNMCIFB": true,
        "KJLPKFNPFON": [
            {
                "CDGDFGCJGMP": 5.0,
                "AGIFMABFMHE": "DownToGroundOnlyInWater",
                "NNGJPPABGNH": ""
            }
        ],
        "NKMOKNEJFJM": true,
        "ADKJOFPNHNO": "FourDirection",
        "NGDJGNMGHIM": "AirBlend",
        "LDHGAEIKIEE": "SlimeType",
        "NKJKJFLNPPN": 2.0,
        "OPALOODMBJP": true,
        "LPAKBBIADNC": "RootNode",
        "ODAGPPGIBJA": 30.0,
        "HEFHKKCJLEI": true,
        "HGJOMDMPIGK": true
    },
    "audio": {
        "LKJIHNLBIJL": "",
        "animAudio": {
            "onTransitionIn": [
                {
                    "currentStateName": "WalkForward",
                    "audioEvent": {
                        "text": "Play_Sfx_Monster_FauneAbyssale_HermitCrab_Mature_Walk_LP"
                    },
                    "otherStateNames": [
                        "WalkForward"
                    ],
                    "usage": "Except"
                },
                {
                    "currentStateName": "WalkBack",
                    "audioEvent": {
                        "text": "Play_Sfx_Monster_FauneAbyssale_HermitCrab_Mature_Walk_LP"
                    },
                    "otherStateNames": [
                        "WalkBack"
                    ],
                    "usage": "Except"
                },
                {
                    "currentStateName": "WalkLeft",
                    "audioEvent": {
                        "text": "Play_Sfx_Monster_FauneAbyssale_HermitCrab_Mature_Walk_LP"
                    },
                    "otherStateNames": [
                        "WalkLeft"
                    ],
                    "usage": "Except"
                },
                {
                    "currentStateName": "WalkRight",
                    "audioEvent": {
                        "text": "Play_Sfx_Monster_FauneAbyssale_HermitCrab_Mature_Walk_LP"
                    },
                    "otherStateNames": [
                        "WalkRight"
                    ],
                    "usage": "Except"
                },
                {
                    "currentStateName": "WalkForwardInWater",
                    "audioEvent": {
                        "text": "Play_Sfx_Monster_FauneAbyssale_HermitCrab_Mature_WalkForwardSeaBed_LP"
                    },
                    "otherStateNames": [
                        "WalkForwardInWater"
                    ],
                    "usage": "Except"
                },
                {
                    "currentStateName": "WalkBackInWater",
                    "audioEvent": {
                        "text": "Play_Sfx_Monster_FauneAbyssale_HermitCrab_Mature_WalkForwardSeaBed_LP"
                    },
                    "otherStateNames": [
                        "WalkBackInWater"
                    ],
                    "usage": "Except"
                },
                {
                    "currentStateName": "WalkLeftInWater",
                    "audioEvent": {
                        "text": "Play_Sfx_Monster_FauneAbyssale_HermitCrab_Mature_WalkForwardSeaBed_LP"
                    },
                    "otherStateNames": [
                        "WalkLeftInWater"
                    ],
                    "usage": "Except"
                },
                {
                    "currentStateName": "WalkRightInWater",
                    "audioEvent": {
                        "text": "Play_Sfx_Monster_FauneAbyssale_HermitCrab_Mature_WalkForwardSeaBed_LP"
                    },
                    "otherStateNames": [
                        "WalkRightInWater"
                    ],
                    "usage": "Except"
                },
                {
                    "currentStateName": "FlyInWater",
                    "audioEvent": {
                        "text": "Play_Sfx_Monster_FauneAbyssale_HermitCrab_Mature_FlyInWater_LP"
                    },
                    "otherStateNames": [
                        "FlyInWater"
                    ],
                    "usage": "Except"
                },
                {
                    "currentStateName": "Personality4_Loop",
                    "audioEvent": {
                        "text": "Play_Sfx_Monster_FauneAbyssale_HermitCrab_Mature_Personality4_Loop_LP"
                    },
                    "otherStateNames": [
                        "Personality4_Loop"
                    ],
                    "usage": "Except"
                },
                {
                    "currentStateName": "NormalAttack02_Loop1",
                    "audioEvent": {
                        "text": "Play_Sfx_Monster_FauneAbyssale_HermitCrab_Mature_NormalAttack02_Loop_LP"
                    },
                    "otherStateNames": [
                        "NormalAttack02_Loop1"
                    ],
                    "usage": "Except"
                },
                {
                    "currentStateName": "NormalAttack02_Loop2",
                    "audioEvent": {
                        "text": "Play_Sfx_Monster_FauneAbyssale_HermitCrab_Mature_NormalAttack02_Loop_LP"
                    },
                    "otherStateNames": [
                        "NormalAttack02_Loop2"
                    ],
                    "usage": "Except"
                },
                {
                    "currentStateName": "NormalAttack02_Loop3",
                    "audioEvent": {
                        "text": "Play_Sfx_Monster_FauneAbyssale_HermitCrab_Mature_NormalAttack02_Loop_LP"
                    },
                    "otherStateNames": [
                        "NormalAttack02_Loop3"
                    ],
                    "usage": "Except"
                },
                {
                    "currentStateName": "Personality5_Loop",
                    "audioEvent": {
                        "text": "Play_Sfx_Monster_FauneAbyssale_HermitCrab_Mature_Personality4InWater_Loop_LP"
                    },
                    "otherStateNames": [
                        "Personality5_Loop"
                    ],
                    "usage": "Except"
                },
                {
                    "currentStateName": "Personality5_Loop",
                    "audioEvent": {
                        "text": "Play_Sfx_Monster_FauneAbyssale_HermitCrab_Mature_Personality4InWater_Loop_LP"
                    },
                    "otherStateNames": [
                        "Personality5_Loop"
                    ],
                    "usage": "Except"
                },
                {
                    "currentStateName": "StandbyInWater",
                    "audioEvent": {
                        "text": "Play_Sfx_Monster_FauneAbyssale_HermitCrab_Mature_FlyInWater_LP"
                    },
                    "otherStateNames": [
                        "StandbyInWater"
                    ],
                    "usage": "Except"
                }
            ],
            "onTransitionOut": [
                {
                    "currentStateName": "WalkForward",
                    "audioEvent": {
                        "text": "Stop_Sfx_Monster_FauneAbyssale_HermitCrab_Mature_Walk_LP"
                    },
                    "otherStateNames": [
                        "WalkForward"
                    ],
                    "usage": "Except"
                },
                {
                    "currentStateName": "WalkBack",
                    "audioEvent": {
                        "text": "Stop_Sfx_Monster_FauneAbyssale_HermitCrab_Mature_Walk_LP"
                    },
                    "otherStateNames": [
                        "WalkBack"
                    ],
                    "usage": "Except"
                },
                {
                    "currentStateName": "WalkLeft",
                    "audioEvent": {
                        "text": "Stop_Sfx_Monster_FauneAbyssale_HermitCrab_Mature_Walk_LP"
                    },
                    "otherStateNames": [
                        "WalkLeft"
                    ],
                    "usage": "Except"
                },
                {
                    "currentStateName": "WalkRight",
                    "audioEvent": {
                        "text": "Stop_Sfx_Monster_FauneAbyssale_HermitCrab_Mature_Walk_LP"
                    },
                    "otherStateNames": [
                        "WalkRight"
                    ],
                    "usage": "Except"
                },
                {
                    "currentStateName": "WalkForwardInWater",
                    "audioEvent": {
                        "text": "Stop_Sfx_Monster_FauneAbyssale_HermitCrab_Mature_WalkForwardSeaBed_LP"
                    },
                    "otherStateNames": [
                        "WalkForwardInWater"
                    ],
                    "usage": "Except"
                },
                {
                    "currentStateName": "WalkBackInWater",
                    "audioEvent": {
                        "text": "Stop_Sfx_Monster_FauneAbyssale_HermitCrab_Mature_WalkForwardSeaBed_LP"
                    },
                    "otherStateNames": [
                        "WalkBackInWater"
                    ],
                    "usage": "Except"
                },
                {
                    "currentStateName": "WalkLeftInWater",
                    "audioEvent": {
                        "text": "Stop_Sfx_Monster_FauneAbyssale_HermitCrab_Mature_WalkForwardSeaBed_LP"
                    },
                    "otherStateNames": [
                        "WalkLeftInWater"
                    ],
                    "usage": "Except"
                },
                {
                    "currentStateName": "WalkRightInWater",
                    "audioEvent": {
                        "text": "Stop_Sfx_Monster_FauneAbyssale_HermitCrab_Mature_WalkForwardSeaBed_LP"
                    },
                    "otherStateNames": [
                        "WalkRightInWater"
                    ],
                    "usage": "Except"
                },
                {
                    "currentStateName": "FlyInWater",
                    "audioEvent": {
                        "text": "Stop_Sfx_Monster_FauneAbyssale_HermitCrab_Mature_FlyInWater_LP"
                    },
                    "otherStateNames": [
                        "FlyInWater"
                    ],
                    "usage": "Except"
                },
                {
                    "currentStateName": "Personality4_Loop",
                    "audioEvent": {
                        "text": "Stop_Sfx_Monster_FauneAbyssale_HermitCrab_Mature_Personality4_Loop_LP"
                    },
                    "otherStateNames": [
                        "Personality4_Loop"
                    ],
                    "usage": "Except"
                },
                {
                    "currentStateName": "NormalAttack02_Loop1",
                    "audioEvent": {
                        "text": "Stop_Sfx_Monster_FauneAbyssale_HermitCrab_Mature_NormalAttack02_Loop_LP"
                    },
                    "otherStateNames": [
                        "NormalAttack02_Loop1"
                    ],
                    "usage": "Except"
                },
                {
                    "currentStateName": "NormalAttack02_Loop2",
                    "audioEvent": {
                        "text": "Stop_Sfx_Monster_FauneAbyssale_HermitCrab_Mature_NormalAttack02_Loop_LP"
                    },
                    "otherStateNames": [
                        "NormalAttack02_Loop2"
                    ],
                    "usage": "Except"
                },
                {
                    "currentStateName": "NormalAttack02_Loop3",
                    "audioEvent": {
                        "text": "Stop_Sfx_Monster_FauneAbyssale_HermitCrab_Mature_NormalAttack02_Loop_LP"
                    },
                    "otherStateNames": [
                        "NormalAttack02_Loop"
                    ],
                    "usage": "Except"
                },
                {
                    "currentStateName": "Personality5_Loop",
                    "audioEvent": {
                        "text": "Stop_Sfx_Monster_FauneAbyssale_HermitCrab_Mature_Personality4InWater_Loop_LP"
                    },
                    "otherStateNames": [
                        "Personality5_Loop"
                    ],
                    "usage": "Except"
                },
                {
                    "currentStateName": "StandbyInWater",
                    "audioEvent": {
                        "text": "Stop_Sfx_Monster_FauneAbyssale_HermitCrab_Mature_FlyInWater_LP"
                    },
                    "otherStateNames": [
                        "StandbyInWater"
                    ],
                    "usage": "Except"
                },
                {
                    "currentStateName": "StandbyInWater",
                    "audioEvent": {
                        "text": "Stop_Sfx_Monster_FauneAbyssale_HermitCrab_Mature_FlyInWater_LP"
                    },
                    "otherStateNames": [
                        "StandbyInWater"
                    ],
                    "usage": "Except"
                }
            ]
        }
    }
}