{
    "common": {
        "effectAttachShape": {
            "$type": "CMIPFEGOJCH",
            "EJAEFCDBDFB": "EffectMesh"
        },
        "mass": 10000.0,
        "height": 2.0,
        "affectedByWorld": true,
        "checkInSurface": true,
        "useGrassDisplacement": true,
        "clearAnimatorOnSetLightDeactive": true,
        "clearAIOnSetLightDeactive": true,
        "NICGCIINMFJ": true
    },
    "specialPoint": {
        "elementAbsorb": "RootNode",
        "elementPendant": "",
        "elementDrop": "RootNode",
        "bulletAim": "Waist"
    },
    "model": {
        "bornEffect": "Eff_Monster_Common_Born",
        "attachEffect": ""
    },
    "dither": {
        "showDitherDuration": 2.0
    },
    "combat": {
        "property": {
            "endureType": "Monster_Boss_Other",
            "weight": 300.0
        },
        "beHit": {
            "hitBloodEffect": "",
            "hitAutoRedirect": false
        },
        "combatLock": {
            "lockShape": "CircleLockEnemy",
            "lockType": "Avatar&Monster_Lv4"
        },
        "die": {
            "hasAnimatorDie": true,
            "dieForceDisappearTime": 2.0,
            "dieDisappearEffect": "Eff_Death_Common_Animal",
            "LDOHFFOEPPI": true,
            "BMOKGIFNILM": true,
            "PHCLLDNDFNG": true,
            "CHBAHMJGJBE": true,
            "OPPHENIKFJA": true,
            "CCNGAIMLPIJ": true
        },
        "animEvents": {
            "AtkNo": {
                "attackPattern": {
                    "$type": "HBFCINNBDFD",
                    "triggerType": "TriggerNoRepeat",
                    "born": {
                        "$type": "KDEPFKAAHCG",
                        "offset": {
                            "HMHIOILIGBF": 0.0,
                            "DPPJGBOHAAL": 0.0,
                            "DDOAGBLBCEF": -0.5
                        }
                    },
                    "NPLOANBGDOK": 60.0,
                    "DFMMIGEMOHH": 1.5
                },
                "attackInfo": {
                    "attackTag": "",
                    "attenuationTag": "",
                    "attenuationGroup": "default",
                    "attackProperty": {
                        "PCFAAPMOCGJ": 0.5,
                        "LCCBNOKMNFG": 0.0,
                        "bonusCritical": 100.0,
                        "strikeType": "Blunt",
                        "attackType": "Melee",
                        "FKGFPFNOJMN": 0.0
                    },
                    "hitPattern": {
                        "onHitEffectName": "default",
                        "hitImpulseType": "LV2",
                        "hitHaltTimeScale": 0.009999999776482582
                    }
                }
            },
            "Megamoth_HitScene": {
                "attackPattern": {
                    "$type": "HBFCINNBDFD",
                    "triggerType": "TriggerNoRepeat",
                    "MMLJIFPBPOD": "OnlyHitScene",
                    "born": {
                        "$type": "KDEPFKAAHCG",
                        "offset": {
                            "HMHIOILIGBF": 0.0,
                            "DPPJGBOHAAL": 1.0,
                            "DDOAGBLBCEF": 1.0
                        }
                    },
                    "NPLOANBGDOK": 45.0,
                    "DFMMIGEMOHH": 3.5
                },
                "attackInfo": {
                    "attackTag": "",
                    "attenuationTag": "",
                    "attenuationGroup": "default",
                    "cameraShake": {
                        "shakeRange": 0.1599999964237213,
                        "shakeTime": 0.15000000596046448,
                        "shakeDistance": 25.0
                    }
                }
            }
        }
    },
    "abilities": [
        {
            "abilityID": "Steer",
            "abilityName": "Monster_Megamoth_None_Steer",
            "abilityOverride": ""
        },
        {
            "abilityID": "Attack01",
            "abilityName": "Monster_Megamoth_None_Attack01",
            "abilityOverride": ""
        },
        {
            "abilityID": "Attack02",
            "abilityName": "Monster_Megamoth_None_Attack02",
            "abilityOverride": ""
        },
        {
            "abilityID": "EffAdapter",
            "abilityName": "Monster_Megamoth_None_EffAdapter",
            "abilityOverride": ""
        },
        {
            "abilityID": "EffAdapter",
            "abilityName": "Monster_Megamoth_None_LeftBack_Foot_Eff",
            "abilityOverride": ""
        },
        {
            "abilityID": "EffAdapter",
            "abilityName": "Monster_Megamoth_None_LeftFront_Foot_Eff",
            "abilityOverride": ""
        },
        {
            "abilityID": "EffAdapter",
            "abilityName": "Monster_Megamoth_None_RightBack_Foot_Eff",
            "abilityOverride": ""
        },
        {
            "abilityID": "EffAdapter",
            "abilityName": "Monster_Megamoth_None_RightFront_Foot_Eff",
            "abilityOverride": ""
        },
        {
            "abilityID": "ChewControl",
            "abilityName": "Monster_Megamoth_None_ChewControl",
            "abilityOverride": ""
        },
        {
            "abilityID": "Personality03",
            "abilityName": "Monster_Megamoth_None_Personality03",
            "abilityOverride": ""
        },
        {
            "abilityID": "Personality04",
            "abilityName": "Monster_Megamoth_None_Personality04",
            "abilityOverride": ""
        },
        {
            "abilityID": "RCMethod",
            "abilityName": "Monster_Megamoth_None_RCMethod",
            "abilityOverride": ""
        }
    ],
    "stateLayers": {
        "defaultLayer": {
            "$type": "KFHJINNNDPN",
            "BOPIBFKFKCA": "",
            "stateIDs": {
                "NormalIdle": {
                    "$type": "MEECNDLIOBI",
                    "HKPCLGHBKFD": {
                        "Standby": [],
                        "Born": []
                    },
                    "KNOHBHKACHA": true,
                    "BAABNFCMKIO": true,
                    "ADPGACLPFHN": [
                        "DoSkill"
                    ]
                },
                "Sit": {
                    "$type": "MEECNDLIOBI",
                    "HKPCLGHBKFD": {
                        "Sit": []
                    },
                    "KNOHBHKACHA": true,
                    "BAABNFCMKIO": true,
                    "ADPGACLPFHN": [
                        "DoSkill"
                    ]
                },
                "Lying": {
                    "$type": "MEECNDLIOBI",
                    "HKPCLGHBKFD": {
                        "Lying": []
                    },
                    "KNOHBHKACHA": true,
                    "BAABNFCMKIO": true,
                    "ADPGACLPFHN": [
                        "DoSkill"
                    ]
                },
                "Walk": {
                    "$type": "MEECNDLIOBI",
                    "HKPCLGHBKFD": {
                        "Walk": [
                            "Audio_Monster_Megamoth_Walk_S",
                            "Monster_Megamoth_None_Megamoth_WalkEffect"
                        ]
                    },
                    "KNOHBHKACHA": true,
                    "BAABNFCMKIO": true,
                    "ADPGACLPFHN": [
                        "DoSkill"
                    ],
                    "NPMGEMAFACP": true
                },
                "Run": {
                    "$type": "MEECNDLIOBI",
                    "HKPCLGHBKFD": {
                        "Run": [
                            "Audio_Monster_Megamoth_Run_S"
                        ]
                    },
                    "KNOHBHKACHA": true,
                    "BAABNFCMKIO": true,
                    "ADPGACLPFHN": [
                        "DoSkill"
                    ],
                    "NPMGEMAFACP": true
                },
                "Turn": {
                    "$type": "MEECNDLIOBI",
                    "HKPCLGHBKFD": {
                        "TurnLeft": [
                            "Audio_Monster_Megamoth_Walk_S"
                        ],
                        "TurnRight": [
                            "Audio_Monster_Megamoth_Walk_S"
                        ],
                        "TurnBack": [
                            "Audio_Monster_Megamoth_Walk_S"
                        ]
                    },
                    "KNOHBHKACHA": true,
                    "BAABNFCMKIO": true,
                    "ADPGACLPFHN": [
                        "DoSkill"
                    ],
                    "NPMGEMAFACP": true,
                    "DGECHOEBEBO": true
                },
                "SurroundTurn": {
                    "$type": "MEECNDLIOBI",
                    "HKPCLGHBKFD": {
                        "SurroundTurn": []
                    },
                    "PJFELLIJONH": [
                        "SurroundBigTurn"
                    ],
                    "ADPGACLPFHN": [
                        "DoSkill",
                        "SurroundBigTurn"
                    ],
                    "NPMGEMAFACP": true,
                    "DGECHOEBEBO": true
                },
                "BeHit": {
                    "$type": "MEECNDLIOBI",
                    "HKPCLGHBKFD": {
                        "Hit_L": []
                    },
                    "PJFELLIJONH": [
                        "BeHit"
                    ],
                    "ADPGACLPFHN": [
                        "DoSkill"
                    ]
                },
                "Chew": {
                    "$type": "MEECNDLIOBI",
                    "HKPCLGHBKFD": {
                        "Chew": []
                    }
                },
                "Die": {
                    "$type": "MEECNDLIOBI",
                    "HKPCLGHBKFD": {
                        "Die": [
                            "Monster_Megamoth_None_Megamoth_Die",
                            "Audio_Monster_Megamoth_Die_S"
                        ]
                    }
                },
                "Personality1": {
                    "$type": "MEECNDLIOBI",
                    "HKPCLGHBKFD": {
                        "Personality1": [
                            "Audio_Monster_Megamoth_Personality1_S"
                        ]
                    },
                    "KNOHBHKACHA": true,
                    "ADPGACLPFHN": [
                        "BeHit",
                        "DoSkill"
                    ]
                },
                "Personality2": {
                    "$type": "MEECNDLIOBI",
                    "HKPCLGHBKFD": {
                        "Personality2": [
                            "Audio_Monster_Megamoth_Personality2_S"
                        ]
                    },
                    "KNOHBHKACHA": true,
                    "ADPGACLPFHN": [
                        "BeHit",
                        "DoSkill"
                    ]
                },
                "Personality3_BS": {
                    "$type": "MEECNDLIOBI",
                    "HKPCLGHBKFD": {
                        "Personality3_BS": [
                            "Audio_Monster_Megamoth_Personality3_BS_S"
                        ]
                    },
                    "KNOHBHKACHA": true,
                    "ADPGACLPFHN": [
                        "BeHit",
                        "DoSkill"
                    ]
                },
                "Personality3_Loop": {
                    "$type": "MEECNDLIOBI",
                    "HKPCLGHBKFD": {
                        "Personality3_Loop": []
                    },
                    "KNOHBHKACHA": true,
                    "ADPGACLPFHN": [
                        "BeHit",
                        "DoSkill"
                    ]
                },
                "Personality3_AS": {
                    "$type": "MEECNDLIOBI",
                    "HKPCLGHBKFD": {
                        "Personality3_AS": [
                            "Audio_Monster_Megamoth_Alert_Sit_S"
                        ]
                    },
                    "ADPGACLPFHN": [
                        "BeHit",
                        "DoSkill"
                    ]
                },
                "Personality4_BS": {
                    "$type": "MEECNDLIOBI",
                    "HKPCLGHBKFD": {
                        "Personality4_BS": [
                            "Audio_Monster_Megamoth_Personality4_BS_S"
                        ]
                    },
                    "KNOHBHKACHA": true,
                    "ADPGACLPFHN": [
                        "BeHit",
                        "DoSkill"
                    ]
                },
                "Personality4_Loop": {
                    "$type": "MEECNDLIOBI",
                    "HKPCLGHBKFD": {
                        "Personality4_Loop": []
                    },
                    "KNOHBHKACHA": true,
                    "ADPGACLPFHN": [
                        "BeHit",
                        "DoSkill"
                    ]
                },
                "Personality4_Play": {
                    "$type": "MEECNDLIOBI",
                    "HKPCLGHBKFD": {
                        "Personality4_Play": [
                            "Audio_Monster_Megamoth_Personality4_Play_S"
                        ]
                    },
                    "KNOHBHKACHA": true,
                    "ADPGACLPFHN": [
                        "BeHit",
                        "DoSkill"
                    ]
                },
                "Personality4_AS": {
                    "$type": "MEECNDLIOBI",
                    "HKPCLGHBKFD": {
                        "Personality4_AS": [
                            "Audio_Monster_Megamoth_Alert_Sleep_S"
                        ]
                    },
                    "ADPGACLPFHN": [
                        "BeHit",
                        "DoSkill"
                    ]
                },
                "Personality5": {
                    "$type": "MEECNDLIOBI",
                    "HKPCLGHBKFD": {
                        "Personality5": [
                            "Audio_Monster_Megamoth_Personality4_Play_S"
                        ]
                    },
                    "KNOHBHKACHA": true,
                    "ADPGACLPFHN": [
                        "BeHit",
                        "DoSkill"
                    ]
                },
                "Alert": {
                    "$type": "MEECNDLIOBI",
                    "HKPCLGHBKFD": {
                        "Alert": [
                            "Audio_Monster_Megamoth_Alert_S"
                        ]
                    },
                    "ADPGACLPFHN": [
                        "BeHit",
                        "DoSkill"
                    ]
                },
                "Alert_Sit": {
                    "$type": "MEECNDLIOBI",
                    "HKPCLGHBKFD": {
                        "Alert_Sit": [
                            "Audio_Monster_Megamoth_Alert_Sit_S"
                        ]
                    },
                    "ADPGACLPFHN": [
                        "BeHit",
                        "DoSkill"
                    ]
                },
                "Alert_Sleep": {
                    "$type": "MEECNDLIOBI",
                    "HKPCLGHBKFD": {
                        "Alert_Sleep": [
                            "Audio_Monster_Megamoth_Alert_Sleep_S"
                        ]
                    },
                    "ADPGACLPFHN": [
                        "BeHit",
                        "DoSkill"
                    ]
                },
                "Attack01_BS": {
                    "$type": "MEECNDLIOBI",
                    "HKPCLGHBKFD": {
                        "Attack01_BS": [
                            "Audio_Monster_Megamoth_Attack01_BS_S"
                        ]
                    },
                    "ADPGACLPFHN": [
                        "BeHit",
                        "DoSkill"
                    ]
                },
                "Attack01_Turn_L": {
                    "$type": "MEECNDLIOBI",
                    "HKPCLGHBKFD": {
                        "Attack01_Turn_L": [
                            "Audio_Monster_Megamoth_Attack_TurnRun_S"
                        ]
                    },
                    "ADPGACLPFHN": [
                        "BeHit",
                        "DoSkill"
                    ],
                    "NPMGEMAFACP": true
                },
                "Attack01_Turn_R": {
                    "$type": "MEECNDLIOBI",
                    "HKPCLGHBKFD": {
                        "Attack01_Turn_R": [
                            "Audio_Monster_Megamoth_Attack_TurnRun_S"
                        ]
                    },
                    "ADPGACLPFHN": [
                        "BeHit",
                        "DoSkill"
                    ],
                    "NPMGEMAFACP": true
                },
                "Attack01_Turn_L_HitScence": {
                    "$type": "MEECNDLIOBI",
                    "HKPCLGHBKFD": {
                        "Attack01_Turn_L_HitScence": [
                            "Audio_Monster_Megamoth_Attack_TurnRun_S"
                        ]
                    },
                    "BAABNFCMKIO": true,
                    "ADPGACLPFHN": [
                        "BeHit",
                        "DoSkill"
                    ]
                },
                "Attack01_Turn_R_HitScence": {
                    "$type": "MEECNDLIOBI",
                    "HKPCLGHBKFD": {
                        "Attack01_Turn_R_HitScence": [
                            "Audio_Monster_Megamoth_Attack_TurnRun_S"
                        ]
                    },
                    "BAABNFCMKIO": true,
                    "ADPGACLPFHN": [
                        "BeHit",
                        "DoSkill"
                    ]
                },
                "Attack01_Run": {
                    "$type": "MEECNDLIOBI",
                    "HKPCLGHBKFD": {
                        "Attack01_Run": [
                            "Monster_Megamoth_None_Megamoth_HitScene",
                            "Audio_Monster_Megamoth_Run_S"
                        ]
                    },
                    "ADPGACLPFHN": [
                        "BeHit",
                        "DoSkill"
                    ]
                },
                "Attack01_Run_Extra": {
                    "$type": "MEECNDLIOBI",
                    "HKPCLGHBKFD": {
                        "Attack01_Run_Extra": [
                            "Audio_Monster_Megamoth_Run_S"
                        ]
                    },
                    "ADPGACLPFHN": [
                        "BeHit",
                        "DoSkill"
                    ]
                },
                "Attack01_Loop": {
                    "$type": "MEECNDLIOBI",
                    "HKPCLGHBKFD": {
                        "Attack01_Loop": [
                            "Monster_Megamoth_None_Megamoth_HitScene",
                            "Audio_Monster_Megamoth_Run_S"
                        ]
                    },
                    "ADPGACLPFHN": [
                        "BeHit",
                        "DoSkill"
                    ]
                },
                "Attack01_Loop_Extra": {
                    "$type": "MEECNDLIOBI",
                    "HKPCLGHBKFD": {
                        "Attack01_Loop_Extra": [
                            "Audio_Monster_Megamoth_Run_S"
                        ]
                    },
                    "ADPGACLPFHN": [
                        "BeHit",
                        "DoSkill"
                    ]
                },
                "Attack01_AS": {
                    "$type": "MEECNDLIOBI",
                    "HKPCLGHBKFD": {
                        "Attack01_AS": [
                            "Audio_Monster_Megamoth_Attack01_AS_S"
                        ]
                    },
                    "ADPGACLPFHN": [
                        "BeHit",
                        "DoSkill"
                    ],
                    "NPMGEMAFACP": true,
                    "DGECHOEBEBO": true
                },
                "Attack01_AS_HitScence": {
                    "$type": "MEECNDLIOBI",
                    "HKPCLGHBKFD": {
                        "Attack01_AS_HitScence": [
                            "Audio_Monster_Megamoth_Attack01_AS_S"
                        ]
                    },
                    "ADPGACLPFHN": [
                        "BeHit",
                        "DoSkill"
                    ]
                },
                "Attack02_BS": {
                    "$type": "MEECNDLIOBI",
                    "HKPCLGHBKFD": {
                        "Attack02_BS": [
                            "Audio_Monster_Megamoth_Attack02_BS_S"
                        ]
                    },
                    "ADPGACLPFHN": [
                        "BeHit",
                        "DoSkill"
                    ],
                    "DGECHOEBEBO": true
                },
                "Attack02_Turn_L": {
                    "$type": "MEECNDLIOBI",
                    "HKPCLGHBKFD": {
                        "Attack02_Turn_L": [
                            "Audio_Monster_Megamoth_Attack_TurnRun_S"
                        ]
                    },
                    "ADPGACLPFHN": [
                        "BeHit",
                        "DoSkill"
                    ],
                    "NPMGEMAFACP": true
                },
                "Attack02_Turn_R": {
                    "$type": "MEECNDLIOBI",
                    "HKPCLGHBKFD": {
                        "Attack02_Turn_R": [
                            "Audio_Monster_Megamoth_Attack_TurnRun_S"
                        ]
                    },
                    "ADPGACLPFHN": [
                        "BeHit",
                        "DoSkill"
                    ],
                    "NPMGEMAFACP": true
                },
                "Attack02_Turn_L_HitScence": {
                    "$type": "MEECNDLIOBI",
                    "HKPCLGHBKFD": {
                        "Attack02_Turn_L_HitScence": [
                            "Audio_Monster_Megamoth_Attack_TurnRun_S"
                        ]
                    },
                    "BAABNFCMKIO": true,
                    "ADPGACLPFHN": [
                        "BeHit",
                        "DoSkill"
                    ]
                },
                "Attack02_Turn_R_HitScence": {
                    "$type": "MEECNDLIOBI",
                    "HKPCLGHBKFD": {
                        "Attack02_Turn_R_HitScence": [
                            "Audio_Monster_Megamoth_Attack_TurnRun_S"
                        ]
                    },
                    "BAABNFCMKIO": true,
                    "ADPGACLPFHN": [
                        "BeHit",
                        "DoSkill"
                    ]
                },
                "Attack02_Run": {
                    "$type": "MEECNDLIOBI",
                    "HKPCLGHBKFD": {
                        "Attack02_Run": [
                            "Monster_Megamoth_None_Megamoth_HitScene",
                            "Audio_Monster_Megamoth_Run_S"
                        ]
                    },
                    "ADPGACLPFHN": [
                        "BeHit",
                        "DoSkill"
                    ]
                },
                "Attack02_Run_Extra": {
                    "$type": "MEECNDLIOBI",
                    "HKPCLGHBKFD": {
                        "Attack02_Run_Extra": [
                            "Audio_Monster_Megamoth_Run_S"
                        ]
                    },
                    "ADPGACLPFHN": [
                        "BeHit",
                        "DoSkill"
                    ]
                },
                "Attack02_Loop": {
                    "$type": "MEECNDLIOBI",
                    "HKPCLGHBKFD": {
                        "Attack02_Loop": [
                            "Monster_Megamoth_None_Megamoth_HitScene",
                            "Audio_Monster_Megamoth_Attack02_Loop_S"
                        ]
                    },
                    "ADPGACLPFHN": [
                        "BeHit",
                        "DoSkill"
                    ]
                },
                "Attack02_Loop_Extra": {
                    "$type": "MEECNDLIOBI",
                    "HKPCLGHBKFD": {
                        "Attack02_Loop_Extra": [
                            "Audio_Monster_Megamoth_Attack02_Loop_S"
                        ]
                    },
                    "ADPGACLPFHN": [
                        "BeHit",
                        "DoSkill"
                    ]
                },
                "Attack02_AS": {
                    "$type": "MEECNDLIOBI",
                    "HKPCLGHBKFD": {
                        "Attack02_AS": [
                            "Audio_Monster_Megamoth_Attack02_AS_S"
                        ]
                    },
                    "ADPGACLPFHN": [
                        "BeHit",
                        "DoSkill"
                    ]
                },
                "Attack02_AS_HitScence": {
                    "$type": "MEECNDLIOBI",
                    "HKPCLGHBKFD": {
                        "Attack02_AS_HitScence": [
                            "Audio_Monster_Megamoth_Attack02_AS_S"
                        ]
                    },
                    "ADPGACLPFHN": [
                        "BeHit",
                        "DoSkill"
                    ]
                }
            }
        }
    },
    "billboard": {
        "$type": "HFEGKLAIGGI",
        "IIKEHINGEME": "BillboardAttach",
        "offset": {
            "y": 0.30000001192092896,
            "z": 0.6000000238418579
        },
        "GEKOGJAPMMH": "Character",
        "HECLHMINJII": 0.25,
        "DMHOOGGGDKG": true
    },
    "initialPoses": {
        "Default": {
            "initialPoseID": 1
        },
        "Sit": {
            "initialPoseID": 2,
            "initialPoseParams": {
                "boolParams": {
                    "Sit": "true"
                }
            }
        },
        "Sleep": {
            "initialPoseID": 3,
            "initialPoseParams": {
                "boolParams": {
                    "Sleep": "true"
                }
            }
        },
        "DefaultNoSkill": {
            "initialPoseID": 4,
            "initialPoseParams": {
                "boolParams": {
                    "DefaultNoSkill": "true"
                }
            }
        }
    },
    "aibeta": {
        "enable": true,
        "moveSetting": {
            "navMeshAgentName": "Undead01"
        },
        "sensing": {
            "settings": {
                "DefaultSetting": {
                    "viewRange": 0.0,
                    "feelRange": 0.0,
                    "sourcelessHitAttractionRange": 20.0
                },
                "HighSensing": {
                    "viewRange": 12.0,
                    "hearAttractionRange": 0.0,
                    "feelRange": 4.0,
                    "sourcelessHitAttractionRange": 20.0
                },
                "LowSensing": {
                    "viewRange": 6.0,
                    "hearAttractionRange": 0.0,
                    "feelRange": 2.0,
                    "sourcelessHitAttractionRange": 20.0
                },
                "NoSensing": {
                    "viewRange": 0.0,
                    "hearAttractionRange": 0.0,
                    "feelRange": 0.0,
                    "sourcelessHitAttractionRange": 20.0
                }
            },
            "templates": {
                "DefaultTemplate": {
                    "DefaultPoses": "NoSensing"
                },
                "NoSensing": {
                    "DefaultPoses": "NoSensing"
                },
                "LowSensing": {
                    "DefaultPoses": "LowSensing"
                },
                "HighSensing": {
                    "DefaultPoses": "HighSensing"
                }
            }
        },
        "threat": {
            "clearThreatTargetDistance": 60.0,
            "clearThreatEdgeDistance": 60.0,
            "clearThreatByLostPath": true,
            "clearThreatByTargetOutOfZone": true,
            "clearThreatTimerByDistance": 2.0,
            "viewAttenuation": [
                {
                    "x": 10.0,
                    "y": 2.0
                },
                {
                    "x": 20.0,
                    "y": 1.0
                },
                {
                    "x": 30.0,
                    "y": 0.5
                },
                {
                    "x": 50.0,
                    "y": 0.10000000149011612
                }
            ]
        },
        "defendArea": {},
        "skillGroupCDConfigs": [
            {
                "skillGroupCDID": 2,
                "skillGroupCDTime": 20.0
            }
        ],
        "skillSetting": {
            "skillEliteSet": {
                "0": [
                    601,
                    231,
                    241
                ],
                "1": [
                    601,
                    211
                ],
                "2": [
                    611
                ],
                "3": [
                    611,
                    211
                ]
            }
        },
        "skills": {
            "101": {
                "name": "OnAlert",
                "skillType": "OnAlert",
                "faceTarget": true,
                "castCondition": {
                    "pose": [
                        1,
                        4
                    ]
                },
                "publicCDGroup": "",
                "ignoreGCD": true,
                "triggerGCD": false,
                "CLEPNIDJOLN": "",
                "stateIDs": [
                    "Alert"
                ],
                "skillQueryingTime": 3.0,
                "flagTargetReachable": "10",
                "flagSelfOnTemplateCollider": "01",
                "flagSelfInZone": "10",
                "flagTargetInZone": "11"
            },
            "111": {
                "name": "OnAlert_Sit",
                "skillType": "OnAlert",
                "castCondition": {
                    "pose": [
                        2
                    ]
                },
                "publicCDGroup": "",
                "ignoreGCD": true,
                "triggerGCD": false,
                "CLEPNIDJOLN": "",
                "stateIDs": [
                    "Alert_Sit"
                ],
                "skillQueryingTime": 3.0,
                "flagTargetReachable": "10",
                "flagSelfOnTemplateCollider": "01",
                "flagSelfInZone": "10",
                "flagTargetInZone": "11"
            },
            "121": {
                "name": "OnAlert_Sleep",
                "skillType": "OnAlert",
                "castCondition": {
                    "pose": [
                        3
                    ]
                },
                "publicCDGroup": "",
                "ignoreGCD": true,
                "triggerGCD": false,
                "CLEPNIDJOLN": "",
                "stateIDs": [
                    "Alert_Sleep"
                ],
                "skillQueryingTime": 3.0,
                "flagTargetReachable": "10",
                "flagSelfOnTemplateCollider": "01",
                "flagSelfInZone": "10",
                "flagTargetInZone": "11"
            },
            "201": {
                "name": "Personality1",
                "skillType": "Free",
                "priority": 6,
                "castCondition": {
                    "pose": [
                        1
                    ]
                },
                "cd": 15.0,
                "cdUpperRange": 10.0,
                "initialCD": 2.5,
                "initialCDUpperRange": 5.0,
                "publicCDGroup": "",
                "skillGroupCDID": 2,
                "CLEPNIDJOLN": "",
                "stateIDs": [
                    "Personality1"
                ],
                "flagTargetReachable": "10",
                "flagSelfOnTemplateCollider": "01",
                "flagSelfInZone": "10",
                "flagTargetInZone": "11"
            },
            "211": {
                "name": "Personality2",
                "skillType": "Free",
                "priority": 6,
                "castCondition": {
                    "pose": [
                        1
                    ]
                },
                "cd": 20.0,
                "cdUpperRange": 10.0,
                "initialCD": 2.5,
                "initialCDUpperRange": 5.0,
                "publicCDGroup": "",
                "skillGroupCDID": 2,
                "CLEPNIDJOLN": "",
                "stateIDs": [
                    "Personality2"
                ],
                "flagTargetReachable": "10",
                "flagSelfOnTemplateCollider": "01",
                "flagSelfInZone": "10",
                "flagTargetInZone": "11"
            },
            "221": {
                "name": "Personality3",
                "skillType": "Free",
                "castCondition": {
                    "pose": [
                        1
                    ]
                },
                "cd": 40.0,
                "cdUpperRange": 15.0,
                "initialCD": 10.5,
                "initialCDUpperRange": 5.0,
                "publicCDGroup": "",
                "skillGroupCDID": 2,
                "CLEPNIDJOLN": "",
                "stateIDs": [
                    "Personality3_BS",
                    "Personality3_Loop",
                    "Personality3_AS"
                ],
                "flagTargetReachable": "10",
                "flagSelfOnTemplateCollider": "01",
                "flagSelfInZone": "10",
                "flagTargetInZone": "11"
            },
            "231": {
                "name": "Personality4",
                "skillType": "Free",
                "castCondition": {
                    "pose": [
                        1
                    ]
                },
                "cd": 60.0,
                "cdUpperRange": 25.0,
                "initialCD": 15.5,
                "initialCDUpperRange": 5.0,
                "publicCDGroup": "",
                "skillGroupCDID": 2,
                "CLEPNIDJOLN": "",
                "stateIDs": [
                    "Personality4_BS",
                    "Personality4_Loop",
                    "Personality4_AS",
                    "Personality4_Play"
                ],
                "flagTargetReachable": "10",
                "flagSelfOnTemplateCollider": "01",
                "flagSelfInZone": "10",
                "flagTargetInZone": "11"
            },
            "241": {
                "name": "Personality5",
                "skillType": "Free",
                "castCondition": {
                    "pose": [
                        3
                    ]
                },
                "cd": 15.0,
                "cdUpperRange": 15.0,
                "initialCD": 5.5,
                "initialCDUpperRange": 5.0,
                "publicCDGroup": "",
                "CLEPNIDJOLN": "",
                "stateIDs": [
                    "Personality5"
                ],
                "flagTargetReachable": "10",
                "flagSelfOnTemplateCollider": "01",
                "flagSelfInZone": "10",
                "flagTargetInZone": "11"
            },
            "601": {
                "name": "RangedAttack1",
                "combatSkillType": "RangedAttack",
                "castCondition": {
                    "pose": [
                        101
                    ],
                    "pickRangeMax": 40.0
                },
                "cdUpperRange": 1.0,
                "publicCDGroup": "",
                "CLEPNIDJOLN": "",
                "stateIDs": [
                    "Attack01_AS_HitScence",
                    "Attack01_Run_Extra",
                    "Attack01_Loop_Extra",
                    "Attack01_BS",
                    "Attack01_Turn_L",
                    "Attack01_Turn_R",
                    "Attack01_Run",
                    "Attack01_Loop",
                    "Attack01_AS",
                    "Attack01_Turn_L_HitScence",
                    "Attack01_Turn_R_HitScence"
                ],
                "flagTargetReachable": "11",
                "flagSelfOnTemplateCollider": "11",
                "flagSelfInZone": "11",
                "flagTargetInZone": "11"
            },
            "611": {
                "name": "RangedAttack2",
                "combatSkillType": "RangedAttack",
                "castCondition": {
                    "pose": [
                        101
                    ],
                    "pickRangeMax": 40.0
                },
                "cdUpperRange": 1.0,
                "publicCDGroup": "",
                "CLEPNIDJOLN": "",
                "stateIDs": [
                    "Attack02_AS_HitScence",
                    "Attack02_Run_Extra",
                    "Attack02_Loop_Extra",
                    "Attack02_BS",
                    "Attack02_Turn_L",
                    "Attack02_Turn_R",
                    "Attack02_Run",
                    "Attack02_Loop",
                    "Attack02_AS",
                    "Attack02_Turn_L_HitScence",
                    "Attack02_Turn_R_HitScence"
                ],
                "flagTargetReachable": "11",
                "flagSelfOnTemplateCollider": "11",
                "flagSelfInZone": "11",
                "flagTargetInZone": "11"
            }
        },
        "skillGCD": 0.5,
        "combatFixedMoveTactic": [
            {
                "$type": "EAOLOHCNMHK",
                "enable": true,
                "EGJMGEHLDOL": {
                    "pose": [
                        102
                    ]
                },
                "NGIEOIGFFDH": {
                    "MONCHHKIDKL": 1.0,
                    "cd": 0.0,
                    "DMFHKPCCMAN": 100.0,
                    "HAGANIFJPCF": 30.0,
                    "IAIJKIPIPND": 50.0,
                    "FCFLCFFJKLO": ""
                }
            },
            {
                "$type": "HLPBLIEBJLM",
                "enable": true,
                "EGJMGEHLDOL": {
                    "pose": [
                        101
                    ]
                },
                "NGIEOIGFFDH": {
                    "GPKNKJPPCOM": 25.0,
                    "NDCHJGOOLCF": 50.0,
                    "FDNLEPNLLBP": 12.0,
                    "DANCMNIMNAM": 10.0,
                    "FCFLCFFJKLO": ""
                }
            },
            {
                "$type": "GJGILIGEJMO",
                "enable": true,
                "NGIEOIGFFDH": {
                    "MONCHHKIDKL": 0.800000011920929,
                    "FCFLCFFJKLO": "",
                    "BKCOJDIDEGN": ""
                }
            },
            {
                "$type": "IKIHDEMELGB",
                "enable": true,
                "EGJMGEHLDOL": {
                    "pose": [
                        1
                    ]
                },
                "NGIEOIGFFDH": {
                    "MONCHHKIDKL": 0.20000000298023224,
                    "HOKGJAONGHG": 12.0,
                    "GJOBDMEBGLM": 8.0,
                    "KDLAOJIPGHP": 30.0,
                    "OEFFOIEOJNC": 8.0,
                    "HAHMEDHEBKE": 12.0,
                    "FCFLCFFJKLO": ""
                }
            }
        ]
    },
    "inputKeys": [
        {
            "keyID": 601,
            "inputKeyCode": 257,
            "abilityName": ""
        },
        {
            "keyID": 611,
            "inputKeyCode": 258,
            "abilityName": ""
        },
        {
            "keyID": 621,
            "inputKeyCode": 259,
            "abilityName": ""
        }
    ],
    "move": {
        "$type": "JKDLANFKJIL",
        "BGKIHCPJBMO": {
            "excludeForces": [
                "RetreatAirType",
                "WindZoneType",
                "AirflowType"
            ]
        },
        "LPAKBBIADNC": "RootNode"
    },
    "audio": {
        "LKJIHNLBIJL": "",
        "animAudio": {
            "onTransitionIn": [
                {
                    "currentStateName": "",
                    "audioEvent": {
                        "text": ""
                    }
                }
            ],
            "onTransitionOut": [
                {
                    "currentStateName": "Personality1",
                    "audioEvent": {
                        "text": "Stop_sfx_monster_Megamoth_personality1_S"
                    }
                },
                {
                    "currentStateName": "Personality2",
                    "audioEvent": {
                        "text": "Stop_sfx_monster_Megamoth_personality2_S"
                    }
                },
                {
                    "currentStateName": "Personality3_BS",
                    "audioEvent": {
                        "text": "Stop_sfx_monster_Megamoth_personality3_BS_S"
                    }
                },
                {
                    "currentStateName": "Personality4_BS",
                    "audioEvent": {
                        "text": "Stop_sfx_monster_Megamoth_personality4_BS_S"
                    }
                },
                {
                    "currentStateName": "Personality4_Play",
                    "audioEvent": {
                        "text": "Stop_sfx_monster_Megamoth_personality4_Play_S"
                    }
                },
                {
                    "currentStateName": "Personality5",
                    "audioEvent": {
                        "text": "Stop_sfx_monster_Megamoth_personality4_Play_S"
                    }
                }
            ]
        }
    },
    "IJJEEMCKNBH": {
        "FJMBNMDBEHM": 1.0,
        "ECBKOGFBBBL": 0.5,
        "MNFPGPCGLHF": 4.5,
        "ONBEOCIFHDG": 2.0,
        "JMFHANEECKL": 6.0
    }
}