{
    "common": {
        "effectAttachShape": {
            "$type": "DPGKNHENGLM",
            "DDDEJPIFECG": "EffectMesh"
        },
        "mass": 100.0,
        "height": 1.399999976158142,
        "affectedByWorld": true,
        "checkInSurface": true,
        "canTriggerElementReactionText": false,
        "useGrassDisplacement": true,
        "BKPPECPBMBF": true,
        "LOGFKHMLOOL": true
    },
    "model": {
        "bornEffect": "",
        "attachEffect": "",
        "canBakeMesh": false
    },
    "dither": {
        "showDitherDuration": 2.0
    },
    "combat": {
        "property": {
            "endureType": "Monster_Minion",
            "weight": 40.0
        },
        "beHit": {
            "hitBloodEffect": "",
            "muteAllHitText": true
        },
        "combatLock": {
            "lockShape": "CircleLockEnemy",
            "lockType": "Animal_Lv2"
        },
        "die": {
            "fallWhenAirDie": false,
            "dieEndTime": 2.0,
            "dieForceDisappearTime": 10.0,
            "dieDisappearEffect": ""
        }
    },
    "abilities": [
        {
            "abilityID": "CommonInitial",
            "abilityName": "Animal_Common_Initial",
            "abilityOverride": ""
        },
        {
            "abilityID": "Random",
            "abilityName": "Animal_Bird_Small_Random",
            "abilityOverride": ""
        },
        {
            "abilityID": "FlyDown",
            "abilityName": "Animal_Bird_Small_FlyDown",
            "abilityOverride": ""
        },
        {
            "abilityID": "FlyUp",
            "abilityName": "Animal_Bird_Small_FlyUp",
            "abilityOverride": ""
        },
        {
            "abilityID": "ToWander",
            "abilityName": "Animal_Bird_Small_ToWander",
            "abilityOverride": ""
        },
        {
            "abilityID": "ToIdle",
            "abilityName": "Animal_Bird_Small_ToIdle",
            "abilityOverride": ""
        },
        {
            "abilityID": "Disappear",
            "abilityName": "Animal_Bird_Small_Disappear",
            "abilityOverride": ""
        },
        {
            "abilityID": "Bird_Feather",
            "abilityName": "Animal_Bird_Small_FlyEffect",
            "abilityOverride": ""
        }
    ],
    "stateLayers": {
        "defaultLayer": {
            "$type": "EPAPJJAGHKG",
            "ACOCIAFGIAD": "",
            "stateIDs": {
                "Born": {
                    "$type": "IJOIMFMEGMM",
                    "DLOHGBDFFGB": {
                        "Born": [
                            "Audio_Animal_Swan_OnWater_WingFlap"
                        ]
                    },
                    "DLAOMOCMANL": [
                        "DoSkill"
                    ]
                },
                "NormalIdle": {
                    "$type": "IJOIMFMEGMM",
                    "DLOHGBDFFGB": {
                        "Standby": [],
                        "Standby_Aware": []
                    },
                    "POLKCLOHPOO": true,
                    "PGKCBIHGAOC": true,
                    "DLAOMOCMANL": [
                        "DoSkill"
                    ]
                },
                "NormalMove": {
                    "$type": "IJOIMFMEGMM",
                    "DLOHGBDFFGB": {
                        "Walk": [
                            "Audio_Animal_Swan_Land_Walk"
                        ]
                    },
                    "POLKCLOHPOO": true,
                    "PGKCBIHGAOC": true,
                    "DLAOMOCMANL": [
                        "DoSkill"
                    ],
                    "LIPMJPLGIKD": true
                },
                "FlyDown": {
                    "$type": "IJOIMFMEGMM",
                    "DLOHGBDFFGB": {
                        "FlyDown": [
                            "Audio_Animal_Swan_OnWater_WingFlap"
                        ],
                        "Land": [
                            "Audio_Animal_Swan_OnWater_WingFlap"
                        ],
                        "LandToGround": [
                            "Animal_Bird_Small_LandToGround",
                            "Audio_Animal_Swan_Land_LandToGround"
                        ]
                    },
                    "PGKCBIHGAOC": true,
                    "AJBLILDCLBO": [
                        "HitAir2HitDrop"
                    ],
                    "DLAOMOCMANL": [
                        "DoSkill"
                    ],
                    "LIPMJPLGIKD": true
                },
                "FlyUp": {
                    "$type": "IJOIMFMEGMM",
                    "DLOHGBDFFGB": {
                        "TakeOff": [
                            "Animal_Bird_Medium_TakeOff_Land",
                            "Audio_Animal_Swan_Land_TakeOff"
                        ],
                        "FlyUp": [
                            "Audio_Animal_Swan_OnWater_WingFlap"
                        ],
                        "Disappear": [
                            "Audio_Animal_Swan_OnWater_WingFlap"
                        ]
                    },
                    "PGKCBIHGAOC": true,
                    "DLAOMOCMANL": [
                        "DoSkill"
                    ],
                    "LIPMJPLGIKD": true
                },
                "BeHit": {
                    "$type": "IJOIMFMEGMM",
                    "DLOHGBDFFGB": {
                        "Hit_L": []
                    },
                    "AJBLILDCLBO": [
                        "BeHit"
                    ],
                    "DLAOMOCMANL": [
                        "DoSkill"
                    ]
                },
                "Die": {
                    "$type": "IJOIMFMEGMM",
                    "DLOHGBDFFGB": {
                        "Die": [
                            "Animal_Bird_Small_Die"
                        ],
                        "Die_Disappear": [
                            "Animal_Bird_Small_Disappear",
                            "Audio_Animal_Swan_OnWater_WingFlap"
                        ]
                    },
                    "AJBLILDCLBO": [
                        "DoSkill"
                    ]
                },
                "Aware": {
                    "$type": "IJOIMFMEGMM",
                    "DLOHGBDFFGB": {
                        "Aware": []
                    },
                    "POLKCLOHPOO": true,
                    "DLAOMOCMANL": [
                        "BeHit",
                        "DoSkill"
                    ]
                },
                "Alert": {
                    "$type": "IJOIMFMEGMM",
                    "DLOHGBDFFGB": {
                        "Alert": [],
                        "Alert_Scared": [
                            "Audio_Animal_Swan_Land_Alert_Scared"
                        ]
                    },
                    "POLKCLOHPOO": true,
                    "DLAOMOCMANL": [
                        "BeHit",
                        "DoSkill"
                    ]
                },
                "ToWander": {
                    "$type": "IJOIMFMEGMM",
                    "DLOHGBDFFGB": {
                        "ToWander": [
                            "Animal_Bird_Small_ToWander"
                        ]
                    },
                    "POLKCLOHPOO": true,
                    "DLAOMOCMANL": [
                        "BeHit",
                        "DoSkill"
                    ]
                },
                "ToIdle": {
                    "$type": "IJOIMFMEGMM",
                    "DLOHGBDFFGB": {
                        "ToIdle": [
                            "Animal_Bird_Small_ToIdle"
                        ]
                    },
                    "POLKCLOHPOO": true,
                    "DLAOMOCMANL": [
                        "BeHit",
                        "DoSkill"
                    ]
                },
                "Personality_100": {
                    "$type": "IJOIMFMEGMM",
                    "DLOHGBDFFGB": {
                        "Personality_100": []
                    },
                    "POLKCLOHPOO": true,
                    "DLAOMOCMANL": [
                        "BeHit",
                        "DoSkill"
                    ]
                },
                "Personality_101": {
                    "$type": "IJOIMFMEGMM",
                    "DLOHGBDFFGB": {
                        "Personality_101": []
                    },
                    "POLKCLOHPOO": true,
                    "DLAOMOCMANL": [
                        "BeHit",
                        "DoSkill"
                    ]
                },
                "Personality_102": {
                    "$type": "IJOIMFMEGMM",
                    "DLOHGBDFFGB": {
                        "Personality_102": [
                            "Audio_Animal_Swan_Land_Personality_102"
                        ]
                    },
                    "POLKCLOHPOO": true,
                    "DLAOMOCMANL": [
                        "BeHit",
                        "DoSkill"
                    ]
                }
            }
        }
    },
    "initialPoses": {
        "Default": {},
        "FlyDown": {
            "initialPoseID": 901,
            "initialPoseParams": {
                "boolParams": {
                    "FlyState": "true"
                }
            }
        },
        "Idle": {
            "initialPoseID": 2,
            "initialPoseParams": {
                "boolParams": {
                    "FlyState": "false",
                    "WanderState": "false"
                }
            }
        }
    },
    "aibeta": {
        "enable": true,
        "friendliness": 1,
        "moveSetting": {
            "useNavMesh": false,
            "navMeshAgentName": "Undead01",
            "KLKEJKLOGGA": true
        },
        "sensing": {
            "settings": {
                "DefaultSetting": {
                    "enableVision": false
                },
                "SuperHighSensing": {
                    "enableVision": false,
                    "feelRange": 20.0
                },
                "HighSensing": {
                    "enableVision": false,
                    "feelRange": 10.0
                },
                "NoSensing": {
                    "enableVision": false,
                    "feelRange": 0.0
                }
            },
            "templates": {
                "DefaultTemplate": {
                    "DefaultPoses": "DefaultSetting"
                },
                "NoSensing": {
                    "DefaultPoses": "NoSensing"
                },
                "HighSensing": {
                    "DefaultPoses": "HighSensing"
                },
                "SuperHighSensing": {
                    "DefaultPoses": "SuperHighSensing"
                }
            }
        },
        "neurons": {
            "DefaultSetting": [
                "HIT",
                "WEATHER_BAD",
                "FEAR"
            ],
            "NoWeatherBad": [
                "HIT"
            ]
        },
        "threat": {
            "viewThreatGrow": 75.0,
            "feelThreatGrow": 1000.0,
            "viewAttenuation": [
                {
                    "x": 10.0,
                    "y": 1.0
                },
                {
                    "x": 20.0,
                    "y": 0.10000000149011612
                }
            ],
            "JGFOPCOIJOI": ""
        },
        "defendArea": {
            "defendRange": 100.0
        },
        "fly": {
            "enable": true,
            "floatingPoses": [
                900,
                901,
                905
            ]
        },
        "ui": {
            "hasDirectionIndicator": false,
            "FLMOHOODJBA": ""
        },
        "profiling": {
            "lodStrategy": "MinorAnimal"
        },
        "skills": {
            "2": {
                "name": "OnAlert",
                "skillType": "OnAlert",
                "publicCDGroup": "",
                "triggerGCD": false,
                "HGAMDGAEIGO": "",
                "stateIDs": [
                    "Alert_Scared"
                ],
                "skillQueryingTime": 3.0,
                "flagTargetReachable": "10",
                "flagSelfOnTemplateCollider": "01",
                "flagSelfInZone": "10",
                "flagTargetInZone": "11"
            },
            "100": {
                "name": "Personality_100",
                "skillType": "Free",
                "priority": 6,
                "castCondition": {
                    "pose": [
                        2
                    ],
                    "needReInitCD": true
                },
                "cd": 5.0,
                "cdUpperRange": 5.0,
                "initialCD": 2.5,
                "initialCDUpperRange": 5.0,
                "publicCDGroup": "",
                "HGAMDGAEIGO": "",
                "stateIDs": [
                    "Personality_100"
                ],
                "flagTargetReachable": "10",
                "flagSelfOnTemplateCollider": "01",
                "flagSelfInZone": "10",
                "flagTargetInZone": "11"
            },
            "101": {
                "name": "Personality_101",
                "skillType": "Free",
                "castCondition": {
                    "pose": [
                        2
                    ],
                    "needReInitCD": true
                },
                "cd": 15.0,
                "cdUpperRange": 25.0,
                "initialCD": 2.5,
                "initialCDUpperRange": 5.0,
                "publicCDGroup": "",
                "HGAMDGAEIGO": "",
                "stateIDs": [
                    "Personality_101"
                ],
                "flagTargetReachable": "10",
                "flagSelfOnTemplateCollider": "01",
                "flagSelfInZone": "10",
                "flagTargetInZone": "11"
            },
            "102": {
                "name": "Personality_102",
                "skillType": "Free",
                "castCondition": {
                    "pose": [
                        2
                    ],
                    "needReInitCD": true
                },
                "cd": 15.0,
                "cdUpperRange": 25.0,
                "initialCD": 2.5,
                "initialCDUpperRange": 5.0,
                "publicCDGroup": "",
                "HGAMDGAEIGO": "",
                "stateIDs": [
                    "Personality_102"
                ],
                "flagTargetReachable": "10",
                "flagSelfOnTemplateCollider": "01",
                "flagSelfInZone": "10",
                "flagTargetInZone": "11"
            },
            "201": {
                "name": "ToWander",
                "skillType": "Free",
                "priority": 1,
                "castCondition": {
                    "pose": [
                        2
                    ],
                    "needReInitCD": true
                },
                "cd": 7.5,
                "cdUpperRange": 7.5,
                "initialCD": 7.5,
                "initialCDUpperRange": 12.5,
                "publicCDGroup": "",
                "HGAMDGAEIGO": "",
                "stateIDs": [
                    "ToWander"
                ],
                "flagTargetReachable": "10",
                "flagSelfOnTemplateCollider": "01",
                "flagSelfInZone": "10",
                "flagTargetInZone": "11"
            },
            "202": {
                "name": "ToIdle",
                "skillType": "Free",
                "priority": 1,
                "castCondition": {
                    "pose": [
                        1
                    ],
                    "needReInitCD": true
                },
                "cd": 2.0,
                "cdUpperRange": 4.0,
                "initialCD": 2.0,
                "initialCDUpperRange": 4.0,
                "publicCDGroup": "",
                "HGAMDGAEIGO": "",
                "stateIDs": [
                    "ToIdle"
                ],
                "flagTargetReachable": "10",
                "flagSelfOnTemplateCollider": "01",
                "flagSelfInZone": "10",
                "flagTargetInZone": "11"
            }
        },
        "skillGCD": 2.0,
        "combatFixedMoveTactic": [
            {
                "$type": "PKJINFHNMGA",
                "enable": true,
                "FJANPNOAAFK": {
                    "pose": [
                        1,
                        2,
                        3,
                        903,
                        905
                    ]
                },
                "nerveTrigger": [
                    "HIT",
                    "WEATHER_BAD",
                    "FEAR"
                ],
                "LMMKNFEMOMG": {
                    "KOJABCDLFOP": 100.0,
                    "CLIHGAMNGJN": 20.0,
                    "GGPCLEBKNNO": "TakeOff",
                    "NJDEMECHOON": 0.550000011920929
                }
            },
            {
                "$type": "KABOKMNOKCB",
                "enable": true,
                "FJANPNOAAFK": {
                    "pose": [
                        901
                    ]
                },
                "LMMKNFEMOMG": {
                    "KIHPEPHJMOG": 2,
                    "KPBDJNIPFPP": 40.0,
                    "AFLKCLJPIEH": 40.0,
                    "KFOJKBALNIC": 4.75
                }
            },
            {
                "$type": "GGKADEIBMLG",
                "enable": true,
                "FJANPNOAAFK": {
                    "pose": [
                        1
                    ]
                },
                "LMMKNFEMOMG": {
                    "GEAICNICJAJ": 0.25,
                    "JIFJFPJANHO": 10.0,
                    "CBKHBGCPFBG": 5.0,
                    "EKDHNAGGGAE": 8.0,
                    "BFEJAKFKKFP": 3.0,
                    "KOAMKCEFJED": 5.0,
                    "JOCOJHEICNA": ""
                }
            }
        ]
    },
    "animal": {
        "tickAbilityElement": false,
        "hasCharacterRenderering": false
    },
    "captureGroup": {
        "defaultConfig": {
            "captureEffect": "Eff_SceneObj_CatchAnimal_CaughtSuccess"
        }
    }
}