{
    "common": {
        "effectAttachShape": {
            "$type": "DPGKNHENGLM",
            "DDDEJPIFECG": "EffectMesh"
        },
        "mass": 100000000.0,
        "viewSize": 2.0,
        "scale": 2.0,
        "disableTickDistance": 10000.0,
        "shouldPauseAnimatorBeforeReady": true,
        "clearAnimatorOnSetLightDeactive": true,
        "clearAIOnSetLightDeactive": true
    },
    "model": {
        "bornEffect": "",
        "attachEffect": "",
        "canBakeMesh": false
    },
    "combat": {
        "property": {
            "endureType": "Monster_Boss_Other",
            "weight": 150.0
        },
        "beHit": {
            "hitBloodEffect": "",
            "hitAutoRedirect": false,
            "ignoreMinHitVY": true
        },
        "combatLock": {
            "lockShape": "CircleLockEnemy",
            "lockType": "Avatar&Monster_Lv4"
        },
        "die": {
            "hasAnimatorDie": true,
            "dieEndTime": 5.0,
            "dieForceDisappearTime": 5.0,
            "dieDisappearEffect": "",
            "muteHitBox": true,
            "dieDenyLockOn": true,
            "dieIsGhostToEnemy": true,
            "dieIgnoreTriggerBullet": true,
            "muteBillboard": true,
            "mutePushCollider": true
        },
        "animEvents": {
            "TurnLeftAttack": {
                "attackPattern": {
                    "$type": "AGJFCPDIMCK",
                    "triggerType": "TriggerNoRepeat",
                    "born": {
                        "$type": "NKOODKOFELF",
                        "offset": {
                            "GNGDNIIPPNL": 0.0,
                            "GIIMFINHIED": -1.0,
                            "CLBCHJICOKH": 0.0
                        }
                    },
                    "height": 6.0,
                    "IAMPMDAOKJL": 270.0,
                    "LOACHGCADCO": 5.5
                },
                "attackInfo": {
                    "attackTag": "",
                    "attenuationTag": "",
                    "attenuationGroup": "default",
                    "attackProperty": {
                        "HOGNHNAHNML": 0.5550000071525574,
                        "BAPILBAGBOJ": 0.0,
                        "elementType": "Electric",
                        "bonusCriticalHurt": 50.0,
                        "strikeType": "Blunt",
                        "enBreak": 100.0,
                        "attackType": "Melee",
                        "damagePercentage": 0.0
                    },
                    "hitPattern": {
                        "onHitEffectName": "default",
                        "hitImpulseType": "LV4"
                    }
                }
            },
            "TurnRightAttack": {
                "attackPattern": {
                    "$type": "AGJFCPDIMCK",
                    "triggerType": "TriggerNoRepeat",
                    "born": {
                        "$type": "NKOODKOFELF",
                        "offset": {
                            "GNGDNIIPPNL": 0.0,
                            "GIIMFINHIED": -1.0,
                            "CLBCHJICOKH": 0.0
                        }
                    },
                    "height": 5.0,
                    "IAMPMDAOKJL": 270.0,
                    "LOACHGCADCO": 4.199999809265137
                },
                "attackInfo": {
                    "attackTag": "",
                    "attenuationTag": "",
                    "attenuationGroup": "default",
                    "attackProperty": {
                        "HOGNHNAHNML": 0.5550000071525574,
                        "BAPILBAGBOJ": 0.0,
                        "elementType": "Electric",
                        "bonusCriticalHurt": 50.0,
                        "strikeType": "Blunt",
                        "enBreak": 100.0,
                        "attackType": "Melee",
                        "damagePercentage": 0.0
                    },
                    "hitPattern": {
                        "onHitEffectName": "default",
                        "hitImpulseType": "LV4"
                    }
                }
            },
            "CounterAttack": {
                "attackPattern": {
                    "$type": "AGJFCPDIMCK",
                    "triggerType": "TriggerNoRepeat",
                    "born": {
                        "$type": "NKOODKOFELF"
                    },
                    "height": 5.0,
                    "LOACHGCADCO": 8.0
                },
                "attackInfo": {
                    "attackTag": "Raijin_Detect_Damage",
                    "attenuationTag": "",
                    "attenuationGroup": "default",
                    "attackProperty": {
                        "HOGNHNAHNML": 0.2770000100135803,
                        "BAPILBAGBOJ": 0.0,
                        "elementType": "Electric",
                        "bonusCriticalHurt": 50.0,
                        "strikeType": "Blunt",
                        "enBreak": 100.0,
                        "attackType": "Melee",
                        "damagePercentage": 0.0
                    },
                    "hitPattern": {
                        "onHitEffectName": "default",
                        "hitImpulseType": "LV5",
                        "canBeDefenceHalt": true
                    }
                }
            },
            "RushAtk": {
                "attackPattern": {
                    "$type": "HGDDHLFAONH",
                    "triggerType": "TriggerNoRepeat",
                    "born": {
                        "$type": "NKOODKOFELF",
                        "offset": {
                            "GNGDNIIPPNL": 0.0,
                            "GIIMFINHIED": -0.5,
                            "CLBCHJICOKH": 0.5
                        }
                    },
                    "musicSubStates": {
                        "GNGDNIIPPNL": 3.0,
                        "GIIMFINHIED": 5.0,
                        "CLBCHJICOKH": 6.0
                    }
                },
                "attackInfo": {
                    "attackTag": "",
                    "attenuationTag": "",
                    "attenuationGroup": "default",
                    "attackProperty": {
                        "HOGNHNAHNML": 0.6110000014305115,
                        "BAPILBAGBOJ": 0.0,
                        "elementType": "Water",
                        "bonusCriticalHurt": 50.0,
                        "strikeType": "Blunt",
                        "enBreak": 100.0,
                        "attackType": "Melee",
                        "damagePercentage": 0.0
                    },
                    "hitPattern": {
                        "onHitEffectName": "default",
                        "hitImpulseType": "LV4",
                        "canBeDefenceHalt": true
                    }
                }
            },
            "MustKillAOE": {
                "attackPattern": {
                    "$type": "AGJFCPDIMCK",
                    "triggerType": "TriggerNoRepeat",
                    "born": {
                        "$type": "NKOODKOFELF",
                        "offset": {
                            "GNGDNIIPPNL": 0.0,
                            "GIIMFINHIED": 0.0,
                            "CLBCHJICOKH": 0.0
                        }
                    },
                    "height": 3.5,
                    "LOACHGCADCO": 70.0
                },
                "attackInfo": {
                    "attackTag": "",
                    "attenuationTag": "",
                    "attenuationGroup": "default",
                    "attackProperty": {
                        "HOGNHNAHNML": 2.2219998836517334,
                        "BAPILBAGBOJ": 0.0,
                        "elementType": "Water",
                        "bonusCriticalHurt": 100.0,
                        "strikeType": "Blunt",
                        "enBreak": 101.0,
                        "attackType": "Melee",
                        "damagePercentage": 0.0
                    },
                    "hitPattern": {
                        "onHitEffectName": "default",
                        "hitImpulseType": "LV4",
                        "canBeDefenceHalt": true
                    }
                }
            }
        },
        "summon": {
            "summonTags": [
                {
                    "summonTag": 20050402,
                    "name": "Oceanid_Crab_02",
                    "maxNum": 12
                }
            ]
        }
    },
    "abilities": [
        {
            "abilityID": "",
            "abilityName": "Monster_Raijin_01_Steer",
            "abilityOverride": ""
        },
        {
            "abilityID": "",
            "abilityName": "Monster_Raijin_01_FlyBomb",
            "abilityOverride": ""
        },
        {
            "abilityID": "",
            "abilityName": "Monster_Raijin_FireThunderCrystal",
            "abilityOverride": ""
        },
        {
            "abilityID": "",
            "abilityName": "Monster_Raijin_FireSummonThunder",
            "abilityOverride": ""
        },
        {
            "abilityID": "",
            "abilityName": "Monster_Raijin_FireThunderSpear",
            "abilityOverride": ""
        },
        {
            "abilityID": "",
            "abilityName": "Monster_Raijin_FireThunderPunish_Warning",
            "abilityOverride": ""
        },
        {
            "abilityID": "",
            "abilityName": "Monster_Raijin_FireThunderPunish_Gadget",
            "abilityOverride": ""
        },
        {
            "abilityID": "",
            "abilityName": "Monster_Raijin_FireThunderNet_Born",
            "abilityOverride": ""
        },
        {
            "abilityID": "",
            "abilityName": "Monster_Raijin_01_Born",
            "abilityOverride": ""
        },
        {
            "abilityID": "",
            "abilityName": "Monster_Raijin_01_Improve",
            "abilityOverride": ""
        },
        {
            "abilityID": "",
            "abilityName": "Monster_Raijin_01_Disappear",
            "abilityOverride": ""
        },
        {
            "abilityID": "",
            "abilityName": "Monster_Raijin_01_MeleeAttack02",
            "abilityOverride": ""
        },
        {
            "abilityID": "",
            "abilityName": "Monster_Raijin_01_CounterAttack",
            "abilityOverride": ""
        },
        {
            "abilityID": "",
            "abilityName": "Monster_Raijin_Blink",
            "abilityOverride": ""
        },
        {
            "abilityID": "",
            "abilityName": "Monster_Raijin_Resistant",
            "abilityOverride": ""
        },
        {
            "abilityID": "",
            "abilityName": "Monster_Raijin_01_FireSoundWave",
            "abilityOverride": ""
        },
        {
            "abilityID": "",
            "abilityName": "Monster_Common_ElecMuteHurt",
            "abilityOverride": ""
        },
        {
            "abilityID": "",
            "abilityName": "Monster_TurnAttack_TurnDirection",
            "abilityOverride": ""
        }
    ],
    "stateLayers": {
        "defaultLayer": {
            "$type": "EPAPJJAGHKG",
            "ACOCIAFGIAD": "",
            "stateIDs": {
                "Born": {
                    "$type": "IJOIMFMEGMM",
                    "DLOHGBDFFGB": {
                        "Born": []
                    },
                    "POLKCLOHPOO": true,
                    "PGKCBIHGAOC": true,
                    "LAKHIBAPNAB": true,
                    "DLAOMOCMANL": [
                        "DoSkill"
                    ]
                },
                "NormalIdle": {
                    "$type": "IJOIMFMEGMM",
                    "DLOHGBDFFGB": {
                        "Standby": []
                    },
                    "POLKCLOHPOO": true,
                    "PGKCBIHGAOC": true,
                    "DLAOMOCMANL": [
                        "DoSkill"
                    ],
                    "LIPMJPLGIKD": true
                },
                "NormalMove": {
                    "$type": "IJOIMFMEGMM",
                    "DLOHGBDFFGB": {
                        "StandByToRun": [],
                        "Run": [],
                        "RunToStandBy": []
                    },
                    "POLKCLOHPOO": true,
                    "PGKCBIHGAOC": true,
                    "DLAOMOCMANL": [
                        "DoSkill"
                    ],
                    "LIPMJPLGIKD": true
                },
                "Disappear": {
                    "$type": "IJOIMFMEGMM",
                    "DLOHGBDFFGB": {
                        "Die": [
                            "Monster_Raijin_Die",
                            "Audio_Fairfolk_Raijin_Die"
                        ]
                    }
                },
                "OutOfBattle": {
                    "$type": "IJOIMFMEGMM",
                    "DLOHGBDFFGB": {
                        "OutOfBattle": [],
                        "OutOfBattle_AS": []
                    }
                },
                "Die_AS": {
                    "$type": "IJOIMFMEGMM",
                    "DLOHGBDFFGB": {
                        "Die_AS": []
                    }
                },
                "Alert": {
                    "$type": "IJOIMFMEGMM",
                    "DLOHGBDFFGB": {
                        "Alert": [],
                        "Alert_AS": [
                            "Audio_Fairfolk_Raijin_Alert_AS"
                        ]
                    },
                    "POLKCLOHPOO": true,
                    "LAKHIBAPNAB": true,
                    "DLAOMOCMANL": [
                        "BeHit",
                        "DoSkill"
                    ]
                },
                "ReturnToBorn": {
                    "$type": "IJOIMFMEGMM",
                    "DLOHGBDFFGB": {
                        "ReturnToBorn": []
                    },
                    "AJBLILDCLBO": [
                        "ReturnToBorn"
                    ]
                },
                "BlinkToBorn": {
                    "$type": "IJOIMFMEGMM",
                    "DLOHGBDFFGB": {
                        "BlinkToBorn": [
                            "Audio_Fairfolk_Raijin_BlinkForward"
                        ]
                    },
                    "AJBLILDCLBO": [
                        "DoSkill"
                    ],
                    "DLAOMOCMANL": [
                        "BeHit",
                        "DoSkill"
                    ]
                },
                "BlinkForward": {
                    "$type": "IJOIMFMEGMM",
                    "DLOHGBDFFGB": {
                        "BlinkForward": [
                            "Audio_Fairfolk_Raijin_BlinkForward"
                        ]
                    },
                    "AJBLILDCLBO": [
                        "DoSkill"
                    ],
                    "DLAOMOCMANL": [
                        "BeHit",
                        "DoSkill"
                    ]
                },
                "BlinkBack": {
                    "$type": "IJOIMFMEGMM",
                    "DLOHGBDFFGB": {
                        "BlinkBack": [
                            "Audio_Fairfolk_Raijin_BlinkBack"
                        ]
                    },
                    "AJBLILDCLBO": [
                        "DoSkill"
                    ],
                    "DLAOMOCMANL": [
                        "BeHit",
                        "DoSkill"
                    ]
                },
                "BlinkLeft": {
                    "$type": "IJOIMFMEGMM",
                    "DLOHGBDFFGB": {
                        "BlinkLeft": [
                            "Audio_Fairfolk_Raijin_Blink"
                        ]
                    },
                    "AJBLILDCLBO": [
                        "DoSkill"
                    ],
                    "DLAOMOCMANL": [
                        "BeHit",
                        "DoSkill"
                    ]
                },
                "BlinkRight": {
                    "$type": "IJOIMFMEGMM",
                    "DLOHGBDFFGB": {
                        "BlinkRight": [
                            "Audio_Fairfolk_Raijin_Blink"
                        ]
                    },
                    "AJBLILDCLBO": [
                        "DoSkill"
                    ],
                    "DLAOMOCMANL": [
                        "BeHit",
                        "DoSkill"
                    ]
                },
                "TurnLeftPunch": {
                    "$type": "IJOIMFMEGMM",
                    "DLOHGBDFFGB": {
                        "TurnLeftPunch": [
                            "Monster_Raijin_TurnLeftAttack",
                            "Audio_Fairfolk_Raijin_TurnPunch"
                        ]
                    },
                    "AJBLILDCLBO": [
                        "DoSkill"
                    ],
                    "DLAOMOCMANL": [
                        "BeHit",
                        "DoSkill"
                    ],
                    "LIPMJPLGIKD": true,
                    "ODINBNMGLGA": true
                },
                "TurnRightPunch": {
                    "$type": "IJOIMFMEGMM",
                    "DLOHGBDFFGB": {
                        "TurnRightPunch": [
                            "Monster_Raijin_TurnRightAttack",
                            "Audio_Fairfolk_Raijin_TurnPunch"
                        ]
                    },
                    "AJBLILDCLBO": [
                        "DoSkill"
                    ],
                    "DLAOMOCMANL": [
                        "BeHit",
                        "DoSkill"
                    ],
                    "LIPMJPLGIKD": true,
                    "ODINBNMGLGA": true
                },
                "CounterAttack": {
                    "$type": "IJOIMFMEGMM",
                    "DLOHGBDFFGB": {
                        "CounterAttack": [
                            "Monster_Raijin_CounterAttack",
                            "Audio_Fairfolk_Raijin_CounterAtk"
                        ]
                    },
                    "AJBLILDCLBO": [
                        "DoSkill"
                    ],
                    "DLAOMOCMANL": [
                        "BeHit",
                        "DoSkill"
                    ],
                    "LIPMJPLGIKD": true
                },
                "CounterAttack_HalfHp": {
                    "$type": "IJOIMFMEGMM",
                    "DLOHGBDFFGB": {
                        "CounterAttack_HalfHp": [
                            "Monster_Raijin_CounterAttack_HalfHp",
                            "Audio_Fairfolk_Raijin_CounterAtk"
                        ]
                    },
                    "AJBLILDCLBO": [
                        "DoSkill"
                    ],
                    "DLAOMOCMANL": [
                        "BeHit",
                        "DoSkill"
                    ],
                    "LIPMJPLGIKD": true
                },
                "MeleeAttack2_BS": {
                    "$type": "IJOIMFMEGMM",
                    "DLOHGBDFFGB": {
                        "MeleeAttack2_BS": [
                            "Monster_Raijin_MeleeAttack_02_BS",
                            "Audio_Fairfolk_Raijin_MeleeAtk_BS"
                        ]
                    },
                    "AJBLILDCLBO": [
                        "DoSkill"
                    ],
                    "DLAOMOCMANL": [
                        "BeHit",
                        "DoSkill"
                    ],
                    "LIPMJPLGIKD": true
                },
                "MeleeAttack2_Loop": {
                    "$type": "IJOIMFMEGMM",
                    "DLOHGBDFFGB": {
                        "MeleeAttack2_Loop": []
                    },
                    "AJBLILDCLBO": [
                        "DoSkill"
                    ],
                    "DLAOMOCMANL": [
                        "BeHit",
                        "DoSkill"
                    ],
                    "CFGFMHDOEBF": true,
                    "LIPMJPLGIKD": true
                },
                "MeleeAttack2_OnceLoop": {
                    "$type": "IJOIMFMEGMM",
                    "DLOHGBDFFGB": {
                        "MeleeAttack2_OnceLoop": []
                    },
                    "AJBLILDCLBO": [
                        "DoSkill"
                    ],
                    "DLAOMOCMANL": [
                        "BeHit",
                        "DoSkill"
                    ],
                    "LIPMJPLGIKD": true
                },
                "MeleeAttack2_AS": {
                    "$type": "IJOIMFMEGMM",
                    "DLOHGBDFFGB": {
                        "MeleeAttack2_AS": [
                            "Monster_Raijin_MeleeAttack_02_AS",
                            "Audio_Fairfolk_Raijin_MeleeAtk_AS"
                        ]
                    },
                    "AJBLILDCLBO": [
                        "DoSkill"
                    ],
                    "DLAOMOCMANL": [
                        "BeHit",
                        "DoSkill"
                    ],
                    "LIPMJPLGIKD": true
                },
                "SummonThunder_BS": {
                    "$type": "IJOIMFMEGMM",
                    "DLOHGBDFFGB": {
                        "SummonThunder_BS": [
                            "Monster_Raijin_FireSummonThunder_BS",
                            "Audio_Fairfolk_Raijin_SummonThunder_BS"
                        ]
                    },
                    "AJBLILDCLBO": [
                        "DoSkill"
                    ],
                    "DLAOMOCMANL": [
                        "BeHit",
                        "DoSkill"
                    ],
                    "LIPMJPLGIKD": true
                },
                "SummonThunder_Loop": {
                    "$type": "IJOIMFMEGMM",
                    "DLOHGBDFFGB": {
                        "SummonThunder_Loop": []
                    },
                    "AJBLILDCLBO": [
                        "DoSkill"
                    ],
                    "DLAOMOCMANL": [
                        "BeHit",
                        "DoSkill"
                    ],
                    "LIPMJPLGIKD": true
                },
                "SummonThunder_AS": {
                    "$type": "IJOIMFMEGMM",
                    "DLOHGBDFFGB": {
                        "SummonThunder_AS": [
                            "Audio_Fairfolk_Raijin_SummonThunder_AS"
                        ]
                    },
                    "AJBLILDCLBO": [
                        "DoSkill"
                    ],
                    "DLAOMOCMANL": [
                        "BeHit",
                        "DoSkill"
                    ],
                    "LIPMJPLGIKD": true
                },
                "SummonThunder_NoTarget_BS": {
                    "$type": "IJOIMFMEGMM",
                    "DLOHGBDFFGB": {
                        "SummonThunder_NoTarget_BS": [
                            "Monster_Raijin_FireSummonThunder_BS",
                            "Audio_Fairfolk_Raijin_SummonThunder_BS"
                        ]
                    },
                    "AJBLILDCLBO": [
                        "DoSkill"
                    ],
                    "DLAOMOCMANL": [
                        "BeHit",
                        "DoSkill"
                    ],
                    "LIPMJPLGIKD": true
                },
                "SummonThunder_NoTarget_Loop": {
                    "$type": "IJOIMFMEGMM",
                    "DLOHGBDFFGB": {
                        "SummonThunder_NoTarget_Loop": []
                    },
                    "AJBLILDCLBO": [
                        "DoSkill"
                    ],
                    "DLAOMOCMANL": [
                        "BeHit",
                        "DoSkill"
                    ],
                    "LIPMJPLGIKD": true
                },
                "SummonThunder_NoTarget_AS": {
                    "$type": "IJOIMFMEGMM",
                    "DLOHGBDFFGB": {
                        "SummonThunder_NoTarget_AS": [
                            "Audio_Fairfolk_Raijin_SummonThunder_AS"
                        ]
                    },
                    "AJBLILDCLBO": [
                        "DoSkill"
                    ],
                    "DLAOMOCMANL": [
                        "BeHit",
                        "DoSkill"
                    ],
                    "LIPMJPLGIKD": true
                },
                "ThunderCrystal": {
                    "$type": "IJOIMFMEGMM",
                    "DLOHGBDFFGB": {
                        "ThunderCrystal": [
                            "Monster_Raijin_FireThunderCrystal",
                            "Audio_Fairfolk_Raijin_ThunderCrystal"
                        ]
                    },
                    "AJBLILDCLBO": [
                        "DoSkill"
                    ],
                    "DLAOMOCMANL": [
                        "BeHit",
                        "DoSkill"
                    ],
                    "LIPMJPLGIKD": true
                },
                "SoundWave_BS": {
                    "$type": "IJOIMFMEGMM",
                    "DLOHGBDFFGB": {
                        "SoundWave_BS": [
                            "Audio_Fairfolk_Raijin_SoundWave_BS"
                        ]
                    },
                    "AJBLILDCLBO": [
                        "DoSkill"
                    ],
                    "DLAOMOCMANL": [
                        "BeHit",
                        "DoSkill"
                    ],
                    "LIPMJPLGIKD": true
                },
                "SoundWave_Loop": {
                    "$type": "IJOIMFMEGMM",
                    "DLOHGBDFFGB": {
                        "SoundWave_Loop": []
                    },
                    "AJBLILDCLBO": [
                        "DoSkill"
                    ],
                    "DLAOMOCMANL": [
                        "BeHit",
                        "DoSkill"
                    ],
                    "LIPMJPLGIKD": true
                },
                "SoundWave_AS": {
                    "$type": "IJOIMFMEGMM",
                    "DLOHGBDFFGB": {
                        "SoundWave_AS": [
                            "Monster_Raijin_SoundWaveExplode",
                            "Audio_Fairfolk_Raijin_SoundWave_AS"
                        ]
                    },
                    "AJBLILDCLBO": [
                        "DoSkill"
                    ],
                    "DLAOMOCMANL": [
                        "BeHit",
                        "DoSkill"
                    ],
                    "LIPMJPLGIKD": true
                },
                "ThunderSpear": {
                    "$type": "IJOIMFMEGMM",
                    "DLOHGBDFFGB": {
                        "ThunderSpear": [
                            "Monster_Raijin_FireThunderSpear",
                            "Audio_Fairfolk_Raijin_ThunderSpear"
                        ]
                    },
                    "AJBLILDCLBO": [
                        "DoSkill"
                    ],
                    "DLAOMOCMANL": [
                        "BeHit",
                        "DoSkill"
                    ],
                    "LIPMJPLGIKD": true
                },
                "ThunderPunish": {
                    "$type": "IJOIMFMEGMM",
                    "DLOHGBDFFGB": {
                        "ThunderPunish": [
                            "Monster_Raijin_FireThunderPunish_Warning",
                            "Audio_Fairfolk_Raijin_ThunderPunish"
                        ]
                    },
                    "AJBLILDCLBO": [
                        "DoSkill"
                    ],
                    "DLAOMOCMANL": [
                        "BeHit",
                        "DoSkill"
                    ],
                    "LIPMJPLGIKD": true
                },
                "ThunderNet": {
                    "$type": "IJOIMFMEGMM",
                    "DLOHGBDFFGB": {
                        "ThunderNet": [
                            "Monster_Raijin_FireThunderNet_Born",
                            "Audio_Fairfolk_Raijin_ThunderNet"
                        ]
                    },
                    "AJBLILDCLBO": [
                        "DoSkill"
                    ],
                    "DLAOMOCMANL": [
                        "BeHit",
                        "DoSkill"
                    ],
                    "LIPMJPLGIKD": true
                },
                "FlyBomb_Prepare": {
                    "$type": "IJOIMFMEGMM",
                    "DLOHGBDFFGB": {
                        "FlyBomb_Prepare": [
                            "Audio_Fairfolk_Raijin_FlyBomb_Prepare"
                        ]
                    },
                    "AJBLILDCLBO": [
                        "DoSkill"
                    ],
                    "DLAOMOCMANL": [
                        "BeHit",
                        "DoSkill"
                    ],
                    "LIPMJPLGIKD": true
                },
                "FlyBomb_BS": {
                    "$type": "IJOIMFMEGMM",
                    "DLOHGBDFFGB": {
                        "FlyBomb_BS": [
                            "Audio_Fairfolk_Raijin_FlyBomb_BS"
                        ]
                    },
                    "AJBLILDCLBO": [
                        "DoSkill"
                    ],
                    "DLAOMOCMANL": [
                        "BeHit",
                        "DoSkill"
                    ],
                    "LIPMJPLGIKD": true
                },
                "FlyBomb_Loop": {
                    "$type": "IJOIMFMEGMM",
                    "DLOHGBDFFGB": {
                        "FlyBomb_Loop": []
                    },
                    "AJBLILDCLBO": [
                        "DoSkill"
                    ],
                    "DLAOMOCMANL": [
                        "BeHit",
                        "DoSkill"
                    ],
                    "CFGFMHDOEBF": true,
                    "LIPMJPLGIKD": true
                },
                "FlyBomb_AS": {
                    "$type": "IJOIMFMEGMM",
                    "DLOHGBDFFGB": {
                        "FlyBomb_AS": [
                            "Audio_Fairfolk_Raijin_FlyBomb_AS"
                        ]
                    },
                    "AJBLILDCLBO": [
                        "DoSkill"
                    ],
                    "DLAOMOCMANL": [
                        "BeHit",
                        "DoSkill"
                    ],
                    "LIPMJPLGIKD": true
                },
                "FlyBomb_Over": {
                    "$type": "IJOIMFMEGMM",
                    "DLOHGBDFFGB": {
                        "FlyBomb_Over": [
                            "Audio_Fairfolk_Raijin_FlyBomb_Over"
                        ]
                    },
                    "AJBLILDCLBO": [
                        "DoSkill"
                    ],
                    "DLAOMOCMANL": [
                        "BeHit",
                        "DoSkill"
                    ],
                    "LIPMJPLGIKD": true
                },
                "StandByOnGround_Random": {
                    "$type": "IJOIMFMEGMM",
                    "DLOHGBDFFGB": {
                        "StandByOnGround_Random": [
                            "Audio_Fairfolk_Raijin_StandByOnGround_Random"
                        ]
                    },
                    "LAKHIBAPNAB": true,
                    "AJBLILDCLBO": [
                        "DoSkill"
                    ],
                    "DLAOMOCMANL": [
                        "BeHit",
                        "DoSkill"
                    ],
                    "HMPOMAMKBEF": true
                },
                "Improve": {
                    "$type": "IJOIMFMEGMM",
                    "DLOHGBDFFGB": {
                        "Improve": [
                            "Monster_Raijin_Improve",
                            "Audio_Fairfolk_Raijin_improve"
                        ]
                    },
                    "AJBLILDCLBO": [
                        "DoSkill"
                    ],
                    "DLAOMOCMANL": [
                        "BeHit",
                        "DoSkill"
                    ],
                    "LIPMJPLGIKD": true
                }
            }
        }
    },
    "partControl": {
        "parts": [
            {
                "$type": "CPNBDNFHDHF",
                "angularSpeed": 250.0,
                "FKKOFBENLDH": "LaserPoint",
                "PCDAJCPIMMC": "RotateToForward",
                "HJECIEPIAGL": "",
                "ILHJAKDAGEM": 360.0,
                "HIIKALDNNJI": 360.0
            }
        ]
    },
    "billboard": {
        "$type": "PAOBAEKGGBC",
        "attachPoint": "BillboardAttach",
        "EMFFJPOKEKF": "Character",
        "LOMMBJLKPHE": 0.25,
        "KGHAGECNJPO": true,
        "JLCJBGKPEEC": 50.0
    },
    "initialPoses": {
        "Default": {}
    },
    "aibeta": {
        "enable": true,
        "moveSetting": {
            "moveCategory": "Amphibious",
            "useNavMesh": false,
            "navMeshAgentName": "Undead01"
        },
        "sensing": {
            "settings": {
                "DefaultSetting": {
                    "viewRange": 10.0,
                    "feelRange": 10.0
                }
            }
        },
        "threat": {
            "clearThreatTargetDistance": 70.0,
            "clearThreatByTargetOutOfZone": true,
            "threatDecreaseSpeed": 100.0,
            "resistTauntLevel": "Monster_TauntLevel_MAX",
            "OHFIEECNCHI": true,
            "JGFOPCOIJOI": "",
            "auxScoreChangeTargetCD": 2.0,
            "abilityGlobalValueScoreSystem": {
                "weight": 70,
                "max": 1.0,
                "ECKAPCALPJJ": "Greater",
                "enable": true,
                "CCMKKIKIMGI": "_RAIJIN_ATTACK_TARGET"
            },
            "targetDistanceScoreSystem": {
                "weight": 30,
                "value": 15.0,
                "max": 30.0,
                "enable": true
            }
        },
        "defendArea": {
            "defendRange": 45.0
        },
        "profiling": {
            "lodStrategy": "Best",
            "staticPoses": [
                0,
                1
            ]
        },
        "network": {
            "syncSkill": true
        },
        "skillGroupCDConfigs": [
            {
                "skillGroupCDID": 0,
                "skillGroupCDTime": 3.0
            },
            {
                "skillGroupCDID": 1,
                "skillGroupCDTime": 15.0
            },
            {
                "skillGroupCDID": 2,
                "skillGroupCDTime": 35.0
            },
            {
                "skillGroupCDID": 3,
                "skillGroupCDTime": 90.0
            },
            {
                "skillGroupCDID": 4,
                "skillGroupCDTime": 15.0
            },
            {
                "skillGroupCDID": 5,
                "skillGroupCDTime": 12.5
            }
        ],
        "skillSetting": {
            "skillEliteSet": {
                "1": [
                    201,
                    301,
                    302,
                    401,
                    501,
                    502,
                    601,
                    701,
                    801,
                    901,
                    1001,
                    1002
                ],
                "2": [
                    8,
                    303,
                    304,
                    402,
                    503,
                    504,
                    602,
                    702,
                    802,
                    902,
                    903,
                    1002,
                    1003,
                    1004
                ]
            }
        },
        "skills": {
            "1": {
                "name": "OnAlert",
                "skillType": "OnAlert",
                "publicCDGroup": "",
                "ignoreGCD": true,
                "triggerGCD": false,
                "HGAMDGAEIGO": "",
                "stateIDs": [
                    "Alert"
                ],
                "skillQueryingTime": 5.0,
                "flagTargetReachable": "10",
                "flagSelfOnTemplateCollider": "01",
                "flagSelfInZone": "10",
                "flagTargetInZone": "11"
            },
            "3": {
                "name": "BlinkForwardBack",
                "priority": 3,
                "castCondition": {
                    "pose": [
                        201
                    ],
                    "pickRangeMax": 60.0,
                    "SkillAnchorRangeMin": 20.0
                },
                "cdUpperRange": 5.0,
                "initialCD": 10.0,
                "publicCDGroup": "",
                "ignoreGCD": true,
                "triggerGCD": false,
                "skillGroupCDID": 1,
                "HGAMDGAEIGO": "",
                "stateIDs": [
                    "BlinkForward",
                    "BlinkBack"
                ],
                "flagTargetReachable": "10",
                "flagSelfOnTemplateCollider": "01",
                "flagSelfInZone": "10",
                "flagTargetInZone": "11"
            },
            "4": {
                "name": "BlinkForward",
                "castCondition": {
                    "pose": [
                        201
                    ],
                    "pickRangeMin": 20.0,
                    "pickRangeMax": 60.0
                },
                "cd": 5.0,
                "cdUpperRange": 5.0,
                "publicCDGroup": "",
                "ignoreGCD": true,
                "triggerGCD": false,
                "skillGroupCDID": 1,
                "HGAMDGAEIGO": "",
                "stateIDs": [
                    "BlinkForward"
                ],
                "flagTargetReachable": "10",
                "flagSelfOnTemplateCollider": "01",
                "flagSelfInZone": "10",
                "flagTargetInZone": "11"
            },
            "5": {
                "name": "BlinkLeftRight",
                "priority": 3,
                "castCondition": {
                    "pose": [
                        201
                    ],
                    "pickRangeMax": 5.0,
                    "SkillAnchorRangeMax": 15.0
                },
                "cdUpperRange": 5.0,
                "initialCD": 1.0,
                "publicCDGroup": "",
                "ignoreGCD": true,
                "triggerGCD": false,
                "skillGroupCDID": 1,
                "HGAMDGAEIGO": "",
                "stateIDs": [
                    "BlinkLeft",
                    "BlinkRight"
                ],
                "flagTargetReachable": "10",
                "flagSelfOnTemplateCollider": "01",
                "flagSelfInZone": "10",
                "flagTargetInZone": "11"
            },
            "6": {
                "name": "BlinkRight",
                "priority": 4,
                "castCondition": {
                    "pose": [
                        301
                    ],
                    "pickRangeMax": 15.0
                },
                "cdUpperRange": 5.0,
                "initialCD": 10.0,
                "publicCDGroup": "",
                "ignoreGCD": true,
                "triggerGCD": false,
                "skillGroupCDID": 1,
                "HGAMDGAEIGO": "",
                "stateIDs": [
                    "BlinkRight"
                ],
                "flagTargetReachable": "10",
                "flagSelfOnTemplateCollider": "01",
                "flagSelfInZone": "10",
                "flagTargetInZone": "11"
            },
            "7": {
                "name": "BlinkToBorn",
                "priority": 2,
                "castCondition": {
                    "pose": [
                        101,
                        201
                    ],
                    "pickRangeMax": 60.0,
                    "SkillAnchorRangeMin": 15.0
                },
                "cd": 5.0,
                "cdUpperRange": 5.0,
                "publicCDGroup": "",
                "ignoreGCD": true,
                "triggerGCD": false,
                "skillGroupCDID": 1,
                "HGAMDGAEIGO": "",
                "stateIDs": [
                    "BlinkToBorn"
                ],
                "flagTargetReachable": "11",
                "flagSelfOnTemplateCollider": "01",
                "flagSelfInZone": "11",
                "flagTargetInZone": "11"
            },
            "8": {
                "name": "BlinkToBorn",
                "priority": 1,
                "castCondition": {
                    "pose": [
                        101,
                        201
                    ]
                },
                "cd": 9999.0,
                "initialCD": 9999.0,
                "publicCDGroup": "",
                "ignoreGCD": true,
                "triggerGCD": false,
                "triggerCDOnFail": false,
                "HGAMDGAEIGO": "",
                "stateIDs": [
                    "BlinkToBorn"
                ],
                "flagTargetReachable": "11",
                "flagSelfOnTemplateCollider": "11",
                "flagSelfInZone": "11",
                "flagTargetInZone": "11"
            },
            "101": {
                "name": "TurnAttack",
                "priority": 3,
                "castCondition": {
                    "pose": [
                        201
                    ],
                    "minTargetAngleXZ": 90.0,
                    "maxTargetAngleY": 30.0,
                    "pickRangeMax": 5.0
                },
                "cd": 5.0,
                "publicCDGroup": "",
                "HGAMDGAEIGO": "",
                "stateIDs": [
                    "TurnLeftPunch",
                    "TurnRightPunch"
                ],
                "flagTargetReachable": "10",
                "flagSelfOnTemplateCollider": "01",
                "flagSelfInZone": "10",
                "flagTargetInZone": "11"
            },
            "201": {
                "name": "ConterAttack",
                "priority": 2,
                "castCondition": {
                    "pose": [
                        301
                    ],
                    "pickRangeMax": 5.0
                },
                "cd": 5.0,
                "publicCDGroup": "",
                "HGAMDGAEIGO": "",
                "stateIDs": [
                    "CounterAttack"
                ],
                "flagTargetReachable": "10",
                "flagSelfOnTemplateCollider": "01",
                "flagSelfInZone": "10",
                "flagTargetInZone": "11"
            },
            "301": {
                "name": "MeleeAttack2",
                "priority": 4,
                "castCondition": {
                    "pose": [
                        101,
                        201
                    ],
                    "pickRangeMax": 5.0
                },
                "cd": 5.0,
                "cdUpperRange": 10.0,
                "publicCDGroup": "",
                "ignoreGCD": true,
                "triggerGCD": false,
                "HGAMDGAEIGO": "",
                "stateIDs": [
                    "MeleeAttack2_BS",
                    "MeleeAttack2_Loop",
                    "MeleeAttack2_AS"
                ],
                "flagTargetReachable": "10",
                "flagSelfOnTemplateCollider": "01",
                "flagSelfInZone": "10",
                "flagTargetInZone": "11"
            },
            "302": {
                "name": "MeleeAttack2",
                "priority": 3,
                "castCondition": {
                    "pose": [
                        201
                    ],
                    "pickRangeMin": 5.0,
                    "pickRangeMax": 15.0
                },
                "cd": 10.0,
                "cdUpperRange": 10.0,
                "publicCDGroup": "",
                "ignoreGCD": true,
                "triggerGCD": false,
                "HGAMDGAEIGO": "",
                "stateIDs": [
                    "MeleeAttack2_BS",
                    "MeleeAttack2_Loop",
                    "MeleeAttack2_AS"
                ],
                "flagTargetReachable": "10",
                "flagSelfOnTemplateCollider": "01",
                "flagSelfInZone": "10",
                "flagTargetInZone": "11"
            },
            "303": {
                "name": "MeleeAttack2",
                "priority": 4,
                "castCondition": {
                    "pose": [
                        101
                    ],
                    "pickRangeMax": 7.5
                },
                "cd": 5.0,
                "cdUpperRange": 10.0,
                "publicCDGroup": "",
                "HGAMDGAEIGO": "",
                "stateIDs": [
                    "MeleeAttack2_BS",
                    "MeleeAttack2_Loop",
                    "MeleeAttack2_AS"
                ],
                "flagTargetReachable": "10",
                "flagSelfOnTemplateCollider": "01",
                "flagSelfInZone": "10",
                "flagTargetInZone": "11"
            },
            "304": {
                "name": "MeleeAttack2",
                "priority": 4,
                "castCondition": {
                    "pose": [
                        201
                    ],
                    "pickRangeMax": 7.5
                },
                "cd": 5.0,
                "cdUpperRange": 5.0,
                "publicCDGroup": "",
                "ignoreGCD": true,
                "HGAMDGAEIGO": "",
                "stateIDs": [
                    "MeleeAttack2_BS",
                    "MeleeAttack2_Loop",
                    "MeleeAttack2_AS"
                ],
                "flagTargetReachable": "10",
                "flagSelfOnTemplateCollider": "01",
                "flagSelfInZone": "10",
                "flagTargetInZone": "11"
            },
            "305": {
                "name": "MeleeAttack2",
                "priority": 3,
                "castCondition": {
                    "pose": [
                        201
                    ],
                    "pickRangeMin": 7.5,
                    "pickRangeMax": 30.0
                },
                "cd": 15.0,
                "cdUpperRange": 10.0,
                "publicCDGroup": "",
                "HGAMDGAEIGO": "",
                "stateIDs": [
                    "MeleeAttack2_BS",
                    "MeleeAttack2_Loop",
                    "MeleeAttack2_AS"
                ],
                "flagTargetReachable": "10",
                "flagSelfOnTemplateCollider": "01",
                "flagSelfInZone": "10",
                "flagTargetInZone": "11"
            },
            "401": {
                "name": "FlyBomb",
                "priority": 3,
                "castCondition": {
                    "pose": [
                        201
                    ],
                    "pickRangeMin": 5.0,
                    "pickRangeMax": 15.0,
                    "SkillAnchorRangeMax": 10.0
                },
                "cd": 25.0,
                "cdUpperRange": 15.0,
                "publicCDGroup": "",
                "HGAMDGAEIGO": "",
                "stateIDs": [
                    "FlyBomb_Prepare",
                    "FlyBomb_BS",
                    "FlyBomb_Loop",
                    "FlyBomb_AS",
                    "FlyBomb_Over"
                ],
                "flagTargetReachable": "10",
                "flagSelfOnTemplateCollider": "01",
                "flagSelfInZone": "10",
                "flagTargetInZone": "11"
            },
            "402": {
                "name": "FlyBomb",
                "priority": 2,
                "castCondition": {
                    "pose": [
                        201
                    ],
                    "pickRangeMin": 7.5,
                    "SkillAnchorRangeMax": 17.5
                },
                "cd": 25.0,
                "cdUpperRange": 5.0,
                "initialCD": 10.0,
                "publicCDGroup": "",
                "HGAMDGAEIGO": "",
                "stateIDs": [
                    "FlyBomb_Prepare",
                    "FlyBomb_BS",
                    "FlyBomb_Loop",
                    "FlyBomb_AS",
                    "FlyBomb_Over"
                ],
                "flagTargetReachable": "10",
                "flagSelfOnTemplateCollider": "01",
                "flagSelfInZone": "10",
                "flagTargetInZone": "11"
            },
            "501": {
                "name": "SummonThunder",
                "castCondition": {
                    "pose": [
                        201
                    ],
                    "pickRangeMin": 5.0,
                    "pickRangeMax": 60.0
                },
                "cd": 15.0,
                "cdUpperRange": 10.0,
                "publicCDGroup": "",
                "HGAMDGAEIGO": "",
                "stateIDs": [
                    "SummonThunder_BS",
                    "SummonThunder_Loop",
                    "SummonThunder_AS"
                ],
                "flagTargetReachable": "11",
                "flagSelfOnTemplateCollider": "01",
                "flagSelfInZone": "10",
                "flagTargetInZone": "11"
            },
            "502": {
                "name": "SummonThunder",
                "castCondition": {
                    "pose": [
                        101
                    ],
                    "pickRangeMin": 7.0,
                    "pickRangeMax": 60.0
                },
                "cd": 10.0,
                "initialCD": 5.0,
                "publicCDGroup": "",
                "HGAMDGAEIGO": "",
                "stateIDs": [
                    "SummonThunder_NoTarget_BS",
                    "SummonThunder_NoTarget_Loop",
                    "SummonThunder_NoTarget_AS"
                ],
                "flagTargetReachable": "11",
                "flagSelfOnTemplateCollider": "01",
                "flagSelfInZone": "10",
                "flagTargetInZone": "11"
            },
            "503": {
                "name": "SummonThunder",
                "priority": 3,
                "castCondition": {
                    "pose": [
                        101
                    ],
                    "pickRangeMax": 60.0
                },
                "cd": 20.0,
                "cdUpperRange": 10.0,
                "initialCD": 3.5,
                "publicCDGroup": "",
                "HGAMDGAEIGO": "",
                "stateIDs": [
                    "SummonThunder_NoTarget_BS",
                    "SummonThunder_NoTarget_Loop",
                    "SummonThunder_NoTarget_AS"
                ],
                "flagTargetReachable": "11",
                "flagSelfOnTemplateCollider": "01",
                "flagSelfInZone": "10",
                "flagTargetInZone": "11"
            },
            "504": {
                "name": "SummonThunder",
                "priority": 2,
                "castCondition": {
                    "pose": [
                        201
                    ]
                },
                "cd": 35.0,
                "cdUpperRange": 7.5,
                "publicCDGroup": "",
                "HGAMDGAEIGO": "",
                "stateIDs": [
                    "SummonThunder_BS",
                    "SummonThunder_Loop",
                    "SummonThunder_AS"
                ],
                "flagTargetReachable": "11",
                "flagSelfOnTemplateCollider": "01",
                "flagSelfInZone": "10",
                "flagTargetInZone": "11"
            },
            "601": {
                "name": "ThunderCrystal",
                "priority": 3,
                "castCondition": {
                    "pose": [
                        101
                    ],
                    "pickRangeMax": 100.0
                },
                "cd": 15.0,
                "publicCDGroup": "",
                "triggerCDOnStart": true,
                "HGAMDGAEIGO": "",
                "stateIDs": [
                    "ThunderCrystal"
                ],
                "flagTargetReachable": "10",
                "flagSelfOnTemplateCollider": "01",
                "flagSelfInZone": "10",
                "flagTargetInZone": "11"
            },
            "602": {
                "name": "ThunderCrystal",
                "priority": 2,
                "castCondition": {
                    "pose": [
                        101
                    ],
                    "pickRangeMax": 100.0
                },
                "cd": 50.0,
                "cdUpperRange": 10.0,
                "publicCDGroup": "",
                "HGAMDGAEIGO": "",
                "stateIDs": [
                    "ThunderCrystal"
                ],
                "flagTargetReachable": "10",
                "flagSelfOnTemplateCollider": "01",
                "flagSelfInZone": "10",
                "flagTargetInZone": "11"
            },
            "701": {
                "name": "SoundWave",
                "priority": 4,
                "castCondition": {
                    "pose": [
                        101
                    ],
                    "pickRangeMax": 100.0
                },
                "cd": 5.0,
                "publicCDGroup": "",
                "ignoreGCD": true,
                "triggerGCD": false,
                "HGAMDGAEIGO": "",
                "stateIDs": [
                    "SoundWave_BS",
                    "SoundWave_Loop",
                    "SummonThunder_AS"
                ],
                "flagTargetReachable": "11",
                "flagSelfOnTemplateCollider": "01",
                "flagSelfInZone": "10",
                "flagTargetInZone": "11"
            },
            "702": {
                "name": "SoundWave",
                "priority": 4,
                "castCondition": {
                    "pose": [
                        101
                    ],
                    "pickRangeMax": 7.5
                },
                "cd": 10.0,
                "cdUpperRange": 5.0,
                "publicCDGroup": "",
                "ignoreGCD": true,
                "HGAMDGAEIGO": "",
                "stateIDs": [
                    "SoundWave_BS",
                    "SoundWave_Loop",
                    "SummonThunder_AS"
                ],
                "flagTargetReachable": "11",
                "flagSelfOnTemplateCollider": "01",
                "flagSelfInZone": "10",
                "flagTargetInZone": "11"
            },
            "801": {
                "name": "ThunderSpear",
                "priority": 3,
                "castCondition": {
                    "pose": [
                        201
                    ],
                    "pickRangeMin": 5.0,
                    "pickRangeMax": 60.0
                },
                "cd": 5.0,
                "cdUpperRange": 5.0,
                "publicCDGroup": "",
                "HGAMDGAEIGO": "",
                "stateIDs": [
                    "ThunderSpear"
                ],
                "flagTargetReachable": "11",
                "flagSelfOnTemplateCollider": "01",
                "flagSelfInZone": "10",
                "flagTargetInZone": "11"
            },
            "802": {
                "name": "ThunderSpear",
                "priority": 3,
                "castCondition": {
                    "pose": [
                        201
                    ],
                    "pickRangeMin": 10.0
                },
                "cd": 7.5,
                "cdUpperRange": 5.0,
                "publicCDGroup": "",
                "HGAMDGAEIGO": "",
                "stateIDs": [
                    "ThunderSpear"
                ],
                "flagTargetReachable": "11",
                "flagSelfOnTemplateCollider": "01",
                "flagSelfInZone": "10",
                "flagTargetInZone": "11"
            },
            "901": {
                "name": "ThunderPunish",
                "priority": 2,
                "castCondition": {
                    "pose": [
                        201
                    ],
                    "pickRangeMin": 5.0,
                    "pickRangeMax": 60.0
                },
                "cd": 30.0,
                "cdUpperRange": 15.0,
                "publicCDGroup": "",
                "HGAMDGAEIGO": "",
                "stateIDs": [
                    "ThunderPunish"
                ],
                "flagTargetReachable": "11",
                "flagSelfOnTemplateCollider": "01",
                "flagSelfInZone": "10",
                "flagTargetInZone": "11"
            },
            "902": {
                "name": "ThunderPunish",
                "priority": 3,
                "castCondition": {
                    "pose": [
                        101
                    ]
                },
                "cd": 30.0,
                "cdUpperRange": 10.0,
                "initialCD": 7.5,
                "publicCDGroup": "",
                "skillGroupCDID": 4,
                "HGAMDGAEIGO": "",
                "stateIDs": [
                    "ThunderPunish"
                ],
                "flagTargetReachable": "11",
                "flagSelfOnTemplateCollider": "01",
                "flagSelfInZone": "10",
                "flagTargetInZone": "11"
            },
            "903": {
                "name": "ThunderPunish",
                "priority": 2,
                "castCondition": {
                    "pose": [
                        201
                    ]
                },
                "cd": 27.5,
                "cdUpperRange": 7.5,
                "initialCD": 10.0,
                "publicCDGroup": "",
                "skillGroupCDID": 5,
                "HGAMDGAEIGO": "",
                "stateIDs": [
                    "ThunderPunish"
                ],
                "flagTargetReachable": "11",
                "flagSelfOnTemplateCollider": "01",
                "flagSelfInZone": "10",
                "flagTargetInZone": "11"
            },
            "1001": {
                "name": "ThunderNet",
                "priority": 1,
                "castCondition": {
                    "pose": [
                        201
                    ],
                    "pickRangeMax": 60.0
                },
                "cd": 15.0,
                "cdUpperRange": 15.0,
                "publicCDGroup": "",
                "HGAMDGAEIGO": "",
                "stateIDs": [
                    "ThunderNet"
                ],
                "flagTargetReachable": "11",
                "flagSelfOnTemplateCollider": "01",
                "flagSelfInZone": "10",
                "flagTargetInZone": "11"
            },
            "1002": {
                "name": "Improve",
                "priority": 1,
                "castCondition": {
                    "pose": [
                        101
                    ],
                    "pickRangeMax": 100.0
                },
                "cd": 9999999.0,
                "initialCD": 9999999.0,
                "publicCDGroup": "",
                "ignoreGCD": true,
                "triggerGCD": false,
                "triggerCDOnFail": false,
                "HGAMDGAEIGO": "",
                "stateIDs": [
                    "Improve"
                ],
                "flagTargetReachable": "11",
                "flagSelfOnTemplateCollider": "01",
                "flagSelfInZone": "11",
                "flagTargetInZone": "11"
            },
            "1003": {
                "name": "ThunderNet",
                "priority": 3,
                "castCondition": {
                    "pose": [
                        101
                    ]
                },
                "cd": 25.0,
                "cdUpperRange": 7.5,
                "initialCD": 7.5,
                "publicCDGroup": "",
                "skillGroupCDID": 4,
                "HGAMDGAEIGO": "",
                "stateIDs": [
                    "ThunderNet"
                ],
                "flagTargetReachable": "11",
                "flagSelfOnTemplateCollider": "01",
                "flagSelfInZone": "10",
                "flagTargetInZone": "11"
            },
            "1004": {
                "name": "ThunderNet",
                "priority": 2,
                "castCondition": {
                    "pose": [
                        201
                    ]
                },
                "cd": 27.5,
                "cdUpperRange": 7.5,
                "initialCD": 10.0,
                "publicCDGroup": "",
                "skillGroupCDID": 5,
                "HGAMDGAEIGO": "",
                "stateIDs": [
                    "ThunderNet"
                ],
                "flagTargetReachable": "11",
                "flagSelfOnTemplateCollider": "01",
                "flagSelfInZone": "10",
                "flagTargetInZone": "11"
            }
        },
        "combatFixedMoveTactic": [
            {
                "$type": "KMHBGMELMKD",
                "enable": true,
                "LMMKNFEMOMG": {
                    "KIHPEPHJMOG": 1,
                    "FKIKEIAEEBO": 3.0,
                    "BMLLGHNDPNE": 5.0,
                    "JOCOJHEICNA": "",
                    "DBIELIMGBMC": ""
                }
            }
        ]
    },
    "inputKeys": [
        {
            "keyID": 101,
            "inputKeyCode": 257,
            "abilityName": ""
        },
        {
            "keyID": 201,
            "inputKeyCode": 258,
            "abilityName": ""
        },
        {
            "keyID": 301,
            "inputKeyCode": 259,
            "abilityName": ""
        },
        {
            "keyID": 401,
            "inputKeyCode": 260,
            "abilityName": ""
        },
        {
            "keyID": 501,
            "inputKeyCode": 261,
            "abilityName": ""
        },
        {
            "keyID": 601,
            "inputKeyCode": 262,
            "abilityName": ""
        },
        {
            "keyID": 701,
            "inputKeyCode": 263,
            "abilityName": ""
        },
        {
            "keyID": 801,
            "inputKeyCode": 264,
            "abilityName": ""
        },
        {
            "keyID": 901,
            "inputKeyCode": 265,
            "abilityName": ""
        },
        {
            "keyID": 1001,
            "inputKeyCode": 266,
            "abilityName": ""
        },
        {
            "keyID": 1002,
            "inputKeyCode": 267,
            "abilityName": ""
        },
        {
            "keyID": 2,
            "inputKeyCode": 268,
            "abilityName": ""
        },
        {
            "keyID": 3,
            "inputKeyCode": 269,
            "abilityName": ""
        },
        {
            "keyID": 4,
            "inputKeyCode": 270,
            "abilityName": ""
        },
        {
            "keyID": 5,
            "inputKeyCode": 271,
            "abilityName": ""
        },
        {
            "keyID": 6,
            "inputKeyCode": 272,
            "abilityName": ""
        },
        {
            "keyID": 7,
            "inputKeyCode": 273,
            "abilityName": ""
        },
        {
            "keyID": 502,
            "inputKeyCode": 274,
            "abilityName": ""
        }
    ],
    "move": {
        "$type": "IIGPJJNGCLE",
        "EIEIGIPKLAO": {
            "includeForces": [
                "FixedRushMoveType",
                "RushMoveType"
            ]
        },
        "MEKENCHCEEN": false,
        "MLKCNHIIMCE": true,
        "EBOIFGIJOOJ": true,
        "FACNOEFNHIB": "RootNode"
    },
    "cameraAdjustMap": {
        "default": {
            "$type": "ALDGBHOFGNJ",
            "priority": 1.0,
            "CFHLGBDKNNE": 25.0,
            "MFHGHLBIABP": 30.0,
            "ODGOPJOMIOD": 0.75,
            "NEEJKCEAEOH": 47.5,
            "HNELLIFDCEJ": 8.0,
            "LAFEEHPNFJE": 10.0,
            "LHMKDKDKCMK": false,
            "CINOLDJDIME": 50.0,
            "JAOHLHPPBDE": 50.0,
            "PNABBNBKPKL": 50.0,
            "KAJCHFLHBDJ": 40.0,
            "DDKDCMMBADD": 100.0,
            "ADOADIMFHKL": 145.0,
            "BKEJGFMMHCD": "CircleR25",
            "EBJKIPGGECO": "CircleR30",
            "FDLCMNHALEN": true
        }
    }
}