{
    "common": {
        "effectAttachShape": {
            "$type": "DPGKNHENGLM",
            "DDDEJPIFECG": "EffectMesh"
        },
        "mass": 30.0,
        "height": 1.5,
        "modelHeight": 1.649999976158142,
        "affectedByWorld": true,
        "checkInSurface": true,
        "useGrassDisplacement": true,
        "clearAnimatorOnSetLightDeactive": true,
        "clearAIOnSetLightDeactive": true
    },
    "headControl": {
        "$type": "NJIKCGBDNDF",
        "useHeadControl": true,
        "IKIJCPNMBHI": 60.0,
        "FMKKBCJKMPH": 30.0,
        "FDPCOFKGCHG": [
            "NormalIdle/Standby",
            "NormalMove/WalkForward",
            "NormalMove/WalkBack",
            "NormalMove/WalkRight",
            "NormalMove/WalkLeft",
            "NormalMove/Run",
            "Turn/TurnLeft",
            "Turn/TurnRight"
        ]
    },
    "model": {
        "bornEffect": "Eff_Monster_Common_Born",
        "attachEffect": ""
    },
    "dither": {
        "showDitherDuration": 1.0
    },
    "combat": {
        "property": {
            "endureType": "Monster_Minion",
            "weight": 70.0
        },
        "beHit": {
            "hitBloodEffect": ""
        },
        "combatLock": {
            "lockShape": "CircleLockEnemy",
            "lockType": "Avatar&Monster_Lv4"
        },
        "die": {
            "hasAnimatorDie": true,
            "dieEndTime": 2.0,
            "dieForceDisappearTime": 8.0,
            "dieDisappearEffect": "Eff_Death_Sand_Eremite",
            "dieShaderData": "EremiteSandDie",
            "dieShaderEnableDurationTime": 1.0,
            "useRagDoll": true,
            "ragDollDieEndTimeDelay": 8.0,
            "muteHitBox": true,
            "dieDenyLockOn": true,
            "dieIsGhostToEnemy": true,
            "dieIgnoreTriggerBullet": true,
            "muteBillboard": true,
            "mutePushCollider": true
        },
        "animEvents": {
            "AE_Slash01": {
                "attackPattern": {
                    "$type": "AGJFCPDIMCK",
                    "triggerType": "TriggerNoRepeat",
                    "born": {
                        "$type": "NKOODKOFELF",
                        "offset": {
                            "GNGDNIIPPNL": 0.0,
                            "GIIMFINHIED": 0.0,
                            "CLBCHJICOKH": 0.10000000149011612
                        }
                    },
                    "height": 2.0999999046325684,
                    "IAMPMDAOKJL": 310.0,
                    "LOACHGCADCO": 1.5
                },
                "attackInfo": {
                    "attackTag": "",
                    "attenuationTag": "",
                    "attenuationGroup": "default",
                    "attackProperty": {
                        "HOGNHNAHNML": 1.0,
                        "BAPILBAGBOJ": 0.0,
                        "bonusCriticalHurt": 100.0,
                        "strikeType": "Slash",
                        "enBreak": 200.0,
                        "damagePercentage": 0.0
                    },
                    "hitPattern": {
                        "onHitEffectName": "default",
                        "hitImpulseType": "LV3"
                    }
                }
            },
            "AE_Slash02": {
                "attackPattern": {
                    "$type": "AGJFCPDIMCK",
                    "triggerType": "TriggerNoRepeat",
                    "born": {
                        "$type": "NKOODKOFELF",
                        "offset": {
                            "GNGDNIIPPNL": 0.0,
                            "GIIMFINHIED": 0.0,
                            "CLBCHJICOKH": 0.800000011920929
                        }
                    },
                    "height": 2.0999999046325684,
                    "IAMPMDAOKJL": 310.0,
                    "LOACHGCADCO": 1.600000023841858
                },
                "attackInfo": {
                    "attackTag": "",
                    "attenuationTag": "",
                    "attenuationGroup": "default",
                    "attackProperty": {
                        "HOGNHNAHNML": 1.0,
                        "BAPILBAGBOJ": 0.0,
                        "bonusCriticalHurt": 100.0,
                        "strikeType": "Slash",
                        "enBreak": 200.0,
                        "damagePercentage": 0.0
                    },
                    "hitPattern": {
                        "onHitEffectName": "default",
                        "hitImpulseType": "LV3"
                    }
                }
            }
        }
    },
    "equipController": {
        "sheathPoint": "",
        "attachPoints": {
            "equip01": "WeaponR",
            "equip02": "WeaponL"
        }
    },
    "abilities": [
        {
            "abilityID": "",
            "abilityName": "Eremite_TurnState_AnimatorSteer",
            "abilityOverride": ""
        },
        {
            "abilityID": "",
            "abilityName": "Eremite_ReturnToBorn",
            "abilityOverride": ""
        },
        {
            "abilityID": "",
            "abilityName": "Eremite_Hatchet_Slash_Dist_Calc",
            "abilityOverride": ""
        },
        {
            "abilityID": "",
            "abilityName": "Eremite_Hatchet_AnimatorSteer",
            "abilityOverride": ""
        },
        {
            "abilityID": "",
            "abilityName": "Eremite_Hatchet_ThrowSand",
            "abilityOverride": ""
        },
        {
            "abilityID": "",
            "abilityName": "Eremite_Equip_Display_Manager",
            "abilityOverride": ""
        },
        {
            "abilityID": "",
            "abilityName": "Eremite_Equip_SheathWeapon",
            "abilityOverride": ""
        },
        {
            "abilityID": "",
            "abilityName": "Eremite_Universal_Alert",
            "abilityOverride": ""
        },
        {
            "abilityID": "",
            "abilityName": "Eremite_FreePose_Female_Display_Manager",
            "abilityOverride": ""
        }
    ],
    "stateLayers": {
        "defaultLayer": {
            "$type": "EPAPJJAGHKG",
            "ACOCIAFGIAD": "",
            "stateIDs": {
                "NormalIdle": {
                    "$type": "IJOIMFMEGMM",
                    "DLOHGBDFFGB": {
                        "Standby": []
                    },
                    "POLKCLOHPOO": true,
                    "PGKCBIHGAOC": true,
                    "DLAOMOCMANL": [
                        "DoSkill"
                    ]
                },
                "NormalBorn": {
                    "$type": "IJOIMFMEGMM",
                    "DLOHGBDFFGB": {
                        "Born": []
                    },
                    "POLKCLOHPOO": true,
                    "DLAOMOCMANL": [
                        "DoSkill"
                    ]
                },
                "NormalMove": {
                    "$type": "IJOIMFMEGMM",
                    "DLOHGBDFFGB": {
                        "WalkForward": [
                            "Audio_Monster_Eremite_Female_Hatchet_01_walk_footstep_left"
                        ],
                        "WalkBack": [
                            "Audio_Monster_Eremite_Female_Hatchet_01_walk_footstep_left"
                        ],
                        "WalkRight": [
                            "Audio_Monster_Eremite_Female_Hatchet_01_walk_footstep_left"
                        ],
                        "WalkLeft": [
                            "Audio_Monster_Eremite_Female_Hatchet_01_walk_footstep_left"
                        ],
                        "Run": [
                            "Audio_Monster_Eremite_Female_Hatchet_01_run_footstep"
                        ]
                    },
                    "POLKCLOHPOO": true,
                    "PGKCBIHGAOC": true,
                    "DLAOMOCMANL": [
                        "DoSkill"
                    ],
                    "LIPMJPLGIKD": true
                },
                "Turn": {
                    "$type": "IJOIMFMEGMM",
                    "DLOHGBDFFGB": {
                        "TurnLeft": [
                            "Audio_Monster_Eremite_Female_Hatchet_01_walk_footstep_left"
                        ],
                        "TurnRight": [
                            "Audio_Monster_Eremite_Female_Hatchet_01_walk_footstep_left"
                        ]
                    },
                    "POLKCLOHPOO": true,
                    "PGKCBIHGAOC": true,
                    "DLAOMOCMANL": [
                        "DoSkill"
                    ],
                    "LIPMJPLGIKD": true
                },
                "BeHit": {
                    "$type": "IJOIMFMEGMM",
                    "DLOHGBDFFGB": {
                        "Hit_L": [],
                        "Hit_H": [
                            "Audio_Monster_Eremite_Female_Hatchet_01_hit_H"
                        ]
                    },
                    "AJBLILDCLBO": [
                        "BeHit"
                    ],
                    "DLAOMOCMANL": [
                        "DoSkill"
                    ]
                },
                "BeHitThrow": {
                    "$type": "IJOIMFMEGMM",
                    "DLOHGBDFFGB": {
                        "HitThrow": [],
                        "HitThrowDrop": []
                    },
                    "AJBLILDCLBO": [
                        "BeHit",
                        "HitAir2HitDrop"
                    ],
                    "DLAOMOCMANL": [
                        "DoSkill",
                        "BeHit"
                    ],
                    "PBAOEAEEBNB": [
                        {
                            "name": "AirDie"
                        }
                    ]
                },
                "BeHitThrowToStandby": {
                    "$type": "IJOIMFMEGMM",
                    "DLOHGBDFFGB": {
                        "HitThrowToGround": [
                            "Audio_Monster_Eremite_Female_Hatchet_01_HitThrowtoGround"
                        ]
                    },
                    "AJBLILDCLBO": [
                        "BeHit",
                        "HitAir2HitDrop"
                    ],
                    "DLAOMOCMANL": [
                        "DoSkill",
                        "BeHit"
                    ],
                    "PBAOEAEEBNB": [
                        {
                            "name": "AirDie",
                            "normalizeEnd": 0.4000000059604645
                        }
                    ]
                },
                "Struggle": {
                    "$type": "IJOIMFMEGMM",
                    "DLOHGBDFFGB": {
                        "Struggle": []
                    },
                    "AJBLILDCLBO": [
                        "BeHit",
                        "HitAir2HitDrop"
                    ],
                    "DLAOMOCMANL": [
                        "DoSkill"
                    ]
                },
                "Die": {
                    "$type": "IJOIMFMEGMM",
                    "DLOHGBDFFGB": {
                        "Die1": [
                            "Monster_Eremite_Hatchet_Die",
                            "Audio_Monster_Eremite_Female_Hatchet_01_die"
                        ],
                        "Die2": [
                            "Monster_Eremite_Hatchet_Die",
                            "Audio_Monster_Eremite_Female_Hatchet_01_die"
                        ],
                        "SwimDie_BS": [],
                        "SwimDie": [
                            "Monster_Eremite_SwimDie"
                        ],
                        "SwimDie_AS": []
                    }
                },
                "Die_RagDoll": {
                    "$type": "IJOIMFMEGMM",
                    "DLOHGBDFFGB": {
                        "AirDie": [
                            "Monster_Eremite_AirDie"
                        ]
                    },
                    "CPOLOGIELCD": true
                },
                "Alert": {
                    "$type": "IJOIMFMEGMM",
                    "DLOHGBDFFGB": {
                        "Alert": [
                            "Monster_Eremite_Hatchet_ShowWeapon",
                            "Monster_Eremite_Clear_FreePoseMark",
                            "Audio_Monster_Eremite_Female_Hatchet_01_alert"
                        ]
                    },
                    "OGNDLAMHMPB": 0.0,
                    "DLAOMOCMANL": [
                        "BeHit",
                        "DoSkill"
                    ]
                },
                "Crossleg_Alert": {
                    "$type": "IJOIMFMEGMM",
                    "DLOHGBDFFGB": {
                        "CrosslegAlert": [
                            "Monster_Eremite_Clear_FreePoseMark",
                            "Monster_Eremite_Hatchet_ShowWeapon_SpecialAlert",
                            "Audio_Monster_Eremite_Female_Hatchet_01_crosslegAlert"
                        ]
                    },
                    "OGNDLAMHMPB": 0.0,
                    "DLAOMOCMANL": [
                        "BeHit",
                        "DoSkill"
                    ]
                },
                "SheathWeapon": {
                    "$type": "IJOIMFMEGMM",
                    "DLOHGBDFFGB": {
                        "SheathWeapon": [
                            "Monster_Eremite_Hatchet_SheathWeapon",
                            "Audio_Monster_Eremite_Female_Hatchet_01_sheathWeapon"
                        ]
                    },
                    "DLAOMOCMANL": [
                        "BeHit",
                        "DoSkill"
                    ]
                },
                "Slash01_AB": {
                    "$type": "IJOIMFMEGMM",
                    "DLOHGBDFFGB": {
                        "Slash01_BS": [
                            "Monster_Eremite_Hatchet_Slash01_BS",
                            "Audio_Monster_Eremite_Female_Hatchet_slash01_BS"
                        ],
                        "Slash01_AS": [
                            "Audio_Monster_Eremite_Female_Hatchet_slash01_AS"
                        ]
                    },
                    "DLAOMOCMANL": [
                        "BeHit",
                        "DoSkill"
                    ]
                },
                "Slash01": {
                    "$type": "IJOIMFMEGMM",
                    "DLOHGBDFFGB": {
                        "Slash01": [
                            "Monster_Eremite_Hatchet_Slash01",
                            "Audio_Monster_Eremite_Female_Hatchet_01_slash01"
                        ]
                    },
                    "DLAOMOCMANL": [
                        "BeHit",
                        "DoSkill"
                    ]
                },
                "Slash02_AB": {
                    "$type": "IJOIMFMEGMM",
                    "DLOHGBDFFGB": {
                        "Slash02_BS": [
                            "Audio_Monster_Eremite_Female_Hatchet_01_slash02_BS"
                        ],
                        "Slash02_AS": [
                            "Audio_Monster_Eremite_Female_Hatchet_01_slash02_AS"
                        ]
                    },
                    "DLAOMOCMANL": [
                        "BeHit",
                        "DoSkill"
                    ]
                },
                "Slash02": {
                    "$type": "IJOIMFMEGMM",
                    "DLOHGBDFFGB": {
                        "Slash02": [
                            "Monster_Eremite_Hatchet_Slash02",
                            "Audio_Monster_Eremite_Female_Hatchet_01_slash02"
                        ]
                    },
                    "DLAOMOCMANL": [
                        "BeHit",
                        "DoSkill"
                    ]
                },
                "ThrowSand_BS": {
                    "$type": "IJOIMFMEGMM",
                    "DLOHGBDFFGB": {
                        "ThrowSand_BS": [
                            "Monster_Eremite_Hatchet_ThrowSand_BS",
                            "Audio_Monster_Eremite_Female_Hatchet_01_throwsand_BS"
                        ]
                    },
                    "DLAOMOCMANL": [
                        "BeHit",
                        "DoSkill"
                    ]
                },
                "ThrowSand": {
                    "$type": "IJOIMFMEGMM",
                    "DLOHGBDFFGB": {
                        "ThrowSand": [
                            "Monster_Eremite_Hatchet_ThrowSand",
                            "Audio_Monster_Eremite_Female_Hatchet_01_throwsand"
                        ]
                    },
                    "DLAOMOCMANL": [
                        "BeHit",
                        "DoSkill"
                    ]
                },
                "FreePose_Feeding_Idle": {
                    "$type": "IJOIMFMEGMM",
                    "DLOHGBDFFGB": {
                        "Feeding_Idle": []
                    },
                    "POLKCLOHPOO": true,
                    "DLAOMOCMANL": [
                        "BeHit",
                        "DoSkill"
                    ]
                },
                "Sneak_Idle": {
                    "$type": "IJOIMFMEGMM",
                    "DLOHGBDFFGB": {
                        "Sneak_Idle": []
                    },
                    "POLKCLOHPOO": true,
                    "DLAOMOCMANL": [
                        "BeHit",
                        "DoSkill"
                    ]
                },
                "FreePose_Feeding_Skill": {
                    "$type": "IJOIMFMEGMM",
                    "DLOHGBDFFGB": {
                        "Feeding_Skill": [
                            "Monster_Eremite_Hatchet_Feeding",
                            "Audio_Monster_Eremite_Female_Hatchet_01_feeding_skill"
                        ]
                    },
                    "POLKCLOHPOO": true,
                    "DLAOMOCMANL": [
                        "BeHit",
                        "DoSkill"
                    ]
                },
                "FreePose_StandingTalk_Idle": {
                    "$type": "IJOIMFMEGMM",
                    "DLOHGBDFFGB": {
                        "StandingTalk_Idle": []
                    },
                    "POLKCLOHPOO": true,
                    "DLAOMOCMANL": [
                        "BeHit",
                        "DoSkill"
                    ]
                },
                "FreePose_StandingTalk_Skill": {
                    "$type": "IJOIMFMEGMM",
                    "DLOHGBDFFGB": {
                        "StandingTalk01_Skill": [],
                        "StandingTalk02_Skill": [],
                        "StandingTalk03_Skill": []
                    },
                    "POLKCLOHPOO": true,
                    "DLAOMOCMANL": [
                        "BeHit",
                        "DoSkill"
                    ]
                },
                "FreePose_Akimbo_Idle": {
                    "$type": "IJOIMFMEGMM",
                    "DLOHGBDFFGB": {
                        "Akimbo_Idle": []
                    },
                    "POLKCLOHPOO": true,
                    "DLAOMOCMANL": [
                        "BeHit",
                        "DoSkill"
                    ]
                },
                "FreePose_HoldArm_Idle": {
                    "$type": "IJOIMFMEGMM",
                    "DLOHGBDFFGB": {
                        "HoldArm_Idle": []
                    },
                    "POLKCLOHPOO": true,
                    "DLAOMOCMANL": [
                        "BeHit",
                        "DoSkill"
                    ]
                },
                "FreePose_CrossLeg_PlayOud_Idle": {
                    "$type": "IJOIMFMEGMM",
                    "DLOHGBDFFGB": {
                        "CrossLeg_PlayOud_Idle": []
                    },
                    "POLKCLOHPOO": true,
                    "DLAOMOCMANL": [
                        "BeHit",
                        "DoSkill"
                    ]
                }
            }
        }
    },
    "billboard": {
        "$type": "PAOBAEKGGBC",
        "attachPoint": "BillboardAttach",
        "offset": {
            "x": -0.05000000074505806
        },
        "EMFFJPOKEKF": "Character",
        "LOMMBJLKPHE": 0.25,
        "KGHAGECNJPO": true
    },
    "initialPoses": {
        "Default": {},
        "Feeding": {
            "initialPoseID": 9001,
            "initialPoseParams": {
                "intParams": {
                    "FreePoseMark": "9001"
                }
            }
        },
        "Akimbo": {
            "initialPoseID": 9002,
            "initialPoseParams": {
                "intParams": {
                    "FreePoseMark": "9002"
                }
            }
        },
        "HoldArm": {
            "initialPoseID": 9003,
            "initialPoseParams": {
                "intParams": {
                    "FreePoseMark": "9003"
                }
            }
        },
        "StandingTalk": {
            "initialPoseID": 9004,
            "initialPoseParams": {
                "intParams": {
                    "FreePoseMark": "9004"
                }
            }
        },
        "CrossLeg_PlayOud": {
            "initialPoseID": 9505,
            "initialPoseParams": {
                "intParams": {
                    "FreePoseMark": "9505"
                }
            }
        },
        "Sentry": {
            "initialPoseID": 9901,
            "initialPoseParams": {
                "intParams": {
                    "FreePoseMark": "9901"
                }
            }
        }
    },
    "aibeta": {
        "enable": true,
        "moveSetting": {
            "navMeshAgentName": "Undead01",
            "almostReachedDistanceRun": 1.5
        },
        "sensing": {
            "settings": {
                "DefaultSetting": {
                    "feelRange": 8.0
                },
                "HighAlert": {
                    "viewRange": 40.0,
                    "feelRange": 10.0
                },
                "LowAlert": {
                    "viewRange": 15.0,
                    "feelRange": 6.0
                },
                "NeverCombat": {
                    "enableVision": false,
                    "hearAttractionRange": 0.0,
                    "feelRange": 0.0
                }
            },
            "templates": {
                "DefaultTemplate": {
                    "DefaultPoses": "DefaultSetting",
                    "9901": "LowAlert"
                },
                "HighAlert": {
                    "DefaultPoses": "HighAlert"
                },
                "LowAlert": {
                    "DefaultPoses": "LowAlert"
                },
                "NeverCombat": {
                    "DefaultPoses": "NeverCombat"
                }
            }
        },
        "neurons": {
            "DefaultSetting": [
                "HIT"
            ],
            "NeverCombat": []
        },
        "threat": {
            "clearThreatByLostPath": true,
            "clearThreatTimerByDistance": 3.0,
            "clearThreatTimerByLostPath": 16.0,
            "viewThreatGrow": 30.0,
            "feelThreatGrow": 60.0,
            "threatDecreaseSpeed": 100.0,
            "viewAttenuation": [
                {
                    "x": 10.0,
                    "y": 2.0
                },
                {
                    "x": 15.0,
                    "y": 0.800000011920929
                },
                {
                    "x": 20.0,
                    "y": 0.5
                },
                {
                    "x": 25.0,
                    "y": 0.30000001192092896
                },
                {
                    "x": 30.0,
                    "y": 0.20000000298023224
                }
            ],
            "JGFOPCOIJOI": ""
        },
        "defendArea": {},
        "skills": {
            "101": {
                "name": "OnAlert",
                "skillType": "OnAlert",
                "castCondition": {
                    "pose": [
                        1,
                        9001,
                        9002,
                        9003,
                        9004
                    ]
                },
                "publicCDGroup": "",
                "ignoreGCD": true,
                "HGAMDGAEIGO": "",
                "stateIDs": [
                    "Alert"
                ],
                "skillQueryingTime": 3.0,
                "flagTargetReachable": "10",
                "flagSelfOnTemplateCollider": "01",
                "flagSelfInZone": "10",
                "flagTargetInZone": "11"
            },
            "102": {
                "name": "OnAlert_Combat",
                "priority": 1,
                "castCondition": {
                    "pose": [
                        1,
                        9001,
                        9002,
                        9003,
                        9004,
                        10
                    ]
                },
                "publicCDGroup": "",
                "ignoreGCD": true,
                "HGAMDGAEIGO": "",
                "stateIDs": [
                    "Alert"
                ],
                "skillQueryingTime": 3.0,
                "flagTargetReachable": "11",
                "flagSelfOnTemplateCollider": "11",
                "flagSelfInZone": "11",
                "flagTargetInZone": "11"
            },
            "111": {
                "name": "OnAlert_Crossleg",
                "skillType": "OnAlert",
                "castCondition": {
                    "pose": [
                        9505,
                        9555
                    ]
                },
                "publicCDGroup": "",
                "ignoreGCD": true,
                "HGAMDGAEIGO": "",
                "stateIDs": [
                    "Crossleg_Alert"
                ],
                "skillQueryingTime": 3.0,
                "flagTargetReachable": "10",
                "flagSelfOnTemplateCollider": "01",
                "flagSelfInZone": "10",
                "flagTargetInZone": "11"
            },
            "112": {
                "name": "OnAlert_Crossleg_Combat",
                "castCondition": {
                    "pose": [
                        9505,
                        9555
                    ]
                },
                "publicCDGroup": "",
                "ignoreGCD": true,
                "HGAMDGAEIGO": "",
                "stateIDs": [
                    "Crossleg_Alert"
                ],
                "skillQueryingTime": 3.0,
                "flagTargetReachable": "11",
                "flagSelfOnTemplateCollider": "11",
                "flagSelfInZone": "11",
                "flagTargetInZone": "11"
            },
            "201": {
                "name": "Slash",
                "combatSkillType": "MeleeAttack",
                "priority": 2,
                "castCondition": {
                    "pose": [
                        1001
                    ],
                    "pickRangeMin": 1.5,
                    "pickRangeMax": 4.0
                },
                "cd": 4.0,
                "cdUpperRange": 2.0,
                "publicCDGroup": "",
                "HGAMDGAEIGO": "",
                "stateIDs": [
                    "Slash01_AB",
                    "Slash01",
                    "Slash02_AB",
                    "Slash02"
                ],
                "flagTargetReachable": "10",
                "flagSelfOnTemplateCollider": "11",
                "flagSelfInZone": "11",
                "flagTargetInZone": "11"
            },
            "301": {
                "name": "ThrowSand",
                "priority": 6,
                "castCondition": {
                    "pose": [
                        1001
                    ],
                    "pickRangeMax": 3.0
                },
                "cd": 15.0,
                "cdUpperRange": 5.0,
                "publicCDGroup": "",
                "HGAMDGAEIGO": "",
                "stateIDs": [
                    "ThrowSand_BS",
                    "ThrowSand"
                ],
                "flagTargetReachable": "10",
                "flagSelfOnTemplateCollider": "11",
                "flagSelfInZone": "11",
                "flagTargetInZone": "11"
            },
            "90011": {
                "name": "Feeding",
                "skillType": "Free",
                "castCondition": {
                    "pose": [
                        9001
                    ]
                },
                "cd": 6.0,
                "cdUpperRange": 6.0,
                "publicCDGroup": "",
                "ignoreGCD": true,
                "HGAMDGAEIGO": "",
                "stateIDs": [
                    "FreePose_Feeding_Skill"
                ],
                "flagTargetReachable": "10",
                "flagSelfOnTemplateCollider": "01",
                "flagSelfInZone": "10",
                "flagTargetInZone": "11"
            },
            "90041": {
                "name": "Chat01",
                "skillType": "Free",
                "castCondition": {
                    "pose": [
                        9004
                    ]
                },
                "cd": 1.0,
                "cdUpperRange": 2.0,
                "publicCDGroup": "",
                "ignoreGCD": true,
                "HGAMDGAEIGO": "",
                "stateIDs": [
                    "FreePose_StandingTalk_Skill"
                ],
                "flagTargetReachable": "10",
                "flagSelfOnTemplateCollider": "01",
                "flagSelfInZone": "10",
                "flagTargetInZone": "11"
            },
            "90042": {
                "name": "Chat01",
                "skillType": "Free",
                "castCondition": {
                    "pose": [
                        9004
                    ]
                },
                "cd": 1.0,
                "cdUpperRange": 2.0,
                "publicCDGroup": "",
                "ignoreGCD": true,
                "HGAMDGAEIGO": "",
                "stateIDs": [
                    "FreePose_StandingTalk_Skill"
                ],
                "flagTargetReachable": "10",
                "flagSelfOnTemplateCollider": "01",
                "flagSelfInZone": "10",
                "flagTargetInZone": "11"
            },
            "90043": {
                "name": "Chat01",
                "skillType": "Free",
                "castCondition": {
                    "pose": [
                        9004
                    ]
                },
                "cd": 1.0,
                "cdUpperRange": 2.0,
                "publicCDGroup": "",
                "ignoreGCD": true,
                "HGAMDGAEIGO": "",
                "stateIDs": [
                    "FreePose_StandingTalk_Skill"
                ],
                "flagTargetReachable": "10",
                "flagSelfOnTemplateCollider": "01",
                "flagSelfInZone": "10",
                "flagTargetInZone": "11"
            }
        },
        "skillGCD": 3.0,
        "combatFixedMoveTactic": [
            {
                "$type": "DIIPKNMAPAC",
                "enable": true,
                "FJANPNOAAFK": {
                    "pose": [
                        1001
                    ]
                },
                "LMMKNFEMOMG": {
                    "rangeMin": 1.100000023841858,
                    "rangeMax": 2.9000000953674316,
                    "MMKHHBIBJEN": {
                        "GECJAGFGHKL": 1.399999976158142,
                        "GEECPOOOMFC": 1.2000000476837158,
                        "NFMBIOFFKGK": 0.800000011920929,
                        "JNJFKLDABCB": 3.0,
                        "BEJLOBBENJJ": 3.0
                    },
                    "HEGPGPBKGFH": "1111",
                    "AFCLIFKCEKM": "1111",
                    "JOCOJHEICNA": ""
                }
            },
            {
                "$type": "NCHKIPKMCLC",
                "enable": true,
                "FJANPNOAAFK": {
                    "pose": [
                        1
                    ]
                }
            },
            {
                "$type": "BNAGECKMCIB",
                "enable": true,
                "FJANPNOAAFK": {
                    "pose": [
                        1001
                    ]
                },
                "LMMKNFEMOMG": {
                    "MPEMBMLOEDG": 6.599999904632568,
                    "IJLGPEJGLEH": 50.0,
                    "JKOGPCLFHCP": 5.0,
                    "IHCAFCNDANA": 4.0,
                    "JOCOJHEICNA": ""
                }
            },
            {
                "$type": "KMHBGMELMKD",
                "enable": true,
                "LMMKNFEMOMG": {
                    "JOCOJHEICNA": "",
                    "DBIELIMGBMC": ""
                }
            },
            {
                "$type": "GGKADEIBMLG",
                "enable": true,
                "FJANPNOAAFK": {
                    "pose": [
                        1,
                        9901
                    ]
                },
                "LMMKNFEMOMG": {
                    "JIFJFPJANHO": 3.0,
                    "CBKHBGCPFBG": 1.5,
                    "EKDHNAGGGAE": 15.0,
                    "BFEJAKFKKFP": 3.75,
                    "KOAMKCEFJED": 7.5,
                    "JOCOJHEICNA": ""
                }
            }
        ]
    },
    "inputKeys": [
        {
            "keyID": 201,
            "inputKeyCode": 258,
            "abilityName": ""
        },
        {
            "keyID": 301,
            "inputKeyCode": 259,
            "abilityName": ""
        }
    ],
    "move": {
        "$type": "IIGPJJNGCLE",
        "MIPNOGBEANL": "FourDirection",
        "BEPOPLDKJOP": "StoopType",
        "FACNOEFNHIB": "RootNode"
    },
    "audio": {
        "KEEAIACIJBN": "",
        "animAudio": {
            "onTransitionIn": [
                {
                    "currentStateName": "Crossleg_PlayOud_Loop",
                    "audioEvent": {
                        "text": "Play_sfx_monster_Eremite_freePose_playDaff_Loop_oud"
                    },
                    "otherStateNames": [
                        "Crossleg_PlayOud_Loop"
                    ],
                    "usage": "Except"
                }
            ],
            "onTransitionOut": [
                {
                    "currentStateName": "Crossleg_PlayOud_Loop",
                    "audioEvent": {
                        "text": "Stop_sfx_monster_Eremite_freePose_playDaff_Loop_oud"
                    },
                    "otherStateNames": [
                        "Crossleg_PlayOud_Loop"
                    ],
                    "usage": "Except"
                }
            ]
        }
    }
}