{
    "MDJNFHAJPAD": {
        "FAIKDMCHPEL": {
            "$type": "DPGKNHENGLM",
            "DDDEJPIFECG": "EffectMesh"
        },
        "FINMNFLLAMB": 1000000000.0,
        "HPIJDAKGABA": 100000.0,
        "JBIPDEEPIMN": true,
        "GJKLEPPOKDJ": true,
        "BCMIJKHBFCH": true
    },
    "PMJIKOJNNBO": {
        "MPDPMNBOOEB": "RootNode",
        "BBMFBOMLHHG": "",
        "JMDOINIPPJL": "RootNode",
        "ACEEJPFDCPP": "BulletAimPoint",
        "EPDNNFIJHMD": [
            "LockPointHindL",
            "LockPointHindR",
            "LockPointForeL",
            "LockPointForeR",
            "LockPointBody",
            "RootNode",
            "LockPointTail"
        ],
        "NEGLBHADBFE": [
            "LockPointHindL",
            "LockPointHindR",
            "LockPointForeL",
            "LockPointForeR",
            "LockPointBody",
            "Head",
            "RootNode",
            "LockPointTail"
        ]
    },
    "MEMHBNEJBCL": {
        "CMDNEPBHICB": {
            "ADNPIILDCJH": 10.0
        }
    },
    "BNICEDEJBIE": {
        "ALNLOJKEBIL": [
            "SGV_DungeonDifficulty"
        ]
    },
    "GKIMHOOMGHB": {
        "DHBJGHDCMAA": {
            "LDAHGACLHII": "Monster_Boss_Other",
            "LJGADHKDLLB": 20000.0
        },
        "BPKIJDAHLGB": {
            "LKMLEJGEHAP": "",
            "ABOPKJFEGBP": {
                "$type": "FOPPDMLOPJG",
                "BHGKANCOMNF": [
                    {
                        "ICJCCJILFON": [
                            "HitBox_Head",
                            "HitBox_Tail_01",
                            "HitBox_Tail_02",
                            "HitBox_Tail_03"
                        ]
                    },
                    {
                        "DFDJFCEEEPD": 0.20000000298023224,
                        "ICJCCJILFON": [
                            "HitBox_Body"
                        ]
                    },
                    {
                        "DFDJFCEEEPD": 0.4000000059604645,
                        "ICJCCJILFON": [
                            "HitBox_ForeL_Up",
                            "HitBox_ForeL_Down"
                        ]
                    },
                    {
                        "DFDJFCEEEPD": 0.6000000238418579,
                        "ICJCCJILFON": [
                            "HitBox_ForeR_Up",
                            "HitBox_ForeR_Down"
                        ]
                    },
                    {
                        "DFDJFCEEEPD": 0.800000011920929,
                        "ICJCCJILFON": [
                            "HitBox_HindL_Up",
                            "HitBox_HindL_Down"
                        ]
                    },
                    {
                        "DFDJFCEEEPD": 1.0,
                        "ICJCCJILFON": [
                            "HitBox_HindR_Up",
                            "HitBox_HindR_Down"
                        ]
                    }
                ]
            }
        },
        "INCPHOFGIJA": {
            "FGJIHAKMLBG": "CircleLockEnemy",
            "BGMEKAEIOGA": "Boss_Lv5"
        },
        "JCCJMILDEAM": {
            "ODGDMCPOMAJ": true,
            "GKFDFDFJJFB": 1.0,
            "FNIJBPMPCHA": 3.5,
            "BCHFMGGBEFN": "",
            "LEDBOLGDENF": true,
            "IEAKKMEDNDE": true,
            "AAEANOPIAAL": true,
            "IBBHGBHIHCI": true,
            "BKIBMIAJOHP": true,
            "MOFPBPPGPCL": true
        }
    },
    "IGPKOOHPBFG": [
        {
            "FPLENFAEDIB": "Monster_Dahaka_MoveState",
            "KAJGDIHNKNE": "Monster_Dahaka_MoveState",
            "BIAMBCDKJKP": ""
        },
        {
            "FPLENFAEDIB": "Monster_Dahaka_CameraState",
            "KAJGDIHNKNE": "Monster_Dahaka_CameraState",
            "BIAMBCDKJKP": ""
        },
        {
            "FPLENFAEDIB": "Monster_Dahaka_SealedEffect",
            "KAJGDIHNKNE": "Monster_Dahaka_SealedEffect",
            "BIAMBCDKJKP": ""
        },
        {
            "FPLENFAEDIB": "Dahaka_Sealed_Roar_CameraShake",
            "KAJGDIHNKNE": "Dahaka_Sealed_Roar_CameraShake",
            "BIAMBCDKJKP": ""
        },
        {
            "FPLENFAEDIB": "Dahaka_Sealed_Fore_CameraShake",
            "KAJGDIHNKNE": "Dahaka_Sealed_Fore_CameraShake",
            "BIAMBCDKJKP": ""
        },
        {
            "FPLENFAEDIB": "Monster_Dahaka_Random",
            "KAJGDIHNKNE": "Monster_Dahaka_Random",
            "BIAMBCDKJKP": ""
        },
        {
            "FPLENFAEDIB": "Monster_Dahaka_Steer",
            "KAJGDIHNKNE": "Monster_Dahaka_Steer",
            "BIAMBCDKJKP": ""
        },
        {
            "FPLENFAEDIB": "Monster_Dahaka_Trample_ForeL_Effect",
            "KAJGDIHNKNE": "Monster_Dahaka_Trample_ForeL_Effect",
            "BIAMBCDKJKP": ""
        },
        {
            "FPLENFAEDIB": "Monster_Dahaka_Trample_ForeR_Effect",
            "KAJGDIHNKNE": "Monster_Dahaka_Trample_ForeR_Effect",
            "BIAMBCDKJKP": ""
        },
        {
            "FPLENFAEDIB": "Monster_Dahaka_Trample_HindL_Effect",
            "KAJGDIHNKNE": "Monster_Dahaka_Trample_HindL_Effect",
            "BIAMBCDKJKP": ""
        },
        {
            "FPLENFAEDIB": "Monster_Dahaka_Trample_HindR_Effect",
            "KAJGDIHNKNE": "Monster_Dahaka_Trample_HindR_Effect",
            "BIAMBCDKJKP": ""
        },
        {
            "FPLENFAEDIB": "Monster_Dahaka_Trample_ForeR_Attack",
            "KAJGDIHNKNE": "Monster_Dahaka_Trample_ForeR_Attack",
            "BIAMBCDKJKP": ""
        },
        {
            "FPLENFAEDIB": "Monster_Dahaka_Trample_ForeL_Attack",
            "KAJGDIHNKNE": "Monster_Dahaka_Trample_ForeL_Attack",
            "BIAMBCDKJKP": ""
        },
        {
            "FPLENFAEDIB": "Monster_Dahaka_Trample_HindL_Attack",
            "KAJGDIHNKNE": "Monster_Dahaka_Trample_HindL_Attack",
            "BIAMBCDKJKP": ""
        },
        {
            "FPLENFAEDIB": "Monster_Dahaka_Trample_HindR_Attack",
            "KAJGDIHNKNE": "Monster_Dahaka_Trample_HindR_Attack",
            "BIAMBCDKJKP": ""
        },
        {
            "FPLENFAEDIB": "Monster_Dahaka_CreateFireArea",
            "KAJGDIHNKNE": "Monster_Dahaka_CreateFireArea",
            "BIAMBCDKJKP": ""
        },
        {
            "FPLENFAEDIB": "Monster_Dahaka_SlamGround",
            "KAJGDIHNKNE": "Monster_Dahaka_SlamGround",
            "BIAMBCDKJKP": ""
        },
        {
            "FPLENFAEDIB": "Monster_Dahaka_Sting",
            "KAJGDIHNKNE": "Monster_Dahaka_Sting",
            "BIAMBCDKJKP": ""
        },
        {
            "FPLENFAEDIB": "Monster_Dahaka_Dash_Effect_Dust",
            "KAJGDIHNKNE": "Monster_Dahaka_Dash_Effect_Dust",
            "BIAMBCDKJKP": ""
        },
        {
            "FPLENFAEDIB": "Monster_Dahaka_Dash_Effect",
            "KAJGDIHNKNE": "Monster_Dahaka_Dash_Effect",
            "BIAMBCDKJKP": ""
        },
        {
            "FPLENFAEDIB": "Monster_Dahaka_Dash_Attack_Dash",
            "KAJGDIHNKNE": "Monster_Dahaka_Dash_Attack_Dash",
            "BIAMBCDKJKP": ""
        },
        {
            "FPLENFAEDIB": "Monster_Dahaka_Dash_Attack_DashAS",
            "KAJGDIHNKNE": "Monster_Dahaka_Dash_Attack_DashAS",
            "BIAMBCDKJKP": ""
        },
        {
            "FPLENFAEDIB": "Monster_Dahaka_Dash_CameraShake",
            "KAJGDIHNKNE": "Monster_Dahaka_Dash_CameraShake",
            "BIAMBCDKJKP": ""
        },
        {
            "FPLENFAEDIB": "Monster_Dahaka_SwapR_Effect",
            "KAJGDIHNKNE": "Monster_Dahaka_SwapR_Effect",
            "BIAMBCDKJKP": ""
        },
        {
            "FPLENFAEDIB": "Monster_Dahaka_SwapL_Effect",
            "KAJGDIHNKNE": "Monster_Dahaka_SwapL_Effect",
            "BIAMBCDKJKP": ""
        },
        {
            "FPLENFAEDIB": "Monster_Dahaka_SwapR_Attack",
            "KAJGDIHNKNE": "Monster_Dahaka_SwapR_Attack",
            "BIAMBCDKJKP": ""
        },
        {
            "FPLENFAEDIB": "Monster_Dahaka_SwapL_Attack",
            "KAJGDIHNKNE": "Monster_Dahaka_SwapL_Attack",
            "BIAMBCDKJKP": ""
        },
        {
            "FPLENFAEDIB": "Monster_Dahaka_Swap_CameraShake",
            "KAJGDIHNKNE": "Monster_Dahaka_Swap_CameraShake",
            "BIAMBCDKJKP": ""
        },
        {
            "FPLENFAEDIB": "Monster_Dahaka_Swap_CreateGadget",
            "KAJGDIHNKNE": "Monster_Dahaka_Swap_CreateGadget",
            "BIAMBCDKJKP": ""
        },
        {
            "FPLENFAEDIB": "Monster_Dahaka_StrikeR_Effect",
            "KAJGDIHNKNE": "Monster_Dahaka_StrikeR_Effect",
            "BIAMBCDKJKP": ""
        },
        {
            "FPLENFAEDIB": "Monster_Dahaka_StrikeL_Effect",
            "KAJGDIHNKNE": "Monster_Dahaka_StrikeL_Effect",
            "BIAMBCDKJKP": ""
        },
        {
            "FPLENFAEDIB": "Monster_Dahaka_StrikeR_Attack",
            "KAJGDIHNKNE": "Monster_Dahaka_StrikeR_Attack",
            "BIAMBCDKJKP": ""
        },
        {
            "FPLENFAEDIB": "Monster_Dahaka_StrikeL_Attack",
            "KAJGDIHNKNE": "Monster_Dahaka_StrikeL_Attack",
            "BIAMBCDKJKP": ""
        },
        {
            "FPLENFAEDIB": "Monster_Dahaka_Strike_CameraShake",
            "KAJGDIHNKNE": "Monster_Dahaka_Strike_CameraShake",
            "BIAMBCDKJKP": ""
        },
        {
            "FPLENFAEDIB": "Monster_Dahaka_MoveEffect_ForeR",
            "KAJGDIHNKNE": "Monster_Dahaka_MoveEffect_ForeR",
            "BIAMBCDKJKP": ""
        },
        {
            "FPLENFAEDIB": "Monster_Dahaka_MoveEffect_ForeL",
            "KAJGDIHNKNE": "Monster_Dahaka_MoveEffect_ForeL",
            "BIAMBCDKJKP": ""
        },
        {
            "FPLENFAEDIB": "Monster_Dahaka_MoveEffect_HindL",
            "KAJGDIHNKNE": "Monster_Dahaka_MoveEffect_HindL",
            "BIAMBCDKJKP": ""
        },
        {
            "FPLENFAEDIB": "Monster_Dahaka_MoveEffect_HindR",
            "KAJGDIHNKNE": "Monster_Dahaka_MoveEffect_HindR",
            "BIAMBCDKJKP": ""
        },
        {
            "FPLENFAEDIB": "Monster_Dahaka_Hack_Effect",
            "KAJGDIHNKNE": "Monster_Dahaka_Hack_Effect",
            "BIAMBCDKJKP": ""
        },
        {
            "FPLENFAEDIB": "Monster_Dahaka_Hack_Attack",
            "KAJGDIHNKNE": "Monster_Dahaka_Hack_Attack",
            "BIAMBCDKJKP": ""
        },
        {
            "FPLENFAEDIB": "Monster_Dahaka_Breath",
            "KAJGDIHNKNE": "Monster_Dahaka_Breath",
            "BIAMBCDKJKP": ""
        },
        {
            "FPLENFAEDIB": "Monster_Dahaka_ShockWave",
            "KAJGDIHNKNE": "Monster_Dahaka_ShockWave",
            "BIAMBCDKJKP": ""
        },
        {
            "FPLENFAEDIB": "Monster_Dahaka_EarthQuakeAS_Effect",
            "KAJGDIHNKNE": "Monster_Dahaka_EarthQuakeAS_Effect",
            "BIAMBCDKJKP": ""
        },
        {
            "FPLENFAEDIB": "Monster_Dahaka_EarthQuakeAS_Attack",
            "KAJGDIHNKNE": "Monster_Dahaka_EarthQuakeAS_Attack",
            "BIAMBCDKJKP": ""
        },
        {
            "FPLENFAEDIB": "Monster_Dahaka_EarthQuakeLoop_Effect",
            "KAJGDIHNKNE": "Monster_Dahaka_EarthQuakeLoop_Effect",
            "BIAMBCDKJKP": ""
        },
        {
            "FPLENFAEDIB": "Monster_Dahaka_EarthQuakeLoop_Attack",
            "KAJGDIHNKNE": "Monster_Dahaka_EarthQuakeLoop_Attack",
            "BIAMBCDKJKP": ""
        },
        {
            "FPLENFAEDIB": "Monster_Dahaka_Swim",
            "KAJGDIHNKNE": "Monster_Dahaka_Swim",
            "BIAMBCDKJKP": ""
        },
        {
            "FPLENFAEDIB": "Monster_Dahaka_DiveBS",
            "KAJGDIHNKNE": "Monster_Dahaka_DiveBS",
            "BIAMBCDKJKP": ""
        },
        {
            "FPLENFAEDIB": "Monster_Dahaka_DiveAS",
            "KAJGDIHNKNE": "Monster_Dahaka_DiveAS",
            "BIAMBCDKJKP": ""
        },
        {
            "FPLENFAEDIB": "Monster_Dahaka_BlinkBS",
            "KAJGDIHNKNE": "Monster_Dahaka_BlinkBS",
            "BIAMBCDKJKP": ""
        },
        {
            "FPLENFAEDIB": "Monster_Dahaka_Blink_FindBlinkPoint",
            "KAJGDIHNKNE": "Monster_Dahaka_Blink_FindBlinkPoint",
            "BIAMBCDKJKP": ""
        },
        {
            "FPLENFAEDIB": "Monster_Dahaka_ReturnToCenter_FindBlinkPoint",
            "KAJGDIHNKNE": "Monster_Dahaka_ReturnToCenter_FindBlinkPoint",
            "BIAMBCDKJKP": ""
        },
        {
            "FPLENFAEDIB": "Monster_Dahaka_Blink",
            "KAJGDIHNKNE": "Monster_Dahaka_Blink",
            "BIAMBCDKJKP": ""
        },
        {
            "FPLENFAEDIB": "Monster_Dahaka_BlinkAS",
            "KAJGDIHNKNE": "Monster_Dahaka_BlinkAS",
            "BIAMBCDKJKP": ""
        },
        {
            "FPLENFAEDIB": "Monster_Dahaka_ElementBurstAS",
            "KAJGDIHNKNE": "Monster_Dahaka_ElementBurstAS",
            "BIAMBCDKJKP": ""
        }
    ],
    "GGIOJAMBNPO": {
        "defaultLayer": {
            "$type": "EPAPJJAGHKG",
            "ACOCIAFGIAD": "",
            "LFGKIDDJIED": {
                "Born": {
                    "$type": "IJOIMFMEGMM",
                    "DLOHGBDFFGB": {
                        "Born": []
                    },
                    "DLAOMOCMANL": [
                        "DoSkill"
                    ]
                },
                "Debut": {
                    "$type": "IJOIMFMEGMM",
                    "DLOHGBDFFGB": {
                        "Debut": [
                            "Monster_Dahaka_Debut",
                            "Audio_Dahaka_Debut"
                        ]
                    },
                    "DLAOMOCMANL": [
                        "DoSkill"
                    ]
                },
                "NormalIdle": {
                    "$type": "IJOIMFMEGMM",
                    "DLOHGBDFFGB": {
                        "Standby": []
                    },
                    "POLKCLOHPOO": true,
                    "PGKCBIHGAOC": true,
                    "DLAOMOCMANL": [
                        "DoSkill"
                    ]
                },
                "DiveToSwim": {
                    "$type": "IJOIMFMEGMM",
                    "DLOHGBDFFGB": {
                        "DiveToSwim": [
                            "Audio_Dahaka_DiveToSwin"
                        ]
                    },
                    "DLAOMOCMANL": [
                        "DoSkill"
                    ]
                },
                "NormalMove": {
                    "$type": "IJOIMFMEGMM",
                    "DLOHGBDFFGB": {
                        "WalkForward": [
                            "Monster_Dahaka_Walk",
                            "Audio_Dahaka_WalkForward"
                        ]
                    },
                    "PGKCBIHGAOC": true,
                    "DLAOMOCMANL": [
                        "DoSkill"
                    ],
                    "LIPMJPLGIKD": true
                },
                "Swim": {
                    "$type": "IJOIMFMEGMM",
                    "DLOHGBDFFGB": {
                        "Swim": []
                    },
                    "POLKCLOHPOO": true,
                    "PGKCBIHGAOC": true,
                    "DLAOMOCMANL": [
                        "DoSkill"
                    ],
                    "LIPMJPLGIKD": true
                },
                "TurnL": {
                    "$type": "IJOIMFMEGMM",
                    "DLOHGBDFFGB": {
                        "TurnLeft": [
                            "Monster_Dahaka_TurnL",
                            "Audio_Dahaka_TurnLeft"
                        ]
                    },
                    "DLAOMOCMANL": [
                        "DoSkill"
                    ],
                    "LIPMJPLGIKD": true,
                    "ODINBNMGLGA": true
                },
                "TurnR": {
                    "$type": "IJOIMFMEGMM",
                    "DLOHGBDFFGB": {
                        "TurnRight": [
                            "Monster_Dahaka_TurnR",
                            "Audio_Dahaka_TurnRight"
                        ]
                    },
                    "DLAOMOCMANL": [
                        "DoSkill"
                    ],
                    "LIPMJPLGIKD": true,
                    "ODINBNMGLGA": true
                },
                "Die": {
                    "$type": "IJOIMFMEGMM",
                    "DLOHGBDFFGB": {
                        "Die": [
                            "Monster_Dahaka_Die"
                        ]
                    }
                },
                "Trample_BS": {
                    "$type": "IJOIMFMEGMM",
                    "DLOHGBDFFGB": {
                        "Trample_ForeL_BS": [
                            "Monster_Dahaka_Trample_ForeL",
                            "Audio_Dahaka_Trample_ForeL_BS"
                        ],
                        "Trample_ForeR_BS": [
                            "Monster_Dahaka_Trample_ForeR",
                            "Audio_Dahaka_Trample_ForeL_BS"
                        ],
                        "Trample_HindL_BS": [
                            "Monster_Dahaka_Trample_HindL",
                            "Audio_Dahaka_Trample_HindL_BS"
                        ],
                        "Trample_HindR_BS": [
                            "Monster_Dahaka_Trample_HindR",
                            "Audio_Dahaka_Trample_HindL_BS"
                        ]
                    },
                    "DLAOMOCMANL": [
                        "DoSkill"
                    ]
                },
                "Trample_AS": {
                    "$type": "IJOIMFMEGMM",
                    "DLOHGBDFFGB": {
                        "Trample_ForeL_AS": [],
                        "Trample_ForeR_AS": [],
                        "Trample_HindL_AS": [],
                        "Trample_HindR_AS": []
                    },
                    "DLAOMOCMANL": [
                        "DoSkill"
                    ]
                },
                "Dash_BS": {
                    "$type": "IJOIMFMEGMM",
                    "DLOHGBDFFGB": {
                        "Dash_BS": [
                            "Monster_Dahaka_Dash",
                            "Audio_Dahaka_Dash_BS"
                        ]
                    },
                    "DLAOMOCMANL": [
                        "DoSkill"
                    ]
                },
                "Dash_AS": {
                    "$type": "IJOIMFMEGMM",
                    "DLOHGBDFFGB": {
                        "Dash_AS": []
                    },
                    "DLAOMOCMANL": [
                        "DoSkill"
                    ]
                },
                "Hack_BS": {
                    "$type": "IJOIMFMEGMM",
                    "DLOHGBDFFGB": {
                        "Hack_BS": [
                            "Monster_Dahaka_Hack",
                            "Audio_Dahaka_Hack_BS"
                        ]
                    },
                    "DLAOMOCMANL": [
                        "DoSkill"
                    ]
                },
                "Hack_AS": {
                    "$type": "IJOIMFMEGMM",
                    "DLOHGBDFFGB": {
                        "Hack_AS": []
                    },
                    "DLAOMOCMANL": [
                        "DoSkill"
                    ]
                },
                "SlamGround_BS": {
                    "$type": "IJOIMFMEGMM",
                    "DLOHGBDFFGB": {
                        "SlamGround_BS": [
                            "Monster_Dahaka_SlamGround",
                            "Audio_Dahaka_SlamGround_BS"
                        ]
                    },
                    "DLAOMOCMANL": [
                        "DoSkill"
                    ]
                },
                "SlamGround_AS": {
                    "$type": "IJOIMFMEGMM",
                    "DLOHGBDFFGB": {
                        "SlamGround_AS": []
                    },
                    "DLAOMOCMANL": [
                        "DoSkill"
                    ]
                },
                "Dive_BS": {
                    "$type": "IJOIMFMEGMM",
                    "DLOHGBDFFGB": {
                        "Dive_BS": [
                            "Monster_Dahaka_DiveBS",
                            "Audio_Dahaka_Dive_BS"
                        ],
                        "Dive_BS_UnderGround": []
                    },
                    "DLAOMOCMANL": [
                        "DoSkill"
                    ]
                },
                "Dive_AS": {
                    "$type": "IJOIMFMEGMM",
                    "DLOHGBDFFGB": {
                        "Dive_AS": [
                            "Monster_Dahaka_DiveAS",
                            "Audio_Dahaka_Dive_AS"
                        ]
                    },
                    "DLAOMOCMANL": [
                        "DoSkill"
                    ]
                },
                "Grub": {
                    "$type": "IJOIMFMEGMM",
                    "DLOHGBDFFGB": {
                        "SwimToGrub": [
                            "Monster_Dahaka_SwimToGrub",
                            "Audio_Dahaka_DiveToSwin"
                        ],
                        "Grub_BS": [
                            "Monster_Dahaka_GrubBS"
                        ],
                        "Grub": [
                            "Monster_Dahaka_Grub",
                            "Audio_Dahaka_Grub"
                        ]
                    },
                    "DLAOMOCMANL": [
                        "DoSkill"
                    ]
                },
                "Grub_AS": {
                    "$type": "IJOIMFMEGMM",
                    "DLOHGBDFFGB": {
                        "Grub_AS": [
                            "Monster_Dahaka_GrubAS",
                            "Audio_Dahaka_DiveToSwin"
                        ]
                    },
                    "DLAOMOCMANL": [
                        "DoSkill"
                    ]
                },
                "ElementBurst": {
                    "$type": "IJOIMFMEGMM",
                    "DLOHGBDFFGB": {
                        "ElementBurst_BS": [
                            "Audio_Dahaka_ElementBurst_BS"
                        ],
                        "ElementBurst_Loop": [],
                        "ElementBurst_AS": [
                            "Audio_Dahaka_ElementBurst_AS"
                        ],
                        "ElementBurst_OnGround": [
                            "Monster_Dahaka_DiveAS",
                            "Audio_Dahaka_Dive_AS"
                        ]
                    },
                    "DLAOMOCMANL": [
                        "DoSkill"
                    ]
                },
                "Swap_BS": {
                    "$type": "IJOIMFMEGMM",
                    "DLOHGBDFFGB": {
                        "SwapL_BS": [
                            "Monster_Dahaka_SwapL",
                            "Audio_Dahaka_SwapL_BS"
                        ],
                        "SwapR_BS": [
                            "Monster_Dahaka_SwapR",
                            "Audio_Dahaka_SwapR_BS"
                        ]
                    },
                    "DLAOMOCMANL": [
                        "DoSkill"
                    ],
                    "LIPMJPLGIKD": true,
                    "ODINBNMGLGA": true
                },
                "Swap_AS": {
                    "$type": "IJOIMFMEGMM",
                    "DLOHGBDFFGB": {
                        "SwapL_AS": [],
                        "SwapR_AS": []
                    },
                    "DLAOMOCMANL": [
                        "DoSkill"
                    ]
                },
                "Strike_BS": {
                    "$type": "IJOIMFMEGMM",
                    "DLOHGBDFFGB": {
                        "StrikeL_BS": [
                            "Monster_Dahaka_StrikeL",
                            "Audio_Dahaka_StrikeL_BS"
                        ],
                        "StrikeR_BS": [
                            "Monster_Dahaka_StrikeR",
                            "Audio_Dahaka_StrikeR_BS"
                        ]
                    },
                    "DLAOMOCMANL": [
                        "DoSkill"
                    ],
                    "LIPMJPLGIKD": true,
                    "ODINBNMGLGA": true
                },
                "Strike_AS": {
                    "$type": "IJOIMFMEGMM",
                    "DLOHGBDFFGB": {
                        "StrikeL_AS": [],
                        "StrikeR_AS": []
                    },
                    "DLAOMOCMANL": [
                        "DoSkill"
                    ]
                },
                "Roar_BS": {
                    "$type": "IJOIMFMEGMM",
                    "DLOHGBDFFGB": {
                        "Roar_BS": [
                            "Monster_Dahaka_RoarBS",
                            "Audio_Dahaka_Roar_BS"
                        ]
                    },
                    "DLAOMOCMANL": [
                        "DoSkill"
                    ]
                },
                "Roar": {
                    "$type": "IJOIMFMEGMM",
                    "DLOHGBDFFGB": {
                        "Roar_Attack": [
                            "Audio_Dahaka_Roar_Attack"
                        ]
                    },
                    "DLAOMOCMANL": [
                        "DoSkill"
                    ]
                },
                "Roar_AS": {
                    "$type": "IJOIMFMEGMM",
                    "DLOHGBDFFGB": {
                        "Roar_AS": [
                            "Monster_Dahaka_RoarAS",
                            "Audio_Dahaka_Roar_AS"
                        ]
                    },
                    "DLAOMOCMANL": [
                        "DoSkill"
                    ]
                },
                "Sting_BS": {
                    "$type": "IJOIMFMEGMM",
                    "DLOHGBDFFGB": {
                        "Sting_BS": [
                            "Monster_Dahaka_Sting",
                            "Audio_Dahaka_Sting_BS"
                        ]
                    },
                    "DLAOMOCMANL": [
                        "DoSkill"
                    ]
                },
                "Sting_AS": {
                    "$type": "IJOIMFMEGMM",
                    "DLOHGBDFFGB": {
                        "Sting_AS": [
                            "Audio_Dahaka_Sting_AS"
                        ]
                    },
                    "DLAOMOCMANL": [
                        "DoSkill"
                    ]
                },
                "Breath_BS": {
                    "$type": "IJOIMFMEGMM",
                    "DLOHGBDFFGB": {
                        "BreathL_BS": [
                            "Audio_Dahaka_BreathL_BS"
                        ],
                        "BreathR_BS": [
                            "Audio_Dahaka_BreathL_AS"
                        ]
                    },
                    "DLAOMOCMANL": [
                        "DoSkill"
                    ]
                },
                "Breath": {
                    "$type": "IJOIMFMEGMM",
                    "DLOHGBDFFGB": {
                        "BreathL_Attack": [
                            "Audio_Dahaka_BreathL_Attack"
                        ],
                        "BreathL_AS": [],
                        "BreathR_Attack": [
                            "Audio_Dahaka_BreathL_Attack"
                        ],
                        "BreathR_AS": []
                    },
                    "DLAOMOCMANL": [
                        "DoSkill"
                    ]
                },
                "ElementSpring": {
                    "$type": "IJOIMFMEGMM",
                    "DLOHGBDFFGB": {
                        "ElementSpring_BS": [
                            "Audio_Dahaka_ElementSpring_BS"
                        ],
                        "ElementSpring_AS": [
                            "Audio_Dahaka_ElementSpring_AS"
                        ]
                    },
                    "DLAOMOCMANL": [
                        "DoSkill"
                    ]
                },
                "EarthQuake": {
                    "$type": "IJOIMFMEGMM",
                    "DLOHGBDFFGB": {
                        "EarthQuake_BS": [
                            "Audio_Dahaka_EarthQuake_BS",
                            "Monster_Dahaka_EarthQuakeBS"
                        ],
                        "EarthQuake_Loop": [
                            "Monster_Dahaka_EarthQuakeLoop",
                            "Audio_Dahaka_EarthQuake_Loop"
                        ],
                        "EarthQuake_AS": [
                            "Monster_Dahaka_EarthQuakeAS",
                            "Audio_Dahaka_EarthQuake_AS"
                        ]
                    },
                    "DLAOMOCMANL": [
                        "DoSkill"
                    ]
                },
                "ShockWave": {
                    "$type": "IJOIMFMEGMM",
                    "DLOHGBDFFGB": {
                        "ShockWave": [
                            "Monster_Dahaka_ShockWave",
                            "Audio_Dahaka_ShockWave"
                        ]
                    },
                    "DLAOMOCMANL": [
                        "DoSkill"
                    ]
                },
                "Switch01": {
                    "$type": "IJOIMFMEGMM",
                    "DLOHGBDFFGB": {
                        "Switch01": [
                            "Audio_Dahaka_Switch01"
                        ]
                    },
                    "DLAOMOCMANL": [
                        "DoSkill"
                    ]
                },
                "Switch02": {
                    "$type": "IJOIMFMEGMM",
                    "DLOHGBDFFGB": {
                        "Switch02": [
                            "Audio_Dahaka_Switch02",
                            "Monster_Dahaka_Switch02"
                        ]
                    },
                    "DLAOMOCMANL": [
                        "DoSkill"
                    ]
                },
                "Random01": {
                    "$type": "IJOIMFMEGMM",
                    "DLOHGBDFFGB": {
                        "Random01": [
                            "Audio_Dahaka_Random01"
                        ]
                    },
                    "DLAOMOCMANL": [
                        "DoSkill"
                    ]
                },
                "Random02": {
                    "$type": "IJOIMFMEGMM",
                    "DLOHGBDFFGB": {
                        "Random02": [
                            "Audio_Dahaka_Random02"
                        ]
                    },
                    "DLAOMOCMANL": [
                        "DoSkill"
                    ]
                },
                "ReturnToCenter": {
                    "$type": "IJOIMFMEGMM",
                    "DLOHGBDFFGB": {
                        "ReturnToCenter_BS": [
                            "Monster_Dahaka_ReturnToCenterBS",
                            "Monster_Dahaka_DiveBS",
                            "Audio_Dahaka_ReturnToCenter_BS"
                        ],
                        "ReturnToCenter_AS": [
                            "Monster_Dahaka_ReturnToCenterAS",
                            "Monster_Dahaka_DiveAS",
                            "Audio_Dahaka_Dive_AS"
                        ]
                    },
                    "DLAOMOCMANL": [
                        "DoSkill"
                    ]
                },
                "GrubToCenter": {
                    "$type": "IJOIMFMEGMM",
                    "DLOHGBDFFGB": {
                        "GrubToCenter_BS": [
                            "Audio_Dahaka_GrubToCenter_BS",
                            "Monster_Dahaka_GrubToCenterBS"
                        ],
                        "GrubToCenter": [
                            "Monster_Dahaka_GrubToCenter"
                        ],
                        "GrubToCenter_AS": [
                            "Monster_Dahaka_ReturnToCenterAS",
                            "Monster_Dahaka_DiveAS",
                            "Audio_Dahaka_Dive_AS"
                        ]
                    },
                    "DLAOMOCMANL": [
                        "DoSkill"
                    ]
                }
            }
        }
    },
    "MMJIDCNDBOM": {
        "PIKLGKMDLPK": [
            {
                "$type": "LDMLICJCDGJ",
                "KGCNNCJAGAD": 50.0,
                "FKKOFBENLDH": "Neck",
                "EIDHKPPOFPP": "Parent",
                "HNCAADMACMJ": {
                    "y": 90.0,
                    "z": 180.0
                },
                "PCDAJCPIMMC": "RotateToForward",
                "HJECIEPIAGL": "",
                "ILHJAKDAGEM": 30.0,
                "HIIKALDNNJI": 30.0,
                "BELJNLGKLHG": "Neck",
                "CHNLKJMGOAL": {
                    "y": -10.0
                },
                "HIBLMONGOAD": 30.0
            }
        ]
    },
    "IEFGNHABHFH": {
        "$type": "PAOBAEKGGBC",
        "JBKMLLFNHAL": "BillboardAttach",
        "NDKBHOOPGNA": {
            "y": 1.0
        },
        "LOMMBJLKPHE": 1.0,
        "MGDADGKCGHM": 200.0,
        "KGHAGECNJPO": true,
        "MGLEAPLEHFN": "Grand"
    },
    "IONIFBIBFNL": {
        "Default": {}
    },
    "PDCDMABCPOA": {
        "ENLKMOKHELD": true,
        "LFINILDKIOL": "Dahaka",
        "KGDGKFHPJPO": {
            "NAHAOOOGKLG": false,
            "NLGDNEMIKPE": "Undead01",
            "PJMBMPINKON": 5.0,
            "NNPOPGCMKBH": 5.0,
            "KBOIPCNJKDP": {
                "MOGKPDJMBBG": 0.25,
                "IDCDDDHHJGJ": 0.5,
                "FLKGGBHHNEN": 7.5,
                "GPNMJALNDJN": 8.0,
                "NEHDNNELDIM": 2
            }
        },
        "MLFDLABBFJK": {
            "LIICMFNHEMI": {
                "P1": [
                    101,
                    102,
                    151,
                    152
                ],
                "P2": [
                    201,
                    202,
                    251,
                    252
                ],
                "P3": [
                    301,
                    302
                ]
            }
        },
        "OCBDDDCJANP": {
            "IJOBKDKBEME": {
                "DefaultSetting": {
                    "PHDIIPOBJGA": 100.0,
                    "MELADMKNPHC": true,
                    "BHOECAJIBOM": 25.0
                }
            }
        },
        "EJOLGMGAECP": {
            "OFANIFGIFLN": 1000.0,
            "PLCPHNHGFAC": 10.0,
            "HJODDLMLPBJ": 10.0,
            "KICEOILEEPP": 10.0,
            "JEAMBMPMOAC": 1000.0,
            "IBGELAGCJFH": "Monster_TauntLevel_5",
            "OHFIEECNCHI": true,
            "JGFOPCOIJOI": ""
        },
        "PMNPDDIOHHJ": {
            "OKMHHFALCCH": 120.0
        },
        "JLKBBPGPEAA": {
            "FMFBMENJLJF": "Best"
        },
        "CNAPABCFOAH": {
            "LNFOCHIGPKF": true,
            "MJGGALAFJOL": false
        },
        "IEMFHBCDJFP": [
            {
                "BIMBEJCAFLP": 1,
                "DIAPGOFDGLC": 4.0
            },
            {
                "BIMBEJCAFLP": 2,
                "DIAPGOFDGLC": 5.0
            },
            {
                "BIMBEJCAFLP": 3,
                "DIAPGOFDGLC": 75.0
            },
            {
                "BIMBEJCAFLP": 4,
                "DIAPGOFDGLC": 80.0
            },
            {
                "BIMBEJCAFLP": 5,
                "DIAPGOFDGLC": 999999.0
            },
            {
                "BIMBEJCAFLP": 6,
                "DIAPGOFDGLC": 135.0
            },
            {
                "BIMBEJCAFLP": 7,
                "DIAPGOFDGLC": 999999.0
            },
            {
                "BIMBEJCAFLP": 8,
                "DIAPGOFDGLC": 999999.0
            },
            {
                "BIMBEJCAFLP": 9,
                "DIAPGOFDGLC": 80.0
            },
            {
                "BIMBEJCAFLP": 10,
                "DIAPGOFDGLC": 5.0
            },
            {
                "BIMBEJCAFLP": 11,
                "DIAPGOFDGLC": 5.0
            },
            {
                "BIMBEJCAFLP": 12,
                "DIAPGOFDGLC": 999999.0
            },
            {
                "BIMBEJCAFLP": 13,
                "DIAPGOFDGLC": 145.0
            },
            {
                "BIMBEJCAFLP": 14,
                "DIAPGOFDGLC": 3.0
            },
            {
                "BIMBEJCAFLP": 15,
                "DIAPGOFDGLC": 15.0
            },
            {
                "BIMBEJCAFLP": 16,
                "DIAPGOFDGLC": 15.0
            },
            {
                "BIMBEJCAFLP": 17,
                "DIAPGOFDGLC": 40.0
            }
        ],
        "HEJKJODINHK": {
            "GMBKODANLGP": {
                "1": [
                    1,
                    101,
                    102,
                    201,
                    301,
                    302,
                    401,
                    411,
                    501,
                    601,
                    701,
                    801,
                    901,
                    902,
                    1001,
                    1002,
                    1201,
                    1211,
                    1301,
                    1302,
                    1303,
                    1311,
                    1312,
                    1313,
                    1401,
                    1402,
                    1501,
                    1502,
                    1511,
                    1512,
                    1601,
                    1611,
                    2001
                ],
                "2": [
                    1,
                    101,
                    102,
                    201,
                    312,
                    313,
                    401,
                    411,
                    501,
                    601,
                    701,
                    801,
                    901,
                    902,
                    1001,
                    1002,
                    1304,
                    1314,
                    2001
                ]
            }
        },
        "BNIENJNLAIJ": {
            "1": {
                "NOKKDDHKGAK": "OnAlert",
                "IKMCLKEPDFP": "OnAlert",
                "HAOJJHNOGHO": true,
                "ENKLFBHHOJI": {
                    "CEKMINILIFB": [
                        1
                    ]
                },
                "PAHIDIJLGPF": 999999.0,
                "NOPNCNPCPJE": "",
                "HGAMDGAEIGO": "",
                "LFGKIDDJIED": [
                    "Debut"
                ],
                "NNJBOCFBGJG": 3.5,
                "PGPDNPMFFAG": "10",
                "CCEAGFDONFH": "01",
                "OKOFHICILMD": "10",
                "CCFFFOIDOLP": "11"
            },
            "101": {
                "NOKKDDHKGAK": "Trample",
                "MBDAAADDHNL": 4,
                "ENKLFBHHOJI": {
                    "CEKMINILIFB": [
                        101,
                        201,
                        301
                    ],
                    "MLFAMHDFHMM": 10.0
                },
                "PAHIDIJLGPF": 3.0,
                "GPMLADFJAAH": 3.0,
                "NOPNCNPCPJE": "",
                "IDPMFPAPNCE": false,
                "BIMBEJCAFLP": 1,
                "HGAMDGAEIGO": "",
                "LFGKIDDJIED": [
                    "Trample_BS",
                    "Trample_AS"
                ],
                "NNJBOCFBGJG": 3.0,
                "PGPDNPMFFAG": "10",
                "CCEAGFDONFH": "01",
                "OKOFHICILMD": "10",
                "CCFFFOIDOLP": "11"
            },
            "102": {
                "NOKKDDHKGAK": "Trample",
                "ENKLFBHHOJI": {
                    "CEKMINILIFB": [
                        101,
                        201,
                        301
                    ],
                    "OLDIEKKCIOG": 10.0,
                    "MLFAMHDFHMM": 16.5
                },
                "PAHIDIJLGPF": 3.0,
                "GPMLADFJAAH": 3.0,
                "NOPNCNPCPJE": "",
                "IDPMFPAPNCE": false,
                "BIMBEJCAFLP": 1,
                "HGAMDGAEIGO": "",
                "LFGKIDDJIED": [
                    "Trample_BS",
                    "Trample_AS"
                ],
                "NNJBOCFBGJG": 3.0,
                "PGPDNPMFFAG": "10",
                "CCEAGFDONFH": "01",
                "OKOFHICILMD": "10",
                "CCFFFOIDOLP": "11"
            },
            "103": {
                "NOKKDDHKGAK": "Trample",
                "ENKLFBHHOJI": {
                    "CEKMINILIFB": [
                        201,
                        301
                    ],
                    "MLFAMHDFHMM": 30.0,
                    "OHOKAEIMANF": [
                        "_DAHAKA_WATER_"
                    ]
                },
                "PAHIDIJLGPF": 3.0,
                "GPMLADFJAAH": 3.0,
                "NOPNCNPCPJE": "",
                "IDPMFPAPNCE": false,
                "BIMBEJCAFLP": 1,
                "HGAMDGAEIGO": "",
                "LFGKIDDJIED": [
                    "Trample_BS",
                    "Trample_AS"
                ],
                "NNJBOCFBGJG": 3.0,
                "PGPDNPMFFAG": "10",
                "CCEAGFDONFH": "01",
                "OKOFHICILMD": "10",
                "CCFFFOIDOLP": "11"
            },
            "201": {
                "NOKKDDHKGAK": "Dash",
                "MBDAAADDHNL": 4,
                "ENKLFBHHOJI": {
                    "CEKMINILIFB": [
                        101,
                        201,
                        301
                    ],
                    "CNBHICKKAHM": 0.0,
                    "OLKBBCIPHJB": 60.0,
                    "OLDIEKKCIOG": 10.0,
                    "MLFAMHDFHMM": 35.0
                },
                "PAHIDIJLGPF": 30.0,
                "GPMLADFJAAH": 10.0,
                "LKCFDIOMLCM": 25.0,
                "KKAEGIJIDLG": 10.0,
                "NOPNCNPCPJE": "",
                "LLNBBNIEGGO": true,
                "BIMBEJCAFLP": 2,
                "HGAMDGAEIGO": "",
                "LFGKIDDJIED": [
                    "Dash_BS",
                    "Dash_AS"
                ],
                "NNJBOCFBGJG": 3.0,
                "PGPDNPMFFAG": "10",
                "CCEAGFDONFH": "01",
                "OKOFHICILMD": "10",
                "CCFFFOIDOLP": "11"
            },
            "301": {
                "NOKKDDHKGAK": "Dive_BS",
                "MBDAAADDHNL": 2,
                "ENKLFBHHOJI": {
                    "CEKMINILIFB": [
                        101
                    ],
                    "JHPHNFCMCIL": true,
                    "MLFAMHDFHMM": 40.0
                },
                "PAHIDIJLGPF": 75.0,
                "GPMLADFJAAH": 15.0,
                "LKCFDIOMLCM": 22.5,
                "KKAEGIJIDLG": 7.5,
                "NOPNCNPCPJE": "",
                "BIMBEJCAFLP": 3,
                "HGAMDGAEIGO": "",
                "LFGKIDDJIED": [
                    "Dive_BS"
                ],
                "NNJBOCFBGJG": 3.0,
                "PGPDNPMFFAG": "10",
                "CCEAGFDONFH": "01",
                "OKOFHICILMD": "10",
                "CCFFFOIDOLP": "11"
            },
            "302": {
                "NOKKDDHKGAK": "Dive_BS",
                "MBDAAADDHNL": 2,
                "ENKLFBHHOJI": {
                    "CEKMINILIFB": [
                        101
                    ],
                    "JHPHNFCMCIL": true,
                    "OLDIEKKCIOG": 40.0
                },
                "PAHIDIJLGPF": 75.0,
                "GPMLADFJAAH": 15.0,
                "LKCFDIOMLCM": 5.0,
                "KKAEGIJIDLG": 5.0,
                "NOPNCNPCPJE": "",
                "BIMBEJCAFLP": 3,
                "HGAMDGAEIGO": "",
                "LFGKIDDJIED": [
                    "Dive_BS"
                ],
                "NNJBOCFBGJG": 3.0,
                "PGPDNPMFFAG": "10",
                "CCEAGFDONFH": "01",
                "OKOFHICILMD": "10",
                "CCFFFOIDOLP": "11"
            },
            "312": {
                "NOKKDDHKGAK": "Dive_BS",
                "MBDAAADDHNL": 1,
                "ENKLFBHHOJI": {
                    "CEKMINILIFB": [
                        201
                    ]
                },
                "PAHIDIJLGPF": 999999.0,
                "NOPNCNPCPJE": "",
                "LLNBBNIEGGO": true,
                "IDPMFPAPNCE": false,
                "HGAMDGAEIGO": "",
                "LFGKIDDJIED": [
                    "Dive_BS"
                ],
                "NNJBOCFBGJG": 5.0,
                "PGPDNPMFFAG": "10",
                "CCEAGFDONFH": "01",
                "OKOFHICILMD": "10",
                "CCFFFOIDOLP": "11"
            },
            "313": {
                "NOKKDDHKGAK": "Dive_BS",
                "MBDAAADDHNL": 1,
                "ENKLFBHHOJI": {
                    "CEKMINILIFB": [
                        301
                    ]
                },
                "PAHIDIJLGPF": 999999.0,
                "NOPNCNPCPJE": "",
                "LLNBBNIEGGO": true,
                "IDPMFPAPNCE": false,
                "HGAMDGAEIGO": "",
                "LFGKIDDJIED": [
                    "Dive_BS"
                ],
                "NNJBOCFBGJG": 5.0,
                "PGPDNPMFFAG": "10",
                "CCEAGFDONFH": "01",
                "OKOFHICILMD": "10",
                "CCFFFOIDOLP": "11"
            },
            "401": {
                "NOKKDDHKGAK": "Grub",
                "ENKLFBHHOJI": {
                    "CEKMINILIFB": [
                        102,
                        202,
                        302,
                        152,
                        252
                    ],
                    "JHPHNFCMCIL": true
                },
                "PAHIDIJLGPF": 3.0,
                "LKCFDIOMLCM": 5.0,
                "KKAEGIJIDLG": 2.0,
                "NOPNCNPCPJE": "",
                "HGAMDGAEIGO": "",
                "LFGKIDDJIED": [
                    "Grub"
                ],
                "NNJBOCFBGJG": 3.0,
                "PGPDNPMFFAG": "10",
                "CCEAGFDONFH": "01",
                "OKOFHICILMD": "10",
                "CCFFFOIDOLP": "11"
            },
            "411": {
                "NOKKDDHKGAK": "GrubToCenter",
                "MBDAAADDHNL": 1,
                "ENKLFBHHOJI": {
                    "CEKMINILIFB": [
                        102,
                        202,
                        302,
                        152,
                        252
                    ]
                },
                "PAHIDIJLGPF": 3.0,
                "LKCFDIOMLCM": 15.0,
                "NOPNCNPCPJE": "",
                "IDPMFPAPNCE": false,
                "HGAMDGAEIGO": "",
                "LFGKIDDJIED": [
                    "GrubToCenter"
                ],
                "NNJBOCFBGJG": 3.0,
                "PGPDNPMFFAG": "10",
                "CCEAGFDONFH": "01",
                "OKOFHICILMD": "10",
                "CCFFFOIDOLP": "11"
            },
            "501": {
                "NOKKDDHKGAK": "Hack",
                "MBDAAADDHNL": 3,
                "ENKLFBHHOJI": {
                    "CEKMINILIFB": [
                        101,
                        201,
                        301
                    ],
                    "CNBHICKKAHM": 150.0,
                    "MLFAMHDFHMM": 35.0
                },
                "PAHIDIJLGPF": 5.0,
                "GPMLADFJAAH": 7.5,
                "LKCFDIOMLCM": 5.0,
                "NOPNCNPCPJE": "",
                "LLNBBNIEGGO": true,
                "HGAMDGAEIGO": "",
                "LFGKIDDJIED": [
                    "Hack_BS",
                    "Hack_AS"
                ],
                "NNJBOCFBGJG": 3.0,
                "PGPDNPMFFAG": "10",
                "CCEAGFDONFH": "01",
                "OKOFHICILMD": "10",
                "CCFFFOIDOLP": "11"
            },
            "601": {
                "NOKKDDHKGAK": "SlamGround",
                "MBDAAADDHNL": 4,
                "ENKLFBHHOJI": {
                    "CEKMINILIFB": [
                        101,
                        201,
                        301
                    ],
                    "CNBHICKKAHM": 0.0,
                    "OLKBBCIPHJB": 60.0,
                    "OLDIEKKCIOG": 5.0,
                    "MLFAMHDFHMM": 35.0
                },
                "PAHIDIJLGPF": 22.5,
                "GPMLADFJAAH": 7.5,
                "LKCFDIOMLCM": 7.5,
                "KKAEGIJIDLG": 7.5,
                "NOPNCNPCPJE": "",
                "LLNBBNIEGGO": true,
                "BIMBEJCAFLP": 2,
                "HGAMDGAEIGO": "",
                "LFGKIDDJIED": [
                    "SlamGround_BS",
                    "SlamGround_AS"
                ],
                "NNJBOCFBGJG": 3.0,
                "PGPDNPMFFAG": "10",
                "CCEAGFDONFH": "01",
                "OKOFHICILMD": "10",
                "CCFFFOIDOLP": "11"
            },
            "701": {
                "NOKKDDHKGAK": "Swap",
                "MBDAAADDHNL": 4,
                "ENKLFBHHOJI": {
                    "CEKMINILIFB": [
                        101,
                        201,
                        301
                    ],
                    "CNBHICKKAHM": 37.5,
                    "OLDIEKKCIOG": 10.0,
                    "MLFAMHDFHMM": 27.5
                },
                "PAHIDIJLGPF": 22.5,
                "GPMLADFJAAH": 7.5,
                "LKCFDIOMLCM": 5.0,
                "KKAEGIJIDLG": 5.0,
                "NOPNCNPCPJE": "",
                "LLNBBNIEGGO": true,
                "BIMBEJCAFLP": 2,
                "HGAMDGAEIGO": "",
                "LFGKIDDJIED": [
                    "Swap_BS",
                    "Swap_AS"
                ],
                "NNJBOCFBGJG": 5.0,
                "PGPDNPMFFAG": "10",
                "CCEAGFDONFH": "01",
                "OKOFHICILMD": "10",
                "CCFFFOIDOLP": "11"
            },
            "801": {
                "NOKKDDHKGAK": "Strike",
                "MBDAAADDHNL": 4,
                "ENKLFBHHOJI": {
                    "CEKMINILIFB": [
                        101,
                        201,
                        301
                    ],
                    "CNBHICKKAHM": 37.5,
                    "OLKBBCIPHJB": 150.0,
                    "MLFAMHDFHMM": 12.5
                },
                "PAHIDIJLGPF": 5.0,
                "GPMLADFJAAH": 5.0,
                "LKCFDIOMLCM": 5.0,
                "NOPNCNPCPJE": "",
                "LLNBBNIEGGO": true,
                "IDPMFPAPNCE": false,
                "BIMBEJCAFLP": 10,
                "HGAMDGAEIGO": "",
                "LFGKIDDJIED": [
                    "Strike_BS",
                    "Strike_AS"
                ],
                "NNJBOCFBGJG": 3.0,
                "PGPDNPMFFAG": "10",
                "CCEAGFDONFH": "01",
                "OKOFHICILMD": "10",
                "CCFFFOIDOLP": "11"
            },
            "802": {
                "NOKKDDHKGAK": "Strike",
                "MBDAAADDHNL": 3,
                "ENKLFBHHOJI": {
                    "CEKMINILIFB": [
                        101,
                        201,
                        301
                    ],
                    "CNBHICKKAHM": 30.0,
                    "OLKBBCIPHJB": 150.0,
                    "MLFAMHDFHMM": 12.5,
                    "KMKHEJMAGOI": 3.5
                },
                "PAHIDIJLGPF": 5.0,
                "GPMLADFJAAH": 2.5,
                "LKCFDIOMLCM": 5.0,
                "NOPNCNPCPJE": "",
                "LLNBBNIEGGO": true,
                "IDPMFPAPNCE": false,
                "BIMBEJCAFLP": 10,
                "HGAMDGAEIGO": "",
                "LFGKIDDJIED": [
                    "Strike_BS",
                    "Strike_AS"
                ],
                "NNJBOCFBGJG": 3.0,
                "PGPDNPMFFAG": "10",
                "CCEAGFDONFH": "01",
                "OKOFHICILMD": "10",
                "CCFFFOIDOLP": "11"
            },
            "901": {
                "NOKKDDHKGAK": "ShockWave",
                "MBDAAADDHNL": 4,
                "ENKLFBHHOJI": {
                    "CEKMINILIFB": [
                        101,
                        201,
                        301
                    ],
                    "JHPHNFCMCIL": true,
                    "MLFAMHDFHMM": 20.0
                },
                "PAHIDIJLGPF": 27.5,
                "GPMLADFJAAH": 7.5,
                "LKCFDIOMLCM": 12.5,
                "KKAEGIJIDLG": 7.5,
                "NOPNCNPCPJE": "",
                "HGAMDGAEIGO": "",
                "LFGKIDDJIED": [
                    "ShockWave"
                ],
                "NNJBOCFBGJG": 5.0,
                "PGPDNPMFFAG": "10",
                "CCEAGFDONFH": "01",
                "OKOFHICILMD": "10",
                "CCFFFOIDOLP": "11"
            },
            "902": {
                "NOKKDDHKGAK": "ShockWave",
                "MBDAAADDHNL": 3,
                "ENKLFBHHOJI": {
                    "CEKMINILIFB": [
                        101,
                        201,
                        301
                    ],
                    "JHPHNFCMCIL": true,
                    "MLFAMHDFHMM": 5.0
                },
                "PAHIDIJLGPF": 5.0,
                "GPMLADFJAAH": 5.0,
                "LKCFDIOMLCM": 5.0,
                "KKAEGIJIDLG": 5.0,
                "NOPNCNPCPJE": "",
                "LLNBBNIEGGO": true,
                "HGAMDGAEIGO": "",
                "LFGKIDDJIED": [
                    "ShockWave"
                ],
                "NNJBOCFBGJG": 5.0,
                "PGPDNPMFFAG": "10",
                "CCEAGFDONFH": "01",
                "OKOFHICILMD": "10",
                "CCFFFOIDOLP": "11"
            },
            "1001": {
                "NOKKDDHKGAK": "Sting",
                "ENKLFBHHOJI": {
                    "CEKMINILIFB": [
                        101,
                        201,
                        301
                    ],
                    "OLDIEKKCIOG": 10.0,
                    "MLFAMHDFHMM": 17.5
                },
                "PAHIDIJLGPF": 15.0,
                "GPMLADFJAAH": 7.5,
                "LKCFDIOMLCM": 5.0,
                "NOPNCNPCPJE": "",
                "BIMBEJCAFLP": 2,
                "HGAMDGAEIGO": "",
                "LFGKIDDJIED": [
                    "Sting_BS",
                    "Sting_AS"
                ],
                "NNJBOCFBGJG": 3.0,
                "PGPDNPMFFAG": "10",
                "CCEAGFDONFH": "01",
                "OKOFHICILMD": "10",
                "CCFFFOIDOLP": "11"
            },
            "1002": {
                "NOKKDDHKGAK": "Sting",
                "MBDAAADDHNL": 4,
                "ENKLFBHHOJI": {
                    "CEKMINILIFB": [
                        101,
                        201,
                        301
                    ],
                    "OLDIEKKCIOG": 17.5
                },
                "PAHIDIJLGPF": 17.5,
                "GPMLADFJAAH": 7.5,
                "LKCFDIOMLCM": 5.0,
                "NOPNCNPCPJE": "",
                "LLNBBNIEGGO": true,
                "BIMBEJCAFLP": 2,
                "HGAMDGAEIGO": "",
                "LFGKIDDJIED": [
                    "Sting_BS",
                    "Sting_AS"
                ],
                "NNJBOCFBGJG": 3.0,
                "PGPDNPMFFAG": "10",
                "CCEAGFDONFH": "01",
                "OKOFHICILMD": "10",
                "CCFFFOIDOLP": "11"
            },
            "1201": {
                "NOKKDDHKGAK": "ElementSpring",
                "MBDAAADDHNL": 3,
                "ENKLFBHHOJI": {
                    "CEKMINILIFB": [
                        301
                    ],
                    "JHPHNFCMCIL": true
                },
                "PAHIDIJLGPF": 70.0,
                "GPMLADFJAAH": 15.0,
                "LKCFDIOMLCM": 30.0,
                "KKAEGIJIDLG": 5.0,
                "NOPNCNPCPJE": "",
                "BIMBEJCAFLP": 4,
                "HGAMDGAEIGO": "",
                "LFGKIDDJIED": [
                    "ElementSpring"
                ],
                "NNJBOCFBGJG": 5.0,
                "PGPDNPMFFAG": "10",
                "CCEAGFDONFH": "01",
                "OKOFHICILMD": "10",
                "CCFFFOIDOLP": "11"
            },
            "1211": {
                "NOKKDDHKGAK": "ElementSpring",
                "MBDAAADDHNL": 3,
                "ENKLFBHHOJI": {
                    "CEKMINILIFB": [
                        301
                    ],
                    "JHPHNFCMCIL": true,
                    "OCFGCKGEJAN": 25.0
                },
                "PAHIDIJLGPF": 70.0,
                "GPMLADFJAAH": 15.0,
                "LKCFDIOMLCM": 30.0,
                "KKAEGIJIDLG": 5.0,
                "NOPNCNPCPJE": "",
                "BIMBEJCAFLP": 4,
                "HGAMDGAEIGO": "",
                "LFGKIDDJIED": [
                    "ElementSpring",
                    "ReturnToCenter"
                ],
                "NNJBOCFBGJG": 5.0,
                "PGPDNPMFFAG": "10",
                "CCEAGFDONFH": "01",
                "OKOFHICILMD": "10",
                "CCFFFOIDOLP": "11"
            },
            "1301": {
                "NOKKDDHKGAK": "EarthQuake",
                "MBDAAADDHNL": 1,
                "ENKLFBHHOJI": {
                    "CEKMINILIFB": [
                        151
                    ]
                },
                "PAHIDIJLGPF": 999999.0,
                "NOPNCNPCPJE": "",
                "LLNBBNIEGGO": true,
                "BIMBEJCAFLP": 5,
                "HGAMDGAEIGO": "",
                "LFGKIDDJIED": [
                    "EarthQuake"
                ],
                "NNJBOCFBGJG": 3.0,
                "PGPDNPMFFAG": "10",
                "CCEAGFDONFH": "01",
                "OKOFHICILMD": "10",
                "CCFFFOIDOLP": "11"
            },
            "1302": {
                "NOKKDDHKGAK": "EarthQuake",
                "MBDAAADDHNL": 1,
                "ENKLFBHHOJI": {
                    "CEKMINILIFB": [
                        251
                    ]
                },
                "PAHIDIJLGPF": 999999.0,
                "NOPNCNPCPJE": "",
                "LLNBBNIEGGO": true,
                "BIMBEJCAFLP": 12,
                "HGAMDGAEIGO": "",
                "LFGKIDDJIED": [
                    "EarthQuake"
                ],
                "NNJBOCFBGJG": 5.0,
                "PGPDNPMFFAG": "10",
                "CCEAGFDONFH": "01",
                "OKOFHICILMD": "10",
                "CCFFFOIDOLP": "11"
            },
            "1303": {
                "NOKKDDHKGAK": "EarthQuake",
                "MBDAAADDHNL": 2,
                "ENKLFBHHOJI": {
                    "CEKMINILIFB": [
                        301
                    ],
                    "JHPHNFCMCIL": true
                },
                "PAHIDIJLGPF": 105.0,
                "GPMLADFJAAH": 15.0,
                "LKCFDIOMLCM": 75.0,
                "KKAEGIJIDLG": 15.0,
                "NOPNCNPCPJE": "",
                "LLNBBNIEGGO": true,
                "BIMBEJCAFLP": 13,
                "HGAMDGAEIGO": "",
                "LFGKIDDJIED": [
                    "EarthQuake"
                ],
                "NNJBOCFBGJG": 5.0,
                "PGPDNPMFFAG": "10",
                "CCEAGFDONFH": "01",
                "OKOFHICILMD": "10",
                "CCFFFOIDOLP": "11"
            },
            "1304": {
                "NOKKDDHKGAK": "EarthQuake",
                "MBDAAADDHNL": 2,
                "ENKLFBHHOJI": {
                    "CEKMINILIFB": [
                        101,
                        201,
                        301
                    ],
                    "JHPHNFCMCIL": true
                },
                "PAHIDIJLGPF": 37.5,
                "GPMLADFJAAH": 7.5,
                "LKCFDIOMLCM": 35.0,
                "KKAEGIJIDLG": 7.5,
                "NOPNCNPCPJE": "",
                "LLNBBNIEGGO": true,
                "BIMBEJCAFLP": 17,
                "HGAMDGAEIGO": "",
                "LFGKIDDJIED": [
                    "EarthQuake"
                ],
                "NNJBOCFBGJG": 3.0,
                "PGPDNPMFFAG": "10",
                "CCEAGFDONFH": "01",
                "OKOFHICILMD": "10",
                "CCFFFOIDOLP": "11"
            },
            "1311": {
                "NOKKDDHKGAK": "EarthQuake",
                "MBDAAADDHNL": 1,
                "ENKLFBHHOJI": {
                    "CEKMINILIFB": [
                        151
                    ],
                    "OCFGCKGEJAN": 20.0
                },
                "PAHIDIJLGPF": 999999.0,
                "NOPNCNPCPJE": "",
                "LLNBBNIEGGO": true,
                "BIMBEJCAFLP": 5,
                "HGAMDGAEIGO": "",
                "LFGKIDDJIED": [
                    "EarthQuake",
                    "ReturnToCenter"
                ],
                "NNJBOCFBGJG": 5.0,
                "PGPDNPMFFAG": "10",
                "CCEAGFDONFH": "01",
                "OKOFHICILMD": "10",
                "CCFFFOIDOLP": "11"
            },
            "1312": {
                "NOKKDDHKGAK": "EarthQuake",
                "MBDAAADDHNL": 1,
                "ENKLFBHHOJI": {
                    "CEKMINILIFB": [
                        251
                    ],
                    "OCFGCKGEJAN": 20.0
                },
                "PAHIDIJLGPF": 999999.0,
                "NOPNCNPCPJE": "",
                "LLNBBNIEGGO": true,
                "BIMBEJCAFLP": 12,
                "HGAMDGAEIGO": "",
                "LFGKIDDJIED": [
                    "EarthQuake",
                    "ReturnToCenter"
                ],
                "NNJBOCFBGJG": 5.0,
                "PGPDNPMFFAG": "10",
                "CCEAGFDONFH": "01",
                "OKOFHICILMD": "10",
                "CCFFFOIDOLP": "11"
            },
            "1313": {
                "NOKKDDHKGAK": "EarthQuake",
                "MBDAAADDHNL": 2,
                "ENKLFBHHOJI": {
                    "CEKMINILIFB": [
                        301
                    ],
                    "JHPHNFCMCIL": true,
                    "OCFGCKGEJAN": 20.0
                },
                "PAHIDIJLGPF": 105.0,
                "GPMLADFJAAH": 15.0,
                "LKCFDIOMLCM": 75.0,
                "KKAEGIJIDLG": 15.0,
                "NOPNCNPCPJE": "",
                "LLNBBNIEGGO": true,
                "BIMBEJCAFLP": 13,
                "HGAMDGAEIGO": "",
                "LFGKIDDJIED": [
                    "EarthQuake",
                    "ReturnToCenter"
                ],
                "NNJBOCFBGJG": 5.0,
                "PGPDNPMFFAG": "10",
                "CCEAGFDONFH": "01",
                "OKOFHICILMD": "10",
                "CCFFFOIDOLP": "11"
            },
            "1314": {
                "NOKKDDHKGAK": "EarthQuake",
                "MBDAAADDHNL": 2,
                "ENKLFBHHOJI": {
                    "CEKMINILIFB": [
                        101,
                        201,
                        301
                    ],
                    "JHPHNFCMCIL": true,
                    "OCFGCKGEJAN": 20.0
                },
                "PAHIDIJLGPF": 37.5,
                "GPMLADFJAAH": 7.5,
                "LKCFDIOMLCM": 35.0,
                "KKAEGIJIDLG": 7.5,
                "NOPNCNPCPJE": "",
                "LLNBBNIEGGO": true,
                "BIMBEJCAFLP": 17,
                "HGAMDGAEIGO": "",
                "LFGKIDDJIED": [
                    "EarthQuake",
                    "ReturnToCenter"
                ],
                "NNJBOCFBGJG": 3.0,
                "PGPDNPMFFAG": "10",
                "CCEAGFDONFH": "01",
                "OKOFHICILMD": "10",
                "CCFFFOIDOLP": "11"
            },
            "1401": {
                "NOKKDDHKGAK": "ElementBurst",
                "MBDAAADDHNL": 2,
                "ENKLFBHHOJI": {
                    "CEKMINILIFB": [
                        301
                    ],
                    "JHPHNFCMCIL": true
                },
                "PAHIDIJLGPF": 75.0,
                "GPMLADFJAAH": 15.0,
                "LKCFDIOMLCM": 3.0,
                "NOPNCNPCPJE": "",
                "LLNBBNIEGGO": true,
                "BIMBEJCAFLP": 6,
                "HGAMDGAEIGO": "",
                "LFGKIDDJIED": [
                    "ElementBurst"
                ],
                "NNJBOCFBGJG": 5.0,
                "PGPDNPMFFAG": "10",
                "CCEAGFDONFH": "01",
                "OKOFHICILMD": "10",
                "CCFFFOIDOLP": "11"
            },
            "1411": {
                "NOKKDDHKGAK": "ElementBurst",
                "MBDAAADDHNL": 2,
                "ENKLFBHHOJI": {
                    "CEKMINILIFB": [
                        301
                    ],
                    "JHPHNFCMCIL": true,
                    "OCFGCKGEJAN": 15.0
                },
                "PAHIDIJLGPF": 75.0,
                "GPMLADFJAAH": 15.0,
                "LKCFDIOMLCM": 3.0,
                "KKAEGIJIDLG": 7.5,
                "NOPNCNPCPJE": "",
                "LLNBBNIEGGO": true,
                "BIMBEJCAFLP": 6,
                "HGAMDGAEIGO": "",
                "LFGKIDDJIED": [
                    "ElementBurst",
                    "ReturnToCenter"
                ],
                "NNJBOCFBGJG": 5.0,
                "PGPDNPMFFAG": "10",
                "CCEAGFDONFH": "01",
                "OKOFHICILMD": "10",
                "CCFFFOIDOLP": "11"
            },
            "1501": {
                "NOKKDDHKGAK": "Switch01",
                "MBDAAADDHNL": 2,
                "ENKLFBHHOJI": {
                    "CEKMINILIFB": [
                        151
                    ],
                    "JHPHNFCMCIL": true
                },
                "PAHIDIJLGPF": 999999.0,
                "LKCFDIOMLCM": 10.0,
                "NOPNCNPCPJE": "",
                "LLNBBNIEGGO": true,
                "IDPMFPAPNCE": false,
                "BIMBEJCAFLP": 7,
                "HGAMDGAEIGO": "",
                "LFGKIDDJIED": [
                    "Switch01"
                ],
                "NNJBOCFBGJG": 5.0,
                "PGPDNPMFFAG": "10",
                "CCEAGFDONFH": "01",
                "OKOFHICILMD": "10",
                "CCFFFOIDOLP": "11"
            },
            "1511": {
                "NOKKDDHKGAK": "Switch01",
                "MBDAAADDHNL": 2,
                "ENKLFBHHOJI": {
                    "CEKMINILIFB": [
                        151
                    ],
                    "JHPHNFCMCIL": true,
                    "OCFGCKGEJAN": 20.0
                },
                "PAHIDIJLGPF": 999999.0,
                "LKCFDIOMLCM": 10.0,
                "NOPNCNPCPJE": "",
                "LLNBBNIEGGO": true,
                "IDPMFPAPNCE": false,
                "BIMBEJCAFLP": 7,
                "HGAMDGAEIGO": "",
                "LFGKIDDJIED": [
                    "Switch01",
                    "ReturnToCenter"
                ],
                "NNJBOCFBGJG": 5.0,
                "PGPDNPMFFAG": "10",
                "CCEAGFDONFH": "01",
                "OKOFHICILMD": "10",
                "CCFFFOIDOLP": "11"
            },
            "1502": {
                "NOKKDDHKGAK": "Switch02",
                "MBDAAADDHNL": 2,
                "ENKLFBHHOJI": {
                    "CEKMINILIFB": [
                        251
                    ],
                    "JHPHNFCMCIL": true
                },
                "PAHIDIJLGPF": 999999.0,
                "LKCFDIOMLCM": 10.0,
                "NOPNCNPCPJE": "",
                "LLNBBNIEGGO": true,
                "IDPMFPAPNCE": false,
                "BIMBEJCAFLP": 8,
                "HGAMDGAEIGO": "",
                "LFGKIDDJIED": [
                    "Switch02"
                ],
                "NNJBOCFBGJG": 5.0,
                "PGPDNPMFFAG": "10",
                "CCEAGFDONFH": "01",
                "OKOFHICILMD": "10",
                "CCFFFOIDOLP": "11"
            },
            "1512": {
                "NOKKDDHKGAK": "Switch02",
                "MBDAAADDHNL": 2,
                "ENKLFBHHOJI": {
                    "CEKMINILIFB": [
                        251
                    ],
                    "JHPHNFCMCIL": true,
                    "OCFGCKGEJAN": 20.0
                },
                "PAHIDIJLGPF": 999999.0,
                "LKCFDIOMLCM": 10.0,
                "NOPNCNPCPJE": "",
                "LLNBBNIEGGO": true,
                "IDPMFPAPNCE": false,
                "BIMBEJCAFLP": 8,
                "HGAMDGAEIGO": "",
                "LFGKIDDJIED": [
                    "Switch02",
                    "ReturnToCenter"
                ],
                "NNJBOCFBGJG": 5.0,
                "PGPDNPMFFAG": "10",
                "CCEAGFDONFH": "01",
                "OKOFHICILMD": "10",
                "CCFFFOIDOLP": "11"
            },
            "1601": {
                "NOKKDDHKGAK": "Roar",
                "MBDAAADDHNL": 3,
                "ENKLFBHHOJI": {
                    "CEKMINILIFB": [
                        201
                    ],
                    "JHPHNFCMCIL": true,
                    "FNMKPCNDPFM": 20.5
                },
                "PAHIDIJLGPF": 35.0,
                "GPMLADFJAAH": 10.0,
                "LKCFDIOMLCM": 3.0,
                "NOPNCNPCPJE": "",
                "BIMBEJCAFLP": 9,
                "HGAMDGAEIGO": "",
                "LFGKIDDJIED": [
                    "Roar_BS",
                    "Roar",
                    "Roar_AS"
                ],
                "NNJBOCFBGJG": 5.0,
                "PGPDNPMFFAG": "10",
                "CCEAGFDONFH": "01",
                "OKOFHICILMD": "10",
                "CCFFFOIDOLP": "11"
            },
            "1602": {
                "NOKKDDHKGAK": "Roar",
                "MBDAAADDHNL": 3,
                "ENKLFBHHOJI": {
                    "CEKMINILIFB": [
                        301
                    ],
                    "JHPHNFCMCIL": true,
                    "FNMKPCNDPFM": 20.5
                },
                "PAHIDIJLGPF": 80.0,
                "GPMLADFJAAH": 15.0,
                "LKCFDIOMLCM": 55.0,
                "KKAEGIJIDLG": 10.0,
                "NOPNCNPCPJE": "",
                "BIMBEJCAFLP": 9,
                "HGAMDGAEIGO": "",
                "LFGKIDDJIED": [
                    "Roar_BS",
                    "Roar",
                    "Roar_AS"
                ],
                "NNJBOCFBGJG": 5.0,
                "PGPDNPMFFAG": "10",
                "CCEAGFDONFH": "01",
                "OKOFHICILMD": "10",
                "CCFFFOIDOLP": "11"
            },
            "1611": {
                "NOKKDDHKGAK": "Roar",
                "MBDAAADDHNL": 3,
                "ENKLFBHHOJI": {
                    "CEKMINILIFB": [
                        201
                    ],
                    "JHPHNFCMCIL": true,
                    "OCFGCKGEJAN": 20.0
                },
                "PAHIDIJLGPF": 35.0,
                "GPMLADFJAAH": 10.0,
                "LKCFDIOMLCM": 3.0,
                "NOPNCNPCPJE": "",
                "BIMBEJCAFLP": 9,
                "HGAMDGAEIGO": "",
                "LFGKIDDJIED": [
                    "Roar_BS",
                    "Roar",
                    "Roar_AS",
                    "ReturnToCenter"
                ],
                "NNJBOCFBGJG": 5.0,
                "PGPDNPMFFAG": "10",
                "CCEAGFDONFH": "01",
                "OKOFHICILMD": "10",
                "CCFFFOIDOLP": "11"
            },
            "1612": {
                "NOKKDDHKGAK": "Roar",
                "MBDAAADDHNL": 3,
                "ENKLFBHHOJI": {
                    "CEKMINILIFB": [
                        301
                    ],
                    "JHPHNFCMCIL": true,
                    "OCFGCKGEJAN": 20.0
                },
                "PAHIDIJLGPF": 80.0,
                "GPMLADFJAAH": 15.0,
                "LKCFDIOMLCM": 55.0,
                "KKAEGIJIDLG": 10.0,
                "NOPNCNPCPJE": "",
                "BIMBEJCAFLP": 9,
                "HGAMDGAEIGO": "",
                "LFGKIDDJIED": [
                    "Roar_BS",
                    "Roar",
                    "Roar_AS",
                    "ReturnToCenter"
                ],
                "NNJBOCFBGJG": 5.0,
                "PGPDNPMFFAG": "10",
                "CCEAGFDONFH": "01",
                "OKOFHICILMD": "10",
                "CCFFFOIDOLP": "11"
            },
            "2001": {
                "NOKKDDHKGAK": "Random",
                "MBDAAADDHNL": 4,
                "ENKLFBHHOJI": {
                    "CEKMINILIFB": [
                        101,
                        201,
                        301
                    ]
                },
                "PAHIDIJLGPF": 75.0,
                "GPMLADFJAAH": 15.0,
                "LKCFDIOMLCM": 75.0,
                "KKAEGIJIDLG": 15.0,
                "NOPNCNPCPJE": "",
                "LLNBBNIEGGO": true,
                "IDPMFPAPNCE": false,
                "HGAMDGAEIGO": "",
                "LFGKIDDJIED": [
                    "Random01",
                    "Random02"
                ],
                "NNJBOCFBGJG": 3.0,
                "PGPDNPMFFAG": "10",
                "CCEAGFDONFH": "01",
                "OKOFHICILMD": "10",
                "CCFFFOIDOLP": "11"
            },
            "9001": {
                "NOKKDDHKGAK": "Debut",
                "PAHIDIJLGPF": 999999.0,
                "LKCFDIOMLCM": 999999.0,
                "NOPNCNPCPJE": "",
                "HGAMDGAEIGO": "",
                "LFGKIDDJIED": [
                    "Debut"
                ],
                "NNJBOCFBGJG": 3.0,
                "PGPDNPMFFAG": "10",
                "CCEAGFDONFH": "01",
                "OKOFHICILMD": "10",
                "CCFFFOIDOLP": "11"
            },
            "9002": {
                "NOKKDDHKGAK": "Die",
                "PAHIDIJLGPF": 999999.0,
                "LKCFDIOMLCM": 999999.0,
                "NOPNCNPCPJE": "",
                "HGAMDGAEIGO": "",
                "LFGKIDDJIED": [
                    "Die"
                ],
                "NNJBOCFBGJG": 3.0,
                "PGPDNPMFFAG": "10",
                "CCEAGFDONFH": "01",
                "OKOFHICILMD": "10",
                "CCFFFOIDOLP": "11"
            }
        },
        "EMBHEEALPLD": 2.4000000953674316,
        "EEKEAKJCMJO": [
            {
                "$type": "BNAGECKMCIB",
                "ENLKMOKHELD": true,
                "FJANPNOAAFK": {
                    "CEKMINILIFB": [
                        101,
                        201,
                        301
                    ]
                },
                "LMMKNFEMOMG": {
                    "KIHPEPHJMOG": 1,
                    "GEAICNICJAJ": 0.5,
                    "IJLGPEJGLEH": 100.0,
                    "JKOGPCLFHCP": 30.0,
                    "IHCAFCNDANA": 30.0,
                    "NKGJBMONBFL": false,
                    "JOCOJHEICNA": ""
                }
            },
            {
                "$type": "GGKADEIBMLG",
                "ENLKMOKHELD": true,
                "FJANPNOAAFK": {
                    "CEKMINILIFB": [
                        102,
                        202,
                        302,
                        152,
                        252
                    ]
                },
                "FDIIDHNBFFE": [
                    0,
                    2
                ],
                "LMMKNFEMOMG": {
                    "KIHPEPHJMOG": 2,
                    "GEAICNICJAJ": 0.5,
                    "EKDHNAGGGAE": 27.5,
                    "BFEJAKFKKFP": 8.0,
                    "KOAMKCEFJED": 16.0,
                    "DDELPBCPLMD": "Snakelike",
                    "JOCOJHEICNA": ""
                }
            }
        ]
    },
    "GIBHCHHOJFI": [
        {
            "NPDDCIDNKMH": 101,
            "KCAOBJOPJIC": 257,
            "KAJGDIHNKNE": ""
        },
        {
            "NPDDCIDNKMH": 301,
            "KCAOBJOPJIC": 258,
            "KAJGDIHNKNE": ""
        },
        {
            "NPDDCIDNKMH": 401,
            "KCAOBJOPJIC": 259,
            "KAJGDIHNKNE": ""
        },
        {
            "NPDDCIDNKMH": 411,
            "KCAOBJOPJIC": 260,
            "KAJGDIHNKNE": ""
        },
        {
            "NPDDCIDNKMH": 1001,
            "KCAOBJOPJIC": 261,
            "KAJGDIHNKNE": ""
        },
        {
            "NPDDCIDNKMH": 1201,
            "KCAOBJOPJIC": 262,
            "KAJGDIHNKNE": ""
        },
        {
            "NPDDCIDNKMH": 1401,
            "KCAOBJOPJIC": 263,
            "KAJGDIHNKNE": ""
        },
        {
            "NPDDCIDNKMH": 1501,
            "KCAOBJOPJIC": 264,
            "KAJGDIHNKNE": ""
        },
        {
            "NPDDCIDNKMH": 1502,
            "KCAOBJOPJIC": 265,
            "KAJGDIHNKNE": ""
        }
    ],
    "ADIGBDHBCDP": {
        "$type": "IIGPJJNGCLE",
        "EIEIGIPKLAO": {
            "FAHKNGPHIIP": true
        },
        "MEKENCHCEEN": false,
        "KCPLNKCIOCI": "None",
        "JNDKCMPKBIK": {
            "101": "Walk",
            "151": "Walk",
            "201": "Walk",
            "251": "Walk",
            "301": "Walk",
            "102": "Run",
            "152": "Run",
            "202": "Run",
            "252": "Run",
            "302": "Run"
        },
        "EKMHGNLHCNM": 0.5,
        "FACNOEFNHIB": "RootNode"
    },
    "BEGHJJDCLLK": {
        "KEEAIACIJBN": ""
    },
    "LMHBPOFDMGB": {
        "default": {
            "$type": "ALDGBHOFGNJ",
            "MBDAAADDHNL": 1.0,
            "CFHLGBDKNNE": 150.0,
            "MFHGHLBIABP": 150.0,
            "ODGOPJOMIOD": 0.75,
            "NEEJKCEAEOH": 48.5,
            "HNELLIFDCEJ": 8.0,
            "LAFEEHPNFJE": 10.0,
            "LHMKDKDKCMK": false,
            "CINOLDJDIME": 30.0,
            "JAOHLHPPBDE": 45.0,
            "PNABBNBKPKL": 50.0,
            "KAJCHFLHBDJ": 40.0,
            "DDKDCMMBADD": 100.0,
            "ADOADIMFHKL": 145.0,
            "BKEJGFMMHCD": "CircleR150",
            "EBJKIPGGECO": "CircleR150"
        }
    }
}