{
    "MDJNFHAJPAD": {
        "FAIKDMCHPEL": {
            "$type": "DPGKNHENGLM",
            "DDDEJPIFECG": "EffectMesh"
        },
        "FINMNFLLAMB": 9999999.0,
        "NEBDNCNFDJC": 1.0,
        "MECICKNEPGG": 1.5,
        "MBMBBGOGNHF": true,
        "DIEPJBNIPBG": true,
        "FNLMEPDMMMD": 1.5,
        "CKECEGGMJOP": false,
        "GJDONABEMOA": true,
        "JBIPDEEPIMN": true,
        "GJKLEPPOKDJ": true
    },
    "PJEANIPCFFN": {
        "CKAIGCFDCMG": "",
        "KHGAHHAIJFJ": "",
        "DFFKHFKJKEK": false
    },
    "MEMHBNEJBCL": {
        "PJBCJPKPOLB": 1.0
    },
    "GKIMHOOMGHB": {
        "DHBJGHDCMAA": {
            "LDAHGACLHII": "Monster_Minion",
            "LJGADHKDLLB": 101.0,
            "ACOAHCMABGF": true
        },
        "BPKIJDAHLGB": {
            "LKMLEJGEHAP": "",
            "OFKMFHKFECF": true,
            "LHMKDLOKKJG": true
        },
        "INCPHOFGIJA": {
            "FGJIHAKMLBG": "CircleLockEnemy",
            "BGMEKAEIOGA": "Animal_Lv2"
        },
        "JCCJMILDEAM": {
            "GKFDFDFJJFB": 1.7999999523162842,
            "FNIJBPMPCHA": 2.0,
            "BCHFMGGBEFN": ""
        },
        "HBPHEONOLPB": {
            "QuakeAtk01": {
                "IDCAGFLHNBC": {
                    "$type": "AGJFCPDIMCK",
                    "JHMCMBLENNJ": "TriggerNoRepeat",
                    "CGJJEPFIPAH": {
                        "$type": "NKOODKOFELF",
                        "NDKBHOOPGNA": {
                            "GNGDNIIPPNL": 0.0,
                            "GIIMFINHIED": -0.5,
                            "CLBCHJICOKH": 0.0
                        }
                    },
                    "NEBDNCNFDJC": 1.0,
                    "IAMPMDAOKJL": 180.0,
                    "LOACHGCADCO": 1.5
                },
                "DAHBCLPNNIF": {
                    "EGJIJCBGKJG": "Electrohercules_QuakeAttack",
                    "LDGDNEICIGK": "",
                    "FLPOJIPCNFI": "default",
                    "JBODPMACBML": {
                        "HOGNHNAHNML": 0.0,
                        "BAPILBAGBOJ": 0.0,
                        "PHIOAFANJGL": 100.0,
                        "MCMDIPMIMJB": "Blunt",
                        "MLOPAPDEAOH": 0.0,
                        "JKALHBCIMGB": "Melee",
                        "CFIIAFOMDOM": 0.0
                    }
                }
            },
            "QuakeAtk_EnterExtraState": {
                "IDCAGFLHNBC": {
                    "$type": "AGJFCPDIMCK",
                    "JHMCMBLENNJ": "TriggerNoRepeat",
                    "CGJJEPFIPAH": {
                        "$type": "NKOODKOFELF",
                        "NDKBHOOPGNA": {
                            "GNGDNIIPPNL": 0.0,
                            "GIIMFINHIED": -0.5,
                            "CLBCHJICOKH": 0.0
                        }
                    },
                    "NEBDNCNFDJC": 1.0,
                    "IAMPMDAOKJL": 180.0,
                    "LOACHGCADCO": 1.5
                },
                "DAHBCLPNNIF": {
                    "EGJIJCBGKJG": "",
                    "LDGDNEICIGK": "",
                    "FLPOJIPCNFI": "default",
                    "JBODPMACBML": {
                        "HOGNHNAHNML": 0.0,
                        "BAPILBAGBOJ": 0.0,
                        "PHIOAFANJGL": 100.0,
                        "MCMDIPMIMJB": "Blunt",
                        "MLOPAPDEAOH": 0.0,
                        "JKALHBCIMGB": "Melee",
                        "CFIIAFOMDOM": 0.0
                    }
                }
            }
        }
    },
    "IGPKOOHPBFG": [
        {
            "FPLENFAEDIB": "",
            "KAJGDIHNKNE": "Animal_Electrohercules_Properties_06",
            "BIAMBCDKJKP": ""
        },
        {
            "FPLENFAEDIB": "",
            "KAJGDIHNKNE": "Animal_Electrohercules_BattleStateHandler",
            "BIAMBCDKJKP": ""
        },
        {
            "FPLENFAEDIB": "",
            "KAJGDIHNKNE": "Animal_Electrohercules_PositionLogicHandler",
            "BIAMBCDKJKP": ""
        },
        {
            "FPLENFAEDIB": "",
            "KAJGDIHNKNE": "Animal_Electrohercules_06_ExtraStateHandler",
            "BIAMBCDKJKP": ""
        },
        {
            "FPLENFAEDIB": "",
            "KAJGDIHNKNE": "Animal_Electrohercules_PlayAlert",
            "BIAMBCDKJKP": ""
        },
        {
            "FPLENFAEDIB": "",
            "KAJGDIHNKNE": "Animal_Electrohercules_Enemy04_SkillManager",
            "BIAMBCDKJKP": ""
        },
        {
            "FPLENFAEDIB": "",
            "KAJGDIHNKNE": "Animal_Electrohercules_HeavyStateHandler",
            "BIAMBCDKJKP": ""
        },
        {
            "FPLENFAEDIB": "",
            "KAJGDIHNKNE": "Animal_Electrohercules_Enemy_RangedAttack01_ExLongRange",
            "BIAMBCDKJKP": ""
        },
        {
            "FPLENFAEDIB": "",
            "KAJGDIHNKNE": "Animal_Electrohercules_Enemy_RangedAttack01_LongRange",
            "BIAMBCDKJKP": ""
        },
        {
            "FPLENFAEDIB": "",
            "KAJGDIHNKNE": "Animal_Electrohercules_Enemy_RangedAttack01_MidRange",
            "BIAMBCDKJKP": ""
        },
        {
            "FPLENFAEDIB": "",
            "KAJGDIHNKNE": "Animal_Electrohercules_Enemy_RangedAttack01_Chasing",
            "BIAMBCDKJKP": ""
        },
        {
            "FPLENFAEDIB": "",
            "KAJGDIHNKNE": "Animal_Electrohercules_Enemy_CreateElectricBall_MidRange",
            "BIAMBCDKJKP": ""
        },
        {
            "FPLENFAEDIB": "",
            "KAJGDIHNKNE": "Animal_Electrohercules_Enemy_RangedAttack01_WavePattern01",
            "BIAMBCDKJKP": ""
        },
        {
            "FPLENFAEDIB": "",
            "KAJGDIHNKNE": "Animal_Electrohercules_Enemy_RangedAttack01_WavePattern02",
            "BIAMBCDKJKP": ""
        },
        {
            "FPLENFAEDIB": "",
            "KAJGDIHNKNE": "Animal_Electrohercules_Enemy_RangedAttack01_CloseRange",
            "BIAMBCDKJKP": ""
        },
        {
            "FPLENFAEDIB": "",
            "KAJGDIHNKNE": "Animal_Electrohercules_06_ChangeCameraTarget",
            "BIAMBCDKJKP": ""
        },
        {
            "FPLENFAEDIB": "",
            "KAJGDIHNKNE": "Animal_Electrohercules_TryBreakRangedAttack",
            "BIAMBCDKJKP": ""
        }
    ],
    "GGIOJAMBNPO": {
        "defaultLayer": {
            "$type": "EPAPJJAGHKG",
            "ACOCIAFGIAD": "",
            "LFGKIDDJIED": {
                "Born": {
                    "$type": "IJOIMFMEGMM",
                    "DLOHGBDFFGB": {
                        "Born": []
                    },
                    "DLAOMOCMANL": [
                        "DoSkill"
                    ]
                },
                "NormalIdle": {
                    "$type": "IJOIMFMEGMM",
                    "DLOHGBDFFGB": {
                        "Standby": []
                    },
                    "POLKCLOHPOO": true,
                    "PGKCBIHGAOC": true,
                    "AJBLILDCLBO": [
                        "IsCharging"
                    ],
                    "DLAOMOCMANL": [
                        "DoSkill"
                    ]
                },
                "NormalMove": {
                    "$type": "IJOIMFMEGMM",
                    "DLOHGBDFFGB": {
                        "WalkForward": [],
                        "WalkBack": []
                    },
                    "POLKCLOHPOO": true,
                    "DLAOMOCMANL": [
                        "DoSkill"
                    ]
                },
                "BeHit": {
                    "$type": "IJOIMFMEGMM",
                    "DLOHGBDFFGB": {
                        "Hit_L": [
                            "Audio_Animal_Electrohercules_01_Hit_L_Large"
                        ],
                        "Hit_H": [
                            "Audio_Animal_Electrohercules_01_Hit_H_Large"
                        ]
                    },
                    "AJBLILDCLBO": [
                        "BeHit"
                    ],
                    "DLAOMOCMANL": [
                        "DoSkill"
                    ]
                },
                "BeHitThrow": {
                    "$type": "IJOIMFMEGMM",
                    "DLOHGBDFFGB": {
                        "HitThrow": [],
                        "HitThrowDrop": [],
                        "HitThrowToGround": []
                    },
                    "AJBLILDCLBO": [
                        "BeHit",
                        "HitAir2HitDrop"
                    ],
                    "DLAOMOCMANL": [
                        "DoSkill"
                    ]
                },
                "Struggle": {
                    "$type": "IJOIMFMEGMM",
                    "DLOHGBDFFGB": {
                        "Struggle": []
                    },
                    "AJBLILDCLBO": [
                        "BeHit",
                        "HitAir2HitDrop"
                    ],
                    "DLAOMOCMANL": [
                        "DoSkill"
                    ]
                },
                "Die": {
                    "$type": "IJOIMFMEGMM",
                    "DLOHGBDFFGB": {
                        "Die": [
                            "Audio_Animal_Electrohercules_01_Die_Large"
                        ]
                    }
                },
                "Warning": {
                    "$type": "IJOIMFMEGMM",
                    "DLOHGBDFFGB": {
                        "Alert": [
                            "Audio_Animal_Electrohercules_01_Alert_Large"
                        ]
                    },
                    "PGKCBIHGAOC": true,
                    "DLAOMOCMANL": [
                        "BeHit",
                        "DoSkill"
                    ],
                    "LIPMJPLGIKD": true
                },
                "MeleeAttack01_BS": {
                    "$type": "IJOIMFMEGMM",
                    "DLOHGBDFFGB": {
                        "MeleeAttack01_BS": [
                            "Animal_Electrohercules_01_JumpForward_Charging",
                            "Animal_Electrohercules_04_MeleeAttack01_BS"
                        ],
                        "MeleeAttack01_BSLoop": []
                    },
                    "DLAOMOCMANL": [
                        "BeHit",
                        "DoSkill"
                    ]
                },
                "MeleeAttack01": {
                    "$type": "IJOIMFMEGMM",
                    "DLOHGBDFFGB": {
                        "MeleeAttack01": [
                            "Animal_Electrohercules_01_JumpForward",
                            "Audio_Animal_Electrohercules_01_JumpForward"
                        ],
                        "MeleeAttack01_AS": []
                    },
                    "DLAOMOCMANL": [
                        "BeHit",
                        "DoSkill"
                    ]
                },
                "JumpBack": {
                    "$type": "IJOIMFMEGMM",
                    "DLOHGBDFFGB": {
                        "JumpBack": [
                            "Audio_Animal_Electrohercules_01_Jump"
                        ]
                    },
                    "DLAOMOCMANL": [
                        "BeHit",
                        "DoSkill"
                    ]
                },
                "RangedAttack01": {
                    "$type": "IJOIMFMEGMM",
                    "DLOHGBDFFGB": {
                        "RangedAttack01_BS": [
                            "Animal_Electrohercules_05_RangedAttack01"
                        ],
                        "RangedAttack01_Loop": [],
                        "RangedAttack01_AS": []
                    },
                    "DLAOMOCMANL": [
                        "BeHit",
                        "DoSkill"
                    ]
                },
                "RangedAttack_Wave01": {
                    "$type": "IJOIMFMEGMM",
                    "DLOHGBDFFGB": {
                        "RangedAttack_Wave01_BS": [
                            "Animal_Electrohercules_05_RangedAttack_Wave01"
                        ],
                        "RangedAttack_Wave01_Loop": [],
                        "RangedAttack_Wave01_AS": []
                    },
                    "DLAOMOCMANL": [
                        "BeHit",
                        "DoSkill"
                    ]
                },
                "RangedAttack_Wave02": {
                    "$type": "IJOIMFMEGMM",
                    "DLOHGBDFFGB": {
                        "RangedAttack_Wave02_BS": [
                            "Animal_Electrohercules_05_RangedAttack_Wave02"
                        ],
                        "RangedAttack_Wave02_Loop": [],
                        "RangedAttack_Wave02_AS": []
                    },
                    "DLAOMOCMANL": [
                        "BeHit",
                        "DoSkill"
                    ]
                },
                "CreateElectricBall01": {
                    "$type": "IJOIMFMEGMM",
                    "DLOHGBDFFGB": {
                        "CreateElectricBall01_BS": [],
                        "CreateElectricBall01_Loop": [],
                        "CreateElectricBall01_AS": [
                            "Animal_Electrohercules_05_CreateElectricBall01"
                        ],
                        "CreateElectricBall01_AS02": [],
                        "CreateElectricBall01_AS03": [],
                        "CreateElectricBall01_AS04": [
                            "Animal_Electrohercules_06_CreateElectricBall_AS"
                        ],
                        "CreateElectricBall01_AS05": [],
                        "CreateElectricBall01_AS06": []
                    },
                    "DLAOMOCMANL": [
                        "BeHit",
                        "DoSkill"
                    ]
                },
                "QuakeAttack": {
                    "$type": "IJOIMFMEGMM",
                    "DLOHGBDFFGB": {
                        "QuakeAttack02_BS": [
                            "Animal_Electrohercules_04_QuakeAttack_Alert"
                        ],
                        "QuakeAttack02_AS": [
                            "Animal_Electrohercules_04_QuakeAttack"
                        ]
                    },
                    "DLAOMOCMANL": [
                        "BeHit",
                        "DoSkill"
                    ]
                },
                "EnterHeavyState": {
                    "$type": "IJOIMFMEGMM",
                    "DLOHGBDFFGB": {
                        "EnterHeavyState": [
                            "Animal_Electrohercules_EnterHeavyState",
                            "Audio_Animal_Electrohercules_01_HeavyState_Enter_Large"
                        ]
                    },
                    "DLAOMOCMANL": [
                        "BeHit",
                        "DoSkill"
                    ]
                },
                "EnterExtraState": {
                    "$type": "IJOIMFMEGMM",
                    "DLOHGBDFFGB": {
                        "EnterExtraState": [
                            "Animal_Electrohercules_EnterExtraState",
                            "Audio_Animal_Electrohercules_01_HeavyState_Enter_Large"
                        ]
                    },
                    "DLAOMOCMANL": [
                        "BeHit",
                        "DoSkill"
                    ]
                },
                "Recoil": {
                    "$type": "IJOIMFMEGMM",
                    "DLOHGBDFFGB": {
                        "Recoil": []
                    },
                    "DLAOMOCMANL": [
                        "BeHit",
                        "DoSkill",
                        "CriticalTrigger"
                    ]
                },
                "Taunt01": {
                    "$type": "IJOIMFMEGMM",
                    "DLOHGBDFFGB": {
                        "Taunt01": [
                            "Audio_Animal_Electrohercules_01_Alert_Large"
                        ]
                    },
                    "DLAOMOCMANL": [
                        "BeHit",
                        "DoSkill"
                    ]
                },
                "Taunt02": {
                    "$type": "IJOIMFMEGMM",
                    "DLOHGBDFFGB": {
                        "Taunt02": [
                            "Audio_Animal_Electrohercules_01_Taunt_Large"
                        ]
                    },
                    "DLAOMOCMANL": [
                        "BeHit",
                        "DoSkill"
                    ]
                }
            }
        }
    },
    "IONIFBIBFNL": {
        "Default": {
            "JAAABLNBKAP": 1,
            "PIEEIAOKMJB": {
                "LHMPJOKLEHI": {
                    "ActionState": "0"
                }
            }
        }
    },
    "PDCDMABCPOA": {
        "ENLKMOKHELD": true,
        "OCBDDDCJANP": {
            "IJOBKDKBEME": {
                "DefaultSetting": {
                    "PHDIIPOBJGA": 25.0,
                    "MELADMKNPHC": true,
                    "BHOECAJIBOM": 25.0
                }
            }
        },
        "OFEGONBLOGP": {
            "DefaultSetting": []
        },
        "EJOLGMGAECP": {
            "HJODDLMLPBJ": 1.0,
            "KDPOCNEHGBJ": 500.0,
            "JGFOPCOIJOI": ""
        },
        "PMNPDDIOHHJ": {
            "OKMHHFALCCH": 50.0
        },
        "HEOOEKIGDAL": {
            "GMFIDKOEKHA": false,
            "FLMOHOODJBA": ""
        },
        "IEMFHBCDJFP": [
            {
                "BIMBEJCAFLP": 1,
                "DIAPGOFDGLC": 9.0
            }
        ],
        "HEJKJODINHK": {
            "GMBKODANLGP": {
                "1": [
                    1014,
                    1015
                ],
                "2": [],
                "3": [
                    1025
                ]
            }
        },
        "BNIENJNLAIJ": {
            "1011": {
                "NOKKDDHKGAK": "MeleeAttack01",
                "ENKLFBHHOJI": {
                    "CEKMINILIFB": [
                        101
                    ],
                    "MLFAMHDFHMM": 2.799999952316284,
                    "FNMKPCNDPFM": 8.0
                },
                "PAHIDIJLGPF": 5.0,
                "LKCFDIOMLCM": 5.0,
                "NOPNCNPCPJE": "",
                "HGAMDGAEIGO": "",
                "LFGKIDDJIED": [
                    "MeleeAttack01_BS",
                    "MeleeAttack01"
                ],
                "PGPDNPMFFAG": "11",
                "CCEAGFDONFH": "01",
                "OKOFHICILMD": "10",
                "CCFFFOIDOLP": "11"
            },
            "1211": {
                "NOKKDDHKGAK": "MeleeAttack01",
                "ENKLFBHHOJI": {
                    "CEKMINILIFB": [
                        121
                    ],
                    "MLFAMHDFHMM": 2.799999952316284,
                    "FNMKPCNDPFM": 3.0
                },
                "LKCFDIOMLCM": 5.0,
                "NOPNCNPCPJE": "",
                "HGAMDGAEIGO": "",
                "LFGKIDDJIED": [
                    "MeleeAttack01_BS",
                    "MeleeAttack01"
                ],
                "PGPDNPMFFAG": "11",
                "CCEAGFDONFH": "01",
                "OKOFHICILMD": "10",
                "CCFFFOIDOLP": "11"
            },
            "1012": {
                "NOKKDDHKGAK": "RangedAttack01",
                "ENKLFBHHOJI": {
                    "CEKMINILIFB": [
                        101,
                        121
                    ],
                    "OLDIEKKCIOG": 1.5,
                    "MLFAMHDFHMM": 5.0
                },
                "PAHIDIJLGPF": 10.0,
                "LKCFDIOMLCM": 5.0,
                "NOPNCNPCPJE": "",
                "HGAMDGAEIGO": "",
                "LFGKIDDJIED": [
                    "RangedAttack01"
                ],
                "PGPDNPMFFAG": "11",
                "CCEAGFDONFH": "01",
                "OKOFHICILMD": "10",
                "CCFFFOIDOLP": "11"
            },
            "1112": {
                "NOKKDDHKGAK": "RangedAttack01",
                "ENKLFBHHOJI": {
                    "CEKMINILIFB": [
                        111
                    ],
                    "OLDIEKKCIOG": 1.5,
                    "MLFAMHDFHMM": 5.0
                },
                "PAHIDIJLGPF": 6.0,
                "NOPNCNPCPJE": "",
                "HGAMDGAEIGO": "",
                "LFGKIDDJIED": [
                    "RangedAttack01"
                ],
                "PGPDNPMFFAG": "11",
                "CCEAGFDONFH": "01",
                "OKOFHICILMD": "10",
                "CCFFFOIDOLP": "11"
            },
            "1013": {
                "NOKKDDHKGAK": "QuakeAttack",
                "ENKLFBHHOJI": {
                    "CEKMINILIFB": [
                        101,
                        111,
                        121
                    ],
                    "MLFAMHDFHMM": 1.5
                },
                "PAHIDIJLGPF": 5.0,
                "LKCFDIOMLCM": 5.0,
                "NOPNCNPCPJE": "",
                "HGAMDGAEIGO": "",
                "LFGKIDDJIED": [
                    "QuakeAttack"
                ],
                "PGPDNPMFFAG": "11",
                "CCEAGFDONFH": "01",
                "OKOFHICILMD": "10",
                "CCFFFOIDOLP": "11"
            },
            "1014": {
                "NOKKDDHKGAK": "EnterHeavyState",
                "MBDAAADDHNL": 1,
                "ENKLFBHHOJI": {
                    "CEKMINILIFB": [
                        101,
                        111,
                        121,
                        102
                    ]
                },
                "LKCFDIOMLCM": 5.0,
                "KKAEGIJIDLG": 2.0,
                "NOPNCNPCPJE": "",
                "HGAMDGAEIGO": "",
                "LFGKIDDJIED": [
                    "EnterHeavyState"
                ],
                "PGPDNPMFFAG": "11",
                "CCEAGFDONFH": "01",
                "OKOFHICILMD": "10",
                "CCFFFOIDOLP": "11"
            },
            "1018": {
                "NOKKDDHKGAK": "Taunt01",
                "ENKLFBHHOJI": {
                    "CEKMINILIFB": [
                        101
                    ],
                    "OLDIEKKCIOG": 2.0,
                    "MLFAMHDFHMM": 99.0
                },
                "PAHIDIJLGPF": 8.0,
                "LKCFDIOMLCM": 5.0,
                "NOPNCNPCPJE": "",
                "LLNBBNIEGGO": true,
                "BIMBEJCAFLP": 1,
                "HGAMDGAEIGO": "",
                "LFGKIDDJIED": [
                    "Taunt01"
                ],
                "PGPDNPMFFAG": "11",
                "CCEAGFDONFH": "01",
                "OKOFHICILMD": "10",
                "CCFFFOIDOLP": "11"
            },
            "1021": {
                "NOKKDDHKGAK": "RangedAttack_Wave01",
                "ENKLFBHHOJI": {
                    "CEKMINILIFB": [
                        102
                    ],
                    "JHPHNFCMCIL": true,
                    "OLDIEKKCIOG": 4.0,
                    "MLFAMHDFHMM": 99.0
                },
                "PAHIDIJLGPF": 10.0,
                "NOPNCNPCPJE": "",
                "LLNBBNIEGGO": true,
                "PBJLPGMNGAK": true,
                "HGAMDGAEIGO": "",
                "LFGKIDDJIED": [
                    "RangedAttack_Wave01"
                ],
                "PGPDNPMFFAG": "11",
                "CCEAGFDONFH": "01",
                "OKOFHICILMD": "10",
                "CCFFFOIDOLP": "11"
            },
            "1023": {
                "NOKKDDHKGAK": "CreateBallCombo",
                "ENKLFBHHOJI": {
                    "CEKMINILIFB": [
                        102
                    ],
                    "JHPHNFCMCIL": true,
                    "OLDIEKKCIOG": 2.0,
                    "MLFAMHDFHMM": 4.0
                },
                "NOPNCNPCPJE": "",
                "LLNBBNIEGGO": true,
                "HGAMDGAEIGO": "",
                "LFGKIDDJIED": [
                    "CreateElectricBall01"
                ],
                "PGPDNPMFFAG": "11",
                "CCEAGFDONFH": "01",
                "OKOFHICILMD": "10",
                "CCFFFOIDOLP": "11"
            },
            "1024": {
                "NOKKDDHKGAK": "QuakeAttack",
                "ENKLFBHHOJI": {
                    "CEKMINILIFB": [
                        102
                    ],
                    "MLFAMHDFHMM": 2.0
                },
                "NOPNCNPCPJE": "",
                "HGAMDGAEIGO": "",
                "LFGKIDDJIED": [
                    "QuakeAttack"
                ],
                "PGPDNPMFFAG": "11",
                "CCEAGFDONFH": "01",
                "OKOFHICILMD": "10",
                "CCFFFOIDOLP": "11"
            },
            "1025": {
                "NOKKDDHKGAK": "EnterExtraState",
                "MBDAAADDHNL": 1,
                "ENKLFBHHOJI": {
                    "CEKMINILIFB": [
                        102
                    ],
                    "MLFAMHDFHMM": 99.0
                },
                "NOPNCNPCPJE": "",
                "LLNBBNIEGGO": true,
                "IDPMFPAPNCE": false,
                "HGAMDGAEIGO": "",
                "LFGKIDDJIED": [
                    "EnterExtraState"
                ],
                "PGPDNPMFFAG": "11",
                "CCEAGFDONFH": "01",
                "OKOFHICILMD": "10",
                "CCFFFOIDOLP": "11"
            }
        },
        "EEKEAKJCMJO": [
            {
                "$type": "DIIPKNMAPAC",
                "ENLKMOKHELD": true,
                "FJANPNOAAFK": {
                    "CEKMINILIFB": [
                        101,
                        111,
                        121
                    ]
                },
                "LMMKNFEMOMG": {
                    "AGCMPDABMIA": 1.4500000476837158,
                    "GDPAONNEBCO": 1.850000023841858,
                    "AJCEMHKIMHA": 2.0,
                    "JNMPGLIADPP": 4.0,
                    "CCMODCEDODH": 3.0,
                    "MMKHHBIBJEN": {
                        "GECJAGFGHKL": 0.0,
                        "JNJFKLDABCB": 0.0,
                        "BEJLOBBENJJ": 0.0
                    },
                    "GPPLHEGALHI": false,
                    "HEGPGPBKGFH": "1111",
                    "AFCLIFKCEKM": "1111",
                    "JOCOJHEICNA": ""
                },
                "BIDHHBJEKHM": {
                    "111": {
                        "AGCMPDABMIA": 1.4500000476837158,
                        "GDPAONNEBCO": 3.950000047683716,
                        "AJCEMHKIMHA": 2.0,
                        "JNMPGLIADPP": 4.0,
                        "CCMODCEDODH": 3.0,
                        "MMKHHBIBJEN": {
                            "GECJAGFGHKL": 0.0,
                            "JNJFKLDABCB": 0.0,
                            "BEJLOBBENJJ": 0.0
                        },
                        "GPPLHEGALHI": false,
                        "HEGPGPBKGFH": "1111",
                        "AFCLIFKCEKM": "1111",
                        "JOCOJHEICNA": ""
                    },
                    "121": {
                        "AGCMPDABMIA": 0.949999988079071,
                        "GDPAONNEBCO": 1.25,
                        "AJCEMHKIMHA": 2.0,
                        "JNMPGLIADPP": 4.0,
                        "CCMODCEDODH": 0.5,
                        "MMKHHBIBJEN": {
                            "GECJAGFGHKL": 0.0,
                            "NFMBIOFFKGK": 0.0,
                            "JNJFKLDABCB": 0.0,
                            "BEJLOBBENJJ": 0.0
                        },
                        "GPPLHEGALHI": false,
                        "HEGPGPBKGFH": "1111",
                        "AFCLIFKCEKM": "1111",
                        "JOCOJHEICNA": ""
                    }
                }
            }
        ]
    },
    "GIBHCHHOJFI": [
        {
            "NPDDCIDNKMH": 1,
            "KCAOBJOPJIC": 257,
            "KAJGDIHNKNE": ""
        },
        {
            "NPDDCIDNKMH": 1023,
            "KCAOBJOPJIC": 258,
            "KAJGDIHNKNE": ""
        },
        {
            "NPDDCIDNKMH": 1012,
            "KCAOBJOPJIC": 259,
            "KAJGDIHNKNE": ""
        },
        {
            "NPDDCIDNKMH": 1013,
            "KCAOBJOPJIC": 260,
            "KAJGDIHNKNE": ""
        },
        {
            "NPDDCIDNKMH": 1014,
            "KCAOBJOPJIC": 261,
            "KAJGDIHNKNE": ""
        },
        {
            "NPDDCIDNKMH": 1021,
            "KCAOBJOPJIC": 262,
            "KAJGDIHNKNE": ""
        },
        {
            "NPDDCIDNKMH": 1016,
            "KCAOBJOPJIC": 263,
            "KAJGDIHNKNE": ""
        },
        {
            "NPDDCIDNKMH": 1017,
            "KCAOBJOPJIC": 264,
            "KAJGDIHNKNE": ""
        },
        {
            "NPDDCIDNKMH": 1018,
            "KCAOBJOPJIC": 265,
            "KAJGDIHNKNE": ""
        }
    ],
    "ADIGBDHBCDP": {
        "$type": "IIGPJJNGCLE",
        "MIPNOGBEANL": "ForwardBackward",
        "FACNOEFNHIB": "RootNode"
    },
    "BEGHJJDCLLK": {
        "KEEAIACIJBN": "",
        "JIOEGJGNLEC": {
            "NGKLCAOGKNG": [
                {
                    "ILNHPFBOKNK": "WalkBack",
                    "CDMEEHAPNGE": {
                        "KMNBEAJOBPE": "Play_sfx_animal_electrohercules_walk_Loop"
                    }
                },
                {
                    "ILNHPFBOKNK": "WalkForward",
                    "CDMEEHAPNGE": {
                        "KMNBEAJOBPE": "Play_sfx_animal_electrohercules_walk_Loop"
                    }
                }
            ],
            "MPLMIOAKNGG": [
                {
                    "ILNHPFBOKNK": "WalkBack",
                    "CDMEEHAPNGE": {
                        "KMNBEAJOBPE": "Stop_sfx_animal_electrohercules_walk_Loop"
                    }
                },
                {
                    "ILNHPFBOKNK": "WalkForward",
                    "CDMEEHAPNGE": {
                        "KMNBEAJOBPE": "Stop_sfx_animal_electrohercules_walk_Loop"
                    }
                }
            ]
        }
    },
    "KDLODKFKHPB": {
        "PIMGAEBNCBJ": false
    }
}