{
    "luaDataPath": "",
    "entityBan": "",
    "disableNpcLod": true,
    "isAutoBanNpc": true,
    "isBanWidgetPet": true,
    "protectNpcMobileLod": true,
    "startFade": {
        "startFadeOutDuration": 0.0
    },
    "endFade": {
        "startFadeOutDuration": 0.0
    },
    "actors": [
        {
            "alias": "Avatar",
            "visible": true,
            "bornPointName": "",
            "relativePosType": "AVATAR_NEW",
            "relativePosNpcAlias": "",
            "bindMovingTargetKey": ""
        },
        {
            "configID": 20653,
            "alias": "20653",
            "visible": true,
            "bornPointName": "Q7302201_N4195",
            "relativePosType": "AVATAR_NEW",
            "relativePosNpcAlias": "",
            "bindMovingTargetKey": ""
        },
        {
            "configID": 1005,
            "alias": "1005",
            "visible": true,
            "bornPointName": "",
            "useRelativePos": true,
            "relativePos": {
                "x": 0.5,
                "z": 0.20000000298023224
            },
            "removeActorType": "REMOVE_WITH_DISAPPEAR",
            "relativePosType": "AVATAR_NEW",
            "relativePosNpcAlias": "",
            "bindMovingTargetKey": ""
        }
    ],
    "group": [
        [
            {
                "$type": "MoleMole.Config.ConfigTimeProtectAction",
                "type": "TIME_PROTECT",
                "duration": 0.10000000149011612
            }
        ],
        [
            {
                "$type": "OOMFCPJAJGL",
                "type": "STEER_TO",
                "duration": 0.5,
                "aliasList": [
                    "Avatar"
                ],
                "DMGIIHNDNLC": "TO_TARGET_ADVANCED",
                "HCMINPNPFDF": true,
                "OMCCMPHDLOO": "20653",
                "DBLNLMOPEBP": ""
            },
            {
                "$type": "EAMBKPBOPIC",
                "type": "LOOK_AT",
                "aliasList": [
                    "Avatar"
                ],
                "FIDJDPAIFDN": true,
                "BCHGCKLKNEH": 0.5,
                "OMCCMPHDLOO": "20653",
                "EOHIIHMKDJC": true,
                "KPCALFDIHMC": "",
                "DBLNLMOPEBP": ""
            },
            {
                "$type": "DLPFECMKEKH",
                "type": "DIALOG",
                "aliasList": [
                    "20653"
                ],
                "NMKEDPFEKBH": 730220301,
                "JLCHMAJCAPA": 0.5
            },
            {
                "$type": "OOMFCPJAJGL",
                "type": "STEER_TO",
                "duration": 0.5,
                "aliasList": [
                    "20653"
                ],
                "DMGIIHNDNLC": "TO_TARGET_ADVANCED",
                "HCMINPNPFDF": true,
                "OMCCMPHDLOO": "Avatar",
                "DBLNLMOPEBP": ""
            },
            {
                "$type": "EAMBKPBOPIC",
                "type": "LOOK_AT",
                "aliasList": [
                    "20653"
                ],
                "FIDJDPAIFDN": true,
                "BCHGCKLKNEH": 0.5,
                "OMCCMPHDLOO": "Avatar",
                "EOHIIHMKDJC": true,
                "KPCALFDIHMC": "",
                "DBLNLMOPEBP": ""
            },
            {
                "$type": "OOMFCPJAJGL",
                "type": "STEER_TO",
                "duration": 0.5,
                "aliasList": [
                    "1005"
                ],
                "DMGIIHNDNLC": "TO_TARGET_ADVANCED",
                "HCMINPNPFDF": true,
                "OMCCMPHDLOO": "20653",
                "DBLNLMOPEBP": ""
            },
            {
                "$type": "EAMBKPBOPIC",
                "type": "LOOK_AT",
                "aliasList": [
                    "1005"
                ],
                "FIDJDPAIFDN": true,
                "BCHGCKLKNEH": 0.5,
                "OMCCMPHDLOO": "20653",
                "EOHIIHMKDJC": true,
                "KPCALFDIHMC": "",
                "DBLNLMOPEBP": ""
            }
        ],
        [
            {
                "$type": "DLPFECMKEKH",
                "type": "DIALOG",
                "aliasList": [
                    "20653"
                ],
                "NMKEDPFEKBH": 730220302,
                "JLCHMAJCAPA": 0.5
            }
        ],
        [
            {
                "$type": "DLPFECMKEKH",
                "type": "DIALOG",
                "aliasList": [
                    "1005"
                ],
                "NMKEDPFEKBH": 730220303,
                "JLCHMAJCAPA": 0.5
            },
            {
                "$type": "ILCGAGEGDJI",
                "type": "BODY_LANG",
                "aliasList": [
                    "1005"
                ],
                "FLBOOPHHFJP": 1300,
                "PMJAMGLAJGK": true,
                "LIMPPBIAKGL": false,
                "FNDLJGEAMGI": ""
            }
        ],
        [
            {
                "$type": "DLPFECMKEKH",
                "type": "DIALOG",
                "aliasList": [
                    "20653"
                ],
                "NMKEDPFEKBH": 730220304,
                "JLCHMAJCAPA": 0.5
            }
        ],
        [
            {
                "$type": "DLPFECMKEKH",
                "type": "DIALOG",
                "aliasList": [
                    "20653"
                ],
                "NMKEDPFEKBH": 730220305,
                "JLCHMAJCAPA": 0.5
            }
        ],
        [
            {
                "$type": "DLPFECMKEKH",
                "type": "DIALOG",
                "aliasList": [
                    "1005"
                ],
                "NMKEDPFEKBH": 730220306,
                "JLCHMAJCAPA": 0.5
            }
        ],
        [
            {
                "$type": "DLPFECMKEKH",
                "type": "DIALOG",
                "aliasList": [
                    "20653"
                ],
                "NMKEDPFEKBH": 730220307,
                "JLCHMAJCAPA": 0.5
            }
        ],
        [
            {
                "$type": "DLPFECMKEKH",
                "type": "DIALOG",
                "aliasList": [
                    "20653"
                ],
                "NMKEDPFEKBH": 730220308,
                "JLCHMAJCAPA": 0.5
            }
        ],
        [
            {
                "$type": "DLPFECMKEKH",
                "type": "DIALOG",
                "aliasList": [
                    "1005"
                ],
                "NMKEDPFEKBH": 730220309,
                "JLCHMAJCAPA": 0.5
            },
            {
                "$type": "ECLBLHOENAG",
                "type": "DIALOG_SELECT",
                "delayTime": 0.4000000059604645,
                "aliasList": [
                    "Avatar"
                ],
                "NDMMOPDPKNF": [
                    730220310
                ],
                "FPDBIEGHMCD": [
                    271797065
                ],
                "PKBOIGBGDEG": true
            }
        ],
        [
            {
                "$type": "DLPFECMKEKH",
                "type": "DIALOG",
                "aliasList": [
                    "20653"
                ],
                "NMKEDPFEKBH": 730220311,
                "JLCHMAJCAPA": 0.5
            }
        ],
        [
            {
                "$type": "DLPFECMKEKH",
                "type": "DIALOG",
                "aliasList": [
                    "1005"
                ],
                "NMKEDPFEKBH": 730220312,
                "JLCHMAJCAPA": 0.5
            }
        ],
        [
            {
                "$type": "DLPFECMKEKH",
                "type": "DIALOG",
                "aliasList": [
                    "20653"
                ],
                "NMKEDPFEKBH": 730220313,
                "JLCHMAJCAPA": 0.5
            },
            {
                "$type": "ECLBLHOENAG",
                "type": "DIALOG_SELECT",
                "delayTime": 0.4000000059604645,
                "aliasList": [
                    "Avatar"
                ],
                "NDMMOPDPKNF": [
                    730220314,
                    730220317
                ],
                "FPDBIEGHMCD": [
                    271797068,
                    271797070
                ],
                "PKBOIGBGDEG": true
            }
        ],
        [
            {
                "$type": "DLPFECMKEKH",
                "type": "DIALOG",
                "aliasList": [
                    "20653"
                ],
                "NMKEDPFEKBH": 730220315,
                "JLCHMAJCAPA": 0.5
            },
            {
                "$type": "ILCGAGEGDJI",
                "type": "BODY_LANG",
                "aliasList": [
                    "20653"
                ],
                "FLBOOPHHFJP": 1090,
                "PMJAMGLAJGK": true,
                "LIMPPBIAKGL": false,
                "FNDLJGEAMGI": ""
            }
        ],
        [
            {
                "$type": "DLPFECMKEKH",
                "type": "DIALOG",
                "aliasList": [
                    "1005"
                ],
                "NMKEDPFEKBH": 730220316,
                "JLCHMAJCAPA": 0.5
            }
        ],
        [
            {
                "$type": "DLPFECMKEKH",
                "type": "DIALOG",
                "aliasList": [
                    "20653"
                ],
                "NMKEDPFEKBH": 730220318,
                "JLCHMAJCAPA": 0.5
            },
            {
                "$type": "ILCGAGEGDJI",
                "type": "BODY_LANG",
                "aliasList": [
                    "20653"
                ],
                "FLBOOPHHFJP": 1020,
                "PMJAMGLAJGK": true,
                "LIMPPBIAKGL": false,
                "FNDLJGEAMGI": ""
            }
        ],
        [
            {
                "$type": "DLPFECMKEKH",
                "type": "DIALOG",
                "aliasList": [
                    "1005"
                ],
                "NMKEDPFEKBH": 730220319,
                "JLCHMAJCAPA": 0.5
            }
        ],
        [
            {
                "$type": "DLPFECMKEKH",
                "type": "DIALOG",
                "aliasList": [
                    "20653"
                ],
                "NMKEDPFEKBH": 730220320,
                "JLCHMAJCAPA": 0.5
            }
        ],
        [
            {
                "$type": "DLPFECMKEKH",
                "type": "DIALOG",
                "aliasList": [
                    "1005"
                ],
                "NMKEDPFEKBH": 730220321,
                "JLCHMAJCAPA": 0.5
            }
        ],
        [
            {
                "$type": "DLPFECMKEKH",
                "type": "DIALOG",
                "aliasList": [
                    "20653"
                ],
                "NMKEDPFEKBH": 730220322,
                "JLCHMAJCAPA": 0.5
            }
        ],
        [
            {
                "$type": "DLPFECMKEKH",
                "type": "DIALOG",
                "aliasList": [
                    "1005"
                ],
                "NMKEDPFEKBH": 730220323,
                "JLCHMAJCAPA": 0.5
            }
        ],
        [
            {
                "$type": "DLPFECMKEKH",
                "type": "DIALOG",
                "aliasList": [
                    "1005"
                ],
                "NMKEDPFEKBH": 730220324,
                "JLCHMAJCAPA": 0.5
            },
            {
                "$type": "ECLBLHOENAG",
                "type": "DIALOG_SELECT",
                "delayTime": 0.4000000059604645,
                "aliasList": [
                    "Avatar"
                ],
                "NDMMOPDPKNF": [
                    730220325,
                    730220327
                ],
                "FPDBIEGHMCD": [
                    271797098,
                    271797099
                ],
                "PKBOIGBGDEG": true
            }
        ],
        [
            {
                "$type": "DLPFECMKEKH",
                "type": "DIALOG",
                "aliasList": [
                    "1005"
                ],
                "NMKEDPFEKBH": 730220326,
                "JLCHMAJCAPA": 0.5
            }
        ],
        [
            {
                "$type": "DLPFECMKEKH",
                "type": "DIALOG",
                "aliasList": [
                    "1005"
                ],
                "NMKEDPFEKBH": 730220328,
                "JLCHMAJCAPA": 0.5
            }
        ],
        [
            {
                "$type": "DLPFECMKEKH",
                "type": "DIALOG",
                "aliasList": [
                    "20653"
                ],
                "NMKEDPFEKBH": 730220329,
                "JLCHMAJCAPA": 0.5
            }
        ],
        [
            {
                "$type": "DLPFECMKEKH",
                "type": "DIALOG",
                "aliasList": [
                    "1005"
                ],
                "NMKEDPFEKBH": 730220330,
                "JLCHMAJCAPA": 0.5
            }
        ],
        [
            {
                "$type": "MoleMole.Config.ConfigSimpleBlackScreenAction",
                "type": "SIMPLE_BLACK_SCREEN",
                "durationToBlack": 0.5,
                "durationKeepBlack": 3.0,
                "durationFromBlack": 0.5,
                "textMapID": "",
                "useTextFade": true,
                "dialogID": 730220331
            },
            {
                "$type": "DLPFECMKEKH",
                "type": "DIALOG_CLEAR"
            }
        ],
        [
            {
                "$type": "DLPFECMKEKH",
                "type": "DIALOG",
                "aliasList": [
                    "20653"
                ],
                "NMKEDPFEKBH": 730220332,
                "JLCHMAJCAPA": 0.5
            }
        ],
        [
            {
                "$type": "DLPFECMKEKH",
                "type": "DIALOG",
                "aliasList": [
                    "1005"
                ],
                "NMKEDPFEKBH": 730220333,
                "JLCHMAJCAPA": 0.5
            }
        ],
        [
            {
                "$type": "DLPFECMKEKH",
                "type": "DIALOG",
                "aliasList": [
                    "20653"
                ],
                "NMKEDPFEKBH": 730220334,
                "JLCHMAJCAPA": 0.5
            }
        ],
        [
            {
                "$type": "DLPFECMKEKH",
                "type": "DIALOG",
                "aliasList": [
                    "1005"
                ],
                "NMKEDPFEKBH": 730220335,
                "JLCHMAJCAPA": 0.5
            }
        ],
        [
            {
                "$type": "DLPFECMKEKH",
                "type": "DIALOG",
                "aliasList": [
                    "20653"
                ],
                "NMKEDPFEKBH": 730220336,
                "JLCHMAJCAPA": 0.5
            }
        ],
        [
            {
                "$type": "DLPFECMKEKH",
                "type": "DIALOG",
                "aliasList": [
                    "1005"
                ],
                "NMKEDPFEKBH": 730220337,
                "JLCHMAJCAPA": 0.5
            }
        ],
        [
            {
                "$type": "DLPFECMKEKH",
                "type": "DIALOG",
                "aliasList": [
                    "20653"
                ],
                "NMKEDPFEKBH": 730220338,
                "JLCHMAJCAPA": 0.5
            }
        ],
        [
            {
                "$type": "DLPFECMKEKH",
                "type": "DIALOG",
                "aliasList": [
                    "20653"
                ],
                "NMKEDPFEKBH": 730220339,
                "JLCHMAJCAPA": 0.5
            },
            {
                "$type": "ECLBLHOENAG",
                "type": "DIALOG_SELECT",
                "delayTime": 0.4000000059604645,
                "aliasList": [
                    "Avatar"
                ],
                "NDMMOPDPKNF": [
                    730220340,
                    730220341,
                    730220342
                ],
                "FPDBIEGHMCD": [
                    271797133,
                    271797133,
                    271797132
                ],
                "PKBOIGBGDEG": true
            }
        ],
        [
            {
                "$type": "DLPFECMKEKH",
                "type": "DIALOG",
                "aliasList": [
                    "1005"
                ],
                "NMKEDPFEKBH": 730220343,
                "JLCHMAJCAPA": 0.5
            }
        ],
        [
            {
                "$type": "DLPFECMKEKH",
                "type": "DIALOG",
                "aliasList": [
                    "20653"
                ],
                "NMKEDPFEKBH": 730220344,
                "JLCHMAJCAPA": 0.5
            }
        ],
        [
            {
                "$type": "DLPFECMKEKH",
                "type": "DIALOG",
                "aliasList": [
                    "20653"
                ],
                "NMKEDPFEKBH": 730220345,
                "JLCHMAJCAPA": 0.5
            }
        ],
        [
            {
                "$type": "DLPFECMKEKH",
                "type": "DIALOG",
                "aliasList": [
                    "20653"
                ],
                "NMKEDPFEKBH": 730220346,
                "JLCHMAJCAPA": 0.5
            }
        ],
        [
            {
                "$type": "DLPFECMKEKH",
                "type": "DIALOG",
                "aliasList": [
                    "20653"
                ],
                "NMKEDPFEKBH": 730220347,
                "JLCHMAJCAPA": 0.5
            }
        ],
        [
            {
                "$type": "DLPFECMKEKH",
                "type": "DIALOG",
                "aliasList": [
                    "1005"
                ],
                "NMKEDPFEKBH": 730220348,
                "JLCHMAJCAPA": 0.5
            }
        ],
        [
            {
                "$type": "DLPFECMKEKH",
                "type": "DIALOG",
                "aliasList": [
                    "20653"
                ],
                "NMKEDPFEKBH": 730220349,
                "JLCHMAJCAPA": 0.5
            }
        ],
        [
            {
                "$type": "DLPFECMKEKH",
                "type": "DIALOG",
                "aliasList": [
                    "20653"
                ],
                "NMKEDPFEKBH": 730220350,
                "JLCHMAJCAPA": 0.5
            }
        ],
        [
            {
                "$type": "DLPFECMKEKH",
                "type": "DIALOG",
                "aliasList": [
                    "20653"
                ],
                "NMKEDPFEKBH": 730220351,
                "JLCHMAJCAPA": 0.5
            }
        ],
        [
            {
                "$type": "DLPFECMKEKH",
                "type": "DIALOG",
                "aliasList": [
                    "20653"
                ],
                "NMKEDPFEKBH": 730220352,
                "JLCHMAJCAPA": 0.5
            }
        ],
        [
            {
                "$type": "DLPFECMKEKH",
                "type": "DIALOG",
                "aliasList": [
                    "20653"
                ],
                "NMKEDPFEKBH": 730220353,
                "JLCHMAJCAPA": 0.5
            }
        ],
        [
            {
                "$type": "DLPFECMKEKH",
                "type": "DIALOG",
                "aliasList": [
                    "20653"
                ],
                "NMKEDPFEKBH": 730220354,
                "JLCHMAJCAPA": 0.5
            }
        ],
        [
            {
                "$type": "DLPFECMKEKH",
                "type": "DIALOG",
                "aliasList": [
                    "1005"
                ],
                "NMKEDPFEKBH": 730220355,
                "JLCHMAJCAPA": 0.5
            }
        ],
        [
            {
                "$type": "DLPFECMKEKH",
                "type": "DIALOG",
                "aliasList": [
                    "20653"
                ],
                "NMKEDPFEKBH": 730220356,
                "JLCHMAJCAPA": 0.5
            }
        ],
        [
            {
                "$type": "DLPFECMKEKH",
                "type": "DIALOG",
                "aliasList": [
                    "20653"
                ],
                "NMKEDPFEKBH": 730220357,
                "JLCHMAJCAPA": 0.5
            }
        ],
        [
            {
                "$type": "DLPFECMKEKH",
                "type": "DIALOG",
                "aliasList": [
                    "1005"
                ],
                "NMKEDPFEKBH": 730220358,
                "JLCHMAJCAPA": 0.5
            }
        ],
        [
            {
                "$type": "DLPFECMKEKH",
                "type": "DIALOG",
                "aliasList": [
                    "20653"
                ],
                "NMKEDPFEKBH": 730220359,
                "JLCHMAJCAPA": 0.5
            }
        ],
        [
            {
                "$type": "DLPFECMKEKH",
                "type": "DIALOG",
                "aliasList": [
                    "20653"
                ],
                "NMKEDPFEKBH": 730220360,
                "JLCHMAJCAPA": 0.5
            }
        ],
        [
            {
                "$type": "DLPFECMKEKH",
                "type": "DIALOG",
                "aliasList": [
                    "1005"
                ],
                "NMKEDPFEKBH": 730220361,
                "JLCHMAJCAPA": 0.5
            }
        ],
        [
            {
                "$type": "DLPFECMKEKH",
                "type": "DIALOG",
                "aliasList": [
                    "1005"
                ],
                "NMKEDPFEKBH": 730220362,
                "JLCHMAJCAPA": 0.5
            },
            {
                "$type": "ECLBLHOENAG",
                "type": "DIALOG_SELECT",
                "delayTime": 0.4000000059604645,
                "aliasList": [
                    "Avatar"
                ],
                "NDMMOPDPKNF": [
                    730220363,
                    730220364
                ],
                "FPDBIEGHMCD": [
                    271797194,
                    271797194
                ],
                "PKBOIGBGDEG": true
            }
        ],
        [
            {
                "$type": "DLPFECMKEKH",
                "type": "DIALOG",
                "aliasList": [
                    "1005"
                ],
                "NMKEDPFEKBH": 730220365,
                "JLCHMAJCAPA": 0.5
            },
            {
                "$type": "ECLBLHOENAG",
                "type": "DIALOG_SELECT",
                "delayTime": 0.4000000059604645,
                "aliasList": [
                    "Avatar"
                ],
                "NDMMOPDPKNF": [
                    730220366
                ],
                "FPDBIEGHMCD": [
                    271797195
                ],
                "PKBOIGBGDEG": true
            }
        ],
        [
            {
                "$type": "DLPFECMKEKH",
                "type": "DIALOG",
                "aliasList": [
                    "1005"
                ],
                "NMKEDPFEKBH": 730220367,
                "JLCHMAJCAPA": 0.5
            }
        ],
        [
            {
                "$type": "DLPFECMKEKH",
                "type": "DIALOG",
                "aliasList": [
                    "1005"
                ],
                "NMKEDPFEKBH": 730220368,
                "JLCHMAJCAPA": 0.5
            }
        ],
        [
            {
                "$type": "MoleMole.Config.ConfigTimeProtectAction",
                "type": "TIME_PROTECT",
                "duration": 0.10000000149011612
            }
        ]
    ],
    "groupId": [
        {
            "grpId": 2502619624,
            "nextGrpId": 2502619625
        },
        {
            "index": 1,
            "grpId": 2502619625,
            "nextGrpId": 2502619626
        },
        {
            "index": 2,
            "grpId": 2502619626,
            "nextGrpId": 2502619627
        },
        {
            "index": 3,
            "grpId": 2502619627,
            "nextGrpId": 2502619628
        },
        {
            "index": 4,
            "grpId": 2502619628,
            "nextGrpId": 2502619629
        },
        {
            "index": 5,
            "grpId": 2502619629,
            "nextGrpId": 2502619630
        },
        {
            "index": 6,
            "grpId": 2502619630,
            "nextGrpId": 2502619631
        },
        {
            "index": 7,
            "grpId": 2502619631,
            "nextGrpId": 2502619632
        },
        {
            "index": 8,
            "grpId": 2502619632,
            "nextGrpId": 271797064
        },
        {
            "index": 9,
            "grpId": 271797064,
            "nextGrpId": 271797065
        },
        {
            "index": 10,
            "grpId": 271797065,
            "nextGrpId": 271797066
        },
        {
            "index": 11,
            "grpId": 271797066,
            "nextGrpId": 271797067
        },
        {
            "index": 12,
            "grpId": 271797067,
            "nextGrpId": 271797068
        },
        {
            "index": 13,
            "grpId": 271797068,
            "nextGrpId": 271797069
        },
        {
            "index": 14,
            "grpId": 271797069,
            "nextGrpId": 271797070
        },
        {
            "index": 15,
            "grpId": 271797070,
            "nextGrpId": 271797071
        },
        {
            "index": 16,
            "grpId": 271797071,
            "nextGrpId": 271797072
        },
        {
            "index": 17,
            "grpId": 271797072,
            "nextGrpId": 271797073
        },
        {
            "index": 18,
            "grpId": 271797073,
            "nextGrpId": 271797095
        },
        {
            "index": 19,
            "grpId": 271797095,
            "nextGrpId": 271797096
        },
        {
            "index": 20,
            "grpId": 271797096,
            "nextGrpId": 271797097
        },
        {
            "index": 21,
            "grpId": 271797097,
            "nextGrpId": 271797098
        },
        {
            "index": 22,
            "grpId": 271797098,
            "nextGrpId": 271797100
        },
        {
            "index": 23,
            "grpId": 271797099,
            "nextGrpId": 271797100
        },
        {
            "index": 24,
            "grpId": 271797100,
            "nextGrpId": 271797101
        },
        {
            "index": 25,
            "grpId": 271797101,
            "nextGrpId": 271797102
        },
        {
            "index": 26,
            "grpId": 271797102,
            "nextGrpId": 271797103
        },
        {
            "index": 27,
            "grpId": 271797103,
            "nextGrpId": 271797104
        },
        {
            "index": 28,
            "grpId": 271797104,
            "nextGrpId": 271797126
        },
        {
            "index": 29,
            "grpId": 271797126,
            "nextGrpId": 271797127
        },
        {
            "index": 30,
            "grpId": 271797127,
            "nextGrpId": 271797128
        },
        {
            "index": 31,
            "grpId": 271797128,
            "nextGrpId": 271797129
        },
        {
            "index": 32,
            "grpId": 271797129,
            "nextGrpId": 271797130
        },
        {
            "index": 33,
            "grpId": 271797130,
            "nextGrpId": 271797131
        },
        {
            "index": 34,
            "grpId": 271797131,
            "nextGrpId": 271797132
        },
        {
            "index": 35,
            "grpId": 271797132,
            "nextGrpId": 271797133
        },
        {
            "index": 36,
            "grpId": 271797133,
            "nextGrpId": 271797134
        },
        {
            "index": 37,
            "grpId": 271797134,
            "nextGrpId": 271797135
        },
        {
            "index": 38,
            "grpId": 271797135,
            "nextGrpId": 271797157
        },
        {
            "index": 39,
            "grpId": 271797157,
            "nextGrpId": 271797158
        },
        {
            "index": 40,
            "grpId": 271797158,
            "nextGrpId": 271797159
        },
        {
            "index": 41,
            "grpId": 271797159,
            "nextGrpId": 271797160
        },
        {
            "index": 42,
            "grpId": 271797160,
            "nextGrpId": 271797161
        },
        {
            "index": 43,
            "grpId": 271797161,
            "nextGrpId": 271797162
        },
        {
            "index": 44,
            "grpId": 271797162,
            "nextGrpId": 271797163
        },
        {
            "index": 45,
            "grpId": 271797163,
            "nextGrpId": 271797164
        },
        {
            "index": 46,
            "grpId": 271797164,
            "nextGrpId": 271797165
        },
        {
            "index": 47,
            "grpId": 271797165,
            "nextGrpId": 271797166
        },
        {
            "index": 48,
            "grpId": 271797166,
            "nextGrpId": 271797188
        },
        {
            "index": 49,
            "grpId": 271797188,
            "nextGrpId": 271797189
        },
        {
            "index": 50,
            "grpId": 271797189,
            "nextGrpId": 271797190
        },
        {
            "index": 51,
            "grpId": 271797190,
            "nextGrpId": 271797191
        },
        {
            "index": 52,
            "grpId": 271797191,
            "nextGrpId": 271797192
        },
        {
            "index": 53,
            "grpId": 271797192,
            "nextGrpId": 271797193
        },
        {
            "index": 54,
            "grpId": 271797193,
            "nextGrpId": 271797194
        },
        {
            "index": 55,
            "grpId": 271797194,
            "nextGrpId": 271797195
        },
        {
            "index": 56,
            "grpId": 271797195,
            "nextGrpId": 271797196
        },
        {
            "index": 57,
            "grpId": 271797196,
            "nextGrpId": 271797197
        },
        {
            "index": 58,
            "grpId": 271797197,
            "nextGrpId": 271797219
        }
    ],
    "freeStyleDic": {
        "20653": [
            1090,
            1020
        ]
    }
}