{
    "luaDataPath": "",
    "startBlackKeepTime": 0.5,
    "entityBan": "",
    "disableNpcLod": true,
    "isAutoBanNpc": true,
    "isBanWidgetPet": true,
    "protectNpcMobileLod": true,
    "startFade": {
        "startFadeInDuration": 0.5,
        "startFadeOutDuration": 0.5
    },
    "endFade": {
        "startFadeOutDuration": 0.0
    },
    "actors": [
        {
            "alias": "Avatar",
            "visible": true,
            "bornPointName": "DUMMY_POS 330200852",
            "relativePosType": "AVATAR_NEW",
            "relativePosNpcAlias": "",
            "bindMovingTargetKey": ""
        },
        {
            "configID": 1005,
            "alias": "1005",
            "visible": true,
            "bornPointName": "",
            "useRelativePos": true,
            "relativePos": {
                "x": 0.5,
                "z": 0.5
            },
            "removeActorType": "REMOVE_WITH_DISAPPEAR",
            "relativePosType": "AVATAR_NEW",
            "relativePosNpcAlias": "",
            "bindMovingTargetKey": ""
        },
        {
            "configID": 20576,
            "alias": "20576",
            "visible": true,
            "bornPointName": "Q7306119_N20576",
            "relativePosType": "AVATAR_NEW",
            "relativePosNpcAlias": "",
            "bindMovingTargetKey": ""
        },
        {
            "configID": 20628,
            "alias": "20628",
            "visible": true,
            "bornPointName": "Q7306119_N20576",
            "relativePosType": "AVATAR_NEW",
            "relativePosNpcAlias": "",
            "bindMovingTargetKey": ""
        }
    ],
    "group": [
        [
            {
                "$type": "MoleMole.Config.ConfigTimeProtectAction",
                "type": "TIME_PROTECT",
                "duration": 0.492000013589859
            },
            {
                "$type": "MoleMole.Config.ConfigBlackScreenAction",
                "type": "BLACK_SCREEN",
                "actionId": 180,
                "blackScreenType": "KEEP_BLACK",
                "durationKeepBlack": 0.5,
                "inteePos": "",
                "textMapID": "",
                "useTextFade": true
            },
            {
                "$type": "EAMBKPBOPIC",
                "type": "LOOK_AT",
                "aliasList": [
                    "Avatar"
                ],
                "actionId": 114,
                "FIDJDPAIFDN": true,
                "useTargetPos": true,
                "GFKIMGBGADJ": true,
                "GMKIJKADNHN": {
                    "x": -346.718994140625,
                    "y": 120.68299865722656,
                    "z": 2254.780029296875
                },
                "BCHGCKLKNEH": 0.5,
                "OMCCMPHDLOO": "",
                "CEBMBGKJACI": "NONE",
                "EOHIIHMKDJC": true,
                "KPCALFDIHMC": "",
                "DBLNLMOPEBP": ""
            },
            {
                "$type": "MoleMole.Config.ConfigTeleportToAction",
                "type": "TELEPORT_TO",
                "aliasList": [
                    "Avatar"
                ],
                "actionId": 117,
                "position": {
                    "x": -350.54400634765625,
                    "y": 120.18800354003906,
                    "z": 2255.322021484375
                },
                "forward": {
                    "x": 4.004000186920166,
                    "y": 0.12700000405311584,
                    "z": -0.07800000160932541
                },
                "openLongDisTeleport": true,
                "posBindMovingTargetKey": "",
                "forwardBindMovingTargetKey": ""
            },
            {
                "$type": "MoleMole.Config.ConfigTeleportToAction",
                "type": "TELEPORT_TO",
                "aliasList": [
                    "1005"
                ],
                "actionId": 113,
                "position": {
                    "x": -350.86199951171875,
                    "y": 120.09200286865234,
                    "z": 2253.610107421875
                },
                "forward": {
                    "x": 4.664999961853027,
                    "y": 0.0689999982714653,
                    "z": 1.4700000286102295
                },
                "openLongDisTeleport": true,
                "posBindMovingTargetKey": "",
                "forwardBindMovingTargetKey": ""
            },
            {
                "$type": "EAMBKPBOPIC",
                "type": "LOOK_AT",
                "aliasList": [
                    "1005"
                ],
                "actionId": 217,
                "FIDJDPAIFDN": true,
                "useTargetPos": true,
                "GFKIMGBGADJ": true,
                "GMKIJKADNHN": {
                    "x": -346.718994140625,
                    "y": 120.68299865722656,
                    "z": 2254.780029296875
                },
                "BCHGCKLKNEH": 0.5,
                "OMCCMPHDLOO": "",
                "CEBMBGKJACI": "NONE",
                "EOHIIHMKDJC": true,
                "KPCALFDIHMC": "",
                "DBLNLMOPEBP": ""
            },
            {
                "$type": "MoleMole.Config.ConfigTeleportToAction",
                "type": "TELEPORT_TO",
                "aliasList": [
                    "20576"
                ],
                "actionId": 118,
                "position": {
                    "x": -349.60400390625,
                    "y": 120.13999938964844,
                    "z": 2257.52587890625
                },
                "forward": {
                    "x": 3.1700000762939453,
                    "y": 0.42100000381469727,
                    "z": -2.562000036239624
                },
                "openLongDisTeleport": true,
                "posBindMovingTargetKey": "",
                "forwardBindMovingTargetKey": ""
            },
            {
                "$type": "EAMBKPBOPIC",
                "type": "LOOK_AT",
                "aliasList": [
                    "20576"
                ],
                "actionId": 119,
                "FIDJDPAIFDN": true,
                "useTargetPos": true,
                "GFKIMGBGADJ": true,
                "GMKIJKADNHN": {
                    "x": -347.74700927734375,
                    "y": 121.40299987792969,
                    "z": 2252.802978515625
                },
                "BCHGCKLKNEH": 0.5,
                "OMCCMPHDLOO": "",
                "CEBMBGKJACI": "NONE",
                "EOHIIHMKDJC": true,
                "KPCALFDIHMC": "",
                "DBLNLMOPEBP": ""
            },
            {
                "$type": "MoleMole.Config.ConfigTeleportToAction",
                "type": "TELEPORT_TO",
                "aliasList": [
                    "20628"
                ],
                "actionId": 133,
                "position": {
                    "x": -302.2250061035156,
                    "y": 152.9320068359375,
                    "z": 2276.81591796875
                },
                "forward": {
                    "x": 0.996999979019165,
                    "z": -0.07599999755620956
                },
                "openLongDisTeleport": true,
                "posBindMovingTargetKey": "",
                "forwardBindMovingTargetKey": ""
            },
            {
                "$type": "EAMBKPBOPIC",
                "type": "LOOK_AT",
                "aliasList": [
                    "20628"
                ],
                "actionId": 137,
                "BCHGCKLKNEH": 0.5,
                "OMCCMPHDLOO": "",
                "EOHIIHMKDJC": true,
                "KPCALFDIHMC": "",
                "DBLNLMOPEBP": ""
            },
            {
                "$type": "MoleMole.Config.ConfigMoveToAction",
                "type": "MOVE_TO",
                "delayTime": 0.10000000149011612,
                "aliasList": [
                    "20576"
                ],
                "actionId": 215,
                "moveType": "WALK",
                "routeList": [
                    {
                        "x": -347.13800048828125,
                        "y": 120.4469985961914,
                        "z": 2255.947021484375
                    }
                ],
                "exactlyMove": true,
                "closeNavMesh": true,
                "bindMovingTargetKey": ""
            },
            {
                "$type": "MoleMole.Config.ConfigMoveToAction",
                "type": "MOVE_TO",
                "delayTime": 0.1550000011920929,
                "aliasList": [
                    "1005"
                ],
                "actionId": 230,
                "moveType": "RUN",
                "routeList": [
                    {
                        "x": -348.21099853515625,
                        "y": 120.40699768066406,
                        "z": 2254.198974609375
                    }
                ],
                "exactlyMove": true,
                "closeNavMesh": true,
                "bindMovingTargetKey": ""
            }
        ],
        [
            {
                "$type": "MOOOKOKLLEI",
                "type": "CAMERA_MOVE",
                "duration": 0.10000000149011612,
                "actionId": 185,
                "DOKGBCKOLJK": {
                    "x": -347.1650085449219,
                    "y": 121.21700286865234,
                    "z": 2253.83203125
                },
                "HGKCPMDICGG": {
                    "x": -347.91400146484375,
                    "y": 121.51499938964844,
                    "z": 2254.424072265625
                },
                "MGMFMGNANHH": 6,
                "NDFGFJFGHKL": "EaseInOutCubic",
                "IBCBGNHCICN": {},
                "BNBBLLBEIDL": true,
                "NHNPMMBMCFC": 1.2259999513626099,
                "HCPFCAHMGMO": false,
                "OMCCMPHDLOO": "",
                "FEFNBKOHPOG": true,
                "OCFGGGHIKOO": "",
                "LJFHGGJDPHH": "",
                "LPKDFKLNEHL": ""
            },
            {
                "$type": "EAMBKPBOPIC",
                "type": "LOOK_AT",
                "aliasList": [
                    "20628"
                ],
                "actionId": 240,
                "FIDJDPAIFDN": true,
                "useTargetPos": true,
                "GFKIMGBGADJ": true,
                "GMKIJKADNHN": {
                    "x": -331.0690002441406,
                    "y": 138.75399780273438,
                    "z": 2264.279052734375
                },
                "BCHGCKLKNEH": 0.5,
                "OMCCMPHDLOO": "",
                "CEBMBGKJACI": "NONE",
                "EOHIIHMKDJC": true,
                "KPCALFDIHMC": "",
                "DBLNLMOPEBP": ""
            },
            {
                "$type": "MoleMole.Config.ConfigTeleportToAction",
                "type": "TELEPORT_TO",
                "aliasList": [
                    "20628"
                ],
                "actionId": 199,
                "position": {
                    "x": -328.04998779296875,
                    "y": 138.91600036621094,
                    "z": 2266.25
                },
                "forward": {
                    "x": -4.877999782562256,
                    "z": -3.078000068664551
                },
                "openLongDisTeleport": true,
                "posBindMovingTargetKey": "",
                "forwardBindMovingTargetKey": ""
            },
            {
                "$type": "OPCCDGPJCJI",
                "type": "EMO_SYNC",
                "aliasList": [
                    "1005"
                ],
                "actionId": 244,
                "IONNJBCBACJ": "",
                "HLEJKBCMNNJ": "Cs_Emo_Pet_Common/Cs_Emo_Paimon_Angry01",
                "JGHLJJLNGPP": "Cs_Emo_Pet_Common/Cs_Emo_Paimon_Normal01_B",
                "MANNKIIBOFM": "",
                "COMNAAFDEDH": "",
                "CPGCCLNOCDK": "",
                "MFABDGAFKII": [
                    8887624181441475292,
                    18209086005751125871,
                    3291038487434063407,
                    2002509548947436691
                ],
                "IPAGHAALIII": [
                    14892026956990897578,
                    7647528750435710781,
                    2171559387429051042,
                    15358483104891988261
                ]
            },
            {
                "$type": "OPCCDGPJCJI",
                "type": "EMO_SYNC",
                "aliasList": [
                    "Avatar"
                ],
                "actionId": 245,
                "IONNJBCBACJ": "",
                "HLEJKBCMNNJ": "Cs_Emo_Avatar_Common/Cs_Emo_Avatar_Angry01",
                "JGHLJJLNGPP": "Cs_Emo_Avatar_Common/Cs_Emo_Avatar_Default01_B",
                "MANNKIIBOFM": "",
                "COMNAAFDEDH": "",
                "CPGCCLNOCDK": "",
                "MFABDGAFKII": [
                    14296606849723709100,
                    5508348580450379567,
                    7627497203169383327,
                    8979581647593659876
                ],
                "IPAGHAALIII": [
                    12199605016063642592,
                    6659610500948409138,
                    10783156204328777859,
                    13383650154785247612
                ]
            },
            {
                "$type": "MoleMole.Config.ConfigMoveToAction",
                "type": "MOVE_TO",
                "aliasList": [
                    "Avatar"
                ],
                "actionId": 231,
                "moveType": "RUN",
                "routeList": [
                    {
                        "x": -348.2510070800781,
                        "y": 120.35600280761719,
                        "z": 2255.160888671875
                    }
                ],
                "exactlyMove": true,
                "closeNavMesh": true,
                "bindMovingTargetKey": ""
            },
            {
                "$type": "DLPFECMKEKH",
                "type": "DIALOG",
                "aliasList": [
                    "1005"
                ],
                "NMKEDPFEKBH": 730612001,
                "JLCHMAJCAPA": 13.0,
                "IAJADHLPGIB": true,
                "COBBEGIBCCF": 13.0
            },
            {
                "$type": "MoleMole.Config.ConfigBlackScreenAction",
                "type": "BLACK_SCREEN",
                "actionId": 188,
                "blackScreenType": "FROM_BLACK",
                "durationFromBlack": 0.5,
                "inteePos": "",
                "textMapID": "",
                "useTextFade": true
            },
            {
                "$type": "MOOOKOKLLEI",
                "type": "CAMERA_MOVE",
                "delayTime": 2.260999917984009,
                "duration": 0.10000000149011612,
                "actionId": 218,
                "DOKGBCKOLJK": {
                    "x": -341.4410095214844,
                    "y": 133.6580047607422,
                    "z": 2251.43994140625
                },
                "HGKCPMDICGG": {
                    "x": -341.71099853515625,
                    "y": 132.72500610351562,
                    "z": 2251.677001953125
                },
                "MGMFMGNANHH": 6,
                "NDFGFJFGHKL": "EaseInOutCubic",
                "IBCBGNHCICN": {},
                "BNBBLLBEIDL": true,
                "NHNPMMBMCFC": 3.259999990463257,
                "HCPFCAHMGMO": false,
                "OMCCMPHDLOO": "",
                "FEFNBKOHPOG": true,
                "OCFGGGHIKOO": "",
                "LJFHGGJDPHH": "",
                "LPKDFKLNEHL": ""
            },
            {
                "$type": "MOOOKOKLLEI",
                "type": "CAMERA_MOVE",
                "delayTime": 2.3610000610351562,
                "duration": 3.1089999675750732,
                "actionId": 236,
                "DOKGBCKOLJK": {
                    "x": -341.16400146484375,
                    "y": 134.375,
                    "z": 2251.341064453125
                },
                "HGKCPMDICGG": {
                    "x": -341.4410095214844,
                    "y": 133.44200134277344,
                    "z": 2251.570068359375
                },
                "NDFGFJFGHKL": "Linear",
                "IBCBGNHCICN": {},
                "BNBBLLBEIDL": true,
                "NHNPMMBMCFC": 3.259999990463257,
                "HCPFCAHMGMO": false,
                "OMCCMPHDLOO": "",
                "FEFNBKOHPOG": true,
                "OCFGGGHIKOO": "",
                "LJFHGGJDPHH": "",
                "LPKDFKLNEHL": ""
            },
            {
                "$type": "EAMBKPBOPIC",
                "type": "LOOK_AT",
                "delayTime": 2.7079999446868896,
                "aliasList": [
                    "1005"
                ],
                "actionId": 224,
                "FIDJDPAIFDN": true,
                "useTargetPos": true,
                "GFKIMGBGADJ": true,
                "GMKIJKADNHN": {
                    "x": -350.5260009765625,
                    "y": 121.08200073242188,
                    "z": 2251.929931640625
                },
                "BCHGCKLKNEH": 0.5,
                "OMCCMPHDLOO": "",
                "CEBMBGKJACI": "NONE",
                "EOHIIHMKDJC": true,
                "KPCALFDIHMC": "",
                "DBLNLMOPEBP": ""
            },
            {
                "$type": "OOMFCPJAJGL",
                "type": "STEER_TO",
                "delayTime": 2.7939999103546143,
                "duration": 1.0,
                "aliasList": [
                    "1005"
                ],
                "actionId": 222,
                "DMGIIHNDNLC": "ABSOLUTE",
                "PLAPKCOMAKJ": {
                    "x": -349.927001953125,
                    "y": 120.10099792480469,
                    "z": 2251.406982421875
                },
                "HCMINPNPFDF": true,
                "OMCCMPHDLOO": "",
                "DBLNLMOPEBP": ""
            },
            {
                "$type": "EAMBKPBOPIC",
                "type": "LOOK_AT",
                "delayTime": 3.1640000343322754,
                "aliasList": [
                    "Avatar"
                ],
                "actionId": 219,
                "FIDJDPAIFDN": true,
                "useTargetPos": true,
                "GFKIMGBGADJ": true,
                "GMKIJKADNHN": {
                    "x": -346.9469909667969,
                    "y": 121.73100280761719,
                    "z": 2252.18798828125
                },
                "BCHGCKLKNEH": 0.5,
                "OMCCMPHDLOO": "",
                "CEBMBGKJACI": "NONE",
                "EOHIIHMKDJC": true,
                "KPCALFDIHMC": "",
                "DBLNLMOPEBP": ""
            },
            {
                "$type": "EAMBKPBOPIC",
                "type": "LOOK_AT",
                "delayTime": 4.340000152587891,
                "aliasList": [
                    "Avatar"
                ],
                "actionId": 220,
                "FIDJDPAIFDN": true,
                "useTargetPos": true,
                "GFKIMGBGADJ": true,
                "GMKIJKADNHN": {
                    "x": -343.1650085449219,
                    "y": 121.73100280761719,
                    "z": 2259.552978515625
                },
                "BCHGCKLKNEH": 0.5,
                "OMCCMPHDLOO": "",
                "CEBMBGKJACI": "NONE",
                "EOHIIHMKDJC": true,
                "KPCALFDIHMC": "",
                "DBLNLMOPEBP": ""
            },
            {
                "$type": "EAMBKPBOPIC",
                "type": "LOOK_AT",
                "delayTime": 4.7230000495910645,
                "aliasList": [
                    "1005"
                ],
                "actionId": 225,
                "FIDJDPAIFDN": true,
                "useTargetPos": true,
                "GFKIMGBGADJ": true,
                "GMKIJKADNHN": {
                    "x": -345.6440124511719,
                    "y": 121.08200073242188,
                    "z": 2253.76904296875
                },
                "BCHGCKLKNEH": 0.5,
                "OMCCMPHDLOO": "",
                "CEBMBGKJACI": "NONE",
                "EOHIIHMKDJC": true,
                "KPCALFDIHMC": "",
                "DBLNLMOPEBP": ""
            },
            {
                "$type": "OOMFCPJAJGL",
                "type": "STEER_TO",
                "delayTime": 4.817999839782715,
                "duration": 1.0,
                "aliasList": [
                    "1005"
                ],
                "actionId": 223,
                "DMGIIHNDNLC": "ABSOLUTE",
                "PLAPKCOMAKJ": {
                    "x": -344.7760009765625,
                    "y": 120.0,
                    "z": 2252.242919921875
                },
                "HCMINPNPFDF": true,
                "OMCCMPHDLOO": "",
                "DBLNLMOPEBP": ""
            },
            {
                "$type": "MOOOKOKLLEI",
                "type": "CAMERA_MOVE",
                "delayTime": 5.452000141143799,
                "duration": 0.10000000149011612,
                "actionId": 226,
                "DOKGBCKOLJK": {
                    "x": -346.9410095214844,
                    "y": 122.90899658203125,
                    "z": 2253.860107421875
                },
                "HGKCPMDICGG": {
                    "x": -347.6080017089844,
                    "y": 122.18800354003906,
                    "z": 2254.051025390625
                },
                "AFODHELHCGB": 25.0,
                "MGMFMGNANHH": 6,
                "NDFGFJFGHKL": "EaseInOutCubic",
                "IBCBGNHCICN": {},
                "BNBBLLBEIDL": true,
                "NHNPMMBMCFC": 1.687999963760376,
                "HCPFCAHMGMO": false,
                "OMCCMPHDLOO": "",
                "FEFNBKOHPOG": true,
                "OCFGGGHIKOO": "",
                "LJFHGGJDPHH": "",
                "LPKDFKLNEHL": ""
            },
            {
                "$type": "EAMBKPBOPIC",
                "type": "LOOK_AT",
                "delayTime": 5.934999942779541,
                "aliasList": [
                    "Avatar"
                ],
                "actionId": 221,
                "FIDJDPAIFDN": true,
                "useTargetPos": true,
                "GFKIMGBGADJ": true,
                "GMKIJKADNHN": {
                    "x": -343.4570007324219,
                    "y": 122.6719970703125,
                    "z": 2254.337890625
                },
                "BCHGCKLKNEH": 0.5,
                "OMCCMPHDLOO": "",
                "CEBMBGKJACI": "NONE",
                "EOHIIHMKDJC": true,
                "KPCALFDIHMC": "",
                "DBLNLMOPEBP": ""
            },
            {
                "$type": "EAMBKPBOPIC",
                "type": "LOOK_AT",
                "delayTime": 6.099999904632568,
                "aliasList": [
                    "1005"
                ],
                "actionId": 227,
                "FIDJDPAIFDN": true,
                "useTargetPos": true,
                "GFKIMGBGADJ": true,
                "GMKIJKADNHN": {
                    "x": -346.9410095214844,
                    "y": 122.00700378417969,
                    "z": 2253.25
                },
                "BCHGCKLKNEH": 0.5,
                "OMCCMPHDLOO": "",
                "CEBMBGKJACI": "NONE",
                "EOHIIHMKDJC": true,
                "KPCALFDIHMC": "",
                "DBLNLMOPEBP": ""
            },
            {
                "$type": "EAMBKPBOPIC",
                "type": "LOOK_AT",
                "delayTime": 7.47599983215332,
                "aliasList": [
                    "1005"
                ],
                "actionId": 235,
                "FIDJDPAIFDN": true,
                "useTargetPos": true,
                "GFKIMGBGADJ": true,
                "GMKIJKADNHN": {
                    "x": -333.6409912109375,
                    "y": 125.63200378417969,
                    "z": 2264.908935546875
                },
                "BCHGCKLKNEH": 0.30000001192092896,
                "OMCCMPHDLOO": "",
                "CEBMBGKJACI": "NONE",
                "EOHIIHMKDJC": true,
                "KPCALFDIHMC": "",
                "DBLNLMOPEBP": ""
            },
            {
                "$type": "OOMFCPJAJGL",
                "type": "STEER_TO",
                "delayTime": 8.27400016784668,
                "duration": 1.0,
                "aliasList": [
                    "1005"
                ],
                "actionId": 234,
                "DMGIIHNDNLC": "ABSOLUTE",
                "PLAPKCOMAKJ": {
                    "x": -334.6679992675781,
                    "y": 120.0,
                    "z": 2264.40087890625
                },
                "HCMINPNPFDF": true,
                "OMCCMPHDLOO": "",
                "DBLNLMOPEBP": ""
            },
            {
                "$type": "EAMBKPBOPIC",
                "type": "LOOK_AT",
                "delayTime": 8.279000282287598,
                "aliasList": [
                    "1005"
                ],
                "actionId": 232,
                "FIDJDPAIFDN": true,
                "useTargetPos": true,
                "GFKIMGBGADJ": true,
                "GMKIJKADNHN": {
                    "x": -333.6409912109375,
                    "y": 125.63200378417969,
                    "z": 2264.908935546875
                },
                "BCHGCKLKNEH": 0.5,
                "OMCCMPHDLOO": "",
                "CEBMBGKJACI": "NONE",
                "EOHIIHMKDJC": true,
                "KPCALFDIHMC": "",
                "DBLNLMOPEBP": ""
            },
            {
                "$type": "EAMBKPBOPIC",
                "type": "LOOK_AT",
                "delayTime": 8.413000106811523,
                "aliasList": [
                    "20628"
                ],
                "actionId": 243,
                "FIDJDPAIFDN": true,
                "useTargetPos": true,
                "GFKIMGBGADJ": true,
                "GMKIJKADNHN": {
                    "x": -324.0270080566406,
                    "y": 141.43899536132812,
                    "z": 2269.54296875
                },
                "BCHGCKLKNEH": 0.5,
                "OMCCMPHDLOO": "",
                "CEBMBGKJACI": "NONE",
                "EOHIIHMKDJC": true,
                "KPCALFDIHMC": "",
                "DBLNLMOPEBP": ""
            },
            {
                "$type": "EAMBKPBOPIC",
                "type": "LOOK_AT",
                "delayTime": 8.442999839782715,
                "aliasList": [
                    "Avatar"
                ],
                "actionId": 233,
                "FIDJDPAIFDN": true,
                "useTargetPos": true,
                "GFKIMGBGADJ": true,
                "GMKIJKADNHN": {
                    "x": -339.53399658203125,
                    "y": 127.58000183105469,
                    "z": 2262.055908203125
                },
                "BCHGCKLKNEH": 0.5,
                "OMCCMPHDLOO": "",
                "CEBMBGKJACI": "NONE",
                "EOHIIHMKDJC": true,
                "KPCALFDIHMC": "",
                "DBLNLMOPEBP": ""
            },
            {
                "$type": "OOMFCPJAJGL",
                "type": "STEER_TO",
                "delayTime": 8.487000465393066,
                "duration": 1.0,
                "aliasList": [
                    "20628"
                ],
                "actionId": 241,
                "DMGIIHNDNLC": "ABSOLUTE",
                "PLAPKCOMAKJ": {
                    "x": -325.33599853515625,
                    "y": 138.91600036621094,
                    "z": 2268.7958984375
                },
                "HCMINPNPFDF": true,
                "PENAEBFAHCH": true,
                "CKOEAJFMDON": true,
                "OMCCMPHDLOO": "",
                "DBLNLMOPEBP": ""
            },
            {
                "$type": "MOOOKOKLLEI",
                "type": "CAMERA_MOVE",
                "delayTime": 8.607000350952148,
                "duration": 0.10000000149011612,
                "actionId": 229,
                "DOKGBCKOLJK": {
                    "x": -349.3559875488281,
                    "y": 121.18299865722656,
                    "z": 2253.9619140625
                },
                "HGKCPMDICGG": {
                    "x": -348.54998779296875,
                    "y": 121.64700317382812,
                    "z": 2254.330078125
                },
                "AFODHELHCGB": 40.0,
                "MGMFMGNANHH": 6,
                "NDFGFJFGHKL": "EaseInOutCubic",
                "IBCBGNHCICN": {},
                "BNBBLLBEIDL": true,
                "NHNPMMBMCFC": 1.3209999799728394,
                "HCPFCAHMGMO": false,
                "OMCCMPHDLOO": "",
                "FEFNBKOHPOG": true,
                "OCFGGGHIKOO": "",
                "LJFHGGJDPHH": "",
                "LPKDFKLNEHL": ""
            },
            {
                "$type": "MOOOKOKLLEI",
                "type": "CAMERA_MOVE",
                "delayTime": 8.706000328063965,
                "duration": 5.781000137329102,
                "actionId": 237,
                "DOKGBCKOLJK": {
                    "x": -349.4179992675781,
                    "y": 121.35800170898438,
                    "z": 2253.9560546875
                },
                "HGKCPMDICGG": {
                    "x": -348.61199951171875,
                    "y": 121.8219985961914,
                    "z": 2254.323974609375
                },
                "AFODHELHCGB": 40.0,
                "NDFGFJFGHKL": "EaseOutQuad",
                "IBCBGNHCICN": {},
                "BNBBLLBEIDL": true,
                "NHNPMMBMCFC": 1.3209999799728394,
                "HCPFCAHMGMO": false,
                "OMCCMPHDLOO": "",
                "FEFNBKOHPOG": true,
                "OCFGGGHIKOO": "",
                "LJFHGGJDPHH": "",
                "LPKDFKLNEHL": ""
            },
            {
                "$type": "MoleMole.Config.ConfigMoveToAction",
                "type": "MOVE_TO",
                "delayTime": 9.685999870300293,
                "aliasList": [
                    "20628"
                ],
                "actionId": 242,
                "moveType": "RUN",
                "routeList": [
                    {
                        "x": -324.23199462890625,
                        "y": 141.23300170898438,
                        "z": 2271.83203125
                    }
                ],
                "exactlyMove": true,
                "closeNavMesh": true,
                "bindMovingTargetKey": ""
            }
        ],
        [
            {
                "$type": "MOOOKOKLLEI",
                "type": "CAMERA_MOVE",
                "duration": 0.10000000149011612,
                "actionId": 143,
                "DOKGBCKOLJK": {
                    "x": -346.322998046875,
                    "y": 122.21499633789062,
                    "z": 2254.35888671875
                },
                "HGKCPMDICGG": {
                    "x": -346.9330139160156,
                    "y": 121.9219970703125,
                    "z": 2255.094970703125
                },
                "AFODHELHCGB": 20.0,
                "MGMFMGNANHH": 6,
                "NDFGFJFGHKL": "EaseInOutCubic",
                "IBCBGNHCICN": {},
                "BNBBLLBEIDL": true,
                "HCPFCAHMGMO": false,
                "OMCCMPHDLOO": "",
                "FEFNBKOHPOG": true,
                "OCFGGGHIKOO": "",
                "LJFHGGJDPHH": "",
                "LPKDFKLNEHL": ""
            },
            {
                "$type": "MoleMole.Config.ConfigTeleportToAction",
                "type": "TELEPORT_TO",
                "aliasList": [
                    "Avatar"
                ],
                "actionId": 249,
                "position": {
                    "x": -348.2510070800781,
                    "y": 120.41000366210938,
                    "z": 2255.160888671875
                },
                "forward": {
                    "x": 0.9980000257492065,
                    "z": -0.0689999982714653
                },
                "openLongDisTeleport": true,
                "posBindMovingTargetKey": "",
                "forwardBindMovingTargetKey": ""
            },
            {
                "$type": "MoleMole.Config.ConfigTeleportToAction",
                "type": "TELEPORT_TO",
                "aliasList": [
                    "1005"
                ],
                "actionId": 248,
                "position": {
                    "x": -348.21099853515625,
                    "y": 120.40699768066406,
                    "z": 2254.198974609375
                },
                "forward": {
                    "x": 0.7990000247955322,
                    "z": 0.6019999980926514
                },
                "openLongDisTeleport": true,
                "posBindMovingTargetKey": "",
                "forwardBindMovingTargetKey": ""
            },
            {
                "$type": "DLPFECMKEKH",
                "type": "DIALOG",
                "aliasList": [
                    "20576"
                ],
                "NMKEDPFEKBH": 730612002,
                "JLCHMAJCAPA": 0.5
            },
            {
                "$type": "MoleMole.Config.ConfigTeleportToAction",
                "type": "TELEPORT_TO",
                "aliasList": [
                    "20576"
                ],
                "actionId": 247,
                "position": {
                    "x": -348.1189880371094,
                    "y": 120.35600280761719,
                    "z": 2256.573974609375
                },
                "forward": {
                    "x": 0.8420000076293945,
                    "z": -0.5389999747276306
                },
                "openLongDisTeleport": true,
                "posBindMovingTargetKey": "",
                "forwardBindMovingTargetKey": ""
            },
            {
                "$type": "ILCGAGEGDJI",
                "type": "BODY_LANG",
                "aliasList": [
                    "20576"
                ],
                "actionId": 250,
                "JLABKFNJCNP": true,
                "PMJAMGLAJGK": true,
                "LIMPPBIAKGL": false,
                "FNEGLPPEBBF": true,
                "FNDLJGEAMGI": ""
            },
            {
                "$type": "MoleMole.Config.ConfigSetModelTransform",
                "type": "SET_MODEL_TRANSFORM",
                "aliasList": [
                    "20576"
                ],
                "actionId": 251,
                "groudHight": 0.5
            },
            {
                "$type": "ILCGAGEGDJI",
                "type": "BODY_LANG",
                "delayTime": 0.17499999701976776,
                "aliasList": [
                    "20576"
                ],
                "actionId": 246,
                "FLBOOPHHFJP": 6040,
                "PMJAMGLAJGK": true,
                "LIMPPBIAKGL": false,
                "FNEGLPPEBBF": true,
                "FNDLJGEAMGI": ""
            },
            {
                "$type": "ILCGAGEGDJI",
                "type": "BODY_LANG",
                "delayTime": 2.243000030517578,
                "aliasList": [
                    "20576"
                ],
                "actionId": 252,
                "JLABKFNJCNP": true,
                "PMJAMGLAJGK": true,
                "LIMPPBIAKGL": false,
                "FNEGLPPEBBF": true,
                "FNDLJGEAMGI": ""
            }
        ],
        [
            {
                "$type": "MoleMole.Config.ConfigSimpleBlackScreenAction",
                "type": "SIMPLE_BLACK_SCREEN",
                "durationToBlack": 0.5,
                "durationKeepBlack": 1.0,
                "durationFromBlack": 0.5,
                "textMapID": ""
            },
            {
                "$type": "MoleMole.Config.ConfigTimeProtectAction",
                "type": "TIME_PROTECT",
                "duration": 0.699999988079071
            },
            {
                "$type": "ILCGAGEGDJI",
                "type": "BODY_LANG",
                "aliasList": [
                    "20576"
                ],
                "actionId": 255,
                "JLABKFNJCNP": true,
                "PMJAMGLAJGK": true,
                "LIMPPBIAKGL": false,
                "FNEGLPPEBBF": true,
                "FNDLJGEAMGI": ""
            },
            {
                "$type": "MOOOKOKLLEI",
                "type": "CAMERA_MOVE",
                "delayTime": 0.6000000238418579,
                "duration": 0.10000000149011612,
                "actionId": 177,
                "DOKGBCKOLJK": {
                    "x": -351.5679931640625,
                    "y": 121.53500366210938,
                    "z": 2254.7529296875
                },
                "HGKCPMDICGG": {
                    "x": -350.58099365234375,
                    "y": 121.45999908447266,
                    "z": 2254.89306640625
                },
                "MGMFMGNANHH": 6,
                "NDFGFJFGHKL": "EaseInOutCubic",
                "IBCBGNHCICN": {},
                "HCPFCAHMGMO": false,
                "OMCCMPHDLOO": "",
                "FEFNBKOHPOG": true,
                "OCFGGGHIKOO": "",
                "LJFHGGJDPHH": "",
                "LPKDFKLNEHL": ""
            },
            {
                "$type": "MoleMole.Config.ConfigVisibleInterAction",
                "type": "VISIBLE",
                "delayTime": 0.6000000238418579,
                "aliasList": [
                    "20576"
                ],
                "actionId": 208,
                "extraParam": ""
            },
            {
                "$type": "MoleMole.Config.ConfigVisibleInterAction",
                "type": "VISIBLE",
                "delayTime": 0.6000000238418579,
                "aliasList": [
                    "20628"
                ],
                "actionId": 205,
                "extraParam": ""
            }
        ]
    ],
    "groupId": [
        {
            "grpId": 1313574659,
            "nextGrpId": 1313574660
        },
        {
            "index": 1,
            "grpId": 1313574660,
            "nextGrpId": 1313574661
        },
        {
            "index": 2,
            "grpId": 1313574661,
            "nextGrpId": 1313574662
        },
        {
            "index": 3,
            "grpId": 1313574662,
            "nextGrpId": 1313574663
        }
    ],
    "freeStyleDic": {
        "20576": [
            6040
        ],
        "20628": []
    }
}