{
    "luaDataPath": "",
    "entityBan": "",
    "disableNpcLod": true,
    "startFade": {
        "startFadeOutDuration": 0.0
    },
    "endFade": {
        "startFadeOutDuration": 0.0
    },
    "actors": [
        {
            "alias": "Avatar",
            "visible": true,
            "bornPointName": "",
            "relativePosNpcAlias": "",
            "bindMovingTargetKey": ""
        },
        {
            "configID": 12059,
            "alias": "12059",
            "visible": true,
            "bornPointName": "",
            "relativePosNpcAlias": "",
            "bindMovingTargetKey": ""
        }
    ],
    "group": [
        [
            {
                "$type": "MOOOKOKLLEI",
                "type": "CAMERA_FOCUS",
                "duration": 0.10000000149011612,
                "OMCCMPHDLOO": "",
                "OCFGGGHIKOO": "",
                "LJFHGGJDPHH": "",
                "LPKDFKLNEHL": ""
            },
            {
                "$type": "MoleMole.Config.ConfigTimeProtectAction",
                "type": "TIME_PROTECT",
                "duration": 0.4000000059604645
            },
            {
                "$type": "EAMBKPBOPIC",
                "type": "LOOK_AT",
                "aliasList": [
                    "Avatar"
                ],
                "FIDJDPAIFDN": true,
                "BCHGCKLKNEH": 0.5,
                "OMCCMPHDLOO": "12059",
                "KPCALFDIHMC": "",
                "DBLNLMOPEBP": ""
            },
            {
                "$type": "CJKIHIFAALJ",
                "type": "LOOK_AT_EYECTRL",
                "aliasList": [
                    "Avatar"
                ],
                "useTargetPos": false,
                "KOPLMCFNFEH": {
                    "z": -2.0
                },
                "DONDAIFPGMK": {
                    "z": -2.0
                },
                "BJMEKPDGMPA": 1.0,
                "OMCCMPHDLOO": "",
                "OPPBKKOPIOB": "Face"
            },
            {
                "$type": "EAMBKPBOPIC",
                "type": "LOOK_AT",
                "aliasList": [
                    "12059"
                ],
                "FIDJDPAIFDN": true,
                "BCHGCKLKNEH": 0.5,
                "OMCCMPHDLOO": "Avatar",
                "KPCALFDIHMC": "",
                "DBLNLMOPEBP": ""
            },
            {
                "$type": "CJKIHIFAALJ",
                "type": "LOOK_AT_EYECTRL",
                "aliasList": [
                    "12059"
                ],
                "useTargetPos": false,
                "KOPLMCFNFEH": {
                    "z": 2.0
                },
                "DONDAIFPGMK": {
                    "z": 2.0
                },
                "BJMEKPDGMPA": 1.0,
                "OMCCMPHDLOO": "",
                "OPPBKKOPIOB": "Face"
            },
            {
                "$type": "OOMFCPJAJGL",
                "type": "STEER_TO",
                "duration": 1.0,
                "aliasList": [
                    "12059"
                ],
                "DMGIIHNDNLC": "TO_LOCAL_AVATAR",
                "HCMINPNPFDF": true,
                "PENAEBFAHCH": true,
                "CKOEAJFMDON": true,
                "OMCCMPHDLOO": "",
                "DBLNLMOPEBP": ""
            }
        ],
        [
            {
                "$type": "OOMFCPJAJGL",
                "type": "STEER_TO",
                "delayTime": 0.4000000059604645,
                "duration": 1.0,
                "aliasList": [
                    "Avatar"
                ],
                "DMGIIHNDNLC": "TO_TARGET",
                "HCMINPNPFDF": true,
                "PENAEBFAHCH": true,
                "CKOEAJFMDON": true,
                "OMCCMPHDLOO": "12059",
                "DBLNLMOPEBP": ""
            },
            {
                "$type": "DLPFECMKEKH",
                "type": "DIALOG",
                "aliasList": [
                    "12059"
                ],
                "NMKEDPFEKBH": 120201001,
                "JLCHMAJCAPA": 0.5
            },
            {
                "$type": "OPCCDGPJCJI",
                "type": "EMO_SYNC",
                "aliasList": [
                    "12059"
                ],
                "IONNJBCBACJ": "Cs_Emo_Avatar_Simple_Common_Set/Cs_Emo_Avatar_Talk/Cs_Emo_Avatar_PersonalLine/Cs_Emo_Avatar_Kokomi/Cs_Emo_120201001",
                "HLEJKBCMNNJ": "",
                "JGHLJJLNGPP": "",
                "MANNKIIBOFM": "",
                "COMNAAFDEDH": "",
                "CPGCCLNOCDK": "",
                "IGEFGCJKCPM": [
                    1204857747560181610,
                    3521272809585004237,
                    6472270422527569018,
                    6065880532606228709
                ]
            }
        ],
        [
            {
                "$type": "MoleMole.Config.ConfigTimeProtectAction",
                "type": "TIME_PROTECT",
                "duration": 0.10000000149011612
            },
            {
                "$type": "OOMFCPJAJGL",
                "type": "STEER_TO",
                "duration": 1.0,
                "aliasList": [
                    "12059"
                ],
                "DMGIIHNDNLC": "RETURN",
                "HCMINPNPFDF": true,
                "PENAEBFAHCH": true,
                "CKOEAJFMDON": true,
                "OMCCMPHDLOO": "",
                "DBLNLMOPEBP": ""
            }
        ]
    ],
    "groupId": [
        {
            "grpId": 735687496,
            "nextGrpId": 735687497
        },
        {
            "index": 1,
            "grpId": 735687497,
            "nextGrpId": 735687498
        },
        {
            "index": 2,
            "grpId": 735687498,
            "nextGrpId": 735687499
        }
    ],
    "freeStyleDic": {
        "12059": []
    }
}