{
    "luaDataPath": "",
    "dontUseDefaultFinish": true,
    "startBlackKeepTime": 0.20000000298023224,
    "entityBan": "",
    "startFade": {
        "startFadeInDuration": 0.4000000059604645,
        "startFadeOutDuration": 0.4000000059604645
    },
    "endFade": {
        "startFadeOutDuration": 0.0
    },
    "actors": [
        {
            "alias": "Avatar",
            "visible": true,
            "bornPointName": "Q101206AvatarSpawn",
            "relativePosNpcAlias": "",
            "bindMovingTargetKey": ""
        },
        {
            "configID": 1005,
            "alias": "1005",
            "visible": true,
            "bornPointName": "Q101206PaimonSpawn",
            "relativePos": {
                "x": 0.5,
                "z": 0.5
            },
            "relativePosNpcAlias": "",
            "bindMovingTargetKey": ""
        },
        {
            "configID": 10232,
            "alias": "10232",
            "visible": true,
            "bornPointName": "Q101206ZL",
            "relativePosNpcAlias": "",
            "bindMovingTargetKey": ""
        }
    ],
    "group": [
        [
            {
                "$type": "MoleMole.Config.ConfigTimeProtectAction",
                "type": "TIME_PROTECT",
                "duration": 1.5
            },
            {
                "$type": "MOOOKOKLLEI",
                "type": "CAMERA_MOVE",
                "delayTime": 0.008333333767950535,
                "duration": 1.0,
                "DOKGBCKOLJK": {
                    "x": -503.89361572265625,
                    "y": 204.84024047851562,
                    "z": 319.40789794921875
                },
                "HGKCPMDICGG": {
                    "x": -504.8763427734375,
                    "y": 204.76768493652344,
                    "z": 319.2375793457031
                },
                "AFODHELHCGB": 20.0,
                "MGMFMGNANHH": 6,
                "NDFGFJFGHKL": "EaseInOutCubic",
                "IBCBGNHCICN": {},
                "OMCCMPHDLOO": "",
                "OCFGGGHIKOO": "",
                "LJFHGGJDPHH": "",
                "LPKDFKLNEHL": ""
            },
            {
                "$type": "MoleMole.Config.ConfigCameraDOFAction",
                "type": "CAMERA_DOF",
                "enabled": true,
                "focusDistance": 10.0,
                "focusRange": 10.0,
                "quality": 3
            },
            {
                "$type": "MOOOKOKLLEI",
                "type": "CAMERA_MOVE",
                "delayTime": 0.10000000149011612,
                "duration": 5.0,
                "DOKGBCKOLJK": {
                    "x": -503.91680908203125,
                    "y": 205.2450408935547,
                    "z": 319.3854675292969
                },
                "HGKCPMDICGG": {
                    "x": -504.88323974609375,
                    "y": 205.0477294921875,
                    "z": 319.220947265625
                },
                "AFODHELHCGB": 20.0,
                "IBCBGNHCICN": {},
                "OMCCMPHDLOO": "",
                "OCFGGGHIKOO": "",
                "LJFHGGJDPHH": "",
                "LPKDFKLNEHL": ""
            },
            {
                "$type": "MoleMole.Config.ConfigMoveToAction",
                "type": "MOVE_TO",
                "aliasList": [
                    "Avatar"
                ],
                "routeList": [
                    {
                        "x": -508.37103271484375,
                        "y": 203.2711944580078,
                        "z": 318.5354309082031
                    }
                ],
                "bindMovingTargetKey": ""
            },
            {
                "$type": "OOMFCPJAJGL",
                "type": "STEER_TO",
                "delayTime": 0.10000000149011612,
                "aliasList": [
                    "Avatar"
                ],
                "PLAPKCOMAKJ": {
                    "x": 0.9303268194198608,
                    "z": 0.3667314052581787
                },
                "OMCCMPHDLOO": "",
                "DBLNLMOPEBP": ""
            },
            {
                "$type": "EAMBKPBOPIC",
                "type": "LOOK_AT",
                "delayTime": 0.10000000149011612,
                "aliasList": [
                    "Avatar"
                ],
                "FIDJDPAIFDN": true,
                "BCHGCKLKNEH": 0.4000000059604645,
                "OMCCMPHDLOO": "10232",
                "KPCALFDIHMC": "",
                "DBLNLMOPEBP": ""
            },
            {
                "$type": "DLPFECMKEKH",
                "type": "DIALOG",
                "delayTime": 1.0,
                "aliasList": [
                    "1005"
                ],
                "NMKEDPFEKBH": 10120601,
                "JLCHMAJCAPA": 0.5
            },
            {
                "$type": "MoleMole.Config.ConfigMoveToAction",
                "type": "MOVE_TO",
                "aliasList": [
                    "1005"
                ],
                "routeList": [
                    {
                        "x": -507.8399353027344,
                        "y": 203.2711944580078,
                        "z": 318.1419372558594
                    }
                ],
                "bindMovingTargetKey": ""
            },
            {
                "$type": "OOMFCPJAJGL",
                "type": "STEER_TO",
                "delayTime": 0.10000000149011612,
                "duration": 2.0,
                "aliasList": [
                    "1005"
                ],
                "PLAPKCOMAKJ": {
                    "x": 0.798210859298706,
                    "z": 0.6023781299591064
                },
                "OMCCMPHDLOO": "",
                "DBLNLMOPEBP": ""
            },
            {
                "$type": "ILCGAGEGDJI",
                "type": "BODY_LANG",
                "delayTime": 1.0,
                "aliasList": [
                    "1005"
                ],
                "FLBOOPHHFJP": 1180,
                "FNDLJGEAMGI": ""
            },
            {
                "$type": "ILCGAGEGDJI",
                "type": "BODY_LANG",
                "delayTime": 2.508333444595337,
                "aliasList": [
                    "1005"
                ],
                "FLBOOPHHFJP": 1110,
                "FNDLJGEAMGI": ""
            },
            {
                "$type": "ILCGAGEGDJI",
                "type": "BODY_LANG",
                "delayTime": 4.199999809265137,
                "aliasList": [
                    "1005"
                ],
                "JLABKFNJCNP": true,
                "FNDLJGEAMGI": ""
            },
            {
                "$type": "EAMBKPBOPIC",
                "type": "LOOK_AT",
                "delayTime": 0.10000000149011612,
                "aliasList": [
                    "1005"
                ],
                "FIDJDPAIFDN": true,
                "BCHGCKLKNEH": 0.4000000059604645,
                "OMCCMPHDLOO": "10232",
                "KPCALFDIHMC": "",
                "DBLNLMOPEBP": ""
            },
            {
                "$type": "OPCCDGPJCJI",
                "type": "EMO_SYNC",
                "delayTime": 1.0,
                "aliasList": [
                    "1005"
                ],
                "IONNJBCBACJ": "Cs_Emo_Avatar_Simple_Common_Set/Cs_Emo_Avatar_Talk/Cs_Emo_Avatar_MainLine/Cs_Emo_Avatar_LiYue/Cs_Emo_10120601",
                "HLEJKBCMNNJ": "",
                "JGHLJJLNGPP": "",
                "MANNKIIBOFM": "",
                "COMNAAFDEDH": "",
                "CPGCCLNOCDK": "",
                "IGEFGCJKCPM": [
                    1424443859586611813,
                    14814494355453630974,
                    6227020648931578859,
                    7956565513906268755
                ]
            },
            {
                "$type": "EAMBKPBOPIC",
                "type": "LOOK_AT",
                "aliasList": [
                    "10232"
                ],
                "FIDJDPAIFDN": true,
                "BCHGCKLKNEH": 0.5,
                "OMCCMPHDLOO": "Avatar",
                "KPCALFDIHMC": "",
                "DBLNLMOPEBP": ""
            },
            {
                "$type": "EAMBKPBOPIC",
                "type": "LOOK_AT",
                "delayTime": 1.2333334684371948,
                "aliasList": [
                    "10232"
                ],
                "FIDJDPAIFDN": true,
                "BCHGCKLKNEH": 0.5,
                "OMCCMPHDLOO": "1005",
                "KPCALFDIHMC": "",
                "DBLNLMOPEBP": ""
            }
        ],
        [
            {
                "$type": "MOOOKOKLLEI",
                "type": "CAMERA_MOVE",
                "duration": 1.0,
                "DOKGBCKOLJK": {
                    "x": -507.8049011230469,
                    "y": 204.53317260742188,
                    "z": 315.2923278808594
                },
                "HGKCPMDICGG": {
                    "x": -507.7683410644531,
                    "y": 204.48757934570312,
                    "z": 316.2906188964844
                },
                "AFODHELHCGB": 25.0,
                "MGMFMGNANHH": 6,
                "NDFGFJFGHKL": "EaseInOutCubic",
                "IBCBGNHCICN": {},
                "OMCCMPHDLOO": "",
                "OCFGGGHIKOO": "",
                "LJFHGGJDPHH": "",
                "LPKDFKLNEHL": ""
            },
            {
                "$type": "MOOOKOKLLEI",
                "type": "CAMERA_MOVE",
                "delayTime": 0.10000000149011612,
                "duration": 10.0,
                "DOKGBCKOLJK": {
                    "x": -507.7400207519531,
                    "y": 204.52894592285156,
                    "z": 315.2897033691406
                },
                "HGKCPMDICGG": {
                    "x": -507.7034606933594,
                    "y": 204.4833526611328,
                    "z": 316.2879943847656
                },
                "AFODHELHCGB": 25.0,
                "NDFGFJFGHKL": "EaseInOutQuad",
                "IBCBGNHCICN": {},
                "OMCCMPHDLOO": "",
                "OCFGGGHIKOO": "",
                "LJFHGGJDPHH": "",
                "LPKDFKLNEHL": ""
            },
            {
                "$type": "ILCGAGEGDJI",
                "type": "BODY_LANG",
                "aliasList": [
                    "1005"
                ],
                "JLABKFNJCNP": true,
                "FNDLJGEAMGI": ""
            },
            {
                "$type": "DLPFECMKEKH",
                "type": "DIALOG",
                "aliasList": [
                    "10232"
                ],
                "NMKEDPFEKBH": 10120602,
                "JLCHMAJCAPA": 0.5
            },
            {
                "$type": "ILCGAGEGDJI",
                "type": "BODY_LANG",
                "aliasList": [
                    "10232"
                ],
                "FLBOOPHHFJP": 1172,
                "FNDLJGEAMGI": ""
            },
            {
                "$type": "ILCGAGEGDJI",
                "type": "BODY_LANG",
                "delayTime": 3.23966646194458,
                "aliasList": [
                    "10232"
                ],
                "FLBOOPHHFJP": 1120,
                "FNDLJGEAMGI": ""
            },
            {
                "$type": "OPCCDGPJCJI",
                "type": "EMO_SYNC",
                "aliasList": [
                    "10232"
                ],
                "IONNJBCBACJ": "Cs_Emo_Avatar_Simple_Common_Set/Cs_Emo_Avatar_Talk/Cs_Emo_Avatar_MainLine/Cs_Emo_Avatar_LiYue/Cs_Emo_10120602",
                "HLEJKBCMNNJ": "",
                "JGHLJJLNGPP": "",
                "MANNKIIBOFM": "",
                "COMNAAFDEDH": "",
                "CPGCCLNOCDK": "",
                "IGEFGCJKCPM": [
                    7285856738833804618,
                    6717115306164367077,
                    967596093209548936,
                    4813418098918332667
                ]
            }
        ],
        [
            {
                "$type": "MOOOKOKLLEI",
                "type": "CAMERA_MOVE",
                "duration": 1.0,
                "DOKGBCKOLJK": {
                    "x": -504.8355712890625,
                    "y": 205.06263732910156,
                    "z": 319.2784118652344
                },
                "HGKCPMDICGG": {
                    "x": -505.7833557128906,
                    "y": 204.84771728515625,
                    "z": 319.0428466796875
                },
                "AFODHELHCGB": 20.0,
                "MGMFMGNANHH": 6,
                "NDFGFJFGHKL": "EaseInOutCubic",
                "IBCBGNHCICN": {},
                "OMCCMPHDLOO": "",
                "OCFGGGHIKOO": "",
                "LJFHGGJDPHH": "",
                "LPKDFKLNEHL": ""
            },
            {
                "$type": "DLPFECMKEKH",
                "type": "DIALOG",
                "aliasList": [
                    "1005"
                ],
                "NMKEDPFEKBH": 10120603,
                "JLCHMAJCAPA": 0.5
            },
            {
                "$type": "ILCGAGEGDJI",
                "type": "BODY_LANG",
                "aliasList": [
                    "1005"
                ],
                "FLBOOPHHFJP": 1270,
                "FNDLJGEAMGI": ""
            },
            {
                "$type": "OPCCDGPJCJI",
                "type": "EMO_SYNC",
                "aliasList": [
                    "1005"
                ],
                "IONNJBCBACJ": "Cs_Emo_Avatar_Simple_Common_Set/Cs_Emo_Avatar_Talk/Cs_Emo_Avatar_MainLine/Cs_Emo_Avatar_LiYue/Cs_Emo_10120603",
                "HLEJKBCMNNJ": "",
                "JGHLJJLNGPP": "",
                "MANNKIIBOFM": "",
                "COMNAAFDEDH": "",
                "CPGCCLNOCDK": "",
                "IGEFGCJKCPM": [
                    11289224687064852074,
                    7526344192346435433,
                    5270298840842359545,
                    5129874935537099988
                ]
            }
        ],
        [
            {
                "$type": "MOOOKOKLLEI",
                "type": "CAMERA_MOVE",
                "duration": 1.0,
                "DOKGBCKOLJK": {
                    "x": -507.00921630859375,
                    "y": 204.2908477783203,
                    "z": 314.0633544921875
                },
                "HGKCPMDICGG": {
                    "x": -507.08953857421875,
                    "y": 204.30223083496094,
                    "z": 315.06005859375
                },
                "AFODHELHCGB": 20.0,
                "MGMFMGNANHH": 6,
                "NDFGFJFGHKL": "EaseInOutCubic",
                "IBCBGNHCICN": {},
                "OMCCMPHDLOO": "",
                "OCFGGGHIKOO": "",
                "LJFHGGJDPHH": "",
                "LPKDFKLNEHL": ""
            },
            {
                "$type": "MOOOKOKLLEI",
                "type": "CAMERA_MOVE",
                "delayTime": 0.10000000149011612,
                "duration": 10.0,
                "DOKGBCKOLJK": {
                    "x": -507.1749267578125,
                    "y": 204.28460693359375,
                    "z": 314.05010986328125
                },
                "HGKCPMDICGG": {
                    "x": -507.2552490234375,
                    "y": 204.29598999023438,
                    "z": 315.04681396484375
                },
                "AFODHELHCGB": 20.0,
                "NDFGFJFGHKL": "EaseInOutQuad",
                "IBCBGNHCICN": {},
                "OMCCMPHDLOO": "",
                "OCFGGGHIKOO": "",
                "LJFHGGJDPHH": "",
                "LPKDFKLNEHL": ""
            },
            {
                "$type": "DLPFECMKEKH",
                "type": "DIALOG",
                "aliasList": [
                    "10232"
                ],
                "NMKEDPFEKBH": 10120604,
                "JLCHMAJCAPA": 0.5
            },
            {
                "$type": "ILCGAGEGDJI",
                "type": "BODY_LANG",
                "aliasList": [
                    "10232"
                ],
                "JLABKFNJCNP": true,
                "FNDLJGEAMGI": ""
            },
            {
                "$type": "ILCGAGEGDJI",
                "type": "BODY_LANG",
                "delayTime": 1.0,
                "aliasList": [
                    "10232"
                ],
                "FLBOOPHHFJP": 1171,
                "FNDLJGEAMGI": ""
            },
            {
                "$type": "OPCCDGPJCJI",
                "type": "EMO_SYNC",
                "aliasList": [
                    "10232"
                ],
                "IONNJBCBACJ": "Cs_Emo_Avatar_Simple_Common_Set/Cs_Emo_Avatar_Talk/Cs_Emo_Avatar_MainLine/Cs_Emo_Avatar_LiYue/Cs_Emo_10120604",
                "HLEJKBCMNNJ": "",
                "JGHLJJLNGPP": "",
                "MANNKIIBOFM": "",
                "COMNAAFDEDH": "",
                "CPGCCLNOCDK": "",
                "IGEFGCJKCPM": [
                    8726054620019012584,
                    16759740567294836464,
                    16081312136201909614,
                    17366122513138437341
                ]
            }
        ],
        [
            {
                "$type": "MOOOKOKLLEI",
                "type": "CAMERA_MOVE",
                "duration": 1.0,
                "DOKGBCKOLJK": {
                    "x": -504.59722900390625,
                    "y": 205.11553955078125,
                    "z": 319.23895263671875
                },
                "HGKCPMDICGG": {
                    "x": -505.5577087402344,
                    "y": 204.912353515625,
                    "z": 319.04864501953125
                },
                "AFODHELHCGB": 20.0,
                "MGMFMGNANHH": 6,
                "NDFGFJFGHKL": "EaseInOutCubic",
                "IBCBGNHCICN": {},
                "OMCCMPHDLOO": "",
                "OCFGGGHIKOO": "",
                "LJFHGGJDPHH": "",
                "LPKDFKLNEHL": ""
            },
            {
                "$type": "MOOOKOKLLEI",
                "type": "CAMERA_MOVE",
                "delayTime": 0.10000000149011612,
                "duration": 10.0,
                "DOKGBCKOLJK": {
                    "x": -504.5708312988281,
                    "y": 205.1121368408203,
                    "z": 319.10931396484375
                },
                "HGKCPMDICGG": {
                    "x": -505.53131103515625,
                    "y": 204.90895080566406,
                    "z": 318.91900634765625
                },
                "AFODHELHCGB": 20.0,
                "NDFGFJFGHKL": "EaseInOutQuad",
                "IBCBGNHCICN": {},
                "OMCCMPHDLOO": "",
                "OCFGGGHIKOO": "",
                "LJFHGGJDPHH": "",
                "LPKDFKLNEHL": ""
            },
            {
                "$type": "DLPFECMKEKH",
                "type": "DIALOG",
                "aliasList": [
                    "1005"
                ],
                "NMKEDPFEKBH": 10120605,
                "JLCHMAJCAPA": 0.5
            },
            {
                "$type": "ILCGAGEGDJI",
                "type": "BODY_LANG",
                "aliasList": [
                    "1005"
                ],
                "FLBOOPHHFJP": 1120,
                "FNDLJGEAMGI": ""
            },
            {
                "$type": "ILCGAGEGDJI",
                "type": "BODY_LANG",
                "delayTime": 2.5426652431488037,
                "aliasList": [
                    "1005"
                ],
                "FLBOOPHHFJP": 1170,
                "FNDLJGEAMGI": ""
            },
            {
                "$type": "ILCGAGEGDJI",
                "type": "BODY_LANG",
                "delayTime": 4.734332084655762,
                "aliasList": [
                    "1005"
                ],
                "FLBOOPHHFJP": 1230,
                "FNDLJGEAMGI": ""
            },
            {
                "$type": "OPCCDGPJCJI",
                "type": "EMO_SYNC",
                "aliasList": [
                    "1005"
                ],
                "IONNJBCBACJ": "Cs_Emo_Avatar_Simple_Common_Set/Cs_Emo_Avatar_Talk/Cs_Emo_Avatar_MainLine/Cs_Emo_Avatar_LiYue/Cs_Emo_10120605",
                "HLEJKBCMNNJ": "",
                "JGHLJJLNGPP": "",
                "MANNKIIBOFM": "",
                "COMNAAFDEDH": "",
                "CPGCCLNOCDK": "",
                "IGEFGCJKCPM": [
                    6207761808882281532,
                    1780213642861596365,
                    17685237909129128867,
                    11745806924870339205
                ]
            }
        ],
        [
            {
                "$type": "MOOOKOKLLEI",
                "type": "CAMERA_MOVE",
                "duration": 1.0,
                "DOKGBCKOLJK": {
                    "x": -507.5922546386719,
                    "y": 204.5715789794922,
                    "z": 317.45257568359375
                },
                "HGKCPMDICGG": {
                    "x": -507.23236083984375,
                    "y": 204.65785217285156,
                    "z": 318.3815612792969
                },
                "AFODHELHCGB": 25.0,
                "MGMFMGNANHH": 6,
                "NDFGFJFGHKL": "EaseInOutCubic",
                "IBCBGNHCICN": {},
                "OMCCMPHDLOO": "",
                "OCFGGGHIKOO": "",
                "LJFHGGJDPHH": "",
                "LPKDFKLNEHL": ""
            },
            {
                "$type": "ILCGAGEGDJI",
                "type": "BODY_LANG",
                "aliasList": [
                    "1005"
                ],
                "JLABKFNJCNP": true,
                "FNDLJGEAMGI": ""
            },
            {
                "$type": "OPCCDGPJCJI",
                "type": "EMO_SYNC",
                "aliasList": [
                    "1005"
                ],
                "IONNJBCBACJ": "Cs_Emo_Avatar_Simple_Common_Set/Cs_Emo_Avatar_Paimon/Cs_Emo_Pet_Paimon_Normal_01",
                "HLEJKBCMNNJ": "",
                "JGHLJJLNGPP": "",
                "MANNKIIBOFM": "",
                "COMNAAFDEDH": "",
                "CPGCCLNOCDK": "",
                "IGEFGCJKCPM": [
                    2327328236696044360,
                    12338418010740210543,
                    5776394525372018320,
                    8916958471179128575
                ]
            },
            {
                "$type": "DLPFECMKEKH",
                "type": "DIALOG",
                "aliasList": [
                    "10232"
                ],
                "NMKEDPFEKBH": 10120606,
                "JLCHMAJCAPA": 0.5
            },
            {
                "$type": "ILCGAGEGDJI",
                "type": "BODY_LANG",
                "aliasList": [
                    "10232"
                ],
                "FLBOOPHHFJP": 1030,
                "FNDLJGEAMGI": ""
            },
            {
                "$type": "ILCGAGEGDJI",
                "type": "BODY_LANG",
                "delayTime": 1.899999976158142,
                "aliasList": [
                    "10232"
                ],
                "JLABKFNJCNP": true,
                "FNDLJGEAMGI": ""
            },
            {
                "$type": "EAMBKPBOPIC",
                "type": "LOOK_AT",
                "delayTime": 2.5,
                "aliasList": [
                    "10232"
                ],
                "FIDJDPAIFDN": true,
                "BCHGCKLKNEH": 0.5,
                "OMCCMPHDLOO": "Avatar",
                "KPCALFDIHMC": "",
                "DBLNLMOPEBP": ""
            },
            {
                "$type": "OPCCDGPJCJI",
                "type": "EMO_SYNC",
                "aliasList": [
                    "10232"
                ],
                "IONNJBCBACJ": "Cs_Emo_Avatar_Simple_Common_Set/Cs_Emo_Avatar_Talk/Cs_Emo_Avatar_MainLine/Cs_Emo_Avatar_LiYue/Cs_Emo_10120606",
                "HLEJKBCMNNJ": "",
                "JGHLJJLNGPP": "",
                "MANNKIIBOFM": "",
                "COMNAAFDEDH": "",
                "CPGCCLNOCDK": "",
                "IGEFGCJKCPM": [
                    108786535352794094,
                    14011784446055482168,
                    13724069247448713143,
                    6387134587066575382
                ]
            }
        ],
        [
            {
                "$type": "MoleMole.Config.ConfigTimeProtectAction",
                "type": "TIME_PROTECT",
                "duration": 1.0
            },
            {
                "$type": "MOOOKOKLLEI",
                "type": "CAMERA_MOVE",
                "delayTime": 0.5,
                "duration": 0.5,
                "IPHEFBOANAL": "EXIT",
                "HGKCPMDICGG": {
                    "z": 1.0
                },
                "MGMFMGNANHH": 6,
                "NDFGFJFGHKL": "EaseInOutCubic",
                "IBCBGNHCICN": {},
                "OMCCMPHDLOO": "",
                "OCFGGGHIKOO": "",
                "LJFHGGJDPHH": "",
                "LPKDFKLNEHL": ""
            },
            {
                "$type": "MoleMole.Config.ConfigSimpleBlackScreenAction",
                "type": "SIMPLE_BLACK_SCREEN",
                "durationToBlack": 0.4000000059604645,
                "durationKeepBlack": 1.0,
                "durationFromBlack": 0.4000000059604645,
                "textMapID": ""
            },
            {
                "$type": "DLPFECMKEKH",
                "type": "DIALOG_CLEAR",
                "delayTime": 0.30000001192092896
            },
            {
                "$type": "MoleMole.Config.ConfigCameraDOFAction",
                "type": "CAMERA_DOF",
                "delayTime": 0.5
            },
            {
                "$type": "MoleMole.Config.ConfigVisibleInterAction",
                "type": "VISIBLE",
                "delayTime": 0.5,
                "aliasList": [
                    "10232"
                ],
                "extraParam": ""
            },
            {
                "$type": "ILCGAGEGDJI",
                "type": "BODY_LANG",
                "aliasList": [
                    "10232"
                ],
                "JLABKFNJCNP": true,
                "FNDLJGEAMGI": ""
            }
        ]
    ],
    "groupId": [
        {
            "grpId": 155198781,
            "nextGrpId": 155198782
        },
        {
            "index": 1,
            "grpId": 155198782,
            "nextGrpId": 155198783
        },
        {
            "index": 2,
            "grpId": 155198783,
            "nextGrpId": 155198784
        },
        {
            "index": 3,
            "grpId": 155198784,
            "nextGrpId": 155198785
        },
        {
            "index": 4,
            "grpId": 155198785,
            "nextGrpId": 155198786
        },
        {
            "index": 5,
            "grpId": 155198786,
            "nextGrpId": 155198787
        },
        {
            "index": 6,
            "grpId": 155198787,
            "nextGrpId": 155198788
        }
    ],
    "freeStyleDic": {
        "10232": [
            1172,
            1120,
            1171,
            1030
        ]
    }
}