{
    "luaDataPath": "",
    "startBlackKeepTime": 0.20000000298023224,
    "entityBan": "",
    "startFade": {
        "startFadeInDuration": 0.4000000059604645,
        "startFadeOutDuration": 0.4000000059604645
    },
    "endFade": {
        "startFadeOutDuration": 0.0
    },
    "actors": [
        {
            "alias": "Avatar",
            "visible": true,
            "bornPointName": "Q101213AvatarSpawn",
            "relativePosNpcAlias": "",
            "bindMovingTargetKey": ""
        },
        {
            "configID": 208301,
            "alias": "208301",
            "visible": true,
            "bornPointName": "Q101206Yinger",
            "relativePosNpcAlias": "",
            "bindMovingTargetKey": ""
        },
        {
            "configID": 1005,
            "alias": "1005",
            "visible": true,
            "bornPointName": "Q101213PaimonSpawn",
            "relativePosNpcAlias": "",
            "bindMovingTargetKey": ""
        }
    ],
    "group": [
        [
            {
                "$type": "MOOOKOKLLEI",
                "type": "CAMERA_MOVE",
                "duration": 1.0,
                "DOKGBCKOLJK": {
                    "x": -669.48095703125,
                    "y": 221.22738647460938,
                    "z": 232.2306365966797
                },
                "HGKCPMDICGG": {
                    "x": -670.3308715820312,
                    "y": 221.1040802001953,
                    "z": 231.71836853027344
                },
                "AFODHELHCGB": 25.0,
                "MGMFMGNANHH": 6,
                "NDFGFJFGHKL": "EaseInOutCubic",
                "IBCBGNHCICN": {},
                "OMCCMPHDLOO": "",
                "OCFGGGHIKOO": "",
                "LJFHGGJDPHH": "",
                "LPKDFKLNEHL": ""
            },
            {
                "$type": "MOOOKOKLLEI",
                "type": "CAMERA_MOVE",
                "delayTime": 0.10000000149011612,
                "duration": 7.0,
                "DOKGBCKOLJK": {
                    "x": -669.7105712890625,
                    "y": 221.12216186523438,
                    "z": 232.11972045898438
                },
                "HGKCPMDICGG": {
                    "x": -670.5648193359375,
                    "y": 221.0286865234375,
                    "z": 231.60833740234375
                },
                "AFODHELHCGB": 25.0,
                "IBCBGNHCICN": {},
                "OMCCMPHDLOO": "",
                "OCFGGGHIKOO": "",
                "LJFHGGJDPHH": "",
                "LPKDFKLNEHL": ""
            },
            {
                "$type": "MoleMole.Config.ConfigTimeProtectAction",
                "type": "TIME_PROTECT",
                "duration": 1.0
            },
            {
                "$type": "MoleMole.Config.ConfigMoveToAction",
                "type": "MOVE_TO",
                "aliasList": [
                    "Avatar"
                ],
                "routeList": [
                    {
                        "x": -671.679443359375,
                        "y": 219.7030029296875,
                        "z": 230.55946350097656
                    }
                ],
                "bindMovingTargetKey": ""
            },
            {
                "$type": "OOMFCPJAJGL",
                "type": "STEER_TO",
                "delayTime": 0.10000000149011612,
                "aliasList": [
                    "Avatar"
                ],
                "PLAPKCOMAKJ": {
                    "x": -0.97427898645401,
                    "z": 0.22534489631652832
                },
                "OMCCMPHDLOO": "",
                "DBLNLMOPEBP": ""
            },
            {
                "$type": "EAMBKPBOPIC",
                "type": "LOOK_AT",
                "aliasList": [
                    "Avatar"
                ],
                "FIDJDPAIFDN": true,
                "BCHGCKLKNEH": 0.4000000059604645,
                "OMCCMPHDLOO": "208301",
                "KPCALFDIHMC": "",
                "DBLNLMOPEBP": ""
            },
            {
                "$type": "DLPFECMKEKH",
                "type": "DIALOG",
                "delayTime": 1.0,
                "aliasList": [
                    "208301"
                ],
                "NMKEDPFEKBH": 10121201,
                "JLCHMAJCAPA": 0.5
            },
            {
                "$type": "OOMFCPJAJGL",
                "type": "STEER_TO",
                "aliasList": [
                    "208301"
                ],
                "PLAPKCOMAKJ": {
                    "x": 0.8542373776435852,
                    "z": -0.5198832750320435
                },
                "OMCCMPHDLOO": "",
                "DBLNLMOPEBP": ""
            },
            {
                "$type": "EAMBKPBOPIC",
                "type": "LOOK_AT",
                "aliasList": [
                    "208301"
                ],
                "FIDJDPAIFDN": true,
                "BCHGCKLKNEH": 0.4000000059604645,
                "OMCCMPHDLOO": "Avatar",
                "KPCALFDIHMC": "",
                "DBLNLMOPEBP": ""
            },
            {
                "$type": "ILCGAGEGDJI",
                "type": "BODY_LANG",
                "delayTime": 1.0,
                "aliasList": [
                    "208301"
                ],
                "FLBOOPHHFJP": 1130,
                "FNDLJGEAMGI": ""
            },
            {
                "$type": "OPCCDGPJCJI",
                "type": "EMO_SYNC",
                "delayTime": 1.0,
                "aliasList": [
                    "208301"
                ],
                "IONNJBCBACJ": "Cs_Emo_Avatar_Simple_Common_Set/Cs_Emo_Avatar_Talk/Cs_Emo_Avatar_MainLine/Cs_Emo_Avatar_LiYue/Cs_Emo_10121201",
                "HLEJKBCMNNJ": "",
                "JGHLJJLNGPP": "",
                "MANNKIIBOFM": "",
                "COMNAAFDEDH": "",
                "CPGCCLNOCDK": "",
                "IGEFGCJKCPM": [
                    783132112839512303,
                    9742826850985271246,
                    10444092578560152134,
                    3430017400887367485
                ]
            },
            {
                "$type": "MoleMole.Config.ConfigMoveToAction",
                "type": "MOVE_TO",
                "aliasList": [
                    "1005"
                ],
                "routeList": [
                    {
                        "x": -671.9260864257812,
                        "y": 219.7030029296875,
                        "z": 229.95492553710938
                    }
                ],
                "bindMovingTargetKey": ""
            },
            {
                "$type": "OOMFCPJAJGL",
                "type": "STEER_TO",
                "delayTime": 0.10000000149011612,
                "aliasList": [
                    "1005"
                ],
                "PLAPKCOMAKJ": {
                    "x": -0.7764186859130859,
                    "z": 0.630217432975769
                },
                "OMCCMPHDLOO": "",
                "DBLNLMOPEBP": ""
            },
            {
                "$type": "EAMBKPBOPIC",
                "type": "LOOK_AT",
                "aliasList": [
                    "1005"
                ],
                "FIDJDPAIFDN": true,
                "BCHGCKLKNEH": 0.4000000059604645,
                "OMCCMPHDLOO": "208301",
                "KPCALFDIHMC": "",
                "DBLNLMOPEBP": ""
            }
        ],
        [
            {
                "$type": "DLPFECMKEKH",
                "type": "DIALOG",
                "aliasList": [
                    "208301"
                ],
                "NMKEDPFEKBH": 10121202,
                "JLCHMAJCAPA": 0.5
            },
            {
                "$type": "ILCGAGEGDJI",
                "type": "BODY_LANG",
                "aliasList": [
                    "208301"
                ],
                "JLABKFNJCNP": true,
                "FNDLJGEAMGI": ""
            },
            {
                "$type": "ILCGAGEGDJI",
                "type": "BODY_LANG",
                "delayTime": 1.3997896909713745,
                "aliasList": [
                    "208301"
                ],
                "FLBOOPHHFJP": 1172,
                "FNDLJGEAMGI": ""
            },
            {
                "$type": "OPCCDGPJCJI",
                "type": "EMO_SYNC",
                "aliasList": [
                    "208301"
                ],
                "IONNJBCBACJ": "Cs_Emo_Avatar_Simple_Common_Set/Cs_Emo_Avatar_Talk/Cs_Emo_Avatar_MainLine/Cs_Emo_Avatar_LiYue/Cs_Emo_10121202",
                "HLEJKBCMNNJ": "",
                "JGHLJJLNGPP": "",
                "MANNKIIBOFM": "",
                "COMNAAFDEDH": "",
                "CPGCCLNOCDK": "",
                "IGEFGCJKCPM": [
                    7106455982293652579,
                    8409623202675009988,
                    3821402700715326146,
                    7394325835240167107
                ]
            }
        ],
        [
            {
                "$type": "MOOOKOKLLEI",
                "type": "CAMERA_MOVE",
                "duration": 1.0,
                "DOKGBCKOLJK": {
                    "x": -671.14111328125,
                    "y": 221.14019775390625,
                    "z": 231.32850646972656
                },
                "HGKCPMDICGG": {
                    "x": -672.09326171875,
                    "y": 221.1035919189453,
                    "z": 231.02516174316406
                },
                "AFODHELHCGB": 25.0,
                "MGMFMGNANHH": 6,
                "NDFGFJFGHKL": "EaseInOutCubic",
                "IBCBGNHCICN": {},
                "OMCCMPHDLOO": "",
                "OCFGGGHIKOO": "",
                "LJFHGGJDPHH": "",
                "LPKDFKLNEHL": ""
            },
            {
                "$type": "MOOOKOKLLEI",
                "type": "CAMERA_MOVE",
                "delayTime": 0.10000000149011612,
                "duration": 5.5,
                "DOKGBCKOLJK": {
                    "x": -671.1351928710938,
                    "y": 221.13938903808594,
                    "z": 231.31011962890625
                },
                "HGKCPMDICGG": {
                    "x": -672.0873413085938,
                    "y": 221.102783203125,
                    "z": 231.00677490234375
                },
                "AFODHELHCGB": 25.0,
                "NDFGFJFGHKL": "EaseInOutQuad",
                "IBCBGNHCICN": {},
                "OMCCMPHDLOO": "",
                "OCFGGGHIKOO": "",
                "LJFHGGJDPHH": "",
                "LPKDFKLNEHL": ""
            },
            {
                "$type": "MOOOKOKLLEI",
                "type": "CAMERA_MOVE",
                "delayTime": 6.0,
                "duration": 1.0,
                "DOKGBCKOLJK": {
                    "x": -669.703369140625,
                    "y": 221.3066864013672,
                    "z": 231.72225952148438
                },
                "HGKCPMDICGG": {
                    "x": -670.6038818359375,
                    "y": 221.16554260253906,
                    "z": 231.3109893798828
                },
                "AFODHELHCGB": 25.0,
                "MGMFMGNANHH": 6,
                "NDFGFJFGHKL": "EaseInOutCubic",
                "IBCBGNHCICN": {},
                "OMCCMPHDLOO": "",
                "OCFGGGHIKOO": "",
                "LJFHGGJDPHH": "",
                "LPKDFKLNEHL": ""
            },
            {
                "$type": "MOOOKOKLLEI",
                "type": "CAMERA_MOVE",
                "delayTime": 6.099999904632568,
                "duration": 7.0,
                "DOKGBCKOLJK": {
                    "x": -669.7141723632812,
                    "y": 221.30648803710938,
                    "z": 231.74607849121094
                },
                "HGKCPMDICGG": {
                    "x": -670.6146850585938,
                    "y": 221.16534423828125,
                    "z": 231.33480834960938
                },
                "AFODHELHCGB": 25.0,
                "NDFGFJFGHKL": "EaseInOutQuad",
                "IBCBGNHCICN": {},
                "OMCCMPHDLOO": "",
                "OCFGGGHIKOO": "",
                "LJFHGGJDPHH": "",
                "LPKDFKLNEHL": ""
            },
            {
                "$type": "DLPFECMKEKH",
                "type": "DIALOG",
                "aliasList": [
                    "208301"
                ],
                "NMKEDPFEKBH": 10121203,
                "JLCHMAJCAPA": 6.5
            },
            {
                "$type": "ILCGAGEGDJI",
                "type": "BODY_LANG",
                "aliasList": [
                    "208301"
                ],
                "FLBOOPHHFJP": 1130,
                "FNDLJGEAMGI": ""
            },
            {
                "$type": "EAMBKPBOPIC",
                "type": "LOOK_AT",
                "aliasList": [
                    "208301"
                ],
                "OMCCMPHDLOO": "",
                "KPCALFDIHMC": "",
                "DBLNLMOPEBP": ""
            },
            {
                "$type": "EAMBKPBOPIC",
                "type": "LOOK_AT",
                "delayTime": 4.0,
                "aliasList": [
                    "208301"
                ],
                "FIDJDPAIFDN": true,
                "BCHGCKLKNEH": 0.4000000059604645,
                "OMCCMPHDLOO": "Avatar",
                "KPCALFDIHMC": "",
                "DBLNLMOPEBP": ""
            },
            {
                "$type": "ILCGAGEGDJI",
                "type": "BODY_LANG",
                "delayTime": 5.0,
                "aliasList": [
                    "208301"
                ],
                "JLABKFNJCNP": true,
                "FNDLJGEAMGI": ""
            },
            {
                "$type": "ILCGAGEGDJI",
                "type": "BODY_LANG",
                "delayTime": 6.446902751922607,
                "aliasList": [
                    "208301"
                ],
                "FLBOOPHHFJP": 1060,
                "FNDLJGEAMGI": ""
            },
            {
                "$type": "ILCGAGEGDJI",
                "type": "BODY_LANG",
                "delayTime": 13.0,
                "aliasList": [
                    "208301"
                ],
                "JLABKFNJCNP": true,
                "FNDLJGEAMGI": ""
            },
            {
                "$type": "OPCCDGPJCJI",
                "type": "EMO_SYNC",
                "aliasList": [
                    "208301"
                ],
                "IONNJBCBACJ": "Cs_Emo_Avatar_Simple_Common_Set/Cs_Emo_Avatar_Talk/Cs_Emo_Avatar_MainLine/Cs_Emo_Avatar_LiYue/Cs_Emo_10121203",
                "HLEJKBCMNNJ": "",
                "JGHLJJLNGPP": "",
                "MANNKIIBOFM": "",
                "COMNAAFDEDH": "",
                "CPGCCLNOCDK": "",
                "HINHCFHAMDI": false,
                "IGEFGCJKCPM": [
                    13125681625687868186,
                    17358224640123984359,
                    7624703673508631206,
                    6630466950408389105
                ]
            }
        ],
        [
            {
                "$type": "DLPFECMKEKH",
                "type": "DIALOG",
                "aliasList": [
                    "208301"
                ],
                "NMKEDPFEKBH": 10121204,
                "JLCHMAJCAPA": 0.5
            },
            {
                "$type": "ILCGAGEGDJI",
                "type": "BODY_LANG",
                "aliasList": [
                    "208301"
                ],
                "FLBOOPHHFJP": 1190,
                "FNDLJGEAMGI": ""
            },
            {
                "$type": "EAMBKPBOPIC",
                "type": "LOOK_AT",
                "aliasList": [
                    "208301"
                ],
                "FIDJDPAIFDN": true,
                "BCHGCKLKNEH": 0.4000000059604645,
                "OMCCMPHDLOO": "Avatar",
                "KPCALFDIHMC": "",
                "DBLNLMOPEBP": ""
            },
            {
                "$type": "OPCCDGPJCJI",
                "type": "EMO_SYNC",
                "aliasList": [
                    "208301"
                ],
                "IONNJBCBACJ": "Cs_Emo_Avatar_Simple_Common_Set/Cs_Emo_Avatar_Talk/Cs_Emo_Avatar_MainLine/Cs_Emo_Avatar_LiYue/Cs_Emo_10121204",
                "HLEJKBCMNNJ": "",
                "JGHLJJLNGPP": "",
                "MANNKIIBOFM": "",
                "COMNAAFDEDH": "",
                "CPGCCLNOCDK": "",
                "IGEFGCJKCPM": [
                    12628803422506181920,
                    15029009814143466613,
                    9718194055368877044,
                    13702365804154077184
                ]
            }
        ],
        [
            {
                "$type": "MOOOKOKLLEI",
                "type": "CAMERA_MOVE",
                "duration": 1.0,
                "DOKGBCKOLJK": {
                    "x": -671.0596313476562,
                    "y": 221.17930603027344,
                    "z": 231.25193786621094
                },
                "HGKCPMDICGG": {
                    "x": -672.038818359375,
                    "y": 221.11573791503906,
                    "z": 231.0591278076172
                },
                "AFODHELHCGB": 25.0,
                "MGMFMGNANHH": 6,
                "NDFGFJFGHKL": "EaseInOutCubic",
                "IBCBGNHCICN": {},
                "OMCCMPHDLOO": "",
                "OCFGGGHIKOO": "",
                "LJFHGGJDPHH": "",
                "LPKDFKLNEHL": ""
            },
            {
                "$type": "MOOOKOKLLEI",
                "type": "CAMERA_MOVE",
                "delayTime": 0.10000000149011612,
                "duration": 10.0,
                "DOKGBCKOLJK": {
                    "x": -671.165283203125,
                    "y": 221.18643188476562,
                    "z": 231.2287139892578
                },
                "HGKCPMDICGG": {
                    "x": -672.1444702148438,
                    "y": 221.12286376953125,
                    "z": 231.03590393066406
                },
                "AFODHELHCGB": 25.0,
                "NDFGFJFGHKL": "EaseInOutQuad",
                "IBCBGNHCICN": {},
                "OMCCMPHDLOO": "",
                "OCFGGGHIKOO": "",
                "LJFHGGJDPHH": "",
                "LPKDFKLNEHL": ""
            },
            {
                "$type": "ECLBLHOENAG",
                "type": "DIALOG_SELECT",
                "delayTime": 0.4000000059604645,
                "aliasList": [
                    "Avatar"
                ],
                "NDMMOPDPKNF": [
                    10121206,
                    10121207
                ],
                "FPDBIEGHMCD": [
                    155224733,
                    155224733
                ],
                "PKBOIGBGDEG": true
            },
            {
                "$type": "DLPFECMKEKH",
                "type": "DIALOG",
                "aliasList": [
                    "208301"
                ],
                "NMKEDPFEKBH": 10121205,
                "JLCHMAJCAPA": 0.5
            },
            {
                "$type": "EAMBKPBOPIC",
                "type": "LOOK_AT",
                "aliasList": [
                    "208301"
                ],
                "OMCCMPHDLOO": "",
                "KPCALFDIHMC": "",
                "DBLNLMOPEBP": ""
            },
            {
                "$type": "OPCCDGPJCJI",
                "type": "EMO_SYNC",
                "aliasList": [
                    "208301"
                ],
                "IONNJBCBACJ": "Cs_Emo_Avatar_Simple_Common_Set/Cs_Emo_Avatar_Talk/Cs_Emo_Avatar_MainLine/Cs_Emo_Avatar_LiYue/Cs_Emo_10121205",
                "HLEJKBCMNNJ": "",
                "JGHLJJLNGPP": "",
                "MANNKIIBOFM": "",
                "COMNAAFDEDH": "",
                "CPGCCLNOCDK": "",
                "HINHCFHAMDI": false,
                "IGEFGCJKCPM": [
                    1333586254997831564,
                    816641379354096301,
                    13308671628428637431,
                    9880338597299475987
                ]
            }
        ],
        [
            {
                "$type": "MOOOKOKLLEI",
                "type": "CAMERA_MOVE",
                "duration": 1.0,
                "DOKGBCKOLJK": {
                    "x": -669.9822387695312,
                    "y": 221.1900177001953,
                    "z": 231.87161254882812
                },
                "HGKCPMDICGG": {
                    "x": -670.8499755859375,
                    "y": 221.09654235839844,
                    "z": 231.3834686279297
                },
                "AFODHELHCGB": 25.0,
                "MGMFMGNANHH": 6,
                "NDFGFJFGHKL": "EaseInOutCubic",
                "IBCBGNHCICN": {},
                "OMCCMPHDLOO": "",
                "OCFGGGHIKOO": "",
                "LJFHGGJDPHH": "",
                "LPKDFKLNEHL": ""
            },
            {
                "$type": "MOOOKOKLLEI",
                "type": "CAMERA_MOVE",
                "delayTime": 0.10000000149011612,
                "duration": 7.0,
                "DOKGBCKOLJK": {
                    "x": -669.9694213867188,
                    "y": 221.19046020507812,
                    "z": 231.84869384765625
                },
                "HGKCPMDICGG": {
                    "x": -670.837158203125,
                    "y": 221.09698486328125,
                    "z": 231.3605499267578
                },
                "AFODHELHCGB": 25.0,
                "NDFGFJFGHKL": "EaseInOutQuad",
                "IBCBGNHCICN": {},
                "OMCCMPHDLOO": "",
                "OCFGGGHIKOO": "",
                "LJFHGGJDPHH": "",
                "LPKDFKLNEHL": ""
            },
            {
                "$type": "DLPFECMKEKH",
                "type": "DIALOG",
                "aliasList": [
                    "208301"
                ],
                "NMKEDPFEKBH": 10121208,
                "JLCHMAJCAPA": 0.5
            },
            {
                "$type": "EAMBKPBOPIC",
                "type": "LOOK_AT",
                "aliasList": [
                    "208301"
                ],
                "FIDJDPAIFDN": true,
                "BCHGCKLKNEH": 0.4000000059604645,
                "OMCCMPHDLOO": "Avatar",
                "KPCALFDIHMC": "",
                "DBLNLMOPEBP": ""
            },
            {
                "$type": "ILCGAGEGDJI",
                "type": "BODY_LANG",
                "aliasList": [
                    "208301"
                ],
                "JLABKFNJCNP": true,
                "FNDLJGEAMGI": ""
            },
            {
                "$type": "ILCGAGEGDJI",
                "type": "BODY_LANG",
                "delayTime": 3.1718883514404297,
                "aliasList": [
                    "208301"
                ],
                "FLBOOPHHFJP": 1110,
                "FNDLJGEAMGI": ""
            },
            {
                "$type": "ILCGAGEGDJI",
                "type": "BODY_LANG",
                "delayTime": 3.5796148777008057,
                "aliasList": [
                    "208301"
                ],
                "JLABKFNJCNP": true,
                "FNDLJGEAMGI": ""
            },
            {
                "$type": "OPCCDGPJCJI",
                "type": "EMO_SYNC",
                "aliasList": [
                    "208301"
                ],
                "IONNJBCBACJ": "Cs_Emo_Avatar_Simple_Common_Set/Cs_Emo_Avatar_Talk/Cs_Emo_Avatar_MainLine/Cs_Emo_Avatar_LiYue/Cs_Emo_10121208",
                "HLEJKBCMNNJ": "",
                "JGHLJJLNGPP": "",
                "MANNKIIBOFM": "",
                "COMNAAFDEDH": "",
                "CPGCCLNOCDK": "",
                "IGEFGCJKCPM": [
                    2009342673898788506,
                    5214977810471793806,
                    3095294505341029829,
                    2933192462605043032
                ]
            }
        ],
        [
            {
                "$type": "DLPFECMKEKH",
                "type": "DIALOG",
                "aliasList": [
                    "208301"
                ],
                "NMKEDPFEKBH": 10121209,
                "JLCHMAJCAPA": 0.5
            },
            {
                "$type": "ILCGAGEGDJI",
                "type": "BODY_LANG",
                "aliasList": [
                    "208301"
                ],
                "FLBOOPHHFJP": 1171,
                "FNDLJGEAMGI": ""
            },
            {
                "$type": "OPCCDGPJCJI",
                "type": "EMO_SYNC",
                "aliasList": [
                    "208301"
                ],
                "IONNJBCBACJ": "Cs_Emo_Avatar_Simple_Common_Set/Cs_Emo_Avatar_Talk/Cs_Emo_Avatar_MainLine/Cs_Emo_Avatar_LiYue/Cs_Emo_10121209",
                "HLEJKBCMNNJ": "",
                "JGHLJJLNGPP": "",
                "MANNKIIBOFM": "",
                "COMNAAFDEDH": "",
                "CPGCCLNOCDK": "",
                "IGEFGCJKCPM": [
                    5744980109607203952,
                    3717926502276824339,
                    8667582219898832140,
                    5089054120557511782
                ]
            }
        ],
        [
            {
                "$type": "MOOOKOKLLEI",
                "type": "CAMERA_MOVE",
                "duration": 15.0,
                "DOKGBCKOLJK": {
                    "x": -669.9822387695312,
                    "y": 221.1900177001953,
                    "z": 231.87164306640625
                },
                "HGKCPMDICGG": {
                    "x": -670.8707885742188,
                    "y": 221.0935516357422,
                    "z": 231.42315673828125
                },
                "AFODHELHCGB": 23.0,
                "NDFGFJFGHKL": "EaseInOutQuad",
                "IBCBGNHCICN": {},
                "OMCCMPHDLOO": "",
                "OCFGGGHIKOO": "",
                "LJFHGGJDPHH": "",
                "LPKDFKLNEHL": ""
            },
            {
                "$type": "DLPFECMKEKH",
                "type": "DIALOG",
                "aliasList": [
                    "208301"
                ],
                "NMKEDPFEKBH": 10121210,
                "JLCHMAJCAPA": 0.5
            },
            {
                "$type": "ILCGAGEGDJI",
                "type": "BODY_LANG",
                "aliasList": [
                    "208301"
                ],
                "FLBOOPHHFJP": 1130,
                "FNDLJGEAMGI": ""
            },
            {
                "$type": "OPCCDGPJCJI",
                "type": "EMO_SYNC",
                "aliasList": [
                    "208301"
                ],
                "IONNJBCBACJ": "Cs_Emo_Avatar_Simple_Common_Set/Cs_Emo_Avatar_Talk/Cs_Emo_Avatar_MainLine/Cs_Emo_Avatar_LiYue/Cs_Emo_10121210",
                "HLEJKBCMNNJ": "",
                "JGHLJJLNGPP": "",
                "MANNKIIBOFM": "",
                "COMNAAFDEDH": "",
                "CPGCCLNOCDK": "",
                "IGEFGCJKCPM": [
                    5102294652538924070,
                    5250189489242807371,
                    83118472354564077,
                    6634936795490916877
                ]
            }
        ]
    ],
    "groupId": [
        {
            "grpId": 155224728,
            "nextGrpId": 155224729
        },
        {
            "index": 1,
            "grpId": 155224729,
            "nextGrpId": 155224730
        },
        {
            "index": 2,
            "grpId": 155224730,
            "nextGrpId": 155224731
        },
        {
            "index": 3,
            "grpId": 155224731,
            "nextGrpId": 155224732
        },
        {
            "index": 4,
            "grpId": 155224732,
            "nextGrpId": 155224733
        },
        {
            "index": 5,
            "grpId": 155224733,
            "nextGrpId": 155224734
        },
        {
            "index": 6,
            "grpId": 155224734,
            "nextGrpId": 155224735
        },
        {
            "index": 7,
            "grpId": 155224735,
            "nextGrpId": 155224736
        }
    ],
    "freeStyleDic": {
        "208301": [
            1130,
            1172,
            1060,
            1190,
            1110,
            1171
        ]
    }
}