{
    "luaDataPath": "",
    "startBlackKeepTime": 0.5,
    "entityBan": "",
    "disableNpcLod": true,
    "isAutoBanNpc": true,
    "isBanWidgetPet": true,
    "protectNpcMobileLod": true,
    "startFade": {
        "startFadeInDuration": 0.5,
        "startFadeOutDuration": 0.5
    },
    "endFade": {
        "startFadeOutDuration": 0.0
    },
    "actors": [
        {
            "alias": "Avatar",
            "visible": true,
            "bornPointName": "T7310323_Player",
            "relativePosType": "AVATAR_NEW",
            "relativePosNpcAlias": "",
            "bindMovingTargetKey": ""
        },
        {
            "configID": 20846,
            "alias": "20846",
            "visible": true,
            "bornPointName": "T7310323_N20846",
            "relativePosType": "AVATAR_NEW",
            "relativePosNpcAlias": "",
            "bindMovingTargetKey": ""
        },
        {
            "configID": 4296,
            "alias": "4296",
            "visible": true,
            "bornPointName": "Q7310323_N20723",
            "removeActorType": "REMOVE",
            "forceCreateDaily": true,
            "relativePosType": "AVATAR_NEW",
            "relativePosNpcAlias": "",
            "bindMovingTargetKey": ""
        },
        {
            "configID": 1005,
            "alias": "1005",
            "visible": true,
            "bornPointName": "N1005_T7310323",
            "relativePos": {
                "x": -0.6000000238418579
            },
            "removeActorType": "REMOVE_WITH_DISAPPEAR",
            "relativePosType": "AVATAR_NEW",
            "relativePosNpcAlias": "",
            "bindMovingTargetKey": ""
        }
    ],
    "group": [
        [
            {
                "$type": "MoleMole.Config.ConfigTimeProtectAction",
                "type": "TIME_PROTECT",
                "duration": 1.0,
                "actionId": 104
            },
            {
                "$type": "MoleMole.Config.ConfigBlackScreenAction",
                "type": "BLACK_SCREEN",
                "duration": 1.0,
                "actionId": 144,
                "blackScreenType": "KEEP_BLACK",
                "durationToBlack": 0.5,
                "durationKeepBlack": 1.0,
                "durationFromBlack": 0.5,
                "inteePos": "",
                "textMapID": "",
                "useTextFade": true
            },
            {
                "$type": "MOOOKOKLLEI",
                "type": "CAMERA_MOVE",
                "delayTime": 0.3580000102519989,
                "duration": 0.5,
                "actionId": 214,
                "DOKGBCKOLJK": {
                    "x": -822.9609985351562,
                    "y": -240.8300018310547,
                    "z": 5852.7548828125
                },
                "HGKCPMDICGG": {
                    "x": -822.0059814453125,
                    "y": -240.9010009765625,
                    "z": 5852.466796875
                },
                "AFODHELHCGB": 50.0,
                "MGMFMGNANHH": 6,
                "NDFGFJFGHKL": "EaseInOutCubic",
                "IBCBGNHCICN": {},
                "BNBBLLBEIDL": true,
                "NHNPMMBMCFC": -0.0020000000949949026,
                "HCPFCAHMGMO": false,
                "OMCCMPHDLOO": "",
                "FEFNBKOHPOG": true,
                "OCFGGGHIKOO": "",
                "LJFHGGJDPHH": "",
                "LPKDFKLNEHL": ""
            }
        ],
        [
            {
                "$type": "MoleMole.Config.ConfigBlackScreenAction",
                "type": "BLACK_SCREEN",
                "duration": 4.0,
                "actionId": 209,
                "blackScreenType": "KEEP_BLACK",
                "durationKeepBlack": 4.0,
                "inteePos": "",
                "textMapID": "",
                "useTextFade": true,
                "dialogID": 731032301
            }
        ],
        [
            {
                "$type": "MoleMole.Config.ConfigBlackScreenAction",
                "type": "BLACK_SCREEN",
                "duration": 4.0,
                "actionId": 110,
                "blackScreenType": "KEEP_BLACK",
                "durationToBlack": 0.5,
                "durationKeepBlack": 4.0,
                "durationFromBlack": 0.5,
                "inteePos": "",
                "textMapID": "",
                "useTextFade": true,
                "dialogID": 731032302,
                "needWaitClick": true
            }
        ],
        [
            {
                "$type": "MoleMole.Config.ConfigBlackScreenAction",
                "type": "BLACK_SCREEN",
                "duration": 4.0,
                "actionId": 113,
                "blackScreenType": "KEEP_BLACK",
                "durationToBlack": 0.5,
                "durationKeepBlack": 4.0,
                "durationFromBlack": 0.5,
                "inteePos": "",
                "textMapID": "",
                "useTextFade": true,
                "dialogID": 731032303,
                "needWaitClick": true
            }
        ],
        [
            {
                "$type": "MoleMole.Config.ConfigBlackScreenAction",
                "type": "BLACK_SCREEN",
                "duration": 3.5,
                "actionId": 116,
                "durationKeepBlack": 3.0,
                "durationFromBlack": 0.5,
                "inteePos": "",
                "textMapID": "",
                "useTextFade": true,
                "dialogID": 731032304,
                "needWaitClick": true
            },
            {
                "$type": "OOMFCPJAJGL",
                "type": "STEER_TO",
                "delayTime": 0.012000000104308128,
                "duration": 1.0,
                "aliasList": [
                    "4296"
                ],
                "actionId": 152,
                "DMGIIHNDNLC": "TO_TARGET",
                "PLAPKCOMAKJ": {
                    "x": -820.85302734375,
                    "y": -242.24000549316406,
                    "z": 5851.9970703125
                },
                "HCMINPNPFDF": true,
                "PENAEBFAHCH": true,
                "CKOEAJFMDON": true,
                "OMCCMPHDLOO": "Avatar",
                "AKKPIOCLGOP": true,
                "PPGPCHDAOJG": true,
                "DBLNLMOPEBP": ""
            },
            {
                "$type": "ILCGAGEGDJI",
                "type": "BODY_LANG",
                "delayTime": 0.16300000250339508,
                "aliasList": [
                    "Avatar"
                ],
                "actionId": 220,
                "FLBOOPHHFJP": 1240,
                "PMJAMGLAJGK": true,
                "LIMPPBIAKGL": false,
                "FNEGLPPEBBF": true,
                "FNDLJGEAMGI": ""
            },
            {
                "$type": "OPCCDGPJCJI",
                "type": "EMO_SYNC",
                "delayTime": 0.19200000166893005,
                "aliasList": [
                    "Avatar"
                ],
                "actionId": 222,
                "IONNJBCBACJ": "",
                "HLEJKBCMNNJ": "Cs_Emo_Avatar_Common/Cs_Emo_Avatar_Normal01",
                "JGHLJJLNGPP": "Cs_Emo_Avatar_Common/Cs_Emo_Avatar_HiClosed01",
                "MANNKIIBOFM": "",
                "COMNAAFDEDH": "",
                "CPGCCLNOCDK": "",
                "HINHCFHAMDI": false,
                "MFABDGAFKII": [
                    9445916536337636767,
                    14128686126614747219,
                    10779105391569104182,
                    11659242061757756269
                ],
                "IPAGHAALIII": [
                    17179584096612559158,
                    1310598225538606005,
                    7091842289545732802,
                    8491140220901975535
                ]
            },
            {
                "$type": "MOOOKOKLLEI",
                "type": "CAMERA_MOVE",
                "delayTime": 1.1920000314712524,
                "duration": 0.5,
                "actionId": 211,
                "DOKGBCKOLJK": {
                    "x": -820.2050170898438,
                    "y": -240.66799926757812,
                    "z": 5849.3720703125
                },
                "HGKCPMDICGG": {
                    "x": -819.260986328125,
                    "y": -240.7899932861328,
                    "z": 5849.06494140625
                },
                "AFODHELHCGB": 55.20600128173828,
                "MGMFMGNANHH": 6,
                "NDFGFJFGHKL": "EaseInOutCubic",
                "IBCBGNHCICN": {},
                "BNBBLLBEIDL": true,
                "NHNPMMBMCFC": -0.0020000000949949026,
                "HCPFCAHMGMO": false,
                "OMCCMPHDLOO": "",
                "FEFNBKOHPOG": true,
                "OCFGGGHIKOO": "",
                "LJFHGGJDPHH": "",
                "LPKDFKLNEHL": ""
            },
            {
                "$type": "ILCGAGEGDJI",
                "type": "BODY_LANG",
                "delayTime": 2.4200000762939453,
                "aliasList": [
                    "Avatar"
                ],
                "actionId": 221,
                "FLBOOPHHFJP": 4040,
                "PMJAMGLAJGK": true,
                "LIMPPBIAKGL": false,
                "FNEGLPPEBBF": true,
                "FNDLJGEAMGI": ""
            }
        ],
        [
            {
                "$type": "MOOOKOKLLEI",
                "type": "CAMERA_MOVE",
                "duration": 0.5,
                "actionId": 149,
                "DOKGBCKOLJK": {
                    "x": -820.2050170898438,
                    "y": -240.66799926757812,
                    "z": 5849.3720703125
                },
                "HGKCPMDICGG": {
                    "x": -819.260986328125,
                    "y": -240.7899932861328,
                    "z": 5849.06494140625
                },
                "AFODHELHCGB": 55.20600128173828,
                "MGMFMGNANHH": 6,
                "NDFGFJFGHKL": "EaseInOutCubic",
                "IBCBGNHCICN": {},
                "BNBBLLBEIDL": true,
                "NHNPMMBMCFC": -0.0020000000949949026,
                "HCPFCAHMGMO": false,
                "OMCCMPHDLOO": "",
                "FEFNBKOHPOG": true,
                "OCFGGGHIKOO": "",
                "LJFHGGJDPHH": "",
                "LPKDFKLNEHL": ""
            },
            {
                "$type": "DLPFECMKEKH",
                "type": "DIALOG",
                "aliasList": [
                    "4296"
                ],
                "actionId": 119,
                "NMKEDPFEKBH": 731032305,
                "JLCHMAJCAPA": 4.0
            },
            {
                "$type": "MOOOKOKLLEI",
                "type": "CAMERA_MOVE",
                "delayTime": 0.574999988079071,
                "duration": 3.0,
                "actionId": 213,
                "DOKGBCKOLJK": {
                    "x": -820.2050170898438,
                    "y": -240.66799926757812,
                    "z": 5849.3720703125
                },
                "HGKCPMDICGG": {
                    "x": -819.2479858398438,
                    "y": -240.78700256347656,
                    "z": 5849.10791015625
                },
                "AFODHELHCGB": 55.20600128173828,
                "MGMFMGNANHH": 2,
                "NDFGFJFGHKL": "Linear",
                "IBCBGNHCICN": {},
                "BNBBLLBEIDL": true,
                "NHNPMMBMCFC": -0.0020000000949949026,
                "HCPFCAHMGMO": false,
                "OMCCMPHDLOO": "",
                "FEFNBKOHPOG": true,
                "OCFGGGHIKOO": "",
                "LJFHGGJDPHH": "",
                "LPKDFKLNEHL": ""
            },
            {
                "$type": "OOMFCPJAJGL",
                "type": "STEER_TO",
                "delayTime": 0.9959999918937683,
                "duration": 1.0,
                "aliasList": [
                    "4296"
                ],
                "actionId": 151,
                "DMGIIHNDNLC": "TO_TARGET",
                "PLAPKCOMAKJ": {
                    "x": -820.85302734375,
                    "y": -242.24000549316406,
                    "z": 5851.9970703125
                },
                "HCMINPNPFDF": true,
                "PENAEBFAHCH": true,
                "CKOEAJFMDON": true,
                "OMCCMPHDLOO": "20846",
                "AKKPIOCLGOP": true,
                "PPGPCHDAOJG": true,
                "DBLNLMOPEBP": ""
            },
            {
                "$type": "ILCGAGEGDJI",
                "type": "BODY_LANG",
                "delayTime": 1.0,
                "aliasList": [
                    "4296"
                ],
                "actionId": 153,
                "FLBOOPHHFJP": 9030,
                "PMJAMGLAJGK": true,
                "LIMPPBIAKGL": false,
                "FNEGLPPEBBF": true,
                "FNDLJGEAMGI": ""
            },
            {
                "$type": "ILCGAGEGDJI",
                "type": "BODY_LANG",
                "delayTime": 2.677999973297119,
                "aliasList": [
                    "4296"
                ],
                "actionId": 150,
                "FLBOOPHHFJP": 1230,
                "PMJAMGLAJGK": true,
                "LIMPPBIAKGL": false,
                "FNEGLPPEBBF": true,
                "FNDLJGEAMGI": ""
            },
            {
                "$type": "ILCGAGEGDJI",
                "type": "BODY_LANG",
                "delayTime": 2.990000009536743,
                "aliasList": [
                    "1005"
                ],
                "actionId": 154,
                "FLBOOPHHFJP": 1230,
                "PMJAMGLAJGK": true,
                "LIMPPBIAKGL": false,
                "FNEGLPPEBBF": true,
                "FNDLJGEAMGI": ""
            },
            {
                "$type": "OPCCDGPJCJI",
                "type": "EMO_SYNC",
                "delayTime": 3.371999979019165,
                "aliasList": [
                    "Avatar"
                ],
                "actionId": 224,
                "IONNJBCBACJ": "",
                "HLEJKBCMNNJ": "Cs_Emo_Avatar_Common/Cs_Emo_Avatar_Normal01",
                "JGHLJJLNGPP": "Cs_Emo_Avatar_Common/Cs_Emo_Avatar_Normal05",
                "MANNKIIBOFM": "",
                "COMNAAFDEDH": "",
                "CPGCCLNOCDK": "",
                "MFABDGAFKII": [
                    9445916536337636767,
                    14128686126614747219,
                    10779105391569104182,
                    11659242061757756269
                ],
                "IPAGHAALIII": [
                    16480971326003574399,
                    16431028023951664782,
                    13548739838063786591,
                    11019825884696840219
                ]
            },
            {
                "$type": "ILCGAGEGDJI",
                "type": "BODY_LANG",
                "delayTime": 3.496999979019165,
                "aliasList": [
                    "Avatar"
                ],
                "actionId": 223,
                "JLABKFNJCNP": true,
                "PMJAMGLAJGK": true,
                "LIMPPBIAKGL": false,
                "FNEGLPPEBBF": true,
                "FNDLJGEAMGI": ""
            }
        ],
        [
            {
                "$type": "MOOOKOKLLEI",
                "type": "CAMERA_MOVE",
                "duration": 0.0,
                "actionId": 155,
                "DOKGBCKOLJK": {
                    "x": -818.7789916992188,
                    "y": -240.88299560546875,
                    "z": 5850.466796875
                },
                "HGKCPMDICGG": {
                    "x": -819.6790161132812,
                    "y": -240.8249969482422,
                    "z": 5850.89794921875
                },
                "AFODHELHCGB": 55.20600128173828,
                "MGMFMGNANHH": 6,
                "NDFGFJFGHKL": "EaseInOutCubic",
                "IBCBGNHCICN": {},
                "BNBBLLBEIDL": true,
                "NHNPMMBMCFC": -0.0020000000949949026,
                "HCPFCAHMGMO": false,
                "OMCCMPHDLOO": "",
                "FEFNBKOHPOG": true,
                "OCFGGGHIKOO": "",
                "LJFHGGJDPHH": "",
                "LPKDFKLNEHL": ""
            },
            {
                "$type": "DLPFECMKEKH",
                "type": "DIALOG",
                "aliasList": [
                    "20846"
                ],
                "actionId": 121,
                "NMKEDPFEKBH": 731032306,
                "JLCHMAJCAPA": 2.200000047683716
            },
            {
                "$type": "ILCGAGEGDJI",
                "type": "BODY_LANG",
                "aliasList": [
                    "4296"
                ],
                "actionId": 225,
                "JLABKFNJCNP": true,
                "PMJAMGLAJGK": true,
                "LIMPPBIAKGL": false,
                "FNEGLPPEBBF": true,
                "FNDLJGEAMGI": ""
            },
            {
                "$type": "ILCGAGEGDJI",
                "type": "BODY_LANG",
                "delayTime": 0.17399999499320984,
                "aliasList": [
                    "Avatar"
                ],
                "actionId": 219,
                "JLABKFNJCNP": true,
                "PMJAMGLAJGK": true,
                "LIMPPBIAKGL": false,
                "FNEGLPPEBBF": true,
                "FNDLJGEAMGI": ""
            },
            {
                "$type": "MOOOKOKLLEI",
                "type": "CAMERA_MOVE",
                "delayTime": 0.2919999957084656,
                "duration": 4.0,
                "actionId": 215,
                "DOKGBCKOLJK": {
                    "x": -818.7789916992188,
                    "y": -240.88299560546875,
                    "z": 5850.466796875
                },
                "HGKCPMDICGG": {
                    "x": -819.6589965820312,
                    "y": -240.8489990234375,
                    "z": 5850.94091796875
                },
                "AFODHELHCGB": 55.20600128173828,
                "MGMFMGNANHH": 2,
                "NDFGFJFGHKL": "EaseInOutQuad",
                "IBCBGNHCICN": {},
                "BNBBLLBEIDL": true,
                "NHNPMMBMCFC": -0.0020000000949949026,
                "HCPFCAHMGMO": false,
                "OMCCMPHDLOO": "",
                "FEFNBKOHPOG": true,
                "OCFGGGHIKOO": "",
                "LJFHGGJDPHH": "",
                "LPKDFKLNEHL": ""
            },
            {
                "$type": "ILCGAGEGDJI",
                "type": "BODY_LANG",
                "delayTime": 1.0099999904632568,
                "aliasList": [
                    "1005"
                ],
                "actionId": 195,
                "FLBOOPHHFJP": 1060,
                "PMJAMGLAJGK": true,
                "LIMPPBIAKGL": false,
                "FNEGLPPEBBF": true,
                "FNDLJGEAMGI": ""
            },
            {
                "$type": "ILCGAGEGDJI",
                "type": "BODY_LANG",
                "delayTime": 2.0840001106262207,
                "aliasList": [
                    "1005"
                ],
                "actionId": 196,
                "JLABKFNJCNP": true,
                "PMJAMGLAJGK": true,
                "LIMPPBIAKGL": false,
                "FNEGLPPEBBF": true,
                "FNDLJGEAMGI": ""
            }
        ],
        [
            {
                "$type": "MOOOKOKLLEI",
                "type": "CAMERA_MOVE",
                "duration": 0.5,
                "actionId": 156,
                "DOKGBCKOLJK": {
                    "x": -817.8839721679688,
                    "y": -240.83900451660156,
                    "z": 5850.13623046875
                },
                "HGKCPMDICGG": {
                    "x": -817.8389892578125,
                    "y": -240.74200439453125,
                    "z": 5849.14208984375
                },
                "AFODHELHCGB": 55.20600128173828,
                "MGMFMGNANHH": 6,
                "NDFGFJFGHKL": "EaseInOutCubic",
                "IBCBGNHCICN": {},
                "BNBBLLBEIDL": true,
                "NHNPMMBMCFC": -0.0020000000949949026,
                "HCPFCAHMGMO": false,
                "OMCCMPHDLOO": "",
                "FEFNBKOHPOG": true,
                "OCFGGGHIKOO": "",
                "LJFHGGJDPHH": "",
                "LPKDFKLNEHL": ""
            },
            {
                "$type": "EAMBKPBOPIC",
                "type": "LOOK_AT",
                "aliasList": [
                    "Avatar"
                ],
                "actionId": 228,
                "FIDJDPAIFDN": true,
                "BCHGCKLKNEH": 0.5,
                "OMCCMPHDLOO": "1005",
                "EOHIIHMKDJC": true,
                "KPCALFDIHMC": "",
                "DBLNLMOPEBP": ""
            },
            {
                "$type": "EAMBKPBOPIC",
                "type": "LOOK_AT",
                "aliasList": [
                    "4296"
                ],
                "actionId": 227,
                "FIDJDPAIFDN": true,
                "BCHGCKLKNEH": 0.5,
                "OMCCMPHDLOO": "1005",
                "EOHIIHMKDJC": true,
                "KPCALFDIHMC": "",
                "DBLNLMOPEBP": ""
            },
            {
                "$type": "DLPFECMKEKH",
                "type": "DIALOG",
                "aliasList": [
                    "1005"
                ],
                "actionId": 123,
                "NMKEDPFEKBH": 731032307,
                "JLCHMAJCAPA": 2.0
            },
            {
                "$type": "ILCGAGEGDJI",
                "type": "BODY_LANG",
                "delayTime": 0.02500000037252903,
                "aliasList": [
                    "1005"
                ],
                "actionId": 197,
                "FLBOOPHHFJP": 1150,
                "PMJAMGLAJGK": true,
                "LIMPPBIAKGL": false,
                "FNEGLPPEBBF": true,
                "FNDLJGEAMGI": ""
            },
            {
                "$type": "MOOOKOKLLEI",
                "type": "CAMERA_MOVE",
                "delayTime": 0.18299999833106995,
                "duration": 5.0,
                "actionId": 226,
                "DOKGBCKOLJK": {
                    "x": -817.8839721679688,
                    "y": -240.83900451660156,
                    "z": 5850.13623046875
                },
                "HGKCPMDICGG": {
                    "x": -817.8839721679688,
                    "y": -240.76600646972656,
                    "z": 5849.13916015625
                },
                "AFODHELHCGB": 55.20600128173828,
                "NDFGFJFGHKL": "Linear",
                "IBCBGNHCICN": {},
                "BNBBLLBEIDL": true,
                "NHNPMMBMCFC": -0.0020000000949949026,
                "HCPFCAHMGMO": false,
                "OMCCMPHDLOO": "",
                "FEFNBKOHPOG": true,
                "OCFGGGHIKOO": "",
                "LJFHGGJDPHH": "",
                "LPKDFKLNEHL": ""
            },
            {
                "$type": "ILCGAGEGDJI",
                "type": "BODY_LANG",
                "delayTime": 1.225000023841858,
                "aliasList": [
                    "1005"
                ],
                "actionId": 174,
                "FLBOOPHHFJP": 1280,
                "PMJAMGLAJGK": true,
                "LIMPPBIAKGL": false,
                "FNEGLPPEBBF": true,
                "FNDLJGEAMGI": ""
            }
        ],
        [
            {
                "$type": "MOOOKOKLLEI",
                "type": "CAMERA_MOVE",
                "duration": 0.0,
                "actionId": 157,
                "DOKGBCKOLJK": {
                    "x": -815.1669921875,
                    "y": -239.1219940185547,
                    "z": 5854.4677734375
                },
                "HGKCPMDICGG": {
                    "x": -815.1320190429688,
                    "y": -238.83999633789062,
                    "z": 5855.42578125
                },
                "AFODHELHCGB": 49.0,
                "MGMFMGNANHH": 6,
                "NDFGFJFGHKL": "EaseInOutCubic",
                "IBCBGNHCICN": {},
                "BNBBLLBEIDL": true,
                "NHNPMMBMCFC": -0.0020000000949949026,
                "HCPFCAHMGMO": false,
                "OMCCMPHDLOO": "",
                "FEFNBKOHPOG": true,
                "OCFGGGHIKOO": "",
                "LJFHGGJDPHH": "",
                "LPKDFKLNEHL": ""
            },
            {
                "$type": "DLPFECMKEKH",
                "type": "DIALOG",
                "aliasList": [
                    "20846"
                ],
                "actionId": 125,
                "NMKEDPFEKBH": 731032308,
                "JLCHMAJCAPA": 3.5999999046325684
            },
            {
                "$type": "ILCGAGEGDJI",
                "type": "BODY_LANG",
                "aliasList": [
                    "4296"
                ],
                "actionId": 176,
                "JLABKFNJCNP": true,
                "PMJAMGLAJGK": true,
                "LIMPPBIAKGL": false,
                "FNEGLPPEBBF": true,
                "FNDLJGEAMGI": ""
            },
            {
                "$type": "MOOOKOKLLEI",
                "type": "CAMERA_MOVE",
                "delayTime": 0.5329999923706055,
                "duration": 6.0,
                "actionId": 158,
                "DOKGBCKOLJK": {
                    "x": -815.1669921875,
                    "y": -239.1219940185547,
                    "z": 5854.4677734375
                },
                "HGKCPMDICGG": {
                    "x": -815.125,
                    "y": -238.75399780273438,
                    "z": 5855.39599609375
                },
                "AFODHELHCGB": 49.0,
                "MGMFMGNANHH": 2,
                "NDFGFJFGHKL": "Linear",
                "IBCBGNHCICN": {},
                "BNBBLLBEIDL": true,
                "NHNPMMBMCFC": -0.0020000000949949026,
                "HCPFCAHMGMO": false,
                "OMCCMPHDLOO": "",
                "FEFNBKOHPOG": true,
                "OCFGGGHIKOO": "",
                "LJFHGGJDPHH": "",
                "LPKDFKLNEHL": ""
            },
            {
                "$type": "ECLBLHOENAG",
                "type": "DIALOG_SELECT",
                "delayTime": 3.5169999599456787,
                "aliasList": [
                    "Avatar"
                ],
                "actionId": 126,
                "NDMMOPDPKNF": [
                    731032309,
                    731032311
                ],
                "FPDBIEGHMCD": [
                    2495342282,
                    2495342283
                ],
                "PKBOIGBGDEG": true,
                "GOJJPCDMMLN": 3544178213
            }
        ],
        [
            {
                "$type": "MOOOKOKLLEI",
                "type": "CAMERA_MOVE",
                "duration": 0.0,
                "actionId": 199,
                "DOKGBCKOLJK": {
                    "x": -819.718017578125,
                    "y": -240.78500366210938,
                    "z": 5851.537109375
                },
                "HGKCPMDICGG": {
                    "x": -819.5139770507812,
                    "y": -240.7899932861328,
                    "z": 5850.55810546875
                },
                "AFODHELHCGB": 55.20600128173828,
                "MGMFMGNANHH": 6,
                "NDFGFJFGHKL": "EaseInOutCubic",
                "IBCBGNHCICN": {},
                "BNBBLLBEIDL": true,
                "NHNPMMBMCFC": -0.0020000000949949026,
                "HCPFCAHMGMO": false,
                "OMCCMPHDLOO": "",
                "FEFNBKOHPOG": true,
                "OCFGGGHIKOO": "",
                "LJFHGGJDPHH": "",
                "LPKDFKLNEHL": ""
            },
            {
                "$type": "EAMBKPBOPIC",
                "type": "LOOK_AT",
                "aliasList": [
                    "Avatar"
                ],
                "actionId": 230,
                "FIDJDPAIFDN": true,
                "BCHGCKLKNEH": 0.5,
                "OMCCMPHDLOO": "20846",
                "EOHIIHMKDJC": true,
                "KPCALFDIHMC": "",
                "DBLNLMOPEBP": ""
            },
            {
                "$type": "DLPFECMKEKH",
                "type": "DIALOG",
                "aliasList": [
                    "20846"
                ],
                "actionId": 128,
                "NMKEDPFEKBH": 731032310,
                "JLCHMAJCAPA": 1.0
            },
            {
                "$type": "EAMBKPBOPIC",
                "type": "LOOK_AT",
                "aliasList": [
                    "4296"
                ],
                "actionId": 229,
                "FIDJDPAIFDN": true,
                "BCHGCKLKNEH": 0.5,
                "OMCCMPHDLOO": "20846",
                "EOHIIHMKDJC": true,
                "KPCALFDIHMC": "",
                "DBLNLMOPEBP": ""
            },
            {
                "$type": "EAMBKPBOPIC",
                "type": "LOOK_AT",
                "aliasList": [
                    "1005"
                ],
                "actionId": 231,
                "FIDJDPAIFDN": true,
                "BCHGCKLKNEH": 0.5,
                "OMCCMPHDLOO": "20846",
                "EOHIIHMKDJC": true,
                "KPCALFDIHMC": "",
                "DBLNLMOPEBP": ""
            },
            {
                "$type": "MOOOKOKLLEI",
                "type": "CAMERA_MOVE",
                "delayTime": 0.5170000195503235,
                "duration": 4.0,
                "actionId": 203,
                "DOKGBCKOLJK": {
                    "x": -819.718017578125,
                    "y": -240.78500366210938,
                    "z": 5851.537109375
                },
                "HGKCPMDICGG": {
                    "x": -819.4869995117188,
                    "y": -240.781005859375,
                    "z": 5850.56396484375
                },
                "AFODHELHCGB": 55.20600128173828,
                "MGMFMGNANHH": 2,
                "NDFGFJFGHKL": "Linear",
                "IBCBGNHCICN": {},
                "BNBBLLBEIDL": true,
                "NHNPMMBMCFC": -0.0020000000949949026,
                "HCPFCAHMGMO": false,
                "OMCCMPHDLOO": "",
                "FEFNBKOHPOG": true,
                "OCFGGGHIKOO": "",
                "LJFHGGJDPHH": "",
                "LPKDFKLNEHL": ""
            }
        ],
        [
            {
                "$type": "MOOOKOKLLEI",
                "type": "CAMERA_MOVE",
                "duration": 0.0,
                "actionId": 159,
                "DOKGBCKOLJK": {
                    "x": -812.9979858398438,
                    "y": -239.01699829101562,
                    "z": 5850.03515625
                },
                "HGKCPMDICGG": {
                    "x": -813.3569946289062,
                    "y": -239.58099365234375,
                    "z": 5850.77880859375
                },
                "AFODHELHCGB": 55.20600128173828,
                "MGMFMGNANHH": 6,
                "NDFGFJFGHKL": "EaseInOutCubic",
                "IBCBGNHCICN": {},
                "BNBBLLBEIDL": true,
                "NHNPMMBMCFC": -0.0020000000949949026,
                "HCPFCAHMGMO": false,
                "OMCCMPHDLOO": "",
                "FEFNBKOHPOG": true,
                "OCFGGGHIKOO": "",
                "LJFHGGJDPHH": "",
                "LPKDFKLNEHL": ""
            },
            {
                "$type": "DLPFECMKEKH",
                "type": "DIALOG",
                "aliasList": [
                    "20846"
                ],
                "actionId": 130,
                "NMKEDPFEKBH": 731032312,
                "JLCHMAJCAPA": 2.0
            },
            {
                "$type": "MOOOKOKLLEI",
                "type": "CAMERA_MOVE",
                "delayTime": 0.5170000195503235,
                "duration": 7.0,
                "actionId": 188,
                "DOKGBCKOLJK": {
                    "x": -811.9559936523438,
                    "y": -239.01699829101562,
                    "z": 5850.53076171875
                },
                "HGKCPMDICGG": {
                    "x": -812.4920043945312,
                    "y": -239.5780029296875,
                    "z": 5851.162109375
                },
                "AFODHELHCGB": 55.20600128173828,
                "MGMFMGNANHH": 1,
                "NDFGFJFGHKL": "Linear",
                "IBCBGNHCICN": {},
                "BNBBLLBEIDL": true,
                "NHNPMMBMCFC": -0.0020000000949949026,
                "HCPFCAHMGMO": false,
                "OMCCMPHDLOO": "",
                "FEFNBKOHPOG": true,
                "OCFGGGHIKOO": "",
                "LJFHGGJDPHH": "",
                "LPKDFKLNEHL": ""
            }
        ],
        [
            {
                "$type": "MOOOKOKLLEI",
                "type": "CAMERA_MOVE",
                "duration": 0.0,
                "actionId": 232,
                "DOKGBCKOLJK": {
                    "x": -816.1290283203125,
                    "y": -240.57000732421875,
                    "z": 5848.63818359375
                },
                "HGKCPMDICGG": {
                    "x": -817.0670166015625,
                    "y": -240.60800170898438,
                    "z": 5848.98388671875
                },
                "AFODHELHCGB": 55.20600128173828,
                "MGMFMGNANHH": 6,
                "NDFGFJFGHKL": "EaseInOutCubic",
                "IBCBGNHCICN": {},
                "BNBBLLBEIDL": true,
                "NHNPMMBMCFC": -0.0020000000949949026,
                "HCPFCAHMGMO": false,
                "OMCCMPHDLOO": "",
                "FEFNBKOHPOG": true,
                "OCFGGGHIKOO": "",
                "LJFHGGJDPHH": "",
                "LPKDFKLNEHL": ""
            },
            {
                "$type": "DLPFECMKEKH",
                "type": "DIALOG",
                "aliasList": [
                    "20846"
                ],
                "actionId": 132,
                "NMKEDPFEKBH": 731032313,
                "JLCHMAJCAPA": 2.0
            },
            {
                "$type": "MOOOKOKLLEI",
                "type": "CAMERA_MOVE",
                "delayTime": 0.10000000149011612,
                "duration": 5.0,
                "actionId": 233,
                "DOKGBCKOLJK": {
                    "x": -816.1290283203125,
                    "y": -240.57000732421875,
                    "z": 5848.63818359375
                },
                "HGKCPMDICGG": {
                    "x": -817.0549926757812,
                    "y": -240.60800170898438,
                    "z": 5849.01513671875
                },
                "AFODHELHCGB": 55.20600128173828,
                "MGMFMGNANHH": 1,
                "NDFGFJFGHKL": "Linear",
                "IBCBGNHCICN": {},
                "BNBBLLBEIDL": true,
                "NHNPMMBMCFC": -0.0020000000949949026,
                "HCPFCAHMGMO": false,
                "OMCCMPHDLOO": "",
                "FEFNBKOHPOG": true,
                "OCFGGGHIKOO": "",
                "LJFHGGJDPHH": "",
                "LPKDFKLNEHL": ""
            },
            {
                "$type": "ILCGAGEGDJI",
                "type": "BODY_LANG",
                "delayTime": 0.19599999487400055,
                "aliasList": [
                    "1005"
                ],
                "actionId": 189,
                "FLBOOPHHFJP": 1190,
                "PMJAMGLAJGK": true,
                "LIMPPBIAKGL": false,
                "FNEGLPPEBBF": true,
                "FNDLJGEAMGI": ""
            },
            {
                "$type": "ILCGAGEGDJI",
                "type": "BODY_LANG",
                "delayTime": 0.765999972820282,
                "aliasList": [
                    "4296"
                ],
                "actionId": 192,
                "FLBOOPHHFJP": 1190,
                "PMJAMGLAJGK": true,
                "LIMPPBIAKGL": false,
                "FNEGLPPEBBF": true,
                "FNDLJGEAMGI": ""
            },
            {
                "$type": "ILCGAGEGDJI",
                "type": "BODY_LANG",
                "delayTime": 1.6019999980926514,
                "aliasList": [
                    "1005"
                ],
                "actionId": 191,
                "JLABKFNJCNP": true,
                "PMJAMGLAJGK": true,
                "LIMPPBIAKGL": false,
                "FNEGLPPEBBF": true,
                "FNDLJGEAMGI": ""
            }
        ],
        [
            {
                "$type": "MOOOKOKLLEI",
                "type": "CAMERA_MOVE",
                "duration": 0.0,
                "actionId": 162,
                "DOKGBCKOLJK": {
                    "x": -818.6810302734375,
                    "y": -240.85800170898438,
                    "z": 5850.9677734375
                },
                "HGKCPMDICGG": {
                    "x": -819.6740112304688,
                    "y": -240.84800720214844,
                    "z": 5850.84912109375
                },
                "AFODHELHCGB": 55.20600128173828,
                "MGMFMGNANHH": 6,
                "NDFGFJFGHKL": "EaseInOutCubic",
                "IBCBGNHCICN": {},
                "BNBBLLBEIDL": true,
                "NHNPMMBMCFC": -0.0020000000949949026,
                "HCPFCAHMGMO": false,
                "OMCCMPHDLOO": "",
                "FEFNBKOHPOG": true,
                "OCFGGGHIKOO": "",
                "LJFHGGJDPHH": "",
                "LPKDFKLNEHL": ""
            },
            {
                "$type": "DLPFECMKEKH",
                "type": "DIALOG",
                "aliasList": [
                    "20846"
                ],
                "actionId": 134,
                "NMKEDPFEKBH": 731032314,
                "JLCHMAJCAPA": 3.0
            },
            {
                "$type": "ILCGAGEGDJI",
                "type": "BODY_LANG",
                "aliasList": [
                    "20846"
                ],
                "actionId": 234,
                "FLBOOPHHFJP": 4,
                "PMJAMGLAJGK": true,
                "LIMPPBIAKGL": false,
                "FNEGLPPEBBF": true,
                "FNDLJGEAMGI": ""
            },
            {
                "$type": "MOOOKOKLLEI",
                "type": "CAMERA_MOVE",
                "delayTime": 0.2669999897480011,
                "duration": 5.5,
                "actionId": 163,
                "DOKGBCKOLJK": {
                    "x": -818.6810302734375,
                    "y": -240.85800170898438,
                    "z": 5850.9677734375
                },
                "HGKCPMDICGG": {
                    "x": -819.6680297851562,
                    "y": -240.86599731445312,
                    "z": 5850.80517578125
                },
                "AFODHELHCGB": 55.20600128173828,
                "MGMFMGNANHH": 2,
                "NDFGFJFGHKL": "Linear",
                "IBCBGNHCICN": {},
                "BNBBLLBEIDL": true,
                "NHNPMMBMCFC": -0.0020000000949949026,
                "HCPFCAHMGMO": false,
                "OMCCMPHDLOO": "",
                "FEFNBKOHPOG": true,
                "OCFGGGHIKOO": "",
                "LJFHGGJDPHH": "",
                "LPKDFKLNEHL": ""
            },
            {
                "$type": "ILCGAGEGDJI",
                "type": "BODY_LANG",
                "delayTime": 2.4760000705718994,
                "aliasList": [
                    "20846"
                ],
                "actionId": 235,
                "JLABKFNJCNP": true,
                "PMJAMGLAJGK": true,
                "LIMPPBIAKGL": false,
                "FNEGLPPEBBF": true,
                "FNDLJGEAMGI": ""
            }
        ],
        [
            {
                "$type": "MOOOKOKLLEI",
                "type": "CAMERA_MOVE",
                "duration": 0.0,
                "actionId": 164,
                "DOKGBCKOLJK": {
                    "x": -820.6270141601562,
                    "y": -240.81700134277344,
                    "z": 5851.19384765625
                },
                "HGKCPMDICGG": {
                    "x": -819.8499755859375,
                    "y": -240.8489990234375,
                    "z": 5850.56494140625
                },
                "AFODHELHCGB": 55.20600128173828,
                "MGMFMGNANHH": 6,
                "NDFGFJFGHKL": "EaseInOutCubic",
                "IBCBGNHCICN": {},
                "BNBBLLBEIDL": true,
                "NHNPMMBMCFC": -0.0020000000949949026,
                "HCPFCAHMGMO": false,
                "OMCCMPHDLOO": "",
                "FEFNBKOHPOG": true,
                "OCFGGGHIKOO": "",
                "LJFHGGJDPHH": "",
                "LPKDFKLNEHL": ""
            },
            {
                "$type": "DLPFECMKEKH",
                "type": "DIALOG",
                "aliasList": [
                    "20846"
                ],
                "actionId": 136,
                "NMKEDPFEKBH": 731032315,
                "JLCHMAJCAPA": 3.0
            },
            {
                "$type": "ILCGAGEGDJI",
                "type": "BODY_LANG",
                "aliasList": [
                    "4296"
                ],
                "actionId": 194,
                "JLABKFNJCNP": true,
                "PMJAMGLAJGK": true,
                "LIMPPBIAKGL": false,
                "FNEGLPPEBBF": true,
                "FNDLJGEAMGI": ""
            },
            {
                "$type": "EAMBKPBOPIC",
                "type": "LOOK_AT",
                "aliasList": [
                    "4296"
                ],
                "actionId": 242,
                "FIDJDPAIFDN": true,
                "BCHGCKLKNEH": 0.5,
                "OMCCMPHDLOO": "20846",
                "EOHIIHMKDJC": true,
                "KPCALFDIHMC": "",
                "DBLNLMOPEBP": ""
            },
            {
                "$type": "MOOOKOKLLEI",
                "type": "CAMERA_MOVE",
                "delayTime": 0.10000000149011612,
                "duration": 5.0,
                "actionId": 236,
                "DOKGBCKOLJK": {
                    "x": -820.6270141601562,
                    "y": -240.81700134277344,
                    "z": 5851.19384765625
                },
                "HGKCPMDICGG": {
                    "x": -819.89501953125,
                    "y": -240.85800170898438,
                    "z": 5850.51416015625
                },
                "AFODHELHCGB": 52.0,
                "NDFGFJFGHKL": "EaseOutQuad",
                "IBCBGNHCICN": {},
                "BNBBLLBEIDL": true,
                "NHNPMMBMCFC": -0.0020000000949949026,
                "HCPFCAHMGMO": false,
                "OMCCMPHDLOO": "",
                "FEFNBKOHPOG": true,
                "OCFGGGHIKOO": "",
                "LJFHGGJDPHH": "",
                "LPKDFKLNEHL": ""
            },
            {
                "$type": "EAMBKPBOPIC",
                "type": "LOOK_AT",
                "delayTime": 0.1679999977350235,
                "aliasList": [
                    "Avatar"
                ],
                "actionId": 243,
                "FIDJDPAIFDN": true,
                "BCHGCKLKNEH": 0.5,
                "OMCCMPHDLOO": "20846",
                "EOHIIHMKDJC": true,
                "KPCALFDIHMC": "",
                "DBLNLMOPEBP": ""
            },
            {
                "$type": "ILCGAGEGDJI",
                "type": "BODY_LANG",
                "delayTime": 0.7129999995231628,
                "aliasList": [
                    "1005"
                ],
                "actionId": 184,
                "FLBOOPHHFJP": 1040,
                "PMJAMGLAJGK": true,
                "LIMPPBIAKGL": false,
                "FNEGLPPEBBF": true,
                "FNDLJGEAMGI": ""
            },
            {
                "$type": "ILCGAGEGDJI",
                "type": "BODY_LANG",
                "delayTime": 0.9039999842643738,
                "aliasList": [
                    "Avatar"
                ],
                "actionId": 183,
                "FLBOOPHHFJP": 1190,
                "PMJAMGLAJGK": true,
                "LIMPPBIAKGL": false,
                "FNEGLPPEBBF": true,
                "FNDLJGEAMGI": ""
            },
            {
                "$type": "ILCGAGEGDJI",
                "type": "BODY_LANG",
                "delayTime": 0.9589999914169312,
                "aliasList": [
                    "4296"
                ],
                "actionId": 193,
                "FLBOOPHHFJP": 1230,
                "PMJAMGLAJGK": true,
                "LIMPPBIAKGL": false,
                "FNEGLPPEBBF": true,
                "FNDLJGEAMGI": ""
            },
            {
                "$type": "ILCGAGEGDJI",
                "type": "BODY_LANG",
                "delayTime": 1.9459999799728394,
                "aliasList": [
                    "1005"
                ],
                "actionId": 185,
                "FLBOOPHHFJP": 1100,
                "PMJAMGLAJGK": true,
                "LIMPPBIAKGL": false,
                "FNEGLPPEBBF": true,
                "FNDLJGEAMGI": ""
            },
            {
                "$type": "ILCGAGEGDJI",
                "type": "BODY_LANG",
                "delayTime": 2.937999963760376,
                "aliasList": [
                    "4296"
                ],
                "actionId": 198,
                "FLBOOPHHFJP": 4040,
                "PMJAMGLAJGK": true,
                "LIMPPBIAKGL": false,
                "FNEGLPPEBBF": true,
                "FNDLJGEAMGI": ""
            }
        ],
        [
            {
                "$type": "MOOOKOKLLEI",
                "type": "CAMERA_MOVE",
                "delayTime": 0.017000000923871994,
                "duration": 0.0,
                "actionId": 244,
                "DOKGBCKOLJK": {
                    "x": -819.1010131835938,
                    "y": -240.66000366210938,
                    "z": 5848.8818359375
                },
                "HGKCPMDICGG": {
                    "x": -818.7620239257812,
                    "y": -240.5570068359375,
                    "z": 5847.94677734375
                },
                "AFODHELHCGB": 53.11399841308594,
                "MGMFMGNANHH": 6,
                "NDFGFJFGHKL": "EaseInOutCubic",
                "IBCBGNHCICN": {},
                "BNBBLLBEIDL": true,
                "NHNPMMBMCFC": -0.0020000000949949026,
                "HCPFCAHMGMO": false,
                "OMCCMPHDLOO": "",
                "FEFNBKOHPOG": true,
                "OCFGGGHIKOO": "",
                "LJFHGGJDPHH": "",
                "LPKDFKLNEHL": ""
            },
            {
                "$type": "DLPFECMKEKH",
                "type": "DIALOG",
                "delayTime": 0.017000000923871994,
                "aliasList": [
                    "4296"
                ],
                "actionId": 138,
                "NMKEDPFEKBH": 731032316,
                "JLCHMAJCAPA": 1.0
            },
            {
                "$type": "MOOOKOKLLEI",
                "type": "CAMERA_MOVE",
                "delayTime": 0.11699999868869781,
                "duration": 5.0,
                "actionId": 245,
                "DOKGBCKOLJK": {
                    "x": -819.1010131835938,
                    "y": -240.66000366210938,
                    "z": 5848.8818359375
                },
                "HGKCPMDICGG": {
                    "x": -818.7620239257812,
                    "y": -240.5570068359375,
                    "z": 5847.94677734375
                },
                "AFODHELHCGB": 52.0,
                "NDFGFJFGHKL": "EaseOutQuad",
                "IBCBGNHCICN": {},
                "BNBBLLBEIDL": true,
                "NHNPMMBMCFC": -0.0020000000949949026,
                "HCPFCAHMGMO": false,
                "OMCCMPHDLOO": "",
                "FEFNBKOHPOG": true,
                "OCFGGGHIKOO": "",
                "LJFHGGJDPHH": "",
                "LPKDFKLNEHL": ""
            },
            {
                "$type": "ILCGAGEGDJI",
                "type": "BODY_LANG",
                "delayTime": 0.18299999833106995,
                "aliasList": [
                    "Avatar"
                ],
                "actionId": 217,
                "JLABKFNJCNP": true,
                "PMJAMGLAJGK": true,
                "LIMPPBIAKGL": false,
                "FNEGLPPEBBF": true,
                "FNDLJGEAMGI": ""
            },
            {
                "$type": "ILCGAGEGDJI",
                "type": "BODY_LANG",
                "delayTime": 0.30799999833106995,
                "aliasList": [
                    "4296"
                ],
                "actionId": 167,
                "FLBOOPHHFJP": 1190,
                "PMJAMGLAJGK": true,
                "LIMPPBIAKGL": false,
                "FNEGLPPEBBF": true,
                "FNDLJGEAMGI": ""
            }
        ],
        [
            {
                "$type": "MOOOKOKLLEI",
                "type": "CAMERA_MOVE",
                "duration": 0.0,
                "actionId": 237,
                "DOKGBCKOLJK": {
                    "x": -818.0020141601562,
                    "y": -240.71800231933594,
                    "z": 5850.544921875
                },
                "HGKCPMDICGG": {
                    "x": -818.18701171875,
                    "y": -240.71400451660156,
                    "z": 5849.56201171875
                },
                "AFODHELHCGB": 55.20600128173828,
                "MGMFMGNANHH": 6,
                "NDFGFJFGHKL": "EaseInOutCubic",
                "IBCBGNHCICN": {},
                "BNBBLLBEIDL": true,
                "NHNPMMBMCFC": -0.0020000000949949026,
                "HCPFCAHMGMO": false,
                "OMCCMPHDLOO": "",
                "FEFNBKOHPOG": true,
                "OCFGGGHIKOO": "",
                "LJFHGGJDPHH": "",
                "LPKDFKLNEHL": ""
            },
            {
                "$type": "EAMBKPBOPIC",
                "type": "LOOK_AT",
                "aliasList": [
                    "Avatar"
                ],
                "actionId": 239,
                "FIDJDPAIFDN": true,
                "BCHGCKLKNEH": 0.5,
                "OMCCMPHDLOO": "4296",
                "EOHIIHMKDJC": true,
                "KPCALFDIHMC": "",
                "DBLNLMOPEBP": ""
            },
            {
                "$type": "DLPFECMKEKH",
                "type": "DIALOG",
                "aliasList": [
                    "4296"
                ],
                "actionId": 140,
                "NMKEDPFEKBH": 731032317,
                "JLCHMAJCAPA": 3.0
            },
            {
                "$type": "EAMBKPBOPIC",
                "type": "LOOK_AT",
                "aliasList": [
                    "4296"
                ],
                "actionId": 240,
                "FIDJDPAIFDN": true,
                "BCHGCKLKNEH": 0.5,
                "OMCCMPHDLOO": "Avatar",
                "EOHIIHMKDJC": true,
                "KPCALFDIHMC": "",
                "DBLNLMOPEBP": ""
            },
            {
                "$type": "OOMFCPJAJGL",
                "type": "STEER_TO",
                "duration": 1.0,
                "aliasList": [
                    "1005"
                ],
                "actionId": 186,
                "DMGIIHNDNLC": "TO_TARGET",
                "ECOLMDAPKKN": true,
                "PLAPKCOMAKJ": {
                    "x": -820.2160034179688,
                    "y": -242.3780059814453,
                    "z": 5852.6982421875
                },
                "GDDCAKPOIAD": 45.0,
                "HCMINPNPFDF": true,
                "PENAEBFAHCH": true,
                "CKOEAJFMDON": true,
                "OMCCMPHDLOO": "4296",
                "AKKPIOCLGOP": true,
                "PPGPCHDAOJG": true,
                "DBLNLMOPEBP": ""
            },
            {
                "$type": "EAMBKPBOPIC",
                "type": "LOOK_AT",
                "aliasList": [
                    "1005"
                ],
                "actionId": 241,
                "FIDJDPAIFDN": true,
                "BCHGCKLKNEH": 0.5,
                "OMCCMPHDLOO": "4296",
                "EOHIIHMKDJC": true,
                "KPCALFDIHMC": "",
                "DBLNLMOPEBP": ""
            },
            {
                "$type": "ILCGAGEGDJI",
                "type": "BODY_LANG",
                "delayTime": 0.03200000151991844,
                "aliasList": [
                    "Avatar"
                ],
                "actionId": 182,
                "JLABKFNJCNP": true,
                "PMJAMGLAJGK": true,
                "LIMPPBIAKGL": false,
                "FNEGLPPEBBF": true,
                "FNDLJGEAMGI": ""
            },
            {
                "$type": "MOOOKOKLLEI",
                "type": "CAMERA_MOVE",
                "delayTime": 0.10000000149011612,
                "duration": 5.0,
                "actionId": 238,
                "DOKGBCKOLJK": {
                    "x": -818.0020141601562,
                    "y": -240.71800231933594,
                    "z": 5850.544921875
                },
                "HGKCPMDICGG": {
                    "x": -818.22802734375,
                    "y": -240.7169952392578,
                    "z": 5849.57080078125
                },
                "AFODHELHCGB": 52.0,
                "NDFGFJFGHKL": "Linear",
                "IBCBGNHCICN": {},
                "BNBBLLBEIDL": true,
                "NHNPMMBMCFC": -0.0020000000949949026,
                "HCPFCAHMGMO": false,
                "OMCCMPHDLOO": "",
                "FEFNBKOHPOG": true,
                "OCFGGGHIKOO": "",
                "LJFHGGJDPHH": "",
                "LPKDFKLNEHL": ""
            },
            {
                "$type": "ILCGAGEGDJI",
                "type": "BODY_LANG",
                "delayTime": 0.6669999957084656,
                "aliasList": [
                    "4296"
                ],
                "actionId": 168,
                "FLBOOPHHFJP": 9040,
                "PMJAMGLAJGK": true,
                "LIMPPBIAKGL": false,
                "FNEGLPPEBBF": true,
                "FNDLJGEAMGI": ""
            },
            {
                "$type": "ILCGAGEGDJI",
                "type": "BODY_LANG",
                "delayTime": 0.6919999718666077,
                "aliasList": [
                    "Avatar"
                ],
                "actionId": 171,
                "FLBOOPHHFJP": 4030,
                "PMJAMGLAJGK": true,
                "LIMPPBIAKGL": false,
                "FNEGLPPEBBF": true,
                "FNDLJGEAMGI": ""
            },
            {
                "$type": "OOMFCPJAJGL",
                "type": "STEER_TO",
                "delayTime": 0.6919999718666077,
                "duration": 1.0,
                "aliasList": [
                    "4296"
                ],
                "actionId": 169,
                "DMGIIHNDNLC": "TO_TARGET",
                "ECOLMDAPKKN": true,
                "PLAPKCOMAKJ": {
                    "x": -820.85302734375,
                    "y": -242.24000549316406,
                    "z": 5851.9970703125
                },
                "GDDCAKPOIAD": 50.0,
                "HCMINPNPFDF": true,
                "PENAEBFAHCH": true,
                "CKOEAJFMDON": true,
                "OMCCMPHDLOO": "Avatar",
                "AKKPIOCLGOP": true,
                "PPGPCHDAOJG": true,
                "DBLNLMOPEBP": ""
            },
            {
                "$type": "ILCGAGEGDJI",
                "type": "BODY_LANG",
                "delayTime": 2.071000099182129,
                "aliasList": [
                    "Avatar"
                ],
                "actionId": 218,
                "JLABKFNJCNP": true,
                "PMJAMGLAJGK": true,
                "LIMPPBIAKGL": false,
                "FNEGLPPEBBF": true,
                "FNDLJGEAMGI": ""
            }
        ],
        [
            {
                "$type": "MoleMole.Config.ConfigTimeProtectAction",
                "type": "TIME_PROTECT",
                "duration": 0.10000000149011612,
                "actionId": 105
            },
            {
                "$type": "MoleMole.Config.ConfigSimpleBlackScreenAction",
                "type": "SIMPLE_BLACK_SCREEN",
                "duration": 2.0,
                "actionId": 141,
                "durationToBlack": 0.5,
                "durationKeepBlack": 1.0,
                "durationFromBlack": 0.5,
                "textMapID": ""
            },
            {
                "$type": "MOOOKOKLLEI",
                "type": "CAMERA_MOVE",
                "delayTime": 0.7329999804496765,
                "duration": 0.5,
                "actionId": 201,
                "DOKGBCKOLJK": {
                    "x": -816.25,
                    "y": -240.322998046875,
                    "z": 5847.02001953125
                },
                "HGKCPMDICGG": {
                    "x": -816.9739990234375,
                    "y": -240.4770050048828,
                    "z": 5847.69189453125
                },
                "AFODHELHCGB": 55.20600128173828,
                "MGMFMGNANHH": 6,
                "NDFGFJFGHKL": "EaseInOutCubic",
                "IBCBGNHCICN": {},
                "BNBBLLBEIDL": true,
                "NHNPMMBMCFC": -0.0020000000949949026,
                "HCPFCAHMGMO": false,
                "OMCCMPHDLOO": "",
                "FEFNBKOHPOG": true,
                "OCFGGGHIKOO": "",
                "LJFHGGJDPHH": "",
                "LPKDFKLNEHL": ""
            }
        ]
    ],
    "groupId": [
        {
            "grpId": 3544178214,
            "nextGrpId": 3544178215
        },
        {
            "index": 1,
            "grpId": 3544178215,
            "nextGrpId": 3544178216
        },
        {
            "index": 2,
            "grpId": 3544178216,
            "nextGrpId": 3544178217
        },
        {
            "index": 3,
            "grpId": 3544178217,
            "nextGrpId": 3544178218
        },
        {
            "index": 4,
            "grpId": 3544178218,
            "nextGrpId": 3544178219
        },
        {
            "index": 5,
            "grpId": 3544178219,
            "nextGrpId": 3544178220
        },
        {
            "index": 6,
            "grpId": 3544178220,
            "nextGrpId": 3544178221
        },
        {
            "index": 7,
            "grpId": 3544178221,
            "nextGrpId": 3544178222
        },
        {
            "index": 8,
            "grpId": 3544178222,
            "nextGrpId": 2495342282
        },
        {
            "index": 9,
            "grpId": 2495342282,
            "nextGrpId": 2495342284
        },
        {
            "index": 10,
            "grpId": 2495342283,
            "nextGrpId": 2495342284
        },
        {
            "index": 11,
            "grpId": 2495342284,
            "nextGrpId": 2495342285
        },
        {
            "index": 12,
            "grpId": 2495342285,
            "nextGrpId": 2495342286
        },
        {
            "index": 13,
            "grpId": 2495342286,
            "nextGrpId": 2495342287
        },
        {
            "index": 14,
            "grpId": 2495342287,
            "nextGrpId": 2495342288
        },
        {
            "index": 15,
            "grpId": 2495342288,
            "nextGrpId": 2495342289
        },
        {
            "index": 16,
            "grpId": 2495342289,
            "nextGrpId": 2495342290
        }
    ]
}