{
    "luaDataPath": "",
    "entityBan": "",
    "startFade": {
        "startFadeInDuration": 0.30000001192092896,
        "startFadeOutDuration": 0.30000001192092896
    },
    "endFade": {
        "startFadeOutDuration": 0.0
    },
    "actors": [
        {
            "alias": "Avatar",
            "visible": true,
            "bornPointName": "Q372Player",
            "relativePosNpcAlias": "",
            "bindMovingTargetKey": ""
        },
        {
            "configID": 1160,
            "alias": "1160",
            "visible": true,
            "bornPointName": "Q372Venti",
            "relativePosNpcAlias": "",
            "bindMovingTargetKey": ""
        },
        {
            "configID": 1005,
            "alias": "1005",
            "visible": true,
            "bornPointName": "Q372Paimon",
            "relativePosNpcAlias": "",
            "bindMovingTargetKey": ""
        }
    ],
    "group": [
        [
            {
                "$type": "EAMBKPBOPIC",
                "type": "LOOK_AT",
                "aliasList": [
                    "Avatar"
                ],
                "FIDJDPAIFDN": true,
                "EFHJCGEOHAF": {
                    "y": -5.0
                },
                "PBEEIPKGGKJ": true,
                "OMCCMPHDLOO": "",
                "KPCALFDIHMC": "",
                "DBLNLMOPEBP": ""
            },
            {
                "$type": "DLPFECMKEKH",
                "type": "DIALOG",
                "aliasList": [
                    "1160"
                ],
                "NMKEDPFEKBH": 3720201
            },
            {
                "$type": "MOOOKOKLLEI",
                "type": "CAMERA_MOVE",
                "duration": 1.0,
                "aliasList": [
                    "1160"
                ],
                "DOKGBCKOLJK": {
                    "x": 2352.322998046875,
                    "y": 261.4392395019531,
                    "z": -690.625732421875
                },
                "HGKCPMDICGG": {
                    "x": 2352.993408203125,
                    "y": 261.2957458496094,
                    "z": -689.8976440429688
                },
                "OMPKKAFEHPN": 6.0,
                "MGMFMGNANHH": 6,
                "IBCBGNHCICN": {},
                "OMCCMPHDLOO": "",
                "OCFGGGHIKOO": "",
                "LJFHGGJDPHH": "",
                "LPKDFKLNEHL": ""
            },
            {
                "$type": "EAMBKPBOPIC",
                "type": "LOOK_AT",
                "aliasList": [
                    "1160"
                ],
                "FIDJDPAIFDN": true,
                "EFHJCGEOHAF": {
                    "x": 10.0,
                    "y": 10.0
                },
                "PBEEIPKGGKJ": true,
                "EJJGMGKOEKN": 5.0,
                "BCHGCKLKNEH": 0.20000000298023224,
                "MIMBENELNHD": 0.30000001192092896,
                "OMCCMPHDLOO": "",
                "KPCALFDIHMC": "",
                "DBLNLMOPEBP": ""
            },
            {
                "$type": "OOMFCPJAJGL",
                "type": "STEER_TO",
                "aliasList": [
                    "1005"
                ],
                "DMGIIHNDNLC": "ABSOLUTE",
                "PLAPKCOMAKJ": {
                    "x": 2353.11669921875,
                    "y": 261.4759216308594,
                    "z": -689.7440185546875
                },
                "OMCCMPHDLOO": "",
                "DBLNLMOPEBP": ""
            }
        ],
        [
            {
                "$type": "DLPFECMKEKH",
                "type": "DIALOG",
                "aliasList": [
                    "Avatar"
                ],
                "NMKEDPFEKBH": 3720202
            },
            {
                "$type": "MOOOKOKLLEI",
                "type": "CAMERA_MOVE",
                "duration": 1.0,
                "aliasList": [
                    "Avatar"
                ],
                "DOKGBCKOLJK": {
                    "x": 2349.77099609375,
                    "y": 262.5971374511719,
                    "z": -690.4522705078125
                },
                "HGKCPMDICGG": {
                    "x": 2350.630615234375,
                    "y": 262.08868408203125,
                    "z": -690.4028930664062
                },
                "OMPKKAFEHPN": 6.0,
                "MGMFMGNANHH": 6,
                "IBCBGNHCICN": {},
                "OMCCMPHDLOO": "",
                "OCFGGGHIKOO": "",
                "LJFHGGJDPHH": "",
                "LPKDFKLNEHL": ""
            },
            {
                "$type": "ILCGAGEGDJI",
                "type": "BODY_LANG",
                "aliasList": [
                    "1005"
                ],
                "FLBOOPHHFJP": 1090,
                "FNDLJGEAMGI": ""
            }
        ],
        [
            {
                "$type": "EAMBKPBOPIC",
                "type": "LOOK_AT",
                "delayTime": 0.30000001192092896,
                "aliasList": [
                    "Avatar"
                ],
                "FIDJDPAIFDN": true,
                "useTargetPos": true,
                "GFKIMGBGADJ": true,
                "GMKIJKADNHN": {
                    "x": 2353.11669921875,
                    "y": 261.4759216308594,
                    "z": -689.7440185546875
                },
                "BCHGCKLKNEH": 0.30000001192092896,
                "OMCCMPHDLOO": "",
                "KPCALFDIHMC": "",
                "DBLNLMOPEBP": ""
            },
            {
                "$type": "DLPFECMKEKH",
                "type": "DIALOG",
                "aliasList": [
                    "1160"
                ],
                "NMKEDPFEKBH": 3720203
            },
            {
                "$type": "EAMBKPBOPIC",
                "type": "LOOK_AT",
                "aliasList": [
                    "1160"
                ],
                "FIDJDPAIFDN": true,
                "EFHJCGEOHAF": {
                    "x": 8.0
                },
                "BCHGCKLKNEH": 0.30000001192092896,
                "OMCCMPHDLOO": "",
                "KPCALFDIHMC": "",
                "DBLNLMOPEBP": ""
            },
            {
                "$type": "ILCGAGEGDJI",
                "type": "BODY_LANG",
                "aliasList": [
                    "1160"
                ],
                "FLBOOPHHFJP": 1030,
                "FNDLJGEAMGI": ""
            }
        ],
        [
            {
                "$type": "DLPFECMKEKH",
                "type": "DIALOG",
                "aliasList": [
                    "1160"
                ],
                "NMKEDPFEKBH": 3720204
            }
        ],
        [
            {
                "$type": "DLPFECMKEKH",
                "type": "DIALOG",
                "aliasList": [
                    "Avatar"
                ],
                "NMKEDPFEKBH": 3720205
            },
            {
                "$type": "EAMBKPBOPIC",
                "type": "LOOK_AT",
                "aliasList": [
                    "Avatar"
                ],
                "FIDJDPAIFDN": true,
                "useTargetPos": true,
                "GFKIMGBGADJ": true,
                "GMKIJKADNHN": {
                    "x": 2352.719970703125,
                    "y": 261.225341796875,
                    "z": -690.2369995117188
                },
                "EFHJCGEOHAF": {
                    "y": 10.0
                },
                "BCHGCKLKNEH": 0.20000000298023224,
                "MIMBENELNHD": 0.20000000298023224,
                "OMCCMPHDLOO": "",
                "KPCALFDIHMC": "",
                "DBLNLMOPEBP": ""
            },
            {
                "$type": "ILCGAGEGDJI",
                "type": "BODY_LANG",
                "aliasList": [
                    "1160"
                ],
                "JLABKFNJCNP": true,
                "FLBOOPHHFJP": 1030,
                "FNDLJGEAMGI": ""
            },
            {
                "$type": "ILCGAGEGDJI",
                "type": "BODY_LANG",
                "aliasList": [
                    "1005"
                ],
                "JLABKFNJCNP": true,
                "FLBOOPHHFJP": 1090,
                "FNDLJGEAMGI": ""
            },
            {
                "$type": "OOMFCPJAJGL",
                "type": "STEER_TO",
                "duration": 1.0,
                "aliasList": [
                    "1005"
                ],
                "ECOLMDAPKKN": true,
                "GDDCAKPOIAD": -30.0,
                "OMCCMPHDLOO": "",
                "DBLNLMOPEBP": ""
            }
        ],
        [
            {
                "$type": "CMAFFIFLMPO",
                "type": "CUTSCENE",
                "aliasList": [
                    "1160"
                ],
                "PMLLAOHPDMG": {
                    "$type": "OKCNEKHJCNN",
                    "type": "TIME_LINE_PREFAB",
                    "preTaskCfg": {
                        "duration": -1.0,
                        "JBPCBFIABKA": ""
                    },
                    "luaDataPath": "",
                    "resPath": "ART/Cutscene/Cs_MDAQ41_CleanTear",
                    "castListPath": "Cs_CastList_Q372",
                    "entityBan": ""
                }
            }
        ],
        [
            {
                "$type": "EAMBKPBOPIC",
                "type": "LOOK_AT",
                "aliasList": [
                    "Avatar"
                ],
                "FIDJDPAIFDN": true,
                "useTargetPos": true,
                "GFKIMGBGADJ": true,
                "GMKIJKADNHN": {
                    "x": 2352.719970703125,
                    "y": 261.225341796875,
                    "z": -690.2369995117188
                },
                "BCHGCKLKNEH": 0.20000000298023224,
                "OMCCMPHDLOO": "",
                "KPCALFDIHMC": "",
                "DBLNLMOPEBP": ""
            },
            {
                "$type": "EAMBKPBOPIC",
                "type": "LOOK_AT",
                "aliasList": [
                    "1160"
                ],
                "FIDJDPAIFDN": true,
                "useTargetPos": true,
                "GFKIMGBGADJ": true,
                "GMKIJKADNHN": {
                    "x": 2352.719970703125,
                    "y": 261.225341796875,
                    "z": -690.2369995117188
                },
                "EFHJCGEOHAF": {
                    "x": 10.0
                },
                "EJJGMGKOEKN": 5.0,
                "BCHGCKLKNEH": 0.20000000298023224,
                "MIMBENELNHD": 0.20000000298023224,
                "OMCCMPHDLOO": "",
                "KPCALFDIHMC": "",
                "DBLNLMOPEBP": ""
            },
            {
                "$type": "DLPFECMKEKH",
                "type": "DIALOG",
                "aliasList": [
                    "1005"
                ],
                "NMKEDPFEKBH": 3720501
            },
            {
                "$type": "MOOOKOKLLEI",
                "type": "CAMERA_MOVE",
                "duration": 1.0,
                "aliasList": [
                    "1005"
                ],
                "DOKGBCKOLJK": {
                    "x": 2355.062255859375,
                    "y": 261.4731750488281,
                    "z": -690.4100952148438
                },
                "HGKCPMDICGG": {
                    "x": 2354.0888671875,
                    "y": 261.25006103515625,
                    "z": -690.3597412109375
                },
                "OMPKKAFEHPN": 6.0,
                "MGMFMGNANHH": 6,
                "IBCBGNHCICN": {},
                "OMCCMPHDLOO": "",
                "OCFGGGHIKOO": "",
                "LJFHGGJDPHH": "",
                "LPKDFKLNEHL": ""
            },
            {
                "$type": "ILCGAGEGDJI",
                "type": "BODY_LANG",
                "aliasList": [
                    "1005"
                ],
                "FLBOOPHHFJP": 1190,
                "FNDLJGEAMGI": ""
            },
            {
                "$type": "OOMFCPJAJGL",
                "type": "STEER_TO",
                "duration": 0.800000011920929,
                "aliasList": [
                    "1005"
                ],
                "PLAPKCOMAKJ": {
                    "x": -1.0,
                    "y": 1.0,
                    "z": 1.0
                },
                "OMCCMPHDLOO": "",
                "DBLNLMOPEBP": ""
            }
        ],
        [
            {
                "$type": "EAMBKPBOPIC",
                "type": "LOOK_AT",
                "delayTime": 0.30000001192092896,
                "aliasList": [
                    "Avatar"
                ],
                "FIDJDPAIFDN": true,
                "useTargetPos": true,
                "GFKIMGBGADJ": true,
                "GMKIJKADNHN": {
                    "x": 2353.11669921875,
                    "y": 261.4759216308594,
                    "z": -689.7440185546875
                },
                "OMCCMPHDLOO": "",
                "KPCALFDIHMC": "",
                "DBLNLMOPEBP": ""
            },
            {
                "$type": "DLPFECMKEKH",
                "type": "DIALOG",
                "aliasList": [
                    "1160"
                ],
                "NMKEDPFEKBH": 3720502
            },
            {
                "$type": "EAMBKPBOPIC",
                "type": "LOOK_AT",
                "aliasList": [
                    "1160"
                ],
                "FIDJDPAIFDN": true,
                "useTargetPos": true,
                "GFKIMGBGADJ": true,
                "GMKIJKADNHN": {
                    "x": 2352.3154296875,
                    "y": 261.42236328125,
                    "z": -690.6434936523438
                },
                "BCHGCKLKNEH": 0.30000001192092896,
                "OMCCMPHDLOO": "",
                "KPCALFDIHMC": "",
                "DBLNLMOPEBP": ""
            }
        ],
        [
            {
                "$type": "DLPFECMKEKH",
                "type": "DIALOG",
                "aliasList": [
                    "1160"
                ],
                "NMKEDPFEKBH": 3720503
            },
            {
                "$type": "ILCGAGEGDJI",
                "type": "BODY_LANG",
                "aliasList": [
                    "1005"
                ],
                "JLABKFNJCNP": true,
                "FLBOOPHHFJP": 1190,
                "FNDLJGEAMGI": ""
            },
            {
                "$type": "EAMBKPBOPIC",
                "type": "LOOK_AT",
                "aliasList": [
                    "1005"
                ],
                "FIDJDPAIFDN": true,
                "useTargetPos": true,
                "GFKIMGBGADJ": true,
                "GMKIJKADNHN": {
                    "x": 2353.11669921875,
                    "y": 261.4759216308594,
                    "z": -689.7440185546875
                },
                "BCHGCKLKNEH": 0.30000001192092896,
                "OMCCMPHDLOO": "",
                "KPCALFDIHMC": "",
                "DBLNLMOPEBP": ""
            }
        ],
        [
            {
                "$type": "DLPFECMKEKH",
                "type": "DIALOG",
                "duration": 1.0,
                "aliasList": [
                    "1160"
                ],
                "NMKEDPFEKBH": 3720504
            }
        ],
        [
            {
                "$type": "ECLBLHOENAG",
                "type": "DIALOG_SELECT",
                "aliasList": [
                    "Avatar"
                ],
                "NDMMOPDPKNF": [
                    3720505,
                    3720508,
                    3720511
                ],
                "FPDBIEGHMCD": [
                    1772124169,
                    1772124171,
                    1772124173
                ],
                "PKBOIGBGDEG": true
            }
        ],
        [
            {
                "$type": "DLPFECMKEKH",
                "type": "DIALOG",
                "aliasList": [
                    "1160"
                ],
                "NMKEDPFEKBH": 3720506
            },
            {
                "$type": "MOOOKOKLLEI",
                "type": "CAMERA_MOVE",
                "duration": 1.0,
                "aliasList": [
                    "1160"
                ],
                "DOKGBCKOLJK": {
                    "x": 2352.322998046875,
                    "y": 261.4392395019531,
                    "z": -690.625732421875
                },
                "HGKCPMDICGG": {
                    "x": 2352.993408203125,
                    "y": 261.2957458496094,
                    "z": -689.8976440429688
                },
                "OMPKKAFEHPN": 6.0,
                "MGMFMGNANHH": 6,
                "IBCBGNHCICN": {},
                "OMCCMPHDLOO": "",
                "OCFGGGHIKOO": "",
                "LJFHGGJDPHH": "",
                "LPKDFKLNEHL": ""
            }
        ],
        [
            {
                "$type": "DLPFECMKEKH",
                "type": "DIALOG",
                "aliasList": [
                    "1160"
                ],
                "NMKEDPFEKBH": 3720507
            }
        ],
        [
            {
                "$type": "DLPFECMKEKH",
                "type": "DIALOG",
                "aliasList": [
                    "1160"
                ],
                "NMKEDPFEKBH": 3720509
            },
            {
                "$type": "MOOOKOKLLEI",
                "type": "CAMERA_MOVE",
                "duration": 1.0,
                "aliasList": [
                    "1160"
                ],
                "DOKGBCKOLJK": {
                    "x": 2352.322998046875,
                    "y": 261.4392395019531,
                    "z": -690.625732421875
                },
                "HGKCPMDICGG": {
                    "x": 2352.993408203125,
                    "y": 261.2957458496094,
                    "z": -689.8976440429688
                },
                "OMPKKAFEHPN": 6.0,
                "MGMFMGNANHH": 6,
                "IBCBGNHCICN": {},
                "OMCCMPHDLOO": "",
                "OCFGGGHIKOO": "",
                "LJFHGGJDPHH": "",
                "LPKDFKLNEHL": ""
            }
        ],
        [
            {
                "$type": "DLPFECMKEKH",
                "type": "DIALOG",
                "aliasList": [
                    "1160"
                ],
                "NMKEDPFEKBH": 3720510
            }
        ],
        [
            {
                "$type": "DLPFECMKEKH",
                "type": "DIALOG",
                "aliasList": [
                    "1160"
                ],
                "NMKEDPFEKBH": 3720512
            },
            {
                "$type": "MOOOKOKLLEI",
                "type": "CAMERA_MOVE",
                "duration": 1.0,
                "aliasList": [
                    "1160"
                ],
                "DOKGBCKOLJK": {
                    "x": 2352.322998046875,
                    "y": 261.4392395019531,
                    "z": -690.625732421875
                },
                "HGKCPMDICGG": {
                    "x": 2352.993408203125,
                    "y": 261.2957458496094,
                    "z": -689.8976440429688
                },
                "OMPKKAFEHPN": 6.0,
                "MGMFMGNANHH": 6,
                "IBCBGNHCICN": {},
                "OMCCMPHDLOO": "",
                "OCFGGGHIKOO": "",
                "LJFHGGJDPHH": "",
                "LPKDFKLNEHL": ""
            }
        ],
        [
            {
                "$type": "DLPFECMKEKH",
                "type": "DIALOG",
                "aliasList": [
                    "1160"
                ],
                "NMKEDPFEKBH": 3720513
            }
        ],
        [
            {
                "$type": "DLPFECMKEKH",
                "type": "DIALOG",
                "aliasList": [
                    "1160"
                ],
                "NMKEDPFEKBH": 3720514
            }
        ],
        [
            {
                "$type": "EAMBKPBOPIC",
                "type": "LOOK_AT",
                "aliasList": [
                    "Avatar"
                ],
                "FIDJDPAIFDN": true,
                "EFHJCGEOHAF": {
                    "x": 25.0
                },
                "PBEEIPKGGKJ": true,
                "EJJGMGKOEKN": 5.0,
                "BCHGCKLKNEH": 0.30000001192092896,
                "MIMBENELNHD": 0.30000001192092896,
                "OMCCMPHDLOO": "",
                "KPCALFDIHMC": "",
                "DBLNLMOPEBP": ""
            },
            {
                "$type": "EAMBKPBOPIC",
                "type": "LOOK_AT",
                "aliasList": [
                    "1160"
                ],
                "FIDJDPAIFDN": true,
                "LGDOJCDBEAC": {
                    "y": 1.399999976158142,
                    "z": 0.4000000059604645
                },
                "EFHJCGEOHAF": {
                    "x": -20.0
                },
                "PBEEIPKGGKJ": true,
                "EJJGMGKOEKN": -10.0,
                "BCHGCKLKNEH": 0.25,
                "MIMBENELNHD": 0.25,
                "OMCCMPHDLOO": "",
                "KPCALFDIHMC": "",
                "DBLNLMOPEBP": ""
            },
            {
                "$type": "DLPFECMKEKH",
                "type": "DIALOG",
                "aliasList": [
                    "1005"
                ],
                "NMKEDPFEKBH": 3720515
            },
            {
                "$type": "MOOOKOKLLEI",
                "type": "CAMERA_MOVE",
                "duration": 1.0,
                "aliasList": [
                    "1005"
                ],
                "DOKGBCKOLJK": {
                    "x": 2352.599853515625,
                    "y": 261.5157165527344,
                    "z": -688.7534790039062
                },
                "HGKCPMDICGG": {
                    "x": 2352.78271484375,
                    "y": 261.3136291503906,
                    "z": -689.715576171875
                },
                "OMPKKAFEHPN": 6.0,
                "MGMFMGNANHH": 6,
                "IBCBGNHCICN": {},
                "OMCCMPHDLOO": "",
                "OCFGGGHIKOO": "",
                "LJFHGGJDPHH": "",
                "LPKDFKLNEHL": ""
            },
            {
                "$type": "ILCGAGEGDJI",
                "type": "BODY_LANG",
                "aliasList": [
                    "1005"
                ],
                "FLBOOPHHFJP": 1120,
                "FNDLJGEAMGI": ""
            }
        ],
        [
            {
                "$type": "DLPFECMKEKH",
                "type": "DIALOG",
                "aliasList": [
                    "1160"
                ],
                "NMKEDPFEKBH": 3720516
            }
        ],
        [
            {
                "$type": "EAMBKPBOPIC",
                "type": "LOOK_AT",
                "aliasList": [
                    "Avatar"
                ],
                "FIDJDPAIFDN": true,
                "useTargetPos": true,
                "GFKIMGBGADJ": true,
                "GMKIJKADNHN": {
                    "x": 2353.11669921875,
                    "y": 261.4759216308594,
                    "z": -689.7440185546875
                },
                "BCHGCKLKNEH": 0.30000001192092896,
                "MIMBENELNHD": 0.20000000298023224,
                "OMCCMPHDLOO": "",
                "KPCALFDIHMC": "",
                "DBLNLMOPEBP": ""
            },
            {
                "$type": "DLPFECMKEKH",
                "type": "DIALOG",
                "aliasList": [
                    "1160"
                ],
                "NMKEDPFEKBH": 3720517
            }
        ],
        [
            {
                "$type": "EAMBKPBOPIC",
                "type": "LOOK_AT",
                "aliasList": [
                    "Avatar"
                ],
                "FIDJDPAIFDN": true,
                "LGDOJCDBEAC": {
                    "x": -0.10000000149011612,
                    "y": 1.399999976158142,
                    "z": 0.4000000059604645
                },
                "PBEEIPKGGKJ": true,
                "BCHGCKLKNEH": 0.25,
                "MIMBENELNHD": 0.25,
                "OMCCMPHDLOO": "",
                "KPCALFDIHMC": "",
                "DBLNLMOPEBP": ""
            },
            {
                "$type": "DLPFECMKEKH",
                "type": "DIALOG",
                "aliasList": [
                    "1160"
                ],
                "NMKEDPFEKBH": 3720518
            },
            {
                "$type": "MOOOKOKLLEI",
                "type": "CAMERA_MOVE",
                "duration": 1.0,
                "aliasList": [
                    "1160"
                ],
                "DOKGBCKOLJK": {
                    "x": 2349.77099609375,
                    "y": 262.5971374511719,
                    "z": -690.4522705078125
                },
                "HGKCPMDICGG": {
                    "x": 2350.630615234375,
                    "y": 262.08868408203125,
                    "z": -690.4028930664062
                },
                "OMPKKAFEHPN": 6.0,
                "MGMFMGNANHH": 6,
                "IBCBGNHCICN": {},
                "OMCCMPHDLOO": "",
                "OCFGGGHIKOO": "",
                "LJFHGGJDPHH": "",
                "LPKDFKLNEHL": ""
            },
            {
                "$type": "EAMBKPBOPIC",
                "type": "LOOK_AT",
                "aliasList": [
                    "1160"
                ],
                "FIDJDPAIFDN": true,
                "LGDOJCDBEAC": {
                    "x": 0.4000000059604645,
                    "y": 1.3799999952316284,
                    "z": 0.8999999761581421
                },
                "EFHJCGEOHAF": {
                    "x": 15.0,
                    "y": 5.0
                },
                "PBEEIPKGGKJ": true,
                "BCHGCKLKNEH": 0.25,
                "MIMBENELNHD": 0.25,
                "OMCCMPHDLOO": "",
                "KPCALFDIHMC": "",
                "DBLNLMOPEBP": ""
            }
        ],
        [
            {
                "$type": "DLPFECMKEKH",
                "type": "DIALOG",
                "duration": 1.0,
                "aliasList": [
                    "1160"
                ],
                "NMKEDPFEKBH": 3720519
            }
        ],
        [
            {
                "$type": "ECLBLHOENAG",
                "type": "DIALOG_SELECT",
                "aliasList": [
                    "Avatar"
                ],
                "NDMMOPDPKNF": [
                    3720520,
                    3720522
                ],
                "FPDBIEGHMCD": [
                    1772124203,
                    1772124204
                ],
                "PKBOIGBGDEG": true
            }
        ],
        [
            {
                "$type": "DLPFECMKEKH",
                "type": "DIALOG",
                "aliasList": [
                    "1160"
                ],
                "NMKEDPFEKBH": 3720521
            },
            {
                "$type": "MOOOKOKLLEI",
                "type": "CAMERA_MOVE",
                "duration": 1.0,
                "aliasList": [
                    "1160"
                ],
                "DOKGBCKOLJK": {
                    "x": 2352.322998046875,
                    "y": 261.4392395019531,
                    "z": -690.625732421875
                },
                "HGKCPMDICGG": {
                    "x": 2352.993408203125,
                    "y": 261.2957458496094,
                    "z": -689.8976440429688
                },
                "OMPKKAFEHPN": 6.0,
                "MGMFMGNANHH": 6,
                "IBCBGNHCICN": {},
                "OMCCMPHDLOO": "",
                "OCFGGGHIKOO": "",
                "LJFHGGJDPHH": "",
                "LPKDFKLNEHL": ""
            }
        ],
        [
            {
                "$type": "DLPFECMKEKH",
                "type": "DIALOG",
                "aliasList": [
                    "1160"
                ],
                "NMKEDPFEKBH": 3720523
            },
            {
                "$type": "MOOOKOKLLEI",
                "type": "CAMERA_MOVE",
                "duration": 1.0,
                "aliasList": [
                    "1160"
                ],
                "DOKGBCKOLJK": {
                    "x": 2352.322998046875,
                    "y": 261.4392395019531,
                    "z": -690.625732421875
                },
                "HGKCPMDICGG": {
                    "x": 2352.993408203125,
                    "y": 261.2957458496094,
                    "z": -689.8976440429688
                },
                "OMPKKAFEHPN": 6.0,
                "MGMFMGNANHH": 6,
                "IBCBGNHCICN": {},
                "OMCCMPHDLOO": "",
                "OCFGGGHIKOO": "",
                "LJFHGGJDPHH": "",
                "LPKDFKLNEHL": ""
            }
        ],
        [
            {
                "$type": "DLPFECMKEKH",
                "type": "DIALOG",
                "aliasList": [
                    "1160"
                ],
                "NMKEDPFEKBH": 3720524
            }
        ],
        [
            {
                "$type": "DLPFECMKEKH",
                "type": "DIALOG",
                "aliasList": [
                    "1160"
                ],
                "NMKEDPFEKBH": 3720525
            },
            {
                "$type": "ILCGAGEGDJI",
                "type": "BODY_LANG",
                "aliasList": [
                    "1005"
                ],
                "JLABKFNJCNP": true,
                "FLBOOPHHFJP": 1120,
                "FNDLJGEAMGI": ""
            }
        ],
        [
            {
                "$type": "DLPFECMKEKH",
                "type": "DIALOG",
                "aliasList": [
                    "1160"
                ],
                "NMKEDPFEKBH": 3720526
            }
        ],
        [
            {
                "$type": "EAMBKPBOPIC",
                "type": "LOOK_AT",
                "aliasList": [
                    "Avatar"
                ],
                "FIDJDPAIFDN": true,
                "LGDOJCDBEAC": {
                    "x": 0.30000001192092896,
                    "y": 1.399999976158142,
                    "z": 0.800000011920929
                },
                "EFHJCGEOHAF": {
                    "x": 40.0
                },
                "PBEEIPKGGKJ": true,
                "EJJGMGKOEKN": 5.0,
                "BCHGCKLKNEH": 0.25,
                "MIMBENELNHD": 0.25,
                "OMCCMPHDLOO": "",
                "KPCALFDIHMC": "",
                "DBLNLMOPEBP": ""
            },
            {
                "$type": "EAMBKPBOPIC",
                "type": "LOOK_AT",
                "aliasList": [
                    "1160"
                ],
                "FIDJDPAIFDN": true,
                "LGDOJCDBEAC": {
                    "x": -0.30000001192092896,
                    "y": 1.399999976158142,
                    "z": 0.800000011920929
                },
                "EFHJCGEOHAF": {
                    "x": -20.0
                },
                "PBEEIPKGGKJ": true,
                "EJJGMGKOEKN": -20.0,
                "BCHGCKLKNEH": 0.25,
                "MIMBENELNHD": 0.25,
                "OMCCMPHDLOO": "",
                "KPCALFDIHMC": "",
                "DBLNLMOPEBP": ""
            },
            {
                "$type": "DLPFECMKEKH",
                "type": "DIALOG",
                "aliasList": [
                    "1005"
                ],
                "NMKEDPFEKBH": 3720527
            },
            {
                "$type": "MOOOKOKLLEI",
                "type": "CAMERA_MOVE",
                "duration": 1.0,
                "aliasList": [
                    "1005"
                ],
                "DOKGBCKOLJK": {
                    "x": 2351.196044921875,
                    "y": 261.8139953613281,
                    "z": -688.2559814453125
                },
                "HGKCPMDICGG": {
                    "x": 2351.70556640625,
                    "y": 261.4927673339844,
                    "z": -689.05419921875
                },
                "OMPKKAFEHPN": 6.0,
                "MGMFMGNANHH": 6,
                "IBCBGNHCICN": {},
                "OMCCMPHDLOO": "",
                "OCFGGGHIKOO": "",
                "LJFHGGJDPHH": "",
                "LPKDFKLNEHL": ""
            },
            {
                "$type": "ILCGAGEGDJI",
                "type": "BODY_LANG",
                "aliasList": [
                    "1005"
                ],
                "FLBOOPHHFJP": 1190,
                "FNDLJGEAMGI": ""
            }
        ],
        [
            {
                "$type": "DLPFECMKEKH",
                "type": "DIALOG",
                "aliasList": [
                    "1160"
                ],
                "NMKEDPFEKBH": 3720528
            }
        ],
        [
            {
                "$type": "DLPFECMKEKH",
                "type": "DIALOG",
                "aliasList": [
                    "1005"
                ],
                "NMKEDPFEKBH": 3720529
            },
            {
                "$type": "ILCGAGEGDJI",
                "type": "BODY_LANG",
                "aliasList": [
                    "1005"
                ],
                "FLBOOPHHFJP": 1060,
                "FNDLJGEAMGI": ""
            },
            {
                "$type": "OOMFCPJAJGL",
                "type": "STEER_TO",
                "duration": 0.5,
                "aliasList": [
                    "1005"
                ],
                "DMGIIHNDNLC": "ABSOLUTE",
                "PLAPKCOMAKJ": {
                    "x": 2353.11669921875,
                    "y": 261.4759216308594,
                    "z": -689.7440185546875
                },
                "OMCCMPHDLOO": "",
                "DBLNLMOPEBP": ""
            }
        ],
        [
            {
                "$type": "DLPFECMKEKH",
                "type": "DIALOG",
                "aliasList": [
                    "1160"
                ],
                "NMKEDPFEKBH": 3720530
            },
            {
                "$type": "MOOOKOKLLEI",
                "type": "CAMERA_MOVE",
                "duration": 1.0,
                "aliasList": [
                    "1160"
                ],
                "DOKGBCKOLJK": {
                    "x": 2352.322998046875,
                    "y": 261.4392395019531,
                    "z": -690.625732421875
                },
                "HGKCPMDICGG": {
                    "x": 2352.993408203125,
                    "y": 261.2957458496094,
                    "z": -689.8976440429688
                },
                "OMPKKAFEHPN": 6.0,
                "MGMFMGNANHH": 6,
                "IBCBGNHCICN": {},
                "OMCCMPHDLOO": "",
                "OCFGGGHIKOO": "",
                "LJFHGGJDPHH": "",
                "LPKDFKLNEHL": ""
            },
            {
                "$type": "EAMBKPBOPIC",
                "type": "LOOK_AT",
                "aliasList": [
                    "1160"
                ],
                "FIDJDPAIFDN": true,
                "useTargetPos": true,
                "GFKIMGBGADJ": true,
                "GMKIJKADNHN": {
                    "x": 2353.091552734375,
                    "y": 261.3512878417969,
                    "z": -690.7581787109375
                },
                "BCHGCKLKNEH": 0.20000000298023224,
                "OMCCMPHDLOO": "",
                "KPCALFDIHMC": "",
                "DBLNLMOPEBP": ""
            }
        ],
        [
            {
                "$type": "EAMBKPBOPIC",
                "type": "LOOK_AT",
                "aliasList": [
                    "Avatar"
                ],
                "FIDJDPAIFDN": true,
                "LGDOJCDBEAC": {
                    "x": -0.10000000149011612,
                    "y": 1.399999976158142,
                    "z": 0.20000000298023224
                },
                "PBEEIPKGGKJ": true,
                "BCHGCKLKNEH": 0.25,
                "MIMBENELNHD": 0.25,
                "OMCCMPHDLOO": "",
                "KPCALFDIHMC": "",
                "DBLNLMOPEBP": ""
            },
            {
                "$type": "DLPFECMKEKH",
                "type": "DIALOG",
                "aliasList": [
                    "1160"
                ],
                "NMKEDPFEKBH": 3720531
            }
        ],
        [
            {
                "$type": "DLPFECMKEKH",
                "type": "DIALOG",
                "duration": 1.0,
                "aliasList": [
                    "1160"
                ],
                "NMKEDPFEKBH": 3720532
            },
            {
                "$type": "EAMBKPBOPIC",
                "type": "LOOK_AT",
                "aliasList": [
                    "1160"
                ],
                "FIDJDPAIFDN": true,
                "EFHJCGEOHAF": {
                    "x": 10.0
                },
                "PBEEIPKGGKJ": true,
                "EJJGMGKOEKN": 5.0,
                "BCHGCKLKNEH": 0.25,
                "MIMBENELNHD": 0.25,
                "OMCCMPHDLOO": "",
                "KPCALFDIHMC": "",
                "DBLNLMOPEBP": ""
            }
        ],
        [
            {
                "$type": "ECLBLHOENAG",
                "type": "DIALOG_SELECT",
                "aliasList": [
                    "Avatar"
                ],
                "NDMMOPDPKNF": [
                    3720533,
                    3720534,
                    3720535
                ],
                "FPDBIEGHMCD": [
                    1772124237,
                    1772124237,
                    1772124236
                ],
                "PKBOIGBGDEG": true
            },
            {
                "$type": "ILCGAGEGDJI",
                "type": "BODY_LANG",
                "aliasList": [
                    "1005"
                ],
                "JLABKFNJCNP": true,
                "FLBOOPHHFJP": 1060,
                "FNDLJGEAMGI": ""
            }
        ],
        [
            {
                "$type": "DLPFECMKEKH",
                "type": "DIALOG",
                "aliasList": [
                    "1160"
                ],
                "NMKEDPFEKBH": 3720536
            },
            {
                "$type": "MOOOKOKLLEI",
                "type": "CAMERA_MOVE",
                "duration": 1.0,
                "aliasList": [
                    "1160"
                ],
                "DOKGBCKOLJK": {
                    "x": 2349.77099609375,
                    "y": 262.5971374511719,
                    "z": -690.4522705078125
                },
                "HGKCPMDICGG": {
                    "x": 2350.630615234375,
                    "y": 262.08868408203125,
                    "z": -690.4028930664062
                },
                "OMPKKAFEHPN": 6.0,
                "MGMFMGNANHH": 6,
                "IBCBGNHCICN": {},
                "OMCCMPHDLOO": "",
                "OCFGGGHIKOO": "",
                "LJFHGGJDPHH": "",
                "LPKDFKLNEHL": ""
            }
        ],
        [
            {
                "$type": "DLPFECMKEKH",
                "type": "DIALOG",
                "aliasList": [
                    "1005"
                ],
                "NMKEDPFEKBH": 3720537
            },
            {
                "$type": "MOOOKOKLLEI",
                "type": "CAMERA_MOVE",
                "duration": 1.0,
                "aliasList": [
                    "1005"
                ],
                "DOKGBCKOLJK": {
                    "x": 2349.77099609375,
                    "y": 262.5971374511719,
                    "z": -690.4522705078125
                },
                "HGKCPMDICGG": {
                    "x": 2350.630615234375,
                    "y": 262.08868408203125,
                    "z": -690.4028930664062
                },
                "OMPKKAFEHPN": 6.0,
                "MGMFMGNANHH": 6,
                "IBCBGNHCICN": {},
                "OMCCMPHDLOO": "",
                "OCFGGGHIKOO": "",
                "LJFHGGJDPHH": "",
                "LPKDFKLNEHL": ""
            },
            {
                "$type": "ILCGAGEGDJI",
                "type": "BODY_LANG",
                "aliasList": [
                    "1005"
                ],
                "FLBOOPHHFJP": 351,
                "FNDLJGEAMGI": ""
            }
        ],
        [
            {
                "$type": "DLPFECMKEKH",
                "type": "DIALOG",
                "aliasList": [
                    "1160"
                ],
                "NMKEDPFEKBH": 3720538
            },
            {
                "$type": "EAMBKPBOPIC",
                "type": "LOOK_AT",
                "aliasList": [
                    "1160"
                ],
                "FIDJDPAIFDN": true,
                "EFHJCGEOHAF": {
                    "x": -20.0
                },
                "PBEEIPKGGKJ": true,
                "EJJGMGKOEKN": -10.0,
                "BCHGCKLKNEH": 0.25,
                "MIMBENELNHD": 0.25,
                "OMCCMPHDLOO": "",
                "KPCALFDIHMC": "",
                "DBLNLMOPEBP": ""
            }
        ],
        [
            {
                "$type": "DLPFECMKEKH",
                "type": "DIALOG",
                "aliasList": [
                    "1160"
                ],
                "NMKEDPFEKBH": 3720539
            },
            {
                "$type": "EAMBKPBOPIC",
                "type": "LOOK_AT",
                "aliasList": [
                    "1160"
                ],
                "FIDJDPAIFDN": true,
                "EFHJCGEOHAF": {
                    "x": 10.0
                },
                "PBEEIPKGGKJ": true,
                "EJJGMGKOEKN": 5.0,
                "BCHGCKLKNEH": 0.25,
                "MIMBENELNHD": 0.25,
                "OMCCMPHDLOO": "",
                "KPCALFDIHMC": "",
                "DBLNLMOPEBP": ""
            }
        ]
    ],
    "groupId": [
        {
            "grpId": 3105206601,
            "nextGrpId": 3105206602
        },
        {
            "index": 1,
            "grpId": 3105206602,
            "nextGrpId": 3105206603
        },
        {
            "index": 2,
            "grpId": 3105206603,
            "nextGrpId": 3105206604
        },
        {
            "index": 3,
            "grpId": 3105206604,
            "nextGrpId": 3105206605
        },
        {
            "index": 4,
            "grpId": 3105206605,
            "nextGrpId": 3105206606
        },
        {
            "index": 5,
            "grpId": 3105206606,
            "nextGrpId": 3105206607
        },
        {
            "index": 6,
            "grpId": 3105206607,
            "nextGrpId": 3105206608
        },
        {
            "index": 7,
            "grpId": 3105206608,
            "nextGrpId": 3105206609
        },
        {
            "index": 8,
            "grpId": 3105206609,
            "nextGrpId": 1772124167
        },
        {
            "index": 9,
            "grpId": 1772124167,
            "nextGrpId": 1772124168
        },
        {
            "index": 10,
            "grpId": 1772124168,
            "nextGrpId": 1772124169
        },
        {
            "index": 11,
            "grpId": 1772124169,
            "nextGrpId": 1772124170
        },
        {
            "index": 12,
            "grpId": 1772124170,
            "nextGrpId": 1772124175
        },
        {
            "index": 13,
            "grpId": 1772124171,
            "nextGrpId": 1772124172
        },
        {
            "index": 14,
            "grpId": 1772124172,
            "nextGrpId": 1772124175
        },
        {
            "index": 15,
            "grpId": 1772124173,
            "nextGrpId": 1772124174
        },
        {
            "index": 16,
            "grpId": 1772124174,
            "nextGrpId": 1772124175
        },
        {
            "index": 17,
            "grpId": 1772124175,
            "nextGrpId": 1772124176
        },
        {
            "index": 18,
            "grpId": 1772124176,
            "nextGrpId": 1772124198
        },
        {
            "index": 19,
            "grpId": 1772124198,
            "nextGrpId": 1772124199
        },
        {
            "index": 20,
            "grpId": 1772124199,
            "nextGrpId": 1772124200
        },
        {
            "index": 21,
            "grpId": 1772124200,
            "nextGrpId": 1772124201
        },
        {
            "index": 22,
            "grpId": 1772124201,
            "nextGrpId": 1772124202
        },
        {
            "index": 23,
            "grpId": 1772124202,
            "nextGrpId": 1772124203
        },
        {
            "index": 24,
            "grpId": 1772124203,
            "nextGrpId": 1772124204
        },
        {
            "index": 25,
            "grpId": 1772124204,
            "nextGrpId": 1772124205
        },
        {
            "index": 26,
            "grpId": 1772124205,
            "nextGrpId": 1772124206
        },
        {
            "index": 27,
            "grpId": 1772124206,
            "nextGrpId": 1772124207
        },
        {
            "index": 28,
            "grpId": 1772124207,
            "nextGrpId": 1772124229
        },
        {
            "index": 29,
            "grpId": 1772124229,
            "nextGrpId": 1772124230
        },
        {
            "index": 30,
            "grpId": 1772124230,
            "nextGrpId": 1772124231
        },
        {
            "index": 31,
            "grpId": 1772124231,
            "nextGrpId": 1772124232
        },
        {
            "index": 32,
            "grpId": 1772124232,
            "nextGrpId": 1772124233
        },
        {
            "index": 33,
            "grpId": 1772124233,
            "nextGrpId": 1772124234
        },
        {
            "index": 34,
            "grpId": 1772124234,
            "nextGrpId": 1772124235
        },
        {
            "index": 35,
            "grpId": 1772124235,
            "nextGrpId": 1772124236
        },
        {
            "index": 36,
            "grpId": 1772124236,
            "nextGrpId": 1772124237
        },
        {
            "index": 37,
            "grpId": 1772124237,
            "nextGrpId": 1772124238
        },
        {
            "index": 38,
            "grpId": 1772124238,
            "nextGrpId": 1772124260
        },
        {
            "index": 39,
            "grpId": 1772124260,
            "nextGrpId": 1772124261
        },
        {
            "index": 40,
            "grpId": 1772124261,
            "nextGrpId": 1772124262
        }
    ]
}