{
    "luaDataPath": "",
    "dontUseDefaultFinish": true,
    "entityBan": "",
    "disableNpcLod": true,
    "startFade": {
        "startFadeOutDuration": 0.0
    },
    "endFade": {
        "startFadeOutDuration": 0.0
    },
    "actors": [
        {
            "alias": "Avatar",
            "visible": true,
            "bornPointName": "",
            "relativePosNpcAlias": "",
            "bindMovingTargetKey": ""
        },
        {
            "configID": 30179,
            "alias": "30179",
            "visible": true,
            "bornPointName": "",
            "forceCreateDaily": true,
            "relativePosNpcAlias": "",
            "bindMovingTargetKey": ""
        }
    ],
    "group": [
        [
            {
                "$type": "OOMFCPJAJGL",
                "type": "STEER_TO",
                "duration": 1.0,
                "aliasList": [
                    "Avatar"
                ],
                "DMGIIHNDNLC": "TO_TARGET_ADVANCED",
                "HCMINPNPFDF": true,
                "PENAEBFAHCH": true,
                "CKOEAJFMDON": true,
                "OMCCMPHDLOO": "30179",
                "DBLNLMOPEBP": ""
            },
            {
                "$type": "MOOOKOKLLEI",
                "type": "CAMERA_MOVE",
                "duration": 0.75,
                "DOKGBCKOLJK": {
                    "x": -2580.846923828125,
                    "y": 211.79400634765625,
                    "z": -3799.5
                },
                "HGKCPMDICGG": {
                    "x": -2579.927001953125,
                    "y": 211.93600463867188,
                    "z": -3799.864990234375
                },
                "NDFGFJFGHKL": "EaseOutQuad",
                "IBCBGNHCICN": {},
                "HCPFCAHMGMO": false,
                "OMCCMPHDLOO": "",
                "FEFNBKOHPOG": true,
                "OCFGGGHIKOO": "",
                "LJFHGGJDPHH": "",
                "LPKDFKLNEHL": ""
            },
            {
                "$type": "MoleMole.Config.ConfigTimeProtectAction",
                "type": "TIME_PROTECT",
                "duration": 0.75
            },
            {
                "$type": "EAMBKPBOPIC",
                "type": "LOOK_AT",
                "delayTime": 0.10000000149011612,
                "aliasList": [
                    "Avatar"
                ],
                "FIDJDPAIFDN": true,
                "useTargetPos": true,
                "GFKIMGBGADJ": true,
                "LGDOJCDBEAC": {
                    "x": -0.2329999953508377,
                    "y": 1.4830000400543213,
                    "z": 2.0869998931884766
                },
                "GMKIJKADNHN": {
                    "x": -2572.027099609375,
                    "y": 212.3699951171875,
                    "z": -3798.405029296875
                },
                "BCHGCKLKNEH": 0.5,
                "OMCCMPHDLOO": "",
                "CEBMBGKJACI": "NONE",
                "KPCALFDIHMC": "",
                "DBLNLMOPEBP": ""
            },
            {
                "$type": "MoleMole.Config.ConfigVisibleInterAction",
                "type": "VISIBLE",
                "delayTime": 0.5,
                "duration": 0.25,
                "aliasList": [
                    "Avatar"
                ],
                "useDither": true,
                "extraParam": ""
            }
        ],
        [
            {
                "$type": "DLPFECMKEKH",
                "type": "DIALOG",
                "aliasList": [
                    "30179"
                ],
                "NMKEDPFEKBH": 400635301,
                "JLCHMAJCAPA": 0.5
            },
            {
                "$type": "EAMBKPBOPIC",
                "type": "LOOK_AT",
                "aliasList": [
                    "Avatar"
                ],
                "BCHGCKLKNEH": 0.5,
                "OMCCMPHDLOO": "",
                "KPCALFDIHMC": "",
                "DBLNLMOPEBP": ""
            },
            {
                "$type": "MoleMole.Config.ConfigVisibleInterAction",
                "type": "VISIBLE",
                "aliasList": [
                    "Avatar"
                ],
                "extraParam": ""
            }
        ],
        [
            {
                "$type": "DLPFECMKEKH",
                "type": "DIALOG",
                "aliasList": [
                    "30179"
                ],
                "NMKEDPFEKBH": 400635302,
                "JLCHMAJCAPA": 0.5
            }
        ],
        [
            {
                "$type": "DLPFECMKEKH",
                "type": "DIALOG",
                "aliasList": [
                    "30179"
                ],
                "NMKEDPFEKBH": 400635303,
                "JLCHMAJCAPA": 0.5
            }
        ],
        [
            {
                "$type": "MOOOKOKLLEI",
                "type": "CAMERA_MOVE",
                "duration": 0.5,
                "IPHEFBOANAL": "EXIT",
                "DOKGBCKOLJK": {
                    "x": -2564.27587890625,
                    "y": 212.5189971923828,
                    "z": -3801.958984375
                },
                "DGGAJKMNNKE": "Other",
                "HGKCPMDICGG": {
                    "x": 6.5,
                    "y": 297.34100341796875
                },
                "NDFGFJFGHKL": "EaseOutQuad",
                "IBCBGNHCICN": {},
                "BNBBLLBEIDL": true,
                "HCPFCAHMGMO": false,
                "OMCCMPHDLOO": "",
                "FEFNBKOHPOG": true,
                "OCFGGGHIKOO": "",
                "LJFHGGJDPHH": "",
                "LPKDFKLNEHL": ""
            },
            {
                "$type": "MoleMole.Config.ConfigTimeProtectAction",
                "type": "TIME_PROTECT",
                "duration": 0.5
            },
            {
                "$type": "MoleMole.Config.ConfigVisibleInterAction",
                "type": "VISIBLE",
                "delayTime": 0.25,
                "duration": 0.25,
                "aliasList": [
                    "Avatar"
                ],
                "isVisible": true,
                "useDither": true,
                "extraParam": ""
            }
        ]
    ],
    "groupId": [
        {
            "grpId": 1977085716,
            "nextGrpId": 1977085717
        },
        {
            "index": 1,
            "grpId": 1977085717,
            "nextGrpId": 1977085718
        },
        {
            "index": 2,
            "grpId": 1977085718,
            "nextGrpId": 1977085719
        },
        {
            "index": 3,
            "grpId": 1977085719,
            "nextGrpId": 1977085720
        },
        {
            "index": 4,
            "grpId": 1977085720,
            "nextGrpId": 1977085721
        }
    ]
}