{
    "context": {
        "BoxMatchPage": {
            "actionGroups": {
                "Keyboard": [
                    {
                        "priority": 20,
                        "eventType": "MenuBackEvent",
                        "contextEvent": "CloseEvent"
                    },
                    {
                        "priority": 20,
                        "eventType": "KeyCodeGEvent",
                        "contextEvent": "ShowHelpTips"
                    },
                    {
                        "priority": 20,
                        "eventType": "KeyCodeQEvent",
                        "contextEvent": "BoxMatchSkill1"
                    },
                    {
                        "priority": 20,
                        "eventType": "KeyCodeEEvent",
                        "contextEvent": "BoxMatchSkill2"
                    }
                ],
                "Joypad": [
                    {
                        "priority": 20,
                        "eventType": "OpenPaimonEvent",
                        "contextEvent": "CloseEvent"
                    },
                    {
                        "priority": 20,
                        "eventType": "DPadUpEvent",
                        "contextEvent": "ShowHelpTips"
                    },
                    {
                        "priority": 20,
                        "eventType": "MenuUpEvent",
                        "contextEvent": "BoxMatchSkill1"
                    },
                    {
                        "priority": 20,
                        "eventType": "MenuLeftEvent",
                        "contextEvent": "BoxMatchSkill2"
                    }
                ]
            },
            "stateActions": {
                "0": {
                    "keyboardTouch": "Keyboard",
                    "keyboardMouse": "Keyboard",
                    "joypad": "Joypad"
                }
            },
            "enableJoypadVirtualCursor": false
        }
    }
}