{
    "luaDataPath": "",
    "dontUseDefaultFinish": true,
    "startBlackKeepTime": 0.5,
    "entityBan": "",
    "disableNpcLod": true,
    "isAutoBanNpc": true,
    "isBanWidgetPet": true,
    "protectNpcMobileLod": true,
    "LIICEPFFGMH": 7,
    "startFade": {
        "startFadeInDuration": 0.5,
        "startFadeOutDuration": 0.5
    },
    "endFade": {
        "startFadeOutDuration": 0.0
    },
    "actors": [
        {
            "alias": "Avatar",
            "visible": true,
            "bornPointName": "[3_340100369:3466.968,426.623,4480.705,0.000,183.068,0.000]",
            "relativePosType": "AVATAR_NEW",
            "relativePosNpcAlias": "",
            "notDestroyInTalk": true,
            "bindMovingTargetKey": ""
        },
        {
            "alias": "AvatarNpc",
            "visible": true,
            "bornPointName": "[3_340100369:3466.968,426.623,4480.705,0.000,183.068,0.000]",
            "removeActorType": "NEW_REMOVE",
            "relativePosType": "AVATAR_NEW",
            "relativePosNpcAlias": "",
            "notDestroyInTalk": true,
            "bindMovingTargetKey": ""
        },
        {
            "configID": 1075,
            "alias": "1075",
            "visible": true,
            "bornPointName": "[3_340100367:3467.244,426.623,4478.895,0.000,318.692,0.000]",
            "relativePosType": "AVATAR_NEW",
            "relativePosNpcAlias": "",
            "notDestroyInTalk": true,
            "bindMovingTargetKey": ""
        },
        {
            "configID": 1005,
            "alias": "1005",
            "visible": true,
            "bornPointName": "[3_340100368:3466.073,426.623,4479.943,0.000,146.007,0.000]",
            "removeActorType": "NEW_REMOVE_WITH_DISAPPEAR",
            "relativePosType": "AVATAR_NEW",
            "relativePosNpcAlias": "",
            "notDestroyInTalk": true,
            "bindMovingTargetKey": ""
        }
    ],
    "group": [
        [
            {
                "$type": "MoleMole.Config.ConfigTimeProtectAction",
                "type": "TIME_PROTECT",
                "duration": 1.0,
                "actionId": 104
            },
            {
                "$type": "MoleMole.Config.ConfigBlackScreenAction",
                "type": "BLACK_SCREEN",
                "duration": 1.0,
                "actionId": 121,
                "flag": 2048,
                "blackScreenType": "KEEP_BLACK",
                "durationToBlack": 0.5,
                "durationKeepBlack": 1.0,
                "durationFromBlack": 0.5,
                "inteePos": "",
                "textMapID": "",
                "useTextFade": true,
                "changeAudioState": true
            },
            {
                "$type": "MoleMole.Config.ConfigSitOrStandAction",
                "type": "SIT_OR_STAND",
                "aliasList": [
                    "Avatar"
                ],
                "actionId": 124,
                "flag": 8192,
                "banResetFreestyle": true
            },
            {
                "$type": "MoleMole.Config.ConfigVisibleInterAction",
                "type": "VISIBLE",
                "aliasList": [
                    "Avatar"
                ],
                "actionId": 128,
                "extraParam": ""
            },
            {
                "$type": "MoleMole.Config.ConfigTeleportToAction",
                "type": "TELEPORT_TO",
                "aliasList": [
                    "Avatar"
                ],
                "actionId": 209,
                "position": {
                    "x": 3472.70703125,
                    "y": 426.62298583984375,
                    "z": 4475.47509765625
                },
                "forward": {
                    "x": -1.6519999504089355,
                    "z": 2.253999948501587
                },
                "openLongDisTeleport": true,
                "syncForward": true,
                "posBindMovingTargetKey": "",
                "forwardBindMovingTargetKey": ""
            },
            {
                "$type": "MoleMole.Config.ConfigPlayerNPCEnergyTypeAction",
                "type": "SET_PLAYER_NPC_ENERGY_TYPE",
                "aliasList": [
                    "AvatarNpc"
                ],
                "actionId": 146,
                "setHeroEngergyType": true
            },
            {
                "$type": "ILCGAGEGDJI",
                "type": "BODY_LANG",
                "aliasList": [
                    "AvatarNpc"
                ],
                "actionId": 147,
                "JLABKFNJCNP": true,
                "PMJAMGLAJGK": true,
                "LIMPPBIAKGL": false,
                "FNDLJGEAMGI": ""
            },
            {
                "$type": "MoleMole.Config.ConfigTeleportToAction",
                "type": "TELEPORT_TO",
                "aliasList": [
                    "AvatarNpc"
                ],
                "actionId": 148,
                "position": {
                    "x": 3472.70703125,
                    "y": 426.62298583984375,
                    "z": 4475.47509765625
                },
                "forward": {
                    "x": -1.6519999504089355,
                    "z": 2.253999948501587
                },
                "openLongDisTeleport": true,
                "syncForward": true,
                "posBindMovingTargetKey": "",
                "forwardBindMovingTargetKey": ""
            },
            {
                "$type": "ILCGAGEGDJI",
                "type": "BODY_LANG",
                "aliasList": [
                    "1075"
                ],
                "actionId": 154,
                "JLABKFNJCNP": true,
                "PMJAMGLAJGK": true,
                "LIMPPBIAKGL": false,
                "FNDLJGEAMGI": ""
            },
            {
                "$type": "MoleMole.Config.ConfigTeleportToAction",
                "type": "TELEPORT_TO",
                "aliasList": [
                    "1075"
                ],
                "actionId": 155,
                "position": {
                    "x": 3480.360107421875,
                    "y": 426.6189880371094,
                    "z": 4465.0
                },
                "forward": {
                    "x": -0.7760000228881836,
                    "z": 0.6309999823570251
                },
                "openLongDisTeleport": true,
                "syncForward": true,
                "posBindMovingTargetKey": "",
                "forwardBindMovingTargetKey": ""
            },
            {
                "$type": "ILCGAGEGDJI",
                "type": "BODY_LANG",
                "aliasList": [
                    "1005"
                ],
                "actionId": 156,
                "JLABKFNJCNP": true,
                "PMJAMGLAJGK": true,
                "LIMPPBIAKGL": false,
                "FNDLJGEAMGI": ""
            },
            {
                "$type": "MoleMole.Config.ConfigTeleportToAction",
                "type": "TELEPORT_TO",
                "aliasList": [
                    "1005"
                ],
                "actionId": 157,
                "position": {
                    "x": 3471.985107421875,
                    "y": 426.62298583984375,
                    "z": 4474.419921875
                },
                "forward": {
                    "x": -1.7790000438690186,
                    "z": 2.9019999504089355
                },
                "openLongDisTeleport": true,
                "syncForward": true,
                "posBindMovingTargetKey": "",
                "forwardBindMovingTargetKey": ""
            }
        ],
        [
            {
                "$type": "MoleMole.Config.ConfigBlackScreenAction",
                "type": "BLACK_SCREEN",
                "duration": 0.5,
                "actionId": 215,
                "flag": 2048,
                "blackScreenType": "FROM_BLACK",
                "durationToBlack": 0.5,
                "durationKeepBlack": 0.5,
                "durationFromBlack": 0.5,
                "inteePos": "",
                "textMapID": "",
                "useTextFade": true,
                "changeAudioState": true
            },
            {
                "$type": "MOOOKOKLLEI",
                "type": "CAMERA_MOVE",
                "duration": 0.5,
                "actionId": 216,
                "DOKGBCKOLJK": {
                    "x": 3502.662109375,
                    "y": 445.2080078125,
                    "z": 4497.10205078125
                },
                "HGKCPMDICGG": {
                    "x": 3501.761962890625,
                    "y": 444.79400634765625,
                    "z": 4496.9619140625
                },
                "AFODHELHCGB": 35.0,
                "MGMFMGNANHH": 6,
                "NDFGFJFGHKL": "EaseInOutCubic",
                "IBCBGNHCICN": {},
                "BNBBLLBEIDL": true,
                "HCPFCAHMGMO": false,
                "OMCCMPHDLOO": "",
                "FEFNBKOHPOG": true,
                "OCFGGGHIKOO": "",
                "LJFHGGJDPHH": "",
                "LPKDFKLNEHL": ""
            },
            {
                "$type": "MoleMole.Config.ConfigMoveToAction",
                "type": "MOVE_TO",
                "aliasList": [
                    "Avatar"
                ],
                "actionId": 222,
                "moveType": "WALK",
                "routeList": [
                    {
                        "x": 3468.781982421875,
                        "y": 426.62298583984375,
                        "z": 4480.48583984375
                    }
                ],
                "exactlyMove": true,
                "closeNavMesh": true,
                "closeAvatarNavMesh": true,
                "openSetPos": true,
                "bindMovingTargetKey": "",
                "delayTriggerNextTime": 0.30000001192092896
            },
            {
                "$type": "MoleMole.Config.ConfigMoveToAction",
                "type": "MOVE_TO",
                "aliasList": [
                    "AvatarNpc"
                ],
                "actionId": 223,
                "moveType": "WALK",
                "routeList": [
                    {
                        "x": 3468.781982421875,
                        "y": 426.62298583984375,
                        "z": 4480.48583984375
                    }
                ],
                "exactlyMove": true,
                "closeNavMesh": true,
                "openSetPos": true,
                "bindMovingTargetKey": "",
                "delayTriggerNextTime": 0.30000001192092896
            },
            {
                "$type": "MoleMole.Config.ConfigMoveToAction",
                "type": "MOVE_TO",
                "aliasList": [
                    "1005"
                ],
                "actionId": 226,
                "moveType": "WALK",
                "routeList": [
                    {
                        "x": 3468.083984375,
                        "y": 426.62298583984375,
                        "z": 4480.09814453125
                    }
                ],
                "exactlyMove": true,
                "closeNavMesh": true,
                "openSetPos": true,
                "bindMovingTargetKey": "",
                "delayTriggerNextTime": 0.30000001192092896
            },
            {
                "$type": "MOOOKOKLLEI",
                "type": "CAMERA_MOVE",
                "delayTime": 0.1080000028014183,
                "duration": 2.3919999599456787,
                "actionId": 217,
                "DOKGBCKOLJK": {
                    "x": 3502.865966796875,
                    "y": 445.20098876953125,
                    "z": 4495.23193359375
                },
                "HGKCPMDICGG": {
                    "x": 3501.9599609375,
                    "y": 444.7869873046875,
                    "z": 4495.14697265625
                },
                "AFODHELHCGB": 35.0,
                "NDFGFJFGHKL": "Linear",
                "IBCBGNHCICN": {},
                "BNBBLLBEIDL": true,
                "HCPFCAHMGMO": false,
                "OMCCMPHDLOO": "",
                "FEFNBKOHPOG": true,
                "OCFGGGHIKOO": "",
                "LJFHGGJDPHH": "",
                "LPKDFKLNEHL": ""
            },
            {
                "$type": "MoleMole.Config.ConfigMoveToAction",
                "type": "MOVE_TO",
                "delayTime": 2.049999952316284,
                "aliasList": [
                    "1075"
                ],
                "actionId": 224,
                "moveType": "RUN",
                "routeList": [
                    {
                        "x": 3471.763916015625,
                        "y": 426.62298583984375,
                        "z": 4473.47119140625
                    }
                ],
                "exactlyMove": true,
                "closeNavMesh": true,
                "openSetPos": true,
                "bindMovingTargetKey": "",
                "delayTriggerNextTime": 0.30000001192092896
            },
            {
                "$type": "DLPFECMKEKH",
                "type": "DIALOG",
                "delayTime": 2.066999912261963,
                "aliasList": [
                    "1075"
                ],
                "actionId": 107,
                "NMKEDPFEKBH": 140150901,
                "JLCHMAJCAPA": 0.5
            },
            {
                "$type": "OPCCDGPJCJI",
                "type": "EMO_SYNC",
                "delayTime": 2.066999912261963,
                "aliasList": [
                    "1075"
                ],
                "actionId": 225,
                "flag": 256,
                "IONNJBCBACJ": "Cs_Emo_Avatar_Simple_Common_Set/Cs_Emo_Avatar_Talk/Cs_Emo_Avatar_PersonalLine/Cs_Emo_Avatar_Navia/Cs_Emo_140150901",
                "HLEJKBCMNNJ": "",
                "JGHLJJLNGPP": "",
                "MANNKIIBOFM": "",
                "COMNAAFDEDH": "",
                "CPGCCLNOCDK": "",
                "IGEFGCJKCPM": [
                    5058612236101813268,
                    2671466033870063882,
                    16971504437527393049,
                    9866925229191423619
                ]
            },
            {
                "$type": "MOOOKOKLLEI",
                "type": "CAMERA_MOVE",
                "delayTime": 2.492000102996826,
                "duration": 0.3330000042915344,
                "actionId": 220,
                "DOKGBCKOLJK": {
                    "x": 3476.760986328125,
                    "y": 428.3240051269531,
                    "z": 4469.173828125
                },
                "HGKCPMDICGG": {
                    "x": 3477.001953125,
                    "y": 427.86199951171875,
                    "z": 4468.32080078125
                },
                "AFODHELHCGB": 25.0,
                "MGMFMGNANHH": 6,
                "NDFGFJFGHKL": "EaseInOutCubic",
                "IBCBGNHCICN": {},
                "BNBBLLBEIDL": true,
                "HCPFCAHMGMO": false,
                "OMCCMPHDLOO": "",
                "FEFNBKOHPOG": true,
                "OCFGGGHIKOO": "",
                "LJFHGGJDPHH": "",
                "LPKDFKLNEHL": ""
            },
            {
                "$type": "MOOOKOKLLEI",
                "type": "CAMERA_MOVE",
                "delayTime": 2.5920000076293945,
                "duration": 1.2330000400543213,
                "actionId": 221,
                "DOKGBCKOLJK": {
                    "x": 3476.760986328125,
                    "y": 428.3240051269531,
                    "z": 4469.173828125
                },
                "HGKCPMDICGG": {
                    "x": 3476.93798828125,
                    "y": 427.8630065917969,
                    "z": 4468.30517578125
                },
                "AFODHELHCGB": 25.0,
                "NDFGFJFGHKL": "EaseOutQuad",
                "IBCBGNHCICN": {},
                "BNBBLLBEIDL": true,
                "NHNPMMBMCFC": 1.9550000429153442,
                "HCPFCAHMGMO": false,
                "OMCCMPHDLOO": "",
                "FEFNBKOHPOG": true,
                "OCFGGGHIKOO": "",
                "LJFHGGJDPHH": "",
                "LPKDFKLNEHL": ""
            },
            {
                "$type": "MOOOKOKLLEI",
                "type": "CAMERA_MOVE",
                "delayTime": 3.825000047683716,
                "duration": 0.5,
                "actionId": 218,
                "DOKGBCKOLJK": {
                    "x": 3471.79296875,
                    "y": 426.6700134277344,
                    "z": 4472.3359375
                },
                "HGKCPMDICGG": {
                    "x": 3471.55908203125,
                    "y": 426.8160095214844,
                    "z": 4473.296875
                },
                "AFODHELHCGB": 25.0,
                "MGMFMGNANHH": 6,
                "NDFGFJFGHKL": "EaseInOutCubic",
                "IBCBGNHCICN": {},
                "BNBBLLBEIDL": true,
                "HCPFCAHMGMO": false,
                "OMCCMPHDLOO": "",
                "FEFNBKOHPOG": true,
                "OCFGGGHIKOO": "",
                "LJFHGGJDPHH": "",
                "LPKDFKLNEHL": ""
            },
            {
                "$type": "MOOOKOKLLEI",
                "type": "CAMERA_MOVE",
                "delayTime": 3.9170000553131104,
                "duration": 2.1419999599456787,
                "actionId": 219,
                "DOKGBCKOLJK": {
                    "x": 3471.842041015625,
                    "y": 426.6700134277344,
                    "z": 4472.34814453125
                },
                "HGKCPMDICGG": {
                    "x": 3471.60791015625,
                    "y": 426.8160095214844,
                    "z": 4473.30908203125
                },
                "AFODHELHCGB": 25.0,
                "NDFGFJFGHKL": "EaseOutQuad",
                "IBCBGNHCICN": {},
                "BNBBLLBEIDL": true,
                "HCPFCAHMGMO": false,
                "OMCCMPHDLOO": "",
                "FEFNBKOHPOG": true,
                "OCFGGGHIKOO": "",
                "LJFHGGJDPHH": "",
                "LPKDFKLNEHL": ""
            }
        ],
        [
            {
                "$type": "MOOOKOKLLEI",
                "type": "CAMERA_MOVE",
                "duration": 0.5,
                "actionId": 228,
                "DOKGBCKOLJK": {
                    "x": 3468.489990234375,
                    "y": 427.9309997558594,
                    "z": 4479.5390625
                },
                "HGKCPMDICGG": {
                    "x": 3467.8798828125,
                    "y": 427.906005859375,
                    "z": 4480.3310546875
                },
                "AFODHELHCGB": 25.0,
                "MGMFMGNANHH": 6,
                "NDFGFJFGHKL": "EaseInOutCubic",
                "IBCBGNHCICN": {},
                "BNBBLLBEIDL": true,
                "HCPFCAHMGMO": false,
                "OMCCMPHDLOO": "",
                "FEFNBKOHPOG": true,
                "OCFGGGHIKOO": "",
                "LJFHGGJDPHH": "",
                "LPKDFKLNEHL": ""
            },
            {
                "$type": "EAMBKPBOPIC",
                "type": "LOOK_AT",
                "aliasList": [
                    "1005"
                ],
                "actionId": 249,
                "flag": 64,
                "FIDJDPAIFDN": true,
                "useTargetPos": true,
                "GFKIMGBGADJ": true,
                "GMKIJKADNHN": {
                    "x": 3467.9208984375,
                    "y": 427.87799072265625,
                    "z": 4479.958984375
                },
                "BCHGCKLKNEH": 0.5,
                "OMCCMPHDLOO": "",
                "CEBMBGKJACI": "NONE",
                "EOHIIHMKDJC": true,
                "NALDAIJKCML": 10.0,
                "KPCALFDIHMC": "",
                "DBLNLMOPEBP": ""
            },
            {
                "$type": "DLPFECMKEKH",
                "type": "DIALOG",
                "aliasList": [
                    "1005"
                ],
                "actionId": 109,
                "NMKEDPFEKBH": 140150902,
                "JLCHMAJCAPA": 2.3529999256134033
            },
            {
                "$type": "OPCCDGPJCJI",
                "type": "EMO_SYNC",
                "aliasList": [
                    "1075"
                ],
                "actionId": 242,
                "flag": 256,
                "IONNJBCBACJ": "",
                "HLEJKBCMNNJ": "Cs_Emo_Avatar_Common/Cs_Emo_Avatar_Smile01",
                "JGHLJJLNGPP": "Cs_Emo_Avatar_Common/Cs_Emo_Avatar_Normal01_B",
                "MANNKIIBOFM": "",
                "COMNAAFDEDH": "",
                "CPGCCLNOCDK": "",
                "MFABDGAFKII": [
                    10690861126541730163,
                    10307265193832958374,
                    9401534900849971975,
                    18440618347769519338
                ],
                "IPAGHAALIII": [
                    12958401574658666588,
                    15474241282904027449,
                    9323653209111416134,
                    8508374650737503979
                ]
            },
            {
                "$type": "OPCCDGPJCJI",
                "type": "EMO_SYNC",
                "aliasList": [
                    "1005"
                ],
                "actionId": 251,
                "flag": 320,
                "IONNJBCBACJ": "Cs_Emo_Avatar_Simple_Common_Set/Cs_Emo_Avatar_Talk/Cs_Emo_Avatar_PersonalLine/Cs_Emo_Avatar_Navia/Cs_Emo_140150902",
                "HLEJKBCMNNJ": "",
                "JGHLJJLNGPP": "",
                "MANNKIIBOFM": "",
                "COMNAAFDEDH": "",
                "CPGCCLNOCDK": "",
                "IGEFGCJKCPM": [
                    6004818457824061651,
                    3010757877760864138,
                    9140019052212233333,
                    8907130077584753231
                ]
            },
            {
                "$type": "MoleMole.Config.ConfigTeleportToAction",
                "type": "TELEPORT_TO",
                "aliasList": [
                    "1075"
                ],
                "actionId": 236,
                "flag": 4,
                "position": {
                    "x": 3470.4140625,
                    "y": 426.62298583984375,
                    "z": 4476.19921875
                },
                "forward": {
                    "x": -1.4529999494552612,
                    "z": 2.944999933242798
                },
                "openLongDisTeleport": true,
                "syncForward": true,
                "posBindMovingTargetKey": "",
                "forwardBindMovingTargetKey": ""
            },
            {
                "$type": "EAMBKPBOPIC",
                "type": "LOOK_AT",
                "aliasList": [
                    "AvatarNpc"
                ],
                "actionId": 235,
                "flag": 64,
                "FIDJDPAIFDN": true,
                "BCHGCKLKNEH": 0.5,
                "OMCCMPHDLOO": "1075",
                "EOHIIHMKDJC": true,
                "NALDAIJKCML": 10.0,
                "KPCALFDIHMC": "",
                "DBLNLMOPEBP": ""
            },
            {
                "$type": "EAMBKPBOPIC",
                "type": "LOOK_AT",
                "aliasList": [
                    "1075"
                ],
                "actionId": 239,
                "flag": 64,
                "FIDJDPAIFDN": true,
                "BCHGCKLKNEH": 0.5,
                "OMCCMPHDLOO": "AvatarNpc",
                "EOHIIHMKDJC": true,
                "NALDAIJKCML": 10.0,
                "KPCALFDIHMC": "",
                "DBLNLMOPEBP": ""
            },
            {
                "$type": "MoleMole.Config.ConfigTeleportToAction",
                "type": "TELEPORT_TO",
                "aliasList": [
                    "AvatarNpc"
                ],
                "actionId": 233,
                "flag": 4,
                "position": {
                    "x": 3468.73095703125,
                    "y": 426.62298583984375,
                    "z": 4480.43798828125
                },
                "forward": {
                    "x": -0.6119999885559082,
                    "z": 0.7910000085830688
                },
                "openLongDisTeleport": true,
                "syncForward": true,
                "posBindMovingTargetKey": "",
                "forwardBindMovingTargetKey": ""
            },
            {
                "$type": "MoleMole.Config.ConfigTeleportToAction",
                "type": "TELEPORT_TO",
                "aliasList": [
                    "Avatar"
                ],
                "actionId": 232,
                "flag": 4,
                "position": {
                    "x": 3468.73095703125,
                    "y": 426.62298583984375,
                    "z": 4480.43798828125
                },
                "forward": {
                    "x": -0.6119999885559082,
                    "z": 0.7910000085830688
                },
                "openLongDisTeleport": true,
                "syncForward": true,
                "posBindMovingTargetKey": "",
                "forwardBindMovingTargetKey": ""
            },
            {
                "$type": "MoleMole.Config.ConfigTeleportToAction",
                "type": "TELEPORT_TO",
                "aliasList": [
                    "1005"
                ],
                "actionId": 286,
                "flag": 4,
                "position": {
                    "x": 3468.083984375,
                    "y": 426.62298583984375,
                    "z": 4480.09814453125
                },
                "forward": {
                    "x": -0.8399999737739563,
                    "z": 0.6190000176429749
                },
                "openLongDisTeleport": true,
                "syncForward": true,
                "posBindMovingTargetKey": "",
                "forwardBindMovingTargetKey": ""
            },
            {
                "$type": "MOOOKOKLLEI",
                "type": "CAMERA_MOVE",
                "delayTime": 0.10000000149011612,
                "duration": 2.6570000648498535,
                "actionId": 229,
                "DOKGBCKOLJK": {
                    "x": 3468.60693359375,
                    "y": 427.93499755859375,
                    "z": 4479.38720703125
                },
                "HGKCPMDICGG": {
                    "x": 3467.9970703125,
                    "y": 427.9110107421875,
                    "z": 4480.17919921875
                },
                "AFODHELHCGB": 25.0,
                "NDFGFJFGHKL": "Linear",
                "IBCBGNHCICN": {},
                "BNBBLLBEIDL": true,
                "HCPFCAHMGMO": false,
                "OMCCMPHDLOO": "",
                "FEFNBKOHPOG": true,
                "OCFGGGHIKOO": "",
                "LJFHGGJDPHH": "",
                "LPKDFKLNEHL": ""
            },
            {
                "$type": "MoleMole.Config.ConfigMoveToAction",
                "type": "MOVE_TO",
                "delayTime": 0.21199999749660492,
                "aliasList": [
                    "1075"
                ],
                "actionId": 237,
                "moveType": "WALK",
                "routeList": [
                    {
                        "x": 3468.81005859375,
                        "y": 426.62298583984375,
                        "z": 4479.3798828125
                    }
                ],
                "exactlyMove": true,
                "closeNavMesh": true,
                "openSetPos": true,
                "bindMovingTargetKey": "",
                "delayTriggerNextTime": 0.30000001192092896
            },
            {
                "$type": "OOMFCPJAJGL",
                "type": "STEER_TO",
                "delayTime": 0.2240000069141388,
                "duration": 1.0,
                "aliasList": [
                    "AvatarNpc"
                ],
                "actionId": 234,
                "flag": 32,
                "DMGIIHNDNLC": "ABSOLUTE",
                "PLAPKCOMAKJ": {
                    "x": 3469.30810546875,
                    "y": 428.2200012207031,
                    "z": 4476.68310546875
                },
                "HCMINPNPFDF": true,
                "PENAEBFAHCH": true,
                "CKOEAJFMDON": true,
                "OMCCMPHDLOO": "",
                "AKKPIOCLGOP": true,
                "PPGPCHDAOJG": true,
                "DBLNLMOPEBP": ""
            },
            {
                "$type": "EAMBKPBOPIC",
                "type": "LOOK_AT",
                "delayTime": 0.8640000224113464,
                "aliasList": [
                    "1005"
                ],
                "actionId": 250,
                "flag": 64,
                "FIDJDPAIFDN": true,
                "useTargetPos": true,
                "GFKIMGBGADJ": true,
                "GMKIJKADNHN": {
                    "x": 3468.742919921875,
                    "y": 428.0199890136719,
                    "z": 4479.419921875
                },
                "BCHGCKLKNEH": 0.5,
                "OMCCMPHDLOO": "",
                "CEBMBGKJACI": "NONE",
                "EOHIIHMKDJC": true,
                "NALDAIJKCML": 10.0,
                "KPCALFDIHMC": "",
                "DBLNLMOPEBP": ""
            },
            {
                "$type": "OOMFCPJAJGL",
                "type": "STEER_TO",
                "delayTime": 0.972000002861023,
                "duration": 1.0,
                "aliasList": [
                    "1005"
                ],
                "actionId": 245,
                "flag": 32,
                "DMGIIHNDNLC": "ABSOLUTE",
                "PLAPKCOMAKJ": {
                    "x": 3468.39501953125,
                    "y": 427.9169921875,
                    "z": 4479.57080078125
                },
                "HCMINPNPFDF": true,
                "PENAEBFAHCH": true,
                "CKOEAJFMDON": true,
                "OMCCMPHDLOO": "",
                "AKKPIOCLGOP": true,
                "PPGPCHDAOJG": true,
                "DBLNLMOPEBP": ""
            },
            {
                "$type": "ILCGAGEGDJI",
                "type": "BODY_LANG",
                "delayTime": 1.937000036239624,
                "aliasList": [
                    "1005"
                ],
                "actionId": 248,
                "FLBOOPHHFJP": 1260,
                "PMJAMGLAJGK": true,
                "LIMPPBIAKGL": false,
                "FNEGLPPEBBF": true,
                "FNDLJGEAMGI": ""
            },
            {
                "$type": "MOOOKOKLLEI",
                "type": "CAMERA_MOVE",
                "delayTime": 2.756999969482422,
                "duration": 0.5,
                "actionId": 230,
                "DOKGBCKOLJK": {
                    "x": 3467.5009765625,
                    "y": 428.16400146484375,
                    "z": 4482.0791015625
                },
                "HGKCPMDICGG": {
                    "x": 3467.93798828125,
                    "y": 428.1090087890625,
                    "z": 4481.18115234375
                },
                "AFODHELHCGB": 20.0,
                "MGMFMGNANHH": 6,
                "NDFGFJFGHKL": "EaseInOutCubic",
                "IBCBGNHCICN": {},
                "BNBBLLBEIDL": true,
                "HCPFCAHMGMO": false,
                "OMCCMPHDLOO": "",
                "FEFNBKOHPOG": true,
                "OCFGGGHIKOO": "",
                "LJFHGGJDPHH": "",
                "LPKDFKLNEHL": ""
            },
            {
                "$type": "MOOOKOKLLEI",
                "type": "CAMERA_MOVE",
                "delayTime": 2.8570001125335693,
                "duration": 5.550000190734863,
                "actionId": 231,
                "DOKGBCKOLJK": {
                    "x": 3467.489990234375,
                    "y": 428.0199890136719,
                    "z": 4482.0791015625
                },
                "HGKCPMDICGG": {
                    "x": 3467.930908203125,
                    "y": 428.010986328125,
                    "z": 4481.18115234375
                },
                "AFODHELHCGB": 20.0,
                "NDFGFJFGHKL": "EaseOutQuad",
                "IBCBGNHCICN": {},
                "BNBBLLBEIDL": true,
                "HCPFCAHMGMO": false,
                "OMCCMPHDLOO": "",
                "FEFNBKOHPOG": true,
                "OCFGGGHIKOO": "",
                "LJFHGGJDPHH": "",
                "LPKDFKLNEHL": ""
            },
            {
                "$type": "OPCCDGPJCJI",
                "type": "EMO_SYNC",
                "delayTime": 2.928999900817871,
                "aliasList": [
                    "1075"
                ],
                "actionId": 241,
                "flag": 256,
                "IONNJBCBACJ": "",
                "HLEJKBCMNNJ": "Cs_Emo_Avatar_Common/Cs_Emo_Avatar_Smile01",
                "JGHLJJLNGPP": "Cs_Emo_Avatar_Common/Cs_Emo_Avatar_HiClosed01",
                "MANNKIIBOFM": "",
                "COMNAAFDEDH": "",
                "CPGCCLNOCDK": "",
                "HINHCFHAMDI": false,
                "MFABDGAFKII": [
                    10690861126541730163,
                    10307265193832958374,
                    9401534900849971975,
                    18440618347769519338
                ],
                "IPAGHAALIII": [
                    17179584096612559158,
                    1310598225538606005,
                    7091842289545732802,
                    8491140220901975535
                ]
            },
            {
                "$type": "ILCGAGEGDJI",
                "type": "BODY_LANG",
                "delayTime": 2.990000009536743,
                "aliasList": [
                    "1075"
                ],
                "actionId": 238,
                "FLBOOPHHFJP": 1200,
                "PMJAMGLAJGK": true,
                "LIMPPBIAKGL": false,
                "FNEGLPPEBBF": true,
                "FNDLJGEAMGI": ""
            },
            {
                "$type": "EAMBKPBOPIC",
                "type": "LOOK_AT",
                "delayTime": 3.010999917984009,
                "aliasList": [
                    "1075"
                ],
                "actionId": 240,
                "flag": 64,
                "FIDJDPAIFDN": true,
                "useTargetPos": true,
                "GFKIMGBGADJ": true,
                "GMKIJKADNHN": {
                    "x": 3468.18310546875,
                    "y": 427.83099365234375,
                    "z": 4480.3427734375
                },
                "BCHGCKLKNEH": 0.5,
                "OMCCMPHDLOO": "1005",
                "CEBMBGKJACI": "NONE",
                "EOHIIHMKDJC": true,
                "NALDAIJKCML": 10.0,
                "KPCALFDIHMC": "",
                "DBLNLMOPEBP": ""
            },
            {
                "$type": "ILCGAGEGDJI",
                "type": "BODY_LANG",
                "delayTime": 5.9029998779296875,
                "aliasList": [
                    "1075"
                ],
                "actionId": 243,
                "JLABKFNJCNP": true,
                "PMJAMGLAJGK": true,
                "LIMPPBIAKGL": false,
                "FNEGLPPEBBF": true,
                "FNDLJGEAMGI": ""
            }
        ],
        [
            {
                "$type": "MOOOKOKLLEI",
                "type": "CAMERA_MOVE",
                "duration": 0.5,
                "actionId": 253,
                "DOKGBCKOLJK": {
                    "x": 3467.2041015625,
                    "y": 427.9859924316406,
                    "z": 4476.10595703125
                },
                "HGKCPMDICGG": {
                    "x": 3467.60009765625,
                    "y": 427.9670104980469,
                    "z": 4477.02392578125
                },
                "AFODHELHCGB": 20.0,
                "MGMFMGNANHH": 6,
                "NDFGFJFGHKL": "EaseInOutCubic",
                "IBCBGNHCICN": {},
                "BNBBLLBEIDL": true,
                "HCPFCAHMGMO": false,
                "OMCCMPHDLOO": "",
                "FEFNBKOHPOG": true,
                "OCFGGGHIKOO": "",
                "LJFHGGJDPHH": "",
                "LPKDFKLNEHL": ""
            },
            {
                "$type": "ILCGAGEGDJI",
                "type": "BODY_LANG",
                "aliasList": [
                    "1005"
                ],
                "actionId": 290,
                "JLABKFNJCNP": true,
                "PMJAMGLAJGK": true,
                "LIMPPBIAKGL": false,
                "FNEGLPPEBBF": true,
                "FNDLJGEAMGI": ""
            },
            {
                "$type": "OPCCDGPJCJI",
                "type": "EMO_SYNC",
                "aliasList": [
                    "1075"
                ],
                "actionId": 266,
                "flag": 256,
                "IONNJBCBACJ": "Cs_Emo_Avatar_Simple_Common_Set/Cs_Emo_Avatar_Talk/Cs_Emo_Avatar_PersonalLine/Cs_Emo_Avatar_Navia/Cs_Emo_140150903",
                "HLEJKBCMNNJ": "",
                "JGHLJJLNGPP": "",
                "MANNKIIBOFM": "",
                "COMNAAFDEDH": "",
                "CPGCCLNOCDK": "",
                "IGEFGCJKCPM": [
                    2526158119391508303,
                    14079540943708972253,
                    348284220413847872,
                    12179587593114733834
                ]
            },
            {
                "$type": "MoleMole.Config.ConfigTeleportToAction",
                "type": "TELEPORT_TO",
                "aliasList": [
                    "1075"
                ],
                "actionId": 263,
                "position": {
                    "x": 3468.906005859375,
                    "y": 426.62298583984375,
                    "z": 4479.19091796875
                },
                "forward": {
                    "x": -0.45100000500679016,
                    "z": 0.8920000195503235
                },
                "openLongDisTeleport": true,
                "syncForward": true,
                "posBindMovingTargetKey": "",
                "forwardBindMovingTargetKey": ""
            },
            {
                "$type": "MoleMole.Config.ConfigTeleportToAction",
                "type": "TELEPORT_TO",
                "aliasList": [
                    "1005"
                ],
                "actionId": 292,
                "position": {
                    "x": 3468.083984375,
                    "y": 426.62298583984375,
                    "z": 4480.09814453125
                },
                "forward": {
                    "x": 0.5080000162124634,
                    "z": -0.8610000014305115
                },
                "openLongDisTeleport": true,
                "syncForward": true,
                "posBindMovingTargetKey": "",
                "forwardBindMovingTargetKey": ""
            },
            {
                "$type": "DLPFECMKEKH",
                "type": "DIALOG",
                "aliasList": [
                    "1075"
                ],
                "actionId": 111,
                "NMKEDPFEKBH": 140150903,
                "JLCHMAJCAPA": 0.5
            },
            {
                "$type": "EAMBKPBOPIC",
                "type": "LOOK_AT",
                "aliasList": [
                    "AvatarNpc"
                ],
                "actionId": 294,
                "flag": 64,
                "FIDJDPAIFDN": true,
                "useTargetPos": true,
                "GFKIMGBGADJ": true,
                "GMKIJKADNHN": {
                    "x": 3468.69091796875,
                    "y": 428.07501220703125,
                    "z": 4479.26416015625
                },
                "BCHGCKLKNEH": 0.5,
                "OMCCMPHDLOO": "",
                "CEBMBGKJACI": "NONE",
                "EOHIIHMKDJC": true,
                "NALDAIJKCML": 10.0,
                "KPCALFDIHMC": "",
                "DBLNLMOPEBP": ""
            },
            {
                "$type": "ILCGAGEGDJI",
                "type": "BODY_LANG",
                "aliasList": [
                    "1075"
                ],
                "actionId": 259,
                "JLABKFNJCNP": true,
                "PMJAMGLAJGK": true,
                "LIMPPBIAKGL": false,
                "FNEGLPPEBBF": true,
                "FNDLJGEAMGI": ""
            },
            {
                "$type": "MoleMole.Config.ConfigTeleportToAction",
                "type": "TELEPORT_TO",
                "aliasList": [
                    "AvatarNpc"
                ],
                "actionId": 256,
                "position": {
                    "x": 3468.73095703125,
                    "y": 426.62298583984375,
                    "z": 4480.43798828125
                },
                "forward": {
                    "x": 0.15199999511241913,
                    "z": -0.9879999756813049
                },
                "openLongDisTeleport": true,
                "syncForward": true,
                "posBindMovingTargetKey": "",
                "forwardBindMovingTargetKey": ""
            },
            {
                "$type": "MoleMole.Config.ConfigTeleportToAction",
                "type": "TELEPORT_TO",
                "aliasList": [
                    "Avatar"
                ],
                "actionId": 255,
                "position": {
                    "x": 3468.73095703125,
                    "y": 426.62298583984375,
                    "z": 4480.43798828125
                },
                "forward": {
                    "x": 0.15199999511241913,
                    "z": -0.9879999756813049
                },
                "openLongDisTeleport": true,
                "syncForward": true,
                "posBindMovingTargetKey": "",
                "forwardBindMovingTargetKey": ""
            },
            {
                "$type": "OPCCDGPJCJI",
                "type": "EMO_SYNC",
                "aliasList": [
                    "AvatarNpc"
                ],
                "actionId": 287,
                "flag": 256,
                "IONNJBCBACJ": "",
                "HLEJKBCMNNJ": "Cs_Emo_Avatar_Common/Cs_Emo_Avatar_Smile01",
                "JGHLJJLNGPP": "Cs_Emo_Avatar_Common/Cs_Emo_Avatar_Gentle01_B",
                "MANNKIIBOFM": "",
                "COMNAAFDEDH": "",
                "CPGCCLNOCDK": "",
                "MFABDGAFKII": [
                    10690861126541730163,
                    10307265193832958374,
                    9401534900849971975,
                    18440618347769519338
                ],
                "IPAGHAALIII": [
                    16844822647509768515,
                    15752628326139830226,
                    2563814041844724990,
                    6511930563219247368
                ]
            },
            {
                "$type": "EAMBKPBOPIC",
                "type": "LOOK_AT",
                "aliasList": [
                    "1005"
                ],
                "actionId": 293,
                "flag": 64,
                "FIDJDPAIFDN": true,
                "useTargetPos": true,
                "GFKIMGBGADJ": true,
                "GMKIJKADNHN": {
                    "x": 3468.3759765625,
                    "y": 428.07598876953125,
                    "z": 4479.208984375
                },
                "BCHGCKLKNEH": 0.5,
                "OMCCMPHDLOO": "",
                "CEBMBGKJACI": "NONE",
                "EOHIIHMKDJC": true,
                "NALDAIJKCML": 10.0,
                "KPCALFDIHMC": "",
                "DBLNLMOPEBP": ""
            },
            {
                "$type": "MOOOKOKLLEI",
                "type": "CAMERA_MOVE",
                "delayTime": 0.10000000149011612,
                "duration": 7.8420000076293945,
                "actionId": 254,
                "DOKGBCKOLJK": {
                    "x": 3467.095947265625,
                    "y": 427.9859924316406,
                    "z": 4476.15185546875
                },
                "HGKCPMDICGG": {
                    "x": 3467.490966796875,
                    "y": 427.9670104980469,
                    "z": 4477.06982421875
                },
                "AFODHELHCGB": 20.0,
                "NDFGFJFGHKL": "EaseOutQuad",
                "IBCBGNHCICN": {},
                "BNBBLLBEIDL": true,
                "HCPFCAHMGMO": false,
                "OMCCMPHDLOO": "",
                "FEFNBKOHPOG": true,
                "OCFGGGHIKOO": "",
                "LJFHGGJDPHH": "",
                "LPKDFKLNEHL": ""
            },
            {
                "$type": "ILCGAGEGDJI",
                "type": "BODY_LANG",
                "delayTime": 0.17499999701976776,
                "aliasList": [
                    "1005"
                ],
                "actionId": 291,
                "FLBOOPHHFJP": 1090,
                "PMJAMGLAJGK": true,
                "LIMPPBIAKGL": false,
                "FNEGLPPEBBF": true,
                "FNDLJGEAMGI": ""
            },
            {
                "$type": "ILCGAGEGDJI",
                "type": "BODY_LANG",
                "delayTime": 0.3959999978542328,
                "aliasList": [
                    "1075"
                ],
                "actionId": 260,
                "FLBOOPHHFJP": 1230,
                "PMJAMGLAJGK": true,
                "LIMPPBIAKGL": false,
                "FNEGLPPEBBF": true,
                "FNDLJGEAMGI": ""
            },
            {
                "$type": "ECLBLHOENAG",
                "type": "DIALOG_SELECT",
                "delayTime": 0.4000000059604645,
                "aliasList": [
                    "AvatarNpc"
                ],
                "actionId": 123,
                "NDMMOPDPKNF": [
                    140150904,
                    140150905
                ],
                "FPDBIEGHMCD": [
                    2350252291,
                    2350252291
                ],
                "PKBOIGBGDEG": true,
                "GOJJPCDMMLN": 2350252286
            },
            {
                "$type": "EAMBKPBOPIC",
                "type": "LOOK_AT",
                "delayTime": 1.6319999694824219,
                "aliasList": [
                    "1075"
                ],
                "actionId": 264,
                "flag": 64,
                "FIDJDPAIFDN": true,
                "BCHGCKLKNEH": 0.5,
                "OMCCMPHDLOO": "AvatarNpc",
                "EOHIIHMKDJC": true,
                "NALDAIJKCML": 10.0,
                "KPCALFDIHMC": "",
                "DBLNLMOPEBP": ""
            },
            {
                "$type": "ILCGAGEGDJI",
                "type": "BODY_LANG",
                "delayTime": 3.3949999809265137,
                "aliasList": [
                    "1075"
                ],
                "actionId": 261,
                "FLBOOPHHFJP": 1231,
                "PMJAMGLAJGK": true,
                "LIMPPBIAKGL": false,
                "FNEGLPPEBBF": true,
                "FNDLJGEAMGI": ""
            },
            {
                "$type": "EAMBKPBOPIC",
                "type": "LOOK_AT",
                "delayTime": 3.924999952316284,
                "aliasList": [
                    "1075"
                ],
                "actionId": 265,
                "flag": 64,
                "FIDJDPAIFDN": true,
                "useTargetPos": true,
                "GFKIMGBGADJ": true,
                "GMKIJKADNHN": {
                    "x": 3468.05908203125,
                    "y": 427.97100830078125,
                    "z": 4480.06396484375
                },
                "BCHGCKLKNEH": 0.5,
                "OMCCMPHDLOO": "",
                "CEBMBGKJACI": "NONE",
                "EOHIIHMKDJC": true,
                "NALDAIJKCML": 10.0,
                "KPCALFDIHMC": "",
                "DBLNLMOPEBP": ""
            },
            {
                "$type": "ILCGAGEGDJI",
                "type": "BODY_LANG",
                "delayTime": 4.982999801635742,
                "aliasList": [
                    "AvatarNpc"
                ],
                "actionId": 257,
                "FLBOOPHHFJP": 1172,
                "PMJAMGLAJGK": true,
                "LIMPPBIAKGL": false,
                "FNEGLPPEBBF": true,
                "FNDLJGEAMGI": ""
            },
            {
                "$type": "ILCGAGEGDJI",
                "type": "BODY_LANG",
                "delayTime": 5.296000003814697,
                "aliasList": [
                    "1075"
                ],
                "actionId": 262,
                "JLABKFNJCNP": true,
                "PMJAMGLAJGK": true,
                "LIMPPBIAKGL": false,
                "FNEGLPPEBBF": true,
                "FNDLJGEAMGI": ""
            },
            {
                "$type": "ILCGAGEGDJI",
                "type": "BODY_LANG",
                "delayTime": 6.942999839782715,
                "aliasList": [
                    "AvatarNpc"
                ],
                "actionId": 258,
                "JLABKFNJCNP": true,
                "PMJAMGLAJGK": true,
                "LIMPPBIAKGL": false,
                "FNEGLPPEBBF": true,
                "FNDLJGEAMGI": ""
            }
        ],
        [
            {
                "$type": "MOOOKOKLLEI",
                "type": "CAMERA_MOVE",
                "duration": 0.5,
                "actionId": 271,
                "DOKGBCKOLJK": {
                    "x": 3467.512939453125,
                    "y": 427.885986328125,
                    "z": 4478.67919921875
                },
                "HGKCPMDICGG": {
                    "x": 3467.98193359375,
                    "y": 427.9179992675781,
                    "z": 4479.56201171875
                },
                "AFODHELHCGB": 20.0,
                "MGMFMGNANHH": 6,
                "NDFGFJFGHKL": "EaseInOutCubic",
                "IBCBGNHCICN": {},
                "BNBBLLBEIDL": true,
                "HCPFCAHMGMO": false,
                "OMCCMPHDLOO": "",
                "FEFNBKOHPOG": true,
                "OCFGGGHIKOO": "",
                "LJFHGGJDPHH": "",
                "LPKDFKLNEHL": ""
            },
            {
                "$type": "ILCGAGEGDJI",
                "type": "BODY_LANG",
                "aliasList": [
                    "1005"
                ],
                "actionId": 282,
                "JLABKFNJCNP": true,
                "PMJAMGLAJGK": true,
                "LIMPPBIAKGL": false,
                "FNEGLPPEBBF": true,
                "FNDLJGEAMGI": ""
            },
            {
                "$type": "DLPFECMKEKH",
                "type": "DIALOG",
                "aliasList": [
                    "1005"
                ],
                "actionId": 114,
                "NMKEDPFEKBH": 140150906,
                "JLCHMAJCAPA": 1.6080000400543213
            },
            {
                "$type": "OPCCDGPJCJI",
                "type": "EMO_SYNC",
                "aliasList": [
                    "1075"
                ],
                "actionId": 281,
                "flag": 256,
                "IONNJBCBACJ": "",
                "HLEJKBCMNNJ": "Cs_Emo_Avatar_Common/Cs_Emo_Avatar_Normal01",
                "JGHLJJLNGPP": "Cs_Emo_Avatar_Common/Cs_Emo_Avatar_Normal01_B",
                "MANNKIIBOFM": "",
                "COMNAAFDEDH": "",
                "CPGCCLNOCDK": "",
                "MFABDGAFKII": [
                    9445916536337636767,
                    14128686126614747219,
                    10779105391569104182,
                    11659242061757756269
                ],
                "IPAGHAALIII": [
                    12958401574658666588,
                    15474241282904027449,
                    9323653209111416134,
                    8508374650737503979
                ]
            },
            {
                "$type": "ILCGAGEGDJI",
                "type": "BODY_LANG",
                "aliasList": [
                    "1075"
                ],
                "actionId": 280,
                "JLABKFNJCNP": true,
                "PMJAMGLAJGK": true,
                "LIMPPBIAKGL": false,
                "FNEGLPPEBBF": true,
                "FNDLJGEAMGI": ""
            },
            {
                "$type": "OPCCDGPJCJI",
                "type": "EMO_SYNC",
                "aliasList": [
                    "AvatarNpc"
                ],
                "actionId": 288,
                "flag": 256,
                "IONNJBCBACJ": "",
                "HLEJKBCMNNJ": "Cs_Emo_Avatar_Common/Cs_Emo_Avatar_Normal01",
                "JGHLJJLNGPP": "Cs_Emo_Avatar_Common/Cs_Emo_Avatar_Normal01_B",
                "MANNKIIBOFM": "",
                "COMNAAFDEDH": "",
                "CPGCCLNOCDK": "",
                "MFABDGAFKII": [
                    9445916536337636767,
                    14128686126614747219,
                    10779105391569104182,
                    11659242061757756269
                ],
                "IPAGHAALIII": [
                    12958401574658666588,
                    15474241282904027449,
                    9323653209111416134,
                    8508374650737503979
                ]
            },
            {
                "$type": "OPCCDGPJCJI",
                "type": "EMO_SYNC",
                "aliasList": [
                    "1005"
                ],
                "actionId": 285,
                "flag": 320,
                "IONNJBCBACJ": "Cs_Emo_Avatar_Simple_Common_Set/Cs_Emo_Avatar_Talk/Cs_Emo_Avatar_PersonalLine/Cs_Emo_Avatar_Navia/Cs_Emo_140150906",
                "HLEJKBCMNNJ": "",
                "JGHLJJLNGPP": "",
                "MANNKIIBOFM": "",
                "COMNAAFDEDH": "",
                "CPGCCLNOCDK": "",
                "IGEFGCJKCPM": [
                    12773826697609693,
                    1805514238173634364,
                    11656346431754643310,
                    7020312201870068533
                ]
            },
            {
                "$type": "CJKIHIFAALJ",
                "type": "LOOK_AT_EYECTRL",
                "aliasList": [
                    "AvatarNpc"
                ],
                "actionId": 275,
                "flag": 4672,
                "useTargetPos": false,
                "KOPLMCFNFEH": {
                    "x": 7.0
                },
                "DONDAIFPGMK": {
                    "x": 7.0
                },
                "BJMEKPDGMPA": 0.03999999910593033,
                "OMCCMPHDLOO": "",
                "OPPBKKOPIOB": "Face"
            },
            {
                "$type": "EAMBKPBOPIC",
                "type": "LOOK_AT",
                "aliasList": [
                    "AvatarNpc"
                ],
                "actionId": 274,
                "flag": 64,
                "FIDJDPAIFDN": true,
                "useTargetPos": true,
                "GFKIMGBGADJ": true,
                "GMKIJKADNHN": {
                    "x": 3468.157958984375,
                    "y": 427.7869873046875,
                    "z": 4480.06982421875
                },
                "BCHGCKLKNEH": 0.5,
                "OMCCMPHDLOO": "",
                "CEBMBGKJACI": "NONE",
                "EOHIIHMKDJC": true,
                "NALDAIJKCML": 10.0,
                "KPCALFDIHMC": "",
                "DBLNLMOPEBP": ""
            },
            {
                "$type": "ILCGAGEGDJI",
                "type": "BODY_LANG",
                "aliasList": [
                    "AvatarNpc"
                ],
                "actionId": 273,
                "JLABKFNJCNP": true,
                "PMJAMGLAJGK": true,
                "LIMPPBIAKGL": false,
                "FNEGLPPEBBF": true,
                "FNDLJGEAMGI": ""
            },
            {
                "$type": "MOOOKOKLLEI",
                "type": "CAMERA_MOVE",
                "delayTime": 0.10000000149011612,
                "duration": 5.0,
                "actionId": 272,
                "DOKGBCKOLJK": {
                    "x": 3467.462890625,
                    "y": 427.885986328125,
                    "z": 4478.7060546875
                },
                "HGKCPMDICGG": {
                    "x": 3467.930908203125,
                    "y": 427.9179992675781,
                    "z": 4479.5888671875
                },
                "AFODHELHCGB": 20.0,
                "NDFGFJFGHKL": "EaseOutQuad",
                "IBCBGNHCICN": {},
                "BNBBLLBEIDL": true,
                "HCPFCAHMGMO": false,
                "OMCCMPHDLOO": "",
                "FEFNBKOHPOG": true,
                "OCFGGGHIKOO": "",
                "LJFHGGJDPHH": "",
                "LPKDFKLNEHL": ""
            },
            {
                "$type": "ILCGAGEGDJI",
                "type": "BODY_LANG",
                "delayTime": 0.7889999747276306,
                "aliasList": [
                    "1005"
                ],
                "actionId": 283,
                "FLBOOPHHFJP": 1300,
                "PMJAMGLAJGK": true,
                "LIMPPBIAKGL": false,
                "FNEGLPPEBBF": true,
                "FNDLJGEAMGI": ""
            },
            {
                "$type": "CJKIHIFAALJ",
                "type": "LOOK_AT_EYECTRL",
                "delayTime": 2.760999917984009,
                "aliasList": [
                    "AvatarNpc"
                ],
                "actionId": 277,
                "flag": 4672,
                "useTargetPos": false,
                "BJMEKPDGMPA": 0.20000000298023224,
                "OMCCMPHDLOO": "",
                "OPPBKKOPIOB": "Face"
            },
            {
                "$type": "OPCCDGPJCJI",
                "type": "EMO_SYNC",
                "delayTime": 2.7850000858306885,
                "aliasList": [
                    "AvatarNpc"
                ],
                "actionId": 279,
                "flag": 256,
                "IONNJBCBACJ": "",
                "HLEJKBCMNNJ": "Cs_Emo_Avatar_Common/Cs_Emo_Avatar_Normal01",
                "JGHLJJLNGPP": "Cs_Emo_Avatar_Common/Cs_Emo_Avatar_Gentle01_B",
                "MANNKIIBOFM": "",
                "COMNAAFDEDH": "",
                "CPGCCLNOCDK": "",
                "MFABDGAFKII": [
                    9445916536337636767,
                    14128686126614747219,
                    10779105391569104182,
                    11659242061757756269
                ],
                "IPAGHAALIII": [
                    16844822647509768515,
                    15752628326139830226,
                    2563814041844724990,
                    6511930563219247368
                ]
            },
            {
                "$type": "EAMBKPBOPIC",
                "type": "LOOK_AT",
                "delayTime": 2.809999942779541,
                "aliasList": [
                    "AvatarNpc"
                ],
                "actionId": 276,
                "flag": 64,
                "FIDJDPAIFDN": true,
                "BCHGCKLKNEH": 0.5,
                "OMCCMPHDLOO": "1075",
                "EOHIIHMKDJC": true,
                "NALDAIJKCML": 10.0,
                "KPCALFDIHMC": "",
                "DBLNLMOPEBP": ""
            },
            {
                "$type": "ILCGAGEGDJI",
                "type": "BODY_LANG",
                "delayTime": 3.1989998817443848,
                "aliasList": [
                    "1005"
                ],
                "actionId": 284,
                "JLABKFNJCNP": true,
                "PMJAMGLAJGK": true,
                "LIMPPBIAKGL": false,
                "FNEGLPPEBBF": true,
                "FNDLJGEAMGI": ""
            },
            {
                "$type": "ILCGAGEGDJI",
                "type": "BODY_LANG",
                "delayTime": 3.2209999561309814,
                "aliasList": [
                    "AvatarNpc"
                ],
                "actionId": 278,
                "FLBOOPHHFJP": 4030,
                "PMJAMGLAJGK": true,
                "LIMPPBIAKGL": false,
                "FNEGLPPEBBF": true,
                "FNDLJGEAMGI": ""
            }
        ],
        [
            {
                "$type": "MOOOKOKLLEI",
                "type": "CAMERA_MOVE",
                "duration": 0.5,
                "actionId": 144,
                "DOKGBCKOLJK": {
                    "x": 3467.912109375,
                    "y": 428.10101318359375,
                    "z": 4479.630859375
                },
                "HGKCPMDICGG": {
                    "x": 3468.83203125,
                    "y": 428.1510009765625,
                    "z": 4479.244140625
                },
                "AFODHELHCGB": 20.0,
                "MGMFMGNANHH": 6,
                "NDFGFJFGHKL": "EaseInOutCubic",
                "IBCBGNHCICN": {},
                "BNBBLLBEIDL": true,
                "HCPFCAHMGMO": false,
                "OMCCMPHDLOO": "",
                "FEFNBKOHPOG": true,
                "OCFGGGHIKOO": "",
                "LJFHGGJDPHH": "",
                "LPKDFKLNEHL": ""
            },
            {
                "$type": "OPCCDGPJCJI",
                "type": "EMO_SYNC",
                "aliasList": [
                    "AvatarNpc"
                ],
                "actionId": 192,
                "flag": 320,
                "IONNJBCBACJ": "",
                "HLEJKBCMNNJ": "Cs_Emo_Avatar_Common/Cs_Emo_Avatar_Normal01",
                "JGHLJJLNGPP": "Cs_Emo_Avatar_Common/Cs_Emo_Avatar_Normal01_B",
                "MANNKIIBOFM": "",
                "COMNAAFDEDH": "",
                "CPGCCLNOCDK": "",
                "MFABDGAFKII": [
                    9445916536337636767,
                    14128686126614747219,
                    10779105391569104182,
                    11659242061757756269
                ],
                "IPAGHAALIII": [
                    12958401574658666588,
                    15474241282904027449,
                    9323653209111416134,
                    8508374650737503979
                ]
            },
            {
                "$type": "EAMBKPBOPIC",
                "type": "LOOK_AT",
                "aliasList": [
                    "AvatarNpc"
                ],
                "actionId": 193,
                "flag": 64,
                "FIDJDPAIFDN": true,
                "BCHGCKLKNEH": 0.5,
                "OMCCMPHDLOO": "1075",
                "EOHIIHMKDJC": true,
                "NALDAIJKCML": 10.0,
                "KPCALFDIHMC": "",
                "DBLNLMOPEBP": ""
            },
            {
                "$type": "CJKIHIFAALJ",
                "type": "LOOK_AT_EYECTRL",
                "aliasList": [
                    "AvatarNpc"
                ],
                "actionId": 194,
                "flag": 4672,
                "useTargetPos": false,
                "BJMEKPDGMPA": 0.20000000298023224,
                "OMCCMPHDLOO": "",
                "OPPBKKOPIOB": "Face"
            },
            {
                "$type": "DLPFECMKEKH",
                "type": "DIALOG",
                "aliasList": [
                    "1075"
                ],
                "actionId": 116,
                "NMKEDPFEKBH": 140150907,
                "JLCHMAJCAPA": 0.5
            },
            {
                "$type": "OPCCDGPJCJI",
                "type": "EMO_SYNC",
                "aliasList": [
                    "1075"
                ],
                "actionId": 213,
                "flag": 320,
                "IONNJBCBACJ": "Cs_Emo_Avatar_Simple_Common_Set/Cs_Emo_Avatar_Talk/Cs_Emo_Avatar_PersonalLine/Cs_Emo_Avatar_Navia/Cs_Emo_140150907",
                "HLEJKBCMNNJ": "",
                "JGHLJJLNGPP": "",
                "MANNKIIBOFM": "",
                "COMNAAFDEDH": "",
                "CPGCCLNOCDK": "",
                "IGEFGCJKCPM": [
                    13300815252186780167,
                    10259252658133268175,
                    13033037766426569151,
                    6302513954354954981
                ]
            },
            {
                "$type": "MoleMole.Config.ConfigTeleportToAction",
                "type": "TELEPORT_TO",
                "aliasList": [
                    "1075"
                ],
                "actionId": 295,
                "position": {
                    "x": 3468.89892578125,
                    "y": 426.62298583984375,
                    "z": 4479.205078125
                },
                "forward": {
                    "x": -0.45100000500679016,
                    "z": 0.8920000195503235
                },
                "openLongDisTeleport": true,
                "syncForward": true,
                "posBindMovingTargetKey": "",
                "forwardBindMovingTargetKey": ""
            },
            {
                "$type": "ILCGAGEGDJI",
                "type": "BODY_LANG",
                "aliasList": [
                    "1005"
                ],
                "actionId": 191,
                "JLABKFNJCNP": true,
                "PMJAMGLAJGK": true,
                "LIMPPBIAKGL": false,
                "FNEGLPPEBBF": true,
                "FNDLJGEAMGI": ""
            },
            {
                "$type": "MOOOKOKLLEI",
                "type": "CAMERA_MOVE",
                "delayTime": 0.10000000149011612,
                "duration": 5.0,
                "actionId": 145,
                "DOKGBCKOLJK": {
                    "x": 3468.010986328125,
                    "y": 428.10699462890625,
                    "z": 4479.5888671875
                },
                "HGKCPMDICGG": {
                    "x": 3468.931884765625,
                    "y": 428.1570129394531,
                    "z": 4479.2021484375
                },
                "AFODHELHCGB": 20.0,
                "NDFGFJFGHKL": "EaseOutQuad",
                "IBCBGNHCICN": {},
                "BNBBLLBEIDL": true,
                "HCPFCAHMGMO": false,
                "OMCCMPHDLOO": "",
                "FEFNBKOHPOG": true,
                "OCFGGGHIKOO": "",
                "LJFHGGJDPHH": "",
                "LPKDFKLNEHL": ""
            },
            {
                "$type": "ILCGAGEGDJI",
                "type": "BODY_LANG",
                "delayTime": 1.1169999837875366,
                "aliasList": [
                    "1075"
                ],
                "actionId": 203,
                "FLBOOPHHFJP": 4030,
                "PMJAMGLAJGK": true,
                "LIMPPBIAKGL": false,
                "FNEGLPPEBBF": true,
                "FNDLJGEAMGI": ""
            },
            {
                "$type": "EAMBKPBOPIC",
                "type": "LOOK_AT",
                "delayTime": 3.48799991607666,
                "aliasList": [
                    "1075"
                ],
                "actionId": 205,
                "flag": 64,
                "FIDJDPAIFDN": true,
                "useTargetPos": true,
                "GFKIMGBGADJ": true,
                "GMKIJKADNHN": {
                    "x": 3468.652099609375,
                    "y": 428.0539855957031,
                    "z": 4479.51513671875
                },
                "BCHGCKLKNEH": 0.5,
                "OMCCMPHDLOO": "",
                "CEBMBGKJACI": "NONE",
                "EOHIIHMKDJC": true,
                "NALDAIJKCML": 10.0,
                "KPCALFDIHMC": "",
                "DBLNLMOPEBP": ""
            },
            {
                "$type": "CJKIHIFAALJ",
                "type": "LOOK_AT_EYECTRL",
                "delayTime": 3.5160000324249268,
                "aliasList": [
                    "1075"
                ],
                "actionId": 206,
                "flag": 4672,
                "useTargetPos": false,
                "KOPLMCFNFEH": {
                    "x": 1.0
                },
                "DONDAIFPGMK": {
                    "x": 1.0
                },
                "BJMEKPDGMPA": 0.03999999910593033,
                "OMCCMPHDLOO": "",
                "OPPBKKOPIOB": "Face"
            },
            {
                "$type": "ILCGAGEGDJI",
                "type": "BODY_LANG",
                "delayTime": 3.5260000228881836,
                "aliasList": [
                    "1075"
                ],
                "actionId": 204,
                "FLBOOPHHFJP": 1190,
                "PMJAMGLAJGK": true,
                "LIMPPBIAKGL": false,
                "FNEGLPPEBBF": true,
                "FNDLJGEAMGI": ""
            },
            {
                "$type": "CJKIHIFAALJ",
                "type": "LOOK_AT_EYECTRL",
                "delayTime": 4.066999912261963,
                "aliasList": [
                    "1075"
                ],
                "actionId": 207,
                "flag": 4672,
                "useTargetPos": false,
                "KOPLMCFNFEH": {
                    "x": 2.0
                },
                "DONDAIFPGMK": {
                    "x": 2.0
                },
                "BJMEKPDGMPA": 0.03999999910593033,
                "OMCCMPHDLOO": "",
                "OPPBKKOPIOB": "Face"
            },
            {
                "$type": "CJKIHIFAALJ",
                "type": "LOOK_AT_EYECTRL",
                "delayTime": 5.185999870300293,
                "aliasList": [
                    "1075"
                ],
                "actionId": 208,
                "flag": 4672,
                "useTargetPos": false,
                "KOPLMCFNFEH": {
                    "x": 2.5,
                    "z": 1.0
                },
                "DONDAIFPGMK": {
                    "x": 2.5,
                    "z": 1.0
                },
                "BJMEKPDGMPA": 0.03999999910593033,
                "OMCCMPHDLOO": "",
                "OPPBKKOPIOB": "Face"
            }
        ],
        [
            {
                "$type": "MoleMole.Config.ConfigTimeProtectAction",
                "type": "TIME_PROTECT",
                "duration": 0.10000000149011612,
                "actionId": 105
            },
            {
                "$type": "ILCGAGEGDJI",
                "type": "BODY_LANG",
                "delayTime": 0.6000000238418579,
                "aliasList": [
                    "AvatarNpc"
                ],
                "actionId": 127,
                "JLABKFNJCNP": true,
                "PMJAMGLAJGK": true,
                "LIMPPBIAKGL": false,
                "FNDLJGEAMGI": ""
            },
            {
                "$type": "ILCGAGEGDJI",
                "type": "BODY_LANG",
                "delayTime": 0.6000000238418579,
                "aliasList": [
                    "1075"
                ],
                "actionId": 118,
                "JLABKFNJCNP": true,
                "PMJAMGLAJGK": true,
                "LIMPPBIAKGL": false,
                "FNDLJGEAMGI": ""
            },
            {
                "$type": "ILCGAGEGDJI",
                "type": "BODY_LANG",
                "delayTime": 0.6000000238418579,
                "aliasList": [
                    "1005"
                ],
                "actionId": 120,
                "JLABKFNJCNP": true,
                "PMJAMGLAJGK": true,
                "LIMPPBIAKGL": false,
                "FNDLJGEAMGI": ""
            }
        ]
    ],
    "groupId": [
        {
            "grpId": 2350252287,
            "nextGrpId": 2350252288
        },
        {
            "index": 1,
            "grpId": 2350252288,
            "nextGrpId": 2350252289
        },
        {
            "index": 2,
            "grpId": 2350252289,
            "nextGrpId": 2350252290
        },
        {
            "index": 3,
            "grpId": 2350252290,
            "nextGrpId": 2350252291
        },
        {
            "index": 4,
            "grpId": 2350252291,
            "nextGrpId": 2350252292
        },
        {
            "index": 5,
            "grpId": 2350252292,
            "nextGrpId": 2350252293
        },
        {
            "index": 6,
            "grpId": 2350252293,
            "nextGrpId": 2350252294
        }
    ],
    "freeStyleDic": {
        "1025": [
            1172,
            4030
        ],
        "1026": [
            1172,
            4030
        ],
        "1075": [
            1200,
            1230,
            1231,
            4030,
            1190
        ]
    },
    "NKMHEOFLONH": {
        "AvatarNpc": [
            "SitChat01AS",
            "SitHoldArm01AS",
            "SitShrug01AS",
            "SitThink01AS"
        ],
        "1075": [
            "SitChat01AS",
            "SitHoldArm01AS",
            "SitPutArm01AS",
            "SitShrug01AS",
            "SitThink01AS",
            "SitWrite01AS"
        ]
    },
    "EEPECPFCFCB": {
        "NBMCAFGDPDO": "",
        "GLCHGCDCFFF": ""
    }
}