{
    "npcId": 1439,
    "talks": [
        {
            "id": 6143901,
            "beginWay": "TALK_BEGIN_MANUAL",
            "priority": 3,
            "nextTalks": [
                6143905,
                6143908,
                6143906,
                6143907
            ],
            "initDialog": 4015143901,
            "npcId": [
                1439
            ],
            "performCfg": "",
            "assetIndex": 18376173227919728213,
            "prePerformCfg": "",
            "freeStyleList": [
                9000
            ]
        },
        {
            "id": 6143902,
            "beginWay": "TALK_BEGIN_MANUAL",
            "beginCond": [
                {
                    "type": "QUEST_COND_STATE_EQUAL",
                    "param": [
                        "35901",
                        "2"
                    ]
                }
            ],
            "priority": 4,
            "initDialog": 614390201,
            "npcId": [
                1439
            ],
            "performCfg": "",
            "assetIndex": 11438780313439812186,
            "prePerformCfg": ""
        },
        {
            "id": 6143903,
            "beginWay": "TALK_BEGIN_MANUAL",
            "beginCond": [
                {
                    "type": "QUEST_COND_STATE_EQUAL",
                    "param": [
                        "35901",
                        "2"
                    ]
                }
            ],
            "priority": 4,
            "initDialog": 614390301,
            "npcId": [
                1439
            ],
            "performCfg": "",
            "assetIndex": 15375943010541344150,
            "prePerformCfg": ""
        },
        {
            "id": 6143904,
            "beginWay": "TALK_BEGIN_MANUAL",
            "beginCond": [
                {
                    "type": "QUEST_COND_STATE_EQUAL",
                    "param": [
                        "35901",
                        "2"
                    ]
                }
            ],
            "priority": 4,
            "initDialog": 614390401,
            "npcId": [
                1439
            ],
            "performCfg": "",
            "assetIndex": 8743329518122432330,
            "prePerformCfg": ""
        },
        {
            "id": 6143905,
            "beginWay": "TALK_BEGIN_MANUAL",
            "beginCond": [
                {
                    "type": "QUEST_COND_STATE_EQUAL",
                    "param": [
                        "39403",
                        "3"
                    ]
                }
            ],
            "priority": 1,
            "initDialog": 614390501,
            "npcId": [
                1439
            ],
            "performCfg": "",
            "assetIndex": 5916508092487672381,
            "prePerformCfg": ""
        },
        {
            "id": 6143906,
            "beginWay": "TALK_BEGIN_MANUAL",
            "priority": 1,
            "initDialog": 4015143902,
            "npcId": [
                1439
            ],
            "performCfg": "",
            "assetIndex": 16428634373229668384,
            "prePerformCfg": ""
        },
        {
            "id": 6143907,
            "beginWay": "TALK_BEGIN_MANUAL",
            "priority": 1,
            "initDialog": 4015143905,
            "npcId": [
                1439
            ],
            "performCfg": "",
            "assetIndex": 7475970834318974658,
            "prePerformCfg": ""
        },
        {
            "id": 6143908,
            "beginWay": "TALK_BEGIN_MANUAL",
            "beginCond": [
                {
                    "type": "QUEST_COND_STATE_EQUAL",
                    "param": [
                        "1012009",
                        "3"
                    ]
                }
            ],
            "priority": 1,
            "nextTalks": [
                6143909
            ],
            "initDialog": 614390801,
            "npcId": [
                1439
            ],
            "performCfg": "",
            "assetIndex": 18056101419866592831,
            "prePerformCfg": ""
        },
        {
            "id": 6143909,
            "beginWay": "TALK_BEGIN_MANUAL",
            "beginCond": [
                {
                    "type": "QUEST_COND_STATE_EQUAL",
                    "param": [
                        "1012009",
                        "3"
                    ]
                }
            ],
            "priority": 1,
            "initDialog": 614390901,
            "npcId": [
                1439
            ],
            "performCfg": "",
            "assetIndex": 12465214458151298871,
            "prePerformCfg": ""
        }
    ]
}