{
    "npcId": 1537,
    "talks": [
        {
            "id": 4111530,
            "beginWay": "TALK_BEGIN_MANUAL",
            "activeMode": "PLAY_MODE_ALL",
            "beginCondComb": "LOGIC_AND",
            "beginCond": [
                {
                    "type": "QUEST_COND_ACTIVITY_CLIENT_COND",
                    "param": [
                        "2001",
                        "2001001",
                        "1"
                    ]
                },
                {
                    "type": "QUEST_COND_IS_DAYTIME",
                    "param": [
                        "1"
                    ]
                }
            ],
            "priority": 4,
            "nextTalks": [
                2006101,
                2006104,
                2006105,
                2006109,
                2006110,
                2006113,
                8153701,
                6153710,
                6153702,
                6153703,
                6153704
            ],
            "initDialog": 411153001,
            "npcId": [
                1537
            ],
            "performCfg": "",
            "assetIndex": 17313580461815224327,
            "prePerformCfg": ""
        },
        {
            "id": 4111531,
            "beginWay": "TALK_BEGIN_MANUAL",
            "activeMode": "PLAY_MODE_ALL",
            "beginCondComb": "LOGIC_AND",
            "beginCond": [
                {
                    "type": "QUEST_COND_ACTIVITY_CLIENT_COND",
                    "param": [
                        "2001",
                        "2001001",
                        "1"
                    ]
                },
                {
                    "type": "QUEST_COND_IS_DAYTIME",
                    "param": [
                        "0"
                    ]
                }
            ],
            "priority": 4,
            "nextTalks": [
                2006101,
                2006104,
                2006105,
                2006109,
                2006110,
                2006113,
                8153705,
                6153710,
                6153706,
                6153707,
                6153709
            ],
            "initDialog": 411153101,
            "npcId": [
                1537
            ],
            "performCfg": "",
            "assetIndex": 17638604328612920729,
            "prePerformCfg": ""
        },
        {
            "id": 7091901,
            "beginWay": "TALK_BEGIN_MANUAL",
            "beginCondComb": "LOGIC_OR",
            "beginCond": [
                {
                    "type": "QUEST_COND_QUEST_NOT_RECEIVE",
                    "param": [
                        "7091901",
                        "1"
                    ]
                }
            ],
            "priority": 1,
            "initDialog": 709190101,
            "npcId": [
                1537
            ],
            "performCfg": "",
            "assetIndex": 6309360773293924105,
            "dontBlockDaily": true,
            "prePerformCfg": ""
        },
        {
            "id": 6153701,
            "beginWay": "TALK_BEGIN_MANUAL",
            "beginCond": [
                {
                    "type": "QUEST_COND_IS_DAYTIME",
                    "param": [
                        "1"
                    ]
                }
            ],
            "priority": 3,
            "nextTalks": [
                2006101,
                2006104,
                2006105,
                2006109,
                2006110,
                2006113,
                8153701,
                6153710,
                6153702,
                6153703,
                6153704
            ],
            "initDialog": 615370101,
            "npcId": [
                1537
            ],
            "performCfg": "",
            "assetIndex": 14282677613904594401,
            "prePerformCfg": "",
            "freeStyleList": [
                9000
            ]
        },
        {
            "id": 6153702,
            "beginWay": "TALK_BEGIN_MANUAL",
            "beginCond": [
                {
                    "type": "QUEST_COND_IS_DAYTIME",
                    "param": [
                        "1"
                    ]
                }
            ],
            "priority": 1,
            "initDialog": 615370201,
            "npcId": [
                1537
            ],
            "performCfg": "",
            "assetIndex": 14234457024972729643,
            "prePerformCfg": ""
        },
        {
            "id": 6153703,
            "beginWay": "TALK_BEGIN_MANUAL",
            "beginCond": [
                {
                    "type": "QUEST_COND_IS_DAYTIME",
                    "param": [
                        "1"
                    ]
                }
            ],
            "priority": 1,
            "initDialog": 615370301,
            "npcId": [
                1537
            ],
            "performCfg": "",
            "assetIndex": 18077511988850415051,
            "prePerformCfg": ""
        },
        {
            "id": 6153704,
            "beginWay": "TALK_BEGIN_MANUAL",
            "beginCond": [
                {
                    "type": "QUEST_COND_IS_DAYTIME",
                    "param": [
                        "1"
                    ]
                }
            ],
            "priority": 1,
            "initDialog": 615370401,
            "npcId": [
                1537
            ],
            "performCfg": "",
            "assetIndex": 17467629824165500881,
            "prePerformCfg": ""
        },
        {
            "id": 6153705,
            "beginWay": "TALK_BEGIN_MANUAL",
            "beginCond": [
                {
                    "type": "QUEST_COND_IS_DAYTIME",
                    "param": [
                        "0"
                    ]
                }
            ],
            "priority": 3,
            "nextTalks": [
                2006101,
                2006104,
                2006105,
                2006109,
                2006110,
                2006113,
                8153705,
                6153710,
                6153706,
                6153707,
                6153709
            ],
            "initDialog": 615370501,
            "npcId": [
                1537
            ],
            "performCfg": "",
            "assetIndex": 13411585920456648915,
            "prePerformCfg": ""
        },
        {
            "id": 6153706,
            "beginWay": "TALK_BEGIN_MANUAL",
            "beginCond": [
                {
                    "type": "QUEST_COND_IS_DAYTIME",
                    "param": [
                        "0"
                    ]
                }
            ],
            "priority": 1,
            "nextTalks": [
                7091901
            ],
            "initDialog": 615370601,
            "npcId": [
                1537
            ],
            "performCfg": "",
            "assetIndex": 5800481251319252180,
            "prePerformCfg": ""
        },
        {
            "id": 6153707,
            "beginWay": "TALK_BEGIN_MANUAL",
            "beginCond": [
                {
                    "type": "QUEST_COND_IS_DAYTIME",
                    "param": [
                        "0"
                    ]
                }
            ],
            "priority": 1,
            "initDialog": 615370701,
            "npcId": [
                1537
            ],
            "performCfg": "",
            "assetIndex": 9206339632696668802,
            "prePerformCfg": ""
        },
        {
            "id": 6153709,
            "beginWay": "TALK_BEGIN_MANUAL",
            "beginCond": [
                {
                    "type": "QUEST_COND_IS_DAYTIME",
                    "param": [
                        "0"
                    ]
                }
            ],
            "priority": 1,
            "initDialog": 615370901,
            "npcId": [
                1537
            ],
            "performCfg": "",
            "assetIndex": 18433955416022554688,
            "prePerformCfg": ""
        },
        {
            "id": 6153710,
            "beginWay": "TALK_BEGIN_MANUAL",
            "beginCond": [
                {
                    "type": "QUEST_COND_IS_DAYTIME",
                    "param": [
                        "1"
                    ]
                }
            ],
            "priority": 1,
            "initDialog": 615371001,
            "npcId": [
                1537
            ],
            "performCfg": "",
            "assetIndex": 15046090711366817502,
            "prePerformCfg": ""
        },
        {
            "id": 6153711,
            "beginWay": "TALK_BEGIN_MANUAL",
            "beginCondComb": "LOGIC_AND",
            "beginCond": [
                {
                    "type": "QUEST_COND_STATE_EQUAL",
                    "param": [
                        "1100519",
                        "3"
                    ]
                },
                {
                    "type": "QUEST_COND_IS_DAYTIME",
                    "param": [
                        "1"
                    ]
                }
            ],
            "priority": 4,
            "nextTalks": [
                2006101,
                2006104,
                2006105,
                2006109,
                2006110,
                2006113,
                8153701,
                6153710,
                6153712,
                6153703,
                6153704
            ],
            "initDialog": 615371101,
            "npcId": [
                1537
            ],
            "performCfg": "",
            "assetIndex": 14949443077102541426,
            "prePerformCfg": ""
        },
        {
            "id": 6153712,
            "beginWay": "TALK_BEGIN_MANUAL",
            "beginCondComb": "LOGIC_AND",
            "beginCond": [
                {
                    "type": "QUEST_COND_STATE_EQUAL",
                    "param": [
                        "1100519",
                        "3"
                    ]
                },
                {
                    "type": "QUEST_COND_IS_DAYTIME",
                    "param": [
                        "1"
                    ]
                }
            ],
            "priority": 1,
            "initDialog": 615371201,
            "npcId": [
                1537
            ],
            "performCfg": "",
            "assetIndex": 9935193139575672319,
            "prePerformCfg": ""
        },
        {
            "id": 6153713,
            "beginWay": "TALK_BEGIN_MANUAL",
            "beginCondComb": "LOGIC_AND",
            "beginCond": [
                {
                    "type": "QUEST_COND_STATE_EQUAL",
                    "param": [
                        "1100519",
                        "3"
                    ]
                },
                {
                    "type": "QUEST_COND_IS_DAYTIME",
                    "param": [
                        "0"
                    ]
                }
            ],
            "priority": 4,
            "nextTalks": [
                2006101,
                2006104,
                2006105,
                2006109,
                2006110,
                2006113,
                8153705,
                6153710,
                6153714,
                6153707,
                6153709
            ],
            "initDialog": 615371301,
            "npcId": [
                1537
            ],
            "performCfg": "",
            "assetIndex": 4762797154682758637,
            "prePerformCfg": ""
        },
        {
            "id": 6153714,
            "beginWay": "TALK_BEGIN_MANUAL",
            "beginCondComb": "LOGIC_AND",
            "beginCond": [
                {
                    "type": "QUEST_COND_STATE_EQUAL",
                    "param": [
                        "1100519",
                        "3"
                    ]
                },
                {
                    "type": "QUEST_COND_IS_DAYTIME",
                    "param": [
                        "0"
                    ]
                }
            ],
            "priority": 1,
            "initDialog": 615371401,
            "npcId": [
                1537
            ],
            "performCfg": "",
            "assetIndex": 5367861438027722527,
            "prePerformCfg": ""
        },
        {
            "id": 8153701,
            "beginWay": "TALK_BEGIN_MANUAL",
            "beginCond": [
                {
                    "type": "QUEST_COND_OPEN_STATE_EQUAL",
                    "param": [
                        "1404",
                        "1"
                    ]
                }
            ],
            "priority": 2,
            "nextTalks": [
                8153702,
                8153703,
                8153704,
                8153706,
                8153707,
                8153708,
                8153709,
                8153710,
                8153711
            ],
            "initDialog": 815370101,
            "npcId": [
                1537
            ],
            "performCfg": "",
            "assetIndex": 333085371482876682,
            "prePerformCfg": ""
        },
        {
            "id": 8153702,
            "beginWay": "TALK_BEGIN_MANUAL",
            "beginCond": [
                {
                    "type": "QUEST_COND_NOT_HAVE_BLOSSOM_TALK"
                }
            ],
            "priority": 1,
            "initDialog": 815370201,
            "npcId": [
                1537
            ],
            "performCfg": "",
            "assetIndex": 16192581751594310415,
            "prePerformCfg": ""
        },
        {
            "id": 8153705,
            "beginWay": "TALK_BEGIN_MANUAL",
            "beginCond": [
                {
                    "type": "QUEST_COND_OPEN_STATE_EQUAL",
                    "param": [
                        "1404",
                        "1"
                    ]
                }
            ],
            "priority": 1,
            "initDialog": 815370501,
            "npcId": [
                1537
            ],
            "performCfg": "",
            "assetIndex": 3496084508053235353,
            "prePerformCfg": ""
        }
    ]
}