{
    "npcId": 1654,
    "talks": [
        {
            "id": 6165401,
            "beginWay": "TALK_BEGIN_MANUAL",
            "priority": 3,
            "nextTalks": [
                6165402,
                6165403,
                6165404
            ],
            "initDialog": 616540101,
            "npcId": [
                1654
            ],
            "performCfg": "",
            "assetIndex": 16441030910455291989,
            "prePerformCfg": "",
            "freeStyleList": [
                9000
            ]
        },
        {
            "id": 6165402,
            "beginWay": "TALK_BEGIN_MANUAL",
            "priority": 1,
            "initDialog": 616540201,
            "npcId": [
                1654
            ],
            "performCfg": "",
            "assetIndex": 8138582216990721061,
            "prePerformCfg": ""
        },
        {
            "id": 6165403,
            "beginWay": "TALK_BEGIN_MANUAL",
            "priority": 1,
            "initDialog": 616540301,
            "npcId": [
                1654
            ],
            "performCfg": "",
            "assetIndex": 15160914212231855390,
            "prePerformCfg": ""
        },
        {
            "id": 6165404,
            "beginWay": "TALK_BEGIN_MANUAL",
            "priority": 1,
            "initDialog": 616540401,
            "npcId": [
                1654
            ],
            "performCfg": "",
            "assetIndex": 7737625148788272145,
            "prePerformCfg": ""
        }
    ]
}