{
    "npcId": 2062,
    "talks": [
        {
            "id": 6206201,
            "beginWay": "TALK_BEGIN_MANUAL",
            "priority": 3,
            "initDialog": 620620101,
            "npcId": [
                2062
            ],
            "performCfg": "",
            "assetIndex": 5842204323771929377,
            "prePerformCfg": "",
            "freeStyleList": [
                9000
            ]
        }
    ]
}