{
    "npcId": 21137,
    "talks": [
        {
            "id": 7410429,
            "beginWay": "TALK_BEGIN_MANUAL",
            "activeMode": "PLAY_MODE_HOST",
            "beginCond": [
                {
                    "type": "QUEST_COND_STATE_EQUAL",
                    "param": [
                        "99902",
                        "3"
                    ]
                }
            ],
            "initDialog": 741042901,
            "npcId": [
                21137
            ],
            "performCfg": "",
            "heroTalk": "TALK_HERO_MAIN",
            "assetIndex": 1708643092962842583,
            "prePerformCfg": ""
        },
        {
            "id": 7410431,
            "beginWay": "TALK_BEGIN_MANUAL",
            "activeMode": "PLAY_MODE_HOST",
            "beginCond": [
                {
                    "type": "QUEST_COND_STATE_EQUAL",
                    "param": [
                        "99902",
                        "3"
                    ]
                }
            ],
            "initDialog": 741043101,
            "npcId": [
                21137
            ],
            "performCfg": "",
            "assetIndex": 15265381122031052753,
            "prePerformCfg": ""
        }
    ]
}