{
    "npcId": 21156,
    "talks": [
        {
            "id": 7410609,
            "beginWay": "TALK_BEGIN_MANUAL",
            "activeMode": "PLAY_MODE_ALL",
            "priority": 5,
            "npcId": [
                21156
            ],
            "performCfg": "QuestDialogue/WQ/Fontaine_74106/Q7410609",
            "assetIndex": 17676976311341014842,
            "prePerformCfg": ""
        }
    ]
}