{
    "npcId": 21253,
    "talks": [
        {
            "id": 7415501,
            "beginWay": "TALK_BEGIN_MANUAL",
            "beginCond": [
                {
                    "type": "QUEST_COND_STATE_EQUAL",
                    "param": [
                        "7415407",
                        "3"
                    ]
                }
            ],
            "priority": 8,
            "initDialog": 741550101,
            "npcId": [
                21253
            ],
            "performCfg": "",
            "assetIndex": 2929343545592103312,
            "prePerformCfg": ""
        }
    ]
}