{
    "npcId": 2334,
    "talks": [
        {
            "id": 6233401,
            "beginWay": "TALK_BEGIN_MANUAL",
            "activeMode": "PLAY_MODE_HOST",
            "priority": 5,
            "initDialog": 623340101,
            "npcId": [
                2334
            ],
            "performCfg": "",
            "assetIndex": 14527537931128679388,
            "prePerformCfg": ""
        }
    ]
}