{
    "npcId": 2517,
    "talks": [
        {
            "id": 6251701,
            "beginWay": "TALK_BEGIN_MANUAL",
            "priority": 3,
            "nextTalks": [
                6251702,
                6251703
            ],
            "initDialog": 625170101,
            "npcId": [
                2517
            ],
            "performCfg": "",
            "assetIndex": 7793725257743098018,
            "prePerformCfg": "",
            "freeStyleList": [
                1171,
                1172,
                1173
            ]
        },
        {
            "id": 6251702,
            "priority": 1,
            "nextTalks": [
                6251705,
                6251704
            ],
            "initDialog": 625170201,
            "npcId": [
                2517
            ],
            "performCfg": "",
            "assetIndex": 9897185977724154589,
            "prePerformCfg": "",
            "freeStyleList": [
                1171,
                1172,
                1173
            ]
        },
        {
            "id": 6251703,
            "priority": 1,
            "initDialog": 625170301,
            "npcId": [
                2517
            ],
            "performCfg": "",
            "assetIndex": 10542668739970401685,
            "prePerformCfg": "",
            "freeStyleList": [
                4030
            ]
        },
        {
            "id": 6251704,
            "priority": 1,
            "nextTalks": [
                6251706
            ],
            "initDialog": 625170401,
            "npcId": [
                2517
            ],
            "performCfg": "",
            "assetIndex": 5551895023153684333,
            "prePerformCfg": "",
            "freeStyleList": [
                1171,
                1172,
                1173
            ]
        },
        {
            "id": 6251705,
            "priority": 1,
            "initDialog": 625170501,
            "npcId": [
                2517
            ],
            "performCfg": "",
            "assetIndex": 12028986337068631926,
            "prePerformCfg": "",
            "freeStyleList": [
                1190,
                1171,
                1172,
                1173
            ]
        },
        {
            "id": 6251706,
            "priority": 1,
            "initDialog": 625170601,
            "npcId": [
                2517
            ],
            "performCfg": "",
            "assetIndex": 141961279943886845,
            "prePerformCfg": "",
            "freeStyleList": [
                4040,
                1171,
                1172,
                1173
            ]
        }
    ]
}