{
    "npcId": 3021,
    "talks": [
        {
            "id": 6302101,
            "beginWay": "TALK_BEGIN_MANUAL",
            "beginCond": [
                {
                    "type": "QUEST_COND_QUEST_GLOBAL_VAR_EQUAL",
                    "param": [
                        "12042",
                        "0"
                    ]
                }
            ],
            "priority": 3,
            "nextTalks": [
                6302102,
                6302103
            ],
            "initDialog": 630210101,
            "npcId": [
                3021
            ],
            "performCfg": "",
            "assetIndex": 11457634749284452880,
            "prePerformCfg": "",
            "freeStyleList": [
                9000
            ]
        },
        {
            "id": 6302102,
            "beginCond": [
                {
                    "type": "QUEST_COND_QUEST_GLOBAL_VAR_EQUAL",
                    "param": [
                        "12042",
                        "0"
                    ]
                }
            ],
            "priority": 1,
            "nextTalks": [
                6302104,
                6302105
            ],
            "initDialog": 630210201,
            "npcId": [
                3021
            ],
            "performCfg": "",
            "assetIndex": 7506813142595656254,
            "prePerformCfg": ""
        },
        {
            "id": 6302103,
            "beginCond": [
                {
                    "type": "QUEST_COND_QUEST_GLOBAL_VAR_EQUAL",
                    "param": [
                        "12042",
                        "0"
                    ]
                }
            ],
            "priority": 1,
            "initDialog": 630210301,
            "npcId": [
                3021
            ],
            "performCfg": "",
            "assetIndex": 11867397117329824162,
            "prePerformCfg": ""
        },
        {
            "id": 6302104,
            "beginCond": [
                {
                    "type": "QUEST_COND_QUEST_GLOBAL_VAR_EQUAL",
                    "param": [
                        "12042",
                        "0"
                    ]
                }
            ],
            "priority": 1,
            "nextTalks": [
                7291301
            ],
            "initDialog": 630210401,
            "npcId": [
                3021
            ],
            "performCfg": "",
            "assetIndex": 12020818241070323388,
            "prePerformCfg": ""
        },
        {
            "id": 6302105,
            "beginCond": [
                {
                    "type": "QUEST_COND_QUEST_GLOBAL_VAR_EQUAL",
                    "param": [
                        "12042",
                        "0"
                    ]
                }
            ],
            "priority": 1,
            "initDialog": 630210501,
            "npcId": [
                3021
            ],
            "performCfg": "",
            "assetIndex": 15598152242684697394,
            "prePerformCfg": ""
        },
        {
            "id": 6302106,
            "beginWay": "TALK_BEGIN_MANUAL",
            "beginCond": [
                {
                    "type": "QUEST_COND_QUEST_GLOBAL_VAR_EQUAL",
                    "param": [
                        "12042",
                        "1"
                    ]
                }
            ],
            "priority": 3,
            "nextTalks": [
                6302107,
                6302108
            ],
            "initDialog": 630210601,
            "npcId": [
                3021
            ],
            "performCfg": "",
            "assetIndex": 10226679133943565405,
            "prePerformCfg": ""
        },
        {
            "id": 6302107,
            "beginCond": [
                {
                    "type": "QUEST_COND_QUEST_GLOBAL_VAR_EQUAL",
                    "param": [
                        "12042",
                        "1"
                    ]
                }
            ],
            "priority": 1,
            "nextTalks": [
                6302109,
                6302110
            ],
            "initDialog": 630210701,
            "npcId": [
                3021
            ],
            "performCfg": "",
            "assetIndex": 17650497855344918896,
            "prePerformCfg": ""
        },
        {
            "id": 6302108,
            "beginCond": [
                {
                    "type": "QUEST_COND_QUEST_GLOBAL_VAR_EQUAL",
                    "param": [
                        "12042",
                        "1"
                    ]
                }
            ],
            "priority": 1,
            "initDialog": 630210801,
            "npcId": [
                3021
            ],
            "performCfg": "",
            "assetIndex": 16249623296103586410,
            "prePerformCfg": ""
        },
        {
            "id": 6302109,
            "beginCond": [
                {
                    "type": "QUEST_COND_QUEST_GLOBAL_VAR_EQUAL",
                    "param": [
                        "12042",
                        "1"
                    ]
                }
            ],
            "priority": 1,
            "nextTalks": [
                7291302
            ],
            "initDialog": 630210901,
            "npcId": [
                3021
            ],
            "performCfg": "",
            "assetIndex": 15665514973933857101,
            "prePerformCfg": ""
        },
        {
            "id": 6302110,
            "beginCond": [
                {
                    "type": "QUEST_COND_QUEST_GLOBAL_VAR_EQUAL",
                    "param": [
                        "12042",
                        "1"
                    ]
                }
            ],
            "priority": 1,
            "initDialog": 630211001,
            "npcId": [
                3021
            ],
            "performCfg": "",
            "assetIndex": 4501037262734466361,
            "prePerformCfg": ""
        },
        {
            "id": 7291301,
            "beginWay": "TALK_BEGIN_MANUAL",
            "beginCondComb": "LOGIC_AND",
            "beginCond": [
                {
                    "type": "QUEST_COND_QUEST_NOT_RECEIVE",
                    "param": [
                        "7291301",
                        "1"
                    ]
                },
                {
                    "type": "QUEST_COND_QUEST_GLOBAL_VAR_EQUAL",
                    "param": [
                        "12042",
                        "0"
                    ]
                }
            ],
            "priority": 1,
            "initDialog": 729130101,
            "npcId": [
                3021
            ],
            "performCfg": "",
            "assetIndex": 6724113641827145324,
            "dontBlockDaily": true,
            "prePerformCfg": ""
        },
        {
            "id": 7291302,
            "beginWay": "TALK_BEGIN_MANUAL",
            "beginCondComb": "LOGIC_AND",
            "beginCond": [
                {
                    "type": "QUEST_COND_QUEST_NOT_RECEIVE",
                    "param": [
                        "7291301",
                        "1"
                    ]
                },
                {
                    "type": "QUEST_COND_QUEST_GLOBAL_VAR_EQUAL",
                    "param": [
                        "12042",
                        "1"
                    ]
                }
            ],
            "priority": 2,
            "initDialog": 729130201,
            "npcId": [
                3021
            ],
            "performCfg": "",
            "assetIndex": 16513874114909842607,
            "dontBlockDaily": true,
            "prePerformCfg": ""
        }
    ]
}