{
    "npcId": 3024,
    "talks": [
        {
            "id": 6302401,
            "beginWay": "TALK_BEGIN_MANUAL",
            "priority": 3,
            "nextTalks": [
                6302402,
                6302406,
                6302404
            ],
            "initDialog": 630240101,
            "npcId": [
                3024
            ],
            "performCfg": "",
            "assetIndex": 965194831310920036,
            "prePerformCfg": "",
            "freeStyleList": [
                9000
            ]
        },
        {
            "id": 6302402,
            "beginCond": [
                {
                    "type": "QUEST_COND_QUEST_GLOBAL_VAR_EQUAL",
                    "param": [
                        "12042",
                        "0"
                    ]
                }
            ],
            "priority": 1,
            "nextTalks": [
                6302405,
                6302403
            ],
            "initDialog": 630240201,
            "npcId": [
                3024
            ],
            "performCfg": "",
            "assetIndex": 11345347532430679944,
            "prePerformCfg": ""
        },
        {
            "id": 6302403,
            "priority": 1,
            "initDialog": 630240301,
            "npcId": [
                3024
            ],
            "performCfg": "",
            "assetIndex": 12173296548097074786,
            "prePerformCfg": ""
        },
        {
            "id": 6302404,
            "priority": 1,
            "initDialog": 630240401,
            "npcId": [
                3024
            ],
            "performCfg": "",
            "assetIndex": 18371091885994187855,
            "prePerformCfg": ""
        },
        {
            "id": 6302405,
            "priority": 1,
            "initDialog": 630240501,
            "npcId": [
                3024
            ],
            "performCfg": "",
            "assetIndex": 13830205051626091752,
            "prePerformCfg": ""
        },
        {
            "id": 6302406,
            "beginCond": [
                {
                    "type": "QUEST_COND_QUEST_GLOBAL_VAR_EQUAL",
                    "param": [
                        "12042",
                        "1"
                    ]
                }
            ],
            "priority": 1,
            "nextTalks": [
                6302405,
                6302403
            ],
            "initDialog": 630240601,
            "npcId": [
                3024
            ],
            "performCfg": "",
            "assetIndex": 5495854335153244026,
            "prePerformCfg": ""
        }
    ]
}