{
    "npcId": 3134,
    "talks": [
        {
            "id": 6313401,
            "beginWay": "TALK_BEGIN_MANUAL",
            "priority": 3,
            "nextTalks": [
                6313402,
                6313403
            ],
            "initDialog": 631340101,
            "npcId": [
                3134
            ],
            "performCfg": "",
            "assetIndex": 3969769514758879631,
            "prePerformCfg": "",
            "freeStyleList": [
                9000
            ]
        },
        {
            "id": 6313402,
            "priority": 1,
            "nextTalks": [
                6313404
            ],
            "initDialog": 631340201,
            "npcId": [
                3134
            ],
            "performCfg": "",
            "assetIndex": 1515107172551444745,
            "prePerformCfg": ""
        },
        {
            "id": 6313403,
            "priority": 1,
            "initDialog": 631340301,
            "npcId": [
                3134
            ],
            "performCfg": "",
            "assetIndex": 4241101931190137336,
            "prePerformCfg": ""
        },
        {
            "id": 6313404,
            "priority": 1,
            "nextTalks": [
                7292801
            ],
            "initDialog": 631340401,
            "npcId": [
                3134
            ],
            "performCfg": "",
            "assetIndex": 6350338686544978047,
            "prePerformCfg": ""
        },
        {
            "id": 7292801,
            "beginWay": "TALK_BEGIN_MANUAL",
            "beginCond": [
                {
                    "type": "QUEST_COND_QUEST_NOT_RECEIVE",
                    "param": [
                        "7292801",
                        "1"
                    ]
                }
            ],
            "priority": 1,
            "initDialog": 729280101,
            "npcId": [
                3134
            ],
            "performCfg": "",
            "assetIndex": 10759721514628033544,
            "dontBlockDaily": true,
            "prePerformCfg": ""
        }
    ]
}