{
    "npcId": 3903,
    "talks": [
        {
            "id": 6390301,
            "beginWay": "TALK_BEGIN_MANUAL",
            "priority": 3,
            "nextTalks": [
                6390302,
                6390303,
                6390304
            ],
            "initDialog": 639030101,
            "npcId": [
                3903
            ],
            "performCfg": "",
            "assetIndex": 14531154300933980470,
            "prePerformCfg": ""
        },
        {
            "id": 6390302,
            "beginWay": "TALK_BEGIN_MANUAL",
            "priority": 1,
            "initDialog": 639030201,
            "npcId": [
                3903
            ],
            "performCfg": "",
            "assetIndex": 10743969917669068456,
            "prePerformCfg": "",
            "freeStyleList": [
                1171,
                1172,
                1173
            ]
        },
        {
            "id": 6390303,
            "beginWay": "TALK_BEGIN_MANUAL",
            "priority": 1,
            "initDialog": 639030301,
            "npcId": [
                3903
            ],
            "performCfg": "",
            "assetIndex": 17774489364980742822,
            "prePerformCfg": "",
            "freeStyleList": [
                1171,
                1172,
                1173
            ]
        },
        {
            "id": 6390304,
            "beginWay": "TALK_BEGIN_MANUAL",
            "priority": 1,
            "initDialog": 639030401,
            "npcId": [
                3903
            ],
            "performCfg": "",
            "assetIndex": 13678152448346152729,
            "prePerformCfg": ""
        }
    ]
}