{
    "npcId": 4006,
    "talks": [
        {
            "id": 6400601,
            "beginWay": "TALK_BEGIN_MANUAL",
            "priority": 3,
            "nextTalks": [
                6400602,
                6400603
            ],
            "initDialog": 640060101,
            "npcId": [
                4006
            ],
            "performCfg": "",
            "assetIndex": 15467160771609240290,
            "prePerformCfg": "",
            "freeStyleList": [
                9000
            ]
        },
        {
            "id": 6400602,
            "priority": 1,
            "initDialog": 640060201,
            "npcId": [
                4006
            ],
            "performCfg": "",
            "assetIndex": 12483447432667277086,
            "prePerformCfg": ""
        },
        {
            "id": 6400603,
            "priority": 1,
            "initDialog": 640060301,
            "npcId": [
                4006
            ],
            "performCfg": "",
            "assetIndex": 9874566500609671596,
            "prePerformCfg": ""
        }
    ]
}