{
    "npcId": 4084,
    "talks": [
        {
            "id": 6408305,
            "beginWay": "TALK_BEGIN_MANUAL",
            "beginCond": [
                {
                    "type": "QUEST_COND_IS_DAYTIME",
                    "param": [
                        "0"
                    ]
                }
            ],
            "priority": 3,
            "initDialog": 640830501,
            "npcId": [
                4083,
                4084
            ],
            "performCfg": "",
            "assetIndex": 7594577986002596847,
            "prePerformCfg": ""
        },
        {
            "id": 6408401,
            "beginWay": "TALK_BEGIN_MANUAL",
            "beginCond": [
                {
                    "type": "QUEST_COND_IS_DAYTIME",
                    "param": [
                        "1"
                    ]
                }
            ],
            "priority": 3,
            "nextTalks": [
                6408402,
                6408403
            ],
            "initDialog": 640840101,
            "npcId": [
                4084
            ],
            "performCfg": "",
            "assetIndex": 17370718679732927825,
            "prePerformCfg": "",
            "freeStyleList": [
                1240
            ]
        },
        {
            "id": 6408402,
            "beginCond": [
                {
                    "type": "QUEST_COND_IS_DAYTIME",
                    "param": [
                        "1"
                    ]
                }
            ],
            "priority": 1,
            "initDialog": 640840201,
            "npcId": [
                4084
            ],
            "performCfg": "",
            "assetIndex": 14184553873359886313,
            "prePerformCfg": "",
            "freeStyleList": [
                1171,
                1172,
                1173,
                1110,
                1190
            ]
        },
        {
            "id": 6408403,
            "beginCond": [
                {
                    "type": "QUEST_COND_IS_DAYTIME",
                    "param": [
                        "1"
                    ]
                }
            ],
            "priority": 1,
            "initDialog": 640840301,
            "npcId": [
                4084
            ],
            "performCfg": "",
            "assetIndex": 6291810193820747462,
            "prePerformCfg": ""
        }
    ]
}