{
    "npcId": 4178,
    "talks": [
        {
            "id": 6417801,
            "beginWay": "TALK_BEGIN_MANUAL",
            "priority": 3,
            "nextTalks": [
                6417802,
                6417803
            ],
            "initDialog": 641780101,
            "npcId": [
                4178
            ],
            "performCfg": "",
            "assetIndex": 14944077092624550701,
            "prePerformCfg": "",
            "freeStyleList": [
                9000
            ]
        },
        {
            "id": 6417802,
            "priority": 1,
            "nextTalks": [
                6417804
            ],
            "initDialog": 641780201,
            "npcId": [
                4178
            ],
            "performCfg": "",
            "assetIndex": 2218912651719518823,
            "prePerformCfg": ""
        },
        {
            "id": 6417803,
            "priority": 1,
            "initDialog": 641780301,
            "npcId": [
                4178
            ],
            "performCfg": "",
            "assetIndex": 18169273982935948738,
            "prePerformCfg": ""
        },
        {
            "id": 6417804,
            "priority": 1,
            "initDialog": 641780401,
            "npcId": [
                4178
            ],
            "performCfg": "",
            "assetIndex": 16970128650686710463,
            "prePerformCfg": ""
        }
    ]
}