{
    "npcId": 4369,
    "talks": [
        {
            "id": 6436901,
            "beginWay": "TALK_BEGIN_MANUAL",
            "priority": 3,
            "nextTalks": [
                6436902,
                6436903,
                6436904
            ],
            "initDialog": 643690101,
            "npcId": [
                4369
            ],
            "performCfg": "",
            "assetIndex": 14479993436196730329,
            "prePerformCfg": "",
            "freeStyleList": [
                9000
            ]
        },
        {
            "id": 6436902,
            "priority": 1,
            "initDialog": 643690201,
            "npcId": [
                4369
            ],
            "performCfg": "",
            "assetIndex": 13032390060204968537,
            "prePerformCfg": ""
        },
        {
            "id": 6436903,
            "priority": 1,
            "initDialog": 643690301,
            "npcId": [
                4369
            ],
            "performCfg": "",
            "assetIndex": 18016371124023957854,
            "prePerformCfg": ""
        },
        {
            "id": 6436904,
            "priority": 1,
            "initDialog": 643690401,
            "npcId": [
                4369
            ],
            "performCfg": "",
            "assetIndex": 13558225246690974906,
            "prePerformCfg": ""
        }
    ]
}