{
    "npcId": 4376,
    "talks": [
        {
            "id": 6437601,
            "beginWay": "TALK_BEGIN_MANUAL",
            "priority": 3,
            "nextTalks": [
                6437602,
                6437603
            ],
            "initDialog": 643760101,
            "npcId": [
                4376
            ],
            "performCfg": "",
            "assetIndex": 10234333700629774896,
            "prePerformCfg": "",
            "freeStyleList": [
                9000
            ]
        },
        {
            "id": 6437602,
            "priority": 1,
            "initDialog": 643760201,
            "npcId": [
                4376
            ],
            "performCfg": "",
            "assetIndex": 9444965289224268701,
            "prePerformCfg": ""
        },
        {
            "id": 6437603,
            "priority": 1,
            "initDialog": 643760301,
            "npcId": [
                4376
            ],
            "performCfg": "",
            "assetIndex": 8224695560463938362,
            "prePerformCfg": ""
        }
    ]
}