{
    "npcId": 4409,
    "talks": [
        {
            "id": 6440901,
            "beginWay": "TALK_BEGIN_MANUAL",
            "priority": 3,
            "nextTalks": [
                6440902,
                6440903
            ],
            "initDialog": 644090101,
            "npcId": [
                4409
            ],
            "performCfg": "",
            "assetIndex": 1793004324142037942,
            "prePerformCfg": "",
            "freeStyleList": [
                9000
            ]
        },
        {
            "id": 6440902,
            "priority": 1,
            "initDialog": 644090201,
            "npcId": [
                4409
            ],
            "performCfg": "",
            "assetIndex": 16986939538122845815,
            "prePerformCfg": ""
        },
        {
            "id": 6440903,
            "priority": 1,
            "initDialog": 644090301,
            "npcId": [
                4409
            ],
            "performCfg": "",
            "assetIndex": 1243879997906893575,
            "prePerformCfg": ""
        }
    ]
}