{
    "npcId": 4457,
    "talks": [
        {
            "id": 6445701,
            "beginWay": "TALK_BEGIN_MANUAL",
            "priority": 3,
            "nextTalks": [
                6445702,
                6445703
            ],
            "initDialog": 644570101,
            "npcId": [
                4457
            ],
            "performCfg": "",
            "assetIndex": 1407209960887119204,
            "prePerformCfg": "",
            "freeStyleList": [
                9000
            ]
        },
        {
            "id": 6445702,
            "priority": 1,
            "nextTalks": [
                6445704,
                6445705
            ],
            "initDialog": 644570201,
            "npcId": [
                4457
            ],
            "performCfg": "",
            "assetIndex": 1271611277685746144,
            "prePerformCfg": ""
        },
        {
            "id": 6445703,
            "priority": 1,
            "initDialog": 644570301,
            "npcId": [
                4457
            ],
            "performCfg": "",
            "assetIndex": 340169258770939828,
            "prePerformCfg": ""
        },
        {
            "id": 6445704,
            "priority": 1,
            "initDialog": 644570401,
            "npcId": [
                4457
            ],
            "performCfg": "",
            "assetIndex": 4267669661493080516,
            "prePerformCfg": ""
        },
        {
            "id": 6445705,
            "priority": 1,
            "initDialog": 644570501,
            "npcId": [
                4457
            ],
            "performCfg": "",
            "assetIndex": 11661350865180175133,
            "prePerformCfg": ""
        }
    ]
}