{
  "JDOFKFPHIDC": 5332,
  "PCNNNPLAEAI": [
    {
      "CCFPGAKINNB": 6533201,
      "CLHPPLIFPFJ": "TALK_BEGIN_MANUAL",
      "KPMDGJNJNJC": 5,
      "FMFFELFBBJN": 653320101,
      "JDOFKFPHIDC": [
        5332
      ],
      "GHHGNCCJOEJ": "",
      "NKIDPMJGEKA": 3688095453130511448,
      "BBMLHKKNIOJ": ""
    }
  ]
}