{
    "npcId": 5026,
    "talks": [
        {
            "id": 6502601,
            "beginWay": "TALK_BEGIN_MANUAL",
            "priority": 3,
            "nextTalks": [
                6502602,
                6502603,
                6502604,
                6502605
            ],
            "initDialog": 650260101,
            "npcId": [
                5026
            ],
            "performCfg": "",
            "assetIndex": 3360774900562525995,
            "prePerformCfg": "",
            "freeStyleList": [
                9000
            ]
        },
        {
            "id": 6502602,
            "priority": 1,
            "initDialog": 650260201,
            "npcId": [
                5026
            ],
            "performCfg": "",
            "assetIndex": 12046419389791680244,
            "prePerformCfg": ""
        },
        {
            "id": 6502603,
            "priority": 1,
            "initDialog": 650260301,
            "npcId": [
                5026
            ],
            "performCfg": "",
            "assetIndex": 4331086846020889780,
            "prePerformCfg": ""
        },
        {
            "id": 6502604,
            "priority": 1,
            "initDialog": 650260401,
            "npcId": [
                5026
            ],
            "performCfg": "",
            "assetIndex": 17968462499412152587,
            "prePerformCfg": ""
        },
        {
            "id": 6502605,
            "priority": 1,
            "initDialog": 650260501,
            "npcId": [
                5026
            ],
            "performCfg": "",
            "assetIndex": 17774439115804691506,
            "prePerformCfg": ""
        }
    ]
}