{
    "npcId": 5059,
    "talks": [
        {
            "id": 6505901,
            "beginWay": "TALK_BEGIN_MANUAL",
            "priority": 3,
            "initDialog": 650590101,
            "npcId": [
                5059,
                5058,
                5060
            ],
            "performCfg": "",
            "assetIndex": 1727861426695102509,
            "prePerformCfg": "",
            "stayFreeStyle": true
        }
    ]
}