{
    "npcId": 5104,
    "talks": [
        {
            "id": 6510401,
            "beginWay": "TALK_BEGIN_MANUAL",
            "priority": 3,
            "initDialog": 651040101,
            "npcId": [
                5104,
                5105
            ],
            "performCfg": "",
            "assetIndex": 17895323857709583900,
            "prePerformCfg": "",
            "stayFreeStyle": true
        },
        {
            "id": 6510402,
            "beginWay": "TALK_BEGIN_MANUAL",
            "beginCond": [
                {
                    "type": "QUEST_COND_QUEST_GLOBAL_VAR_EQUAL",
                    "param": [
                        "402401",
                        "1"
                    ]
                }
            ],
            "priority": 4,
            "initDialog": 651040201,
            "npcId": [
                5104,
                5105
            ],
            "performCfg": "",
            "assetIndex": 9682683479724377283,
            "prePerformCfg": "",
            "stayFreeStyle": true
        }
    ]
}