{
    "npcId": 5113,
    "talks": [
        {
            "id": 6511301,
            "beginWay": "TALK_BEGIN_MANUAL",
            "priority": 3,
            "nextTalks": [
                6511302,
                6511303,
                6511304
            ],
            "initDialog": 651130101,
            "npcId": [
                5113
            ],
            "performCfg": "",
            "assetIndex": 17300480106081637663,
            "prePerformCfg": ""
        },
        {
            "id": 6511302,
            "priority": 1,
            "initDialog": 651130201,
            "npcId": [
                5113
            ],
            "performCfg": "",
            "assetIndex": 14766515797642866656,
            "prePerformCfg": "",
            "freeStyleList": [
                4030,
                1030
            ]
        },
        {
            "id": 6511303,
            "priority": 1,
            "initDialog": 651130301,
            "npcId": [
                5113
            ],
            "performCfg": "",
            "assetIndex": 9823830049858850426,
            "prePerformCfg": "",
            "freeStyleList": [
                4030,
                1030,
                4040
            ]
        },
        {
            "id": 6511304,
            "priority": 1,
            "initDialog": 651130401,
            "npcId": [
                5113
            ],
            "performCfg": "",
            "assetIndex": 15667166690539095755,
            "prePerformCfg": "",
            "freeStyleList": [
                1120
            ]
        }
    ]
}