{
    "npcId": 5142,
    "talks": [
        {
            "id": 6514201,
            "beginWay": "TALK_BEGIN_MANUAL",
            "priority": 3,
            "nextTalks": [
                6514202,
                6514203
            ],
            "initDialog": 651420101,
            "npcId": [
                5142
            ],
            "performCfg": "",
            "assetIndex": 8706545639381248666,
            "prePerformCfg": ""
        },
        {
            "id": 6514202,
            "priority": 1,
            "nextTalks": [
                6514204
            ],
            "initDialog": 651420201,
            "npcId": [
                5142
            ],
            "performCfg": "",
            "assetIndex": 11443243863115121024,
            "prePerformCfg": "",
            "freeStyleList": [
                1171,
                1172,
                1173,
                1130
            ]
        },
        {
            "id": 6514203,
            "priority": 1,
            "initDialog": 651420301,
            "npcId": [
                5142
            ],
            "performCfg": "",
            "assetIndex": 10309960073020841582,
            "prePerformCfg": "",
            "freeStyleList": [
                1171,
                1172,
                1173
            ]
        },
        {
            "id": 6514204,
            "priority": 1,
            "initDialog": 651420401,
            "npcId": [
                5142
            ],
            "performCfg": "",
            "assetIndex": 12018983325822247026,
            "prePerformCfg": "",
            "freeStyleList": [
                4040,
                1240,
                1130
            ]
        }
    ]
}