{
    "npcId": 5168,
    "talks": [
        {
            "id": 7405711,
            "beginWay": "TALK_BEGIN_MANUAL",
            "activeMode": "PLAY_MODE_HOST",
            "npcId": [
                5168
            ],
            "performCfg": "QuestDialogue/WQ/Fontaine_74057/Q7405711",
            "assetIndex": 5554898868992311639,
            "prePerformCfg": ""
        }
    ]
}