{
    "npcId": 5219,
    "talks": [
        {
            "id": 6521901,
            "beginWay": "TALK_BEGIN_MANUAL",
            "priority": 3,
            "nextTalks": [
                6521902,
                6521903,
                6521904
            ],
            "initDialog": 652190101,
            "npcId": [
                5219
            ],
            "performCfg": "",
            "assetIndex": 2738636825826328523,
            "prePerformCfg": "",
            "freeStyleList": [
                9000
            ]
        },
        {
            "id": 6521902,
            "priority": 1,
            "nextTalks": [
                6521905,
                6521906
            ],
            "initDialog": 652190201,
            "npcId": [
                5219
            ],
            "performCfg": "",
            "assetIndex": 13175390298898383993,
            "prePerformCfg": ""
        },
        {
            "id": 6521903,
            "priority": 1,
            "initDialog": 652190301,
            "npcId": [
                5219
            ],
            "performCfg": "",
            "assetIndex": 117527278167754367,
            "prePerformCfg": ""
        },
        {
            "id": 6521904,
            "priority": 1,
            "initDialog": 652190401,
            "npcId": [
                5219
            ],
            "performCfg": "",
            "assetIndex": 1656715459052247576,
            "prePerformCfg": ""
        },
        {
            "id": 6521905,
            "priority": 1,
            "initDialog": 652190501,
            "npcId": [
                5219
            ],
            "performCfg": "",
            "assetIndex": 10120998002878774256,
            "prePerformCfg": ""
        },
        {
            "id": 6521906,
            "priority": 1,
            "initDialog": 652190601,
            "npcId": [
                5219
            ],
            "performCfg": "",
            "assetIndex": 2674753790158950676,
            "prePerformCfg": ""
        }
    ]
}