{
    "npcId": 5231,
    "talks": [
        {
            "id": 6523101,
            "beginWay": "TALK_BEGIN_MANUAL",
            "priority": 3,
            "nextTalks": [
                6523102,
                6523103,
                6523104,
                6523105,
                6523106
            ],
            "initDialog": 652310101,
            "npcId": [
                5231
            ],
            "performCfg": "",
            "assetIndex": 1312796069257030002,
            "prePerformCfg": "",
            "stayFreeStyle": true
        },
        {
            "id": 6523102,
            "priority": 1,
            "nextTalks": [
                6523107
            ],
            "initDialog": 652310201,
            "npcId": [
                5231
            ],
            "performCfg": "",
            "assetIndex": 2850118208833291483,
            "prePerformCfg": "",
            "freeStyleList": [
                4040,
                1130
            ]
        },
        {
            "id": 6523103,
            "beginCond": [
                {
                    "type": "QUEST_COND_STATE_EQUAL",
                    "param": [
                        "7414417",
                        "3"
                    ]
                }
            ],
            "priority": 1,
            "nextTalks": [
                6523108,
                6523109
            ],
            "initDialog": 652310301,
            "npcId": [
                5231
            ],
            "performCfg": "",
            "assetIndex": 4955316404825212740,
            "prePerformCfg": "",
            "freeStyleList": [
                4030,
                1190
            ]
        },
        {
            "id": 6523104,
            "beginCond": [
                {
                    "type": "QUEST_COND_QUEST_GLOBAL_VAR_EQUAL",
                    "param": [
                        "7415701",
                        "1"
                    ]
                }
            ],
            "priority": 1,
            "initDialog": 652310401,
            "npcId": [
                5231
            ],
            "performCfg": "",
            "assetIndex": 7466712059139642518,
            "prePerformCfg": "",
            "freeStyleList": [
                4040,
                1130
            ]
        },
        {
            "id": 6523105,
            "beginCond": [
                {
                    "type": "QUEST_COND_QUEST_GLOBAL_VAR_EQUAL",
                    "param": [
                        "7417801",
                        "1"
                    ]
                }
            ],
            "priority": 1,
            "initDialog": 652310501,
            "npcId": [
                5231
            ],
            "performCfg": "",
            "assetIndex": 7051456122787456695,
            "prePerformCfg": "",
            "freeStyleList": [
                1171,
                1172,
                1173,
                4030
            ]
        },
        {
            "id": 6523106,
            "priority": 1,
            "initDialog": 652310601,
            "npcId": [
                5231
            ],
            "performCfg": "",
            "assetIndex": 7468415500026287547,
            "prePerformCfg": "",
            "freeStyleList": [
                4030
            ]
        },
        {
            "id": 6523107,
            "priority": 1,
            "initDialog": 652310701,
            "npcId": [
                5231
            ],
            "performCfg": "",
            "assetIndex": 14898752325045376462,
            "prePerformCfg": "",
            "freeStyleList": [
                1230,
                4030
            ]
        },
        {
            "id": 6523108,
            "priority": 1,
            "initDialog": 652310801,
            "npcId": [
                5231
            ],
            "performCfg": "",
            "assetIndex": 8820993630079771955,
            "prePerformCfg": "",
            "freeStyleList": [
                4030,
                1230
            ]
        },
        {
            "id": 6523109,
            "priority": 1,
            "initDialog": 652310901,
            "npcId": [
                5231
            ],
            "performCfg": "",
            "assetIndex": 1182538066361287110,
            "prePerformCfg": "",
            "freeStyleList": [
                4030,
                1120,
                4040
            ]
        }
    ]
}