{
    "npcId": 5281,
    "talks": [
        {
            "id": 7410436,
            "beginWay": "TALK_BEGIN_MANUAL",
            "activeMode": "PLAY_MODE_HOST",
            "beginCond": [
                {
                    "type": "QUEST_COND_STATE_EQUAL",
                    "param": [
                        "7410432",
                        "2"
                    ]
                }
            ],
            "priority": 5,
            "initDialog": 741043601,
            "npcId": [
                5281
            ],
            "performCfg": "",
            "assetIndex": 11465308071746260946,
            "prePerformCfg": ""
        }
    ]
}