{
    "npcId": 9089,
    "talks": [
        {
            "id": 6908901,
            "beginWay": "TALK_BEGIN_MANUAL",
            "activeMode": "PLAY_MODE_HOST",
            "priority": 5,
            "nextTalks": [
                6908907,
                6908902,
                6908908,
                6908903,
                6908909,
                6908904,
                6908905,
                6908906
            ],
            "initDialog": 690890101,
            "npcId": [
                9089
            ],
            "performCfg": "QuestDialogue/HomeWorld/Furina_9089/Q6908901",
            "assetIndex": 11049646451371269625,
            "prePerformCfg": ""
        },
        {
            "id": 6908902,
            "activeMode": "PLAY_MODE_HOST",
            "beginCond": [
                {
                    "type": "QUEST_COND_HOMEWORLD_NPC_NEW_TALK",
                    "param": [
                        "9089",
                        "6908907",
                        "0"
                    ]
                }
            ],
            "priority": 5,
            "initDialog": 690890201,
            "npcId": [
                9089
            ],
            "performCfg": "QuestDialogue/HomeWorld/Furina_9089/Q6908902",
            "assetIndex": 13403028707847775971,
            "prePerformCfg": ""
        },
        {
            "id": 6908903,
            "activeMode": "PLAY_MODE_HOST",
            "beginCondComb": "LOGIC_AND",
            "beginCond": [
                {
                    "type": "QUEST_COND_AVATAR_FETTER_GT",
                    "param": [
                        "10000089",
                        "3"
                    ]
                },
                {
                    "type": "QUEST_COND_HOMEWORLD_NPC_NEW_TALK",
                    "param": [
                        "9089",
                        "6908908",
                        "0"
                    ]
                }
            ],
            "priority": 5,
            "initDialog": 690890301,
            "npcId": [
                9089
            ],
            "performCfg": "QuestDialogue/HomeWorld/Furina_9089/Q6908903",
            "assetIndex": 172652037866670840,
            "prePerformCfg": ""
        },
        {
            "id": 6908904,
            "activeMode": "PLAY_MODE_HOST",
            "beginCondComb": "LOGIC_AND",
            "beginCond": [
                {
                    "type": "QUEST_COND_AVATAR_FETTER_GT",
                    "param": [
                        "10000089",
                        "6"
                    ]
                },
                {
                    "type": "QUEST_COND_HOMEWORLD_NPC_NEW_TALK",
                    "param": [
                        "9089",
                        "6908909",
                        "0"
                    ]
                }
            ],
            "priority": 5,
            "initDialog": 690890401,
            "npcId": [
                9089
            ],
            "performCfg": "QuestDialogue/HomeWorld/Furina_9089/Q6908904",
            "assetIndex": 3453914895193378600,
            "prePerformCfg": ""
        },
        {
            "id": 6908905,
            "activeMode": "PLAY_MODE_HOST",
            "beginCond": [
                {
                    "type": "QUEST_COND_IS_DAYTIME",
                    "param": [
                        "1"
                    ]
                }
            ],
            "priority": 5,
            "initDialog": 690890501,
            "npcId": [
                9089
            ],
            "performCfg": "QuestDialogue/HomeWorld/Furina_9089/Q6908905",
            "assetIndex": 4834057980072735593,
            "prePerformCfg": ""
        },
        {
            "id": 6908906,
            "activeMode": "PLAY_MODE_HOST",
            "beginCond": [
                {
                    "type": "QUEST_COND_IS_DAYTIME",
                    "param": [
                        "0"
                    ]
                }
            ],
            "priority": 5,
            "initDialog": 690890601,
            "npcId": [
                9089
            ],
            "performCfg": "QuestDialogue/HomeWorld/Furina_9089/Q6908906",
            "assetIndex": 17973054411643099655,
            "prePerformCfg": ""
        },
        {
            "id": 6908907,
            "activeMode": "PLAY_MODE_HOST",
            "beginCond": [
                {
                    "type": "QUEST_COND_HOMEWORLD_NPC_NEW_TALK",
                    "param": [
                        "9089",
                        "6908907",
                        "1"
                    ]
                }
            ],
            "priority": 5,
            "initDialog": 690890201,
            "decoratorID": 3,
            "npcId": [
                9089
            ],
            "performCfg": "QuestDialogue/HomeWorld/Furina_9089/Q6908902",
            "assetIndex": 4762116511528352427,
            "prePerformCfg": ""
        },
        {
            "id": 6908908,
            "activeMode": "PLAY_MODE_HOST",
            "beginCondComb": "LOGIC_AND",
            "beginCond": [
                {
                    "type": "QUEST_COND_AVATAR_FETTER_GT",
                    "param": [
                        "10000089",
                        "3"
                    ]
                },
                {
                    "type": "QUEST_COND_HOMEWORLD_NPC_NEW_TALK",
                    "param": [
                        "9089",
                        "6908908",
                        "1"
                    ]
                }
            ],
            "priority": 5,
            "initDialog": 690890301,
            "decoratorID": 3,
            "npcId": [
                9089
            ],
            "performCfg": "QuestDialogue/HomeWorld/Furina_9089/Q6908903",
            "assetIndex": 1281449039494199565,
            "prePerformCfg": ""
        },
        {
            "id": 6908909,
            "activeMode": "PLAY_MODE_HOST",
            "beginCondComb": "LOGIC_AND",
            "beginCond": [
                {
                    "type": "QUEST_COND_AVATAR_FETTER_GT",
                    "param": [
                        "10000089",
                        "6"
                    ]
                },
                {
                    "type": "QUEST_COND_HOMEWORLD_NPC_NEW_TALK",
                    "param": [
                        "9089",
                        "6908909",
                        "1"
                    ]
                }
            ],
            "priority": 5,
            "initDialog": 690890401,
            "decoratorID": 3,
            "npcId": [
                9089
            ],
            "performCfg": "QuestDialogue/HomeWorld/Furina_9089/Q6908904",
            "assetIndex": 5247740204290480603,
            "prePerformCfg": ""
        },
        {
            "id": 6908910,
            "beginWay": "TALK_BEGIN_MANUAL",
            "activeMode": "PLAY_MODE_HOST",
            "beginCondComb": "LOGIC_OR",
            "beginCond": [
                {
                    "type": "QUEST_COND_HOMEWORLD_NPC_EVENT",
                    "param": [
                        "8301",
                        "1"
                    ]
                },
                {
                    "type": "QUEST_COND_HOMEWORLD_NPC_EVENT",
                    "param": [
                        "8311",
                        "1"
                    ]
                }
            ],
            "priority": 6,
            "initDialog": 690891001,
            "npcId": [
                9089
            ],
            "performCfg": "QuestDialogue/HomeWorld/Furina_9089/Q6908910",
            "assetIndex": 7796848407889797808,
            "prePerformCfg": ""
        },
        {
            "id": 6908911,
            "beginWay": "TALK_BEGIN_MANUAL",
            "activeMode": "PLAY_MODE_HOST",
            "beginCondComb": "LOGIC_OR",
            "beginCond": [
                {
                    "type": "QUEST_COND_HOMEWORLD_NPC_EVENT",
                    "param": [
                        "8302",
                        "1"
                    ]
                },
                {
                    "type": "QUEST_COND_HOMEWORLD_NPC_EVENT",
                    "param": [
                        "8312",
                        "1"
                    ]
                }
            ],
            "priority": 6,
            "initDialog": 690891101,
            "npcId": [
                9089
            ],
            "performCfg": "QuestDialogue/HomeWorld/Furina_9089/Q6908911",
            "assetIndex": 15267873994886135242,
            "prePerformCfg": ""
        }
    ]
}