{
    "luaDataPath": "",
    "startBlackKeepTime": 0.5,
    "entityBan": "",
    "disableNpcLod": true,
    "isAutoBanNpc": true,
    "isBanWidgetPet": true,
    "protectNpcMobileLod": true,
    "startFade": {
        "startFadeInDuration": 0.5,
        "startFadeOutDuration": 0.5
    },
    "endFade": {
        "startFadeOutDuration": 0.0
    },
    "actors": [
        {
            "alias": "Avatar",
            "visible": true,
            "bornPointName": "",
            "relativePosType": "AVATAR_NEW",
            "relativePosNpcAlias": "",
            "bindMovingTargetKey": ""
        },
        {
            "configID": 4198,
            "alias": "4198",
            "visible": true,
            "bornPointName": "Q7300103_N4198",
            "forceCreateDaily": true,
            "relativePosType": "AVATAR_NEW",
            "relativePosNpcAlias": "",
            "bindMovingTargetKey": ""
        },
        {
            "configID": 1005,
            "alias": "1005",
            "visible": true,
            "bornPointName": "",
            "removeActorType": "REMOVE_WITH_DISAPPEAR",
            "relativePosType": "AVATAR_NEW",
            "relativePosNpcAlias": "",
            "bindMovingTargetKey": ""
        }
    ],
    "group": [
        [
            {
                "$type": "MoleMole.Config.ConfigTimeProtectAction",
                "type": "TIME_PROTECT",
                "duration": 0.10000000149011612
            },
            {
                "$type": "MoleMole.Config.ConfigBlackScreenAction",
                "type": "BLACK_SCREEN",
                "actionId": 248,
                "blackScreenType": "KEEP_BLACK",
                "durationKeepBlack": 0.5,
                "inteePos": "",
                "textMapID": "",
                "useTextFade": true
            },
            {
                "$type": "MoleMole.Config.ConfigTeleportToAction",
                "type": "TELEPORT_TO",
                "aliasList": [
                    "Avatar"
                ],
                "actionId": 138,
                "position": {
                    "x": -914.7670288085938,
                    "y": 204.45799255371094,
                    "z": 2617.68896484375
                },
                "forward": {
                    "x": -2.9749999046325684,
                    "y": -0.041999999433755875,
                    "z": 1.187000036239624
                },
                "openLongDisTeleport": true,
                "posBindMovingTargetKey": "",
                "forwardBindMovingTargetKey": ""
            },
            {
                "$type": "EAMBKPBOPIC",
                "type": "LOOK_AT",
                "aliasList": [
                    "Avatar"
                ],
                "actionId": 239,
                "FIDJDPAIFDN": true,
                "useTargetPos": true,
                "GFKIMGBGADJ": true,
                "GMKIJKADNHN": {
                    "x": -917.2860107421875,
                    "y": 205.92799377441406,
                    "z": 2619.239013671875
                },
                "BCHGCKLKNEH": 0.4000000059604645,
                "OMCCMPHDLOO": "",
                "CEBMBGKJACI": "NONE",
                "EOHIIHMKDJC": true,
                "KPCALFDIHMC": "",
                "DBLNLMOPEBP": ""
            },
            {
                "$type": "MoleMole.Config.ConfigTeleportToAction",
                "type": "TELEPORT_TO",
                "aliasList": [
                    "4198"
                ],
                "actionId": 137,
                "position": {
                    "x": -914.5339965820312,
                    "y": 204.41099548339844,
                    "z": 2618.876953125
                },
                "forward": {
                    "x": -1.468999981880188,
                    "y": 0.004999999888241291,
                    "z": 0.2160000056028366
                },
                "openLongDisTeleport": true,
                "posBindMovingTargetKey": "",
                "forwardBindMovingTargetKey": ""
            },
            {
                "$type": "CJKIHIFAALJ",
                "type": "LOOK_AT_EYECTRL",
                "aliasList": [
                    "4198"
                ],
                "actionId": 149,
                "useTargetPos": false,
                "KOPLMCFNFEH": {
                    "z": 2.0
                },
                "DONDAIFPGMK": {
                    "z": 2.0
                },
                "BJMEKPDGMPA": 1.0,
                "OMCCMPHDLOO": "",
                "OPPBKKOPIOB": "Face"
            },
            {
                "$type": "EAMBKPBOPIC",
                "type": "LOOK_AT",
                "aliasList": [
                    "4198"
                ],
                "actionId": 240,
                "FIDJDPAIFDN": true,
                "useTargetPos": true,
                "GFKIMGBGADJ": true,
                "GMKIJKADNHN": {
                    "x": -917.2860107421875,
                    "y": 205.92799377441406,
                    "z": 2619.239013671875
                },
                "BCHGCKLKNEH": 0.4000000059604645,
                "OMCCMPHDLOO": "",
                "CEBMBGKJACI": "NONE",
                "EOHIIHMKDJC": true,
                "KPCALFDIHMC": "",
                "DBLNLMOPEBP": ""
            },
            {
                "$type": "MoleMole.Config.ConfigTeleportToAction",
                "type": "TELEPORT_TO",
                "aliasList": [
                    "1005"
                ],
                "actionId": 139,
                "position": {
                    "x": -915.5159912109375,
                    "y": 204.49200439453125,
                    "z": 2617.197998046875
                },
                "forward": {
                    "x": -5.296000003814697,
                    "y": -0.4099999964237213,
                    "z": 1.9830000400543213
                },
                "openLongDisTeleport": true,
                "posBindMovingTargetKey": "",
                "forwardBindMovingTargetKey": ""
            },
            {
                "$type": "EAMBKPBOPIC",
                "type": "LOOK_AT",
                "aliasList": [
                    "1005"
                ],
                "actionId": 144,
                "BCHGCKLKNEH": 0.5,
                "OMCCMPHDLOO": "",
                "EOHIIHMKDJC": true,
                "KPCALFDIHMC": "",
                "DBLNLMOPEBP": ""
            }
        ],
        [
            {
                "$type": "MOOOKOKLLEI",
                "type": "CAMERA_MOVE",
                "duration": 1.0,
                "actionId": 141,
                "DOKGBCKOLJK": {
                    "x": -914.041015625,
                    "y": 206.4530029296875,
                    "z": 2618.012939453125
                },
                "HGKCPMDICGG": {
                    "x": -914.9840087890625,
                    "y": 206.4010009765625,
                    "z": 2618.342041015625
                },
                "AFODHELHCGB": 30.0,
                "MGMFMGNANHH": 6,
                "NDFGFJFGHKL": "EaseInOutCubic",
                "IBCBGNHCICN": {},
                "BNBBLLBEIDL": true,
                "HCPFCAHMGMO": false,
                "OMCCMPHDLOO": "",
                "FEFNBKOHPOG": true,
                "OCFGGGHIKOO": "",
                "LJFHGGJDPHH": "",
                "LPKDFKLNEHL": ""
            },
            {
                "$type": "MoleMole.Config.ConfigBlackScreenAction",
                "type": "BLACK_SCREEN",
                "actionId": 249,
                "blackScreenType": "FROM_BLACK",
                "durationFromBlack": 0.5,
                "inteePos": "",
                "textMapID": "",
                "useTextFade": true
            },
            {
                "$type": "DLPFECMKEKH",
                "type": "DIALOG",
                "aliasList": [
                    "4198"
                ],
                "NMKEDPFEKBH": 730011701,
                "JLCHMAJCAPA": 0.5
            },
            {
                "$type": "MOOOKOKLLEI",
                "type": "CAMERA_MOVE",
                "delayTime": 0.10000000149011612,
                "duration": 16.0,
                "actionId": 140,
                "DOKGBCKOLJK": {
                    "x": -912.4439697265625,
                    "y": 206.1540069580078,
                    "z": 2617.294921875
                },
                "HGKCPMDICGG": {
                    "x": -913.385009765625,
                    "y": 206.07000732421875,
                    "z": 2617.6220703125
                },
                "AFODHELHCGB": 30.0,
                "NDFGFJFGHKL": "EaseOutQuad",
                "IBCBGNHCICN": {},
                "HCPFCAHMGMO": false,
                "OMCCMPHDLOO": "",
                "FEFNBKOHPOG": true,
                "OCFGGGHIKOO": "",
                "LJFHGGJDPHH": "",
                "LPKDFKLNEHL": ""
            },
            {
                "$type": "ECLBLHOENAG",
                "type": "DIALOG_SELECT",
                "delayTime": 0.4000000059604645,
                "aliasList": [
                    "Avatar"
                ],
                "NDMMOPDPKNF": [
                    730011702
                ],
                "FPDBIEGHMCD": [
                    2902194733
                ],
                "PKBOIGBGDEG": true
            }
        ],
        [
            {
                "$type": "DLPFECMKEKH",
                "type": "DIALOG",
                "aliasList": [
                    "4198"
                ],
                "NMKEDPFEKBH": 730011703,
                "JLCHMAJCAPA": 1.350000023841858
            },
            {
                "$type": "EAMBKPBOPIC",
                "type": "LOOK_AT",
                "aliasList": [
                    "4198"
                ],
                "actionId": 145,
                "FIDJDPAIFDN": true,
                "BCHGCKLKNEH": 0.4000000059604645,
                "OMCCMPHDLOO": "Avatar",
                "EOHIIHMKDJC": true,
                "KPCALFDIHMC": "",
                "DBLNLMOPEBP": ""
            },
            {
                "$type": "OOMFCPJAJGL",
                "type": "STEER_TO",
                "delayTime": 0.3499999940395355,
                "duration": 1.0,
                "aliasList": [
                    "4198"
                ],
                "actionId": 146,
                "DMGIIHNDNLC": "ABSOLUTE",
                "PLAPKCOMAKJ": {
                    "x": -915.2780151367188,
                    "y": 204.49000549316406,
                    "z": 2617.2919921875
                },
                "HCMINPNPFDF": true,
                "OMCCMPHDLOO": "",
                "DBLNLMOPEBP": ""
            },
            {
                "$type": "MOOOKOKLLEI",
                "type": "CAMERA_MOVE",
                "delayTime": 0.800000011920929,
                "duration": 1.0,
                "actionId": 151,
                "DOKGBCKOLJK": {
                    "x": -914.2020263671875,
                    "y": 205.75100708007812,
                    "z": 2617.52490234375
                },
                "HGKCPMDICGG": {
                    "x": -914.3489990234375,
                    "y": 205.8459930419922,
                    "z": 2618.510009765625
                },
                "AFODHELHCGB": 25.0,
                "MGMFMGNANHH": 6,
                "NDFGFJFGHKL": "EaseInOutCubic",
                "IBCBGNHCICN": {},
                "BNBBLLBEIDL": true,
                "HCPFCAHMGMO": false,
                "OMCCMPHDLOO": "",
                "FEFNBKOHPOG": true,
                "OCFGGGHIKOO": "",
                "LJFHGGJDPHH": "",
                "LPKDFKLNEHL": ""
            },
            {
                "$type": "MoleMole.Config.ConfigTeleportToAction",
                "type": "TELEPORT_TO",
                "delayTime": 0.800000011920929,
                "aliasList": [
                    "4198"
                ],
                "actionId": 233,
                "position": {
                    "x": -914.3629760742188,
                    "y": 204.41600036621094,
                    "z": 2619.069091796875
                },
                "forward": {
                    "x": -0.9950000047683716,
                    "z": 0.10000000149011612
                },
                "openLongDisTeleport": true,
                "posBindMovingTargetKey": "",
                "forwardBindMovingTargetKey": ""
            },
            {
                "$type": "MOOOKOKLLEI",
                "type": "CAMERA_MOVE",
                "delayTime": 0.8999999761581421,
                "duration": 10.0,
                "actionId": 148,
                "DOKGBCKOLJK": {
                    "x": -914.3499755859375,
                    "y": 205.73399353027344,
                    "z": 2617.511962890625
                },
                "HGKCPMDICGG": {
                    "x": -914.4019775390625,
                    "y": 205.843994140625,
                    "z": 2618.5048828125
                },
                "AFODHELHCGB": 25.0,
                "NDFGFJFGHKL": "EaseOutQuad",
                "IBCBGNHCICN": {},
                "BNBBLLBEIDL": true,
                "HCPFCAHMGMO": false,
                "OMCCMPHDLOO": "",
                "FEFNBKOHPOG": true,
                "OCFGGGHIKOO": "",
                "LJFHGGJDPHH": "",
                "LPKDFKLNEHL": ""
            },
            {
                "$type": "EAMBKPBOPIC",
                "type": "LOOK_AT",
                "delayTime": 1.2699999809265137,
                "aliasList": [
                    "4198"
                ],
                "actionId": 147,
                "FIDJDPAIFDN": true,
                "BCHGCKLKNEH": 0.30000001192092896,
                "OMCCMPHDLOO": "Avatar",
                "EOHIIHMKDJC": true,
                "KPCALFDIHMC": "",
                "DBLNLMOPEBP": ""
            },
            {
                "$type": "ILCGAGEGDJI",
                "type": "BODY_LANG",
                "delayTime": 1.7970000505447388,
                "aliasList": [
                    "4198"
                ],
                "actionId": 150,
                "FLBOOPHHFJP": 1171,
                "PMJAMGLAJGK": true,
                "LIMPPBIAKGL": false,
                "FNEGLPPEBBF": true,
                "FNDLJGEAMGI": ""
            }
        ],
        [
            {
                "$type": "MOOOKOKLLEI",
                "type": "CAMERA_MOVE",
                "duration": 1.0,
                "actionId": 158,
                "DOKGBCKOLJK": {
                    "x": -916.0809936523438,
                    "y": 205.78199768066406,
                    "z": 2617.699951171875
                },
                "HGKCPMDICGG": {
                    "x": -915.343994140625,
                    "y": 205.79299926757812,
                    "z": 2617.02392578125
                },
                "AFODHELHCGB": 25.0,
                "MGMFMGNANHH": 6,
                "NDFGFJFGHKL": "EaseInOutCubic",
                "IBCBGNHCICN": {},
                "BNBBLLBEIDL": true,
                "HCPFCAHMGMO": false,
                "OMCCMPHDLOO": "",
                "FEFNBKOHPOG": true,
                "OCFGGGHIKOO": "",
                "LJFHGGJDPHH": "",
                "LPKDFKLNEHL": ""
            },
            {
                "$type": "EAMBKPBOPIC",
                "type": "LOOK_AT",
                "aliasList": [
                    "4198"
                ],
                "actionId": 170,
                "FIDJDPAIFDN": true,
                "BCHGCKLKNEH": 0.30000001192092896,
                "OMCCMPHDLOO": "1005",
                "EOHIIHMKDJC": true,
                "KPCALFDIHMC": "",
                "DBLNLMOPEBP": ""
            },
            {
                "$type": "DLPFECMKEKH",
                "type": "DIALOG",
                "aliasList": [
                    "1005"
                ],
                "NMKEDPFEKBH": 730011704,
                "JLCHMAJCAPA": 0.5
            },
            {
                "$type": "ILCGAGEGDJI",
                "type": "BODY_LANG",
                "aliasList": [
                    "1005"
                ],
                "actionId": 164,
                "FLBOOPHHFJP": 1130,
                "PMJAMGLAJGK": true,
                "LIMPPBIAKGL": false,
                "FNEGLPPEBBF": true,
                "FNDLJGEAMGI": ""
            }
        ],
        [
            {
                "$type": "EAMBKPBOPIC",
                "type": "LOOK_AT",
                "aliasList": [
                    "Avatar"
                ],
                "actionId": 159,
                "FIDJDPAIFDN": true,
                "BCHGCKLKNEH": 0.4000000059604645,
                "OMCCMPHDLOO": "4198",
                "EOHIIHMKDJC": true,
                "KPCALFDIHMC": "",
                "DBLNLMOPEBP": ""
            },
            {
                "$type": "MoleMole.Config.ConfigTeleportToAction",
                "type": "TELEPORT_TO",
                "aliasList": [
                    "Avatar"
                ],
                "actionId": 161,
                "position": {
                    "x": -914.3909912109375,
                    "y": 204.48199462890625,
                    "z": 2617.638916015625
                },
                "forward": {
                    "x": -1.093999981880188,
                    "y": -0.02500000037252903,
                    "z": 1.0479999780654907
                },
                "openLongDisTeleport": true,
                "posBindMovingTargetKey": "",
                "forwardBindMovingTargetKey": ""
            },
            {
                "$type": "DLPFECMKEKH",
                "type": "DIALOG",
                "aliasList": [
                    "4198"
                ],
                "NMKEDPFEKBH": 730011705,
                "JLCHMAJCAPA": 1.25
            },
            {
                "$type": "ILCGAGEGDJI",
                "type": "BODY_LANG",
                "aliasList": [
                    "4198"
                ],
                "actionId": 192,
                "FLBOOPHHFJP": 1170,
                "PMJAMGLAJGK": true,
                "LIMPPBIAKGL": false,
                "FNEGLPPEBBF": true,
                "FNDLJGEAMGI": ""
            },
            {
                "$type": "ILCGAGEGDJI",
                "type": "BODY_LANG",
                "aliasList": [
                    "1005"
                ],
                "actionId": 165,
                "PMJAMGLAJGK": true,
                "LIMPPBIAKGL": false,
                "FNEGLPPEBBF": true,
                "FNDLJGEAMGI": ""
            },
            {
                "$type": "EAMBKPBOPIC",
                "type": "LOOK_AT",
                "delayTime": 0.23000000417232513,
                "aliasList": [
                    "1005"
                ],
                "actionId": 156,
                "FIDJDPAIFDN": true,
                "BCHGCKLKNEH": 0.4000000059604645,
                "OMCCMPHDLOO": "4198",
                "EOHIIHMKDJC": true,
                "KPCALFDIHMC": "",
                "DBLNLMOPEBP": ""
            },
            {
                "$type": "OOMFCPJAJGL",
                "type": "STEER_TO",
                "delayTime": 0.45100000500679016,
                "duration": 1.0,
                "aliasList": [
                    "1005"
                ],
                "actionId": 166,
                "DMGIIHNDNLC": "ABSOLUTE",
                "PLAPKCOMAKJ": {
                    "x": -914.5440063476562,
                    "y": 204.40899658203125,
                    "z": 2619.010009765625
                },
                "HCMINPNPFDF": true,
                "OMCCMPHDLOO": "",
                "DBLNLMOPEBP": ""
            },
            {
                "$type": "MOOOKOKLLEI",
                "type": "CAMERA_MOVE",
                "delayTime": 0.6000000238418579,
                "duration": 1.0,
                "actionId": 174,
                "DOKGBCKOLJK": {
                    "x": -917.2520141601562,
                    "y": 205.69200134277344,
                    "z": 2616.673095703125
                },
                "HGKCPMDICGG": {
                    "x": -916.3870239257812,
                    "y": 205.65499877929688,
                    "z": 2617.173095703125
                },
                "AFODHELHCGB": 25.0,
                "MGMFMGNANHH": 6,
                "NDFGFJFGHKL": "EaseInOutCubic",
                "IBCBGNHCICN": {},
                "BNBBLLBEIDL": true,
                "HCPFCAHMGMO": false,
                "OMCCMPHDLOO": "",
                "FEFNBKOHPOG": true,
                "OCFGGGHIKOO": "",
                "LJFHGGJDPHH": "",
                "LPKDFKLNEHL": ""
            },
            {
                "$type": "MoleMole.Config.ConfigTeleportToAction",
                "type": "TELEPORT_TO",
                "delayTime": 0.6000000238418579,
                "aliasList": [
                    "1005"
                ],
                "actionId": 162,
                "position": {
                    "x": -915.135986328125,
                    "y": 204.41600036621094,
                    "z": 2617.860107421875
                },
                "forward": {
                    "x": 0.5830000042915344,
                    "z": 1.093000054359436
                },
                "openLongDisTeleport": true,
                "posBindMovingTargetKey": "",
                "forwardBindMovingTargetKey": ""
            },
            {
                "$type": "MOOOKOKLLEI",
                "type": "CAMERA_MOVE",
                "delayTime": 0.699999988079071,
                "duration": 12.0,
                "actionId": 167,
                "DOKGBCKOLJK": {
                    "x": -917.344970703125,
                    "y": 205.6840057373047,
                    "z": 2616.8330078125
                },
                "HGKCPMDICGG": {
                    "x": -916.468017578125,
                    "y": 205.6529998779297,
                    "z": 2617.31201171875
                },
                "AFODHELHCGB": 25.0,
                "NDFGFJFGHKL": "EaseOutQuad",
                "IBCBGNHCICN": {},
                "BNBBLLBEIDL": true,
                "HCPFCAHMGMO": false,
                "OMCCMPHDLOO": "",
                "FEFNBKOHPOG": true,
                "OCFGGGHIKOO": "",
                "LJFHGGJDPHH": "",
                "LPKDFKLNEHL": ""
            },
            {
                "$type": "EAMBKPBOPIC",
                "type": "LOOK_AT",
                "delayTime": 1.2920000553131104,
                "aliasList": [
                    "1005"
                ],
                "actionId": 168,
                "FIDJDPAIFDN": true,
                "BCHGCKLKNEH": 0.30000001192092896,
                "OMCCMPHDLOO": "4198",
                "EOHIIHMKDJC": true,
                "KPCALFDIHMC": "",
                "DBLNLMOPEBP": ""
            },
            {
                "$type": "ILCGAGEGDJI",
                "type": "BODY_LANG",
                "delayTime": 3.5510001182556152,
                "aliasList": [
                    "4198"
                ],
                "actionId": 208,
                "JLABKFNJCNP": true,
                "PMJAMGLAJGK": true,
                "LIMPPBIAKGL": false,
                "FNEGLPPEBBF": true,
                "FNDLJGEAMGI": ""
            },
            {
                "$type": "ILCGAGEGDJI",
                "type": "BODY_LANG",
                "delayTime": 4.989999771118164,
                "aliasList": [
                    "4198"
                ],
                "actionId": 193,
                "FLBOOPHHFJP": 1110,
                "PMJAMGLAJGK": true,
                "LIMPPBIAKGL": false,
                "FNEGLPPEBBF": true,
                "FNDLJGEAMGI": ""
            },
            {
                "$type": "ILCGAGEGDJI",
                "type": "BODY_LANG",
                "delayTime": 8.090999603271484,
                "aliasList": [
                    "4198"
                ],
                "actionId": 194,
                "JLABKFNJCNP": true,
                "PMJAMGLAJGK": true,
                "LIMPPBIAKGL": false,
                "FNEGLPPEBBF": true,
                "FNDLJGEAMGI": ""
            }
        ],
        [
            {
                "$type": "MOOOKOKLLEI",
                "type": "CAMERA_MOVE",
                "duration": 1.0,
                "actionId": 171,
                "DOKGBCKOLJK": {
                    "x": -917.697998046875,
                    "y": 205.68600463867188,
                    "z": 2625.22998046875
                },
                "HGKCPMDICGG": {
                    "x": -917.343017578125,
                    "y": 205.61599731445312,
                    "z": 2624.298095703125
                },
                "AFODHELHCGB": 30.0,
                "MGMFMGNANHH": 6,
                "NDFGFJFGHKL": "EaseOutQuad",
                "IBCBGNHCICN": {},
                "BNBBLLBEIDL": true,
                "HCPFCAHMGMO": false,
                "OMCCMPHDLOO": "",
                "FEFNBKOHPOG": true,
                "OCFGGGHIKOO": "",
                "LJFHGGJDPHH": "",
                "LPKDFKLNEHL": ""
            },
            {
                "$type": "MoleMole.Config.ConfigTeleportToAction",
                "type": "TELEPORT_TO",
                "aliasList": [
                    "Avatar"
                ],
                "actionId": 173,
                "position": {
                    "x": -914.5540161132812,
                    "y": 204.47799682617188,
                    "z": 2617.616943359375
                },
                "forward": {
                    "x": -0.4519999921321869,
                    "y": 0.004000000189989805,
                    "z": 0.9020000100135803
                },
                "openLongDisTeleport": true,
                "posBindMovingTargetKey": "",
                "forwardBindMovingTargetKey": ""
            },
            {
                "$type": "EAMBKPBOPIC",
                "type": "LOOK_AT",
                "aliasList": [
                    "Avatar"
                ],
                "actionId": 175,
                "FIDJDPAIFDN": true,
                "BCHGCKLKNEH": -1.0,
                "OMCCMPHDLOO": "4198",
                "EOHIIHMKDJC": true,
                "KPCALFDIHMC": "",
                "DBLNLMOPEBP": ""
            },
            {
                "$type": "DLPFECMKEKH",
                "type": "DIALOG",
                "aliasList": [
                    "4198"
                ],
                "NMKEDPFEKBH": 730011706,
                "JLCHMAJCAPA": 0.5
            },
            {
                "$type": "ILCGAGEGDJI",
                "type": "BODY_LANG",
                "aliasList": [
                    "4198"
                ],
                "actionId": 195,
                "JLABKFNJCNP": true,
                "PMJAMGLAJGK": true,
                "LIMPPBIAKGL": false,
                "FNEGLPPEBBF": true,
                "FNDLJGEAMGI": ""
            },
            {
                "$type": "MOOOKOKLLEI",
                "type": "CAMERA_MOVE",
                "delayTime": 0.10000000149011612,
                "duration": 10.0,
                "actionId": 172,
                "DOKGBCKOLJK": {
                    "x": -917.6699829101562,
                    "y": 205.81100463867188,
                    "z": 2625.23193359375
                },
                "HGKCPMDICGG": {
                    "x": -917.3150024414062,
                    "y": 205.74099731445312,
                    "z": 2624.300048828125
                },
                "AFODHELHCGB": 30.0,
                "NDFGFJFGHKL": "EaseOutQuad",
                "IBCBGNHCICN": {},
                "BNBBLLBEIDL": true,
                "HCPFCAHMGMO": false,
                "OMCCMPHDLOO": "",
                "FEFNBKOHPOG": true,
                "OCFGGGHIKOO": "",
                "LJFHGGJDPHH": "",
                "LPKDFKLNEHL": ""
            },
            {
                "$type": "ECLBLHOENAG",
                "type": "DIALOG_SELECT",
                "delayTime": 0.4000000059604645,
                "aliasList": [
                    "Avatar"
                ],
                "NDMMOPDPKNF": [
                    730011707,
                    730011710,
                    730011713
                ],
                "FPDBIEGHMCD": [
                    2902194737,
                    2902194739,
                    4068690790
                ],
                "PKBOIGBGDEG": true
            },
            {
                "$type": "ILCGAGEGDJI",
                "type": "BODY_LANG",
                "delayTime": 0.5450000166893005,
                "aliasList": [
                    "4198"
                ],
                "actionId": 183,
                "FLBOOPHHFJP": 1171,
                "PMJAMGLAJGK": true,
                "LIMPPBIAKGL": false,
                "FNEGLPPEBBF": true,
                "FNDLJGEAMGI": ""
            },
            {
                "$type": "ILCGAGEGDJI",
                "type": "BODY_LANG",
                "delayTime": 4.927000045776367,
                "aliasList": [
                    "4198"
                ],
                "actionId": 184,
                "FLBOOPHHFJP": 1030,
                "PMJAMGLAJGK": true,
                "LIMPPBIAKGL": false,
                "FNEGLPPEBBF": true,
                "FNDLJGEAMGI": ""
            },
            {
                "$type": "ILCGAGEGDJI",
                "type": "BODY_LANG",
                "delayTime": 6.105999946594238,
                "aliasList": [
                    "1005"
                ],
                "actionId": 197,
                "FLBOOPHHFJP": 1270,
                "PMJAMGLAJGK": true,
                "LIMPPBIAKGL": false,
                "FNEGLPPEBBF": true,
                "FNDLJGEAMGI": ""
            },
            {
                "$type": "ILCGAGEGDJI",
                "type": "BODY_LANG",
                "delayTime": 6.593999862670898,
                "aliasList": [
                    "Avatar"
                ],
                "actionId": 196,
                "FLBOOPHHFJP": 4030,
                "PMJAMGLAJGK": true,
                "LIMPPBIAKGL": false,
                "FNEGLPPEBBF": true,
                "FNDLJGEAMGI": ""
            },
            {
                "$type": "ILCGAGEGDJI",
                "type": "BODY_LANG",
                "delayTime": 7.079999923706055,
                "aliasList": [
                    "4198"
                ],
                "actionId": 185,
                "JLABKFNJCNP": true,
                "PMJAMGLAJGK": true,
                "LIMPPBIAKGL": false,
                "FNEGLPPEBBF": true,
                "FNDLJGEAMGI": ""
            }
        ],
        [
            {
                "$type": "MOOOKOKLLEI",
                "type": "CAMERA_MOVE",
                "duration": 1.0,
                "actionId": 210,
                "DOKGBCKOLJK": {
                    "x": -914.8759765625,
                    "y": 205.7519989013672,
                    "z": 2618.5791015625
                },
                "HGKCPMDICGG": {
                    "x": -915.1959838867188,
                    "y": 205.7030029296875,
                    "z": 2617.633056640625
                },
                "AFODHELHCGB": 30.0,
                "MGMFMGNANHH": 6,
                "NDFGFJFGHKL": "EaseInOutCubic",
                "IBCBGNHCICN": {},
                "BNBBLLBEIDL": true,
                "HCPFCAHMGMO": false,
                "OMCCMPHDLOO": "",
                "FEFNBKOHPOG": true,
                "OCFGGGHIKOO": "",
                "LJFHGGJDPHH": "",
                "LPKDFKLNEHL": ""
            },
            {
                "$type": "ILCGAGEGDJI",
                "type": "BODY_LANG",
                "aliasList": [
                    "4198"
                ],
                "actionId": 186,
                "JLABKFNJCNP": true,
                "PMJAMGLAJGK": true,
                "LIMPPBIAKGL": false,
                "FNEGLPPEBBF": true,
                "FNDLJGEAMGI": ""
            },
            {
                "$type": "DLPFECMKEKH",
                "type": "DIALOG",
                "aliasList": [
                    "1005"
                ],
                "NMKEDPFEKBH": 730011708,
                "JLCHMAJCAPA": 0.5
            },
            {
                "$type": "ILCGAGEGDJI",
                "type": "BODY_LANG",
                "aliasList": [
                    "1005"
                ],
                "actionId": 211,
                "JLABKFNJCNP": true,
                "PMJAMGLAJGK": true,
                "LIMPPBIAKGL": false,
                "FNEGLPPEBBF": true,
                "FNDLJGEAMGI": ""
            },
            {
                "$type": "ILCGAGEGDJI",
                "type": "BODY_LANG",
                "delayTime": 0.9990000128746033,
                "aliasList": [
                    "1005"
                ],
                "actionId": 212,
                "FLBOOPHHFJP": 1170,
                "PMJAMGLAJGK": true,
                "LIMPPBIAKGL": false,
                "FNEGLPPEBBF": true,
                "FNDLJGEAMGI": ""
            },
            {
                "$type": "ILCGAGEGDJI",
                "type": "BODY_LANG",
                "delayTime": 3.065999984741211,
                "aliasList": [
                    "1005"
                ],
                "actionId": 213,
                "JLABKFNJCNP": true,
                "PMJAMGLAJGK": true,
                "LIMPPBIAKGL": false,
                "FNEGLPPEBBF": true,
                "FNDLJGEAMGI": ""
            }
        ],
        [
            {
                "$type": "DLPFECMKEKH",
                "type": "DIALOG",
                "aliasList": [
                    "1005"
                ],
                "NMKEDPFEKBH": 730011709,
                "JLCHMAJCAPA": 0.5
            },
            {
                "$type": "ILCGAGEGDJI",
                "type": "BODY_LANG",
                "aliasList": [
                    "1005"
                ],
                "actionId": 214,
                "JLABKFNJCNP": true,
                "PMJAMGLAJGK": true,
                "LIMPPBIAKGL": false,
                "FNEGLPPEBBF": true,
                "FNDLJGEAMGI": ""
            },
            {
                "$type": "ILCGAGEGDJI",
                "type": "BODY_LANG",
                "delayTime": 0.8700000047683716,
                "aliasList": [
                    "1005"
                ],
                "actionId": 218,
                "FLBOOPHHFJP": 1300,
                "PMJAMGLAJGK": true,
                "LIMPPBIAKGL": false,
                "FNEGLPPEBBF": true,
                "FNDLJGEAMGI": ""
            }
        ],
        [
            {
                "$type": "MOOOKOKLLEI",
                "type": "CAMERA_MOVE",
                "duration": 1.0,
                "actionId": 222,
                "DOKGBCKOLJK": {
                    "x": -914.8759765625,
                    "y": 205.7519989013672,
                    "z": 2618.5791015625
                },
                "HGKCPMDICGG": {
                    "x": -915.1959838867188,
                    "y": 205.7030029296875,
                    "z": 2617.633056640625
                },
                "AFODHELHCGB": 30.0,
                "MGMFMGNANHH": 6,
                "NDFGFJFGHKL": "EaseInOutCubic",
                "IBCBGNHCICN": {},
                "BNBBLLBEIDL": true,
                "HCPFCAHMGMO": false,
                "OMCCMPHDLOO": "",
                "FEFNBKOHPOG": true,
                "OCFGGGHIKOO": "",
                "LJFHGGJDPHH": "",
                "LPKDFKLNEHL": ""
            },
            {
                "$type": "ILCGAGEGDJI",
                "type": "BODY_LANG",
                "aliasList": [
                    "4198"
                ],
                "actionId": 187,
                "JLABKFNJCNP": true,
                "PMJAMGLAJGK": true,
                "LIMPPBIAKGL": false,
                "FNEGLPPEBBF": true,
                "FNDLJGEAMGI": ""
            },
            {
                "$type": "DLPFECMKEKH",
                "type": "DIALOG",
                "aliasList": [
                    "1005"
                ],
                "NMKEDPFEKBH": 730011711,
                "JLCHMAJCAPA": 0.5
            },
            {
                "$type": "ILCGAGEGDJI",
                "type": "BODY_LANG",
                "aliasList": [
                    "1005"
                ],
                "actionId": 215,
                "JLABKFNJCNP": true,
                "PMJAMGLAJGK": true,
                "LIMPPBIAKGL": false,
                "FNEGLPPEBBF": true,
                "FNDLJGEAMGI": ""
            },
            {
                "$type": "ILCGAGEGDJI",
                "type": "BODY_LANG",
                "delayTime": 0.9990000128746033,
                "aliasList": [
                    "1005"
                ],
                "actionId": 216,
                "FLBOOPHHFJP": 1170,
                "PMJAMGLAJGK": true,
                "LIMPPBIAKGL": false,
                "FNEGLPPEBBF": true,
                "FNDLJGEAMGI": ""
            },
            {
                "$type": "ILCGAGEGDJI",
                "type": "BODY_LANG",
                "delayTime": 3.065999984741211,
                "aliasList": [
                    "1005"
                ],
                "actionId": 217,
                "JLABKFNJCNP": true,
                "PMJAMGLAJGK": true,
                "LIMPPBIAKGL": false,
                "FNEGLPPEBBF": true,
                "FNDLJGEAMGI": ""
            }
        ],
        [
            {
                "$type": "DLPFECMKEKH",
                "type": "DIALOG",
                "aliasList": [
                    "1005"
                ],
                "NMKEDPFEKBH": 730011712,
                "JLCHMAJCAPA": 0.5
            },
            {
                "$type": "ILCGAGEGDJI",
                "type": "BODY_LANG",
                "aliasList": [
                    "1005"
                ],
                "actionId": 219,
                "JLABKFNJCNP": true,
                "PMJAMGLAJGK": true,
                "LIMPPBIAKGL": false,
                "FNEGLPPEBBF": true,
                "FNDLJGEAMGI": ""
            },
            {
                "$type": "ILCGAGEGDJI",
                "type": "BODY_LANG",
                "delayTime": 0.8320000171661377,
                "aliasList": [
                    "1005"
                ],
                "actionId": 220,
                "FLBOOPHHFJP": 1130,
                "PMJAMGLAJGK": true,
                "LIMPPBIAKGL": false,
                "FNEGLPPEBBF": true,
                "FNDLJGEAMGI": ""
            }
        ],
        [
            {
                "$type": "MOOOKOKLLEI",
                "type": "CAMERA_MOVE",
                "duration": 1.0,
                "actionId": 226,
                "DOKGBCKOLJK": {
                    "x": -915.3930053710938,
                    "y": 205.93099975585938,
                    "z": 2616.62890625
                },
                "HGKCPMDICGG": {
                    "x": -915.0,
                    "y": 205.8470001220703,
                    "z": 2617.544921875
                },
                "AFODHELHCGB": 30.0,
                "MGMFMGNANHH": 6,
                "NDFGFJFGHKL": "EaseInOutCubic",
                "IBCBGNHCICN": {},
                "BNBBLLBEIDL": true,
                "HCPFCAHMGMO": false,
                "OMCCMPHDLOO": "",
                "FEFNBKOHPOG": true,
                "OCFGGGHIKOO": "",
                "LJFHGGJDPHH": "",
                "LPKDFKLNEHL": ""
            },
            {
                "$type": "DLPFECMKEKH",
                "type": "DIALOG",
                "aliasList": [
                    "4198"
                ],
                "NMKEDPFEKBH": 730011714,
                "JLCHMAJCAPA": 0.5
            },
            {
                "$type": "ILCGAGEGDJI",
                "type": "BODY_LANG",
                "aliasList": [
                    "4198"
                ],
                "actionId": 188,
                "JLABKFNJCNP": true,
                "PMJAMGLAJGK": true,
                "LIMPPBIAKGL": false,
                "FNEGLPPEBBF": true,
                "FNDLJGEAMGI": ""
            },
            {
                "$type": "EAMBKPBOPIC",
                "type": "LOOK_AT",
                "aliasList": [
                    "4198"
                ],
                "actionId": 201,
                "FIDJDPAIFDN": true,
                "useTargetPos": true,
                "GFKIMGBGADJ": true,
                "GMKIJKADNHN": {
                    "x": -914.5230102539062,
                    "y": 205.8459930419922,
                    "z": 2618.6689453125
                },
                "BCHGCKLKNEH": 0.4000000059604645,
                "OMCCMPHDLOO": "",
                "CEBMBGKJACI": "NONE",
                "EOHIIHMKDJC": true,
                "KPCALFDIHMC": "",
                "DBLNLMOPEBP": ""
            },
            {
                "$type": "CJKIHIFAALJ",
                "type": "LOOK_AT_EYECTRL",
                "aliasList": [
                    "4198"
                ],
                "actionId": 228,
                "useTargetPos": false,
                "KOPLMCFNFEH": {
                    "z": 4.0
                },
                "DONDAIFPGMK": {
                    "z": 4.0
                },
                "BJMEKPDGMPA": 1.0,
                "OMCCMPHDLOO": "",
                "OPPBKKOPIOB": "Face"
            },
            {
                "$type": "OPCCDGPJCJI",
                "type": "EMO_SYNC",
                "aliasList": [
                    "4198"
                ],
                "actionId": 244,
                "IONNJBCBACJ": "",
                "HLEJKBCMNNJ": "Cs_Emo_NPC_Common/Cs_Emo_NPC_Angry01",
                "JGHLJJLNGPP": "Cs_Emo_NPC_Common/Cs_Emo_NPC_Upset01_B",
                "MANNKIIBOFM": "",
                "COMNAAFDEDH": "",
                "CPGCCLNOCDK": "",
                "MFABDGAFKII": [
                    9218657655395275517,
                    6356428425152214583,
                    11840959722219800112,
                    50070356133267922
                ],
                "IPAGHAALIII": [
                    5533870946267865131,
                    11546585331116088239,
                    14854862320501907384,
                    5150354034693083475
                ]
            },
            {
                "$type": "ILCGAGEGDJI",
                "type": "BODY_LANG",
                "aliasList": [
                    "1005"
                ],
                "actionId": 221,
                "JLABKFNJCNP": true,
                "PMJAMGLAJGK": true,
                "LIMPPBIAKGL": false,
                "FNEGLPPEBBF": true,
                "FNDLJGEAMGI": ""
            },
            {
                "$type": "MoleMole.Config.ConfigTeleportToAction",
                "type": "TELEPORT_TO",
                "aliasList": [
                    "1005"
                ],
                "actionId": 225,
                "position": {
                    "x": -915.2150268554688,
                    "y": 204.406005859375,
                    "z": 2617.910888671875
                },
                "forward": {
                    "x": 0.5519999861717224,
                    "y": 0.010999999940395355,
                    "z": 0.8299999833106995
                },
                "openLongDisTeleport": true,
                "posBindMovingTargetKey": "",
                "forwardBindMovingTargetKey": ""
            },
            {
                "$type": "MOOOKOKLLEI",
                "type": "CAMERA_MOVE",
                "delayTime": 0.10000000149011612,
                "duration": 8.0,
                "actionId": 189,
                "DOKGBCKOLJK": {
                    "x": -915.3920288085938,
                    "y": 205.84100341796875,
                    "z": 2616.576904296875
                },
                "HGKCPMDICGG": {
                    "x": -915.0009765625,
                    "y": 205.78599548339844,
                    "z": 2617.49609375
                },
                "AFODHELHCGB": 30.0,
                "NDFGFJFGHKL": "EaseOutQuad",
                "IBCBGNHCICN": {},
                "BNBBLLBEIDL": true,
                "HCPFCAHMGMO": false,
                "OMCCMPHDLOO": "",
                "FEFNBKOHPOG": true,
                "OCFGGGHIKOO": "",
                "LJFHGGJDPHH": "",
                "LPKDFKLNEHL": ""
            },
            {
                "$type": "ILCGAGEGDJI",
                "type": "BODY_LANG",
                "delayTime": 0.4790000021457672,
                "aliasList": [
                    "4198"
                ],
                "actionId": 198,
                "FLBOOPHHFJP": 1190,
                "PMJAMGLAJGK": true,
                "LIMPPBIAKGL": false,
                "FNEGLPPEBBF": true,
                "FNDLJGEAMGI": ""
            }
        ],
        [
            {
                "$type": "MOOOKOKLLEI",
                "type": "CAMERA_MOVE",
                "duration": 1.0,
                "actionId": 223,
                "DOKGBCKOLJK": {
                    "x": -914.8779907226562,
                    "y": 205.81100463867188,
                    "z": 2618.044921875
                },
                "HGKCPMDICGG": {
                    "x": -914.4290161132812,
                    "y": 205.9149932861328,
                    "z": 2618.93310546875
                },
                "AFODHELHCGB": 25.0,
                "MGMFMGNANHH": 6,
                "NDFGFJFGHKL": "EaseInOutCubic",
                "IBCBGNHCICN": {},
                "BNBBLLBEIDL": true,
                "HCPFCAHMGMO": false,
                "OMCCMPHDLOO": "",
                "FEFNBKOHPOG": true,
                "OCFGGGHIKOO": "",
                "LJFHGGJDPHH": "",
                "LPKDFKLNEHL": ""
            },
            {
                "$type": "DLPFECMKEKH",
                "type": "DIALOG",
                "aliasList": [
                    "4198"
                ],
                "NMKEDPFEKBH": 730011715,
                "JLCHMAJCAPA": 0.5
            },
            {
                "$type": "ILCGAGEGDJI",
                "type": "BODY_LANG",
                "aliasList": [
                    "4198"
                ],
                "actionId": 199,
                "JLABKFNJCNP": true,
                "PMJAMGLAJGK": true,
                "LIMPPBIAKGL": false,
                "FNEGLPPEBBF": true,
                "FNDLJGEAMGI": ""
            },
            {
                "$type": "EAMBKPBOPIC",
                "type": "LOOK_AT",
                "aliasList": [
                    "4198"
                ],
                "actionId": 202,
                "FIDJDPAIFDN": true,
                "BCHGCKLKNEH": 0.30000001192092896,
                "OMCCMPHDLOO": "1005",
                "EOHIIHMKDJC": true,
                "KPCALFDIHMC": "",
                "DBLNLMOPEBP": ""
            },
            {
                "$type": "CJKIHIFAALJ",
                "type": "LOOK_AT_EYECTRL",
                "aliasList": [
                    "4198"
                ],
                "actionId": 229,
                "useTargetPos": false,
                "KOPLMCFNFEH": {
                    "z": 2.0
                },
                "DONDAIFPGMK": {
                    "z": 2.0
                },
                "BJMEKPDGMPA": 1.0,
                "OMCCMPHDLOO": "",
                "OPPBKKOPIOB": "Face"
            },
            {
                "$type": "OPCCDGPJCJI",
                "type": "EMO_SYNC",
                "aliasList": [
                    "4198"
                ],
                "actionId": 245,
                "IONNJBCBACJ": "",
                "HLEJKBCMNNJ": "Cs_Emo_NPC_Common/Cs_Emo_NPC_Angry01",
                "JGHLJJLNGPP": "Cs_Emo_NPC_Common/Cs_Emo_NPC_Normal01_B",
                "MANNKIIBOFM": "",
                "COMNAAFDEDH": "",
                "CPGCCLNOCDK": "",
                "MFABDGAFKII": [
                    9218657655395275517,
                    6356428425152214583,
                    11840959722219800112,
                    50070356133267922
                ],
                "IPAGHAALIII": [
                    15191155715402440098,
                    420038106395935518,
                    2651432695756251320,
                    4209314551981667660
                ]
            },
            {
                "$type": "MoleMole.Config.ConfigTeleportToAction",
                "type": "TELEPORT_TO",
                "aliasList": [
                    "1005"
                ],
                "actionId": 224,
                "position": {
                    "x": -915.135986328125,
                    "y": 204.41600036621094,
                    "z": 2617.860107421875
                },
                "forward": {
                    "x": 0.4729999899864197,
                    "z": 0.8809999823570251
                },
                "openLongDisTeleport": true,
                "posBindMovingTargetKey": "",
                "forwardBindMovingTargetKey": ""
            },
            {
                "$type": "MOOOKOKLLEI",
                "type": "CAMERA_MOVE",
                "delayTime": 0.10000000149011612,
                "duration": 10.0,
                "actionId": 227,
                "DOKGBCKOLJK": {
                    "x": -914.822998046875,
                    "y": 205.7689971923828,
                    "z": 2618.008056640625
                },
                "HGKCPMDICGG": {
                    "x": -914.4459838867188,
                    "y": 205.906005859375,
                    "z": 2618.924072265625
                },
                "AFODHELHCGB": 25.0,
                "NDFGFJFGHKL": "EaseOutQuad",
                "IBCBGNHCICN": {},
                "BNBBLLBEIDL": true,
                "HCPFCAHMGMO": false,
                "OMCCMPHDLOO": "",
                "FEFNBKOHPOG": true,
                "OCFGGGHIKOO": "",
                "LJFHGGJDPHH": "",
                "LPKDFKLNEHL": ""
            },
            {
                "$type": "ILCGAGEGDJI",
                "type": "BODY_LANG",
                "delayTime": 0.8579999804496765,
                "aliasList": [
                    "4198"
                ],
                "actionId": 203,
                "FLBOOPHHFJP": 1171,
                "PMJAMGLAJGK": true,
                "LIMPPBIAKGL": false,
                "FNEGLPPEBBF": true,
                "FNDLJGEAMGI": ""
            }
        ],
        [
            {
                "$type": "MOOOKOKLLEI",
                "type": "CAMERA_MOVE",
                "duration": 1.0,
                "actionId": 177,
                "DOKGBCKOLJK": {
                    "x": -913.4530029296875,
                    "y": 205.82899475097656,
                    "z": 2619.794921875
                },
                "HGKCPMDICGG": {
                    "x": -914.0449829101562,
                    "y": 205.73899841308594,
                    "z": 2618.993896484375
                },
                "AFODHELHCGB": 25.0,
                "MGMFMGNANHH": 6,
                "NDFGFJFGHKL": "EaseInOutCubic",
                "IBCBGNHCICN": {},
                "BNBBLLBEIDL": true,
                "HCPFCAHMGMO": false,
                "OMCCMPHDLOO": "",
                "FEFNBKOHPOG": true,
                "OCFGGGHIKOO": "",
                "LJFHGGJDPHH": "",
                "LPKDFKLNEHL": ""
            },
            {
                "$type": "MoleMole.Config.ConfigTeleportToAction",
                "type": "TELEPORT_TO",
                "aliasList": [
                    "Avatar"
                ],
                "actionId": 246,
                "position": {
                    "x": -914.5540161132812,
                    "y": 204.47799682617188,
                    "z": 2617.616943359375
                },
                "forward": {
                    "x": -0.06800000369548798,
                    "z": 1.3919999599456787
                },
                "openLongDisTeleport": true,
                "posBindMovingTargetKey": "",
                "forwardBindMovingTargetKey": ""
            },
            {
                "$type": "MoleMole.Config.ConfigVisibleInterAction",
                "type": "VISIBLE",
                "aliasList": [
                    "4198"
                ],
                "actionId": 230,
                "extraParam": ""
            },
            {
                "$type": "DLPFECMKEKH",
                "type": "DIALOG",
                "aliasList": [
                    "1005"
                ],
                "NMKEDPFEKBH": 730011716,
                "JLCHMAJCAPA": 0.5
            },
            {
                "$type": "ILCGAGEGDJI",
                "type": "BODY_LANG",
                "aliasList": [
                    "1005"
                ],
                "actionId": 190,
                "FLBOOPHHFJP": 1300,
                "PMJAMGLAJGK": true,
                "LIMPPBIAKGL": false,
                "FNEGLPPEBBF": true,
                "FNDLJGEAMGI": ""
            },
            {
                "$type": "MoleMole.Config.ConfigTeleportToAction",
                "type": "TELEPORT_TO",
                "aliasList": [
                    "1005"
                ],
                "actionId": 232,
                "position": {
                    "x": -915.1019897460938,
                    "y": 204.41299438476562,
                    "z": 2617.89404296875
                },
                "forward": {
                    "x": 0.4390000104904175,
                    "y": 0.003000000026077032,
                    "z": 0.8479999899864197
                },
                "openLongDisTeleport": true,
                "posBindMovingTargetKey": "",
                "forwardBindMovingTargetKey": ""
            },
            {
                "$type": "ECLBLHOENAG",
                "type": "DIALOG_SELECT",
                "delayTime": 0.4000000059604645,
                "aliasList": [
                    "Avatar"
                ],
                "NDMMOPDPKNF": [
                    730011717,
                    730011718,
                    730011719
                ],
                "FPDBIEGHMCD": [
                    4068690793,
                    4068690793,
                    4068690793
                ],
                "PKBOIGBGDEG": true
            },
            {
                "$type": "ILCGAGEGDJI",
                "type": "BODY_LANG",
                "delayTime": 3.7720000743865967,
                "aliasList": [
                    "Avatar"
                ],
                "actionId": 241,
                "FLBOOPHHFJP": 1130,
                "PMJAMGLAJGK": true,
                "LIMPPBIAKGL": false,
                "FNEGLPPEBBF": true,
                "FNDLJGEAMGI": ""
            }
        ],
        [
            {
                "$type": "MOOOKOKLLEI",
                "type": "CAMERA_MOVE",
                "duration": 1.0,
                "actionId": 191,
                "DOKGBCKOLJK": {
                    "x": -912.64697265625,
                    "y": 206.3769989013672,
                    "z": 2611.72509765625
                },
                "HGKCPMDICGG": {
                    "x": -912.9190063476562,
                    "y": 206.21800231933594,
                    "z": 2612.674072265625
                },
                "AFODHELHCGB": 30.0,
                "MGMFMGNANHH": 6,
                "NDFGFJFGHKL": "EaseInOutCubic",
                "IBCBGNHCICN": {},
                "BNBBLLBEIDL": true,
                "HCPFCAHMGMO": false,
                "OMCCMPHDLOO": "",
                "FEFNBKOHPOG": true,
                "OCFGGGHIKOO": "",
                "LJFHGGJDPHH": "",
                "LPKDFKLNEHL": ""
            },
            {
                "$type": "ILCGAGEGDJI",
                "type": "BODY_LANG",
                "aliasList": [
                    "Avatar"
                ],
                "actionId": 242,
                "JLABKFNJCNP": true,
                "PMJAMGLAJGK": true,
                "LIMPPBIAKGL": false,
                "FNEGLPPEBBF": true,
                "FNDLJGEAMGI": ""
            },
            {
                "$type": "DLPFECMKEKH",
                "type": "DIALOG",
                "aliasList": [
                    "4198"
                ],
                "NMKEDPFEKBH": 730011720,
                "JLCHMAJCAPA": 0.5
            },
            {
                "$type": "ILCGAGEGDJI",
                "type": "BODY_LANG",
                "aliasList": [
                    "4198"
                ],
                "actionId": 204,
                "FLBOOPHHFJP": 4030,
                "PMJAMGLAJGK": true,
                "LIMPPBIAKGL": false,
                "FNEGLPPEBBF": true,
                "FNDLJGEAMGI": ""
            },
            {
                "$type": "MoleMole.Config.ConfigVisibleInterAction",
                "type": "VISIBLE",
                "aliasList": [
                    "4198"
                ],
                "actionId": 231,
                "isVisible": true,
                "extraParam": ""
            },
            {
                "$type": "EAMBKPBOPIC",
                "type": "LOOK_AT",
                "aliasList": [
                    "4198"
                ],
                "actionId": 243,
                "FIDJDPAIFDN": true,
                "BCHGCKLKNEH": 0.4000000059604645,
                "OMCCMPHDLOO": "Avatar",
                "EOHIIHMKDJC": true,
                "KPCALFDIHMC": "",
                "DBLNLMOPEBP": ""
            },
            {
                "$type": "MOOOKOKLLEI",
                "type": "CAMERA_MOVE",
                "delayTime": 0.10000000149011612,
                "duration": 10.0,
                "actionId": 181,
                "DOKGBCKOLJK": {
                    "x": -912.5159912109375,
                    "y": 206.3000030517578,
                    "z": 2611.75
                },
                "HGKCPMDICGG": {
                    "x": -912.7880249023438,
                    "y": 206.14100646972656,
                    "z": 2612.698974609375
                },
                "AFODHELHCGB": 30.0,
                "NDFGFJFGHKL": "EaseOutQuad",
                "IBCBGNHCICN": {},
                "BNBBLLBEIDL": true,
                "HCPFCAHMGMO": false,
                "OMCCMPHDLOO": "",
                "FEFNBKOHPOG": true,
                "OCFGGGHIKOO": "",
                "LJFHGGJDPHH": "",
                "LPKDFKLNEHL": ""
            },
            {
                "$type": "ILCGAGEGDJI",
                "type": "BODY_LANG",
                "delayTime": 2.946000099182129,
                "aliasList": [
                    "4198"
                ],
                "actionId": 205,
                "FLBOOPHHFJP": 1172,
                "PMJAMGLAJGK": true,
                "LIMPPBIAKGL": false,
                "FNEGLPPEBBF": true,
                "FNDLJGEAMGI": ""
            },
            {
                "$type": "ILCGAGEGDJI",
                "type": "BODY_LANG",
                "delayTime": 5.932000160217285,
                "aliasList": [
                    "4198"
                ],
                "actionId": 206,
                "JLABKFNJCNP": true,
                "PMJAMGLAJGK": true,
                "LIMPPBIAKGL": false,
                "FNEGLPPEBBF": true,
                "FNDLJGEAMGI": ""
            }
        ],
        [
            {
                "$type": "MoleMole.Config.ConfigSimpleBlackScreenAction",
                "type": "SIMPLE_BLACK_SCREEN",
                "durationToBlack": 0.5,
                "durationKeepBlack": 1.0,
                "durationFromBlack": 0.5,
                "textMapID": ""
            },
            {
                "$type": "MoleMole.Config.ConfigTimeProtectAction",
                "type": "TIME_PROTECT",
                "duration": 0.699999988079071
            },
            {
                "$type": "ILCGAGEGDJI",
                "type": "BODY_LANG",
                "aliasList": [
                    "4198"
                ],
                "actionId": 207,
                "JLABKFNJCNP": true,
                "PMJAMGLAJGK": true,
                "LIMPPBIAKGL": false,
                "FNEGLPPEBBF": true,
                "FNDLJGEAMGI": ""
            },
            {
                "$type": "MOOOKOKLLEI",
                "type": "CAMERA_MOVE",
                "delayTime": 0.6000000238418579,
                "duration": 0.10000000149011612,
                "actionId": 182,
                "DOKGBCKOLJK": {
                    "x": -914.7160034179688,
                    "y": 206.3209991455078,
                    "z": 2614.19091796875
                },
                "HGKCPMDICGG": {
                    "x": -914.7160034179688,
                    "y": 206.0590057373047,
                    "z": 2615.156005859375
                },
                "MGMFMGNANHH": 6,
                "NDFGFJFGHKL": "EaseInOutCubic",
                "IBCBGNHCICN": {},
                "BNBBLLBEIDL": true,
                "HCPFCAHMGMO": false,
                "OMCCMPHDLOO": "",
                "FEFNBKOHPOG": true,
                "OCFGGGHIKOO": "",
                "LJFHGGJDPHH": "",
                "LPKDFKLNEHL": ""
            }
        ]
    ],
    "groupId": [
        {
            "grpId": 2902194731,
            "nextGrpId": 2902194732
        },
        {
            "index": 1,
            "grpId": 2902194732,
            "nextGrpId": 2902194733
        },
        {
            "index": 2,
            "grpId": 2902194733,
            "nextGrpId": 2902194734
        },
        {
            "index": 3,
            "grpId": 2902194734,
            "nextGrpId": 2902194735
        },
        {
            "index": 4,
            "grpId": 2902194735,
            "nextGrpId": 2902194736
        },
        {
            "index": 5,
            "grpId": 2902194736,
            "nextGrpId": 2902194737
        },
        {
            "index": 6,
            "grpId": 2902194737,
            "nextGrpId": 2902194738
        },
        {
            "index": 7,
            "grpId": 2902194738,
            "nextGrpId": 4068690790
        },
        {
            "index": 8,
            "grpId": 2902194739,
            "nextGrpId": 4068690789
        },
        {
            "index": 9,
            "grpId": 4068690789,
            "nextGrpId": 4068690790
        },
        {
            "index": 10,
            "grpId": 4068690790,
            "nextGrpId": 4068690791
        },
        {
            "index": 11,
            "grpId": 4068690791,
            "nextGrpId": 4068690792
        },
        {
            "index": 12,
            "grpId": 4068690792,
            "nextGrpId": 4068690793
        },
        {
            "index": 13,
            "grpId": 4068690793,
            "nextGrpId": 4068690794
        },
        {
            "index": 14,
            "grpId": 4068690794,
            "nextGrpId": 4068690795
        }
    ],
    "freeStyleDic": {
        "4198": [
            1171,
            1170,
            1110,
            1030,
            1190,
            4030,
            1172
        ]
    }
}