{
    "luaDataPath": "",
    "startBlackKeepTime": 1.0,
    "entityBan": "",
    "disableNpcLod": true,
    "isAutoBanNpc": true,
    "isBanWidgetPet": true,
    "protectNpcMobileLod": true,
    "startFade": {
        "startFadeInDuration": 0.5,
        "startFadeOutDuration": 0.5
    },
    "endFade": {
        "startFadeOutDuration": 0.0
    },
    "actors": [
        {
            "alias": "Avatar",
            "visible": true,
            "bornPointName": "Q4111414Paimon",
            "relativePosType": "AVATAR_NEW",
            "relativePosNpcAlias": "",
            "bindMovingTargetKey": ""
        },
        {
            "configID": 1005,
            "alias": "1005",
            "visible": true,
            "bornPointName": "Q4111414Paimon",
            "removeActorType": "NEW_REMOVE_WITH_DISAPPEAR",
            "relativePosType": "AVATAR_NEW",
            "relativePosNpcAlias": "",
            "bindMovingTargetKey": ""
        },
        {
            "configID": 507,
            "alias": "507",
            "visible": true,
            "bornPointName": "Q4111414Paimon",
            "removeActorType": "NEW_REMOVE",
            "relativePosType": "AVATAR_NEW",
            "relativePosNpcAlias": "",
            "bindMovingTargetKey": ""
        }
    ],
    "group": [
        [
            {
                "$type": "MOOOKOKLLEI",
                "type": "CAMERA_MOVE",
                "duration": 0.5,
                "actionId": 128,
                "DOKGBCKOLJK": {
                    "x": -0.09799999743700027,
                    "y": 0.9490000009536743,
                    "z": -5.178999900817871
                },
                "HGKCPMDICGG": {
                    "x": -0.08699999749660492,
                    "y": 0.9599999785423279,
                    "z": -4.178999900817871
                },
                "AFODHELHCGB": 30.0,
                "MGMFMGNANHH": 6,
                "NDFGFJFGHKL": "EaseInOutCubic",
                "IBCBGNHCICN": {},
                "BNBBLLBEIDL": true,
                "HCPFCAHMGMO": false,
                "OMCCMPHDLOO": "",
                "FEFNBKOHPOG": true,
                "OCFGGGHIKOO": "",
                "LJFHGGJDPHH": "",
                "LPKDFKLNEHL": ""
            },
            {
                "$type": "MoleMole.Config.ConfigTimeProtectAction",
                "type": "TIME_PROTECT",
                "duration": 1.0,
                "actionId": 192
            },
            {
                "$type": "MoleMole.Config.ConfigBlackScreenAction",
                "type": "BLACK_SCREEN",
                "actionId": 193,
                "blackScreenType": "KEEP_BLACK",
                "durationKeepBlack": 1.0,
                "inteePos": "",
                "textMapID": "",
                "useTextFade": true
            },
            {
                "$type": "MoleMole.Config.ConfigTeleportToAction",
                "type": "TELEPORT_TO",
                "aliasList": [
                    "Avatar"
                ],
                "actionId": 143,
                "position": {
                    "x": 0.6859999895095825,
                    "y": 0.03799999877810478,
                    "z": 3.1480000019073486
                },
                "forward": {
                    "x": -0.6859999895095825,
                    "y": -0.03799999877810478,
                    "z": -2.1480000019073486
                },
                "openLongDisTeleport": true,
                "posBindMovingTargetKey": "",
                "forwardBindMovingTargetKey": ""
            },
            {
                "$type": "EAMBKPBOPIC",
                "type": "LOOK_AT",
                "aliasList": [
                    "Avatar"
                ],
                "actionId": 146,
                "FIDJDPAIFDN": true,
                "useTargetPos": true,
                "GFKIMGBGADJ": true,
                "GMKIJKADNHN": {
                    "x": 0.3140000104904175,
                    "y": 1.0260000228881836,
                    "z": -0.8529999852180481
                },
                "BCHGCKLKNEH": 0.5,
                "OMCCMPHDLOO": "",
                "CEBMBGKJACI": "NONE",
                "EOHIIHMKDJC": true,
                "KPCALFDIHMC": "",
                "DBLNLMOPEBP": ""
            },
            {
                "$type": "EAMBKPBOPIC",
                "type": "LOOK_AT",
                "aliasList": [
                    "1005"
                ],
                "actionId": 133,
                "FIDJDPAIFDN": true,
                "useTargetPos": true,
                "GFKIMGBGADJ": true,
                "GMKIJKADNHN": {
                    "x": 0.3140000104904175,
                    "y": 1.0260000228881836,
                    "z": -0.8529999852180481
                },
                "BCHGCKLKNEH": 0.5,
                "OMCCMPHDLOO": "",
                "CEBMBGKJACI": "NONE",
                "EOHIIHMKDJC": true,
                "KPCALFDIHMC": "",
                "DBLNLMOPEBP": ""
            },
            {
                "$type": "MoleMole.Config.ConfigTeleportToAction",
                "type": "TELEPORT_TO",
                "aliasList": [
                    "507"
                ],
                "actionId": 145,
                "position": {
                    "x": -0.7749999761581421,
                    "y": 0.03799999877810478,
                    "z": -0.7039999961853027
                },
                "forward": {
                    "x": 1.3910000324249268,
                    "y": -0.03799999877810478,
                    "z": -0.23800000548362732
                },
                "openLongDisTeleport": true,
                "posBindMovingTargetKey": "",
                "forwardBindMovingTargetKey": ""
            },
            {
                "$type": "MoleMole.Config.ConfigTeleportToAction",
                "type": "TELEPORT_TO",
                "delayTime": 0.01600000075995922,
                "aliasList": [
                    "1005"
                ],
                "actionId": 144,
                "position": {
                    "x": 1.5880000591278076,
                    "y": 0.03799999877810478,
                    "z": 2.687000036239624
                },
                "forward": {
                    "x": -0.32499998807907104,
                    "z": -0.9459999799728394
                },
                "openLongDisTeleport": true,
                "posBindMovingTargetKey": "",
                "forwardBindMovingTargetKey": ""
            },
            {
                "$type": "MoleMole.Config.ConfigPlayEffectAction",
                "type": "PLAY_EFFECT",
                "delayTime": 0.32100000977516174,
                "actionId": 130,
                "effectIndex": "1",
                "patternName": "Eff_Quest_Monster_Defender_Eye_01",
                "pos": {
                    "x": 46.441001892089844,
                    "y": 0.824999988079071,
                    "z": 99.95700073242188
                },
                "scale": {
                    "x": 1.0,
                    "y": 1.0,
                    "z": 1.0
                },
                "isLoop": true,
                "otherTargetNpcAlias": ""
            }
        ],
        [
            {
                "$type": "MoleMole.Config.ConfigPlayEffectAction",
                "type": "PLAY_EFFECT",
                "actionId": 131,
                "effectIndex": "1",
                "patternName": "Eff_Quest_Monster_Defender_Eye_01",
                "pos": {
                    "x": 46.441001892089844,
                    "y": 0.824999988079071,
                    "z": 99.95700073242188
                },
                "scale": {
                    "x": 1.0,
                    "y": 1.0,
                    "z": 1.0
                },
                "isLoop": true,
                "isRemove": true,
                "otherTargetNpcAlias": ""
            },
            {
                "$type": "MoleMole.Config.ConfigBlackScreenAction",
                "type": "BLACK_SCREEN",
                "actionId": 194,
                "blackScreenType": "FROM_BLACK",
                "durationFromBlack": 0.5,
                "inteePos": "",
                "textMapID": "",
                "useTextFade": true
            },
            {
                "$type": "DLPFECMKEKH",
                "type": "DIALOG",
                "aliasList": [
                    "1005"
                ],
                "actionId": 107,
                "NMKEDPFEKBH": 8004201,
                "JLCHMAJCAPA": 0.5
            },
            {
                "$type": "EAMBKPBOPIC",
                "type": "LOOK_AT",
                "delayTime": 0.14000000059604645,
                "aliasList": [
                    "507"
                ],
                "actionId": 149,
                "FIDJDPAIFDN": true,
                "useTargetPos": true,
                "GFKIMGBGADJ": true,
                "GMKIJKADNHN": {
                    "x": 1.4179999828338623,
                    "y": 1.0740000009536743,
                    "z": 0.8389999866485596
                },
                "BCHGCKLKNEH": 0.5,
                "OMCCMPHDLOO": "",
                "CEBMBGKJACI": "NONE",
                "EOHIIHMKDJC": true,
                "KPCALFDIHMC": "",
                "DBLNLMOPEBP": ""
            }
        ],
        [
            {
                "$type": "MOOOKOKLLEI",
                "type": "CAMERA_MOVE",
                "duration": 0.5,
                "actionId": 150,
                "DOKGBCKOLJK": {
                    "x": 2.1589999198913574,
                    "y": 0.9810000061988831,
                    "z": -1.281999945640564
                },
                "HGKCPMDICGG": {
                    "x": 1.2070000171661377,
                    "y": 1.0460000038146973,
                    "z": -0.984000027179718
                },
                "AFODHELHCGB": 30.0,
                "MGMFMGNANHH": 6,
                "NDFGFJFGHKL": "EaseInOutCubic",
                "IBCBGNHCICN": {},
                "BNBBLLBEIDL": true,
                "HCPFCAHMGMO": false,
                "OMCCMPHDLOO": "",
                "FEFNBKOHPOG": true,
                "OCFGGGHIKOO": "",
                "LJFHGGJDPHH": "",
                "LPKDFKLNEHL": ""
            },
            {
                "$type": "DLPFECMKEKH",
                "type": "DIALOG",
                "aliasList": [
                    "1005"
                ],
                "actionId": 124,
                "NMKEDPFEKBH": 8004201,
                "JLCHMAJCAPA": 0.5
            }
        ],
        [
            {
                "$type": "MOOOKOKLLEI",
                "type": "CAMERA_MOVE",
                "duration": 0.5,
                "actionId": 159,
                "DOKGBCKOLJK": {
                    "x": 1.7259999513626099,
                    "y": 1.1239999532699585,
                    "z": -5.715000152587891
                },
                "HGKCPMDICGG": {
                    "x": 1.4609999656677246,
                    "y": 1.0959999561309814,
                    "z": -4.750999927520752
                },
                "AFODHELHCGB": 30.0,
                "MGMFMGNANHH": 6,
                "NDFGFJFGHKL": "EaseInOutCubic",
                "IBCBGNHCICN": {},
                "BNBBLLBEIDL": true,
                "HCPFCAHMGMO": false,
                "OMCCMPHDLOO": "",
                "FEFNBKOHPOG": true,
                "OCFGGGHIKOO": "",
                "LJFHGGJDPHH": "",
                "LPKDFKLNEHL": ""
            },
            {
                "$type": "DLPFECMKEKH",
                "type": "DIALOG",
                "aliasList": [
                    "1005"
                ],
                "actionId": 158,
                "NMKEDPFEKBH": 8004201,
                "JLCHMAJCAPA": 0.5
            },
            {
                "$type": "OOMFCPJAJGL",
                "type": "STEER_TO",
                "duration": 1.0,
                "aliasList": [
                    "507"
                ],
                "actionId": 160,
                "DMGIIHNDNLC": "ABSOLUTE",
                "PLAPKCOMAKJ": {
                    "x": 0.5879999995231628,
                    "y": 0.03799999877810478,
                    "z": 2.561000108718872
                },
                "HCMINPNPFDF": true,
                "PENAEBFAHCH": true,
                "CKOEAJFMDON": true,
                "OMCCMPHDLOO": "",
                "AKKPIOCLGOP": true,
                "PPGPCHDAOJG": true,
                "DBLNLMOPEBP": ""
            },
            {
                "$type": "EAMBKPBOPIC",
                "type": "LOOK_AT",
                "aliasList": [
                    "507"
                ],
                "actionId": 163,
                "FIDJDPAIFDN": true,
                "useTargetPos": true,
                "GFKIMGBGADJ": true,
                "GMKIJKADNHN": {
                    "x": 1.3309999704360962,
                    "y": 1.5440000295639038,
                    "z": 2.382999897003174
                },
                "BCHGCKLKNEH": 0.5,
                "OMCCMPHDLOO": "",
                "CEBMBGKJACI": "NONE",
                "EOHIIHMKDJC": true,
                "KPCALFDIHMC": "",
                "DBLNLMOPEBP": ""
            }
        ],
        [
            {
                "$type": "MOOOKOKLLEI",
                "type": "CAMERA_MOVE",
                "duration": 0.5,
                "actionId": 161,
                "DOKGBCKOLJK": {
                    "x": 2.1700000762939453,
                    "y": 7.168000221252441,
                    "z": -11.633999824523926
                },
                "HGKCPMDICGG": {
                    "x": 1.9320000410079956,
                    "y": 6.673999786376953,
                    "z": -10.79800033569336
                },
                "AFODHELHCGB": 30.0,
                "MGMFMGNANHH": 6,
                "NDFGFJFGHKL": "EaseInOutCubic",
                "IBCBGNHCICN": {},
                "BNBBLLBEIDL": true,
                "HCPFCAHMGMO": false,
                "OMCCMPHDLOO": "",
                "FEFNBKOHPOG": true,
                "OCFGGGHIKOO": "",
                "LJFHGGJDPHH": "",
                "LPKDFKLNEHL": ""
            },
            {
                "$type": "DLPFECMKEKH",
                "type": "DIALOG",
                "aliasList": [
                    "1005"
                ],
                "actionId": 152,
                "NMKEDPFEKBH": 8004201,
                "JLCHMAJCAPA": 0.5
            },
            {
                "$type": "MoleMole.Config.ConfigTeleportToAction",
                "type": "TELEPORT_TO",
                "aliasList": [
                    "507"
                ],
                "actionId": 162,
                "position": {
                    "x": -2.818000078201294,
                    "y": 0.03799999877810478,
                    "z": -3.181999921798706
                },
                "forward": {
                    "x": 4.066999912261963,
                    "z": 5.829999923706055
                },
                "openLongDisTeleport": true,
                "posBindMovingTargetKey": "",
                "forwardBindMovingTargetKey": ""
            },
            {
                "$type": "MoleMole.Config.ConfigMoveToAction",
                "type": "MOVE_TO",
                "delayTime": 0.05299999937415123,
                "aliasList": [
                    "507"
                ],
                "actionId": 153,
                "moveType": "WALK",
                "routeList": [
                    {
                        "x": 0.5230000019073486,
                        "y": 0.03799999877810478,
                        "z": 1.5859999656677246
                    }
                ],
                "exactlyMove": true,
                "closeNavMesh": true,
                "openSetPos": true,
                "bindMovingTargetKey": ""
            },
            {
                "$type": "EAMBKPBOPIC",
                "type": "LOOK_AT",
                "delayTime": 0.10599999874830246,
                "aliasList": [
                    "507"
                ],
                "actionId": 164,
                "BCHGCKLKNEH": 0.5,
                "OMCCMPHDLOO": "",
                "EOHIIHMKDJC": true,
                "KPCALFDIHMC": "",
                "DBLNLMOPEBP": ""
            }
        ],
        [
            {
                "$type": "DLPFECMKEKH",
                "type": "DIALOG",
                "aliasList": [
                    "1005"
                ],
                "actionId": 125,
                "NMKEDPFEKBH": 8004201,
                "JLCHMAJCAPA": 0.5
            },
            {
                "$type": "MoleMole.Config.ConfigMoveToAction",
                "type": "MOVE_TO",
                "aliasList": [
                    "507"
                ],
                "actionId": 140,
                "moveType": "RUN",
                "routeList": [
                    {
                        "x": -1.8359999656677246,
                        "y": 0.03799999877810478,
                        "z": -2.3289999961853027
                    }
                ],
                "exactlyMove": true,
                "closeNavMesh": true,
                "directMoveSpeed": 3.2899999618530273,
                "openSetPos": true,
                "bindMovingTargetKey": ""
            }
        ],
        [
            {
                "$type": "MOOOKOKLLEI",
                "type": "CAMERA_MOVE",
                "duration": 0.5,
                "actionId": 168,
                "DOKGBCKOLJK": {
                    "x": 0.8299999833106995,
                    "y": 0.800000011920929,
                    "z": -5.415999889373779
                },
                "HGKCPMDICGG": {
                    "x": 0.20200000703334808,
                    "y": 0.7839999794960022,
                    "z": -4.638000011444092
                },
                "AFODHELHCGB": 30.0,
                "MGMFMGNANHH": 6,
                "NDFGFJFGHKL": "EaseInOutCubic",
                "IBCBGNHCICN": {},
                "BNBBLLBEIDL": true,
                "HCPFCAHMGMO": false,
                "OMCCMPHDLOO": "",
                "FEFNBKOHPOG": true,
                "OCFGGGHIKOO": "",
                "LJFHGGJDPHH": "",
                "LPKDFKLNEHL": ""
            },
            {
                "$type": "DLPFECMKEKH",
                "type": "DIALOG",
                "aliasList": [
                    "1005"
                ],
                "actionId": 126,
                "NMKEDPFEKBH": 8004201,
                "JLCHMAJCAPA": 0.5
            },
            {
                "$type": "MoleMole.Config.ConfigLocalGadgetOP",
                "type": "LOCAL_GADGET_OP",
                "aliasList": [
                    "1005"
                ],
                "actionId": 165,
                "gadgetId": 70300048,
                "subKey": 2,
                "oprCode": 1,
                "slotName": "",
                "canReCreate": true,
                "position": {
                    "x": -1.8329999446868896,
                    "y": -0.0689999982714653,
                    "z": -2.3259999752044678
                },
                "euler": {
                    "y": 216.63299560546875
                },
                "gvKey": ""
            },
            {
                "$type": "MoleMole.Config.ConfigTeleportToAction",
                "type": "TELEPORT_TO",
                "aliasList": [
                    "507"
                ],
                "actionId": 166,
                "position": {
                    "x": -1.8359999656677246,
                    "y": 0.03799999877810478,
                    "z": -2.3289999961853027
                },
                "forward": {
                    "x": -0.597000002861023,
                    "z": -0.8019999861717224
                },
                "openLongDisTeleport": true,
                "posBindMovingTargetKey": "",
                "forwardBindMovingTargetKey": ""
            },
            {
                "$type": "MoleMole.Config.ConfigSitOrStandAction",
                "type": "SIT_OR_STAND",
                "delayTime": 0.3019999861717224,
                "aliasList": [
                    "507"
                ],
                "actionId": 167,
                "isSit": true,
                "standDirection": "FRONT",
                "banResetFreestyle": true
            }
        ],
        [
            {
                "$type": "MOOOKOKLLEI",
                "type": "CAMERA_MOVE",
                "duration": 0.5,
                "actionId": 170,
                "DOKGBCKOLJK": {
                    "x": -3.0339999198913574,
                    "y": 1.0679999589920044,
                    "z": -7.052999973297119
                },
                "HGKCPMDICGG": {
                    "x": -2.7339999675750732,
                    "y": 1.034000039100647,
                    "z": -6.099999904632568
                },
                "AFODHELHCGB": 30.0,
                "MGMFMGNANHH": 6,
                "NDFGFJFGHKL": "EaseInOutCubic",
                "IBCBGNHCICN": {},
                "BNBBLLBEIDL": true,
                "HCPFCAHMGMO": false,
                "OMCCMPHDLOO": "",
                "FEFNBKOHPOG": true,
                "OCFGGGHIKOO": "",
                "LJFHGGJDPHH": "",
                "LPKDFKLNEHL": ""
            },
            {
                "$type": "DLPFECMKEKH",
                "type": "DIALOG",
                "aliasList": [
                    "1005"
                ],
                "actionId": 127,
                "NMKEDPFEKBH": 8004201,
                "JLCHMAJCAPA": 0.5
            },
            {
                "$type": "MoleMole.Config.ConfigSitOrStandAction",
                "type": "SIT_OR_STAND",
                "aliasList": [
                    "507"
                ],
                "actionId": 169,
                "standDirection": "FRONT",
                "banResetFreestyle": true
            },
            {
                "$type": "ILCGAGEGDJI",
                "type": "BODY_LANG",
                "delayTime": 0.07900000363588333,
                "aliasList": [
                    "507"
                ],
                "actionId": 173,
                "JLABKFNJCNP": true,
                "PMJAMGLAJGK": true,
                "LIMPPBIAKGL": false,
                "FNEGLPPEBBF": true,
                "FNDLJGEAMGI": ""
            },
            {
                "$type": "MoleMole.Config.ConfigSetArmAction",
                "type": "SET_NPC_ARM",
                "delayTime": 0.3959999978542328,
                "aliasList": [
                    "507"
                ],
                "actionId": 172,
                "enable": true,
                "leftArmHor": -0.6800000071525574,
                "leftArmVer": -1.0,
                "rightArmHor": -1.0,
                "rightArmVer": 1.0
            }
        ],
        [
            {
                "$type": "MoleMole.Config.ConfigSimpleBlackScreenAction",
                "type": "SIMPLE_BLACK_SCREEN",
                "actionId": 179,
                "durationToBlack": 0.5,
                "durationKeepBlack": 2.0,
                "durationFromBlack": 0.5,
                "textMapID": "",
                "useTextFade": true
            },
            {
                "$type": "MoleMole.Config.ConfigTimeProtectAction",
                "type": "TIME_PROTECT",
                "duration": 2.5,
                "actionId": 183
            },
            {
                "$type": "MoleMole.Config.ConfigLocalGadgetOP",
                "type": "LOCAL_GADGET_OP",
                "aliasList": [
                    "1005"
                ],
                "actionId": 181,
                "gadgetId": 70300048,
                "subKey": 2,
                "oprCode": 2,
                "slotName": "",
                "canReCreate": true,
                "position": {
                    "x": -1.8329999446868896,
                    "y": -0.0689999982714653,
                    "z": -2.3259999752044678
                },
                "euler": {
                    "y": 216.63299560546875
                },
                "gvKey": ""
            },
            {
                "$type": "MoleMole.Config.ConfigSetArmAction",
                "type": "SET_NPC_ARM",
                "aliasList": [
                    "507"
                ],
                "actionId": 177
            }
        ],
        [
            {
                "$type": "MoleMole.Config.ConfigLocalGadgetOP",
                "type": "LOCAL_GADGET_OP",
                "actionId": 184,
                "gadgetId": 70710553,
                "subKey": 1,
                "oprCode": 1,
                "slotName": "",
                "canReCreate": true,
                "position": {
                    "x": 3.8910000324249268,
                    "y": 0.03799999877810478,
                    "z": -3.872999906539917
                },
                "euler": {
                    "y": 216.66400146484375
                },
                "gvKey": ""
            },
            {
                "$type": "MOOOKOKLLEI",
                "type": "CAMERA_MOVE",
                "duration": 0.5,
                "actionId": 200,
                "DOKGBCKOLJK": {
                    "x": 3.2639999389648438,
                    "y": 2.4739999771118164,
                    "z": -6.460999965667725
                },
                "HGKCPMDICGG": {
                    "x": 3.4159998893737793,
                    "y": 1.7960000038146973,
                    "z": -5.742000102996826
                },
                "AFODHELHCGB": 55.8489990234375,
                "MGMFMGNANHH": 6,
                "NDFGFJFGHKL": "EaseInOutCubic",
                "IBCBGNHCICN": {},
                "BNBBLLBEIDL": true,
                "HCPFCAHMGMO": false,
                "OMCCMPHDLOO": "",
                "FEFNBKOHPOG": true,
                "OCFGGGHIKOO": "",
                "LJFHGGJDPHH": "",
                "LPKDFKLNEHL": ""
            },
            {
                "$type": "DLPFECMKEKH",
                "type": "DIALOG",
                "aliasList": [
                    "1005"
                ],
                "actionId": 190,
                "NMKEDPFEKBH": 8004201,
                "JLCHMAJCAPA": 0.5
            }
        ],
        [
            {
                "$type": "MoleMole.Config.ConfigLocalGadgetOP",
                "type": "LOCAL_GADGET_OP",
                "actionId": 203,
                "gadgetId": 70710553,
                "subKey": 1,
                "oprCode": 4,
                "slotName": "",
                "canReCreate": true,
                "position": {
                    "x": 3.8910000324249268,
                    "y": 0.03799999877810478,
                    "z": -3.872999906539917
                },
                "euler": {
                    "y": 216.66400146484375
                },
                "gvKey": "",
                "moveDatas": [
                    {
                        "targetPos": {
                            "x": 2.803999900817871,
                            "y": 0.03799999877810478,
                            "z": -0.9750000238418579
                        },
                        "time": 1.0
                    }
                ]
            },
            {
                "$type": "MOOOKOKLLEI",
                "type": "CAMERA_MOVE",
                "duration": 0.5,
                "actionId": 204,
                "DOKGBCKOLJK": {
                    "x": 3.2639999389648438,
                    "y": 2.4739999771118164,
                    "z": -6.460999965667725
                },
                "HGKCPMDICGG": {
                    "x": 3.4159998893737793,
                    "y": 1.7960000038146973,
                    "z": -5.742000102996826
                },
                "AFODHELHCGB": 55.8489990234375,
                "MGMFMGNANHH": 6,
                "NDFGFJFGHKL": "EaseInOutCubic",
                "IBCBGNHCICN": {},
                "BNBBLLBEIDL": true,
                "HCPFCAHMGMO": false,
                "OMCCMPHDLOO": "",
                "FEFNBKOHPOG": true,
                "OCFGGGHIKOO": "",
                "LJFHGGJDPHH": "",
                "LPKDFKLNEHL": ""
            },
            {
                "$type": "DLPFECMKEKH",
                "type": "DIALOG",
                "aliasList": [
                    "1005"
                ],
                "actionId": 208,
                "NMKEDPFEKBH": 8004201,
                "JLCHMAJCAPA": 0.5
            }
        ],
        [
            {
                "$type": "MoleMole.Config.ConfigLocalGadgetOP",
                "type": "LOCAL_GADGET_OP",
                "actionId": 206,
                "gadgetId": 70710553,
                "subKey": 1,
                "oprCode": 2,
                "slotName": "",
                "canReCreate": true,
                "position": {
                    "x": 3.8910000324249268,
                    "y": 0.03799999877810478,
                    "z": -3.872999906539917
                },
                "euler": {
                    "y": 216.66400146484375
                },
                "gvKey": "",
                "moveDatas": [
                    {
                        "targetPos": {
                            "x": 2.803999900817871,
                            "y": 0.03799999877810478,
                            "z": -0.9750000238418579
                        },
                        "time": 1.0
                    }
                ]
            },
            {
                "$type": "MOOOKOKLLEI",
                "type": "CAMERA_MOVE",
                "duration": 0.5,
                "actionId": 207,
                "DOKGBCKOLJK": {
                    "x": 3.2639999389648438,
                    "y": 2.4739999771118164,
                    "z": -6.460999965667725
                },
                "HGKCPMDICGG": {
                    "x": 3.4159998893737793,
                    "y": 1.7960000038146973,
                    "z": -5.742000102996826
                },
                "AFODHELHCGB": 55.8489990234375,
                "MGMFMGNANHH": 6,
                "NDFGFJFGHKL": "EaseInOutCubic",
                "IBCBGNHCICN": {},
                "BNBBLLBEIDL": true,
                "HCPFCAHMGMO": false,
                "OMCCMPHDLOO": "",
                "FEFNBKOHPOG": true,
                "OCFGGGHIKOO": "",
                "LJFHGGJDPHH": "",
                "LPKDFKLNEHL": ""
            },
            {
                "$type": "DLPFECMKEKH",
                "type": "DIALOG",
                "aliasList": [
                    "1005"
                ],
                "actionId": 209,
                "NMKEDPFEKBH": 8004201,
                "JLCHMAJCAPA": 0.5
            }
        ],
        [
            {
                "$type": "MoleMole.Config.ConfigSimpleBlackScreenAction",
                "type": "SIMPLE_BLACK_SCREEN",
                "actionId": 213,
                "durationToBlack": 0.5,
                "durationKeepBlack": 2.0,
                "durationFromBlack": 0.5,
                "textMapID": "",
                "useTextFade": true
            },
            {
                "$type": "MoleMole.Config.ConfigTimeProtectAction",
                "type": "TIME_PROTECT",
                "duration": 2.5,
                "actionId": 214
            }
        ],
        [
            {
                "$type": "MoleMole.Config.ConfigPlayEffectAction",
                "type": "PLAY_EFFECT",
                "actionId": 215,
                "effectIndex": "",
                "patternName": "Eff_Quest_Monster_Defender_Eye_01",
                "pos": {
                    "x": 3.984999895095825,
                    "y": 0.052000001072883606,
                    "z": -0.5149999856948853
                },
                "euler": {
                    "x": 353.10101318359375,
                    "y": 181.072998046875,
                    "z": 350.8739929199219
                },
                "scale": {
                    "x": 1.0,
                    "y": 1.0,
                    "z": 1.0
                },
                "isLoop": true,
                "otherTargetNpcAlias": ""
            },
            {
                "$type": "MOOOKOKLLEI",
                "type": "CAMERA_MOVE",
                "duration": 0.5,
                "actionId": 217,
                "DOKGBCKOLJK": {
                    "x": 3.8380000591278076,
                    "y": 2.0840001106262207,
                    "z": -2.4019999504089355
                },
                "HGKCPMDICGG": {
                    "x": 3.931999921798706,
                    "y": 1.3890000581741333,
                    "z": -1.6890000104904175
                },
                "AFODHELHCGB": 55.8489990234375,
                "MGMFMGNANHH": 6,
                "NDFGFJFGHKL": "EaseInOutCubic",
                "IBCBGNHCICN": {},
                "BNBBLLBEIDL": true,
                "HCPFCAHMGMO": false,
                "OMCCMPHDLOO": "",
                "FEFNBKOHPOG": true,
                "OCFGGGHIKOO": "",
                "LJFHGGJDPHH": "",
                "LPKDFKLNEHL": ""
            },
            {
                "$type": "DLPFECMKEKH",
                "type": "DIALOG",
                "aliasList": [
                    "1005"
                ],
                "actionId": 216,
                "NMKEDPFEKBH": 8004201,
                "JLCHMAJCAPA": 0.5
            }
        ],
        [
            {
                "$type": "MOOOKOKLLEI",
                "type": "CAMERA_MOVE",
                "duration": 0.5,
                "actionId": 218,
                "DOKGBCKOLJK": {
                    "x": 0.257999986410141,
                    "y": 1.5579999685287476,
                    "z": 3.200000047683716
                },
                "HGKCPMDICGG": {
                    "x": 1.0809999704360962,
                    "y": 1.2699999809265137,
                    "z": 2.7100000381469727
                },
                "AFODHELHCGB": 55.8489990234375,
                "MGMFMGNANHH": 6,
                "NDFGFJFGHKL": "EaseInOutCubic",
                "IBCBGNHCICN": {},
                "BNBBLLBEIDL": true,
                "HCPFCAHMGMO": false,
                "OMCCMPHDLOO": "",
                "FEFNBKOHPOG": true,
                "OCFGGGHIKOO": "",
                "LJFHGGJDPHH": "",
                "LPKDFKLNEHL": ""
            },
            {
                "$type": "MoleMole.Config.ConfigCameraDOFAction",
                "type": "CAMERA_DOF",
                "actionId": 219,
                "enabled": true,
                "focusDistance": 2.809999942779541,
                "focusRange": 0.7559999823570251,
                "nearFocalDistance": 1.9739999771118164,
                "nearFocalTransDistance": 1.0,
                "dofBlurAmount": 6.329999923706055,
                "quality": 3
            },
            {
                "$type": "DLPFECMKEKH",
                "type": "DIALOG",
                "aliasList": [
                    "1005"
                ],
                "actionId": 226,
                "NMKEDPFEKBH": 8004201,
                "JLCHMAJCAPA": 0.5
            }
        ],
        [
            {
                "$type": "MOOOKOKLLEI",
                "type": "CAMERA_MOVE",
                "duration": 0.5,
                "actionId": 222,
                "DOKGBCKOLJK": {
                    "x": 1.524999976158142,
                    "y": 1.1369999647140503,
                    "z": 0.9100000262260437
                },
                "HGKCPMDICGG": {
                    "x": 2.3480000495910645,
                    "y": 0.8489999771118164,
                    "z": 0.41999998688697815
                },
                "AFODHELHCGB": 55.8489990234375,
                "MGMFMGNANHH": 6,
                "NDFGFJFGHKL": "EaseInOutCubic",
                "IBCBGNHCICN": {},
                "BNBBLLBEIDL": true,
                "HCPFCAHMGMO": false,
                "OMCCMPHDLOO": "",
                "FEFNBKOHPOG": true,
                "OCFGGGHIKOO": "",
                "LJFHGGJDPHH": "",
                "LPKDFKLNEHL": ""
            },
            {
                "$type": "MoleMole.Config.ConfigCameraDOFAction",
                "type": "CAMERA_DOF",
                "actionId": 224,
                "focusDistance": 5.0,
                "focusRange": 10.0,
                "nearFocalDistance": 1.0,
                "nearFocalTransDistance": 1.0,
                "quality": 3
            },
            {
                "$type": "DLPFECMKEKH",
                "type": "DIALOG",
                "aliasList": [
                    "1005"
                ],
                "actionId": 227,
                "NMKEDPFEKBH": 8004201,
                "JLCHMAJCAPA": 0.5
            },
            {
                "$type": "MoleMole.Config.ConfigPlayEffectAction",
                "type": "PLAY_EFFECT",
                "delayTime": 0.1550000011920929,
                "actionId": 225,
                "effectIndex": "",
                "patternName": "Eff_Quest_Monster_Defender_Eye_01",
                "pos": {
                    "x": 3.984999895095825,
                    "y": 0.052000001072883606,
                    "z": -0.5149999856948853
                },
                "euler": {
                    "x": 353.10101318359375,
                    "y": 181.072998046875,
                    "z": 350.8739929199219
                },
                "scale": {
                    "x": 1.0,
                    "y": 1.0,
                    "z": 1.0
                },
                "isLoop": true,
                "isRemove": true,
                "otherTargetNpcAlias": ""
            }
        ],
        [
            {
                "$type": "MoleMole.Config.ConfigTimeProtectAction",
                "type": "TIME_PROTECT",
                "duration": 1.0,
                "actionId": 105
            },
            {
                "$type": "MoleMole.Config.ConfigSimpleBlackScreenAction",
                "type": "SIMPLE_BLACK_SCREEN",
                "actionId": 191,
                "durationToBlack": 0.5,
                "durationKeepBlack": 1.0,
                "durationFromBlack": 0.5,
                "textMapID": "",
                "useTextFade": true
            },
            {
                "$type": "MOOOKOKLLEI",
                "type": "CAMERA_MOVE",
                "delayTime": 0.5,
                "duration": 0.10000000149011612,
                "actionId": 110,
                "HGKCPMDICGG": {
                    "z": 1.0
                },
                "AFODHELHCGB": 30.0,
                "MGMFMGNANHH": 5,
                "NDFGFJFGHKL": "EaseInOutCubic",
                "IBCBGNHCICN": {},
                "HCPFCAHMGMO": false,
                "OMCCMPHDLOO": "",
                "FEFNBKOHPOG": true,
                "OCFGGGHIKOO": "",
                "LJFHGGJDPHH": "",
                "LPKDFKLNEHL": ""
            },
            {
                "$type": "MOOOKOKLLEI",
                "type": "CAMERA_MOVE",
                "delayTime": 0.6000000238418579,
                "duration": 1.0,
                "actionId": 195,
                "IPHEFBOANAL": "EXIT",
                "HGKCPMDICGG": {
                    "z": 1.0
                },
                "AFODHELHCGB": 30.0,
                "MGMFMGNANHH": 5,
                "NDFGFJFGHKL": "EaseInOutCubic",
                "IBCBGNHCICN": {},
                "HCPFCAHMGMO": false,
                "OMCCMPHDLOO": "",
                "FEFNBKOHPOG": true,
                "OCFGGGHIKOO": "",
                "LJFHGGJDPHH": "",
                "LPKDFKLNEHL": ""
            }
        ]
    ],
    "groupId": [
        {
            "grpId": 3168788667,
            "nextGrpId": 3168788668
        },
        {
            "index": 1,
            "grpId": 3168788668,
            "nextGrpId": 3168788669
        },
        {
            "index": 2,
            "grpId": 3168788669,
            "nextGrpId": 3168788670
        },
        {
            "index": 3,
            "grpId": 3168788670,
            "nextGrpId": 3168788671
        },
        {
            "index": 4,
            "grpId": 3168788671,
            "nextGrpId": 3168788672
        },
        {
            "index": 5,
            "grpId": 3168788672,
            "nextGrpId": 3168788673
        },
        {
            "index": 6,
            "grpId": 3168788673,
            "nextGrpId": 3168788674
        },
        {
            "index": 7,
            "grpId": 3168788674,
            "nextGrpId": 3168788675
        },
        {
            "index": 8,
            "grpId": 3168788675,
            "nextGrpId": 3743168213
        },
        {
            "index": 9,
            "grpId": 3743168213,
            "nextGrpId": 3743168214
        },
        {
            "index": 10,
            "grpId": 3743168214,
            "nextGrpId": 3743168215
        },
        {
            "index": 11,
            "grpId": 3743168215,
            "nextGrpId": 3743168216
        },
        {
            "index": 12,
            "grpId": 3743168216,
            "nextGrpId": 3743168217
        },
        {
            "index": 13,
            "grpId": 3743168217,
            "nextGrpId": 3743168218
        },
        {
            "index": 14,
            "grpId": 3743168218,
            "nextGrpId": 3743168219
        },
        {
            "index": 15,
            "grpId": 3743168219,
            "nextGrpId": 3743168220
        },
        {
            "index": 16,
            "grpId": 3743168220,
            "nextGrpId": 3743168221
        }
    ],
    "freeStyleDic": {
        "507": []
    }
}