{
  "CCFPGAKINNB": 74674,
  "JNMCHAGDLOL": "WQ",
  "DPKJDKDKDFH": "MAINQUEST_TAG_GUIDE",
  "HLAINHJACPJ": 370213031,
  "CJBHOPEAEPN": 1054548110,
  "MHOOJOMLDDB": [
    174674
  ],
  "POJOCEPJPAL": [
    {
      "OHGOECEBPJM": 7467401,
      "DNINOJJPDDG": 74674,
      "NKCPJODPKPO": 1,
      "CJBHOPEAEPN": 516528588,
      "AODHOADLAJC": [
        {
          "JNMCHAGDLOL": "QUEST_CONTENT_COMPLETE_TALK",
          "OBKNOBNIEGC": [
            7467401,
            0
          ]
        }
      ],
      "OALKBEIOAOH": {
        "JNMCHAGDLOL": "QUEST_GUIDE_NPC",
        "OBKNOBNIEGC": [
          "30456"
        ],
        "KGFIGPLOOGN": 3,
        "IGOKLNLLAJL": "QUEST_GUIDE_STYLE_TARGET",
        "DHGKFEKLGFG": 4
      },
      "CDDKJNJPILI": {
        "KPOGPNLFAAE": ""
      },
      "DBJJALMJAGP": true,
      "IBKCENKCMEM": true,
      "JLPDHGIFKMC": "",
      "NADDGOKKJAO": ""
    }
  ]
}