{
    "id": 20064,
    "type": "IQ",
    "titleTextMapHash": 2793240633,
    "descTextMapHash": 699198871,
    "showType": "QUEST_HIDDEN",
    "taskID": 22400,
    "subQuests": [
        {
            "subId": 2006401,
            "mainId": 20064,
            "order": 1,
            "descTextMapHash": 154809736,
            "showType": "QUEST_HIDDEN",
            "finishCond": [
                {
                    "type": "QUEST_CONTENT_LUA_NOTIFY",
                    "param": [
                        0,
                        0
                    ],
                    "count": 1
                }
            ],
            "guide": {},
            "guideHint": {
                "COLBFDGFKDJ": ""
            },
            "isRewind": true,
            "versionBegin": "",
            "versionEnd": ""
        },
        {
            "subId": 2006402,
            "mainId": 20064,
            "order": 2,
            "descTextMapHash": 3619986808,
            "showType": "QUEST_HIDDEN",
            "finishCond": [
                {
                    "type": "QUEST_CONTENT_COMPLETE_TALK",
                    "param": [
                        2006401,
                        0
                    ]
                }
            ],
            "guide": {},
            "guideHint": {
                "COLBFDGFKDJ": ""
            },
            "finishParent": true,
            "isRewind": true,
            "versionBegin": "",
            "versionEnd": ""
        }
    ]
}