{
    "id": 3013,
    "series": 1302,
    "titleTextMapHash": 929335511,
    "descTextMapHash": 565559678,
    "rewardIdList": [
        103013
    ],
    "chapterId": 1306,
    "subQuests": [
        {
            "subId": 301301,
            "mainId": 3013,
            "order": 2,
            "descTextMapHash": 1891765036,
            "ALGDOBKHJPL": [
                300701
            ],
            "finishCond": [
                {
                    "type": "QUEST_CONTENT_COMPLETE_TALK",
                    "param": [
                        301301,
                        0
                    ]
                }
            ],
            "guide": {
                "type": "QUEST_GUIDE_NPC",
                "autoGuide": "QUEST_GUIDE_AUTO_ENABLE",
                "param": [
                    "12913"
                ],
                "guideScene": 3,
                "guideStyle": "QUEST_GUIDE_STYLE_TARGET",
                "guideLayer": "QUEST_GUIDE_LAYER_SCENE"
            },
            "guideHint": {
                "COLBFDGFKDJ": ""
            },
            "finishParent": true,
            "isRewind": true,
            "finishExec": [
                {
                    "type": "QUEST_EXEC_SET_QUEST_GLOBAL_VAR",
                    "param": [
                        "301409",
                        "1"
                    ]
                },
                {
                    "type": "QUEST_EXEC_INIT_TIME_VAR",
                    "param": [
                        "0"
                    ]
                }
            ],
            "versionBegin": "",
            "versionEnd": ""
        },
        {
            "subId": 301302,
            "mainId": 3013,
            "order": 1,
            "descTextMapHash": 1111020964,
            "ALGDOBKHJPL": [
                300701
            ],
            "finishCond": [
                {
                    "type": "QUEST_CONTENT_COMPLETE_TALK",
                    "param": [
                        301304,
                        0
                    ]
                }
            ],
            "guide": {
                "type": "QUEST_GUIDE_NPC",
                "autoGuide": "QUEST_GUIDE_AUTO_ENABLE",
                "param": [
                    "12913"
                ],
                "guideScene": 3,
                "guideStyle": "QUEST_GUIDE_STYLE_TARGET",
                "guideLayer": "QUEST_GUIDE_LAYER_SCENE"
            },
            "guideHint": {
                "COLBFDGFKDJ": ""
            },
            "isRewind": true,
            "versionBegin": "",
            "versionEnd": ""
        }
    ]
}