{
    "id": 40059,
    "series": 10068,
    "type": "EQ",
    "titleTextMapHash": 4098810271,
    "rewardIdList": [
        140059
    ],
    "chapterId": 10068,
    "subQuests": [
        {
            "subId": 4005901,
            "mainId": 40059,
            "order": 1,
            "descTextMapHash": 3086926412,
            "stepDescTextMapHash": 2425228421,
            "ALGDOBKHJPL": [
                320905,
                72278,
                72279
            ],
            "finishCond": [
                {
                    "type": "QUEST_CONTENT_FINISH_PLOT",
                    "param": [
                        4005901,
                        0
                    ]
                }
            ],
            "guide": {
                "type": "QUEST_GUIDE_LOCATION",
                "autoGuide": "QUEST_GUIDE_AUTO_ENABLE",
                "param": [
                    "Q4005403_guide_WuGeXianGuangChang",
                    "5"
                ],
                "guideScene": 3,
                "guideLayer": "QUEST_GUIDE_LAYER_SCENE"
            },
            "guideHint": {
                "COLBFDGFKDJ": ""
            },
            "isRewind": true,
            "finishExec": [
                {
                    "type": "QUEST_EXEC_SET_GAME_TIME",
                    "param": [
                        "8"
                    ]
                }
            ],
            "versionBegin": "",
            "versionEnd": ""
        },
        {
            "subId": 4005902,
            "mainId": 40059,
            "order": 2,
            "descTextMapHash": 2645519140,
            "stepDescTextMapHash": 2765341061,
            "ALGDOBKHJPL": [
                320905,
                72278,
                72279
            ],
            "finishCond": [
                {
                    "type": "QUEST_CONTENT_COMPLETE_TALK",
                    "param": [
                        4005901,
                        0
                    ]
                }
            ],
            "guide": {
                "type": "QUEST_GUIDE_NPC",
                "autoGuide": "QUEST_GUIDE_AUTO_ENABLE",
                "param": [
                    "1018"
                ],
                "guideScene": 3,
                "guideStyle": "QUEST_GUIDE_STYLE_TARGET",
                "guideLayer": "QUEST_GUIDE_LAYER_SCENE"
            },
            "guideHint": {
                "COLBFDGFKDJ": ""
            },
            "isRewind": true,
            "versionBegin": "",
            "versionEnd": ""
        },
        {
            "subId": 4005903,
            "mainId": 40059,
            "order": 3,
            "subIdSet": 1,
            "descTextMapHash": 4036162588,
            "stepDescTextMapHash": 1364173005,
            "ALGDOBKHJPL": [
                320905,
                72278,
                72279
            ],
            "finishCond": [
                {
                    "type": "QUEST_CONTENT_COMPLETE_TALK",
                    "param": [
                        4005951,
                        0
                    ]
                }
            ],
            "guide": {
                "type": "QUEST_GUIDE_NPC",
                "autoGuide": "QUEST_GUIDE_AUTO_ENABLE",
                "param": [
                    "10045"
                ],
                "guideScene": 3,
                "guideStyle": "QUEST_GUIDE_STYLE_TARGET",
                "guideLayer": "QUEST_GUIDE_LAYER_SCENE"
            },
            "guideHint": {
                "COLBFDGFKDJ": ""
            },
            "finishExec": [
                {
                    "type": "QUEST_EXEC_ADD_QUEST_PROGRESS",
                    "param": [
                        "4005907",
                        "1"
                    ]
                }
            ],
            "versionBegin": "",
            "versionEnd": ""
        },
        {
            "subId": 4005904,
            "mainId": 40059,
            "order": 4,
            "subIdSet": 1,
            "descTextMapHash": 4018915564,
            "stepDescTextMapHash": 1331457981,
            "ALGDOBKHJPL": [
                320905,
                72278,
                72279
            ],
            "finishCond": [
                {
                    "type": "QUEST_CONTENT_COMPLETE_TALK",
                    "param": [
                        4005952,
                        0
                    ]
                }
            ],
            "guide": {
                "type": "QUEST_GUIDE_NPC",
                "autoGuide": "QUEST_GUIDE_AUTO_ENABLE",
                "param": [
                    "1013"
                ],
                "guideScene": 3,
                "guideStyle": "QUEST_GUIDE_STYLE_TARGET",
                "guideLayer": "QUEST_GUIDE_LAYER_SCENE"
            },
            "guideHint": {
                "COLBFDGFKDJ": ""
            },
            "finishExec": [
                {
                    "type": "QUEST_EXEC_ADD_QUEST_PROGRESS",
                    "param": [
                        "4005907",
                        "1"
                    ]
                }
            ],
            "versionBegin": "",
            "versionEnd": ""
        },
        {
            "subId": 4005905,
            "mainId": 40059,
            "order": 5,
            "subIdSet": 1,
            "descTextMapHash": 4064910876,
            "stepDescTextMapHash": 1516053181,
            "ALGDOBKHJPL": [
                320905,
                72278,
                72279
            ],
            "finishCond": [
                {
                    "type": "QUEST_CONTENT_COMPLETE_TALK",
                    "param": [
                        4005953,
                        0
                    ]
                }
            ],
            "guide": {
                "type": "QUEST_GUIDE_NPC",
                "autoGuide": "QUEST_GUIDE_AUTO_ENABLE",
                "param": [
                    "1001"
                ],
                "guideScene": 3,
                "guideStyle": "QUEST_GUIDE_STYLE_TARGET",
                "guideLayer": "QUEST_GUIDE_LAYER_SCENE"
            },
            "guideHint": {
                "COLBFDGFKDJ": ""
            },
            "finishExec": [
                {
                    "type": "QUEST_EXEC_ADD_QUEST_PROGRESS",
                    "param": [
                        "4005907",
                        "1"
                    ]
                }
            ],
            "versionBegin": "",
            "versionEnd": ""
        },
        {
            "subId": 4005906,
            "mainId": 40059,
            "order": 6,
            "subIdSet": 1,
            "descTextMapHash": 376996396,
            "stepDescTextMapHash": 2682747781,
            "ALGDOBKHJPL": [
                320905,
                72278,
                72279
            ],
            "finishCond": [
                {
                    "type": "QUEST_CONTENT_COMPLETE_TALK",
                    "param": [
                        4005954,
                        0
                    ]
                }
            ],
            "guide": {
                "type": "QUEST_GUIDE_NPC",
                "autoGuide": "QUEST_GUIDE_AUTO_ENABLE",
                "param": [
                    "1032"
                ],
                "guideScene": 3,
                "guideStyle": "QUEST_GUIDE_STYLE_TARGET",
                "guideLayer": "QUEST_GUIDE_LAYER_SCENE"
            },
            "guideHint": {
                "COLBFDGFKDJ": ""
            },
            "finishExec": [
                {
                    "type": "QUEST_EXEC_ADD_QUEST_PROGRESS",
                    "param": [
                        "4005907",
                        "1"
                    ]
                }
            ],
            "versionBegin": "",
            "versionEnd": ""
        },
        {
            "subId": 4005907,
            "mainId": 40059,
            "order": 7,
            "descTextMapHash": 1327950316,
            "showType": "QUEST_HIDDEN",
            "ALGDOBKHJPL": [
                320905,
                72278,
                72279
            ],
            "finishCond": [
                {
                    "type": "QUEST_CONTENT_ADD_QUEST_PROGRESS",
                    "param": [
                        4005907,
                        0
                    ],
                    "count": 4
                }
            ],
            "guide": {},
            "guideHint": {
                "COLBFDGFKDJ": ""
            },
            "finishExec": [
                {
                    "type": "QUEST_EXEC_ADD_QUEST_PROGRESS",
                    "param": [
                        "4005908",
                        "1"
                    ]
                }
            ],
            "versionBegin": "",
            "versionEnd": ""
        },
        {
            "subId": 4005908,
            "mainId": 40059,
            "order": 8,
            "descTextMapHash": 716696140,
            "showType": "QUEST_HIDDEN",
            "ALGDOBKHJPL": [
                320905,
                72278,
                72279
            ],
            "finishCond": [
                {
                    "type": "QUEST_CONTENT_ADD_QUEST_PROGRESS",
                    "param": [
                        4005908,
                        0
                    ],
                    "count": 1
                }
            ],
            "guide": {},
            "guideHint": {
                "COLBFDGFKDJ": ""
            },
            "isRewind": true,
            "versionBegin": "",
            "versionEnd": ""
        },
        {
            "subId": 4005909,
            "mainId": 40059,
            "order": 9,
            "descTextMapHash": 3313825692,
            "stepDescTextMapHash": 335336453,
            "ALGDOBKHJPL": [
                320905,
                72278,
                72279
            ],
            "finishCond": [
                {
                    "type": "QUEST_CONTENT_FINISH_PLOT",
                    "param": [
                        4005909,
                        0
                    ]
                }
            ],
            "guide": {
                "type": "QUEST_GUIDE_LOCATION",
                "autoGuide": "QUEST_GUIDE_AUTO_ENABLE",
                "param": [
                    "Q4005403_guide_WuGeXianGuangChang",
                    "15"
                ],
                "guideScene": 3,
                "guideLayer": "QUEST_GUIDE_LAYER_SCENE"
            },
            "guideHint": {
                "COLBFDGFKDJ": ""
            },
            "isRewind": true,
            "finishExec": [
                {
                    "type": "QUEST_EXEC_UNREGISTER_DYNAMIC_GROUP",
                    "param": [
                        "133209072"
                    ]
                }
            ],
            "versionBegin": "",
            "versionEnd": ""
        },
        {
            "subId": 4005910,
            "mainId": 40059,
            "order": 10,
            "descTextMapHash": 3507028844,
            "stepDescTextMapHash": 1311437741,
            "ALGDOBKHJPL": [
                320905,
                72278,
                72279
            ],
            "finishCond": [
                {
                    "type": "QUEST_CONTENT_COMPLETE_TALK",
                    "param": [
                        4005910,
                        0
                    ]
                }
            ],
            "guide": {
                "type": "QUEST_GUIDE_NPC",
                "autoGuide": "QUEST_GUIDE_AUTO_ENABLE",
                "param": [
                    "3000"
                ],
                "guideScene": 3,
                "guideStyle": "QUEST_GUIDE_STYLE_TARGET",
                "guideLayer": "QUEST_GUIDE_LAYER_SCENE"
            },
            "guideHint": {
                "COLBFDGFKDJ": ""
            },
            "isRewind": true,
            "versionBegin": "",
            "versionEnd": ""
        },
        {
            "subId": 4005911,
            "mainId": 40059,
            "order": 11,
            "descTextMapHash": 1141220612,
            "stepDescTextMapHash": 140390789,
            "ALGDOBKHJPL": [
                320905,
                72278,
                72279
            ],
            "finishCond": [
                {
                    "type": "QUEST_CONTENT_COMPLETE_TALK",
                    "param": [
                        4005911,
                        0
                    ]
                }
            ],
            "guide": {
                "type": "QUEST_GUIDE_LOCATION",
                "autoGuide": "QUEST_GUIDE_AUTO_ENABLE",
                "param": [
                    "Q4005403_guide_WuGeXianGuangChang",
                    "30"
                ],
                "guideScene": 3,
                "guideStyle": "QUEST_GUIDE_STYLE_TARGET",
                "guideLayer": "QUEST_GUIDE_LAYER_SCENE"
            },
            "guideHint": {
                "COLBFDGFKDJ": ""
            },
            "isRewind": true,
            "finishExec": [
                {
                    "type": "QUEST_EXEC_SET_IS_GAME_TIME_LOCKED",
                    "param": [
                        "0"
                    ]
                }
            ],
            "versionBegin": "",
            "versionEnd": ""
        },
        {
            "subId": 4005912,
            "mainId": 40059,
            "order": 13,
            "descTextMapHash": 751973364,
            "stepDescTextMapHash": 3721226893,
            "ALGDOBKHJPL": [
                320905,
                72278,
                72279
            ],
            "finishCond": [
                {
                    "type": "QUEST_CONTENT_FINISH_PLOT",
                    "param": [
                        4005912,
                        0
                    ]
                }
            ],
            "guide": {
                "type": "QUEST_GUIDE_LOCATION",
                "autoGuide": "QUEST_GUIDE_AUTO_ENABLE",
                "param": [
                    "Q4005914_N30151",
                    "10"
                ],
                "guideScene": 3,
                "guideLayer": "QUEST_GUIDE_LAYER_SCENE"
            },
            "guideHint": {
                "COLBFDGFKDJ": ""
            },
            "isRewind": true,
            "versionBegin": "",
            "versionEnd": ""
        },
        {
            "subId": 4005913,
            "mainId": 40059,
            "order": 14,
            "descTextMapHash": 1746462548,
            "stepDescTextMapHash": 4043457005,
            "ALGDOBKHJPL": [
                320905,
                72278,
                72279
            ],
            "finishCond": [
                {
                    "type": "QUEST_CONTENT_GAME_TIME_TICK",
                    "param": [
                        0,
                        0
                    ]
                }
            ],
            "guide": {
                "guideScene": 3,
                "guideLayer": "QUEST_GUIDE_LAYER_SCENE"
            },
            "guideHint": {
                "COLBFDGFKDJ": ""
            },
            "isRewind": true,
            "finishExec": [
                {
                    "type": "QUEST_EXEC_SET_IS_GAME_TIME_LOCKED",
                    "param": [
                        "1"
                    ]
                },
                {
                    "type": "QUEST_EXEC_SET_GAME_TIME",
                    "param": [
                        "1"
                    ]
                }
            ],
            "versionBegin": "",
            "versionEnd": ""
        },
        {
            "subId": 4005914,
            "mainId": 40059,
            "order": 15,
            "descTextMapHash": 754633980,
            "stepDescTextMapHash": 1772107261,
            "ALGDOBKHJPL": [
                320905,
                72278,
                72279
            ],
            "finishCond": [
                {
                    "type": "QUEST_CONTENT_COMPLETE_TALK",
                    "param": [
                        4005915,
                        0
                    ]
                }
            ],
            "guide": {
                "type": "QUEST_GUIDE_LOCATION",
                "autoGuide": "QUEST_GUIDE_AUTO_ENABLE",
                "param": [
                    "Q4005404_N1034"
                ],
                "guideScene": 3,
                "guideStyle": "QUEST_GUIDE_STYLE_POINT",
                "guideLayer": "QUEST_GUIDE_LAYER_SCENE"
            },
            "guideHint": {
                "COLBFDGFKDJ": ""
            },
            "finishParent": true,
            "finishExec": [
                {
                    "type": "QUEST_EXEC_SET_QUEST_GLOBAL_VAR",
                    "param": [
                        "4005914",
                        "1"
                    ]
                },
                {
                    "type": "QUEST_EXEC_DEL_PACK_ITEM_BATCH",
                    "param": [
                        "101726:1,101727:1,101728:1,101729:1,101730:1,101731:1"
                    ]
                },
                {
                    "type": "QUEST_EXEC_SET_IS_GAME_TIME_LOCKED",
                    "param": [
                        "0"
                    ]
                },
                {
                    "type": "QUEST_EXEC_SET_GAME_TIME",
                    "param": [
                        "1"
                    ]
                }
            ],
            "versionBegin": "",
            "versionEnd": ""
        },
        {
            "subId": 4005915,
            "mainId": 40059,
            "order": 17,
            "descTextMapHash": 4015380676,
            "showType": "QUEST_HIDDEN",
            "finishCond": [
                {
                    "type": "QUEST_CONTENT_QUEST_STATE_EQUAL",
                    "param": [
                        4005914,
                        3
                    ]
                }
            ],
            "failCond": [
                {
                    "type": "QUEST_CONTENT_LEAVE_SCENE_RANGE",
                    "param": [
                        3,
                        40
                    ]
                }
            ],
            "guide": {},
            "guideHint": {
                "COLBFDGFKDJ": ""
            },
            "failExec": [
                {
                    "type": "QUEST_EXEC_ROLLBACK_QUEST",
                    "param": [
                        "4005912"
                    ]
                },
                {
                    "type": "QUEST_EXEC_SET_IS_GAME_TIME_LOCKED",
                    "param": [
                        "0"
                    ]
                }
            ],
            "versionBegin": "",
            "versionEnd": ""
        },
        {
            "subId": 4005916,
            "mainId": 40059,
            "order": 16,
            "descTextMapHash": 1047973900,
            "showType": "QUEST_HIDDEN",
            "finishCond": [
                {
                    "type": "QUEST_CONTENT_FINISH_PLOT",
                    "param": [
                        4005916,
                        0
                    ]
                }
            ],
            "guide": {},
            "guideHint": {
                "COLBFDGFKDJ": ""
            },
            "versionBegin": "",
            "versionEnd": ""
        },
        {
            "subId": 4005917,
            "mainId": 40059,
            "order": 12,
            "descTextMapHash": 2742722692,
            "showType": "QUEST_HIDDEN",
            "ALGDOBKHJPL": [
                320905,
                72278,
                72279
            ],
            "finishCond": [
                {
                    "type": "QUEST_CONTENT_QUEST_STATE_EQUAL",
                    "param": [
                        4005911,
                        3
                    ]
                }
            ],
            "failCond": [
                {
                    "type": "QUEST_CONTENT_LEAVE_SCENE_RANGE",
                    "param": [
                        3,
                        40
                    ]
                }
            ],
            "guide": {},
            "guideHint": {
                "COLBFDGFKDJ": ""
            },
            "failExec": [
                {
                    "type": "QUEST_EXEC_ROLLBACK_QUEST",
                    "param": [
                        "4005909"
                    ]
                }
            ],
            "versionBegin": "",
            "versionEnd": ""
        }
    ]
}