{
    "id": 41401,
    "type": "WQ",
    "titleTextMapHash": 2660423839,
    "descTextMapHash": 606014230,
    "rewardIdList": [
        141401
    ],
    "subQuests": [
        {
            "subId": 4140101,
            "mainId": 41401,
            "order": 1,
            "descTextMapHash": 3134640380,
            "finishCond": [
                {
                    "type": "QUEST_CONTENT_COMPLETE_TALK",
                    "param": [
                        4140101,
                        0
                    ]
                }
            ],
            "guide": {
                "type": "QUEST_GUIDE_NPC",
                "param": [
                    "30044"
                ],
                "guideScene": 3,
                "guideStyle": "QUEST_GUIDE_STYLE_START",
                "guideLayer": "QUEST_GUIDE_LAYER_SCENE"
            },
            "guideHint": {
                "COLBFDGFKDJ": ""
            },
            "finishParent": true,
            "isRewind": true,
            "versionBegin": "",
            "versionEnd": ""
        }
    ]
}