{
    "id": 471,
    "type": "WQ",
    "titleTextMapHash": 2816513633,
    "showType": "QUEST_HIDDEN",
    "subQuests": [
        {
            "subId": 47101,
            "mainId": 471,
            "order": 1,
            "descTextMapHash": 1351851071,
            "showType": "QUEST_HIDDEN",
            "finishCond": [
                {
                    "type": "QUEST_CONTENT_FINISH_PLOT",
                    "param": [
                        47101,
                        0
                    ]
                }
            ],
            "guide": {},
            "guideHint": {
                "COLBFDGFKDJ": ""
            },
            "finishParent": true,
            "isRewind": true,
            "versionBegin": "",
            "versionEnd": ""
        },
        {
            "subId": 47102,
            "mainId": 471,
            "order": 2,
            "descTextMapHash": 3168155047,
            "showType": "QUEST_HIDDEN",
            "finishCond": [
                {
                    "type": "QUEST_CONTENT_FINISH_PLOT",
                    "param": [
                        47102,
                        0
                    ]
                }
            ],
            "guide": {},
            "guideHint": {
                "COLBFDGFKDJ": ""
            },
            "finishParent": true,
            "isRewind": true,
            "versionBegin": "",
            "versionEnd": ""
        }
    ]
}