{
    "id": 70533,
    "type": "WQ",
    "mainQuestTag": "MAINQUEST_TAG_GUIDE",
    "titleTextMapHash": 1881244255,
    "descTextMapHash": 3898950742,
    "rewardIdList": [
        170533
    ],
    "subQuests": [
        {
            "subId": 7053301,
            "mainId": 70533,
            "order": 1,
            "descTextMapHash": 2345978388,
            "finishCond": [
                {
                    "type": "QUEST_CONTENT_COMPLETE_TALK",
                    "param": [
                        7053301,
                        0
                    ]
                }
            ],
            "guide": {
                "type": "QUEST_GUIDE_NPC",
                "param": [
                    "30217"
                ],
                "guideScene": 3
            },
            "guideHint": {
                "COLBFDGFKDJ": ""
            },
            "finishParent": true,
            "isRewind": true,
            "versionBegin": "",
            "versionEnd": ""
        }
    ]
}