{
    "id": 70666,
    "type": "WQ",
    "titleTextMapHash": 2666543815,
    "descTextMapHash": 2637981326,
    "rewardIdList": [
        170666
    ],
    "subQuests": [
        {
            "subId": 7066601,
            "mainId": 70666,
            "order": 2,
            "descTextMapHash": 3633191076,
            "finishCond": [
                {
                    "type": "QUEST_CONTENT_COMPLETE_TALK",
                    "param": [
                        7066601,
                        0
                    ]
                }
            ],
            "guide": {
                "type": "QUEST_GUIDE_NPC",
                "param": [
                    "1713"
                ],
                "guideScene": 1076
            },
            "guideHint": {
                "COLBFDGFKDJ": ""
            },
            "isRewind": true,
            "versionBegin": "",
            "versionEnd": ""
        },
        {
            "subId": 7066602,
            "mainId": 70666,
            "order": 3,
            "descTextMapHash": 3228342620,
            "finishCond": [
                {
                    "type": "QUEST_CONTENT_GCG_LEVEL_WIN",
                    "param": [
                        20001,
                        1
                    ]
                }
            ],
            "guide": {
                "type": "QUEST_GUIDE_NPC",
                "param": [
                    "1713"
                ],
                "guideScene": 1076,
                "guideStyle": "QUEST_GUIDE_STYLE_TARGET",
                "guideLayer": "QUEST_GUIDE_LAYER_SCENE"
            },
            "guideHint": {
                "COLBFDGFKDJ": ""
            },
            "isRewind": true,
            "versionBegin": "",
            "versionEnd": ""
        },
        {
            "subId": 7066603,
            "mainId": 70666,
            "order": 5,
            "descTextMapHash": 2502155356,
            "finishCond": [
                {
                    "type": "QUEST_CONTENT_COMPLETE_TALK",
                    "param": [
                        7066602,
                        0
                    ]
                }
            ],
            "guide": {
                "type": "QUEST_GUIDE_NPC",
                "param": [
                    "1713"
                ],
                "guideScene": 1076
            },
            "guideHint": {
                "COLBFDGFKDJ": ""
            },
            "finishParent": true,
            "isRewind": true,
            "finishExec": [
                {
                    "type": "QUEST_EXEC_DEL_ALL_SPECIFIC_PACK_ITEM",
                    "param": [
                        "339901"
                    ]
                }
            ],
            "versionBegin": "",
            "versionEnd": ""
        },
        {
            "subId": 7066604,
            "mainId": 70666,
            "order": 1,
            "showType": "QUEST_HIDDEN",
            "finishCond": [
                {
                    "type": "QUEST_CONTENT_LEAVE_SCENE",
                    "param": [
                        79999,
                        0
                    ]
                }
            ],
            "guide": {},
            "showGuide": "QUEST_GUIDE_ITEM_DISABLE",
            "guideHint": {
                "COLBFDGFKDJ": ""
            },
            "isRewind": true,
            "versionBegin": "",
            "versionEnd": ""
        },
        {
            "subId": 7066605,
            "mainId": 70666,
            "order": 4,
            "showType": "QUEST_HIDDEN",
            "finishCond": [
                {
                    "type": "QUEST_CONTENT_GCG_LEVEL_WIN",
                    "param": [
                        20001,
                        1
                    ]
                }
            ],
            "failCond": [
                {
                    "type": "QUEST_CONTENT_GCG_LEVEL_WIN",
                    "param": [
                        20001,
                        2
                    ]
                }
            ],
            "guide": {},
            "showGuide": "QUEST_GUIDE_ITEM_DISABLE",
            "guideHint": {
                "COLBFDGFKDJ": ""
            },
            "failExec": [
                {
                    "type": "QUEST_EXEC_ROLLBACK_QUEST",
                    "param": [
                        "7066602"
                    ]
                }
            ],
            "versionBegin": "",
            "versionEnd": ""
        }
    ]
}