{
    "id": 70802,
    "type": "WQ",
    "titleTextMapHash": 1751061447,
    "descTextMapHash": 2454922134,
    "rewardIdList": [
        170802
    ],
    "subQuests": [
        {
            "subId": 7080201,
            "mainId": 70802,
            "order": 1,
            "descTextMapHash": 143069420,
            "showType": "QUEST_HIDDEN",
            "finishCond": [
                {
                    "type": "QUEST_CONTENT_TIME_VAR_PASS_DAY",
                    "param": [
                        70804,
                        0
                    ]
                }
            ],
            "guide": {},
            "showGuide": "QUEST_GUIDE_ITEM_DISABLE",
            "guideHint": {
                "COLBFDGFKDJ": ""
            },
            "failParentShow": "QUEST_HIDDEN",
            "isRewind": true,
            "finishExec": [
                {
                    "type": "QUEST_EXEC_CLEAR_TIME_VAR",
                    "param": [
                        "70804",
                        "0"
                    ]
                }
            ],
            "versionBegin": "",
            "versionEnd": ""
        },
        {
            "subId": 7080202,
            "mainId": 70802,
            "order": 2,
            "descTextMapHash": 3884448948,
            "finishCond": [
                {
                    "type": "QUEST_CONTENT_COMPLETE_TALK",
                    "param": [
                        7080201,
                        0
                    ]
                }
            ],
            "guide": {
                "type": "QUEST_GUIDE_NPC",
                "autoGuide": "QUEST_GUIDE_AUTO_ENABLE",
                "param": [
                    "1668"
                ],
                "guideScene": 3,
                "guideStyle": "QUEST_GUIDE_STYLE_START",
                "guideLayer": "QUEST_GUIDE_LAYER_SCENE"
            },
            "guideHint": {
                "COLBFDGFKDJ": ""
            },
            "isRewind": true,
            "versionBegin": "",
            "versionEnd": ""
        },
        {
            "subId": 7080203,
            "mainId": 70802,
            "order": 3,
            "descTextMapHash": 3139610012,
            "finishCond": [
                {
                    "type": "QUEST_CONTENT_COMPLETE_TALK",
                    "param": [
                        7080202,
                        0
                    ]
                }
            ],
            "guide": {
                "type": "QUEST_GUIDE_NPC",
                "param": [
                    "1409"
                ],
                "guideScene": 3,
                "guideStyle": "QUEST_GUIDE_STYLE_TARGET",
                "guideLayer": "QUEST_GUIDE_LAYER_SCENE"
            },
            "guideHint": {
                "COLBFDGFKDJ": ""
            },
            "isRewind": true,
            "versionBegin": "",
            "versionEnd": ""
        },
        {
            "subId": 7080204,
            "mainId": 70802,
            "order": 4,
            "descTextMapHash": 3785935700,
            "finishCond": [
                {
                    "type": "QUEST_CONTENT_FINISH_PLOT",
                    "param": [
                        7080204,
                        0
                    ]
                }
            ],
            "guide": {
                "type": "QUEST_GUIDE_LOCATION",
                "autoGuide": "QUEST_GUIDE_AUTO_ENABLE",
                "param": [
                    "Q7080204_guide",
                    "0"
                ],
                "guideScene": 3,
                "guideStyle": "QUEST_GUIDE_STYLE_POINT",
                "guideLayer": "QUEST_GUIDE_LAYER_SCENE"
            },
            "guideHint": {
                "COLBFDGFKDJ": ""
            },
            "isRewind": true,
            "versionBegin": "",
            "versionEnd": ""
        },
        {
            "subId": 7080205,
            "mainId": 70802,
            "order": 5,
            "descTextMapHash": 2313359100,
            "finishCond": [
                {
                    "type": "QUEST_CONTENT_LUA_NOTIFY",
                    "param": [
                        0,
                        0
                    ],
                    "count": 1
                }
            ],
            "guide": {
                "type": "QUEST_GUIDE_LOCATION",
                "autoGuide": "QUEST_GUIDE_AUTO_ENABLE",
                "param": [
                    "Q7080205_guide",
                    "40"
                ],
                "guideScene": 3,
                "guideStyle": "QUEST_GUIDE_STYLE_TARGET",
                "guideLayer": "QUEST_GUIDE_LAYER_SCENE"
            },
            "guideHint": {
                "COLBFDGFKDJ": ""
            },
            "versionBegin": "",
            "versionEnd": ""
        },
        {
            "subId": 7080206,
            "mainId": 70802,
            "order": 6,
            "descTextMapHash": 3948586836,
            "finishCond": [
                {
                    "type": "QUEST_CONTENT_COMPLETE_TALK",
                    "param": [
                        7080203,
                        0
                    ]
                }
            ],
            "guide": {
                "type": "QUEST_GUIDE_NPC",
                "autoGuide": "QUEST_GUIDE_AUTO_ENABLE",
                "param": [
                    "1577"
                ],
                "guideScene": 3,
                "guideStyle": "QUEST_GUIDE_STYLE_TARGET",
                "guideLayer": "QUEST_GUIDE_LAYER_SCENE"
            },
            "guideHint": {
                "COLBFDGFKDJ": ""
            },
            "isRewind": true,
            "finishExec": [
                {
                    "type": "QUEST_EXEC_UNREGISTER_DYNAMIC_GROUP",
                    "param": [
                        "133105073"
                    ]
                }
            ],
            "versionBegin": "",
            "versionEnd": ""
        },
        {
            "subId": 7080207,
            "mainId": 70802,
            "order": 7,
            "descTextMapHash": 3671326268,
            "finishCond": [
                {
                    "type": "QUEST_CONTENT_COMPLETE_TALK",
                    "param": [
                        7080204,
                        0
                    ]
                }
            ],
            "guide": {
                "type": "QUEST_GUIDE_NPC",
                "autoGuide": "QUEST_GUIDE_AUTO_ENABLE",
                "param": [
                    "1409"
                ],
                "guideScene": 3,
                "guideStyle": "QUEST_GUIDE_STYLE_TARGET",
                "guideLayer": "QUEST_GUIDE_LAYER_SCENE"
            },
            "guideHint": {
                "COLBFDGFKDJ": ""
            },
            "isRewind": true,
            "versionBegin": "",
            "versionEnd": ""
        },
        {
            "subId": 7080208,
            "mainId": 70802,
            "order": 8,
            "descTextMapHash": 566560596,
            "finishCond": [
                {
                    "type": "QUEST_CONTENT_COMPLETE_TALK",
                    "param": [
                        7080205,
                        0
                    ]
                }
            ],
            "guide": {
                "type": "QUEST_GUIDE_NPC",
                "autoGuide": "QUEST_GUIDE_AUTO_ENABLE",
                "param": [
                    "1668"
                ],
                "guideScene": 3,
                "guideStyle": "QUEST_GUIDE_STYLE_FINISH",
                "guideLayer": "QUEST_GUIDE_LAYER_SCENE"
            },
            "guideHint": {
                "COLBFDGFKDJ": ""
            },
            "finishParent": true,
            "isRewind": true,
            "finishExec": [
                {
                    "type": "QUEST_EXEC_INIT_TIME_VAR",
                    "param": [
                        "1"
                    ]
                }
            ],
            "versionBegin": "",
            "versionEnd": ""
        }
    ]
}