{
    "id": 70925,
    "type": "WQ",
    "titleTextMapHash": 2836393527,
    "descTextMapHash": 3450008054,
    "rewardIdList": [
        551023
    ],
    "showType": "QUEST_HIDDEN",
    "subQuests": [
        {
            "subId": 7092501,
            "mainId": 70925,
            "order": 1,
            "showType": "QUEST_HIDDEN",
            "finishCond": [
                {
                    "type": "QUEST_CONTENT_COMPLETE_TALK",
                    "param": [
                        7092501,
                        0
                    ]
                }
            ],
            "guide": {},
            "guideHint": {
                "COLBFDGFKDJ": ""
            },
            "finishParent": true,
            "versionBegin": "",
            "versionEnd": ""
        }
    ]
}