{
    "id": 70920,
    "type": "WQ",
    "titleTextMapHash": 2398651343,
    "descTextMapHash": 2330304150,
    "rewardIdList": [
        551018
    ],
    "showType": "QUEST_HIDDEN",
    "subQuests": [
        {
            "subId": 7092001,
            "mainId": 70920,
            "order": 1,
            "showType": "QUEST_HIDDEN",
            "finishCond": [
                {
                    "type": "QUEST_CONTENT_COMPLETE_TALK",
                    "param": [
                        7092001,
                        0
                    ]
                }
            ],
            "guide": {},
            "guideHint": {
                "COLBFDGFKDJ": ""
            },
            "finishParent": true,
            "versionBegin": "",
            "versionEnd": ""
        }
    ]
}