{
    "id": 71912,
    "type": "WQ",
    "titleTextMapHash": 4011196687,
    "descTextMapHash": 3858063078,
    "rewardIdList": [
        552013
    ],
    "showType": "QUEST_HIDDEN",
    "subQuests": [
        {
            "subId": 7191201,
            "mainId": 71912,
            "order": 1,
            "showType": "QUEST_HIDDEN",
            "finishCond": [
                {
                    "type": "QUEST_CONTENT_COMPLETE_TALK",
                    "param": [
                        7191201,
                        0
                    ]
                }
            ],
            "guide": {},
            "guideHint": {
                "COLBFDGFKDJ": ""
            },
            "finishParent": true,
            "versionBegin": "",
            "versionEnd": ""
        }
    ]
}