{
    "id": 71913,
    "type": "WQ",
    "titleTextMapHash": 4200595127,
    "descTextMapHash": 3298463814,
    "rewardIdList": [
        552016
    ],
    "showType": "QUEST_HIDDEN",
    "subQuests": [
        {
            "subId": 7191301,
            "mainId": 71913,
            "order": 1,
            "showType": "QUEST_HIDDEN",
            "finishCond": [
                {
                    "type": "QUEST_CONTENT_COMPLETE_TALK",
                    "param": [
                        7191301,
                        0
                    ]
                }
            ],
            "guide": {},
            "guideHint": {
                "COLBFDGFKDJ": ""
            },
            "finishParent": true,
            "versionBegin": "",
            "versionEnd": ""
        }
    ]
}