{
    "id": 71933,
    "type": "WQ",
    "titleTextMapHash": 2638073951,
    "descTextMapHash": 3460325430,
    "rewardIdList": [
        552038
    ],
    "showType": "QUEST_HIDDEN",
    "subQuests": [
        {
            "subId": 7193301,
            "mainId": 71933,
            "order": 1,
            "showType": "QUEST_HIDDEN",
            "finishCond": [
                {
                    "type": "QUEST_CONTENT_COMPLETE_TALK",
                    "param": [
                        7193301,
                        0
                    ]
                }
            ],
            "guide": {},
            "guideHint": {
                "COLBFDGFKDJ": ""
            },
            "finishParent": true,
            "versionBegin": "",
            "versionEnd": ""
        }
    ]
}