{
    "id": 72240,
    "type": "WQ",
    "titleTextMapHash": 975027679,
    "descTextMapHash": 2330480014,
    "rewardIdList": [
        172240
    ],
    "subQuests": [
        {
            "subId": 7224001,
            "mainId": 72240,
            "order": 1,
            "descTextMapHash": 4000889644,
            "finishCond": [
                {
                    "type": "QUEST_CONTENT_COMPLETE_TALK",
                    "param": [
                        7224001,
                        0
                    ]
                }
            ],
            "guide": {
                "type": "QUEST_GUIDE_NPC",
                "param": [
                    "20481"
                ],
                "guideScene": 5,
                "guideStyle": "QUEST_GUIDE_STYLE_TARGET",
                "guideLayer": "QUEST_GUIDE_LAYER_SCENE"
            },
            "guideHint": {
                "COLBFDGFKDJ": ""
            },
            "isRewind": true,
            "versionBegin": "",
            "versionEnd": ""
        },
        {
            "subId": 7224002,
            "mainId": 72240,
            "order": 2,
            "subIdSet": 1,
            "descTextMapHash": 1390698892,
            "finishCond": [
                {
                    "type": "QUEST_CONTENT_OBTAIN_ITEM",
                    "param": [
                        100942,
                        0
                    ],
                    "count": 1
                }
            ],
            "guide": {
                "type": "QUEST_GUIDE_LOCATION",
                "param": [
                    "Q7224002_guide",
                    "20"
                ],
                "guideScene": 5,
                "guideStyle": "QUEST_GUIDE_STYLE_POINT",
                "guideLayer": "QUEST_GUIDE_LAYER_SCENE"
            },
            "showGuide": "QUEST_GUIDE_ITEM_DISABLE",
            "guideHint": {
                "COLBFDGFKDJ": ""
            },
            "isRewind": true,
            "versionBegin": "",
            "versionEnd": ""
        },
        {
            "subId": 7224004,
            "mainId": 72240,
            "order": 3,
            "descTextMapHash": 3157379180,
            "guideTipsTextMapHash": 509081806,
            "finishCond": [
                {
                    "type": "QUEST_CONTENT_COMPLETE_TALK",
                    "param": [
                        7224002,
                        0
                    ]
                }
            ],
            "guide": {
                "type": "QUEST_GUIDE_SHOW_OR_HIDE_NPC",
                "param": [
                    "20481",
                    "11",
                    "2"
                ],
                "guideScene": 5,
                "guideStyle": "QUEST_GUIDE_STYLE_TARGET",
                "guideLayer": "QUEST_GUIDE_LAYER_SCENE"
            },
            "guideHint": {
                "COLBFDGFKDJ": ""
            },
            "isRewind": true,
            "versionBegin": "",
            "versionEnd": ""
        },
        {
            "subId": 7224005,
            "mainId": 72240,
            "order": 4,
            "descTextMapHash": 909446548,
            "finishCond": [
                {
                    "type": "QUEST_CONTENT_LUA_NOTIFY",
                    "param": [
                        0,
                        0
                    ],
                    "count": 1
                }
            ],
            "guide": {
                "type": "QUEST_GUIDE_LOCATION",
                "param": [
                    "Q7224005Mishi"
                ],
                "guideScene": 5,
                "guideStyle": "QUEST_GUIDE_STYLE_POINT",
                "guideLayer": "QUEST_GUIDE_LAYER_SCENE"
            },
            "showGuide": "QUEST_GUIDE_ITEM_DISABLE",
            "guideHint": {
                "COLBFDGFKDJ": ""
            },
            "isRewind": true,
            "versionBegin": "",
            "versionEnd": ""
        },
        {
            "subId": 7224006,
            "mainId": 72240,
            "order": 5,
            "descTextMapHash": 440026164,
            "finishCond": [
                {
                    "type": "QUEST_CONTENT_OBTAIN_ITEM",
                    "param": [
                        100932,
                        0
                    ],
                    "count": 1
                }
            ],
            "guide": {
                "type": "QUEST_GUIDE_LOCATION",
                "param": [
                    "Q7224006_guide"
                ],
                "guideScene": 5,
                "guideStyle": "QUEST_GUIDE_STYLE_POINT",
                "guideLayer": "QUEST_GUIDE_LAYER_SCENE"
            },
            "showGuide": "QUEST_GUIDE_ITEM_DISABLE",
            "guideHint": {
                "COLBFDGFKDJ": ""
            },
            "finishParent": true,
            "isRewind": true,
            "versionBegin": "",
            "versionEnd": ""
        }
    ]
}