{
    "id": 73063,
    "type": "WQ",
    "mainQuestTag": "MAINQUEST_TAG_RANK_ZERO_WQ",
    "titleTextMapHash": 3848008943,
    "suggestTrackMainQuestList": [
        73061,
        73066
    ],
    "rewardIdList": [
        173063
    ],
    "chapterId": 10083,
    "subQuests": [
        {
            "subId": 7306301,
            "mainId": 73063,
            "order": 1,
            "showType": "QUEST_HIDDEN",
            "finishCond": [
                {
                    "type": "QUEST_CONTENT_GAME_TIME_TICK",
                    "param": [
                        0,
                        0
                    ]
                }
            ],
            "guide": {
                "guideScene": 3
            },
            "showGuide": "QUEST_GUIDE_ITEM_DISABLE",
            "guideHint": {
                "COLBFDGFKDJ": ""
            },
            "isRewind": true,
            "versionBegin": "",
            "versionEnd": ""
        },
        {
            "subId": 7306302,
            "mainId": 73063,
            "order": 2,
            "showType": "QUEST_HIDDEN",
            "finishCond": [
                {
                    "type": "QUEST_CONTENT_QUEST_STATE_EQUAL",
                    "param": [
                        7306126,
                        3
                    ]
                }
            ],
            "guide": {
                "guideScene": 3,
                "guideLayer": "QUEST_GUIDE_LAYER_SCENE"
            },
            "showGuide": "QUEST_GUIDE_ITEM_DISABLE",
            "guideHint": {
                "COLBFDGFKDJ": ""
            },
            "isRewind": true,
            "finishExec": [
                {
                    "type": "QUEST_EXEC_INC_QUEST_VAR",
                    "param": [
                        "3",
                        "1"
                    ]
                }
            ],
            "versionBegin": "",
            "versionEnd": ""
        },
        {
            "subId": 7306303,
            "mainId": 73063,
            "order": 3,
            "showType": "QUEST_HIDDEN",
            "finishCond": [
                {
                    "type": "QUEST_CONTENT_FINISH_PLOT",
                    "param": [
                        7306303,
                        0
                    ]
                }
            ],
            "failCond": [
                {
                    "type": "QUEST_CONTENT_QUEST_STATE_EQUAL",
                    "param": [
                        7306103,
                        3
                    ]
                }
            ],
            "guide": {
                "type": "QUEST_GUIDE_NPC",
                "autoGuide": "QUEST_GUIDE_AUTO_ENABLE",
                "param": [
                    "20577"
                ],
                "guideScene": 3,
                "guideStyle": "QUEST_GUIDE_STYLE_START",
                "guideLayer": "QUEST_GUIDE_LAYER_SCENE"
            },
            "guideHint": {
                "COLBFDGFKDJ": ""
            },
            "isRewind": true,
            "versionBegin": "",
            "versionEnd": ""
        },
        {
            "subId": 7306304,
            "mainId": 73063,
            "order": 4,
            "showType": "QUEST_HIDDEN",
            "finishCond": [
                {
                    "type": "QUEST_CONTENT_QUEST_STATE_EQUAL",
                    "param": [
                        7306302,
                        3
                    ]
                }
            ],
            "guide": {},
            "showGuide": "QUEST_GUIDE_ITEM_DISABLE",
            "guideHint": {
                "COLBFDGFKDJ": ""
            },
            "isRewind": true,
            "versionBegin": "",
            "versionEnd": ""
        },
        {
            "subId": 7306305,
            "mainId": 73063,
            "order": 6,
            "descTextMapHash": 2957022708,
            "stepDescTextMapHash": 876422469,
            "finishCond": [
                {
                    "type": "QUEST_CONTENT_COMPLETE_TALK",
                    "param": [
                        7306305,
                        0
                    ]
                }
            ],
            "guide": {
                "type": "QUEST_GUIDE_NPC",
                "autoGuide": "QUEST_GUIDE_AUTO_ENABLE",
                "param": [
                    "20577"
                ],
                "guideScene": 3,
                "guideStyle": "QUEST_GUIDE_STYLE_START",
                "guideLayer": "QUEST_GUIDE_LAYER_SCENE"
            },
            "guideHint": {
                "COLBFDGFKDJ": ""
            },
            "isRewind": true,
            "versionBegin": "",
            "versionEnd": ""
        },
        {
            "subId": 7306306,
            "mainId": 73063,
            "order": 7,
            "descTextMapHash": 3652214788,
            "stepDescTextMapHash": 2767620549,
            "finishCond": [
                {
                    "type": "QUEST_CONTENT_COMPLETE_TALK",
                    "param": [
                        7306306,
                        0
                    ]
                }
            ],
            "guide": {
                "type": "QUEST_GUIDE_NPC",
                "autoGuide": "QUEST_GUIDE_AUTO_ENABLE",
                "param": [
                    "20577"
                ],
                "guideScene": 3,
                "guideStyle": "QUEST_GUIDE_STYLE_START",
                "guideLayer": "QUEST_GUIDE_LAYER_SCENE"
            },
            "guideHint": {
                "COLBFDGFKDJ": ""
            },
            "isRewind": true,
            "finishExec": [
                {
                    "type": "QUEST_EXEC_NOTIFY_GROUP_LUA",
                    "param": [
                        "3",
                        "133302070"
                    ]
                }
            ],
            "versionBegin": "",
            "versionEnd": ""
        },
        {
            "subId": 7306307,
            "mainId": 73063,
            "order": 8,
            "descTextMapHash": 1415735396,
            "stepDescTextMapHash": 1280366685,
            "finishCond": [
                {
                    "type": "QUEST_CONTENT_GADGET_STATE_CHANGE",
                    "param": [
                        133315015,
                        15001
                    ]
                }
            ],
            "guide": {
                "type": "QUEST_GUIDE_LOCATION",
                "autoGuide": "QUEST_GUIDE_AUTO_ENABLE",
                "param": [
                    "Q7306307_guide"
                ],
                "guideScene": 3,
                "guideStyle": "QUEST_GUIDE_STYLE_POINT",
                "guideLayer": "QUEST_GUIDE_LAYER_SCENE",
                "LJJKEECOJEG": 2501,
                "PFALJNDLGEN": 25010002
            },
            "guideHint": {
                "COLBFDGFKDJ": ""
            },
            "isRewind": true,
            "versionBegin": "",
            "versionEnd": ""
        },
        {
            "subId": 7306308,
            "mainId": 73063,
            "order": 9,
            "descTextMapHash": 2089547452,
            "stepDescTextMapHash": 3447452349,
            "finishCond": [
                {
                    "type": "QUEST_CONTENT_LUA_NOTIFY",
                    "param": [
                        0,
                        0
                    ],
                    "count": 1
                }
            ],
            "guide": {
                "type": "QUEST_GUIDE_LOCATION",
                "autoGuide": "QUEST_GUIDE_AUTO_ENABLE",
                "param": [
                    "Q7306307_guide",
                    "30"
                ],
                "guideScene": 3,
                "guideStyle": "QUEST_GUIDE_STYLE_POINT",
                "guideLayer": "QUEST_GUIDE_LAYER_SCENE",
                "LJJKEECOJEG": 2501,
                "PFALJNDLGEN": 25010002
            },
            "guideHint": {
                "COLBFDGFKDJ": ""
            },
            "isRewind": true,
            "finishExec": [
                {
                    "type": "QUEST_EXEC_UNREGISTER_DYNAMIC_GROUP",
                    "param": [
                        "133302696",
                        "0"
                    ]
                }
            ],
            "versionBegin": "",
            "versionEnd": ""
        },
        {
            "subId": 7306309,
            "mainId": 73063,
            "order": 10,
            "descTextMapHash": 898994444,
            "stepDescTextMapHash": 1337920917,
            "finishCond": [
                {
                    "type": "QUEST_CONTENT_FINISH_PLOT",
                    "param": [
                        7306309,
                        0
                    ]
                }
            ],
            "guide": {
                "type": "QUEST_GUIDE_LOCATION",
                "autoGuide": "QUEST_GUIDE_AUTO_ENABLE",
                "param": [
                    "Q7306309_guide"
                ],
                "guideScene": 3,
                "guideStyle": "QUEST_GUIDE_STYLE_POINT",
                "guideLayer": "QUEST_GUIDE_LAYER_SCENE",
                "LJJKEECOJEG": 2501,
                "PFALJNDLGEN": 25010002
            },
            "guideHint": {
                "COLBFDGFKDJ": ""
            },
            "isRewind": true,
            "finishExec": [
                {
                    "type": "QUEST_EXEC_SET_MAP_LAYER_UNLOCK_STATE",
                    "param": [
                        "3200301",
                        "1"
                    ]
                }
            ],
            "versionBegin": "",
            "versionEnd": ""
        },
        {
            "subId": 7306310,
            "mainId": 73063,
            "order": 12,
            "descTextMapHash": 1554965836,
            "stepDescTextMapHash": 1763173029,
            "finishCond": [
                {
                    "type": "QUEST_CONTENT_LUA_NOTIFY",
                    "param": [
                        0,
                        0
                    ],
                    "count": 1
                }
            ],
            "guide": {
                "type": "QUEST_GUIDE_LOCATION",
                "autoGuide": "QUEST_GUIDE_AUTO_ENABLE",
                "param": [
                    "Q7306310_guide",
                    "30"
                ],
                "guideScene": 3,
                "guideStyle": "QUEST_GUIDE_STYLE_POINT",
                "guideLayer": "QUEST_GUIDE_LAYER_SCENE",
                "LJJKEECOJEG": 2501,
                "PFALJNDLGEN": 25010002
            },
            "guideHint": {
                "COLBFDGFKDJ": ""
            },
            "isRewind": true,
            "finishExec": [
                {
                    "type": "QUEST_EXEC_UNREGISTER_DYNAMIC_GROUP",
                    "param": [
                        "133302638",
                        "0"
                    ]
                }
            ],
            "versionBegin": "",
            "versionEnd": ""
        },
        {
            "subId": 7306311,
            "mainId": 73063,
            "order": 14,
            "descTextMapHash": 533172332,
            "stepDescTextMapHash": 681097221,
            "finishCond": [
                {
                    "type": "QUEST_CONTENT_FINISH_PLOT",
                    "param": [
                        7306311,
                        0
                    ]
                }
            ],
            "guide": {
                "type": "QUEST_GUIDE_LOCATION",
                "autoGuide": "QUEST_GUIDE_AUTO_ENABLE",
                "param": [
                    "Q7306310_guide"
                ],
                "guideScene": 3,
                "guideStyle": "QUEST_GUIDE_STYLE_TARGET",
                "guideLayer": "QUEST_GUIDE_LAYER_SCENE",
                "LJJKEECOJEG": 2501,
                "PFALJNDLGEN": 25010002
            },
            "guideHint": {
                "COLBFDGFKDJ": ""
            },
            "isRewind": true,
            "versionBegin": "",
            "versionEnd": ""
        },
        {
            "subId": 7306312,
            "mainId": 73063,
            "order": 16,
            "subIdSet": 2,
            "descTextMapHash": 761795772,
            "stepDescTextMapHash": 3608390893,
            "finishCond": [
                {
                    "type": "QUEST_CONTENT_ADD_QUEST_PROGRESS",
                    "param": [
                        7306312,
                        0
                    ],
                    "count": 3
                }
            ],
            "guide": {
                "type": "QUEST_GUIDE_LOCATION",
                "autoGuide": "QUEST_GUIDE_AUTO_ENABLE",
                "param": [
                    "Q7306312_guide",
                    "70"
                ],
                "guideScene": 3,
                "guideStyle": "QUEST_GUIDE_STYLE_POINT",
                "guideLayer": "QUEST_GUIDE_LAYER_SCENE",
                "LJJKEECOJEG": 2501,
                "PFALJNDLGEN": 25010002
            },
            "guideHint": {
                "COLBFDGFKDJ": ""
            },
            "isRewind": true,
            "versionBegin": "",
            "versionEnd": ""
        },
        {
            "subId": 7306313,
            "mainId": 73063,
            "order": 17,
            "subIdSet": 1,
            "descTextMapHash": 3147657180,
            "showType": "QUEST_HIDDEN",
            "finishCond": [
                {
                    "type": "QUEST_CONTENT_GADGET_STATE_CHANGE",
                    "param": [
                        133302010,
                        10001
                    ]
                }
            ],
            "guide": {
                "guideScene": 3,
                "guideLayer": "QUEST_GUIDE_LAYER_SCENE",
                "LJJKEECOJEG": 2501,
                "PFALJNDLGEN": 25010002
            },
            "showGuide": "QUEST_GUIDE_ITEM_DISABLE",
            "guideHint": {
                "COLBFDGFKDJ": ""
            },
            "finishExec": [
                {
                    "type": "QUEST_EXEC_ADD_QUEST_PROGRESS",
                    "param": [
                        "7306312",
                        "1"
                    ]
                }
            ],
            "versionBegin": "",
            "versionEnd": ""
        },
        {
            "subId": 7306314,
            "mainId": 73063,
            "order": 18,
            "subIdSet": 1,
            "descTextMapHash": 3923514252,
            "showType": "QUEST_HIDDEN",
            "finishCond": [
                {
                    "type": "QUEST_CONTENT_GADGET_STATE_CHANGE",
                    "param": [
                        133302010,
                        10002
                    ]
                }
            ],
            "guide": {
                "guideScene": 3,
                "guideLayer": "QUEST_GUIDE_LAYER_SCENE",
                "LJJKEECOJEG": 2501,
                "PFALJNDLGEN": 25010002
            },
            "showGuide": "QUEST_GUIDE_ITEM_DISABLE",
            "guideHint": {
                "COLBFDGFKDJ": ""
            },
            "finishExec": [
                {
                    "type": "QUEST_EXEC_ADD_QUEST_PROGRESS",
                    "param": [
                        "7306312",
                        "1"
                    ]
                }
            ],
            "versionBegin": "",
            "versionEnd": ""
        },
        {
            "subId": 7306315,
            "mainId": 73063,
            "order": 19,
            "subIdSet": 1,
            "descTextMapHash": 1646992876,
            "showType": "QUEST_HIDDEN",
            "finishCond": [
                {
                    "type": "QUEST_CONTENT_GADGET_STATE_CHANGE",
                    "param": [
                        133302010,
                        10004
                    ]
                }
            ],
            "guide": {
                "guideScene": 3,
                "guideLayer": "QUEST_GUIDE_LAYER_SCENE",
                "LJJKEECOJEG": 2501,
                "PFALJNDLGEN": 25010002
            },
            "showGuide": "QUEST_GUIDE_ITEM_DISABLE",
            "guideHint": {
                "COLBFDGFKDJ": ""
            },
            "finishExec": [
                {
                    "type": "QUEST_EXEC_ADD_QUEST_PROGRESS",
                    "param": [
                        "7306312",
                        "1"
                    ]
                }
            ],
            "versionBegin": "",
            "versionEnd": ""
        },
        {
            "subId": 7306316,
            "mainId": 73063,
            "order": 21,
            "descTextMapHash": 1896553132,
            "stepDescTextMapHash": 1657122573,
            "finishCond": [
                {
                    "type": "QUEST_CONTENT_COMPLETE_TALK",
                    "param": [
                        7306316,
                        0
                    ]
                }
            ],
            "guide": {
                "type": "QUEST_GUIDE_NPC",
                "autoGuide": "QUEST_GUIDE_AUTO_ENABLE",
                "param": [
                    "20577"
                ],
                "guideScene": 3,
                "guideStyle": "QUEST_GUIDE_STYLE_POINT",
                "guideLayer": "QUEST_GUIDE_LAYER_SCENE",
                "LJJKEECOJEG": 2501,
                "PFALJNDLGEN": 25010002
            },
            "guideHint": {
                "COLBFDGFKDJ": ""
            },
            "isRewind": true,
            "versionBegin": "",
            "versionEnd": ""
        },
        {
            "subId": 7306317,
            "mainId": 73063,
            "order": 22,
            "descTextMapHash": 633685268,
            "stepDescTextMapHash": 1461235837,
            "finishCond": [
                {
                    "type": "QUEST_CONTENT_FINISH_PLOT",
                    "param": [
                        7306317,
                        0
                    ]
                }
            ],
            "guide": {
                "type": "QUEST_GUIDE_LOCATION",
                "autoGuide": "QUEST_GUIDE_AUTO_ENABLE",
                "param": [
                    "Q7306317_guide"
                ],
                "guideScene": 3,
                "guideStyle": "QUEST_GUIDE_STYLE_POINT",
                "guideLayer": "QUEST_GUIDE_LAYER_SCENE",
                "LJJKEECOJEG": 2501,
                "PFALJNDLGEN": 25010002
            },
            "guideHint": {
                "COLBFDGFKDJ": ""
            },
            "isRewind": true,
            "versionBegin": "",
            "versionEnd": ""
        },
        {
            "subId": 7306318,
            "mainId": 73063,
            "order": 23,
            "descTextMapHash": 1423460020,
            "stepDescTextMapHash": 951700333,
            "finishCond": [
                {
                    "type": "QUEST_CONTENT_FINISH_PLOT",
                    "param": [
                        7306318,
                        0
                    ]
                }
            ],
            "guide": {
                "type": "QUEST_GUIDE_LOCATION",
                "autoGuide": "QUEST_GUIDE_AUTO_ENABLE",
                "param": [
                    "Q7306318_guide"
                ],
                "guideScene": 3,
                "guideStyle": "QUEST_GUIDE_STYLE_POINT",
                "guideLayer": "QUEST_GUIDE_LAYER_SCENE",
                "LJJKEECOJEG": 2501,
                "PFALJNDLGEN": 25010002
            },
            "guideHint": {
                "COLBFDGFKDJ": ""
            },
            "isRewind": true,
            "versionBegin": "",
            "versionEnd": ""
        },
        {
            "subId": 7306319,
            "mainId": 73063,
            "order": 24,
            "descTextMapHash": 95354700,
            "stepDescTextMapHash": 632511061,
            "finishCond": [
                {
                    "type": "QUEST_CONTENT_FINISH_PLOT",
                    "param": [
                        7306319,
                        0
                    ]
                }
            ],
            "guide": {
                "type": "QUEST_GUIDE_LOCATION",
                "autoGuide": "QUEST_GUIDE_AUTO_ENABLE",
                "param": [
                    "Q7306319_guide"
                ],
                "guideScene": 3,
                "guideStyle": "QUEST_GUIDE_STYLE_POINT",
                "guideLayer": "QUEST_GUIDE_LAYER_SCENE"
            },
            "guideHint": {
                "COLBFDGFKDJ": ""
            },
            "isRewind": true,
            "versionBegin": "",
            "versionEnd": ""
        },
        {
            "subId": 7306320,
            "mainId": 73063,
            "order": 27,
            "descTextMapHash": 405864868,
            "stepDescTextMapHash": 2595072997,
            "finishCond": [
                {
                    "type": "QUEST_CONTENT_COMPLETE_TALK",
                    "param": [
                        7306320,
                        0
                    ]
                }
            ],
            "guide": {
                "type": "QUEST_GUIDE_NPC",
                "autoGuide": "QUEST_GUIDE_AUTO_ENABLE",
                "param": [
                    "20577"
                ],
                "guideScene": 3,
                "guideStyle": "QUEST_GUIDE_STYLE_POINT",
                "guideLayer": "QUEST_GUIDE_LAYER_SCENE"
            },
            "guideHint": {
                "COLBFDGFKDJ": ""
            },
            "versionBegin": "",
            "versionEnd": ""
        },
        {
            "subId": 7306321,
            "mainId": 73063,
            "order": 28,
            "descTextMapHash": 1230098252,
            "stepDescTextMapHash": 756931101,
            "finishCond": [
                {
                    "type": "QUEST_CONTENT_FINISH_PLOT",
                    "param": [
                        7306321,
                        0
                    ]
                }
            ],
            "guide": {
                "type": "QUEST_GUIDE_LOCATION",
                "autoGuide": "QUEST_GUIDE_AUTO_ENABLE",
                "param": [
                    "Q7306321_guide"
                ],
                "guideScene": 3,
                "guideStyle": "QUEST_GUIDE_STYLE_POINT",
                "guideLayer": "QUEST_GUIDE_LAYER_SCENE",
                "LJJKEECOJEG": 1701,
                "PFALJNDLGEN": 17010002
            },
            "guideHint": {
                "COLBFDGFKDJ": ""
            },
            "isRewind": true,
            "finishExec": [
                {
                    "type": "QUEST_EXEC_SET_MAP_LAYER_UNLOCK_STATE",
                    "param": [
                        "3200401",
                        "1"
                    ]
                }
            ],
            "versionBegin": "",
            "versionEnd": ""
        },
        {
            "subId": 7306322,
            "mainId": 73063,
            "order": 29,
            "descTextMapHash": 1134308124,
            "stepDescTextMapHash": 3267168949,
            "finishCond": [
                {
                    "type": "QUEST_CONTENT_FINISH_PLOT",
                    "param": [
                        7306322,
                        0
                    ]
                }
            ],
            "guide": {
                "type": "QUEST_GUIDE_LOCATION",
                "autoGuide": "QUEST_GUIDE_AUTO_ENABLE",
                "param": [
                    "Q7306322_guide"
                ],
                "guideScene": 3,
                "guideStyle": "QUEST_GUIDE_STYLE_POINT",
                "guideLayer": "QUEST_GUIDE_LAYER_SCENE",
                "LJJKEECOJEG": 1701,
                "PFALJNDLGEN": 17010002
            },
            "guideHint": {
                "COLBFDGFKDJ": ""
            },
            "isRewind": true,
            "versionBegin": "",
            "versionEnd": ""
        },
        {
            "subId": 7306323,
            "mainId": 73063,
            "order": 30,
            "descTextMapHash": 2759534468,
            "stepDescTextMapHash": 751930109,
            "finishCond": [
                {
                    "type": "QUEST_CONTENT_COMPLETE_TALK",
                    "param": [
                        7306323,
                        0
                    ]
                }
            ],
            "guide": {
                "type": "QUEST_GUIDE_NPC",
                "autoGuide": "QUEST_GUIDE_AUTO_ENABLE",
                "param": [
                    "20577"
                ],
                "guideScene": 3,
                "guideStyle": "QUEST_GUIDE_STYLE_POINT",
                "guideLayer": "QUEST_GUIDE_LAYER_SCENE",
                "LJJKEECOJEG": 1701,
                "PFALJNDLGEN": 17010002
            },
            "guideHint": {
                "COLBFDGFKDJ": ""
            },
            "isRewind": true,
            "versionBegin": "",
            "versionEnd": ""
        },
        {
            "subId": 7306324,
            "mainId": 73063,
            "order": 31,
            "subIdSet": 4,
            "descTextMapHash": 967748220,
            "stepDescTextMapHash": 1449089149,
            "finishCond": [
                {
                    "type": "QUEST_CONTENT_ADD_QUEST_PROGRESS",
                    "param": [
                        7306324,
                        0
                    ],
                    "count": 3
                }
            ],
            "guide": {
                "type": "QUEST_GUIDE_LOCATION",
                "autoGuide": "QUEST_GUIDE_AUTO_ENABLE",
                "param": [
                    "Q7306324_guide",
                    "160"
                ],
                "guideScene": 3,
                "guideStyle": "QUEST_GUIDE_STYLE_POINT",
                "guideLayer": "QUEST_GUIDE_LAYER_SCENE",
                "LJJKEECOJEG": 1701,
                "PFALJNDLGEN": 17010002
            },
            "guideHint": {
                "COLBFDGFKDJ": ""
            },
            "isRewind": true,
            "finishExec": [
                {
                    "type": "QUEST_EXEC_NOTIFY_GROUP_LUA",
                    "param": [
                        "3",
                        "133315071"
                    ]
                }
            ],
            "versionBegin": "",
            "versionEnd": ""
        },
        {
            "subId": 7306325,
            "mainId": 73063,
            "order": 32,
            "subIdSet": 3,
            "descTextMapHash": 2966082988,
            "stepDescTextMapHash": 1254708589,
            "showType": "QUEST_HIDDEN",
            "finishCond": [
                {
                    "type": "QUEST_CONTENT_GADGET_STATE_CHANGE",
                    "param": [
                        133315017,
                        17001
                    ]
                }
            ],
            "guide": {
                "guideScene": 3,
                "LJJKEECOJEG": 1701,
                "PFALJNDLGEN": 17010002
            },
            "showGuide": "QUEST_GUIDE_ITEM_DISABLE",
            "guideHint": {
                "COLBFDGFKDJ": ""
            },
            "finishExec": [
                {
                    "type": "QUEST_EXEC_ADD_QUEST_PROGRESS",
                    "param": [
                        "7306324",
                        "1"
                    ]
                }
            ],
            "versionBegin": "",
            "versionEnd": ""
        },
        {
            "subId": 7306326,
            "mainId": 73063,
            "order": 33,
            "subIdSet": 3,
            "descTextMapHash": 4053425620,
            "stepDescTextMapHash": 2558741341,
            "showType": "QUEST_HIDDEN",
            "finishCond": [
                {
                    "type": "QUEST_CONTENT_GADGET_STATE_CHANGE",
                    "param": [
                        133315017,
                        17002
                    ]
                }
            ],
            "guide": {
                "guideScene": 3,
                "LJJKEECOJEG": 1701,
                "PFALJNDLGEN": 17010002
            },
            "showGuide": "QUEST_GUIDE_ITEM_DISABLE",
            "guideHint": {
                "COLBFDGFKDJ": ""
            },
            "finishExec": [
                {
                    "type": "QUEST_EXEC_ADD_QUEST_PROGRESS",
                    "param": [
                        "7306324",
                        "1"
                    ]
                }
            ],
            "versionBegin": "",
            "versionEnd": ""
        },
        {
            "subId": 7306327,
            "mainId": 73063,
            "order": 34,
            "subIdSet": 3,
            "descTextMapHash": 3081026988,
            "stepDescTextMapHash": 3890741029,
            "showType": "QUEST_HIDDEN",
            "finishCond": [
                {
                    "type": "QUEST_CONTENT_GADGET_STATE_CHANGE",
                    "param": [
                        133315017,
                        17003
                    ]
                }
            ],
            "guide": {
                "guideScene": 3,
                "LJJKEECOJEG": 1701,
                "PFALJNDLGEN": 17010002
            },
            "showGuide": "QUEST_GUIDE_ITEM_DISABLE",
            "guideHint": {
                "COLBFDGFKDJ": ""
            },
            "finishExec": [
                {
                    "type": "QUEST_EXEC_ADD_QUEST_PROGRESS",
                    "param": [
                        "7306324",
                        "1"
                    ]
                }
            ],
            "versionBegin": "",
            "versionEnd": ""
        },
        {
            "subId": 7306328,
            "mainId": 73063,
            "order": 36,
            "descTextMapHash": 113256988,
            "stepDescTextMapHash": 3780699173,
            "finishCond": [
                {
                    "type": "QUEST_CONTENT_FINISH_PLOT",
                    "param": [
                        7306328,
                        0
                    ]
                }
            ],
            "guide": {
                "type": "QUEST_GUIDE_LOCATION",
                "autoGuide": "QUEST_GUIDE_AUTO_ENABLE",
                "param": [
                    "Q7306328_guide"
                ],
                "guideScene": 3,
                "guideStyle": "QUEST_GUIDE_STYLE_TARGET",
                "guideLayer": "QUEST_GUIDE_LAYER_SCENE",
                "LJJKEECOJEG": 1701,
                "PFALJNDLGEN": 17010002
            },
            "guideHint": {
                "COLBFDGFKDJ": ""
            },
            "isRewind": true,
            "versionBegin": "",
            "versionEnd": ""
        },
        {
            "subId": 7306329,
            "mainId": 73063,
            "order": 37,
            "descTextMapHash": 4090198132,
            "stepDescTextMapHash": 1456311917,
            "finishCond": [
                {
                    "type": "QUEST_CONTENT_COMPLETE_TALK",
                    "param": [
                        7306329,
                        0
                    ]
                }
            ],
            "guide": {
                "type": "QUEST_GUIDE_NPC",
                "autoGuide": "QUEST_GUIDE_AUTO_ENABLE",
                "param": [
                    "20577"
                ],
                "guideScene": 3,
                "guideStyle": "QUEST_GUIDE_STYLE_POINT",
                "guideLayer": "QUEST_GUIDE_LAYER_SCENE",
                "LJJKEECOJEG": 1701,
                "PFALJNDLGEN": 17010002
            },
            "guideHint": {
                "COLBFDGFKDJ": ""
            },
            "isRewind": true,
            "versionBegin": "",
            "versionEnd": ""
        },
        {
            "subId": 7306330,
            "mainId": 73063,
            "order": 5,
            "descTextMapHash": 3164815276,
            "stepDescTextMapHash": 2530629613,
            "finishCond": [
                {
                    "type": "QUEST_CONTENT_FINISH_PLOT",
                    "param": [
                        7306330,
                        0
                    ]
                }
            ],
            "guide": {
                "type": "QUEST_GUIDE_NPC",
                "autoGuide": "QUEST_GUIDE_AUTO_ENABLE",
                "param": [
                    "20577"
                ],
                "guideScene": 3,
                "guideStyle": "QUEST_GUIDE_STYLE_START",
                "guideLayer": "QUEST_GUIDE_LAYER_SCENE"
            },
            "guideHint": {
                "COLBFDGFKDJ": ""
            },
            "isRewind": true,
            "versionBegin": "",
            "versionEnd": ""
        },
        {
            "subId": 7306331,
            "mainId": 73063,
            "order": 25,
            "descTextMapHash": 2621561852,
            "stepDescTextMapHash": 1681266421,
            "finishCond": [
                {
                    "type": "QUEST_CONTENT_COMPLETE_TALK",
                    "param": [
                        7306331,
                        0
                    ]
                }
            ],
            "guide": {
                "type": "QUEST_GUIDE_NPC",
                "autoGuide": "QUEST_GUIDE_AUTO_ENABLE",
                "param": [
                    "20577"
                ],
                "guideScene": 3,
                "guideStyle": "QUEST_GUIDE_STYLE_POINT",
                "guideLayer": "QUEST_GUIDE_LAYER_SCENE"
            },
            "guideHint": {
                "COLBFDGFKDJ": ""
            },
            "isRewind": true,
            "versionBegin": "",
            "versionEnd": ""
        },
        {
            "subId": 7306332,
            "mainId": 73063,
            "order": 26,
            "showType": "QUEST_HIDDEN",
            "finishCond": [
                {
                    "type": "QUEST_CONTENT_FINISH_PLOT",
                    "param": [
                        7306332,
                        0
                    ]
                }
            ],
            "guide": {
                "guideScene": 3,
                "guideStyle": "QUEST_GUIDE_STYLE_POINT",
                "guideLayer": "QUEST_GUIDE_LAYER_SCENE"
            },
            "showGuide": "QUEST_GUIDE_ITEM_DISABLE",
            "guideHint": {
                "COLBFDGFKDJ": ""
            },
            "isRewind": true,
            "versionBegin": "",
            "versionEnd": ""
        },
        {
            "subId": 7306333,
            "mainId": 73063,
            "order": 38,
            "showType": "QUEST_HIDDEN",
            "finishCond": [
                {
                    "type": "QUEST_CONTENT_FINISH_PLOT",
                    "param": [
                        7306333,
                        0
                    ]
                }
            ],
            "guide": {
                "guideScene": 3,
                "guideStyle": "QUEST_GUIDE_STYLE_POINT",
                "guideLayer": "QUEST_GUIDE_LAYER_SCENE",
                "LJJKEECOJEG": 1701,
                "PFALJNDLGEN": 17010002
            },
            "showGuide": "QUEST_GUIDE_ITEM_DISABLE",
            "guideHint": {
                "COLBFDGFKDJ": ""
            },
            "finishExec": [
                {
                    "type": "QUEST_EXEC_REFRESH_GROUP_SUITE",
                    "param": [
                        "3",
                        "133315266,1"
                    ]
                }
            ],
            "versionBegin": "",
            "versionEnd": ""
        },
        {
            "subId": 7306334,
            "mainId": 73063,
            "order": 39,
            "descTextMapHash": 1611196692,
            "stepDescTextMapHash": 1460965101,
            "finishCond": [
                {
                    "type": "QUEST_CONTENT_COMPLETE_TALK",
                    "param": [
                        7306335,
                        0
                    ]
                },
                {
                    "type": "QUEST_CONTENT_COMPLETE_TALK",
                    "param": [
                        7306336,
                        0
                    ]
                }
            ],
            "guide": {
                "type": "QUEST_GUIDE_NPC",
                "autoGuide": "QUEST_GUIDE_AUTO_ENABLE",
                "param": [
                    "20577"
                ],
                "guideScene": 3,
                "guideStyle": "QUEST_GUIDE_STYLE_FINISH",
                "guideLayer": "QUEST_GUIDE_LAYER_SCENE",
                "LJJKEECOJEG": 1701,
                "PFALJNDLGEN": 17010002
            },
            "guideHint": {
                "COLBFDGFKDJ": ""
            },
            "finishParent": true,
            "isRewind": true,
            "finishExec": [
                {
                    "type": "QUEST_EXEC_DEL_SCENE_TAG",
                    "param": [
                        "3",
                        "1127"
                    ]
                },
                {
                    "type": "QUEST_EXEC_ADD_SCENE_TAG",
                    "param": [
                        "3",
                        "1128"
                    ]
                }
            ],
            "versionBegin": "",
            "versionEnd": ""
        },
        {
            "subId": 7306335,
            "mainId": 73063,
            "order": 11,
            "descTextMapHash": 1270216764,
            "stepDescTextMapHash": 1666531501,
            "finishCond": [
                {
                    "type": "QUEST_CONTENT_FINISH_PLOT",
                    "param": [
                        7306335,
                        0
                    ]
                }
            ],
            "guide": {
                "type": "QUEST_GUIDE_LOCATION",
                "autoGuide": "QUEST_GUIDE_AUTO_ENABLE",
                "param": [
                    "Q7306335_guide"
                ],
                "guideScene": 3,
                "guideStyle": "QUEST_GUIDE_STYLE_POINT",
                "guideLayer": "QUEST_GUIDE_LAYER_SCENE",
                "LJJKEECOJEG": 2501,
                "PFALJNDLGEN": 25010002
            },
            "guideHint": {
                "COLBFDGFKDJ": ""
            },
            "isRewind": true,
            "versionBegin": "",
            "versionEnd": ""
        },
        {
            "subId": 7306336,
            "mainId": 73063,
            "order": 15,
            "descTextMapHash": 3568100892,
            "stepDescTextMapHash": 1950325077,
            "finishCond": [
                {
                    "type": "QUEST_CONTENT_COMPLETE_TALK",
                    "param": [
                        7306311,
                        0
                    ]
                }
            ],
            "guide": {
                "type": "QUEST_GUIDE_NPC",
                "autoGuide": "QUEST_GUIDE_AUTO_ENABLE",
                "param": [
                    "20577"
                ],
                "guideScene": 3,
                "guideStyle": "QUEST_GUIDE_STYLE_POINT",
                "guideLayer": "QUEST_GUIDE_LAYER_SCENE",
                "LJJKEECOJEG": 2501,
                "PFALJNDLGEN": 25010002
            },
            "guideHint": {
                "COLBFDGFKDJ": ""
            },
            "isRewind": true,
            "versionBegin": "",
            "versionEnd": ""
        },
        {
            "subId": 7306337,
            "mainId": 73063,
            "order": 20,
            "showType": "QUEST_HIDDEN",
            "finishCond": [
                {
                    "type": "QUEST_CONTENT_QUEST_STATE_EQUAL",
                    "param": [
                        7306312,
                        3
                    ]
                }
            ],
            "guide": {
                "LJJKEECOJEG": 2501,
                "PFALJNDLGEN": 25010002
            },
            "showGuide": "QUEST_GUIDE_ITEM_DISABLE",
            "guideHint": {
                "COLBFDGFKDJ": ""
            },
            "isRewind": true,
            "versionBegin": "",
            "versionEnd": ""
        },
        {
            "subId": 7306338,
            "mainId": 73063,
            "order": 35,
            "descTextMapHash": 2290696444,
            "showType": "QUEST_HIDDEN",
            "finishCond": [
                {
                    "type": "QUEST_CONTENT_QUEST_STATE_EQUAL",
                    "param": [
                        7306324,
                        3
                    ]
                }
            ],
            "guide": {
                "LJJKEECOJEG": 1701,
                "PFALJNDLGEN": 17010002
            },
            "showGuide": "QUEST_GUIDE_ITEM_DISABLE",
            "guideHint": {
                "COLBFDGFKDJ": ""
            },
            "isRewind": true,
            "versionBegin": "",
            "versionEnd": ""
        }
    ]
}