{
    "id": 73077,
    "type": "WQ",
    "titleTextMapHash": 3995251631,
    "descTextMapHash": 2969690118,
    "rewardIdList": [
        173077
    ],
    "subQuests": [
        {
            "subId": 7307701,
            "mainId": 73077,
            "order": 1,
            "descTextMapHash": 3178395380,
            "showType": "QUEST_HIDDEN",
            "finishCond": [
                {
                    "type": "QUEST_CONTENT_GAME_TIME_TICK",
                    "param": [
                        0,
                        0
                    ]
                }
            ],
            "guide": {},
            "guideHint": {
                "COLBFDGFKDJ": ""
            },
            "isRewind": true,
            "versionBegin": "",
            "versionEnd": ""
        },
        {
            "subId": 7307702,
            "mainId": 73077,
            "order": 35,
            "descTextMapHash": 408456708,
            "showType": "QUEST_HIDDEN",
            "guide": {},
            "guideHint": {
                "COLBFDGFKDJ": ""
            },
            "isRewind": true,
            "versionBegin": "",
            "versionEnd": ""
        },
        {
            "subId": 7307703,
            "mainId": 73077,
            "order": 36,
            "descTextMapHash": 3452757236,
            "showType": "QUEST_HIDDEN",
            "finishCond": [
                {
                    "type": "QUEST_CONTENT_QUEST_VAR_EQUAL",
                    "param": [
                        0,
                        16
                    ]
                }
            ],
            "guide": {},
            "guideHint": {
                "COLBFDGFKDJ": ""
            },
            "isRewind": true,
            "versionBegin": "",
            "versionEnd": ""
        },
        {
            "subId": 7307704,
            "mainId": 73077,
            "order": 4,
            "descTextMapHash": 102617876,
            "showType": "QUEST_HIDDEN",
            "finishCond": [
                {
                    "type": "QUEST_CONTENT_LUA_NOTIFY",
                    "param": [
                        0,
                        0
                    ],
                    "count": 1
                }
            ],
            "guide": {},
            "guideHint": {
                "COLBFDGFKDJ": ""
            },
            "isRewind": true,
            "finishExec": [
                {
                    "type": "QUEST_EXEC_INC_QUEST_VAR",
                    "param": [
                        "0",
                        "1"
                    ]
                }
            ],
            "versionBegin": "",
            "versionEnd": ""
        },
        {
            "subId": 7307705,
            "mainId": 73077,
            "order": 5,
            "descTextMapHash": 1108780524,
            "showType": "QUEST_HIDDEN",
            "finishCond": [
                {
                    "type": "QUEST_CONTENT_LUA_NOTIFY",
                    "param": [
                        0,
                        0
                    ],
                    "count": 1
                }
            ],
            "guide": {},
            "guideHint": {
                "COLBFDGFKDJ": ""
            },
            "isRewind": true,
            "finishExec": [
                {
                    "type": "QUEST_EXEC_INC_QUEST_VAR",
                    "param": [
                        "0",
                        "1"
                    ]
                }
            ],
            "versionBegin": "",
            "versionEnd": ""
        },
        {
            "subId": 7307706,
            "mainId": 73077,
            "order": 6,
            "descTextMapHash": 2997830204,
            "showType": "QUEST_HIDDEN",
            "finishCond": [
                {
                    "type": "QUEST_CONTENT_LUA_NOTIFY",
                    "param": [
                        0,
                        0
                    ],
                    "count": 1
                }
            ],
            "guide": {},
            "guideHint": {
                "COLBFDGFKDJ": ""
            },
            "isRewind": true,
            "finishExec": [
                {
                    "type": "QUEST_EXEC_INC_QUEST_VAR",
                    "param": [
                        "0",
                        "1"
                    ]
                }
            ],
            "versionBegin": "",
            "versionEnd": ""
        },
        {
            "subId": 7307707,
            "mainId": 73077,
            "order": 7,
            "descTextMapHash": 4239299332,
            "showType": "QUEST_HIDDEN",
            "finishCond": [
                {
                    "type": "QUEST_CONTENT_LUA_NOTIFY",
                    "param": [
                        0,
                        0
                    ],
                    "count": 1
                }
            ],
            "guide": {},
            "guideHint": {
                "COLBFDGFKDJ": ""
            },
            "isRewind": true,
            "finishExec": [
                {
                    "type": "QUEST_EXEC_INC_QUEST_VAR",
                    "param": [
                        "0",
                        "1"
                    ]
                }
            ],
            "versionBegin": "",
            "versionEnd": ""
        },
        {
            "subId": 7307708,
            "mainId": 73077,
            "order": 8,
            "descTextMapHash": 3274278540,
            "showType": "QUEST_HIDDEN",
            "finishCond": [
                {
                    "type": "QUEST_CONTENT_LUA_NOTIFY",
                    "param": [
                        0,
                        0
                    ],
                    "count": 1
                }
            ],
            "guide": {},
            "guideHint": {
                "COLBFDGFKDJ": ""
            },
            "isRewind": true,
            "finishExec": [
                {
                    "type": "QUEST_EXEC_INC_QUEST_VAR",
                    "param": [
                        "0",
                        "1"
                    ]
                }
            ],
            "versionBegin": "",
            "versionEnd": ""
        },
        {
            "subId": 7307709,
            "mainId": 73077,
            "order": 9,
            "descTextMapHash": 2047459732,
            "showType": "QUEST_HIDDEN",
            "finishCond": [
                {
                    "type": "QUEST_CONTENT_LUA_NOTIFY",
                    "param": [
                        0,
                        0
                    ],
                    "count": 1
                }
            ],
            "guide": {},
            "guideHint": {
                "COLBFDGFKDJ": ""
            },
            "isRewind": true,
            "finishExec": [
                {
                    "type": "QUEST_EXEC_INC_QUEST_VAR",
                    "param": [
                        "0",
                        "1"
                    ]
                }
            ],
            "versionBegin": "",
            "versionEnd": ""
        },
        {
            "subId": 7307710,
            "mainId": 73077,
            "order": 10,
            "descTextMapHash": 2489602828,
            "showType": "QUEST_HIDDEN",
            "finishCond": [
                {
                    "type": "QUEST_CONTENT_LUA_NOTIFY",
                    "param": [
                        0,
                        0
                    ],
                    "count": 1
                }
            ],
            "guide": {},
            "guideHint": {
                "COLBFDGFKDJ": ""
            },
            "isRewind": true,
            "finishExec": [
                {
                    "type": "QUEST_EXEC_INC_QUEST_VAR",
                    "param": [
                        "0",
                        "1"
                    ]
                }
            ],
            "versionBegin": "",
            "versionEnd": ""
        },
        {
            "subId": 7307711,
            "mainId": 73077,
            "order": 11,
            "descTextMapHash": 3604492612,
            "showType": "QUEST_HIDDEN",
            "finishCond": [
                {
                    "type": "QUEST_CONTENT_LUA_NOTIFY",
                    "param": [
                        0,
                        0
                    ],
                    "count": 1
                }
            ],
            "guide": {},
            "guideHint": {
                "COLBFDGFKDJ": ""
            },
            "isRewind": true,
            "finishExec": [
                {
                    "type": "QUEST_EXEC_INC_QUEST_VAR",
                    "param": [
                        "0",
                        "1"
                    ]
                }
            ],
            "versionBegin": "",
            "versionEnd": ""
        },
        {
            "subId": 7307712,
            "mainId": 73077,
            "order": 12,
            "descTextMapHash": 3715569724,
            "showType": "QUEST_HIDDEN",
            "finishCond": [
                {
                    "type": "QUEST_CONTENT_LUA_NOTIFY",
                    "param": [
                        0,
                        0
                    ],
                    "count": 1
                }
            ],
            "guide": {},
            "guideHint": {
                "COLBFDGFKDJ": ""
            },
            "isRewind": true,
            "finishExec": [
                {
                    "type": "QUEST_EXEC_INC_QUEST_VAR",
                    "param": [
                        "0",
                        "1"
                    ]
                }
            ],
            "versionBegin": "",
            "versionEnd": ""
        },
        {
            "subId": 7307713,
            "mainId": 73077,
            "order": 13,
            "descTextMapHash": 35525620,
            "showType": "QUEST_HIDDEN",
            "finishCond": [
                {
                    "type": "QUEST_CONTENT_LUA_NOTIFY",
                    "param": [
                        0,
                        0
                    ],
                    "count": 1
                }
            ],
            "guide": {},
            "guideHint": {
                "COLBFDGFKDJ": ""
            },
            "isRewind": true,
            "finishExec": [
                {
                    "type": "QUEST_EXEC_INC_QUEST_VAR",
                    "param": [
                        "0",
                        "1"
                    ]
                }
            ],
            "versionBegin": "",
            "versionEnd": ""
        },
        {
            "subId": 7307714,
            "mainId": 73077,
            "order": 14,
            "descTextMapHash": 529553292,
            "showType": "QUEST_HIDDEN",
            "finishCond": [
                {
                    "type": "QUEST_CONTENT_LUA_NOTIFY",
                    "param": [
                        0,
                        0
                    ],
                    "count": 1
                }
            ],
            "guide": {},
            "guideHint": {
                "COLBFDGFKDJ": ""
            },
            "isRewind": true,
            "finishExec": [
                {
                    "type": "QUEST_EXEC_INC_QUEST_VAR",
                    "param": [
                        "0",
                        "1"
                    ]
                }
            ],
            "versionBegin": "",
            "versionEnd": ""
        },
        {
            "subId": 7307715,
            "mainId": 73077,
            "order": 15,
            "descTextMapHash": 2278701980,
            "showType": "QUEST_HIDDEN",
            "finishCond": [
                {
                    "type": "QUEST_CONTENT_LUA_NOTIFY",
                    "param": [
                        0,
                        0
                    ],
                    "count": 1
                }
            ],
            "guide": {},
            "guideHint": {
                "COLBFDGFKDJ": ""
            },
            "isRewind": true,
            "finishExec": [
                {
                    "type": "QUEST_EXEC_INC_QUEST_VAR",
                    "param": [
                        "0",
                        "1"
                    ]
                }
            ],
            "versionBegin": "",
            "versionEnd": ""
        },
        {
            "subId": 7307716,
            "mainId": 73077,
            "order": 16,
            "descTextMapHash": 1261485580,
            "showType": "QUEST_HIDDEN",
            "finishCond": [
                {
                    "type": "QUEST_CONTENT_LUA_NOTIFY",
                    "param": [
                        0,
                        0
                    ],
                    "count": 1
                }
            ],
            "guide": {},
            "guideHint": {
                "COLBFDGFKDJ": ""
            },
            "isRewind": true,
            "finishExec": [
                {
                    "type": "QUEST_EXEC_INC_QUEST_VAR",
                    "param": [
                        "0",
                        "1"
                    ]
                }
            ],
            "versionBegin": "",
            "versionEnd": ""
        },
        {
            "subId": 7307717,
            "mainId": 73077,
            "order": 17,
            "descTextMapHash": 3239493516,
            "showType": "QUEST_HIDDEN",
            "finishCond": [
                {
                    "type": "QUEST_CONTENT_LUA_NOTIFY",
                    "param": [
                        0,
                        0
                    ],
                    "count": 1
                }
            ],
            "guide": {},
            "guideHint": {
                "COLBFDGFKDJ": ""
            },
            "isRewind": true,
            "finishExec": [
                {
                    "type": "QUEST_EXEC_INC_QUEST_VAR",
                    "param": [
                        "0",
                        "1"
                    ]
                }
            ],
            "versionBegin": "",
            "versionEnd": ""
        },
        {
            "subId": 7307718,
            "mainId": 73077,
            "order": 19,
            "descTextMapHash": 4294068820,
            "showType": "QUEST_HIDDEN",
            "finishCond": [
                {
                    "type": "QUEST_CONTENT_LUA_NOTIFY",
                    "param": [
                        0,
                        0
                    ],
                    "count": 1
                }
            ],
            "guide": {},
            "guideHint": {
                "COLBFDGFKDJ": ""
            },
            "isRewind": true,
            "finishExec": [
                {
                    "type": "QUEST_EXEC_INC_QUEST_VAR",
                    "param": [
                        "0",
                        "1"
                    ]
                }
            ],
            "versionBegin": "",
            "versionEnd": ""
        },
        {
            "subId": 7307719,
            "mainId": 73077,
            "order": 20,
            "descTextMapHash": 556568588,
            "showType": "QUEST_HIDDEN",
            "finishCond": [
                {
                    "type": "QUEST_CONTENT_LUA_NOTIFY",
                    "param": [
                        0,
                        0
                    ],
                    "count": 1
                }
            ],
            "guide": {},
            "guideHint": {
                "COLBFDGFKDJ": ""
            },
            "isRewind": true,
            "finishExec": [
                {
                    "type": "QUEST_EXEC_INC_QUEST_VAR",
                    "param": [
                        "0",
                        "1"
                    ]
                }
            ],
            "versionBegin": "",
            "versionEnd": ""
        },
        {
            "subId": 7307720,
            "mainId": 73077,
            "order": 21,
            "descTextMapHash": 396839804,
            "showType": "QUEST_HIDDEN",
            "finishCond": [
                {
                    "type": "QUEST_CONTENT_QUEST_VAR_EQUAL",
                    "param": [
                        0,
                        16
                    ]
                }
            ],
            "guide": {},
            "guideHint": {
                "COLBFDGFKDJ": ""
            },
            "isRewind": true,
            "versionBegin": "",
            "versionEnd": ""
        },
        {
            "subId": 7307721,
            "mainId": 73077,
            "order": 22,
            "descTextMapHash": 1994389588,
            "stepDescTextMapHash": 18264189,
            "finishCond": [
                {
                    "type": "QUEST_CONTENT_COMPLETE_TALK",
                    "param": [
                        7307702,
                        0
                    ]
                }
            ],
            "guide": {
                "type": "QUEST_GUIDE_LOCATION",
                "autoGuide": "QUEST_GUIDE_AUTO_ENABLE",
                "param": [
                    "wq7307721_guide",
                    "10"
                ],
                "guideScene": 3,
                "guideStyle": "QUEST_GUIDE_STYLE_POINT",
                "guideLayer": "QUEST_GUIDE_LAYER_SCENE",
                "LJJKEECOJEG": 2401,
                "PFALJNDLGEN": 24010003
            },
            "guideHint": {
                "COLBFDGFKDJ": ""
            },
            "isRewind": true,
            "finishExec": [
                {
                    "type": "QUEST_EXEC_NOTIFY_GROUP_LUA",
                    "param": [
                        "3",
                        "133301137"
                    ]
                }
            ],
            "versionBegin": "",
            "versionEnd": ""
        },
        {
            "subId": 7307722,
            "mainId": 73077,
            "order": 34,
            "descTextMapHash": 3315546948,
            "finishCond": [
                {
                    "type": "QUEST_CONTENT_COMPLETE_TALK",
                    "param": [
                        7307702,
                        0
                    ]
                }
            ],
            "guide": {
                "type": "QUEST_GUIDE_NPC",
                "autoGuide": "QUEST_GUIDE_AUTO_ENABLE",
                "param": [
                    "4226"
                ],
                "guideScene": 3,
                "guideStyle": "QUEST_GUIDE_STYLE_TARGET",
                "guideLayer": "QUEST_GUIDE_LAYER_SCENE"
            },
            "guideHint": {
                "COLBFDGFKDJ": ""
            },
            "isRewind": true,
            "finishExec": [
                {
                    "type": "QUEST_EXEC_NOTIFY_GROUP_LUA",
                    "param": [
                        "3",
                        "133301137"
                    ]
                }
            ],
            "versionBegin": "",
            "versionEnd": ""
        },
        {
            "subId": 7307723,
            "mainId": 73077,
            "order": 24,
            "descTextMapHash": 78963508,
            "stepDescTextMapHash": 3270390517,
            "finishCond": [
                {
                    "type": "QUEST_CONTENT_COMPLETE_TALK",
                    "param": [
                        7307703,
                        0
                    ]
                }
            ],
            "guide": {
                "type": "QUEST_GUIDE_LOCATION",
                "autoGuide": "QUEST_GUIDE_AUTO_ENABLE",
                "param": [
                    "wq7307723_guide",
                    "0"
                ],
                "guideScene": 3,
                "guideStyle": "QUEST_GUIDE_STYLE_POINT",
                "guideLayer": "QUEST_GUIDE_LAYER_SCENE",
                "LJJKEECOJEG": 2401,
                "PFALJNDLGEN": 24010003
            },
            "guideHint": {
                "COLBFDGFKDJ": ""
            },
            "isRewind": true,
            "versionBegin": "",
            "versionEnd": ""
        },
        {
            "subId": 7307724,
            "mainId": 73077,
            "order": 25,
            "descTextMapHash": 291766252,
            "finishCond": [
                {
                    "type": "QUEST_CONTENT_GADGET_STATE_CHANGE",
                    "param": [
                        133301093,
                        93007
                    ]
                }
            ],
            "guide": {
                "type": "QUEST_GUIDE_LOCATION",
                "autoGuide": "QUEST_GUIDE_AUTO_ENABLE",
                "param": [
                    "wq7307724_guide",
                    "20"
                ],
                "guideScene": 3,
                "guideStyle": "QUEST_GUIDE_STYLE_POINT",
                "guideLayer": "QUEST_GUIDE_LAYER_SCENE",
                "LJJKEECOJEG": 2401,
                "PFALJNDLGEN": 24010003
            },
            "guideHint": {
                "COLBFDGFKDJ": ""
            },
            "isRewind": true,
            "finishExec": [
                {
                    "type": "QUEST_EXEC_REFRESH_GROUP_SUITE",
                    "param": [
                        "3",
                        "133301093,2"
                    ]
                },
                {
                    "type": "QUEST_EXEC_REFRESH_GROUP_SUITE",
                    "param": [
                        "3",
                        "133301559,1"
                    ]
                }
            ],
            "versionBegin": "",
            "versionEnd": ""
        },
        {
            "subId": 7307725,
            "mainId": 73077,
            "order": 26,
            "descTextMapHash": 2862531148,
            "finishCond": [
                {
                    "type": "QUEST_CONTENT_COMPLETE_TALK",
                    "param": [
                        7307708,
                        0
                    ]
                }
            ],
            "guide": {
                "type": "QUEST_GUIDE_NPC",
                "autoGuide": "QUEST_GUIDE_AUTO_ENABLE",
                "param": [
                    "4225"
                ],
                "guideScene": 3,
                "guideStyle": "QUEST_GUIDE_STYLE_TARGET",
                "guideLayer": "QUEST_GUIDE_LAYER_SCENE",
                "LJJKEECOJEG": 2401,
                "PFALJNDLGEN": 24010003
            },
            "guideHint": {
                "COLBFDGFKDJ": ""
            },
            "finishParent": true,
            "isRewind": true,
            "finishExec": [
                {
                    "type": "QUEST_EXEC_REFRESH_GROUP_SUITE",
                    "param": [
                        "3",
                        "133301103,1"
                    ]
                },
                {
                    "type": "QUEST_EXEC_NOTIFY_GROUP_LUA",
                    "param": [
                        "3",
                        "133301103"
                    ]
                }
            ],
            "versionBegin": "",
            "versionEnd": ""
        },
        {
            "subId": 7307726,
            "mainId": 73077,
            "order": 41,
            "showType": "QUEST_HIDDEN",
            "finishCond": [
                {
                    "type": "QUEST_CONTENT_QUEST_STATE_EQUAL",
                    "param": [
                        7307720,
                        3
                    ]
                }
            ],
            "guide": {},
            "guideHint": {
                "COLBFDGFKDJ": ""
            },
            "failParentShow": "QUEST_HIDDEN",
            "isRewind": true,
            "versionBegin": "",
            "versionEnd": ""
        },
        {
            "subId": 7307727,
            "mainId": 73077,
            "order": 42,
            "showType": "QUEST_HIDDEN",
            "finishCond": [
                {
                    "type": "QUEST_CONTENT_QUEST_VAR_EQUAL",
                    "param": [
                        1,
                        2
                    ]
                }
            ],
            "guide": {},
            "guideHint": {
                "COLBFDGFKDJ": ""
            },
            "isRewind": true,
            "finishExec": [
                {
                    "type": "QUEST_EXEC_NOTIFY_GROUP_LUA",
                    "param": [
                        "3",
                        "133301137"
                    ]
                }
            ],
            "versionBegin": "",
            "versionEnd": ""
        },
        {
            "subId": 7307728,
            "mainId": 73077,
            "order": 29,
            "showType": "QUEST_HIDDEN",
            "guide": {},
            "showGuide": "QUEST_GUIDE_ITEM_DISABLE",
            "guideHint": {
                "COLBFDGFKDJ": ""
            },
            "isRewind": true,
            "versionBegin": "",
            "versionEnd": ""
        },
        {
            "subId": 7307729,
            "mainId": 73077,
            "order": 30,
            "showType": "QUEST_HIDDEN",
            "finishCond": [
                {
                    "type": "QUEST_CONTENT_GADGET_STATE_CHANGE",
                    "param": [
                        133301178,
                        178003
                    ]
                }
            ],
            "guide": {},
            "guideHint": {
                "COLBFDGFKDJ": ""
            },
            "isRewind": true,
            "versionBegin": "",
            "versionEnd": ""
        },
        {
            "subId": 7307730,
            "mainId": 73077,
            "order": 31,
            "showType": "QUEST_HIDDEN",
            "guide": {},
            "guideHint": {
                "COLBFDGFKDJ": ""
            },
            "isRewind": true,
            "versionBegin": "",
            "versionEnd": ""
        },
        {
            "subId": 7307731,
            "mainId": 73077,
            "order": 32,
            "showType": "QUEST_HIDDEN",
            "finishCond": [
                {
                    "type": "QUEST_CONTENT_GADGET_STATE_CHANGE",
                    "param": [
                        133301179,
                        179002
                    ]
                }
            ],
            "guide": {},
            "guideHint": {
                "COLBFDGFKDJ": ""
            },
            "isRewind": true,
            "versionBegin": "",
            "versionEnd": ""
        },
        {
            "subId": 7307732,
            "mainId": 73077,
            "order": 33,
            "showType": "QUEST_HIDDEN",
            "guide": {},
            "guideHint": {
                "COLBFDGFKDJ": ""
            },
            "isRewind": true,
            "versionBegin": "",
            "versionEnd": ""
        },
        {
            "subId": 7307733,
            "mainId": 73077,
            "order": 40,
            "showType": "QUEST_HIDDEN",
            "finishCond": [
                {
                    "type": "QUEST_CONTENT_COMPLETE_TALK",
                    "param": [
                        7307701,
                        0
                    ]
                },
                {
                    "type": "QUEST_CONTENT_COMPLETE_TALK",
                    "param": [
                        7307710,
                        0
                    ]
                }
            ],
            "guide": {},
            "guideHint": {
                "COLBFDGFKDJ": ""
            },
            "isRewind": true,
            "versionBegin": "",
            "versionEnd": ""
        }
    ]
}