{
    "id": 73145,
    "type": "WQ",
    "titleTextMapHash": 2699188343,
    "descTextMapHash": 4277642438,
    "showType": "QUEST_HIDDEN",
    "subQuests": [
        {
            "subId": 7314501,
            "mainId": 73145,
            "order": 1,
            "descTextMapHash": 1333189220,
            "showType": "QUEST_HIDDEN",
            "finishCond": [
                {
                    "type": "QUEST_CONTENT_LUA_NOTIFY",
                    "param": [
                        0,
                        0
                    ],
                    "count": 1
                }
            ],
            "guide": {},
            "guideHint": {
                "COLBFDGFKDJ": ""
            },
            "finishExec": [
                {
                    "type": "QUEST_EXEC_INIT_TIME_VAR",
                    "param": [
                        "1"
                    ]
                }
            ],
            "versionBegin": "",
            "versionEnd": ""
        },
        {
            "subId": 7314502,
            "mainId": 73145,
            "order": 2,
            "descTextMapHash": 3775506148,
            "showType": "QUEST_HIDDEN",
            "finishCond": [
                {
                    "type": "QUEST_CONTENT_TIME_VAR_PASS_DAY",
                    "param": [
                        73145,
                        1
                    ]
                }
            ],
            "guide": {},
            "guideHint": {
                "COLBFDGFKDJ": ""
            },
            "finishParent": true,
            "finishExec": [
                {
                    "type": "QUEST_EXEC_NOTIFY_GROUP_LUA",
                    "param": [
                        "3",
                        "133301057"
                    ]
                },
                {
                    "type": "QUEST_EXEC_NOTIFY_GROUP_LUA",
                    "param": [
                        "3",
                        "133301161"
                    ]
                },
                {
                    "type": "QUEST_EXEC_NOTIFY_GROUP_LUA",
                    "param": [
                        "3",
                        "133301162"
                    ]
                }
            ],
            "versionBegin": "",
            "versionEnd": ""
        }
    ]
}