{
    "id": 73323,
    "type": "WQ",
    "titleTextMapHash": 793479047,
    "descTextMapHash": 3656630158,
    "rewardIdList": [
        173323
    ],
    "showType": "QUEST_HIDDEN",
    "subQuests": [
        {
            "subId": 7332301,
            "mainId": 73323,
            "order": 1,
            "descTextMapHash": 2551674076,
            "showType": "QUEST_HIDDEN",
            "finishCond": [
                {
                    "type": "QUEST_CONTENT_QUEST_STATE_EQUAL",
                    "param": [
                        7321210,
                        3
                    ]
                }
            ],
            "guide": {},
            "guideHint": {
                "COLBFDGFKDJ": ""
            },
            "finishParent": true,
            "isRewind": true,
            "versionBegin": "",
            "versionEnd": ""
        }
    ]
}