{
    "id": 73907,
    "type": "WQ",
    "titleTextMapHash": 1848509455,
    "descTextMapHash": 2582254150,
    "rewardIdList": [
        554031
    ],
    "showType": "QUEST_HIDDEN",
    "subQuests": [
        {
            "subId": 7390701,
            "mainId": 73907,
            "order": 1,
            "showType": "QUEST_HIDDEN",
            "finishCond": [
                {
                    "type": "QUEST_CONTENT_COMPLETE_TALK",
                    "param": [
                        7390701,
                        0
                    ]
                }
            ],
            "guide": {},
            "guideHint": {
                "COLBFDGFKDJ": ""
            },
            "finishParent": true,
            "versionBegin": "",
            "versionEnd": ""
        }
    ]
}