{
    "id": 73908,
    "type": "WQ",
    "titleTextMapHash": 3325067551,
    "descTextMapHash": 2980217646,
    "rewardIdList": [
        554032
    ],
    "showType": "QUEST_HIDDEN",
    "subQuests": [
        {
            "subId": 7390801,
            "mainId": 73908,
            "order": 1,
            "showType": "QUEST_HIDDEN",
            "finishCond": [
                {
                    "type": "QUEST_CONTENT_COMPLETE_TALK",
                    "param": [
                        7390801,
                        0
                    ]
                }
            ],
            "guide": {},
            "guideHint": {
                "COLBFDGFKDJ": ""
            },
            "finishParent": true,
            "versionBegin": "",
            "versionEnd": ""
        }
    ]
}