{
    "id": 74169,
    "type": "WQ",
    "titleTextMapHash": 3647225335,
    "showType": "QUEST_HIDDEN",
    "chapterId": 10147,
    "subQuests": [
        {
            "subId": 7416901,
            "mainId": 74169,
            "order": 1,
            "descTextMapHash": 90208860,
            "showType": "QUEST_HIDDEN",
            "finishCond": [
                {
                    "type": "QUEST_CONTENT_QUEST_GLOBAL_VAR_EQUAL",
                    "param": [
                        7408201,
                        1
                    ]
                }
            ],
            "guide": {},
            "showGuide": "QUEST_GUIDE_ITEM_DISABLE",
            "guideHint": {
                "COLBFDGFKDJ": ""
            },
            "isRewind": true,
            "versionBegin": "",
            "versionEnd": ""
        },
        {
            "subId": 7416902,
            "mainId": 74169,
            "order": 2,
            "descTextMapHash": 3658139564,
            "showType": "QUEST_HIDDEN",
            "finishCond": [
                {
                    "type": "QUEST_CONTENT_QUEST_STATE_EQUAL",
                    "param": [
                        7408519,
                        3
                    ]
                }
            ],
            "guide": {},
            "guideHint": {
                "COLBFDGFKDJ": ""
            },
            "finishParent": true,
            "isRewind": true,
            "versionBegin": "",
            "versionEnd": ""
        }
    ]
}