{
    "id": 74178,
    "type": "WQ",
    "titleTextMapHash": 2554240527,
    "descTextMapHash": 4014931614,
    "rewardIdList": [
        174178
    ],
    "subQuests": [
        {
            "subId": 7417801,
            "mainId": 74178,
            "order": 1,
            "descTextMapHash": 3823033796,
            "showType": "QUEST_HIDDEN",
            "finishCond": [
                {
                    "type": "QUEST_CONTENT_FINISH_PLOT",
                    "param": [
                        7417801,
                        0
                    ]
                }
            ],
            "guide": {
                "type": "QUEST_GUIDE_LOCATION",
                "guideScene": 3
            },
            "showGuide": "QUEST_GUIDE_ITEM_DISABLE",
            "guideHint": {
                "COLBFDGFKDJ": ""
            },
            "isRewind": true,
            "versionBegin": "",
            "versionEnd": ""
        },
        {
            "subId": 7417802,
            "mainId": 74178,
            "order": 2,
            "descTextMapHash": 1027338004,
            "showType": "QUEST_HIDDEN",
            "finishCond": [
                {
                    "type": "QUEST_CONTENT_COMPLETE_TALK",
                    "param": [
                        7417802,
                        0
                    ]
                }
            ],
            "guide": {
                "type": "QUEST_GUIDE_LOCATION",
                "guideScene": 3,
                "guideStyle": "QUEST_GUIDE_STYLE_TARGET",
                "guideLayer": "QUEST_GUIDE_LAYER_SCENE"
            },
            "guideHint": {
                "COLBFDGFKDJ": ""
            },
            "isRewind": true,
            "finishExec": [
                {
                    "type": "QUEST_EXEC_NOTIFY_GROUP_LUA",
                    "param": [
                        "3",
                        "133412061"
                    ]
                }
            ],
            "versionBegin": "",
            "versionEnd": ""
        },
        {
            "subId": 7417803,
            "mainId": 74178,
            "order": 3,
            "descTextMapHash": 3182878980,
            "stepDescTextMapHash": 3982308901,
            "finishCond": [
                {
                    "type": "QUEST_CONTENT_FINISH_PLOT",
                    "param": [
                        7417803,
                        0
                    ]
                }
            ],
            "guide": {
                "type": "QUEST_GUIDE_LOCATION",
                "autoGuide": "QUEST_GUIDE_AUTO_ENABLE",
                "param": [
                    "[3_6879:3846.290,467.447,2857.250]",
                    "30"
                ],
                "guideScene": 3,
                "guideStyle": "QUEST_GUIDE_STYLE_TARGET",
                "guideLayer": "QUEST_GUIDE_LAYER_SCENE"
            },
            "guideHint": {
                "COLBFDGFKDJ": ""
            },
            "isRewind": true,
            "versionBegin": "",
            "versionEnd": ""
        },
        {
            "subId": 7417804,
            "mainId": 74178,
            "order": 4,
            "descTextMapHash": 484554164,
            "showType": "QUEST_HIDDEN",
            "finishCond": [
                {
                    "type": "QUEST_CONTENT_COMPLETE_TALK",
                    "param": [
                        7417804,
                        0
                    ]
                }
            ],
            "guide": {
                "type": "QUEST_GUIDE_NPC",
                "param": [
                    "21273"
                ],
                "guideScene": 3,
                "guideStyle": "QUEST_GUIDE_STYLE_TARGET",
                "guideLayer": "QUEST_GUIDE_LAYER_SCENE"
            },
            "guideHint": {
                "COLBFDGFKDJ": ""
            },
            "versionBegin": "",
            "versionEnd": ""
        },
        {
            "subId": 7417805,
            "mainId": 74178,
            "order": 5,
            "descTextMapHash": 2260109532,
            "finishCond": [
                {
                    "type": "QUEST_CONTENT_LUA_NOTIFY",
                    "param": [
                        0,
                        0
                    ],
                    "count": 1
                }
            ],
            "guide": {
                "type": "QUEST_GUIDE_LOCATION",
                "autoGuide": "QUEST_GUIDE_AUTO_ENABLE",
                "param": [
                    "[3_6880:3857.710,450.597,2836.280]",
                    "30"
                ],
                "guideScene": 3,
                "guideStyle": "QUEST_GUIDE_STYLE_TARGET",
                "guideLayer": "QUEST_GUIDE_LAYER_SCENE"
            },
            "showGuide": "QUEST_GUIDE_ITEM_DISABLE",
            "guideHint": {
                "COLBFDGFKDJ": ""
            },
            "isRewind": true,
            "finishExec": [
                {
                    "type": "QUEST_EXEC_UNREGISTER_DYNAMIC_GROUP",
                    "param": [
                        "133412073",
                        "0"
                    ]
                },
                {
                    "type": "QUEST_EXEC_UNREGISTER_DYNAMIC_GROUP",
                    "param": [
                        "133412076",
                        "0"
                    ]
                }
            ],
            "versionBegin": "",
            "versionEnd": ""
        },
        {
            "subId": 7417806,
            "mainId": 74178,
            "order": 6,
            "descTextMapHash": 2612958876,
            "finishCond": [
                {
                    "type": "QUEST_CONTENT_COMPLETE_TALK",
                    "param": [
                        7417806,
                        0
                    ]
                },
                {
                    "type": "QUEST_CONTENT_COMPLETE_TALK",
                    "param": [
                        7417811,
                        0
                    ]
                }
            ],
            "guide": {
                "type": "QUEST_GUIDE_NPC",
                "param": [
                    "21274"
                ],
                "guideScene": 3,
                "guideStyle": "QUEST_GUIDE_STYLE_TARGET",
                "guideLayer": "QUEST_GUIDE_LAYER_SCENE"
            },
            "guideHint": {
                "COLBFDGFKDJ": ""
            },
            "isRewind": true,
            "versionBegin": "",
            "versionEnd": ""
        },
        {
            "subId": 7417807,
            "mainId": 74178,
            "order": 7,
            "descTextMapHash": 1097105236,
            "stepDescTextMapHash": 1631148797,
            "finishCond": [
                {
                    "type": "QUEST_CONTENT_GAME_TIME_TICK",
                    "param": [
                        1,
                        0
                    ]
                }
            ],
            "guide": {
                "type": "QUEST_GUIDE_LOCATION",
                "autoGuide": "QUEST_GUIDE_AUTO_ENABLE",
                "param": [
                    "[3_6880:3857.710,450.597,2836.280]",
                    "30"
                ],
                "guideScene": 3,
                "guideStyle": "QUEST_GUIDE_STYLE_TARGET",
                "guideLayer": "QUEST_GUIDE_LAYER_SCENE"
            },
            "guideHint": {
                "COLBFDGFKDJ": ""
            },
            "isRewind": true,
            "versionBegin": "",
            "versionEnd": ""
        },
        {
            "subId": 7417808,
            "mainId": 74178,
            "order": 8,
            "descTextMapHash": 803850460,
            "finishCond": [
                {
                    "type": "QUEST_CONTENT_FINISH_PLOT",
                    "param": [
                        7417808,
                        0
                    ]
                }
            ],
            "guide": {
                "type": "QUEST_GUIDE_LOCATION",
                "autoGuide": "QUEST_GUIDE_AUTO_ENABLE",
                "param": [
                    "[3_6881:3454.693,458.997,3089.193]",
                    "50"
                ],
                "guideScene": 3,
                "guideStyle": "QUEST_GUIDE_STYLE_TARGET",
                "guideLayer": "QUEST_GUIDE_LAYER_SCENE"
            },
            "showGuide": "QUEST_GUIDE_ITEM_DISABLE",
            "guideHint": {
                "COLBFDGFKDJ": ""
            },
            "isRewind": true,
            "versionBegin": "",
            "versionEnd": ""
        },
        {
            "subId": 7417809,
            "mainId": 74178,
            "order": 9,
            "descTextMapHash": 4208433444,
            "finishCond": [
                {
                    "type": "QUEST_CONTENT_LUA_NOTIFY",
                    "param": [
                        0,
                        0
                    ],
                    "count": 1
                }
            ],
            "guide": {
                "type": "QUEST_GUIDE_LOCATION",
                "autoGuide": "QUEST_GUIDE_AUTO_ENABLE",
                "param": [
                    "[3_6881:3454.693,458.997,3089.193]",
                    "50"
                ],
                "guideScene": 3,
                "guideStyle": "QUEST_GUIDE_STYLE_TARGET",
                "guideLayer": "QUEST_GUIDE_LAYER_SCENE"
            },
            "showGuide": "QUEST_GUIDE_ITEM_DISABLE",
            "guideHint": {
                "COLBFDGFKDJ": ""
            },
            "isRewind": true,
            "finishExec": [
                {
                    "type": "QUEST_EXEC_UNREGISTER_DYNAMIC_GROUP",
                    "param": [
                        "133402156",
                        "0"
                    ]
                }
            ],
            "versionBegin": "",
            "versionEnd": ""
        },
        {
            "subId": 7417810,
            "mainId": 74178,
            "order": 10,
            "descTextMapHash": 113808444,
            "finishCond": [
                {
                    "type": "QUEST_CONTENT_COMPLETE_TALK",
                    "param": [
                        7417810,
                        0
                    ]
                }
            ],
            "guide": {
                "type": "QUEST_GUIDE_NPC",
                "param": [
                    "21274"
                ],
                "guideScene": 3,
                "guideStyle": "QUEST_GUIDE_STYLE_TARGET",
                "guideLayer": "QUEST_GUIDE_LAYER_SCENE"
            },
            "guideHint": {
                "COLBFDGFKDJ": ""
            },
            "finishParent": true,
            "isRewind": true,
            "finishExec": [
                {
                    "type": "QUEST_EXEC_UNREGISTER_DYNAMIC_GROUP",
                    "param": [
                        "133402686",
                        "1"
                    ]
                },
                {
                    "type": "QUEST_EXEC_UNREGISTER_DYNAMIC_GROUP",
                    "param": [
                        "133402136",
                        "1"
                    ]
                }
            ],
            "versionBegin": "",
            "versionEnd": ""
        }
    ]
}