{
    "id": 74207,
    "type": "WQ",
    "titleTextMapHash": 3987818575,
    "descTextMapHash": 4234420782,
    "rewardIdList": [
        174207
    ],
    "showType": "QUEST_HIDDEN",
    "subQuests": [
        {
            "subId": 7420701,
            "mainId": 74207,
            "order": 1,
            "descTextMapHash": 747424020,
            "showType": "QUEST_HIDDEN",
            "finishCond": [
                {
                    "type": "QUEST_CONTENT_TIME_VAR_PASS_DAY",
                    "param": [
                        74180,
                        0
                    ]
                }
            ],
            "guide": {},
            "guideHint": {
                "COLBFDGFKDJ": ""
            },
            "versionBegin": "",
            "versionEnd": ""
        },
        {
            "subId": 7420702,
            "mainId": 74207,
            "order": 2,
            "descTextMapHash": 3314313092,
            "showType": "QUEST_HIDDEN",
            "finishCond": [
                {
                    "type": "QUEST_CONTENT_MONSTER_DIE",
                    "param": [
                        26162501,
                        0
                    ],
                    "count": 1
                }
            ],
            "guide": {
                "param": [
                    "30"
                ],
                "guideScene": 3
            },
            "showGuide": "QUEST_GUIDE_ITEM_DISABLE",
            "guideHint": {
                "COLBFDGFKDJ": ""
            },
            "isRewind": true,
            "versionBegin": "",
            "versionEnd": ""
        },
        {
            "subId": 7420703,
            "mainId": 74207,
            "order": 3,
            "descTextMapHash": 2776235804,
            "showType": "QUEST_HIDDEN",
            "finishCond": [
                {
                    "type": "QUEST_CONTENT_COMPLETE_TALK",
                    "param": [
                        7420703,
                        0
                    ]
                }
            ],
            "guide": {
                "type": "QUEST_GUIDE_NPC",
                "param": [
                    "5283"
                ],
                "guideScene": 3,
                "guideStyle": "QUEST_GUIDE_STYLE_TARGET",
                "guideLayer": "QUEST_GUIDE_LAYER_SCENE"
            },
            "guideHint": {
                "COLBFDGFKDJ": ""
            },
            "finishParent": true,
            "isRewind": true,
            "finishExec": [
                {
                    "type": "QUEST_EXEC_DEL_PACK_ITEM",
                    "param": [
                        "120760",
                        "1"
                    ]
                },
                {
                    "type": "QUEST_EXEC_INIT_TIME_VAR",
                    "param": [
                        "0"
                    ]
                }
            ],
            "versionBegin": "",
            "versionEnd": ""
        }
    ]
}