{
    "id": 74915,
    "type": "WQ",
    "titleTextMapHash": 721872415,
    "descTextMapHash": 2048102854,
    "rewardIdList": [
        555016
    ],
    "showType": "QUEST_HIDDEN",
    "subQuests": [
        {
            "subId": 7491501,
            "mainId": 74915,
            "order": 1,
            "showType": "QUEST_HIDDEN",
            "finishCond": [
                {
                    "type": "QUEST_CONTENT_COMPLETE_TALK",
                    "param": [
                        7491501,
                        0
                    ]
                }
            ],
            "guide": {},
            "guideHint": {
                "COLBFDGFKDJ": ""
            },
            "finishParent": true,
            "versionBegin": "",
            "versionEnd": ""
        }
    ]
}