{
    "id": 74936,
    "type": "WQ",
    "titleTextMapHash": 1666634471,
    "descTextMapHash": 4288354910,
    "rewardIdList": [
        555036
    ],
    "showType": "QUEST_HIDDEN",
    "subQuests": [
        {
            "subId": 7493601,
            "mainId": 74936,
            "order": 1,
            "showType": "QUEST_HIDDEN",
            "finishCond": [
                {
                    "type": "QUEST_CONTENT_COMPLETE_TALK",
                    "param": [
                        7493601,
                        0
                    ]
                }
            ],
            "guide": {},
            "guideHint": {
                "COLBFDGFKDJ": ""
            },
            "finishParent": true,
            "versionBegin": "",
            "versionEnd": ""
        }
    ]
}