{
    "sceneId": 3,
    "CKIMGMIIGOP": [
        {
            "groupID": 311400001,
            "name": "311400001-4.4-翘英庄溪流限时到达返回路径",
            "tag": "",
            "points": [
                {
                    "BEMPMPOCAMK": 1,
                    "FPPHINKGLGO": 0.002715857932344079,
                    "pos": {
                        "x": 2130.41943359375,
                        "y": 287.7196960449219,
                        "z": 1651.850341796875
                    },
                    "JKCHFMOOFGA": {
                        "x": 2134.46044921875,
                        "y": 282.806640625,
                        "z": 1652.073486328125
                    },
                    "BMEFJIFJGID": {
                        "x": 2126.37841796875,
                        "y": 292.63275146484375,
                        "z": 1651.627197265625
                    }
                },
                {
                    "BEMPMPOCAMK": 5,
                    "FPPHINKGLGO": 0.002704936545342207,
                    "pos": {
                        "x": 2115.09765625,
                        "y": 294.3277587890625,
                        "z": 1646.46826171875
                    },
                    "JKCHFMOOFGA": {
                        "x": 2124.1953125,
                        "y": 294.03228759765625,
                        "z": 1650.0341796875
                    },
                    "BMEFJIFJGID": {
                        "x": 2106.0,
                        "y": 294.62322998046875,
                        "z": 1642.90234375
                    }
                },
                {
                    "BEMPMPOCAMK": 4,
                    "FPPHINKGLGO": 0.0019955309107899666,
                    "pos": {
                        "x": 2100.350341796875,
                        "y": 296.0188903808594,
                        "z": 1635.8170166015625
                    },
                    "JKCHFMOOFGA": {
                        "x": 2107.725830078125,
                        "y": 295.658203125,
                        "z": 1641.9329833984375
                    },
                    "BMEFJIFJGID": {
                        "x": 2092.974853515625,
                        "y": 296.37957763671875,
                        "z": 1629.7010498046875
                    }
                },
                {
                    "BEMPMPOCAMK": 3,
                    "FPPHINKGLGO": 0.001856268267147243,
                    "pos": {
                        "x": 2079.364013671875,
                        "y": 294.1001281738281,
                        "z": 1622.5914306640625
                    },
                    "JKCHFMOOFGA": {
                        "x": 2086.151123046875,
                        "y": 296.16876220703125,
                        "z": 1625.7158203125
                    },
                    "BMEFJIFJGID": {
                        "x": 2072.576904296875,
                        "y": 292.031494140625,
                        "z": 1619.467041015625
                    }
                },
                {
                    "BEMPMPOCAMK": 2,
                    "pos": {
                        "x": 2056.072998046875,
                        "y": 281.4645080566406,
                        "z": 1622.026611328125
                    },
                    "JKCHFMOOFGA": {
                        "x": 2057.098876953125,
                        "y": 281.6715393066406,
                        "z": 1620.6756591796875
                    },
                    "BMEFJIFJGID": {
                        "x": 2055.047119140625,
                        "y": 281.2574768066406,
                        "z": 1623.3775634765625
                    }
                }
            ],
            "ocp_name": ""
        },
        {
            "groupID": 311400002,
            "name": "311400002-4.4-风釜风",
            "tag": "",
            "points": [
                {
                    "BEMPMPOCAMK": 1,
                    "FPPHINKGLGO": 0.0039396220818161964,
                    "pos": {
                        "x": 2153.932861328125,
                        "y": 327.10986328125,
                        "z": 1666.854736328125
                    },
                    "JKCHFMOOFGA": {
                        "x": 2150.65576171875,
                        "y": 325.28082275390625,
                        "z": 1670.15869140625
                    },
                    "BMEFJIFJGID": {
                        "x": 2157.2099609375,
                        "y": 328.93890380859375,
                        "z": 1663.55078125
                    }
                },
                {
                    "BEMPMPOCAMK": 2,
                    "FPPHINKGLGO": 0.0031641724053770304,
                    "pos": {
                        "x": 2163.623779296875,
                        "y": 331.6852722167969,
                        "z": 1660.3997802734375
                    },
                    "JKCHFMOOFGA": {
                        "x": 2161.896484375,
                        "y": 329.8066711425781,
                        "z": 1663.76953125
                    },
                    "BMEFJIFJGID": {
                        "x": 2165.35107421875,
                        "y": 333.5638732910156,
                        "z": 1657.030029296875
                    }
                },
                {
                    "BEMPMPOCAMK": 3,
                    "FPPHINKGLGO": 0.0028503325302153826,
                    "pos": {
                        "x": 2162.440185546875,
                        "y": 341.09332275390625,
                        "z": 1649.2412109375
                    },
                    "JKCHFMOOFGA": {
                        "x": 2166.208740234375,
                        "y": 337.343994140625,
                        "z": 1649.9921875
                    },
                    "BMEFJIFJGID": {
                        "x": 2158.671630859375,
                        "y": 344.8426513671875,
                        "z": 1648.490234375
                    }
                },
                {
                    "BEMPMPOCAMK": 4,
                    "FPPHINKGLGO": 0.004185575991868973,
                    "pos": {
                        "x": 2147.462158203125,
                        "y": 344.64849853515625,
                        "z": 1656.0169677734375
                    },
                    "JKCHFMOOFGA": {
                        "x": 2150.625,
                        "y": 343.8364562988281,
                        "z": 1652.7701416015625
                    },
                    "BMEFJIFJGID": {
                        "x": 2144.29931640625,
                        "y": 345.4605407714844,
                        "z": 1659.2637939453125
                    }
                },
                {
                    "BEMPMPOCAMK": 5,
                    "FPPHINKGLGO": 0.006725676823407412,
                    "pos": {
                        "x": 2144.937255859375,
                        "y": 345.587158203125,
                        "z": 1667.20947265625
                    },
                    "JKCHFMOOFGA": {
                        "x": 2144.37890625,
                        "y": 345.46221923828125,
                        "z": 1664.8369140625
                    },
                    "BMEFJIFJGID": {
                        "x": 2145.49560546875,
                        "y": 345.71209716796875,
                        "z": 1669.58203125
                    }
                },
                {
                    "BEMPMPOCAMK": 6,
                    "FPPHINKGLGO": 0.010381384752690792,
                    "pos": {
                        "x": 2148.71484375,
                        "y": 345.7352294921875,
                        "z": 1673.3673095703125
                    },
                    "JKCHFMOOFGA": {
                        "x": 2147.456298828125,
                        "y": 345.8236389160156,
                        "z": 1673.1910400390625
                    },
                    "BMEFJIFJGID": {
                        "x": 2149.973388671875,
                        "y": 345.6468200683594,
                        "z": 1673.5435791015625
                    }
                },
                {
                    "BEMPMPOCAMK": 7,
                    "pos": {
                        "x": 2151.75927734375,
                        "y": 345.2057800292969,
                        "z": 1670.1177978515625
                    },
                    "JKCHFMOOFGA": {
                        "x": 2150.33056640625,
                        "y": 345.5586242675781,
                        "z": 1672.8583984375
                    },
                    "BMEFJIFJGID": {
                        "x": 2153.18798828125,
                        "y": 344.8529357910156,
                        "z": 1667.377197265625
                    }
                }
            ],
            "ocp_name": ""
        },
        {
            "groupID": 311400003,
            "name": "311400003-仙人茶桌，飞起池塘",
            "tag": "",
            "points": [
                {
                    "BEMPMPOCAMK": 1,
                    "FPPHINKGLGO": 0.020307783037424088,
                    "pos": {
                        "x": 2565.41015625,
                        "y": 366.5625305175781,
                        "z": 1778.2078857421875
                    },
                    "JKCHFMOOFGA": {
                        "x": 2567.11083984375,
                        "y": 366.1070251464844,
                        "z": 1777.4810791015625
                    },
                    "BMEFJIFJGID": {
                        "x": 2563.70947265625,
                        "y": 367.0180358886719,
                        "z": 1778.9346923828125
                    }
                },
                {
                    "BEMPMPOCAMK": 2,
                    "FPPHINKGLGO": 0.00938077736645937,
                    "pos": {
                        "x": 2563.18994140625,
                        "y": 367.1433410644531,
                        "z": 1779.0859375
                    },
                    "JKCHFMOOFGA": {
                        "x": 2563.284423828125,
                        "y": 367.13189697265625,
                        "z": 1779.116455078125
                    },
                    "BMEFJIFJGID": {
                        "x": 2563.095458984375,
                        "y": 367.15478515625,
                        "z": 1779.055419921875
                    }
                },
                {
                    "BEMPMPOCAMK": 3,
                    "FPPHINKGLGO": 0.00409823190420866,
                    "pos": {
                        "x": 2558.9208984375,
                        "y": 367.3472900390625,
                        "z": 1776.1136474609375
                    },
                    "JKCHFMOOFGA": {
                        "x": 2559.8359375,
                        "y": 366.760986328125,
                        "z": 1777.889892578125
                    },
                    "BMEFJIFJGID": {
                        "x": 2558.005859375,
                        "y": 367.93359375,
                        "z": 1774.33740234375
                    }
                },
                {
                    "BEMPMPOCAMK": 4,
                    "FPPHINKGLGO": 0.007108725607395172,
                    "pos": {
                        "x": 2556.034912109375,
                        "y": 371.72760009765625,
                        "z": 1765.197509765625
                    },
                    "JKCHFMOOFGA": {
                        "x": 2556.265869140625,
                        "y": 369.7685241699219,
                        "z": 1767.4095458984375
                    },
                    "BMEFJIFJGID": {
                        "x": 2555.803955078125,
                        "y": 373.6866760253906,
                        "z": 1762.9854736328125
                    }
                },
                {
                    "BEMPMPOCAMK": 5,
                    "FPPHINKGLGO": 0.007129841949790716,
                    "pos": {
                        "x": 2557.026611328125,
                        "y": 376.3306579589844,
                        "z": 1760.041259765625
                    },
                    "JKCHFMOOFGA": {
                        "x": 2556.57275390625,
                        "y": 374.5970458984375,
                        "z": 1761.414306640625
                    },
                    "BMEFJIFJGID": {
                        "x": 2557.48046875,
                        "y": 378.06427001953125,
                        "z": 1758.668212890625
                    }
                },
                {
                    "BEMPMPOCAMK": 6,
                    "FPPHINKGLGO": 0.007277336902916431,
                    "pos": {
                        "x": 2558.55517578125,
                        "y": 381.3544921875,
                        "z": 1755.528076171875
                    },
                    "JKCHFMOOFGA": {
                        "x": 2557.02978515625,
                        "y": 379.58160400390625,
                        "z": 1756.8333740234375
                    },
                    "BMEFJIFJGID": {
                        "x": 2560.08056640625,
                        "y": 383.12738037109375,
                        "z": 1754.2227783203125
                    }
                },
                {
                    "BEMPMPOCAMK": 7,
                    "pos": {
                        "x": 2564.170166015625,
                        "y": 384.6329040527344,
                        "z": 1753.9288330078125
                    },
                    "JKCHFMOOFGA": {
                        "x": 2560.900634765625,
                        "y": 383.4994201660156,
                        "z": 1754.34912109375
                    },
                    "BMEFJIFJGID": {
                        "x": 2567.439697265625,
                        "y": 385.7663879394531,
                        "z": 1753.508544921875
                    }
                }
            ],
            "ocp_name": ""
        }
    ]
}