{
    "luaDataPath": "",
    "entityBan": "",
    "disableNpcLod": true,
    "isAutoBanNpc": true,
    "isBanWidgetPet": true,
    "protectNpcMobileLod": true,
    "startFade": {
        "startFadeOutDuration": 0.0
    },
    "endFade": {
        "startFadeOutDuration": 0.0
    },
    "actors": [
        {
            "alias": "Avatar",
            "visible": true,
            "bornPointName": "",
            "relativePosType": "AVATAR_NEW",
            "relativePosNpcAlias": "",
            "bindMovingTargetKey": ""
        },
        {
            "configID": 12599,
            "alias": "12599",
            "visible": true,
            "bornPointName": "",
            "relativePosType": "AVATAR_NEW",
            "relativePosNpcAlias": "",
            "bindMovingTargetKey": ""
        }
    ],
    "group": [
        [
            {
                "$type": "MoleMole.Config.ConfigTimeProtectAction",
                "type": "TIME_PROTECT",
                "duration": 0.10000000149011612
            },
            {
                "$type": "MOOOKOKLLEI",
                "type": "CAMERA_FOCUS",
                "duration": 0.10000000149011612,
                "actionId": 108,
                "OMCCMPHDLOO": "",
                "OCFGGGHIKOO": "",
                "LJFHGGJDPHH": "",
                "LPKDFKLNEHL": ""
            },
            {
                "$type": "EAMBKPBOPIC",
                "type": "LOOK_AT",
                "aliasList": [
                    "Avatar"
                ],
                "actionId": 109,
                "FIDJDPAIFDN": true,
                "BCHGCKLKNEH": 0.5,
                "OMCCMPHDLOO": "12599",
                "EOHIIHMKDJC": true,
                "KPCALFDIHMC": "",
                "DBLNLMOPEBP": ""
            },
            {
                "$type": "EAMBKPBOPIC",
                "type": "LOOK_AT",
                "aliasList": [
                    "12599"
                ],
                "actionId": 110,
                "FIDJDPAIFDN": true,
                "BCHGCKLKNEH": 0.5,
                "OMCCMPHDLOO": "Avatar",
                "EOHIIHMKDJC": true,
                "KPCALFDIHMC": "",
                "DBLNLMOPEBP": ""
            },
            {
                "$type": "OOMFCPJAJGL",
                "type": "STEER_TO",
                "duration": 1.0,
                "aliasList": [
                    "12599"
                ],
                "actionId": 112,
                "DMGIIHNDNLC": "TO_TARGET_ADVANCED",
                "HCMINPNPFDF": true,
                "PENAEBFAHCH": true,
                "CKOEAJFMDON": true,
                "OMCCMPHDLOO": "Avatar",
                "DBLNLMOPEBP": ""
            }
        ],
        [
            {
                "$type": "DLPFECMKEKH",
                "type": "DIALOG",
                "aliasList": [
                    "12599"
                ],
                "NMKEDPFEKBH": 130001901,
                "JLCHMAJCAPA": 0.5
            },
            {
                "$type": "ILCGAGEGDJI",
                "type": "BODY_LANG",
                "aliasList": [
                    "12599"
                ],
                "actionId": 115,
                "FLBOOPHHFJP": 4040,
                "PMJAMGLAJGK": true,
                "LIMPPBIAKGL": false,
                "FNEGLPPEBBF": true,
                "FNDLJGEAMGI": ""
            },
            {
                "$type": "OPCCDGPJCJI",
                "type": "EMO_SYNC",
                "aliasList": [
                    "12599"
                ],
                "IONNJBCBACJ": "Cs_Emo_Avatar_Simple_Common_Set/Cs_Emo_Avatar_Talk/Cs_Emo_Avatar_PersonalLine/Cs_Emo_Avatar_Tighnari/Cs_Emo_130001901",
                "HLEJKBCMNNJ": "",
                "JGHLJJLNGPP": "",
                "MANNKIIBOFM": "",
                "COMNAAFDEDH": "",
                "CPGCCLNOCDK": "",
                "IGEFGCJKCPM": [
                    18143345603550818658,
                    3048478154044637075,
                    7088993892778602583,
                    14565347931951596629
                ]
            },
            {
                "$type": "OOMFCPJAJGL",
                "type": "STEER_TO",
                "delayTime": 0.4000000059604645,
                "duration": 1.0,
                "aliasList": [
                    "Avatar"
                ],
                "actionId": 111,
                "DMGIIHNDNLC": "TO_TARGET_ADVANCED",
                "HCMINPNPFDF": true,
                "PENAEBFAHCH": true,
                "CKOEAJFMDON": true,
                "OMCCMPHDLOO": "12599",
                "DBLNLMOPEBP": ""
            },
            {
                "$type": "ILCGAGEGDJI",
                "type": "BODY_LANG",
                "delayTime": 4.006999969482422,
                "aliasList": [
                    "12599"
                ],
                "actionId": 116,
                "FLBOOPHHFJP": 1173,
                "PMJAMGLAJGK": true,
                "LIMPPBIAKGL": false,
                "FNEGLPPEBBF": true,
                "FNDLJGEAMGI": ""
            }
        ],
        [
            {
                "$type": "MoleMole.Config.ConfigTimeProtectAction",
                "type": "TIME_PROTECT",
                "duration": 0.10000000149011612
            },
            {
                "$type": "EAMBKPBOPIC",
                "type": "LOOK_AT",
                "aliasList": [
                    "12599"
                ],
                "actionId": 113,
                "BCHGCKLKNEH": 0.5,
                "OMCCMPHDLOO": "",
                "EOHIIHMKDJC": true,
                "KPCALFDIHMC": "",
                "DBLNLMOPEBP": ""
            },
            {
                "$type": "OOMFCPJAJGL",
                "type": "STEER_TO",
                "duration": 1.0,
                "aliasList": [
                    "12599"
                ],
                "actionId": 114,
                "DMGIIHNDNLC": "RETURN",
                "HCMINPNPFDF": true,
                "OMCCMPHDLOO": "",
                "DBLNLMOPEBP": ""
            }
        ]
    ],
    "groupId": [
        {
            "grpId": 3082857480,
            "nextGrpId": 3082857481
        },
        {
            "index": 1,
            "grpId": 3082857481,
            "nextGrpId": 3082857482
        },
        {
            "index": 2,
            "grpId": 3082857482,
            "nextGrpId": 3082857483
        }
    ],
    "freeStyleDic": {
        "12599": [
            4040,
            1173
        ]
    }
}