{
    "luaDataPath": "",
    "startBlackKeepTime": 0.5,
    "entityBan": "",
    "disableNpcLod": true,
    "isAutoBanNpc": true,
    "isBanWidgetPet": true,
    "protectNpcMobileLod": true,
    "LIICEPFFGMH": 5,
    "startFade": {
        "startFadeInDuration": 0.5,
        "startFadeOutDuration": 0.5
    },
    "endFade": {
        "startFadeOutDuration": 0.0
    },
    "actors": [
        {
            "alias": "Avatar",
            "visible": true,
            "bornPointName": "[3_4535:390.447,312.914,5703.516,0.000,316.086,0.000]",
            "relativePosType": "AVATAR_NEW",
            "relativePosNpcAlias": "",
            "bindMovingTargetKey": ""
        },
        {
            "alias": "AvatarNpc",
            "visible": true,
            "bornPointName": "[3_4535:390.447,312.914,5703.516,0.000,316.086,0.000]",
            "removeActorType": "NEW_REMOVE",
            "relativePosType": "AVATAR_NEW",
            "relativePosNpcAlias": "",
            "bindMovingTargetKey": ""
        },
        {
            "configID": 1005,
            "alias": "1005",
            "visible": true,
            "bornPointName": "",
            "useRelativePos": true,
            "relativePos": {
                "x": -0.6000000238418579,
                "z": 0.10000000149011612
            },
            "removeActorType": "NEW_REMOVE_WITH_DISAPPEAR",
            "relativePosType": "AVATAR_NEW",
            "relativePosNpcAlias": "",
            "bindMovingTargetKey": ""
        },
        {
            "configID": 20883,
            "alias": "20883",
            "visible": true,
            "bornPointName": "",
            "useRelativePos": true,
            "relativePos": {
                "x": 0.699999988079071
            },
            "removeActorType": "NEW_REMOVE_WITH_DISAPPEAR",
            "relativePosType": "AVATAR_NEW",
            "relativePosNpcAlias": "",
            "bindMovingTargetKey": ""
        },
        {
            "configID": 4284,
            "alias": "4284",
            "visible": true,
            "bornPointName": "",
            "relativePosType": "AVATAR_NEW",
            "relativePosNpcAlias": "",
            "bindMovingTargetKey": ""
        }
    ],
    "group": [
        [
            {
                "$type": "MoleMole.Config.ConfigTimeProtectAction",
                "type": "TIME_PROTECT",
                "duration": 1.0,
                "actionId": 104
            },
            {
                "$type": "MoleMole.Config.ConfigBlackScreenAction",
                "type": "BLACK_SCREEN",
                "duration": 1.0,
                "actionId": 214,
                "blackScreenType": "KEEP_BLACK",
                "durationToBlack": 0.5,
                "durationKeepBlack": 1.0,
                "durationFromBlack": 0.5,
                "inteePos": "",
                "textMapID": "",
                "useTextFade": true
            },
            {
                "$type": "MoleMole.Config.ConfigSitOrStandAction",
                "type": "SIT_OR_STAND",
                "aliasList": [
                    "Avatar"
                ],
                "actionId": 222,
                "banResetFreestyle": true
            },
            {
                "$type": "MoleMole.Config.ConfigVisibleInterAction",
                "type": "VISIBLE",
                "aliasList": [
                    "Avatar"
                ],
                "actionId": 233,
                "extraParam": ""
            },
            {
                "$type": "MoleMole.Config.ConfigPlayerNPCEnergyTypeAction",
                "type": "SET_PLAYER_NPC_ENERGY_TYPE",
                "aliasList": [
                    "AvatarNpc"
                ],
                "actionId": 223,
                "setHeroEngergyType": true
            },
            {
                "$type": "OOMFCPJAJGL",
                "type": "STEER_TO",
                "duration": 1.0,
                "aliasList": [
                    "AvatarNpc"
                ],
                "actionId": 224,
                "DMGIIHNDNLC": "RETURN",
                "HCMINPNPFDF": true,
                "PENAEBFAHCH": true,
                "CKOEAJFMDON": true,
                "OMCCMPHDLOO": "",
                "AKKPIOCLGOP": true,
                "PPGPCHDAOJG": true,
                "DBLNLMOPEBP": ""
            },
            {
                "$type": "OOMFCPJAJGL",
                "type": "STEER_TO",
                "duration": 1.0,
                "aliasList": [
                    "1005"
                ],
                "actionId": 226,
                "DMGIIHNDNLC": "RETURN",
                "HCMINPNPFDF": true,
                "PENAEBFAHCH": true,
                "CKOEAJFMDON": true,
                "OMCCMPHDLOO": "",
                "AKKPIOCLGOP": true,
                "PPGPCHDAOJG": true,
                "DBLNLMOPEBP": ""
            },
            {
                "$type": "OOMFCPJAJGL",
                "type": "STEER_TO",
                "duration": 1.0,
                "aliasList": [
                    "20883"
                ],
                "actionId": 228,
                "DMGIIHNDNLC": "RETURN",
                "HCMINPNPFDF": true,
                "PENAEBFAHCH": true,
                "CKOEAJFMDON": true,
                "OMCCMPHDLOO": "",
                "AKKPIOCLGOP": true,
                "PPGPCHDAOJG": true,
                "DBLNLMOPEBP": ""
            },
            {
                "$type": "OOMFCPJAJGL",
                "type": "STEER_TO",
                "duration": 1.0,
                "aliasList": [
                    "4284"
                ],
                "actionId": 230,
                "DMGIIHNDNLC": "RETURN",
                "HCMINPNPFDF": true,
                "PENAEBFAHCH": true,
                "CKOEAJFMDON": true,
                "OMCCMPHDLOO": "",
                "AKKPIOCLGOP": true,
                "PPGPCHDAOJG": true,
                "DBLNLMOPEBP": ""
            }
        ],
        [
            {
                "$type": "MoleMole.Config.ConfigBlackScreenAction",
                "type": "BLACK_SCREEN",
                "duration": 0.5,
                "actionId": 215,
                "blackScreenType": "FROM_BLACK",
                "durationToBlack": 0.5,
                "durationKeepBlack": 0.5,
                "durationFromBlack": 0.5,
                "inteePos": "",
                "textMapID": "",
                "useTextFade": true
            },
            {
                "$type": "DLPFECMKEKH",
                "type": "DIALOG",
                "aliasList": [
                    "1005"
                ],
                "actionId": 107,
                "NMKEDPFEKBH": 732570201,
                "JLCHMAJCAPA": 0.5
            }
        ],
        [
            {
                "$type": "DLPFECMKEKH",
                "type": "DIALOG",
                "aliasList": [
                    "4284"
                ],
                "actionId": 109,
                "NMKEDPFEKBH": 732570202,
                "JLCHMAJCAPA": 0.5
            }
        ],
        [
            {
                "$type": "DLPFECMKEKH",
                "type": "DIALOG",
                "aliasList": [
                    "4284"
                ],
                "actionId": 111,
                "NMKEDPFEKBH": 732570203,
                "JLCHMAJCAPA": 0.5
            },
            {
                "$type": "ECLBLHOENAG",
                "type": "DIALOG_SELECT",
                "delayTime": 0.4000000059604645,
                "aliasList": [
                    "AvatarNpc"
                ],
                "actionId": 217,
                "NDMMOPDPKNF": [
                    732570204,
                    732570205
                ],
                "FPDBIEGHMCD": [
                    3122218411,
                    3122218411
                ],
                "PKBOIGBGDEG": true,
                "GOJJPCDMMLN": 3122218406
            }
        ],
        [
            {
                "$type": "DLPFECMKEKH",
                "type": "DIALOG",
                "aliasList": [
                    "4284"
                ],
                "actionId": 114,
                "NMKEDPFEKBH": 732570206,
                "JLCHMAJCAPA": 0.5
            }
        ],
        [
            {
                "$type": "DLPFECMKEKH",
                "type": "DIALOG",
                "aliasList": [
                    "4284"
                ],
                "actionId": 116,
                "NMKEDPFEKBH": 732570207,
                "JLCHMAJCAPA": 0.5
            }
        ],
        [
            {
                "$type": "DLPFECMKEKH",
                "type": "DIALOG",
                "aliasList": [
                    "1005"
                ],
                "actionId": 118,
                "NMKEDPFEKBH": 732570208,
                "JLCHMAJCAPA": 0.5
            }
        ],
        [
            {
                "$type": "DLPFECMKEKH",
                "type": "DIALOG",
                "aliasList": [
                    "4284"
                ],
                "actionId": 120,
                "NMKEDPFEKBH": 732570209,
                "JLCHMAJCAPA": 0.5
            },
            {
                "$type": "ECLBLHOENAG",
                "type": "DIALOG_SELECT",
                "delayTime": 0.4000000059604645,
                "aliasList": [
                    "AvatarNpc"
                ],
                "actionId": 218,
                "NDMMOPDPKNF": [
                    732570210,
                    732570212
                ],
                "FPDBIEGHMCD": [
                    3122218415,
                    2299490153
                ],
                "PKBOIGBGDEG": true,
                "GOJJPCDMMLN": 3122218406
            }
        ],
        [
            {
                "$type": "DLPFECMKEKH",
                "type": "DIALOG",
                "aliasList": [
                    "4284"
                ],
                "actionId": 123,
                "NMKEDPFEKBH": 732570211,
                "JLCHMAJCAPA": 0.5
            }
        ],
        [
            {
                "$type": "DLPFECMKEKH",
                "type": "DIALOG",
                "aliasList": [
                    "4284"
                ],
                "actionId": 125,
                "NMKEDPFEKBH": 732570213,
                "JLCHMAJCAPA": 0.5
            }
        ],
        [
            {
                "$type": "MoleMole.Config.ConfigSimpleBlackScreenAction",
                "type": "SIMPLE_BLACK_SCREEN",
                "actionId": 127,
                "durationToBlack": 0.5,
                "durationKeepBlack": 3.0,
                "durationFromBlack": 0.5,
                "textMapID": "",
                "useTextFade": true,
                "dialogID": 732570214
            },
            {
                "$type": "DLPFECMKEKH",
                "type": "DIALOG_CLEAR",
                "actionId": 128
            }
        ],
        [
            {
                "$type": "DLPFECMKEKH",
                "type": "DIALOG",
                "aliasList": [
                    "4284"
                ],
                "actionId": 130,
                "NMKEDPFEKBH": 732570215,
                "JLCHMAJCAPA": 0.5
            }
        ],
        [
            {
                "$type": "DLPFECMKEKH",
                "type": "DIALOG",
                "aliasList": [
                    "4284"
                ],
                "actionId": 132,
                "NMKEDPFEKBH": 732570216,
                "JLCHMAJCAPA": 0.5
            }
        ],
        [
            {
                "$type": "DLPFECMKEKH",
                "type": "DIALOG",
                "aliasList": [
                    "1005"
                ],
                "actionId": 134,
                "NMKEDPFEKBH": 732570217,
                "JLCHMAJCAPA": 0.5
            }
        ],
        [
            {
                "$type": "DLPFECMKEKH",
                "type": "DIALOG",
                "aliasList": [
                    "4284"
                ],
                "actionId": 136,
                "NMKEDPFEKBH": 732570218,
                "JLCHMAJCAPA": 0.5
            }
        ],
        [
            {
                "$type": "DLPFECMKEKH",
                "type": "DIALOG",
                "aliasList": [
                    "4284"
                ],
                "actionId": 138,
                "NMKEDPFEKBH": 732570219,
                "JLCHMAJCAPA": 0.5
            }
        ],
        [
            {
                "$type": "DLPFECMKEKH",
                "type": "DIALOG",
                "aliasList": [
                    "4284"
                ],
                "actionId": 140,
                "NMKEDPFEKBH": 732570220,
                "JLCHMAJCAPA": 0.5
            }
        ],
        [
            {
                "$type": "DLPFECMKEKH",
                "type": "DIALOG",
                "aliasList": [
                    "4284"
                ],
                "actionId": 142,
                "NMKEDPFEKBH": 732570221,
                "JLCHMAJCAPA": 0.5
            }
        ],
        [
            {
                "$type": "DLPFECMKEKH",
                "type": "DIALOG",
                "aliasList": [
                    "4284"
                ],
                "actionId": 144,
                "NMKEDPFEKBH": 732570222,
                "JLCHMAJCAPA": 0.5
            }
        ],
        [
            {
                "$type": "DLPFECMKEKH",
                "type": "DIALOG",
                "aliasList": [
                    "4284"
                ],
                "actionId": 146,
                "NMKEDPFEKBH": 732570223,
                "JLCHMAJCAPA": 0.5
            }
        ],
        [
            {
                "$type": "DLPFECMKEKH",
                "type": "DIALOG",
                "aliasList": [
                    "4284"
                ],
                "actionId": 148,
                "NMKEDPFEKBH": 732570224,
                "JLCHMAJCAPA": 0.5
            }
        ],
        [
            {
                "$type": "DLPFECMKEKH",
                "type": "DIALOG",
                "aliasList": [
                    "4284"
                ],
                "actionId": 150,
                "NMKEDPFEKBH": 732570225,
                "JLCHMAJCAPA": 0.5
            }
        ],
        [
            {
                "$type": "DLPFECMKEKH",
                "type": "DIALOG",
                "aliasList": [
                    "1005"
                ],
                "actionId": 152,
                "NMKEDPFEKBH": 732570226,
                "JLCHMAJCAPA": 0.5
            },
            {
                "$type": "ECLBLHOENAG",
                "type": "DIALOG_SELECT",
                "delayTime": 0.4000000059604645,
                "aliasList": [
                    "AvatarNpc"
                ],
                "actionId": 219,
                "NDMMOPDPKNF": [
                    732570227
                ],
                "FPDBIEGHMCD": [
                    2299490188
                ],
                "PKBOIGBGDEG": true,
                "GOJJPCDMMLN": 3122218406
            }
        ],
        [
            {
                "$type": "DLPFECMKEKH",
                "type": "DIALOG",
                "aliasList": [
                    "4284"
                ],
                "actionId": 155,
                "NMKEDPFEKBH": 732570228,
                "JLCHMAJCAPA": 0.5
            }
        ],
        [
            {
                "$type": "DLPFECMKEKH",
                "type": "DIALOG",
                "aliasList": [
                    "4284"
                ],
                "actionId": 157,
                "NMKEDPFEKBH": 732570229,
                "JLCHMAJCAPA": 0.5
            }
        ],
        [
            {
                "$type": "DLPFECMKEKH",
                "type": "DIALOG",
                "aliasList": [
                    "4284"
                ],
                "actionId": 159,
                "NMKEDPFEKBH": 732570230,
                "JLCHMAJCAPA": 0.5
            }
        ],
        [
            {
                "$type": "DLPFECMKEKH",
                "type": "DIALOG",
                "aliasList": [
                    "4284"
                ],
                "actionId": 161,
                "NMKEDPFEKBH": 732570231,
                "JLCHMAJCAPA": 0.5
            }
        ],
        [
            {
                "$type": "DLPFECMKEKH",
                "type": "DIALOG",
                "aliasList": [
                    "1005"
                ],
                "actionId": 163,
                "NMKEDPFEKBH": 732570232,
                "JLCHMAJCAPA": 0.5
            },
            {
                "$type": "ECLBLHOENAG",
                "type": "DIALOG_SELECT",
                "delayTime": 0.4000000059604645,
                "aliasList": [
                    "AvatarNpc"
                ],
                "actionId": 220,
                "NDMMOPDPKNF": [
                    732570233
                ],
                "FPDBIEGHMCD": [
                    2299490193
                ],
                "PKBOIGBGDEG": true,
                "GOJJPCDMMLN": 3122218406
            }
        ],
        [
            {
                "$type": "DLPFECMKEKH",
                "type": "DIALOG",
                "aliasList": [
                    "20883"
                ],
                "actionId": 166,
                "NMKEDPFEKBH": 732570234,
                "JLCHMAJCAPA": 0.5
            }
        ],
        [
            {
                "$type": "DLPFECMKEKH",
                "type": "DIALOG",
                "aliasList": [
                    "4284"
                ],
                "actionId": 168,
                "NMKEDPFEKBH": 732570235,
                "JLCHMAJCAPA": 0.5
            }
        ],
        [
            {
                "$type": "DLPFECMKEKH",
                "type": "DIALOG",
                "aliasList": [
                    "4284"
                ],
                "actionId": 170,
                "NMKEDPFEKBH": 732570236,
                "JLCHMAJCAPA": 0.5
            }
        ],
        [
            {
                "$type": "DLPFECMKEKH",
                "type": "DIALOG",
                "aliasList": [
                    "4284"
                ],
                "actionId": 172,
                "NMKEDPFEKBH": 732570237,
                "JLCHMAJCAPA": 0.5
            }
        ],
        [
            {
                "$type": "DLPFECMKEKH",
                "type": "DIALOG",
                "aliasList": [
                    "20883"
                ],
                "actionId": 174,
                "NMKEDPFEKBH": 732570238,
                "JLCHMAJCAPA": 0.5
            }
        ],
        [
            {
                "$type": "DLPFECMKEKH",
                "type": "DIALOG",
                "aliasList": [
                    "4284"
                ],
                "actionId": 176,
                "NMKEDPFEKBH": 732570239,
                "JLCHMAJCAPA": 0.5
            },
            {
                "$type": "ECLBLHOENAG",
                "type": "DIALOG_SELECT",
                "delayTime": 0.4000000059604645,
                "aliasList": [
                    "AvatarNpc"
                ],
                "actionId": 221,
                "NDMMOPDPKNF": [
                    732570240
                ],
                "FPDBIEGHMCD": [
                    2299490220
                ],
                "PKBOIGBGDEG": true,
                "GOJJPCDMMLN": 3122218406
            }
        ],
        [
            {
                "$type": "DLPFECMKEKH",
                "type": "DIALOG",
                "aliasList": [
                    "1005"
                ],
                "actionId": 179,
                "NMKEDPFEKBH": 732570241,
                "JLCHMAJCAPA": 0.5
            }
        ],
        [
            {
                "$type": "DLPFECMKEKH",
                "type": "DIALOG",
                "aliasList": [
                    "4284"
                ],
                "actionId": 181,
                "NMKEDPFEKBH": 732570242,
                "JLCHMAJCAPA": 0.5
            }
        ],
        [
            {
                "$type": "DLPFECMKEKH",
                "type": "DIALOG",
                "aliasList": [
                    "4284"
                ],
                "actionId": 183,
                "NMKEDPFEKBH": 732570243,
                "JLCHMAJCAPA": 0.5
            }
        ],
        [
            {
                "$type": "DLPFECMKEKH",
                "type": "DIALOG",
                "aliasList": [
                    "4284"
                ],
                "actionId": 185,
                "NMKEDPFEKBH": 732570244,
                "JLCHMAJCAPA": 0.5
            }
        ],
        [
            {
                "$type": "DLPFECMKEKH",
                "type": "DIALOG",
                "aliasList": [
                    "4284"
                ],
                "actionId": 187,
                "NMKEDPFEKBH": 732570245,
                "JLCHMAJCAPA": 0.5
            }
        ],
        [
            {
                "$type": "DLPFECMKEKH",
                "type": "DIALOG",
                "aliasList": [
                    "4284"
                ],
                "actionId": 189,
                "NMKEDPFEKBH": 732570246,
                "JLCHMAJCAPA": 0.5
            }
        ],
        [
            {
                "$type": "DLPFECMKEKH",
                "type": "DIALOG",
                "aliasList": [
                    "1005"
                ],
                "actionId": 191,
                "NMKEDPFEKBH": 732570247,
                "JLCHMAJCAPA": 0.5
            }
        ],
        [
            {
                "$type": "DLPFECMKEKH",
                "type": "DIALOG",
                "aliasList": [
                    "4284"
                ],
                "actionId": 193,
                "NMKEDPFEKBH": 732570248,
                "JLCHMAJCAPA": 0.5
            }
        ],
        [
            {
                "$type": "DLPFECMKEKH",
                "type": "DIALOG",
                "aliasList": [
                    "4284"
                ],
                "actionId": 195,
                "NMKEDPFEKBH": 732570249,
                "JLCHMAJCAPA": 0.5
            }
        ],
        [
            {
                "$type": "DLPFECMKEKH",
                "type": "DIALOG",
                "aliasList": [
                    "4284"
                ],
                "actionId": 197,
                "NMKEDPFEKBH": 732570250,
                "JLCHMAJCAPA": 0.5
            }
        ],
        [
            {
                "$type": "DLPFECMKEKH",
                "type": "DIALOG",
                "aliasList": [
                    "4284"
                ],
                "actionId": 199,
                "NMKEDPFEKBH": 732570251,
                "JLCHMAJCAPA": 0.5
            }
        ],
        [
            {
                "$type": "DLPFECMKEKH",
                "type": "DIALOG",
                "aliasList": [
                    "4284"
                ],
                "actionId": 201,
                "NMKEDPFEKBH": 732570252,
                "JLCHMAJCAPA": 0.5
            }
        ],
        [
            {
                "$type": "DLPFECMKEKH",
                "type": "DIALOG",
                "aliasList": [
                    "4284"
                ],
                "actionId": 203,
                "NMKEDPFEKBH": 732570253,
                "JLCHMAJCAPA": 0.5
            }
        ],
        [
            {
                "$type": "DLPFECMKEKH",
                "type": "DIALOG",
                "aliasList": [
                    "4284"
                ],
                "actionId": 205,
                "NMKEDPFEKBH": 732570254,
                "JLCHMAJCAPA": 0.5
            }
        ],
        [
            {
                "$type": "DLPFECMKEKH",
                "type": "DIALOG",
                "aliasList": [
                    "20883"
                ],
                "actionId": 207,
                "NMKEDPFEKBH": 732570255,
                "JLCHMAJCAPA": 0.5
            }
        ],
        [
            {
                "$type": "DLPFECMKEKH",
                "type": "DIALOG",
                "aliasList": [
                    "4284"
                ],
                "actionId": 209,
                "NMKEDPFEKBH": 732570256,
                "JLCHMAJCAPA": 0.5
            }
        ],
        [
            {
                "$type": "DLPFECMKEKH",
                "type": "DIALOG",
                "aliasList": [
                    "4284"
                ],
                "actionId": 211,
                "NMKEDPFEKBH": 732570257,
                "JLCHMAJCAPA": 0.5
            }
        ],
        [
            {
                "$type": "MoleMole.Config.ConfigTimeProtectAction",
                "type": "TIME_PROTECT",
                "duration": 0.10000000149011612,
                "actionId": 105
            },
            {
                "$type": "MoleMole.Config.ConfigSimpleBlackScreenAction",
                "type": "SIMPLE_BLACK_SCREEN",
                "actionId": 212,
                "durationToBlack": 0.5,
                "durationKeepBlack": 1.5,
                "durationFromBlack": 0.5,
                "textMapID": ""
            },
            {
                "$type": "MoleMole.Config.ConfigTimeProtectAction",
                "type": "TIME_PROTECT",
                "duration": 0.699999988079071,
                "actionId": 213
            },
            {
                "$type": "OOMFCPJAJGL",
                "type": "STEER_TO",
                "duration": 1.0,
                "aliasList": [
                    "AvatarNpc"
                ],
                "actionId": 225,
                "DMGIIHNDNLC": "RETURN",
                "HCMINPNPFDF": true,
                "PENAEBFAHCH": true,
                "CKOEAJFMDON": true,
                "OMCCMPHDLOO": "",
                "AKKPIOCLGOP": true,
                "PPGPCHDAOJG": true,
                "DBLNLMOPEBP": ""
            },
            {
                "$type": "OOMFCPJAJGL",
                "type": "STEER_TO",
                "duration": 1.0,
                "aliasList": [
                    "1005"
                ],
                "actionId": 227,
                "DMGIIHNDNLC": "RETURN",
                "HCMINPNPFDF": true,
                "PENAEBFAHCH": true,
                "CKOEAJFMDON": true,
                "OMCCMPHDLOO": "",
                "AKKPIOCLGOP": true,
                "PPGPCHDAOJG": true,
                "DBLNLMOPEBP": ""
            },
            {
                "$type": "OOMFCPJAJGL",
                "type": "STEER_TO",
                "duration": 1.0,
                "aliasList": [
                    "20883"
                ],
                "actionId": 229,
                "DMGIIHNDNLC": "RETURN",
                "HCMINPNPFDF": true,
                "PENAEBFAHCH": true,
                "CKOEAJFMDON": true,
                "OMCCMPHDLOO": "",
                "AKKPIOCLGOP": true,
                "PPGPCHDAOJG": true,
                "DBLNLMOPEBP": ""
            },
            {
                "$type": "OOMFCPJAJGL",
                "type": "STEER_TO",
                "duration": 1.0,
                "aliasList": [
                    "4284"
                ],
                "actionId": 231,
                "DMGIIHNDNLC": "RETURN",
                "HCMINPNPFDF": true,
                "PENAEBFAHCH": true,
                "CKOEAJFMDON": true,
                "OMCCMPHDLOO": "",
                "AKKPIOCLGOP": true,
                "PPGPCHDAOJG": true,
                "DBLNLMOPEBP": ""
            },
            {
                "$type": "MOOOKOKLLEI",
                "type": "CAMERA_MOVE",
                "delayTime": 0.5,
                "duration": 0.10000000149011612,
                "actionId": 216,
                "IPHEFBOANAL": "EXIT",
                "HGKCPMDICGG": {
                    "z": 1.0
                },
                "AFODHELHCGB": 30.0,
                "MGMFMGNANHH": 5,
                "NDFGFJFGHKL": "EaseInOutCubic",
                "IBCBGNHCICN": {},
                "HCPFCAHMGMO": false,
                "OMCCMPHDLOO": "",
                "FEFNBKOHPOG": true,
                "OCFGGGHIKOO": "",
                "LJFHGGJDPHH": "",
                "LPKDFKLNEHL": ""
            },
            {
                "$type": "MoleMole.Config.ConfigVisibleInterAction",
                "type": "VISIBLE",
                "delayTime": 0.6000000238418579,
                "aliasList": [
                    "Avatar"
                ],
                "actionId": 232,
                "isVisible": true,
                "extraParam": ""
            },
            {
                "$type": "MoleMole.Config.ConfigVisibleInterAction",
                "type": "VISIBLE",
                "delayTime": 0.6000000238418579,
                "aliasList": [
                    "AvatarNpc"
                ],
                "actionId": 234,
                "extraParam": ""
            }
        ]
    ],
    "groupId": [
        {
            "grpId": 3122218407,
            "nextGrpId": 3122218408
        },
        {
            "index": 1,
            "grpId": 3122218408,
            "nextGrpId": 3122218409
        },
        {
            "index": 2,
            "grpId": 3122218409,
            "nextGrpId": 3122218410
        },
        {
            "index": 3,
            "grpId": 3122218410,
            "nextGrpId": 3122218411
        },
        {
            "index": 4,
            "grpId": 3122218411,
            "nextGrpId": 3122218412
        },
        {
            "index": 5,
            "grpId": 3122218412,
            "nextGrpId": 3122218413
        },
        {
            "index": 6,
            "grpId": 3122218413,
            "nextGrpId": 3122218414
        },
        {
            "index": 7,
            "grpId": 3122218414,
            "nextGrpId": 3122218415
        },
        {
            "index": 8,
            "grpId": 3122218415,
            "nextGrpId": 2299490154
        },
        {
            "index": 9,
            "grpId": 2299490153,
            "nextGrpId": 2299490154
        },
        {
            "index": 10,
            "grpId": 2299490154,
            "nextGrpId": 2299490155
        },
        {
            "index": 11,
            "grpId": 2299490155,
            "nextGrpId": 2299490156
        },
        {
            "index": 12,
            "grpId": 2299490156,
            "nextGrpId": 2299490157
        },
        {
            "index": 13,
            "grpId": 2299490157,
            "nextGrpId": 2299490158
        },
        {
            "index": 14,
            "grpId": 2299490158,
            "nextGrpId": 2299490159
        },
        {
            "index": 15,
            "grpId": 2299490159,
            "nextGrpId": 2299490160
        },
        {
            "index": 16,
            "grpId": 2299490160,
            "nextGrpId": 2299490161
        },
        {
            "index": 17,
            "grpId": 2299490161,
            "nextGrpId": 2299490162
        },
        {
            "index": 18,
            "grpId": 2299490162,
            "nextGrpId": 2299490184
        },
        {
            "index": 19,
            "grpId": 2299490184,
            "nextGrpId": 2299490185
        },
        {
            "index": 20,
            "grpId": 2299490185,
            "nextGrpId": 2299490186
        },
        {
            "index": 21,
            "grpId": 2299490186,
            "nextGrpId": 2299490187
        },
        {
            "index": 22,
            "grpId": 2299490187,
            "nextGrpId": 2299490188
        },
        {
            "index": 23,
            "grpId": 2299490188,
            "nextGrpId": 2299490189
        },
        {
            "index": 24,
            "grpId": 2299490189,
            "nextGrpId": 2299490190
        },
        {
            "index": 25,
            "grpId": 2299490190,
            "nextGrpId": 2299490191
        },
        {
            "index": 26,
            "grpId": 2299490191,
            "nextGrpId": 2299490192
        },
        {
            "index": 27,
            "grpId": 2299490192,
            "nextGrpId": 2299490193
        },
        {
            "index": 28,
            "grpId": 2299490193,
            "nextGrpId": 2299490215
        },
        {
            "index": 29,
            "grpId": 2299490215,
            "nextGrpId": 2299490216
        },
        {
            "index": 30,
            "grpId": 2299490216,
            "nextGrpId": 2299490217
        },
        {
            "index": 31,
            "grpId": 2299490217,
            "nextGrpId": 2299490218
        },
        {
            "index": 32,
            "grpId": 2299490218,
            "nextGrpId": 2299490219
        },
        {
            "index": 33,
            "grpId": 2299490219,
            "nextGrpId": 2299490220
        },
        {
            "index": 34,
            "grpId": 2299490220,
            "nextGrpId": 2299490221
        },
        {
            "index": 35,
            "grpId": 2299490221,
            "nextGrpId": 2299490222
        },
        {
            "index": 36,
            "grpId": 2299490222,
            "nextGrpId": 2299490223
        },
        {
            "index": 37,
            "grpId": 2299490223,
            "nextGrpId": 2299490224
        },
        {
            "index": 38,
            "grpId": 2299490224,
            "nextGrpId": 2299490246
        },
        {
            "index": 39,
            "grpId": 2299490246,
            "nextGrpId": 2299490247
        },
        {
            "index": 40,
            "grpId": 2299490247,
            "nextGrpId": 2299490248
        },
        {
            "index": 41,
            "grpId": 2299490248,
            "nextGrpId": 2299490249
        },
        {
            "index": 42,
            "grpId": 2299490249,
            "nextGrpId": 2299490250
        },
        {
            "index": 43,
            "grpId": 2299490250,
            "nextGrpId": 2299490251
        },
        {
            "index": 44,
            "grpId": 2299490251,
            "nextGrpId": 2299490252
        },
        {
            "index": 45,
            "grpId": 2299490252,
            "nextGrpId": 2299490253
        },
        {
            "index": 46,
            "grpId": 2299490253,
            "nextGrpId": 2299490254
        },
        {
            "index": 47,
            "grpId": 2299490254,
            "nextGrpId": 2299490255
        },
        {
            "index": 48,
            "grpId": 2299490255,
            "nextGrpId": 2299490277
        },
        {
            "index": 49,
            "grpId": 2299490277,
            "nextGrpId": 2299490278
        },
        {
            "index": 50,
            "grpId": 2299490278,
            "nextGrpId": 2299490279
        },
        {
            "index": 51,
            "grpId": 2299490279,
            "nextGrpId": 2299490280
        }
    ],
    "freeStyleDic": {
        "1025": [],
        "1026": [],
        "20883": [],
        "4284": []
    }
}