{
    "luaDataPath": "",
    "entityBan": "",
    "disableNpcLod": true,
    "isAutoBanNpc": true,
    "isBanWidgetPet": true,
    "protectNpcMobileLod": true,
    "startFade": {
        "startFadeOutDuration": 0.0
    },
    "endFade": {
        "startFadeOutDuration": 0.0
    },
    "actors": [
        {
            "alias": "Avatar",
            "visible": true,
            "bornPointName": "",
            "relativePosNpcAlias": "",
            "bindMovingTargetKey": ""
        },
        {
            "configID": 4198,
            "alias": "4198",
            "visible": true,
            "bornPointName": "",
            "forceCreateDaily": true,
            "relativePosNpcAlias": "",
            "bindMovingTargetKey": ""
        }
    ],
    "group": [
        [
            {
                "$type": "MoleMole.Config.ConfigTimeProtectAction",
                "type": "TIME_PROTECT",
                "duration": 0.10000000149011612
            },
            {
                "$type": "EAMBKPBOPIC",
                "type": "LOOK_AT",
                "aliasList": [
                    "Avatar"
                ],
                "actionId": 113,
                "FIDJDPAIFDN": true,
                "BCHGCKLKNEH": 0.5,
                "OMCCMPHDLOO": "4198",
                "EOHIIHMKDJC": true,
                "KPCALFDIHMC": "",
                "DBLNLMOPEBP": ""
            },
            {
                "$type": "OPCCDGPJCJI",
                "type": "EMO_SYNC",
                "aliasList": [
                    "4198"
                ],
                "actionId": 111,
                "IONNJBCBACJ": "",
                "HLEJKBCMNNJ": "Cs_Emo_NPC_Common/Cs_Emo_NPC_Normal01",
                "JGHLJJLNGPP": "Cs_Emo_NPC_Common/Cs_Emo_NPC_WinkB01",
                "MANNKIIBOFM": "",
                "COMNAAFDEDH": "",
                "CPGCCLNOCDK": "",
                "HINHCFHAMDI": false,
                "MFABDGAFKII": [
                    12803840960998583578,
                    3437050431160283015,
                    6548526936325855136,
                    1274732080047098512
                ],
                "IPAGHAALIII": [
                    4011334570606260619,
                    6522816548836632676,
                    1719869374971786022,
                    2249404287282863109
                ]
            },
            {
                "$type": "EAMBKPBOPIC",
                "type": "LOOK_AT",
                "aliasList": [
                    "4198"
                ],
                "actionId": 112,
                "FIDJDPAIFDN": true,
                "useTargetPos": true,
                "GFKIMGBGADJ": true,
                "GMKIJKADNHN": {
                    "x": -1322.364013671875,
                    "y": 178.0,
                    "z": 3162.76904296875
                },
                "BCHGCKLKNEH": 0.5,
                "OMCCMPHDLOO": "",
                "CEBMBGKJACI": "NONE",
                "EOHIIHMKDJC": true,
                "KPCALFDIHMC": "",
                "DBLNLMOPEBP": ""
            }
        ],
        [
            {
                "$type": "DLPFECMKEKH",
                "type": "DIALOG",
                "aliasList": [
                    "4198"
                ],
                "NMKEDPFEKBH": 730021801,
                "JLCHMAJCAPA": 0.5
            },
            {
                "$type": "ECLBLHOENAG",
                "type": "DIALOG_SELECT",
                "delayTime": 0.4000000059604645,
                "aliasList": [
                    "Avatar"
                ],
                "NDMMOPDPKNF": [
                    730021802,
                    730021803
                ],
                "FPDBIEGHMCD": [
                    3032201934,
                    3032201935
                ],
                "PKBOIGBGDEG": true
            }
        ],
        [
            {
                "$type": "MoleMole.Config.ConfigTimeProtectAction",
                "type": "TIME_PROTECT",
                "duration": 0.10000000149011612
            },
            {
                "$type": "MoleMole.Config.ConfigLuaAction",
                "type": "LUA_ACTION",
                "delayTime": 0.10000000149011612,
                "duration": 0.10000000149011612,
                "invoke": true,
                "invokeAlias": "73002",
                "invokeParam": 3
            }
        ],
        [
            {
                "$type": "MoleMole.Config.ConfigTimeProtectAction",
                "type": "TIME_PROTECT",
                "duration": 0.10000000149011612
            },
            {
                "$type": "MoleMole.Config.ConfigLuaAction",
                "type": "LUA_ACTION",
                "delayTime": 0.10000000149011612,
                "duration": 0.10000000149011612,
                "invoke": true,
                "invokeAlias": "73002",
                "invokeParam": 4
            }
        ]
    ],
    "groupId": [
        {
            "grpId": 3032201932,
            "nextGrpId": 3032201933
        },
        {
            "index": 1,
            "grpId": 3032201933,
            "nextGrpId": 3032201934
        },
        {
            "index": 2,
            "grpId": 3032201934,
            "nextGrpId": 3032201935
        },
        {
            "index": 3,
            "grpId": 3032201935,
            "nextGrpId": 3032201936
        }
    ],
    "freeStyleDic": {
        "4198": []
    }
}