{
    "luaDataPath": "",
    "startBlackKeepTime": 1.0,
    "entityBan": "",
    "startFade": {
        "startFadeInDuration": 0.5,
        "startFadeOutDuration": 0.5
    },
    "endFade": {
        "startFadeOutDuration": 0.0
    },
    "actors": [
        {
            "alias": "Avatar",
            "visible": true,
            "bornPointName": "Q102303Born",
            "relativePosNpcAlias": "",
            "bindMovingTargetKey": ""
        },
        {
            "configID": 1005,
            "alias": "1005",
            "visible": true,
            "bornPointName": "Q102303Paimon",
            "relativePosNpcAlias": "",
            "bindMovingTargetKey": ""
        }
    ],
    "group": [
        [
            {
                "$type": "MOOOKOKLLEI",
                "type": "CAMERA_MOVE",
                "delayTime": 0.019999999552965164,
                "duration": 3.0,
                "DOKGBCKOLJK": {
                    "x": 0.11927106231451035,
                    "y": -14.107979774475098,
                    "z": 41.524009704589844
                },
                "HGKCPMDICGG": {
                    "x": 0.1168651357293129,
                    "y": -14.150609970092773,
                    "z": 40.52492141723633
                },
                "AFODHELHCGB": 35.0,
                "MGMFMGNANHH": 1,
                "NDFGFJFGHKL": "EaseInCubic",
                "IBCBGNHCICN": {},
                "OMCCMPHDLOO": "",
                "OCFGGGHIKOO": "",
                "LJFHGGJDPHH": "",
                "LPKDFKLNEHL": ""
            },
            {
                "$type": "MOOOKOKLLEI",
                "type": "CAMERA_MOVE",
                "duration": 1.0,
                "DOKGBCKOLJK": {
                    "x": 0.1971926987171173,
                    "y": -14.50160026550293,
                    "z": 38.946311950683594
                },
                "HGKCPMDICGG": {
                    "x": 0.18898393213748932,
                    "y": -13.807364463806152,
                    "z": 38.22661209106445
                },
                "AFODHELHCGB": 35.0,
                "MGMFMGNANHH": 6,
                "NDFGFJFGHKL": "EaseInOutCubic",
                "IBCBGNHCICN": {},
                "OMCCMPHDLOO": "",
                "OCFGGGHIKOO": "",
                "LJFHGGJDPHH": "",
                "LPKDFKLNEHL": ""
            },
            {
                "$type": "MOOOKOKLLEI",
                "type": "CAMERA_MOVE",
                "delayTime": 1.3816312551498413,
                "duration": 12.0,
                "DOKGBCKOLJK": {
                    "x": 0.11927106231451035,
                    "y": -14.107979774475098,
                    "z": 41.524009704589844
                },
                "HGKCPMDICGG": {
                    "x": 0.1168651357293129,
                    "y": -14.150609970092773,
                    "z": 40.52492141723633
                },
                "AFODHELHCGB": 35.0,
                "MGMFMGNANHH": 1,
                "IBCBGNHCICN": {},
                "OMCCMPHDLOO": "",
                "OCFGGGHIKOO": "",
                "LJFHGGJDPHH": "",
                "LPKDFKLNEHL": ""
            },
            {
                "$type": "MoleMole.Config.ConfigMoveToAction",
                "type": "MOVE_TO",
                "aliasList": [
                    "Avatar"
                ],
                "routeList": [
                    {
                        "x": 0.9681288003921509,
                        "y": -15.269043922424316,
                        "z": 39.283138275146484
                    }
                ],
                "bindMovingTargetKey": ""
            },
            {
                "$type": "OOMFCPJAJGL",
                "type": "STEER_TO",
                "aliasList": [
                    "Avatar"
                ],
                "PLAPKCOMAKJ": {
                    "x": -0.07813964784145355,
                    "z": -0.996942400932312
                },
                "OMCCMPHDLOO": "",
                "DBLNLMOPEBP": ""
            },
            {
                "$type": "EAMBKPBOPIC",
                "type": "LOOK_AT",
                "aliasList": [
                    "Avatar"
                ],
                "FIDJDPAIFDN": true,
                "BCHGCKLKNEH": 0.4000000059604645,
                "OMCCMPHDLOO": "",
                "KPCALFDIHMC": "",
                "DBLNLMOPEBP": ""
            },
            {
                "$type": "DLPFECMKEKH",
                "type": "DIALOG",
                "aliasList": [
                    "1005"
                ],
                "NMKEDPFEKBH": 10230301,
                "JLCHMAJCAPA": 1.0
            },
            {
                "$type": "MoleMole.Config.ConfigMoveToAction",
                "type": "MOVE_TO",
                "aliasList": [
                    "1005"
                ],
                "routeList": [
                    {
                        "x": -0.6103429198265076,
                        "y": -15.302729606628418,
                        "z": 39.315696716308594
                    }
                ],
                "bindMovingTargetKey": ""
            },
            {
                "$type": "OOMFCPJAJGL",
                "type": "STEER_TO",
                "aliasList": [
                    "1005"
                ],
                "PLAPKCOMAKJ": {
                    "x": 0.10036802291870117,
                    "z": -0.9949503540992737
                },
                "OMCCMPHDLOO": "",
                "DBLNLMOPEBP": ""
            },
            {
                "$type": "OPCCDGPJCJI",
                "type": "EMO_SYNC",
                "aliasList": [
                    "1005"
                ],
                "IONNJBCBACJ": "Cs_Emo_Avatar_Simple_Common_Set/Cs_Emo_Avatar_Talk/Cs_Emo_Avatar_MainLine/Cs_Emo_Avatar_LiYue/Cs_Emo_10230301",
                "HLEJKBCMNNJ": "",
                "JGHLJJLNGPP": "",
                "MANNKIIBOFM": "",
                "COMNAAFDEDH": "",
                "CPGCCLNOCDK": "",
                "IGEFGCJKCPM": [
                    14785105621353115771,
                    12579681860111107506,
                    10859379481536654250,
                    1094870612414530681
                ]
            }
        ],
        [
            {
                "$type": "MOOOKOKLLEI",
                "type": "CAMERA_MOVE",
                "delayTime": 0.3402692675590515,
                "duration": 30.0,
                "DOKGBCKOLJK": {
                    "x": -9.888456344604492,
                    "y": 0.30353832244873047,
                    "z": 20.611270904541016
                },
                "HGKCPMDICGG": {
                    "x": -9.408019065856934,
                    "y": -0.32885801792144775,
                    "z": 21.218935012817383
                },
                "AFODHELHCGB": 25.0,
                "MGMFMGNANHH": 1,
                "NDFGFJFGHKL": "EaseOutQuad",
                "IBCBGNHCICN": {},
                "OMCCMPHDLOO": "",
                "OCFGGGHIKOO": "",
                "LJFHGGJDPHH": "",
                "LPKDFKLNEHL": ""
            },
            {
                "$type": "MOOOKOKLLEI",
                "type": "CAMERA_MOVE",
                "delayTime": 0.14385293424129486,
                "duration": 1.0,
                "DOKGBCKOLJK": {
                    "x": -9.785176277160645,
                    "y": -0.7546830177307129,
                    "z": 19.038257598876953
                },
                "HGKCPMDICGG": {
                    "x": -9.304738998413086,
                    "y": -1.3870793581008911,
                    "z": 19.64592170715332
                },
                "AFODHELHCGB": 25.0,
                "MGMFMGNANHH": 6,
                "NDFGFJFGHKL": "EaseInOutCubic",
                "IBCBGNHCICN": {},
                "OMCCMPHDLOO": "",
                "OCFGGGHIKOO": "",
                "LJFHGGJDPHH": "",
                "LPKDFKLNEHL": ""
            },
            {
                "$type": "DLPFECMKEKH",
                "type": "DIALOG",
                "aliasList": [
                    "1005"
                ],
                "NMKEDPFEKBH": 10230302,
                "JLCHMAJCAPA": 1.0
            },
            {
                "$type": "ILCGAGEGDJI",
                "type": "BODY_LANG",
                "delayTime": 2.9275174140930176,
                "aliasList": [
                    "1005"
                ],
                "FLBOOPHHFJP": 1270,
                "PMJAMGLAJGK": true,
                "FNDLJGEAMGI": ""
            },
            {
                "$type": "ILCGAGEGDJI",
                "type": "BODY_LANG",
                "delayTime": 6.208665370941162,
                "aliasList": [
                    "1005"
                ],
                "FLBOOPHHFJP": 1060,
                "PMJAMGLAJGK": true,
                "FNDLJGEAMGI": ""
            },
            {
                "$type": "ILCGAGEGDJI",
                "type": "BODY_LANG",
                "aliasList": [
                    "1005"
                ],
                "FLBOOPHHFJP": 1110,
                "PMJAMGLAJGK": true,
                "FNDLJGEAMGI": ""
            },
            {
                "$type": "OPCCDGPJCJI",
                "type": "EMO_SYNC",
                "aliasList": [
                    "1005"
                ],
                "IONNJBCBACJ": "Cs_Emo_Avatar_Simple_Common_Set/Cs_Emo_Avatar_Talk/Cs_Emo_Avatar_MainLine/Cs_Emo_Avatar_LiYue/Cs_Emo_10230302",
                "HLEJKBCMNNJ": "",
                "JGHLJJLNGPP": "",
                "MANNKIIBOFM": "",
                "COMNAAFDEDH": "",
                "CPGCCLNOCDK": "",
                "IGEFGCJKCPM": [
                    14799272357959933429,
                    11803363555248115698,
                    3699265517533866501,
                    10553473792291583721
                ]
            }
        ],
        [
            {
                "$type": "ECLBLHOENAG",
                "type": "DIALOG_SELECT",
                "delayTime": 0.4000000059604645,
                "aliasList": [
                    "Avatar"
                ],
                "NDMMOPDPKNF": [
                    10230304,
                    10230305
                ],
                "FPDBIEGHMCD": [
                    1790778875,
                    1790778875
                ],
                "PKBOIGBGDEG": true
            },
            {
                "$type": "DLPFECMKEKH",
                "type": "DIALOG",
                "aliasList": [
                    "1005"
                ],
                "NMKEDPFEKBH": 10230303,
                "JLCHMAJCAPA": 1.0
            },
            {
                "$type": "OOMFCPJAJGL",
                "type": "STEER_TO",
                "duration": 1.0,
                "aliasList": [
                    "1005"
                ],
                "PLAPKCOMAKJ": {
                    "x": 0.8378911018371582,
                    "z": -0.5458373427391052
                },
                "OMCCMPHDLOO": "",
                "DBLNLMOPEBP": ""
            },
            {
                "$type": "ILCGAGEGDJI",
                "type": "BODY_LANG",
                "delayTime": 7.061274528503418,
                "aliasList": [
                    "1005"
                ],
                "FLBOOPHHFJP": 1090,
                "PMJAMGLAJGK": true,
                "FNDLJGEAMGI": ""
            },
            {
                "$type": "ILCGAGEGDJI",
                "type": "BODY_LANG",
                "aliasList": [
                    "1005"
                ],
                "JLABKFNJCNP": true,
                "PMJAMGLAJGK": true,
                "FNDLJGEAMGI": ""
            },
            {
                "$type": "ILCGAGEGDJI",
                "type": "BODY_LANG",
                "delayTime": 2.592308282852173,
                "aliasList": [
                    "1005"
                ],
                "FLBOOPHHFJP": 1180,
                "PMJAMGLAJGK": true,
                "FNDLJGEAMGI": ""
            },
            {
                "$type": "OPCCDGPJCJI",
                "type": "EMO_SYNC",
                "aliasList": [
                    "1005"
                ],
                "IONNJBCBACJ": "Cs_Emo_Avatar_Simple_Common_Set/Cs_Emo_Avatar_Talk/Cs_Emo_Avatar_MainLine/Cs_Emo_Avatar_LiYue/Cs_Emo_10230303",
                "HLEJKBCMNNJ": "",
                "JGHLJJLNGPP": "",
                "MANNKIIBOFM": "",
                "COMNAAFDEDH": "",
                "CPGCCLNOCDK": "",
                "IGEFGCJKCPM": [
                    302250759625929173,
                    1153199732832219487,
                    7343526153113763193,
                    15165803329258364742
                ]
            }
        ],
        [
            {
                "$type": "MOOOKOKLLEI",
                "type": "CAMERA_MOVE",
                "delayTime": 0.11987742781639099,
                "duration": 20.0,
                "DOKGBCKOLJK": {
                    "x": -16.516389846801758,
                    "y": -15.097201347351074,
                    "z": 26.374967575073242
                },
                "HGKCPMDICGG": {
                    "x": -15.756634712219238,
                    "y": -15.139830589294434,
                    "z": 27.023778915405273
                },
                "AFODHELHCGB": 25.0,
                "MGMFMGNANHH": 1,
                "NDFGFJFGHKL": "EaseOutQuad",
                "IBCBGNHCICN": {},
                "OMCCMPHDLOO": "",
                "OCFGGGHIKOO": "",
                "LJFHGGJDPHH": "",
                "LPKDFKLNEHL": ""
            },
            {
                "$type": "MOOOKOKLLEI",
                "type": "CAMERA_MOVE",
                "duration": 1.0,
                "DOKGBCKOLJK": {
                    "x": -16.51803207397461,
                    "y": -15.610297203063965,
                    "z": 26.34317970275879
                },
                "HGKCPMDICGG": {
                    "x": -15.75827693939209,
                    "y": -15.652926445007324,
                    "z": 26.99199104309082
                },
                "AFODHELHCGB": 25.0,
                "MGMFMGNANHH": 6,
                "NDFGFJFGHKL": "EaseInOutCubic",
                "IBCBGNHCICN": {},
                "OMCCMPHDLOO": "",
                "OCFGGGHIKOO": "",
                "LJFHGGJDPHH": "",
                "LPKDFKLNEHL": ""
            },
            {
                "$type": "DLPFECMKEKH",
                "type": "DIALOG",
                "aliasList": [
                    "1005"
                ],
                "NMKEDPFEKBH": 10230306,
                "JLCHMAJCAPA": 1.0
            },
            {
                "$type": "ILCGAGEGDJI",
                "type": "BODY_LANG",
                "delayTime": 0.6546446084976196,
                "aliasList": [
                    "1005"
                ],
                "FLBOOPHHFJP": 1040,
                "PMJAMGLAJGK": true,
                "FNDLJGEAMGI": ""
            },
            {
                "$type": "ILCGAGEGDJI",
                "type": "BODY_LANG",
                "delayTime": 2.5567069053649902,
                "aliasList": [
                    "1005"
                ],
                "JLABKFNJCNP": true,
                "PMJAMGLAJGK": true,
                "FNDLJGEAMGI": ""
            },
            {
                "$type": "OPCCDGPJCJI",
                "type": "EMO_SYNC",
                "aliasList": [
                    "1005"
                ],
                "IONNJBCBACJ": "Cs_Emo_Avatar_Simple_Common_Set/Cs_Emo_Avatar_Talk/Cs_Emo_Avatar_MainLine/Cs_Emo_Avatar_LiYue/Cs_Emo_10230306",
                "HLEJKBCMNNJ": "",
                "JGHLJJLNGPP": "",
                "MANNKIIBOFM": "",
                "COMNAAFDEDH": "",
                "CPGCCLNOCDK": "",
                "IGEFGCJKCPM": [
                    16883425617124549780,
                    15587832665147899689,
                    13215743070669766028,
                    6457348190366781635
                ]
            }
        ],
        [
            {
                "$type": "EAMBKPBOPIC",
                "type": "LOOK_AT",
                "aliasList": [
                    "Avatar"
                ],
                "FIDJDPAIFDN": true,
                "EFHJCGEOHAF": {
                    "x": 35.0
                },
                "BCHGCKLKNEH": 0.4000000059604645,
                "OMCCMPHDLOO": "",
                "KPCALFDIHMC": "",
                "DBLNLMOPEBP": ""
            },
            {
                "$type": "DLPFECMKEKH",
                "type": "DIALOG",
                "aliasList": [
                    "1005"
                ],
                "NMKEDPFEKBH": 10230307,
                "JLCHMAJCAPA": 1.0
            },
            {
                "$type": "OOMFCPJAJGL",
                "type": "STEER_TO",
                "duration": 1.0,
                "aliasList": [
                    "1005"
                ],
                "PLAPKCOMAKJ": {
                    "x": -0.03298899903893471,
                    "z": -0.9994557499885559
                },
                "HCMINPNPFDF": true,
                "OMCCMPHDLOO": "",
                "DBLNLMOPEBP": ""
            },
            {
                "$type": "OPCCDGPJCJI",
                "type": "EMO_SYNC",
                "aliasList": [
                    "1005"
                ],
                "IONNJBCBACJ": "Cs_Emo_Avatar_Simple_Common_Set/Cs_Emo_Avatar_Talk/Cs_Emo_Avatar_MainLine/Cs_Emo_Avatar_LiYue/Cs_Emo_10230307",
                "HLEJKBCMNNJ": "",
                "JGHLJJLNGPP": "",
                "MANNKIIBOFM": "",
                "COMNAAFDEDH": "",
                "CPGCCLNOCDK": "",
                "IGEFGCJKCPM": [
                    14009730409615082937,
                    15685342127418209375,
                    8840272801519905065,
                    16802784105642421392
                ]
            }
        ],
        [
            {
                "$type": "MOOOKOKLLEI",
                "type": "CAMERA_MOVE",
                "duration": 1.0,
                "DOKGBCKOLJK": {
                    "x": 1.7233672142028809,
                    "y": -13.816864013671875,
                    "z": 38.10022735595703
                },
                "HGKCPMDICGG": {
                    "x": 0.988166868686676,
                    "y": -13.958033561706543,
                    "z": 38.763214111328125
                },
                "AFODHELHCGB": 35.0,
                "MGMFMGNANHH": 6,
                "NDFGFJFGHKL": "EaseInOutCubic",
                "IBCBGNHCICN": {},
                "OMCCMPHDLOO": "",
                "OCFGGGHIKOO": "",
                "LJFHGGJDPHH": "",
                "LPKDFKLNEHL": ""
            },
            {
                "$type": "ECLBLHOENAG",
                "type": "DIALOG_SELECT",
                "delayTime": 0.4000000059604645,
                "aliasList": [
                    "Avatar"
                ],
                "NDMMOPDPKNF": [
                    10230309,
                    10230310
                ],
                "FPDBIEGHMCD": [
                    1790778878,
                    1790778878
                ],
                "PKBOIGBGDEG": true
            },
            {
                "$type": "DLPFECMKEKH",
                "type": "DIALOG",
                "aliasList": [
                    "1005"
                ],
                "NMKEDPFEKBH": 10230308,
                "JLCHMAJCAPA": 1.0
            },
            {
                "$type": "OOMFCPJAJGL",
                "type": "STEER_TO",
                "delayTime": 3.965141534805298,
                "duration": 1.0,
                "aliasList": [
                    "1005"
                ],
                "PLAPKCOMAKJ": {
                    "x": 0.9565101861953735,
                    "z": -0.29169896245002747
                },
                "HCMINPNPFDF": true,
                "OMCCMPHDLOO": "",
                "DBLNLMOPEBP": ""
            },
            {
                "$type": "ILCGAGEGDJI",
                "type": "BODY_LANG",
                "aliasList": [
                    "1005"
                ],
                "FLBOOPHHFJP": 1310,
                "PMJAMGLAJGK": true,
                "FNDLJGEAMGI": ""
            },
            {
                "$type": "ILCGAGEGDJI",
                "type": "BODY_LANG",
                "delayTime": 7.764934539794922,
                "aliasList": [
                    "1005"
                ],
                "FLBOOPHHFJP": 1090,
                "PMJAMGLAJGK": true,
                "FNDLJGEAMGI": ""
            },
            {
                "$type": "EAMBKPBOPIC",
                "type": "LOOK_AT",
                "delayTime": 5.023425579071045,
                "aliasList": [
                    "1005"
                ],
                "FIDJDPAIFDN": true,
                "BCHGCKLKNEH": 0.4000000059604645,
                "OMCCMPHDLOO": "",
                "KPCALFDIHMC": "",
                "DBLNLMOPEBP": ""
            },
            {
                "$type": "OPCCDGPJCJI",
                "type": "EMO_SYNC",
                "aliasList": [
                    "1005"
                ],
                "IONNJBCBACJ": "Cs_Emo_Avatar_Simple_Common_Set/Cs_Emo_Avatar_Talk/Cs_Emo_Avatar_MainLine/Cs_Emo_Avatar_LiYue/Cs_Emo_10230308",
                "HLEJKBCMNNJ": "",
                "JGHLJJLNGPP": "",
                "MANNKIIBOFM": "",
                "COMNAAFDEDH": "",
                "CPGCCLNOCDK": "",
                "HINHCFHAMDI": false,
                "IGEFGCJKCPM": [
                    1239139411456593650,
                    18099830559865147236,
                    331362705881679516,
                    8019607661281380122
                ]
            }
        ],
        [
            {
                "$type": "DLPFECMKEKH",
                "type": "DIALOG",
                "aliasList": [
                    "1005"
                ],
                "NMKEDPFEKBH": 10230311,
                "JLCHMAJCAPA": 1.0
            },
            {
                "$type": "ILCGAGEGDJI",
                "type": "BODY_LANG",
                "aliasList": [
                    "1005"
                ],
                "FLBOOPHHFJP": 1270,
                "PMJAMGLAJGK": true,
                "FNDLJGEAMGI": ""
            },
            {
                "$type": "OPCCDGPJCJI",
                "type": "EMO_SYNC",
                "aliasList": [
                    "1005"
                ],
                "IONNJBCBACJ": "Cs_Emo_Avatar_Simple_Common_Set/Cs_Emo_Avatar_Talk/Cs_Emo_Avatar_MainLine/Cs_Emo_Avatar_LiYue/Cs_Emo_10230311",
                "HLEJKBCMNNJ": "",
                "JGHLJJLNGPP": "",
                "MANNKIIBOFM": "",
                "COMNAAFDEDH": "",
                "CPGCCLNOCDK": "",
                "IGEFGCJKCPM": [
                    4129993770352514506,
                    12464669839931210610,
                    14036684850762831957,
                    13929466133479797009
                ]
            }
        ],
        [
            {
                "$type": "MOOOKOKLLEI",
                "type": "CAMERA_MOVE",
                "delayTime": 0.5,
                "duration": 15.0,
                "DOKGBCKOLJK": {
                    "x": -0.1462002545595169,
                    "y": -15.115753173828125,
                    "z": 23.088855743408203
                },
                "HGKCPMDICGG": {
                    "x": -0.14021895825862885,
                    "y": -15.038473129272461,
                    "z": 24.085847854614258
                },
                "AFODHELHCGB": 35.0,
                "MGMFMGNANHH": 1,
                "NDFGFJFGHKL": "EaseOutQuad",
                "IBCBGNHCICN": {},
                "OMCCMPHDLOO": "",
                "OCFGGGHIKOO": "",
                "LJFHGGJDPHH": "",
                "LPKDFKLNEHL": ""
            },
            {
                "$type": "MOOOKOKLLEI",
                "type": "CAMERA_MOVE",
                "delayTime": 0.4000000059604645,
                "duration": 1.0,
                "DOKGBCKOLJK": {
                    "x": -0.15483316779136658,
                    "y": -15.227293014526367,
                    "z": 21.649883270263672
                },
                "HGKCPMDICGG": {
                    "x": -0.14885187149047852,
                    "y": -15.150012969970703,
                    "z": 22.646875381469727
                },
                "AFODHELHCGB": 35.0,
                "MGMFMGNANHH": 6,
                "NDFGFJFGHKL": "EaseInOutCubic",
                "IBCBGNHCICN": {},
                "OMCCMPHDLOO": "",
                "OCFGGGHIKOO": "",
                "LJFHGGJDPHH": "",
                "LPKDFKLNEHL": ""
            },
            {
                "$type": "EAMBKPBOPIC",
                "type": "LOOK_AT",
                "delayTime": 1.1440162658691406,
                "aliasList": [
                    "Avatar"
                ],
                "FIDJDPAIFDN": true,
                "BCHGCKLKNEH": 0.4000000059604645,
                "OMCCMPHDLOO": "",
                "KPCALFDIHMC": "",
                "DBLNLMOPEBP": ""
            },
            {
                "$type": "DLPFECMKEKH",
                "type": "DIALOG",
                "aliasList": [
                    "1005"
                ],
                "NMKEDPFEKBH": 10230312,
                "JLCHMAJCAPA": 1.0
            },
            {
                "$type": "EAMBKPBOPIC",
                "type": "LOOK_AT",
                "aliasList": [
                    "1005"
                ],
                "FIDJDPAIFDN": true,
                "EFHJCGEOHAF": {
                    "x": 20.0
                },
                "OMCCMPHDLOO": "",
                "KPCALFDIHMC": "",
                "DBLNLMOPEBP": ""
            },
            {
                "$type": "OOMFCPJAJGL",
                "type": "STEER_TO",
                "duration": 1.0,
                "aliasList": [
                    "1005"
                ],
                "PLAPKCOMAKJ": {
                    "x": 0.664851188659668,
                    "z": -0.7469758987426758
                },
                "OMCCMPHDLOO": "",
                "DBLNLMOPEBP": ""
            },
            {
                "$type": "OPCCDGPJCJI",
                "type": "EMO_SYNC",
                "aliasList": [
                    "1005"
                ],
                "IONNJBCBACJ": "Cs_Emo_Avatar_Simple_Common_Set/Cs_Emo_Avatar_Talk/Cs_Emo_Avatar_MainLine/Cs_Emo_Avatar_LiYue/Cs_Emo_10230312",
                "HLEJKBCMNNJ": "",
                "JGHLJJLNGPP": "",
                "MANNKIIBOFM": "",
                "COMNAAFDEDH": "",
                "CPGCCLNOCDK": "",
                "IGEFGCJKCPM": [
                    13598998166352848469,
                    16593939901072330585,
                    17132206521543367030,
                    1464860741419155743
                ]
            }
        ],
        [
            {
                "$type": "MOOOKOKLLEI",
                "type": "CAMERA_MOVE",
                "delayTime": 1.0,
                "duration": 1.0,
                "DOKGBCKOLJK": {
                    "x": 19.98992919921875,
                    "y": -14.051904678344727,
                    "z": 39.82099533081055
                },
                "HGKCPMDICGG": {
                    "x": 19.024946212768555,
                    "y": -14.1005277633667,
                    "z": 39.563232421875
                },
                "AFODHELHCGB": 35.0,
                "MGMFMGNANHH": 6,
                "NDFGFJFGHKL": "EaseOutQuad",
                "IBCBGNHCICN": {},
                "OMCCMPHDLOO": "",
                "OCFGGGHIKOO": "",
                "LJFHGGJDPHH": "",
                "LPKDFKLNEHL": ""
            },
            {
                "$type": "MOOOKOKLLEI",
                "type": "CAMERA_MOVE",
                "delayTime": 1.100000023841858,
                "duration": 20.0,
                "DOKGBCKOLJK": {
                    "x": 20.249408721923828,
                    "y": -14.685470581054688,
                    "z": 38.9691162109375
                },
                "HGKCPMDICGG": {
                    "x": 19.284425735473633,
                    "y": -14.73409366607666,
                    "z": 38.71135330200195
                },
                "AFODHELHCGB": 35.0,
                "MGMFMGNANHH": 1,
                "NDFGFJFGHKL": "EaseOutQuad",
                "IBCBGNHCICN": {},
                "OMCCMPHDLOO": "",
                "OCFGGGHIKOO": "",
                "LJFHGGJDPHH": "",
                "LPKDFKLNEHL": ""
            },
            {
                "$type": "ECLBLHOENAG",
                "type": "DIALOG_SELECT",
                "delayTime": 0.4000000059604645,
                "aliasList": [
                    "Avatar"
                ],
                "NDMMOPDPKNF": [
                    10230314,
                    10230315
                ],
                "FPDBIEGHMCD": [
                    1790778871,
                    3974537528
                ],
                "PKBOIGBGDEG": true
            },
            {
                "$type": "DLPFECMKEKH",
                "type": "DIALOG",
                "aliasList": [
                    "1005"
                ],
                "NMKEDPFEKBH": 10230313,
                "JLCHMAJCAPA": 1.0
            },
            {
                "$type": "EAMBKPBOPIC",
                "type": "LOOK_AT",
                "aliasList": [
                    "1005"
                ],
                "FIDJDPAIFDN": true,
                "EFHJCGEOHAF": {
                    "x": -20.0
                },
                "BCHGCKLKNEH": 0.4000000059604645,
                "OMCCMPHDLOO": "",
                "KPCALFDIHMC": "",
                "DBLNLMOPEBP": ""
            },
            {
                "$type": "OPCCDGPJCJI",
                "type": "EMO_SYNC",
                "aliasList": [
                    "1005"
                ],
                "IONNJBCBACJ": "Cs_Emo_Avatar_Simple_Common_Set/Cs_Emo_Avatar_Talk/Cs_Emo_Avatar_MainLine/Cs_Emo_Avatar_LiYue/Cs_Emo_10230313",
                "HLEJKBCMNNJ": "",
                "JGHLJJLNGPP": "",
                "MANNKIIBOFM": "",
                "COMNAAFDEDH": "",
                "CPGCCLNOCDK": "",
                "IGEFGCJKCPM": [
                    13109337748875598652,
                    10979550866593199572,
                    9599576862348304801,
                    1400526802213664585
                ]
            },
            {
                "$type": "ILCGAGEGDJI",
                "type": "BODY_LANG",
                "aliasList": [
                    "1005"
                ],
                "FLBOOPHHFJP": 1040,
                "PMJAMGLAJGK": true,
                "FNDLJGEAMGI": ""
            }
        ],
        [
            {
                "$type": "DLPFECMKEKH",
                "type": "DIALOG",
                "aliasList": [
                    "1005"
                ],
                "NMKEDPFEKBH": 10230316,
                "JLCHMAJCAPA": 1.0
            },
            {
                "$type": "OPCCDGPJCJI",
                "type": "EMO_SYNC",
                "aliasList": [
                    "1005"
                ],
                "IONNJBCBACJ": "Cs_Emo_Avatar_Simple_Common_Set/Cs_Emo_Avatar_Talk/Cs_Emo_Avatar_MainLine/Cs_Emo_Avatar_LiYue/Cs_Emo_10230316",
                "HLEJKBCMNNJ": "",
                "JGHLJJLNGPP": "",
                "MANNKIIBOFM": "",
                "COMNAAFDEDH": "",
                "CPGCCLNOCDK": "",
                "IGEFGCJKCPM": [
                    15349785867836143690,
                    4639031044995052312,
                    2483480983555353525,
                    7141543592535394057
                ]
            },
            {
                "$type": "ILCGAGEGDJI",
                "type": "BODY_LANG",
                "aliasList": [
                    "1005"
                ],
                "JLABKFNJCNP": true,
                "PMJAMGLAJGK": true,
                "FNDLJGEAMGI": ""
            }
        ],
        [
            {
                "$type": "MOOOKOKLLEI",
                "type": "CAMERA_MOVE",
                "delayTime": 0.10000000149011612,
                "duration": 15.0,
                "DOKGBCKOLJK": {
                    "x": 0.16144077479839325,
                    "y": -14.302958488464355,
                    "z": 43.11412811279297
                },
                "HGKCPMDICGG": {
                    "x": 0.17401427030563354,
                    "y": -14.249626159667969,
                    "z": 42.115631103515625
                },
                "AFODHELHCGB": 15.0,
                "MGMFMGNANHH": 1,
                "NDFGFJFGHKL": "EaseOutQuad",
                "IBCBGNHCICN": {},
                "OMCCMPHDLOO": "",
                "OCFGGGHIKOO": "",
                "LJFHGGJDPHH": "",
                "LPKDFKLNEHL": ""
            },
            {
                "$type": "MOOOKOKLLEI",
                "type": "CAMERA_MOVE",
                "duration": 1.0,
                "DOKGBCKOLJK": {
                    "x": 0.14867480099201202,
                    "y": -14.357108116149902,
                    "z": 44.12791442871094
                },
                "HGKCPMDICGG": {
                    "x": 0.16124829649925232,
                    "y": -14.303775787353516,
                    "z": 43.129417419433594
                },
                "AFODHELHCGB": 15.0,
                "MGMFMGNANHH": 6,
                "NDFGFJFGHKL": "EaseOutQuad",
                "IBCBGNHCICN": {},
                "OMCCMPHDLOO": "",
                "OCFGGGHIKOO": "",
                "LJFHGGJDPHH": "",
                "LPKDFKLNEHL": ""
            },
            {
                "$type": "DLPFECMKEKH",
                "type": "DIALOG",
                "aliasList": [
                    "1005"
                ],
                "NMKEDPFEKBH": 10230317,
                "JLCHMAJCAPA": 1.0
            },
            {
                "$type": "ILCGAGEGDJI",
                "type": "BODY_LANG",
                "delayTime": 1.0309460163116455,
                "aliasList": [
                    "1005"
                ],
                "FLBOOPHHFJP": 1130,
                "PMJAMGLAJGK": true,
                "FNDLJGEAMGI": ""
            },
            {
                "$type": "OOMFCPJAJGL",
                "type": "STEER_TO",
                "duration": 1.0,
                "aliasList": [
                    "1005"
                ],
                "PLAPKCOMAKJ": {
                    "x": 0.08415453881025314,
                    "z": -0.9964527487754822
                },
                "OMCCMPHDLOO": "",
                "DBLNLMOPEBP": ""
            },
            {
                "$type": "EAMBKPBOPIC",
                "type": "LOOK_AT",
                "delayTime": 1.0,
                "aliasList": [
                    "1005"
                ],
                "OMCCMPHDLOO": "",
                "KPCALFDIHMC": "",
                "DBLNLMOPEBP": ""
            },
            {
                "$type": "OPCCDGPJCJI",
                "type": "EMO_SYNC",
                "aliasList": [
                    "1005"
                ],
                "IONNJBCBACJ": "Cs_Emo_Avatar_Simple_Common_Set/Cs_Emo_Avatar_Talk/Cs_Emo_Avatar_MainLine/Cs_Emo_Avatar_LiYue/Cs_Emo_10230317",
                "HLEJKBCMNNJ": "",
                "JGHLJJLNGPP": "",
                "MANNKIIBOFM": "",
                "COMNAAFDEDH": "",
                "CPGCCLNOCDK": "",
                "IGEFGCJKCPM": [
                    8524628456147996190,
                    16497521159385247634,
                    13321005414892806356,
                    13334577291867720854
                ]
            },
            {
                "$type": "EAMBKPBOPIC",
                "type": "LOOK_AT",
                "aliasList": [
                    "1005"
                ],
                "OMCCMPHDLOO": "",
                "KPCALFDIHMC": "",
                "DBLNLMOPEBP": ""
            }
        ],
        [
            {
                "$type": "MOOOKOKLLEI",
                "type": "CAMERA_MOVE",
                "delayTime": 0.5,
                "duration": 1.0,
                "IPHEFBOANAL": "EXIT",
                "HGKCPMDICGG": {
                    "z": 1.0
                },
                "MGMFMGNANHH": 6,
                "NDFGFJFGHKL": "EaseInOutCubic",
                "IBCBGNHCICN": {},
                "OMCCMPHDLOO": "",
                "OCFGGGHIKOO": "",
                "LJFHGGJDPHH": "",
                "LPKDFKLNEHL": ""
            },
            {
                "$type": "MoleMole.Config.ConfigSimpleBlackScreenAction",
                "type": "SIMPLE_BLACK_SCREEN",
                "duration": 3.0,
                "durationToBlack": 0.5,
                "durationKeepBlack": 2.0,
                "durationFromBlack": 0.5,
                "textMapID": ""
            },
            {
                "$type": "MoleMole.Config.ConfigTimeProtectAction",
                "type": "TIME_PROTECT",
                "duration": 1.0
            }
        ]
    ],
    "groupId": [
        {
            "grpId": 1790778872,
            "nextGrpId": 1790778873
        },
        {
            "index": 1,
            "grpId": 1790778873,
            "nextGrpId": 1790778874
        },
        {
            "index": 2,
            "grpId": 1790778874,
            "nextGrpId": 1790778875
        },
        {
            "index": 3,
            "grpId": 1790778875,
            "nextGrpId": 1790778876
        },
        {
            "index": 4,
            "grpId": 1790778876,
            "nextGrpId": 1790778877
        },
        {
            "index": 5,
            "grpId": 1790778877,
            "nextGrpId": 1790778878
        },
        {
            "index": 6,
            "grpId": 1790778878,
            "nextGrpId": 1790778879
        },
        {
            "index": 7,
            "grpId": 1790778879,
            "nextGrpId": 1790778880
        },
        {
            "index": 8,
            "grpId": 1790778880,
            "nextGrpId": 3974537528
        },
        {
            "index": 9,
            "grpId": 3974537528,
            "nextGrpId": 3974537529
        },
        {
            "index": 10,
            "grpId": 3974537529,
            "nextGrpId": 3974537530
        },
        {
            "index": 11,
            "grpId": 3974537530,
            "nextGrpId": 3974537531
        }
    ]
}