{
    "luaDataPath": "",
    "dontUseDefaultFinish": true,
    "entityBan": "",
    "disableNpcLod": true,
    "isAutoBanNpc": true,
    "isBanWidgetPet": true,
    "protectNpcMobileLod": true,
    "LIICEPFFGMH": 5,
    "startFade": {
        "startFadeOutDuration": 0.0
    },
    "endFade": {
        "startFadeOutDuration": 0.0
    },
    "actors": [
        {
            "alias": "Avatar",
            "visible": true,
            "bornPointName": "",
            "relativePosType": "AVATAR_NEW",
            "relativePosNpcAlias": "",
            "bindMovingTargetKey": ""
        },
        {
            "configID": 30341,
            "alias": "30341",
            "visible": true,
            "bornPointName": "",
            "forceCreateDaily": true,
            "relativePosType": "AVATAR_NEW",
            "relativePosNpcAlias": "",
            "bindMovingTargetKey": ""
        }
    ],
    "group": [
        [
            {
                "$type": "MoleMole.Config.ConfigTimeProtectAction",
                "type": "TIME_PROTECT",
                "duration": 0.10000000149011612,
                "actionId": 104
            },
            {
                "$type": "MOOOKOKLLEI",
                "type": "CAMERA_MOVE",
                "duration": 0.5,
                "actionId": 116,
                "IPHEFBOANAL": "RELATIVE_TO_TARGET_ENTITY",
                "DOKGBCKOLJK": {
                    "x": -332.6499938964844,
                    "y": 315.37298583984375,
                    "z": 2889.93310546875
                },
                "DGGAJKMNNKE": "RELATIVE_TO_TARGET_ENTITY",
                "HGKCPMDICGG": {
                    "x": 4.168000221252441,
                    "y": 208.15899658203125
                },
                "MGMFMGNANHH": 6,
                "NDFGFJFGHKL": "EaseInOutCubic",
                "IBCBGNHCICN": {},
                "BNBBLLBEIDL": true,
                "HCPFCAHMGMO": false,
                "OMCCMPHDLOO": "30341",
                "FEFNBKOHPOG": true,
                "OCFGGGHIKOO": "",
                "LJFHGGJDPHH": "",
                "LPKDFKLNEHL": ""
            }
        ],
        [
            {
                "$type": "DLPFECMKEKH",
                "type": "DIALOG",
                "aliasList": [
                    "30341"
                ],
                "actionId": 107,
                "NMKEDPFEKBH": 736968501,
                "JLCHMAJCAPA": 0.5
            },
            {
                "$type": "ILCGAGEGDJI",
                "type": "BODY_LANG",
                "aliasList": [
                    "30341"
                ],
                "actionId": 118,
                "FLBOOPHHFJP": 4030,
                "PMJAMGLAJGK": true,
                "LIMPPBIAKGL": false,
                "FNEGLPPEBBF": true,
                "FNDLJGEAMGI": ""
            }
        ],
        [
            {
                "$type": "MoleMole.Config.ConfigTimeProtectAction",
                "type": "TIME_PROTECT",
                "duration": 0.10000000149011612,
                "actionId": 105
            },
            {
                "$type": "MoleMole.Config.ConfigUITriggerInterAction",
                "type": "UI_TRIGGER",
                "actionId": 115,
                "contextName": "AkaFesReasoningQuestion",
                "param": "2035"
            },
            {
                "$type": "MOOOKOKLLEI",
                "type": "CAMERA_MOVE",
                "duration": 0.5,
                "actionId": 120,
                "flag": 2,
                "DOKGBCKOLJK": {
                    "x": -331.23199462890625,
                    "y": 315.45001220703125,
                    "z": 2875.62109375
                },
                "HGKCPMDICGG": {
                    "x": -330.88299560546875,
                    "y": 315.4280090332031,
                    "z": 2876.55810546875
                },
                "MGMFMGNANHH": 6,
                "NDFGFJFGHKL": "EaseInOutCubic",
                "IBCBGNHCICN": {},
                "BNBBLLBEIDL": true,
                "HCPFCAHMGMO": false,
                "OMCCMPHDLOO": "Avatar",
                "FEFNBKOHPOG": true,
                "OCFGGGHIKOO": "",
                "LJFHGGJDPHH": "",
                "LPKDFKLNEHL": ""
            },
            {
                "$type": "MOOOKOKLLEI",
                "type": "CAMERA_MOVE",
                "duration": 0.5,
                "actionId": 121,
                "flag": 1,
                "DOKGBCKOLJK": {
                    "x": -331.281005859375,
                    "y": 315.510009765625,
                    "z": 2875.468017578125
                },
                "HGKCPMDICGG": {
                    "x": -330.864990234375,
                    "y": 315.4880065917969,
                    "z": 2876.376953125
                },
                "MGMFMGNANHH": 6,
                "NDFGFJFGHKL": "EaseInOutCubic",
                "IBCBGNHCICN": {},
                "BNBBLLBEIDL": true,
                "HCPFCAHMGMO": false,
                "OMCCMPHDLOO": "Avatar",
                "FEFNBKOHPOG": true,
                "OCFGGGHIKOO": "",
                "LJFHGGJDPHH": "",
                "LPKDFKLNEHL": ""
            }
        ]
    ],
    "groupId": [
        {
            "grpId": 3461138178,
            "nextGrpId": 3461138179
        },
        {
            "index": 1,
            "grpId": 3461138179,
            "nextGrpId": 3461138180
        },
        {
            "index": 2,
            "grpId": 3461138180,
            "nextGrpId": 3461138181
        }
    ],
    "freeStyleDic": {
        "30341": [
            4030
        ]
    }
}