{
  "EOAJKLGOCCC": {
    "Eff_Gcg_Monster_Dahaka_Spine_Loop_Fire": {
      "NEPMAAEOKBN": "",
      "OCNBEBFMONO": "",
      "NOFDMJMDJGB": true,
      "DIPIAHGLMOL": 0.800000011920929
    },
    "Eff_Gcg_Monster_Dahaka_Spine_Loop_Glow": {
      "IEICFELNNNI": true,
      "NEPMAAEOKBN": "Gcg_CardFace_Char_Monster_Dahaka_Sub_Spine",
      "OCNBEBFMONO": "EffectRoot_Bg",
      "AHANDFEHHKA": true
    },
    "Eff_Gcg_Monster_Dahaka_Spine_Loop_Eye_L": {
      "IEICFELNNNI": true,
      "NEPMAAEOKBN": "Gcg_CardFace_Char_Monster_DahakaFire_Spine",
      "OCNBEBFMONO": "EffectRoot_Eye_L",
      "AHANDFEHHKA": true
    },
    "Eff_Gcg_Monster_Dahaka_Spine_Loop_Eye_R": {
      "IEICFELNNNI": true,
      "NEPMAAEOKBN": "Gcg_CardFace_Char_Monster_DahakaFire_Spine",
      "OCNBEBFMONO": "EffectRoot_Eye_R",
      "AHANDFEHHKA": true
    }
  }
}