[
    {
        "IPDAAHEJOCB": 17,
        "KPGGOAOBCIG": 2,
        "EEHNGBBIFBH": {
            "x": -2.6947694275766197e+36
        },
        "HCGLFJGFHOM": {
            "NEOCBEJDMKN": {
                "x": 9.625476551973853e-38
            },
            "LOHDFDIJFAC": [
                50,
                50,
                51,
                49
            ],
            "bornPos": {
                "y": 3.7610318280093337e-34
            }
        },
        "IEEGBPKMBEL": []
    },
    {},
    {},
    {},
    {},
    {},
    {}
]