{
    "talkId": 2516,
    "type": "FREE",
    "dialogList": [
        {
            "id": 1016251600,
            "talkRole": {
                "type": "TALK_ROLE_NPC",
                "id": "2516"
            },
            "talkContentTextMapHash": 2049768626,
            "talkAssetPath": "",
            "talkAssetPathAlter": "",
            "talkAudioName": "",
            "actionBefore": "",
            "actionWhile": "",
            "actionAfter": "",
            "optionIcon": ""
        }
    ]
}