{
    "talkId": 5225,
    "type": "FREE",
    "dialogList": [
        {
            "id": 1016522500,
            "talkRole": {
                "type": "TALK_ROLE_NPC",
                "id": "5225"
            },
            "talkContentTextMapHash": 1342389042,
            "talkAssetPath": "",
            "talkAssetPathAlter": "",
            "talkAudioName": "",
            "actionBefore": "",
            "actionWhile": "",
            "actionAfter": "",
            "optionIcon": ""
        }
    ]
}