{
    "talkId": 5276,
    "type": "FREE",
    "dialogList": [
        {
            "id": 1016527600,
            "talkRole": {
                "type": "TALK_ROLE_NPC",
                "id": "5276"
            },
            "talkContentTextMapHash": 3647772970,
            "talkAssetPath": "",
            "talkAssetPathAlter": "",
            "talkAudioName": "",
            "actionBefore": "",
            "actionWhile": "",
            "actionAfter": "",
            "optionIcon": ""
        }
    ]
}