{
    "OANBCHEEDGM": [
        {
            "name": "Character_Sayu_Q_Normal",
            "IJBCNBKGAIH": [
                {
                    "MKLOOPFFBDE": 0.44999998807907104,
                    "actionGroups": [
                        {
                            "actions": [
                                {
                                    "$type": "JPPGHLKBJCD",
                                    "HGDMIFNLEIE": {
                                        "target": "Actor"
                                    }
                                },
                                {
                                    "$type": "KDDAKGJLFBK",
                                    "HGDMIFNLEIE": {
                                        "target": "Actor"
                                    },
                                    "effectName": "Eff_Gcg_Common_ElementalBurst_NormalCharge",
                                    "DNMNFLAKEIK": "",
                                    "OCPKMMCKEFI": "",
                                    "DOBFAJEFGJK": {
                                        "$type": "NHFGCELPGLG"
                                    }
                                }
                            ]
                        }
                    ]
                },
                {
                    "actionGroups": [
                        {
                            "actions": [
                                {
                                    "$type": "KDDAKGJLFBK",
                                    "HGDMIFNLEIE": {
                                        "target": "MainTarget"
                                    },
                                    "effectName": "Eff_Gcg_Avatar_Sayu_ElementalBurst_Hit",
                                    "DNMNFLAKEIK": "",
                                    "OCPKMMCKEFI": "",
                                    "DOBFAJEFGJK": {
                                        "$type": "HNKIGFCDAKL"
                                    }
                                }
                            ]
                        }
                    ]
                },
                {
                    "actionGroups": [
                        {
                            "actions": [
                                {
                                    "$type": "EEFMLPGLPGH",
                                    "HGDMIFNLEIE": {
                                        "target": "MainTarget"
                                    }
                                },
                                {
                                    "$type": "KCJMJDNJKHG",
                                    "HGDMIFNLEIE": {
                                        "target": "MainTarget"
                                    },
                                    "EHHKPGDAFED": "Common_ShakeScreen_Test_Q"
                                }
                            ]
                        }
                    ]
                },
                {
                    "actionGroups": [
                        {
                            "actions": [
                                {
                                    "$type": "JPPGHLKBJCD",
                                    "HGDMIFNLEIE": {
                                        "target": "Actor"
                                    },
                                    "PHMPBIOIFCK": true
                                }
                            ]
                        }
                    ]
                }
            ]
        },
        {
            "name": "Character_Sayu_Zhaohuanwu",
            "IJBCNBKGAIH": [
                {
                    "actionGroups": [
                        {
                            "actions": [
                                {
                                    "$type": "CBACAOLONED",
                                    "effectName": "Eff_Gcg_Common_Gadget_Wind_Bullet",
                                    "FEAAPKPGKBJ": true,
                                    "AEMPMONNEFG": true,
                                    "IEPLHECHOBL": {
                                        "target": "Actor",
                                        "ICECBIJLMKJ": true
                                    },
                                    "IKLKLANOPNF": {
                                        "target": "MainTarget",
                                        "JCEAKIFBKLF": "ActorOppoCamp"
                                    },
                                    "DOBFAJEFGJK": {
                                        "$type": "JKOCKABMLFJ",
                                        "HGDMIFNLEIE": {
                                            "target": "MainTarget",
                                            "JCEAKIFBKLF": "ActorOppoCamp"
                                        }
                                    },
                                    "HEEHHKLJGDE": {
                                        "y": 0.5
                                    },
                                    "IKHFOEDAPLD": "Eff_Gcg_Motion_Common_Gadget_Bullet",
                                    "ACBCNMNLCBP": "",
                                    "IGLKFGMLAHF": [
                                        {
                                            "$type": "AIOGLPPGGCJ",
                                            "AGMPHOHPGOI": "OnHit"
                                        }
                                    ]
                                }
                            ]
                        }
                    ]
                }
            ],
            "NPMNMEDDCFK": [
                {
                    "PAEFNAPALMA": {
                        "$type": "KMMKFGCKNOE",
                        "CCIODEEHEAP": [
                            {
                                "$type": "MOIOLLOIIMB",
                                "HGDMIFNLEIE": {
                                    "target": "MainTarget",
                                    "JCEAKIFBKLF": "ActorOppoCamp"
                                }
                            }
                        ]
                    },
                    "actionGroups": [
                        {
                            "actions": [
                                {
                                    "$type": "KDDAKGJLFBK",
                                    "HGDMIFNLEIE": {
                                        "target": "ContextTarget"
                                    },
                                    "effectName": "Eff_Gcg_Common_Gadget_Wind_Hit",
                                    "DNMNFLAKEIK": "",
                                    "OCPKMMCKEFI": "",
                                    "DOBFAJEFGJK": {
                                        "$type": "JKOCKABMLFJ",
                                        "HGDMIFNLEIE": {
                                            "target": "Actor",
                                            "ICECBIJLMKJ": true
                                        }
                                    }
                                },
                                {
                                    "$type": "EEFMLPGLPGH",
                                    "HGDMIFNLEIE": {
                                        "target": "AllTarget",
                                        "JCEAKIFBKLF": "ActorSameCamp"
                                    }
                                },
                                {
                                    "$type": "PNACIFJDCHH",
                                    "HGDMIFNLEIE": {
                                        "target": "ContextTarget"
                                    },
                                    "ABKPHIHOGCK": true,
                                    "eventName": {
                                        "text": "Play_vfx_GCG_common_gadget_ice_hit"
                                    }
                                }
                            ]
                        }
                    ]
                },
                {
                    "PAEFNAPALMA": {
                        "$type": "KMMKFGCKNOE",
                        "CCIODEEHEAP": [
                            {
                                "$type": "JEDIEEJNCJH",
                                "LGBPBBCOHJK": [
                                    101,
                                    102,
                                    103,
                                    104,
                                    105,
                                    106,
                                    107,
                                    108,
                                    109,
                                    110,
                                    111,
                                    112,
                                    113,
                                    114,
                                    115,
                                    116,
                                    117
                                ]
                            },
                            {
                                "$type": "MOIOLLOIIMB",
                                "HGDMIFNLEIE": {
                                    "target": "MainTarget",
                                    "JCEAKIFBKLF": "ActorOppoCamp"
                                }
                            }
                        ]
                    },
                    "actionGroups": [
                        {
                            "PAEFNAPALMA": {
                                "$type": "JEDIEEJNCJH",
                                "LGBPBBCOHJK": [
                                    101
                                ]
                            },
                            "actions": [
                                {
                                    "$type": "KDDAKGJLFBK",
                                    "HGDMIFNLEIE": {
                                        "target": "ContextTarget"
                                    },
                                    "effectName": "Eff_Gcg_Common_Reaction_Melt",
                                    "DNMNFLAKEIK": "",
                                    "OCPKMMCKEFI": "",
                                    "DOBFAJEFGJK": {
                                        "$type": "NHFGCELPGLG"
                                    }
                                }
                            ]
                        },
                        {
                            "PAEFNAPALMA": {
                                "$type": "JEDIEEJNCJH",
                                "LGBPBBCOHJK": [
                                    102
                                ]
                            },
                            "actions": [
                                {
                                    "$type": "KDDAKGJLFBK",
                                    "HGDMIFNLEIE": {
                                        "target": "ContextTarget"
                                    },
                                    "effectName": "Eff_Gcg_Common_Reaction_Steam",
                                    "DNMNFLAKEIK": "",
                                    "OCPKMMCKEFI": "",
                                    "DOBFAJEFGJK": {
                                        "$type": "NHFGCELPGLG"
                                    }
                                }
                            ]
                        },
                        {
                            "PAEFNAPALMA": {
                                "$type": "JEDIEEJNCJH",
                                "LGBPBBCOHJK": [
                                    103
                                ]
                            },
                            "actions": [
                                {
                                    "$type": "KDDAKGJLFBK",
                                    "HGDMIFNLEIE": {
                                        "target": "ContextTarget"
                                    },
                                    "effectName": "Eff_Gcg_Common_Reaction_Overload",
                                    "DNMNFLAKEIK": "",
                                    "OCPKMMCKEFI": "",
                                    "DOBFAJEFGJK": {
                                        "$type": "NHFGCELPGLG"
                                    }
                                }
                            ]
                        },
                        {
                            "PAEFNAPALMA": {
                                "$type": "JEDIEEJNCJH",
                                "LGBPBBCOHJK": [
                                    104
                                ]
                            },
                            "actions": [
                                {
                                    "$type": "KDDAKGJLFBK",
                                    "HGDMIFNLEIE": {
                                        "target": "ContextTarget"
                                    },
                                    "effectName": "Eff_Gcg_Common_Reaction_Superconductor",
                                    "DNMNFLAKEIK": "",
                                    "OCPKMMCKEFI": "",
                                    "DOBFAJEFGJK": {
                                        "$type": "NHFGCELPGLG"
                                    }
                                }
                            ]
                        },
                        {
                            "PAEFNAPALMA": {
                                "$type": "JEDIEEJNCJH",
                                "LGBPBBCOHJK": [
                                    105
                                ]
                            },
                            "actions": [
                                {
                                    "$type": "KDDAKGJLFBK",
                                    "HGDMIFNLEIE": {
                                        "target": "ContextTarget"
                                    },
                                    "effectName": "Eff_Gcg_Common_Reaction_StickElectric",
                                    "DNMNFLAKEIK": "",
                                    "OCPKMMCKEFI": "",
                                    "DOBFAJEFGJK": {
                                        "$type": "NHFGCELPGLG"
                                    }
                                }
                            ]
                        },
                        {
                            "PAEFNAPALMA": {
                                "$type": "JEDIEEJNCJH",
                                "LGBPBBCOHJK": [
                                    1061
                                ]
                            },
                            "actions": [
                                {
                                    "$type": "KDDAKGJLFBK",
                                    "HGDMIFNLEIE": {
                                        "target": "ContextTarget"
                                    },
                                    "effectName": "Eff_Gcg_Common_Reaction_BreakIce",
                                    "DNMNFLAKEIK": "",
                                    "OCPKMMCKEFI": "",
                                    "DOBFAJEFGJK": {
                                        "$type": "NHFGCELPGLG"
                                    }
                                }
                            ]
                        },
                        {
                            "PAEFNAPALMA": {
                                "$type": "JEDIEEJNCJH",
                                "LGBPBBCOHJK": [
                                    108
                                ]
                            },
                            "actions": [
                                {
                                    "$type": "KDDAKGJLFBK",
                                    "HGDMIFNLEIE": {
                                        "target": "ContextTarget"
                                    },
                                    "effectName": "Eff_Gcg_Common_Reaction_Swirl_Water",
                                    "DNMNFLAKEIK": "",
                                    "OCPKMMCKEFI": "",
                                    "DOBFAJEFGJK": {
                                        "$type": "NHFGCELPGLG"
                                    }
                                }
                            ]
                        },
                        {
                            "PAEFNAPALMA": {
                                "$type": "JEDIEEJNCJH",
                                "LGBPBBCOHJK": [
                                    107
                                ]
                            },
                            "actions": [
                                {
                                    "$type": "KDDAKGJLFBK",
                                    "HGDMIFNLEIE": {
                                        "target": "ContextTarget"
                                    },
                                    "effectName": "Eff_Gcg_Common_Reaction_Swirl_Ice",
                                    "DNMNFLAKEIK": "",
                                    "OCPKMMCKEFI": "",
                                    "DOBFAJEFGJK": {
                                        "$type": "NHFGCELPGLG"
                                    }
                                }
                            ]
                        },
                        {
                            "PAEFNAPALMA": {
                                "$type": "JEDIEEJNCJH",
                                "LGBPBBCOHJK": [
                                    109
                                ]
                            },
                            "actions": [
                                {
                                    "$type": "KDDAKGJLFBK",
                                    "HGDMIFNLEIE": {
                                        "target": "ContextTarget"
                                    },
                                    "effectName": "Eff_Gcg_Common_Reaction_Swirl_Fire",
                                    "DNMNFLAKEIK": "",
                                    "OCPKMMCKEFI": "",
                                    "DOBFAJEFGJK": {
                                        "$type": "NHFGCELPGLG"
                                    }
                                }
                            ]
                        },
                        {
                            "PAEFNAPALMA": {
                                "$type": "JEDIEEJNCJH",
                                "LGBPBBCOHJK": [
                                    110
                                ]
                            },
                            "actions": [
                                {
                                    "$type": "KDDAKGJLFBK",
                                    "HGDMIFNLEIE": {
                                        "target": "ContextTarget"
                                    },
                                    "effectName": "Eff_Gcg_Common_Reaction_Swirl_Electric",
                                    "DNMNFLAKEIK": "",
                                    "OCPKMMCKEFI": "",
                                    "DOBFAJEFGJK": {
                                        "$type": "NHFGCELPGLG"
                                    }
                                }
                            ]
                        },
                        {
                            "PAEFNAPALMA": {
                                "$type": "JEDIEEJNCJH",
                                "LGBPBBCOHJK": [
                                    111,
                                    112,
                                    113,
                                    114
                                ]
                            },
                            "actions": [
                                {
                                    "$type": "KDDAKGJLFBK",
                                    "HGDMIFNLEIE": {
                                        "target": "ContextTarget"
                                    },
                                    "effectName": "Eff_Gcg_Common_Reaction_Crystal",
                                    "DNMNFLAKEIK": "",
                                    "OCPKMMCKEFI": "",
                                    "DOBFAJEFGJK": {
                                        "$type": "NHFGCELPGLG"
                                    }
                                }
                            ]
                        },
                        {
                            "PAEFNAPALMA": {
                                "$type": "JEDIEEJNCJH",
                                "LGBPBBCOHJK": [
                                    115
                                ]
                            },
                            "actions": [
                                {
                                    "$type": "KDDAKGJLFBK",
                                    "HGDMIFNLEIE": {
                                        "target": "ContextTarget"
                                    },
                                    "effectName": "Eff_Gcg_Common_Reaction_Burning_Grass",
                                    "DNMNFLAKEIK": "",
                                    "OCPKMMCKEFI": "",
                                    "DOBFAJEFGJK": {
                                        "$type": "NHFGCELPGLG"
                                    }
                                }
                            ]
                        },
                        {
                            "PAEFNAPALMA": {
                                "$type": "JEDIEEJNCJH",
                                "LGBPBBCOHJK": [
                                    116
                                ]
                            },
                            "actions": [
                                {
                                    "$type": "KDDAKGJLFBK",
                                    "HGDMIFNLEIE": {
                                        "target": "ContextTarget"
                                    },
                                    "effectName": "Eff_Gcg_Common_Reaction_Overgrow",
                                    "DNMNFLAKEIK": "",
                                    "OCPKMMCKEFI": "",
                                    "DOBFAJEFGJK": {
                                        "$type": "NHFGCELPGLG"
                                    }
                                }
                            ]
                        },
                        {
                            "PAEFNAPALMA": {
                                "$type": "JEDIEEJNCJH",
                                "LGBPBBCOHJK": [
                                    117
                                ]
                            },
                            "actions": [
                                {
                                    "$type": "KDDAKGJLFBK",
                                    "HGDMIFNLEIE": {
                                        "target": "ContextTarget"
                                    },
                                    "effectName": "Eff_Gcg_Common_Reaction_Overdose",
                                    "DNMNFLAKEIK": "",
                                    "OCPKMMCKEFI": "",
                                    "DOBFAJEFGJK": {
                                        "$type": "NHFGCELPGLG"
                                    }
                                }
                            ]
                        }
                    ]
                },
                {
                    "PAEFNAPALMA": {
                        "$type": "MOIOLLOIIMB",
                        "HGDMIFNLEIE": {
                            "target": "MainTarget",
                            "JCEAKIFBKLF": "ActorSameCamp"
                        }
                    },
                    "actionGroups": [
                        {
                            "actions": [
                                {
                                    "$type": "KDDAKGJLFBK",
                                    "HGDMIFNLEIE": {
                                        "target": "MainTarget",
                                        "JCEAKIFBKLF": "ActorSameCamp"
                                    },
                                    "effectName": "Eff_Gcg_Common_ElementalArt_Healing_Hit",
                                    "KIODBAHMLNM": true,
                                    "DNMNFLAKEIK": "",
                                    "OCPKMMCKEFI": "",
                                    "DOBFAJEFGJK": {
                                        "$type": "NHFGCELPGLG"
                                    }
                                }
                            ]
                        }
                    ]
                }
            ]
        }
    ]
}