{
    "buttonSequence": [
        {
            "button": "Left_Down",
            "time": 2330
        },
        {
            "button": "Left_Down",
            "time": 6990
        },
        {
            "button": "Left_Down",
            "time": 15145,
            "isLongPress": true,
            "longPressTime": 583
        },
        {
            "button": "Left_Down",
            "time": 18640,
            "isLongPress": true,
            "longPressTime": 2330
        },
        {
            "button": "Left_Down",
            "time": 25631
        },
        {
            "button": "Left_Down",
            "time": 25922
        },
        {
            "button": "Left_Down",
            "time": 26504
        },
        {
            "button": "Left_Down",
            "time": 26796
        },
        {
            "button": "Left_Down",
            "time": 27378
        },
        {
            "button": "Left_Down",
            "time": 27961
        },
        {
            "button": "Left_Down",
            "time": 28252
        },
        {
            "button": "Left_Down",
            "time": 28834
        },
        {
            "button": "Left_Down",
            "time": 29126
        },
        {
            "button": "Left_Down",
            "time": 29708
        },
        {
            "button": "Left_Down",
            "time": 30291
        },
        {
            "button": "Left_Down",
            "time": 30582
        },
        {
            "button": "Left_Down",
            "time": 31165
        },
        {
            "button": "Left_Down",
            "time": 31456
        },
        {
            "button": "Left_Down",
            "time": 32621,
            "isLongPress": true,
            "longPressTime": 874
        },
        {
            "button": "Left_Down",
            "time": 34660
        },
        {
            "button": "Left_Down",
            "time": 36699
        },
        {
            "button": "Left_Down",
            "time": 36990
        },
        {
            "button": "Left_Down",
            "time": 39029
        },
        {
            "button": "Left_Down",
            "time": 39611,
            "isLongPress": true,
            "longPressTime": 874
        },
        {
            "button": "Left_Down",
            "time": 40776
        },
        {
            "button": "Left_Down",
            "time": 42815
        },
        {
            "button": "Left_Down",
            "time": 43689
        },
        {
            "button": "Left_Down",
            "time": 44271
        },
        {
            "button": "Left_Down",
            "time": 44854
        },
        {
            "button": "Left_Down",
            "time": 46019
        },
        {
            "button": "Left_Down",
            "time": 46310
        },
        {
            "button": "Left_Down",
            "time": 48349
        },
        {
            "button": "Left_Down",
            "time": 48932,
            "isLongPress": true,
            "longPressTime": 1456
        },
        {
            "button": "Left_Down",
            "time": 50679,
            "isLongPress": true,
            "longPressTime": 583
        },
        {
            "button": "Left_Down",
            "time": 52135
        },
        {
            "button": "Left_Down",
            "time": 52427
        },
        {
            "button": "Left_Down",
            "time": 54466
        },
        {
            "button": "Left_Down",
            "time": 54757
        },
        {
            "button": "Left_Down",
            "time": 58252,
            "isLongPress": true,
            "longPressTime": 1747
        },
        {
            "button": "Left_Down",
            "time": 60582
        },
        {
            "button": "Left_Down",
            "time": 61019
        },
        {
            "button": "Left_Down",
            "time": 61747,
            "isLongPress": true,
            "longPressTime": 2621
        },
        {
            "button": "Left_Down",
            "time": 69902
        },
        {
            "button": "Left_Down",
            "time": 71941
        },
        {
            "button": "Left_Down",
            "time": 72233
        },
        {
            "button": "Left_Down",
            "time": 74271
        },
        {
            "button": "Left_Down",
            "time": 74563
        },
        {
            "button": "Left_Down",
            "time": 76601
        },
        {
            "button": "Left_Down",
            "time": 76893
        },
        {
            "button": "Left_Down",
            "time": 77475
        },
        {
            "button": "Left_Down",
            "time": 83883,
            "isLongPress": true,
            "longPressTime": 874
        },
        {
            "button": "Left_Down",
            "time": 85048
        },
        {
            "button": "Left_Down",
            "time": 86796
        },
        {
            "button": "Left_Down",
            "time": 87961
        },
        {
            "button": "Left_Down",
            "time": 88252
        },
        {
            "button": "Left_Down",
            "time": 90291
        },
        {
            "button": "Left_Down",
            "time": 91262,
            "isLongPress": true,
            "longPressTime": 1068
        },
        {
            "button": "Left_Down",
            "time": 92621,
            "isLongPress": true,
            "longPressTime": 582
        },
        {
            "button": "Left_Down",
            "time": 94077
        },
        {
            "button": "Left_Down",
            "time": 94368
        },
        {
            "button": "Left_Down",
            "time": 96116
        },
        {
            "button": "Left_Down",
            "time": 97281
        },
        {
            "button": "Left_Down",
            "time": 97572
        },
        {
            "button": "Left_Down",
            "time": 99611,
            "isLongPress": true,
            "longPressTime": 583
        },
        {
            "button": "Left_Down",
            "time": 104854
        },
        {
            "button": "Left_Right",
            "time": 2912
        },
        {
            "button": "Left_Right",
            "time": 7572
        },
        {
            "button": "Left_Right",
            "time": 11650,
            "isLongPress": true,
            "longPressTime": 1165
        },
        {
            "button": "Left_Right",
            "time": 16310,
            "isLongPress": true,
            "longPressTime": 1942
        },
        {
            "button": "Left_Right",
            "time": 34368
        },
        {
            "button": "Left_Right",
            "time": 34951
        },
        {
            "button": "Left_Right",
            "time": 37281
        },
        {
            "button": "Left_Right",
            "time": 41067
        },
        {
            "button": "Left_Right",
            "time": 43398
        },
        {
            "button": "Left_Right",
            "time": 46601
        },
        {
            "button": "Left_Right",
            "time": 52718
        },
        {
            "button": "Left_Right",
            "time": 55048
        },
        {
            "button": "Left_Right",
            "time": 66699,
            "isLongPress": true,
            "longPressTime": 2038
        },
        {
            "button": "Left_Right",
            "time": 70194
        },
        {
            "button": "Left_Right",
            "time": 71650
        },
        {
            "button": "Left_Right",
            "time": 72524
        },
        {
            "button": "Left_Right",
            "time": 73980
        },
        {
            "button": "Left_Right",
            "time": 74854
        },
        {
            "button": "Left_Right",
            "time": 76310
        },
        {
            "button": "Left_Right",
            "time": 78058
        },
        {
            "button": "Left_Right",
            "time": 78640
        },
        {
            "button": "Left_Right",
            "time": 79223,
            "isLongPress": true,
            "longPressTime": 2330
        },
        {
            "button": "Left_Right",
            "time": 85339
        },
        {
            "button": "Left_Right",
            "time": 86504
        },
        {
            "button": "Left_Right",
            "time": 88543
        },
        {
            "button": "Left_Right",
            "time": 91067
        },
        {
            "button": "Left_Right",
            "time": 94660
        },
        {
            "button": "Left_Right",
            "time": 95825
        },
        {
            "button": "Left_Right",
            "time": 97864
        },
        {
            "button": "Left_Right",
            "time": 102524
        },
        {
            "button": "Left_Right",
            "time": 108447,
            "isLongPress": true,
            "longPressTime": 3495
        },
        {
            "button": "Right_Left",
            "time": 3349
        },
        {
            "button": "Right_Left",
            "time": 7961
        },
        {
            "button": "Right_Left",
            "time": 12815,
            "isLongPress": true,
            "longPressTime": 2330
        },
        {
            "button": "Right_Left",
            "time": 34077
        },
        {
            "button": "Right_Left",
            "time": 35242
        },
        {
            "button": "Right_Left",
            "time": 37572
        },
        {
            "button": "Right_Left",
            "time": 41359
        },
        {
            "button": "Right_Left",
            "time": 43106
        },
        {
            "button": "Right_Left",
            "time": 46893
        },
        {
            "button": "Right_Left",
            "time": 53009
        },
        {
            "button": "Right_Left",
            "time": 55339
        },
        {
            "button": "Right_Left",
            "time": 68737,
            "isLongPress": true,
            "longPressTime": 1165
        },
        {
            "button": "Right_Left",
            "time": 70485
        },
        {
            "button": "Right_Left",
            "time": 71359
        },
        {
            "button": "Right_Left",
            "time": 72815
        },
        {
            "button": "Right_Left",
            "time": 73689
        },
        {
            "button": "Right_Left",
            "time": 75145
        },
        {
            "button": "Right_Left",
            "time": 76019
        },
        {
            "button": "Right_Left",
            "time": 78349
        },
        {
            "button": "Right_Left",
            "time": 78932
        },
        {
            "button": "Right_Left",
            "time": 80388,
            "isLongPress": true,
            "longPressTime": 1165
        },
        {
            "button": "Right_Left",
            "time": 85631
        },
        {
            "button": "Right_Left",
            "time": 86213
        },
        {
            "button": "Right_Left",
            "time": 88834
        },
        {
            "button": "Right_Left",
            "time": 90873
        },
        {
            "button": "Right_Left",
            "time": 94951
        },
        {
            "button": "Right_Left",
            "time": 95533
        },
        {
            "button": "Right_Left",
            "time": 98155
        },
        {
            "button": "Right_Left",
            "time": 100776,
            "isLongPress": true,
            "longPressTime": 1748
        },
        {
            "button": "Right_Left",
            "time": 106019
        },
        {
            "button": "Right_Left",
            "time": 107282,
            "isLongPress": true,
            "longPressTime": 1165
        },
        {
            "button": "Right_Down",
            "time": 3786
        },
        {
            "button": "Right_Down",
            "time": 8446
        },
        {
            "button": "Right_Down",
            "time": 15728,
            "isLongPress": true,
            "longPressTime": 582
        },
        {
            "button": "Right_Down",
            "time": 20970,
            "isLongPress": true,
            "longPressTime": 4272
        },
        {
            "button": "Right_Down",
            "time": 26067
        },
        {
            "button": "Right_Down",
            "time": 26359
        },
        {
            "button": "Right_Down",
            "time": 26941
        },
        {
            "button": "Right_Down",
            "time": 27233
        },
        {
            "button": "Right_Down",
            "time": 27669
        },
        {
            "button": "Right_Down",
            "time": 28398
        },
        {
            "button": "Right_Down",
            "time": 28689
        },
        {
            "button": "Right_Down",
            "time": 29271
        },
        {
            "button": "Right_Down",
            "time": 29563
        },
        {
            "button": "Right_Down",
            "time": 29999
        },
        {
            "button": "Right_Down",
            "time": 30728
        },
        {
            "button": "Right_Down",
            "time": 31019
        },
        {
            "button": "Right_Down",
            "time": 31601
        },
        {
            "button": "Right_Down",
            "time": 33495
        },
        {
            "button": "Right_Down",
            "time": 33786
        },
        {
            "button": "Right_Down",
            "time": 35533
        },
        {
            "button": "Right_Down",
            "time": 36116,
            "isLongPress": true,
            "longPressTime": 582
        },
        {
            "button": "Right_Down",
            "time": 37864
        },
        {
            "button": "Right_Down",
            "time": 38446,
            "isLongPress": true,
            "longPressTime": 583
        },
        {
            "button": "Right_Down",
            "time": 39320
        },
        {
            "button": "Right_Down",
            "time": 41650
        },
        {
            "button": "Right_Down",
            "time": 41941,
            "isLongPress": true,
            "longPressTime": 874
        },
        {
            "button": "Right_Down",
            "time": 43980
        },
        {
            "button": "Right_Down",
            "time": 44563
        },
        {
            "button": "Right_Down",
            "time": 45436,
            "isLongPress": true,
            "longPressTime": 582
        },
        {
            "button": "Right_Down",
            "time": 47184
        },
        {
            "button": "Right_Down",
            "time": 47766,
            "isLongPress": true,
            "longPressTime": 582
        },
        {
            "button": "Right_Down",
            "time": 48640
        },
        {
            "button": "Right_Down",
            "time": 51262,
            "isLongPress": true,
            "longPressTime": 873
        },
        {
            "button": "Right_Down",
            "time": 53300
        },
        {
            "button": "Right_Down",
            "time": 53592,
            "isLongPress": true,
            "longPressTime": 873
        },
        {
            "button": "Right_Down",
            "time": 55631
        },
        {
            "button": "Right_Down",
            "time": 55922,
            "isLongPress": true,
            "longPressTime": 2330
        },
        {
            "button": "Right_Down",
            "time": 60582
        },
        {
            "button": "Right_Down",
            "time": 61019
        },
        {
            "button": "Right_Down",
            "time": 64368,
            "isLongPress": true,
            "longPressTime": 2331
        },
        {
            "button": "Right_Down",
            "time": 70776
        },
        {
            "button": "Right_Down",
            "time": 71067
        },
        {
            "button": "Right_Down",
            "time": 73106
        },
        {
            "button": "Right_Down",
            "time": 73398
        },
        {
            "button": "Right_Down",
            "time": 75436
        },
        {
            "button": "Right_Down",
            "time": 75728
        },
        {
            "button": "Right_Down",
            "time": 77184
        },
        {
            "button": "Right_Down",
            "time": 77766
        },
        {
            "button": "Right_Down",
            "time": 85922
        },
        {
            "button": "Right_Down",
            "time": 87378,
            "isLongPress": true,
            "longPressTime": 582
        },
        {
            "button": "Right_Down",
            "time": 89126
        },
        {
            "button": "Right_Down",
            "time": 89708,
            "isLongPress": true,
            "longPressTime": 582
        },
        {
            "button": "Right_Down",
            "time": 90582
        },
        {
            "button": "Right_Down",
            "time": 93203,
            "isLongPress": true,
            "longPressTime": 873
        },
        {
            "button": "Right_Down",
            "time": 95242
        },
        {
            "button": "Right_Down",
            "time": 96699,
            "isLongPress": true,
            "longPressTime": 582
        },
        {
            "button": "Right_Down",
            "time": 98446
        },
        {
            "button": "Right_Down",
            "time": 99029,
            "isLongPress": true,
            "longPressTime": 582
        },
        {
            "button": "Right_Down",
            "time": 100194,
            "isLongPress": true,
            "longPressTime": 291
        },
        {
            "button": "Right_Down",
            "time": 104854
        }
    ],
    "playMusicEvent": {
        "text": "Play_ui_activity_FleurFairV2_musicgame_BGM_Tighnari"
    },
    "stopMusicEvent": {
        "text": "Stop_ui_activity_FleurFairV2_musicgame_BGM_Tighnari"
    },
    "pauseMusicEvent": {
        "text": "Pause_ui_activity_FleurFairV2_musicgame_BGM_Tighnari"
    },
    "resumeMusicEvent": {
        "text": "Resume_ui_activity_FleurFairV2_musicgame_BGM_Tighnari"
    },
    "GLMCNPBMPMO": {
        "text": "Play_ui_activity_FleurFairV2_musicgame_BGM_Tighnari_Preview"
    },
    "OLFOILFLEJH": {
        "text": "Stop_ui_activity_FleurFairV2_musicgame_BGM_Tighnari_Preview"
    }
}