{
    "id": 2101,
    "HBGNAAKIPKI": [
        {
            "pos": {
                "x": -1774.363525390625,
                "y": 214.27830505371094,
                "z": 3679.12109375
            },
            "rot": {
                "y": 357.7494812011719
            },
            "shape": {
                "$type": "FBOPNFAKLDG",
                "JAFBDKCDHCO": true,
                "height": 22.749765396118164,
                "KPEJJDMAGEN": "Center",
                "width": 23.342906951904297,
                "length": 82.61183166503906
            }
        },
        {
            "pos": {
                "x": -1790.92333984375,
                "y": 193.72024536132812,
                "z": 3629.028564453125
            },
            "shape": {
                "$type": "LHEGJLAGDIB",
                "JAFBDKCDHCO": true,
                "height": 61.32140350341797,
                "radius": 46.82738494873047
            }
        },
        {
            "pos": {
                "x": -1775.6165771484375,
                "y": 251.0062713623047,
                "z": 3704.324951171875
            },
            "shape": {
                "$type": "LHEGJLAGDIB",
                "JAFBDKCDHCO": true,
                "height": 79.9432601928711,
                "radius": 14.652266502380371
            }
        }
    ],
    "DFNBKLHHGCF": [
        {
            "id": 21010004,
            "type": "REGION_ENTRANCE",
            "pos": {
                "x": -1776.834228515625,
                "y": 289.8721923828125,
                "z": 3700.90625
            },
            "PMOKHMLGAOE": "LOGIC_AND",
            "LDJJOAHMBKO": [
                21010001
            ],
            "MKJJDPAHACA": 4294967295,
            "OELAOJEKNDM": 4294967295
        }
    ],
    "LJNNMLGIAJI": true,
    "HNGDGDECKOD": [
        {
            "id": 21010001,
            "pos": {
                "x": -1773.319091796875,
                "y": 214.10000610351562,
                "z": 3698.417724609375
            },
            "PMOKHMLGAOE": "LOGIC_AND",
            "LDJJOAHMBKO": [
                21010002,
                21010004
            ]
        },
        {
            "id": 21010002,
            "pos": {
                "x": -1782.069580078125,
                "y": 200.57423400878906,
                "z": 3652.841796875
            },
            "LDOACMOADEJ": {
                "offset": {
                    "y": 1.0
                },
                "DANPBPMCEGB": true
            },
            "PMOKHMLGAOE": "LOGIC_AND",
            "LDJJOAHMBKO": [
                21010001,
                21010003
            ]
        },
        {
            "id": 21010003,
            "pos": {
                "x": -1778.9005126953125,
                "y": 165.5,
                "z": 3611.0693359375
            },
            "PMOKHMLGAOE": "LOGIC_AND",
            "LDJJOAHMBKO": [
                21010002
            ]
        },
        {
            "id": 21010004,
            "type": "REGION_ENTRANCE",
            "pos": {
                "x": -1776.834228515625,
                "y": 289.8721923828125,
                "z": 3700.90625
            },
            "PMOKHMLGAOE": "LOGIC_AND",
            "LDJJOAHMBKO": [
                21010001
            ],
            "MKJJDPAHACA": 4294967295,
            "OELAOJEKNDM": 4294967295
        }
    ]
}