{
    "MDJNFHAJPAD": {
        "FAIKDMCHPEL": {
            "$type": "DPGKNHENGLM",
            "DDDEJPIFECG": "EffectMesh"
        },
        "FINMNFLLAMB": 150.0,
        "NEBDNCNFDJC": 2.0,
        "INNNMDJACOJ": 2.5,
        "MBMBBGOGNHF": true,
        "DIEPJBNIPBG": true,
        "FNLMEPDMMMD": 1.2999999523162842,
        "NDKGIFOAHGG": true,
        "GJDONABEMOA": true,
        "BKPPECPBMBF": true,
        "LOGFKHMLOOL": true
    },
    "PJEANIPCFFN": {
        "CKAIGCFDCMG": "Eff_Monster_Common_Born",
        "KHGAHHAIJFJ": "",
        "DFFKHFKJKEK": false
    },
    "MEMHBNEJBCL": {
        "PJBCJPKPOLB": 2.0,
        "OPNPPABFLFK": true
    },
    "GKIMHOOMGHB": {
        "DHBJGHDCMAA": {
            "LDAHGACLHII": "Monster_Demiboss_Humanoid",
            "LJGADHKDLLB": 150.0
        },
        "BPKIJDAHLGB": {
            "LKMLEJGEHAP": ""
        },
        "INCPHOFGIJA": {
            "FGJIHAKMLBG": "CircleLockEnemy",
            "BGMEKAEIOGA": "Avatar&Monster_Lv4"
        },
        "JCCJMILDEAM": {
            "ODGDMCPOMAJ": true,
            "GKFDFDFJJFB": 2.0,
            "FNIJBPMPCHA": 4.0,
            "BCHFMGGBEFN": "Eff_Death_Common",
            "GDFMLKACHDB": "MonsterDie",
            "AHGCGJLAMJJ": true,
            "LEDBOLGDENF": true,
            "IEAKKMEDNDE": true,
            "AAEANOPIAAL": true,
            "IBBHGBHIHCI": true,
            "BKIBMIAJOHP": true,
            "MOFPBPPGPCL": true
        }
    },
    "IGPKOOHPBFG": [
        {
            "FPLENFAEDIB": "",
            "KAJGDIHNKNE": "Monster_MachinaIustitia_Sentry_Pose",
            "BIAMBCDKJKP": ""
        },
        {
            "FPLENFAEDIB": "",
            "KAJGDIHNKNE": "Monster_MachinaIustitia_Sentry_RepairPose",
            "BIAMBCDKJKP": ""
        },
        {
            "FPLENFAEDIB": "",
            "KAJGDIHNKNE": "Monster_MachinaIustitia_CoilHanler",
            "BIAMBCDKJKP": ""
        },
        {
            "FPLENFAEDIB": "",
            "KAJGDIHNKNE": "Monster_MachinaIustitia_Sentry_CoilEffect",
            "BIAMBCDKJKP": ""
        },
        {
            "FPLENFAEDIB": "",
            "KAJGDIHNKNE": "Monster_MachinaIustitia_Sentry_HitSpecial",
            "BIAMBCDKJKP": ""
        },
        {
            "FPLENFAEDIB": "",
            "KAJGDIHNKNE": "Monster_MachinaIustitia_Sentry_Recover_Ousia",
            "BIAMBCDKJKP": ""
        },
        {
            "FPLENFAEDIB": "",
            "KAJGDIHNKNE": "Monster_MachinaIustitia_Sentry_RecoverEffect_Ousia",
            "BIAMBCDKJKP": ""
        },
        {
            "FPLENFAEDIB": "",
            "KAJGDIHNKNE": "Monster_MachinaIustitia_Recover_Effect_Ousia",
            "BIAMBCDKJKP": ""
        },
        {
            "FPLENFAEDIB": "",
            "KAJGDIHNKNE": "Monster_MachinaIustitia_Sentry_RushAtk",
            "BIAMBCDKJKP": ""
        },
        {
            "FPLENFAEDIB": "",
            "KAJGDIHNKNE": "Monster_MachinaIustitia_Sentry_RushAtk_KillBullet",
            "BIAMBCDKJKP": ""
        },
        {
            "FPLENFAEDIB": "",
            "KAJGDIHNKNE": "Monster_MachinaIustitia_Sentry_EMP_Ousia",
            "BIAMBCDKJKP": ""
        },
        {
            "FPLENFAEDIB": "",
            "KAJGDIHNKNE": "Monster_MachinaIustitia_Sentry_Steer",
            "BIAMBCDKJKP": ""
        },
        {
            "FPLENFAEDIB": "",
            "KAJGDIHNKNE": "Monster_MachinaIustitia_Sentry_ExitBattle",
            "BIAMBCDKJKP": ""
        },
        {
            "FPLENFAEDIB": "",
            "KAJGDIHNKNE": "Monster_MachinaIustitia_Sentry_Alert",
            "BIAMBCDKJKP": ""
        }
    ],
    "GGIOJAMBNPO": {
        "defaultLayer": {
            "$type": "EPAPJJAGHKG",
            "ACOCIAFGIAD": "",
            "LFGKIDDJIED": {
                "NormalIdle": {
                    "$type": "IJOIMFMEGMM",
                    "DLOHGBDFFGB": {
                        "Standby": [],
                        "Born": []
                    },
                    "POLKCLOHPOO": true,
                    "PGKCBIHGAOC": true,
                    "DLAOMOCMANL": [
                        "DoSkill"
                    ]
                },
                "NormalMove": {
                    "$type": "IJOIMFMEGMM",
                    "DLOHGBDFFGB": {
                        "WalkForward": [
                            "Audio_Monster_MachinaIustitia_Sentry_Walk"
                        ],
                        "WalkBack": [
                            "Audio_Monster_MachinaIustitia_Sentry_Walk"
                        ]
                    },
                    "POLKCLOHPOO": true,
                    "PGKCBIHGAOC": true,
                    "DLAOMOCMANL": [
                        "DoSkill"
                    ],
                    "LIPMJPLGIKD": true
                },
                "Run": {
                    "$type": "IJOIMFMEGMM",
                    "DLOHGBDFFGB": {
                        "Run": [
                            "Audio_Monster_MachinaIustitia_Sentry_Run"
                        ]
                    },
                    "POLKCLOHPOO": true,
                    "PGKCBIHGAOC": true,
                    "DLAOMOCMANL": [
                        "DoSkill"
                    ],
                    "LIPMJPLGIKD": true
                },
                "Turn": {
                    "$type": "IJOIMFMEGMM",
                    "DLOHGBDFFGB": {
                        "TurnLeft": [
                            "Audio_Monster_MachinaIustitia_Sentry_Turn"
                        ],
                        "TurnRight": [
                            "Audio_Monster_MachinaIustitia_Sentry_Turn"
                        ]
                    },
                    "POLKCLOHPOO": true,
                    "PGKCBIHGAOC": true,
                    "DLAOMOCMANL": [
                        "DoSkill"
                    ],
                    "LIPMJPLGIKD": true
                },
                "BeHit": {
                    "$type": "IJOIMFMEGMM",
                    "DLOHGBDFFGB": {
                        "Hit_H": [
                            "Audio_Monster_MachinaIustitia_Sentry_Hit_H"
                        ]
                    },
                    "AJBLILDCLBO": [
                        "BeHit"
                    ],
                    "DLAOMOCMANL": [
                        "DoSkill"
                    ]
                },
                "HitSpecial": {
                    "$type": "IJOIMFMEGMM",
                    "DLOHGBDFFGB": {
                        "HitSpecial": [
                            "Audio_Monster_MachinaIustitia_Sentry_HitSpecial"
                        ]
                    },
                    "PGKCBIHGAOC": true,
                    "DLAOMOCMANL": [
                        "BeHit",
                        "DoSkill"
                    ]
                },
                "Recover": {
                    "$type": "IJOIMFMEGMM",
                    "DLOHGBDFFGB": {
                        "Recover": [
                            "Monster_MachinaIustitia_Sentry_Recover_Pneuma",
                            "Audio_Monster_MachinaIustitia_Sentry_Recover_Ousia"
                        ]
                    },
                    "PGKCBIHGAOC": true,
                    "OGNDLAMHMPB": 0.0,
                    "DLAOMOCMANL": [
                        "BeHit",
                        "DoSkill"
                    ]
                },
                "Recover_Self": {
                    "$type": "IJOIMFMEGMM",
                    "DLOHGBDFFGB": {
                        "Recover_Self": [
                            "Monster_MachinaIustitia_Sentry_SelfRecover_Pneuma",
                            "Audio_Monster_MachinaIustitia_Sentry_Recover_Ousia"
                        ]
                    },
                    "PGKCBIHGAOC": true,
                    "OGNDLAMHMPB": 0.0,
                    "DLAOMOCMANL": [
                        "BeHit",
                        "DoSkill"
                    ]
                },
                "Die": {
                    "$type": "IJOIMFMEGMM",
                    "DLOHGBDFFGB": {
                        "Die": [
                            "Audio_Monster_MachinaIustitia_Sentry_Die"
                        ]
                    },
                    "AJBLILDCLBO": [
                        "DoSkill"
                    ]
                },
                "Die_RagDoll": {
                    "$type": "IJOIMFMEGMM",
                    "DLOHGBDFFGB": {
                        "Die_RagDoll": []
                    },
                    "AJBLILDCLBO": [
                        "DoSkill"
                    ],
                    "CPOLOGIELCD": true
                },
                "Alert": {
                    "$type": "IJOIMFMEGMM",
                    "DLOHGBDFFGB": {
                        "Alert": [
                            "Monster_MachinaIustitia_Sentry_Alert",
                            "Audio_Monster_MachinaIustitia_Sentry_Alert"
                        ]
                    },
                    "DLAOMOCMANL": [
                        "BeHit",
                        "DoSkill"
                    ]
                },
                "Life_TakePhoto": {
                    "$type": "IJOIMFMEGMM",
                    "DLOHGBDFFGB": {
                        "TakePhoto": [
                            "Monster_MachinaIustitia_Sentry_TakePhoto",
                            "Audio_Monster_MachinaIustitia_Sentry_TakePhoto"
                        ]
                    },
                    "POLKCLOHPOO": true,
                    "DLAOMOCMANL": [
                        "BeHit",
                        "DoSkill"
                    ]
                },
                "RushAtk": {
                    "$type": "IJOIMFMEGMM",
                    "DLOHGBDFFGB": {
                        "RushAtk": [
                            "Monster_MachinaIustitia_Sentry_RushAtk",
                            "Audio_Monster_MachinaIustitia_Sentry_RushAtk"
                        ]
                    },
                    "DLAOMOCMANL": [
                        "BeHit",
                        "DoSkill"
                    ],
                    "LIPMJPLGIKD": true
                },
                "EMP": {
                    "$type": "IJOIMFMEGMM",
                    "DLOHGBDFFGB": {
                        "EMP": [
                            "Monster_MachinaIustitia_Sentry_EMP_Pneuma",
                            "Audio_Monster_MachinaIustitia_Sentry_EMP_Pneuma"
                        ]
                    },
                    "DLAOMOCMANL": [
                        "BeHit",
                        "DoSkill"
                    ],
                    "LIPMJPLGIKD": true
                }
            }
        }
    },
    "IEFGNHABHFH": {
        "$type": "PAOBAEKGGBC",
        "JBKMLLFNHAL": "BillboardAttach",
        "EMFFJPOKEKF": "Character",
        "LOMMBJLKPHE": 0.4000000059604645,
        "KGHAGECNJPO": true
    },
    "IONIFBIBFNL": {
        "Default": {
            "JAAABLNBKAP": 1,
            "PIEEIAOKMJB": {
                "GKGFCNLPILF": {
                    "Sit": "false"
                }
            }
        },
        "Sit": {
            "JAAABLNBKAP": 9001,
            "PIEEIAOKMJB": {
                "GKGFCNLPILF": {
                    "Sit": "true"
                }
            }
        }
    },
    "PDCDMABCPOA": {
        "ENLKMOKHELD": true,
        "IGOEHEEIFHC": {
            "ENLKMOKHELD": true,
            "OOBEPPKDFJK": [
                4025
            ]
        },
        "OCBDDDCJANP": {
            "IJOBKDKBEME": {
                "DefaultSetting": {
                    "BHOECAJIBOM": 30.0
                },
                "Sit": {
                    "BHOECAJIBOM": 30.0
                }
            },
            "PKFGMCHOEBN": {
                "DefaultTemplate": {
                    "DefaultPoses": "DefaultSetting"
                },
                "SitTemplate": {
                    "DefaultPoses": "DefaultSetting",
                    "9001": "Sit"
                }
            }
        },
        "OFEGONBLOGP": {
            "DefaultSetting": [
                "HIT"
            ]
        },
        "EJOLGMGAECP": {
            "OFANIFGIFLN": 30.0,
            "PLCPHNHGFAC": 3.5,
            "BKDOBJKGIGO": true,
            "HJODDLMLPBJ": 1.75,
            "BAOEBJPPKMK": 3.0,
            "JEAMBMPMOAC": 300.0,
            "KDPOCNEHGBJ": 10.0,
            "BJLBMJLOPIP": [
                {
                    "LFALGCACJOF": 10.0,
                    "IOHOACGNJHO": 2.0
                },
                {
                    "LFALGCACJOF": 15.0,
                    "IOHOACGNJHO": 0.800000011920929
                },
                {
                    "LFALGCACJOF": 20.0,
                    "IOHOACGNJHO": 0.5
                },
                {
                    "LFALGCACJOF": 25.0,
                    "IOHOACGNJHO": 0.30000001192092896
                },
                {
                    "LFALGCACJOF": 30.0,
                    "IOHOACGNJHO": 0.20000000298023224
                }
            ],
            "IBGELAGCJFH": "Monster_TauntLevel_2",
            "JGFOPCOIJOI": ""
        },
        "PMNPDDIOHHJ": {
            "OKMHHFALCCH": 50.0
        },
        "IEMFHBCDJFP": [
            {
                "BIMBEJCAFLP": 0,
                "DIAPGOFDGLC": 3.0
            }
        ],
        "HEJKJODINHK": {},
        "BNIENJNLAIJ": {
            "101": {
                "NOKKDDHKGAK": "OnAlert",
                "IKMCLKEPDFP": "OnAlert",
                "HAOJJHNOGHO": true,
                "NOPNCNPCPJE": "",
                "LLNBBNIEGGO": true,
                "IDPMFPAPNCE": false,
                "HGAMDGAEIGO": "",
                "LFGKIDDJIED": [
                    "Alert"
                ],
                "NNJBOCFBGJG": 3.0,
                "PGPDNPMFFAG": "10",
                "CCEAGFDONFH": "01",
                "OKOFHICILMD": "10",
                "CCFFFOIDOLP": "11"
            },
            "191": {
                "NOKKDDHKGAK": "Recover",
                "OFLMMKCAHKM": "MeleeAttack",
                "MBDAAADDHNL": 1,
                "ENKLFBHHOJI": {
                    "CEKMINILIFB": [
                        102
                    ]
                },
                "PAHIDIJLGPF": 1.0,
                "LKCFDIOMLCM": 1.0,
                "NOPNCNPCPJE": "",
                "LLNBBNIEGGO": true,
                "HGAMDGAEIGO": "",
                "LFGKIDDJIED": [
                    "Recover"
                ],
                "NNJBOCFBGJG": 3.0,
                "PGPDNPMFFAG": "11",
                "CCEAGFDONFH": "01",
                "OKOFHICILMD": "11",
                "CCFFFOIDOLP": "11"
            },
            "192": {
                "NOKKDDHKGAK": "Recover_Self",
                "OFLMMKCAHKM": "MeleeAttack",
                "MBDAAADDHNL": 1,
                "ENKLFBHHOJI": {
                    "CEKMINILIFB": [
                        101
                    ]
                },
                "PAHIDIJLGPF": 99999.0,
                "LKCFDIOMLCM": 99999.0,
                "NOPNCNPCPJE": "",
                "LLNBBNIEGGO": true,
                "IDPMFPAPNCE": false,
                "HGAMDGAEIGO": "",
                "LFGKIDDJIED": [
                    "Recover_Self"
                ],
                "NNJBOCFBGJG": 3.0,
                "PGPDNPMFFAG": "11",
                "CCEAGFDONFH": "01",
                "OKOFHICILMD": "11",
                "CCFFFOIDOLP": "11"
            },
            "201": {
                "NOKKDDHKGAK": "RushAtk_Normal",
                "OFLMMKCAHKM": "MeleeAttack",
                "MBDAAADDHNL": 2,
                "ENKLFBHHOJI": {
                    "CEKMINILIFB": [
                        101,
                        102
                    ],
                    "MLFAMHDFHMM": 5.0,
                    "GAKHIDNEDNN": 2.0,
                    "PPICOEKIJNJ": 3.5
                },
                "PAHIDIJLGPF": 5.0,
                "GPMLADFJAAH": 2.5,
                "LKCFDIOMLCM": 1.0,
                "KKAEGIJIDLG": 4.0,
                "NOPNCNPCPJE": "",
                "HGAMDGAEIGO": "",
                "LFGKIDDJIED": [
                    "RushAtk"
                ],
                "NNJBOCFBGJG": 3.0,
                "PGPDNPMFFAG": "10",
                "CCEAGFDONFH": "01",
                "OKOFHICILMD": "11",
                "CCFFFOIDOLP": "11"
            },
            "211": {
                "NOKKDDHKGAK": "RushAtk_Ousia",
                "OFLMMKCAHKM": "MeleeAttack",
                "MBDAAADDHNL": 3,
                "ENKLFBHHOJI": {
                    "CEKMINILIFB": [
                        201
                    ],
                    "MLFAMHDFHMM": 5.0,
                    "GAKHIDNEDNN": 2.0,
                    "PPICOEKIJNJ": 5.0
                },
                "PAHIDIJLGPF": 5.0,
                "GPMLADFJAAH": 5.0,
                "LKCFDIOMLCM": 5.0,
                "KKAEGIJIDLG": 4.0,
                "NOPNCNPCPJE": "",
                "HGAMDGAEIGO": "",
                "LFGKIDDJIED": [
                    "RushAtk"
                ],
                "NNJBOCFBGJG": 3.0,
                "PGPDNPMFFAG": "10",
                "CCEAGFDONFH": "01",
                "OKOFHICILMD": "11",
                "CCFFFOIDOLP": "11"
            },
            "301": {
                "NOKKDDHKGAK": "EMP_Ousia",
                "OFLMMKCAHKM": "MeleeAttack",
                "MBDAAADDHNL": 3,
                "AOHJOJFGBFA": true,
                "GADABAPNHBK": 3.0,
                "KCNOANAHMJA": 1,
                "ENKLFBHHOJI": {
                    "CEKMINILIFB": [
                        201
                    ],
                    "MLFAMHDFHMM": 5.0,
                    "INGKBCCGLKP": 2.0,
                    "PPICOEKIJNJ": 7.0
                },
                "PAHIDIJLGPF": 8.5,
                "GPMLADFJAAH": 5.0,
                "LKCFDIOMLCM": 2.0,
                "KKAEGIJIDLG": 4.0,
                "NOPNCNPCPJE": "",
                "HGAMDGAEIGO": "",
                "LFGKIDDJIED": [
                    "EMP"
                ],
                "NNJBOCFBGJG": 3.0,
                "PGPDNPMFFAG": "11",
                "CCEAGFDONFH": "01",
                "OKOFHICILMD": "11",
                "CCFFFOIDOLP": "11"
            },
            "302": {
                "NOKKDDHKGAK": "EMP_Ousia",
                "OFLMMKCAHKM": "MeleeAttack",
                "MBDAAADDHNL": 2,
                "ENKLFBHHOJI": {
                    "CEKMINILIFB": [
                        201
                    ],
                    "OLDIEKKCIOG": 5.0,
                    "MLFAMHDFHMM": 15.0,
                    "INGKBCCGLKP": 5.0,
                    "PPICOEKIJNJ": 15.0
                },
                "PAHIDIJLGPF": 8.5,
                "GPMLADFJAAH": 5.0,
                "LKCFDIOMLCM": 2.0,
                "KKAEGIJIDLG": 4.0,
                "NOPNCNPCPJE": "",
                "HGAMDGAEIGO": "",
                "LFGKIDDJIED": [
                    "EMP"
                ],
                "NNJBOCFBGJG": 3.0,
                "PGPDNPMFFAG": "11",
                "CCEAGFDONFH": "01",
                "OKOFHICILMD": "11",
                "CCFFFOIDOLP": "11"
            }
        },
        "EMBHEEALPLD": 3.0,
        "EEKEAKJCMJO": [
            {
                "$type": "DIIPKNMAPAC",
                "ENLKMOKHELD": true,
                "FJANPNOAAFK": {
                    "CEKMINILIFB": [
                        101,
                        102,
                        201,
                        301
                    ]
                },
                "LMMKNFEMOMG": {
                    "GDPAONNEBCO": 6.0,
                    "AJCEMHKIMHA": 3.0,
                    "JNMPGLIADPP": 5.0,
                    "CCMODCEDODH": 2.0,
                    "MMKHHBIBJEN": {
                        "JNJFKLDABCB": 0.0,
                        "BEJLOBBENJJ": 0.0
                    },
                    "HEGPGPBKGFH": "1111",
                    "AFCLIFKCEKM": "1111",
                    "JOCOJHEICNA": ""
                },
                "BIDHHBJEKHM": {
                    "201": {
                        "AGCMPDABMIA": 5.0,
                        "GDPAONNEBCO": 8.0,
                        "AJCEMHKIMHA": 3.0,
                        "JNMPGLIADPP": 5.0,
                        "CCMODCEDODH": 2.0,
                        "MMKHHBIBJEN": {
                            "JNJFKLDABCB": 0.0,
                            "BEJLOBBENJJ": 0.0
                        },
                        "HEGPGPBKGFH": "1111",
                        "AFCLIFKCEKM": "1111",
                        "JOCOJHEICNA": ""
                    },
                    "301": {
                        "AGCMPDABMIA": 5.0,
                        "GDPAONNEBCO": 8.0,
                        "AJCEMHKIMHA": 3.0,
                        "JNMPGLIADPP": 5.0,
                        "CCMODCEDODH": 2.0,
                        "MMKHHBIBJEN": {
                            "JNJFKLDABCB": 0.0,
                            "BEJLOBBENJJ": 0.0
                        },
                        "HEGPGPBKGFH": "1111",
                        "AFCLIFKCEKM": "1111",
                        "JOCOJHEICNA": ""
                    }
                }
            },
            {
                "$type": "BNAGECKMCIB",
                "ENLKMOKHELD": true,
                "FJANPNOAAFK": {
                    "CEKMINILIFB": [
                        101,
                        201,
                        301
                    ]
                },
                "LMMKNFEMOMG": {
                    "GEAICNICJAJ": 3.0,
                    "IJLGPEJGLEH": 50.0,
                    "JKOGPCLFHCP": 3.0,
                    "IHCAFCNDANA": 8.0,
                    "JOCOJHEICNA": ""
                },
                "BIDHHBJEKHM": {
                    "201": {
                        "GEAICNICJAJ": 3.0,
                        "IJLGPEJGLEH": 50.0,
                        "JKOGPCLFHCP": 7.0,
                        "IHCAFCNDANA": 7.0,
                        "JOCOJHEICNA": ""
                    },
                    "301": {
                        "GEAICNICJAJ": 3.0,
                        "IJLGPEJGLEH": 50.0,
                        "JKOGPCLFHCP": 7.0,
                        "IHCAFCNDANA": 10.0,
                        "JOCOJHEICNA": ""
                    }
                }
            }
        ]
    },
    "GIBHCHHOJFI": [
        {
            "NPDDCIDNKMH": 101,
            "KCAOBJOPJIC": 257,
            "KAJGDIHNKNE": ""
        },
        {
            "NPDDCIDNKMH": 111,
            "KCAOBJOPJIC": 258,
            "KAJGDIHNKNE": ""
        },
        {
            "NPDDCIDNKMH": 191,
            "KCAOBJOPJIC": 259,
            "KAJGDIHNKNE": ""
        },
        {
            "NPDDCIDNKMH": 201,
            "KCAOBJOPJIC": 260,
            "KAJGDIHNKNE": ""
        },
        {
            "NPDDCIDNKMH": 211,
            "KCAOBJOPJIC": 261,
            "KAJGDIHNKNE": ""
        },
        {
            "NPDDCIDNKMH": 301,
            "KCAOBJOPJIC": 262,
            "KAJGDIHNKNE": ""
        }
    ],
    "ADIGBDHBCDP": {
        "$type": "IIGPJJNGCLE",
        "EIEIGIPKLAO": {
            "BFHOPPHPHJK": [
                "RetreatAirType"
            ]
        },
        "MIPNOGBEANL": "ForwardBackward",
        "KCPLNKCIOCI": "Walk",
        "FACNOEFNHIB": "RootNode"
    },
    "BEGHJJDCLLK": {
        "KEEAIACIJBN": "",
        "JIOEGJGNLEC": {},
        "ILECIBOLHCO": {
            "KMNBEAJOBPE": ""
        },
        "KMDKAEHLABB": {
            "KMNBEAJOBPE": ""
        },
        "LODBOFAJFGC": {
            "KMNBEAJOBPE": ""
        },
        "MPBLDCMJJLE": [
            {
                "KMNBEAJOBPE": ""
            }
        ]
    }
}