{
    "FAPEODEFNGC": 5172,
    "PIBABCOPCON": {
        "FNPILPOEEGC": [
            {
                "LNEGCKBPFDH": [
                    396
                ],
                "EKDOAPHMNNI": [
                    {
                        "$type": "JEDGPEPGKCL",
                        "LBALLHNACDD": "UI_ACTIVITY_EFFIGYV4_PREQUEST"
                    }
                ],
                "NBLKPNODOKB": [
                    {
                        "$type": "JEDGPEPGKCL",
                        "LBALLHNACDD": ""
                    }
                ]
            },
            {
                "LNEGCKBPFDH": [
                    74677
                ],
                "DCPHKOGJJIK": [
                    {
                        "$type": "DNOCOMCDIAH"
                    }
                ],
                "NBLKPNODOKB": [
                    {
                        "$type": "PMGAHGJGLIA",
                        "LBALLHNACDD": ""
                    }
                ]
            }
        ],
        "JJEKBIGMCPK": "",
        "BHAOKFIMAFI": "",
        "ACPKNOGDDPD": [
            [
                396
            ],
            [
                74677
            ]
        ]
    }
}