{
    "FIHGJJCKACO": 32401,
    "LPKJNHAMHHL": [
        {
            "HBJKFHBCOKG": 3240101,
            "NKNDDAOAJAF": [
                {
                    "minArea": {
                        "x": -597.3944091796875,
                        "y": 68.71756744384766,
                        "z": 2319.20947265625
                    },
                    "maxArea": {
                        "x": -478.2452087402344,
                        "y": 151.93429565429688,
                        "z": 2412.967529296875
                    },
                    "roadPoints": [
                        {
                            "x": -526.2052001953125,
                            "y": 68.71756744384766,
                            "z": 2319.20947265625
                        },
                        {
                            "x": -597.3944091796875,
                            "y": 68.71756744384766,
                            "z": 2337.018798828125
                        },
                        {
                            "x": -589.3654174804688,
                            "y": 68.71756744384766,
                            "z": 2380.86376953125
                        },
                        {
                            "x": -554.9796752929688,
                            "y": 68.71756744384766,
                            "z": 2412.967529296875
                        },
                        {
                            "x": -510.2510986328125,
                            "y": 68.71756744384766,
                            "z": 2412.967529296875
                        },
                        {
                            "x": -478.2452087402344,
                            "y": 68.71756744384766,
                            "z": 2352.1806640625
                        },
                        {
                            "x": -516.5183715820312,
                            "y": 68.71756744384766,
                            "z": 2326.640380859375
                        }
                    ]
                },
                {
                    "minArea": {
                        "x": -690.8387451171875,
                        "y": 42.893768310546875,
                        "z": 2303.72509765625
                    },
                    "maxArea": {
                        "x": -610.3055419921875,
                        "y": 210.37310791015625,
                        "z": 2434.458251953125
                    },
                    "roadPoints": [
                        {
                            "x": -610.3055419921875,
                            "y": 42.893768310546875,
                            "z": 2341.97314453125
                        },
                        {
                            "x": -649.2844848632812,
                            "y": 42.893768310546875,
                            "z": 2312.340087890625
                        },
                        {
                            "x": -663.5077514648438,
                            "y": 42.893768310546875,
                            "z": 2303.72509765625
                        },
                        {
                            "x": -690.8387451171875,
                            "y": 42.893768310546875,
                            "z": 2381.00927734375
                        },
                        {
                            "x": -655.8706665039062,
                            "y": 42.893768310546875,
                            "z": 2424.439697265625
                        },
                        {
                            "x": -637.9402465820312,
                            "y": 42.893768310546875,
                            "z": 2434.458251953125
                        },
                        {
                            "x": -616.5919799804688,
                            "y": 42.893768310546875,
                            "z": 2421.696044921875
                        }
                    ]
                },
                {
                    "minArea": {
                        "x": -768.14599609375,
                        "y": 17.0,
                        "z": 2185.25732421875
                    },
                    "maxArea": {
                        "x": -469.29351806640625,
                        "y": 167.32640075683594,
                        "z": 2443.60009765625
                    },
                    "roadPoints": [
                        {
                            "x": -763.5589599609375,
                            "y": 17.0,
                            "z": 2260.32763671875
                        },
                        {
                            "x": -768.14599609375,
                            "y": 17.0,
                            "z": 2288.51611328125
                        },
                        {
                            "x": -676.29052734375,
                            "y": 17.0,
                            "z": 2327.73193359375
                        },
                        {
                            "x": -692.124267578125,
                            "y": 17.0,
                            "z": 2380.641357421875
                        },
                        {
                            "x": -689.489990234375,
                            "y": 17.0,
                            "z": 2404.50146484375
                        },
                        {
                            "x": -659.865966796875,
                            "y": 17.0,
                            "z": 2429.65234375
                        },
                        {
                            "x": -619.0048217773438,
                            "y": 17.0,
                            "z": 2443.60009765625
                        },
                        {
                            "x": -582.2338256835938,
                            "y": 17.0,
                            "z": 2393.541015625
                        },
                        {
                            "x": -523.9903564453125,
                            "y": 17.0,
                            "z": 2366.008544921875
                        },
                        {
                            "x": -481.547119140625,
                            "y": 17.0,
                            "z": 2356.355712890625
                        },
                        {
                            "x": -469.29351806640625,
                            "y": 17.0,
                            "z": 2344.053955078125
                        },
                        {
                            "x": -493.93408203125,
                            "y": 17.0,
                            "z": 2233.121826171875
                        },
                        {
                            "x": -517.92626953125,
                            "y": 17.0,
                            "z": 2205.71044921875
                        },
                        {
                            "x": -576.1046142578125,
                            "y": 17.0,
                            "z": 2185.25732421875
                        },
                        {
                            "x": -742.043212890625,
                            "y": 17.0,
                            "z": 2218.94775390625
                        }
                    ]
                },
                {
                    "minArea": {
                        "x": -688.8007202148438,
                        "y": 165.8393096923828,
                        "z": 2222.325927734375
                    },
                    "maxArea": {
                        "x": -536.9818115234375,
                        "y": 181.89024353027344,
                        "z": 2342.4384765625
                    },
                    "roadPoints": [
                        {
                            "x": -614.2814331054688,
                            "y": 165.8393096923828,
                            "z": 2222.325927734375
                        },
                        {
                            "x": -637.0399169921875,
                            "y": 165.8393096923828,
                            "z": 2233.525390625
                        },
                        {
                            "x": -652.1158447265625,
                            "y": 165.8393096923828,
                            "z": 2249.96533203125
                        },
                        {
                            "x": -673.8231201171875,
                            "y": 165.8393096923828,
                            "z": 2261.672119140625
                        },
                        {
                            "x": -688.8007202148438,
                            "y": 165.8393096923828,
                            "z": 2281.1142578125
                        },
                        {
                            "x": -673.8381958007812,
                            "y": 165.8393096923828,
                            "z": 2313.159423828125
                        },
                        {
                            "x": -639.1258544921875,
                            "y": 165.8393096923828,
                            "z": 2339.1962890625
                        },
                        {
                            "x": -612.514404296875,
                            "y": 165.8393096923828,
                            "z": 2342.4384765625
                        },
                        {
                            "x": -575.9292602539062,
                            "y": 165.8393096923828,
                            "z": 2326.1533203125
                        },
                        {
                            "x": -536.9818115234375,
                            "y": 165.8393096923828,
                            "z": 2274.267578125
                        },
                        {
                            "x": -538.93505859375,
                            "y": 165.8393096923828,
                            "z": 2257.12109375
                        },
                        {
                            "x": -557.6812744140625,
                            "y": 165.8393096923828,
                            "z": 2230.369384765625
                        }
                    ]
                }
            ]
        }
    ],
    "minArea": {
        "x": -768.14599609375,
        "y": 17.0,
        "z": 2185.25732421875
    },
    "maxArea": {
        "x": -469.29345703125,
        "y": 210.37310791015625,
        "z": 2443.60009765625
    }
}