{
    "DJKOCCJCPFJ": {
        "201400706": 2147483647,
        "201400707": 2147483647,
        "201400708": 4294967295,
        "201400709": 4294967295,
        "201400710": 4294967295,
        "201400711": 4294967295,
        "201400712": 4294967295,
        "201400713": 2147483647,
        "201400714": 4294967295,
        "201400715": 4294967295,
        "201400716": 4294967295,
        "201400717": 4294967295,
        "201400718": 4294967295,
        "201400720": 4294967295,
        "201400721": 4294967295,
        "201400722": 4294967295,
        "201400723": 4294967295,
        "201400724": 4294967295,
        "201400725": 4294967295,
        "201400726": 4294967295,
        "201400727": 4294967295,
        "201400728": 4294967295,
        "201400729": 4294967295,
        "201400730": 4294967295,
        "201400731": 4294967295,
        "201400732": 4294967295,
        "201400734": 4294967295,
        "201400735": 4294967295,
        "201400736": 4294967295,
        "201400737": 4294967295,
        "201400738": 2147483647,
        "201400739": 2147483647,
        "201400740": 4294967295,
        "201400741": 4294967295,
        "201400742": 4294967295,
        "201400743": 2147483647,
        "201400744": 2147483647,
        "201400745": 2147483647,
        "201400747": 2147483647,
        "201400748": 4294967295,
        "201400749": 4294967295,
        "201400751": 4294967295,
        "201400752": 4294967295,
        "201400756": 2147483647,
        "201400757": 4294967295,
        "201400758": 4294967295,
        "201400759": 4294967295,
        "201400760": 2147483647,
        "201400827": 2147483647,
        "201400829": 2147483647,
        "201400831": 2147483647,
        "201400834": 2147483647,
        "201400835": 2147483647,
        "201400836": 4294967295,
        "201400837": 2147483647,
        "201419220": 2147483647,
        "201436056": 4294967295,
        "201436057": 2147483647,
        "201436059": 2147450879,
        "201436060": 2147450879,
        "201436061": 2147483647,
        "201436062": 4294967295,
        "201436064": 4294967295,
        "201436067": 4294967295,
        "201436068": 4294967295,
        "201436069": 4294967295,
        "201436070": 4294967295,
        "201436071": 2147483647,
        "201436072": 4294967295,
        "201436073": 4294967295,
        "201436074": 4294967295,
        "201436076": 4294967295,
        "201436160": 4294967295,
        "201436161": 4294967295,
        "201436162": 4294967295,
        "201436163": 4294967295,
        "201436166": 4294967295,
        "201436167": 4294967295,
        "201436168": 4294967295,
        "201440882": 4294967295,
        "201441128": 4294967295,
        "201441129": 4294967295,
        "201435987": 2147418110,
        "201435988": 536616958,
        "201435990": 4294901758,
        "201435996": 2147450879,
        "201436001": 4294901758,
        "201436065": 2147434495,
        "201436066": 2147483647,
        "201436175": 1073643516,
        "201436409": 1073643518,
        "201436410": 1073577982,
        "201436411": 1603829756,
        "201436412": 4294967295,
        "201436414": 1073643518,
        "201436415": 4294901758,
        "201436416": 524025856,
        "201436419": 4288675838,
        "201438212": 4294574079,
        "201439770": 2147385342,
        "201439790": 4294901758,
        "201439794": 1069055998,
        "201439795": 1073709055,
        "201439796": 1073692671,
        "201440361": 2147483644,
        "201440362": 2147418108,
        "201441347": 2147418110,
        "201441348": 2147450879,
        "201436155": 4294967295,
        "201436156": 4294967295,
        "201436325": 4294967295,
        "201436326": 4294967295,
        "201436327": 4294967295,
        "201436328": 4294967295,
        "201436329": 4294967295,
        "201436330": 4294967295,
        "201436332": 4294967295,
        "201436333": 4294967295,
        "201436334": 4294967295,
        "201436335": 4294967295,
        "201436336": 4294967295,
        "201438096": 4294967295,
        "201438084": 4294967295,
        "201438085": 4294967295,
        "201438086": 4294967295,
        "201438087": 4294967295,
        "201438088": 4294967295,
        "201438089": 4294967295,
        "201438090": 4294967295,
        "201438091": 4294967295,
        "201438092": 4294967295,
        "201438093": 4294967295,
        "201438094": 4294967295,
        "201438095": 4294967295,
        "201438100": 4294967295,
        "201438101": 4294967295,
        "201438102": 4294967295,
        "201438103": 4294967295,
        "201438104": 4294967295,
        "201438105": 4294967295,
        "201438106": 4294967295,
        "201438107": 4294967295,
        "201438108": 4294967295,
        "201438109": 4294967295,
        "201438110": 4294967295,
        "201438111": 4294967295,
        "201438115": 4294967295,
        "201438116": 4294967295,
        "201438117": 4294967295,
        "201438118": 4294967295,
        "201438119": 4294967295,
        "201438120": 4294967295,
        "201438121": 4294967295,
        "201438122": 4294967295,
        "201438123": 4294967295,
        "201438124": 4294967295,
        "201438125": 4294967295,
        "201438126": 4294967295,
        "201438204": 4294967295,
        "201438205": 4294967295,
        "201441355": 4294967295,
        "201443345": 4294967295,
        "201443346": 4294967295,
        "201443347": 4294967295,
        "201443370": 4294967295,
        "201443371": 4294967295,
        "201443372": 4294967295,
        "201443374": 4294967295,
        "201457771": 4294967295,
        "201457772": 4294967295,
        "201457773": 4294967295,
        "201457775": 4294967295,
        "201457778": 4294967295,
        "201457779": 4294967295,
        "201457781": 4294967295,
        "201457783": 4294967295,
        "201457915": 4294967295,
        "201457916": 4294967295,
        "201458209": 4294967295,
        "201504707": 4294967295,
        "201504708": 4294967295,
        "201504709": 4294967295,
        "201504710": 4294967295,
        "201504711": 4294967295,
        "201504712": 4294967295,
        "201504713": 4294967295,
        "201504714": 4294967295,
        "201504715": 4294967295,
        "201504716": 4294967295,
        "201504717": 4294967295,
        "201504718": 4294967295,
        "201504719": 4294967295,
        "201504720": 4294967295,
        "201504721": 4294967295,
        "201504722": 4294967295,
        "201438139": 2147483647,
        "201438141": 4294967295,
        "201438143": 2147483647,
        "201438144": 4294967295,
        "201438145": 4294967295,
        "201438147": 4294967295,
        "201440883": 2147483647,
        "201440884": 2147483647,
        "201440885": 4294967295,
        "201440990": 4294967295,
        "201440991": 4294967295,
        "201441363": 4294967295,
        "201443375": 4294967295,
        "201443376": 4294967295,
        "201443383": 4294967295,
        "201438258": 4294967295,
        "201438259": 4294967295,
        "201438260": 4294967295,
        "201438261": 4294967295,
        "201438262": 4294967295,
        "201438263": 4294967295,
        "201438266": 4294967295,
        "201438267": 4294967295,
        "201439728": 4294967295,
        "201441368": 4294967295,
        "201441369": 4294967295,
        "201441370": 4294967295,
        "201438257": 4294967295,
        "201438264": 4294967295,
        "201438265": 4294967295,
        "201439727": 4294967295,
        "201439729": 4294967295,
        "201439730": 4294967295,
        "201439731": 4294967295,
        "201439768": 4294967295,
        "201439769": 4294967295,
        "201439776": 4294967295,
        "201439777": 4294967295,
        "201441357": 4294967295,
        "201441358": 4294967295,
        "201441359": 4294967295,
        "201441360": 4294967295,
        "201441362": 4294967295,
        "201441364": 4294967295,
        "201441365": 4294967295,
        "201441366": 4294967295,
        "201441367": 4294967295,
        "201464432": 4294967295,
        "201438206": 4294967295,
        "201438207": 4294967295,
        "201439767": 4294967295,
        "201440819": 4294967295,
        "201443348": 4294967295,
        "201443349": 4294967295,
        "201443350": 4294967295,
        "201443351": 4294967295,
        "201443373": 4294967295,
        "201457776": 4294967295,
        "201457780": 4294967295,
        "201457782": 4294967295,
        "201457784": 4294967295,
        "201457785": 4294967295,
        "201457909": 4294967295,
        "201457910": 4294967295,
        "201504723": 4294967295,
        "201504724": 4294967295,
        "201504725": 4294967295,
        "201504726": 4294967295,
        "201504727": 4294967295,
        "201504728": 4294967295,
        "201504729": 4294967295,
        "201504730": 4294967295,
        "201504731": 4294967295,
        "201504732": 4294967295,
        "201504733": 4294967295,
        "201504734": 4294967295,
        "201504735": 4294967295,
        "201504736": 4294967295,
        "201504737": 4294967295,
        "201504738": 4294967295,
        "201504739": 4294967295,
        "201504740": 4294967295,
        "201504741": 4294967295,
        "201504742": 4294967295,
        "201504743": 4294967295,
        "201504744": 4294967295,
        "201504745": 4294967295,
        "201504746": 4294967295,
        "201504747": 4294967295,
        "201504748": 4294967295,
        "201504749": 4294967295,
        "201504750": 4294967295,
        "201504751": 4294967295,
        "201504752": 4294967295,
        "201504753": 4294967295,
        "201504754": 4294967295,
        "201504755": 4294967295,
        "201504756": 4294967295,
        "201507000": 4294967295,
        "201500520": 4294967295,
        "201500521": 4294967295,
        "201500522": 4294967295,
        "201500523": 4294967295,
        "201500524": 4294967295,
        "201500525": 4294967295,
        "201500526": 4294967295,
        "201500527": 4294967295,
        "201500528": 4294967295,
        "201500529": 4294967295,
        "201500530": 4294967295,
        "201500531": 4294967295,
        "201500532": 4294967295,
        "201500533": 4294967295
    }
}