{
    "DJKOCCJCPFJ": {
        "209797198": 4294967294,
        "209797199": 3221225472,
        "209797228": 4294967295,
        "209797233": 3758096384,
        "209797299": 4294967295,
        "209798218": 4294967295,
        "209799720": 4294967295,
        "209799721": 4294967295,
        "209799722": 4294967295,
        "209799717": 4294967295,
        "209799718": 4294967295,
        "209799719": 4294967295,
        "209797261": 4294967295,
        "209797262": 4294967295,
        "209797263": 4294967295,
        "209797264": 4294967295,
        "209797243": 4294967295,
        "209797265": 4227858432,
        "209797266": 4278190080,
        "209797267": 4278255104,
        "209797268": 4261412864,
        "209797269": 4294967295,
        "209797270": 4294967295,
        "209797271": 4294967295,
        "209797272": 4294967295,
        "209797273": 4294967295,
        "209797274": 4294967295,
        "209797275": 4294967295,
        "209797276": 4294967295,
        "209797277": 4294967295,
        "209797278": 4294967295,
        "209797279": 4294967295,
        "209797222": 4294967295,
        "209797223": 4294967295,
        "209797224": 4294967295,
        "209797225": 4294967295,
        "209797226": 4294967295,
        "209797227": 4294967295,
        "209797230": 4294967295,
        "209797248": 4294967295,
        "209801438": 4294967295,
        "209797221": 4294967294,
        "209797242": 4294967295,
        "209797280": 4279107584,
        "209797281": 4160749568,
        "209797282": 4294967295,
        "209797283": 4294967295,
        "209797284": 4294967295,
        "209797285": 4294967295,
        "209797286": 4294967295,
        "209797288": 4294967295,
        "209797289": 4294967295,
        "209797219": 4294967295,
        "209797220": 4294967295,
        "209797295": 4294836224,
        "209797296": 4294967295,
        "209797200": 4227858432,
        "209797232": 3758096384,
        "209797201": 4236115968,
        "209797202": 4227858432,
        "209797298": 3758096384,
        "209797234": 4294967295,
        "209797297": 3758096384,
        "209797300": 4294967295,
        "209797321": 3221225472,
        "209797326": 4160749568,
        "209797332": 4026531840,
        "209797343": 3221225472,
        "209797362": 4160749568,
        "209797363": 3221225472,
        "209797381": 4294508540,
        "209797414": 2147483648,
        "209797506": 4026531840,
        "209799253": 3221225472,
        "209797498": 3758112768,
        "209797531": 3758096384,
        "209799247": 4229856382,
        "209799248": 4290903811,
        "209799249": 4294967295,
        "209799250": 4294967295,
        "209799251": 4026531840,
        "209799252": 4026531840,
        "209800204": 4162744382,
        "209800213": 4026531840,
        "209800921": 2147483648,
        "209797536": 4294967295,
        "209797537": 3758096384,
        "209797539": 4294967295,
        "209797540": 4294967295,
        "209797541": 4294967295,
        "209797542": 4294967295,
        "209797558": 3758096384,
        "209797561": 3221225472,
        "209797562": 4026517503,
        "209797563": 4294967295,
        "209797564": 2147483648,
        "209797555": 4294967295,
        "209797565": 3472883712,
        "209797586": 3221225472,
        "209797543": 4026531840,
        "209797544": 4231950463,
        "209797545": 3758096384,
        "209797546": 4294967295,
        "209797547": 4294967295,
        "209797550": 3221225472,
        "209797556": 4294967295,
        "209797559": 3758096384,
        "209797566": 4294967295,
        "209797567": 4278190080,
        "209797568": 4294967295,
        "209797569": 4294967295,
        "209797570": 4294180803,
        "209797582": 4160749568,
        "209797585": 4160749568,
        "209797588": 4055891968,
        "209797589": 4227858432,
        "209797548": 3758096384,
        "209797549": 2147483648,
        "209797554": 3758096384,
        "209797557": 3758096384,
        "209797571": 3221225472,
        "209797572": 4292935648,
        "209797573": 4026531840,
        "209797587": 3758112768,
        "209797560": 3758096384,
        "209797574": 3758096384,
        "209797575": 4160749568,
        "209797576": 4227858432,
        "209797577": 4294967295,
        "209797590": 3758096384,
        "209797591": 3221225472,
        "209797592": 4169007104,
        "209797593": 3758096384,
        "209798293": 4294836224,
        "209798294": 4294967295,
        "209799992": 4160749568,
        "209797553": 3221225472,
        "209797578": 4227858432,
        "209797579": 4294967295,
        "209797533": 3758096384,
        "209797535": 4026556416,
        "209797552": 4292870144,
        "209797580": 3758096384,
        "209797581": 4294967295,
        "209797583": 3758112768,
        "209797584": 3758096384,
        "209797598": 4294967295,
        "209797600": 3221225472,
        "209797601": 4294967295,
        "209797602": 3758096384,
        "209797603": 4294967295,
        "209797604": 4294967295,
        "209797605": 4294967295,
        "209797606": 4294967295,
        "209797607": 4294967295,
        "209797608": 4294967295,
        "209797610": 4041211904,
        "209797613": 4160749568,
        "209797615": 3758096384,
        "209797616": 4160749568,
        "209797617": 4026531840,
        "209797599": 4227858432,
        "209797609": 4026531840,
        "209797611": 4160749568,
        "209797619": 3221225472,
        "209797620": 4160749568,
        "209797621": 3221225472,
        "209797622": 4160749568,
        "209798296": 3758096384,
        "209797624": 2147483648,
        "209797625": 3221225472,
        "209797628": 4227858432,
        "209797629": 3221225472,
        "209797630": 3221225472,
        "209797631": 4261412864,
        "209797632": 3221225472,
        "209797633": 4227858432,
        "209797644": 4294967295,
        "209797645": 4160749568,
        "209797647": 3758112768,
        "209800014": 2147483648
    },
    "GDOOIMJAAFO": [
        {
            "PHIJIGJJMMK": "Tag_2",
            "HHCOOOEFLDE": [
                209797198,
                209797199,
                209797228,
                209797233,
                209797299,
                209798218,
                209799720,
                209799721,
                209799722,
                209799717,
                209799718,
                209799719,
                209797261,
                209797262,
                209797263,
                209797264,
                209797243,
                209797265,
                209797266,
                209797267,
                209797268,
                209797269,
                209797270,
                209797271,
                209797272,
                209797273,
                209797274,
                209797275,
                209797276,
                209797277,
                209797278,
                209797279,
                209797222,
                209797223,
                209797224,
                209797225,
                209797226,
                209797227,
                209797230,
                209797248,
                209801438,
                209797221,
                209797242,
                209797280,
                209797281,
                209797282,
                209797283,
                209797284,
                209797285,
                209797286,
                209797288,
                209797289,
                209797219,
                209797220,
                209797295,
                209797296,
                209797200,
                209797232,
                209797201,
                209797202,
                209797298,
                209797234,
                209797297,
                209797300,
                209797321,
                209797326,
                209797332,
                209797343,
                209797362,
                209797363,
                209797381,
                209797414,
                209797506,
                209799253,
                209797498,
                209797531,
                209799247,
                209799248,
                209799249,
                209799250,
                209799251,
                209799252,
                209800204,
                209800213,
                209797536,
                209797537,
                209797539,
                209797540,
                209797541,
                209797542,
                209797558,
                209797561,
                209797562,
                209797563,
                209797564,
                209797555,
                209797565,
                209797586,
                209797543,
                209797544,
                209797545,
                209797546,
                209797547,
                209797550,
                209797556,
                209797559,
                209797566,
                209797567,
                209797568,
                209797569,
                209797570,
                209797582,
                209797585,
                209797588,
                209797589,
                209797548,
                209797549,
                209797554,
                209797557,
                209797571,
                209797572,
                209797573,
                209797587,
                209797560,
                209797574,
                209797575,
                209797576,
                209797577,
                209797590,
                209797591,
                209797592,
                209797593,
                209798293,
                209798294,
                209799992,
                209797553,
                209797578,
                209797579,
                209797533,
                209797535,
                209797552,
                209797580,
                209797581,
                209797583,
                209797584,
                209797598,
                209797600,
                209797601,
                209797602,
                209797603,
                209797604,
                209797605,
                209797606,
                209797607,
                209797608,
                209797610,
                209797613,
                209797615,
                209797616,
                209797617,
                209797599,
                209797609,
                209797611,
                209797619,
                209797620,
                209797621,
                209797622,
                209798296,
                209797624,
                209797625,
                209797628,
                209797629,
                209797630,
                209797631,
                209797632,
                209797633,
                209797644,
                209797645,
                209797647,
                209797733,
                209800205,
                209800206,
                209800207,
                209800208,
                209800209,
                209800210,
                209800211,
                209800253,
                209800014
            ]
        }
    ],
    "KBICHCKGJMH": [
        209797198,
        209797199,
        209797228,
        209797233,
        209797299,
        209798218,
        209799720,
        209799721,
        209799717,
        209799718,
        209799719,
        209797261,
        209797262,
        209797263,
        209797264,
        209797243,
        209797265,
        209797266,
        209797267,
        209797268,
        209797269,
        209797270,
        209797271,
        209797272,
        209797273,
        209797274,
        209797275,
        209797276,
        209797277,
        209797278,
        209797279,
        209797222,
        209797223,
        209797224,
        209797225,
        209797226,
        209797227,
        209797230,
        209797248,
        209801438,
        209797221,
        209797242,
        209797280,
        209797281,
        209797282,
        209797283,
        209797284,
        209797285,
        209797286,
        209797288,
        209797289,
        209797219,
        209797220,
        209797295,
        209797296,
        209797200,
        209797232,
        209797201,
        209797202,
        209797298,
        209797297,
        209797300,
        209797321,
        209797343,
        209797362,
        209797363,
        209797381,
        209797414,
        209797498,
        209797531,
        209799247,
        209799248,
        209799249,
        209799250,
        209799251,
        209800204,
        209797536,
        209797539,
        209797540,
        209797541,
        209797542,
        209797558,
        209797561,
        209797562,
        209797555,
        209797565,
        209797586,
        209797544,
        209797546,
        209797547,
        209797550,
        209797559,
        209797566,
        209797567,
        209797568,
        209797569,
        209797570,
        209797585,
        209797588,
        209797589,
        209797557,
        209797571,
        209797573,
        209797587,
        209797560,
        209797574,
        209797575,
        209797576,
        209797577,
        209797591,
        209797592,
        209797593,
        209798293,
        209798294,
        209799992,
        209797553,
        209797578,
        209797579,
        209797533,
        209797552,
        209797580,
        209797581,
        209797583,
        209797584,
        209797600,
        209797601,
        209797602,
        209797603,
        209797604,
        209797605,
        209797606,
        209797607,
        209797608,
        209797610,
        209797615,
        209797616,
        209797617,
        209797599,
        209797609,
        209797619,
        209797621,
        209797622,
        209798296,
        209797624,
        209797629,
        209797630,
        209797632,
        209797645,
        209797647,
        209797733,
        209800206,
        209800207,
        209800208,
        209800209,
        209800210,
        209800211,
        209800014
    ]
}