{
  "NOKKDDHKGAK": "Char_Skill_33037",
  "LBJBMKBADGI": {
    "-2060930438": {
      "$type": "JMNPJNKIBNE",
      "CIBLLGMLODF": 6
    },
    "476224977": {
      "$type": "GBMLNFDAKNE",
      "JNMCHAGDLOL": "Element"
    }
  }
}