{
    "OANBCHEEDGM": [
        {
            "name": "Character_Collei_Q_Normal",
            "IJBCNBKGAIH": [
                {
                    "MKLOOPFFBDE": 0.44999998807907104,
                    "actionGroups": [
                        {
                            "actions": [
                                {
                                    "$type": "JPPGHLKBJCD",
                                    "HGDMIFNLEIE": {
                                        "target": "Actor"
                                    }
                                },
                                {
                                    "$type": "KDDAKGJLFBK",
                                    "HGDMIFNLEIE": {
                                        "target": "Actor"
                                    },
                                    "effectName": "Eff_Gcg_Common_ElementalBurst_NormalCharge",
                                    "DNMNFLAKEIK": "",
                                    "OCPKMMCKEFI": "",
                                    "DOBFAJEFGJK": {
                                        "$type": "NHFGCELPGLG"
                                    }
                                },
                                {
                                    "$type": "PNACIFJDCHH",
                                    "HGDMIFNLEIE": {
                                        "target": "Actor"
                                    },
                                    "eventName": {
                                        "text": "Play_vfx_GCG_Avatar_Collei_elementalBurst_BS_Normal"
                                    }
                                }
                            ]
                        }
                    ]
                },
                {
                    "actionGroups": [
                        {
                            "actions": [
                                {
                                    "$type": "CBACAOLONED",
                                    "effectName": "Eff_Gcg_Avatar_Collei_ElementalBurst",
                                    "FEAAPKPGKBJ": true,
                                    "AEMPMONNEFG": true,
                                    "IEPLHECHOBL": {
                                        "target": "Actor"
                                    },
                                    "IKLKLANOPNF": {
                                        "target": "MainTarget"
                                    },
                                    "DOBFAJEFGJK": {
                                        "$type": "JKOCKABMLFJ",
                                        "HGDMIFNLEIE": {
                                            "target": "MainTarget"
                                        }
                                    },
                                    "IKHFOEDAPLD": "Eff_Gcg_Motion_Avatar_Collei_ElementBurst",
                                    "ACBCNMNLCBP": "",
                                    "IGLKFGMLAHF": [
                                        {
                                            "$type": "AIOGLPPGGCJ",
                                            "AGMPHOHPGOI": "OnHit"
                                        }
                                    ]
                                }
                            ]
                        }
                    ]
                }
            ],
            "NPMNMEDDCFK": [
                {
                    "MKLOOPFFBDE": 0.5,
                    "actionGroups": [
                        {
                            "actions": [
                                {
                                    "$type": "KDDAKGJLFBK",
                                    "HGDMIFNLEIE": {
                                        "target": "MainTarget"
                                    },
                                    "effectName": "Eff_Gcg_Avatar_Collei_ElementalBurst_Hit",
                                    "DNMNFLAKEIK": "",
                                    "OCPKMMCKEFI": "",
                                    "DOBFAJEFGJK": {
                                        "$type": "JKOCKABMLFJ",
                                        "HGDMIFNLEIE": {
                                            "target": "Actor"
                                        }
                                    }
                                },
                                {
                                    "$type": "KCJMJDNJKHG",
                                    "HGDMIFNLEIE": {
                                        "target": "ContextTarget"
                                    },
                                    "EHHKPGDAFED": "Common_ShakeScreen_Test_E"
                                },
                                {
                                    "$type": "CADCOLGLCHI",
                                    "IKHFOEDAPLD": "GcgMotion_Hit04_05",
                                    "ACBCNMNLCBP": "",
                                    "MDPEAGPLHME": {
                                        "target": "ContextTarget"
                                    },
                                    "HGDMIFNLEIE": {
                                        "target": "Actor"
                                    },
                                    "EPCNBFFJPKA": true
                                }
                            ]
                        }
                    ]
                },
                {
                    "actionGroups": [
                        {
                            "actions": [
                                {
                                    "$type": "JPPGHLKBJCD",
                                    "HGDMIFNLEIE": {
                                        "target": "Actor"
                                    },
                                    "PHMPBIOIFCK": true
                                }
                            ]
                        }
                    ]
                }
            ]
        }
    ]
}