{
    "id": 100,
    "stageMatureEvents": [
        "Play_Amb_Dungeon_ElemDungeon_Wind"
    ],
    "stageExitEvents": [
        "Stop_Amb_Dungeon_ElemDungeon_Wind",
        "State_Music_NonCombat"
    ],
    "stateValue": "State_Silence",
    "DPELNMPOPLL": {
        "text": "Play_Music_Dungeon"
    },
    "MGCJFFOOMCI": {
        "text": "Stop_Music_Dungeon"
    }
}