{
    "Level_Xm_Alhaitham_01_03_Inside_Ve": {
        "$type": "JBPCHDBBCMG",
        "HLGKOAGKFBP": "Level_Xm_Alhaitham_01_03_Inside_Ve"
    },
    "Level_Xm_Alhaitham_01_Waterfall_Hall_Inside_Ve": {
        "$type": "JBPCHDBBCMG",
        "HLGKOAGKFBP": "Level_Xm_Alhaitham_01_Waterfall_Hall_Inside_Ve"
    }
}