{
    "DJKOCCJCPFJ": {
        "209757607": 2147483648,
        "209739517": 4026531840,
        "209739518": 4026531840,
        "209777112": 2147483648,
        "209777216": 4227858432,
        "209801547": 2164195839,
        "209777194": 4278255360,
        "209801717": 4261412864,
        "209777210": 2147483648,
        "209777106": 33424384,
        "209777107": 4294967295,
        "209801625": 67044351
    },
    "GDOOIMJAAFO": [
        {
            "PHIJIGJJMMK": "Tag_2",
            "HHCOOOEFLDE": [
                209721721,
                209721740,
                209721741,
                209721745,
                209721749,
                209721750,
                209729232,
                209729233,
                209729386,
                209741019,
                209741020,
                209744671,
                209744673,
                209744674,
                209744602,
                209744605,
                209744607,
                209744669,
                209744670,
                209744672,
                209763790,
                209763791,
                209763792,
                209779756,
                209799551,
                209800187,
                209800188,
                209739631,
                209739632,
                209739639,
                209743550,
                209744666,
                209744675,
                209744780,
                209763744,
                209763789,
                209763877,
                209793868,
                209757607,
                209763886,
                209781268,
                209781269,
                209786227,
                209786228,
                209786275,
                209786277,
                209786280,
                209786281,
                209793872,
                209794224,
                209794225,
                209794226,
                209794227,
                209794228,
                209757668,
                209757669,
                209801265,
                209801266,
                209739517,
                209739518,
                209739527,
                209739529,
                209777103,
                209777105,
                209777112,
                209777215,
                209777216,
                209721768,
                209733019,
                209733027,
                209733032,
                209733034,
                209733036,
                209734432,
                209739512,
                209739515,
                209741033,
                209741036,
                209741037,
                209747504,
                209777183,
                209733042,
                209733043,
                209733044,
                209733045,
                209733046,
                209733047,
                209733048,
                209733049,
                209733050,
                209733051,
                209733052,
                209734433,
                209777187,
                209777188,
                209777189,
                209777676,
                209798743,
                209801538,
                209799257,
                209799258,
                209800189,
                209801547,
                209733063,
                209733074,
                209777190,
                209777191,
                209777192,
                209777193,
                209777194,
                209777195,
                209777196,
                209777197,
                209777198,
                209777199,
                209777200,
                209777203,
                209777204,
                209777205,
                209777206,
                209777208,
                209777679,
                209777681,
                209801717,
                209801718,
                209777209,
                209777210,
                209777211,
                209777212,
                209777213,
                209777214,
                209777709,
                209777217,
                209777218,
                209777219,
                209777220,
                209777221,
                209777222,
                209777682,
                209777708,
                209729532,
                209777106,
                209777107,
                209801625,
                209801626,
                209800015
            ]
        }
    ],
    "KBICHCKGJMH": [
        209721721,
        209721740,
        209721741,
        209721745,
        209721749,
        209721750,
        209729232,
        209729233,
        209729386,
        209741019,
        209741020,
        209744671,
        209744673,
        209744674,
        209744602,
        209744605,
        209744607,
        209744669,
        209744670,
        209744672,
        209763790,
        209763791,
        209763792,
        209779756,
        209799551,
        209800187,
        209800188,
        209739631,
        209739632,
        209739639,
        209743550,
        209744666,
        209744675,
        209744780,
        209763744,
        209763789,
        209763877,
        209793868,
        209757607,
        209763886,
        209781268,
        209781269,
        209786227,
        209786228,
        209786275,
        209786277,
        209786280,
        209786281,
        209793872,
        209794224,
        209794225,
        209794226,
        209794227,
        209794228,
        209757668,
        209757669,
        209801265,
        209801266,
        209739517,
        209739518,
        209739527,
        209739529,
        209777103,
        209777105,
        209777112,
        209777215,
        209777216,
        209721768,
        209733019,
        209733027,
        209733032,
        209733034,
        209733036,
        209734432,
        209739512,
        209739515,
        209741033,
        209741036,
        209741037,
        209747504,
        209777183,
        209733042,
        209733043,
        209733044,
        209733045,
        209733046,
        209733047,
        209733048,
        209733049,
        209733050,
        209733051,
        209733052,
        209734433,
        209777187,
        209777188,
        209777189,
        209777676,
        209798743,
        209801538,
        209799257,
        209799258,
        209800189,
        209801547,
        209733063,
        209733074,
        209777190,
        209777191,
        209777192,
        209777193,
        209777194,
        209777195,
        209777196,
        209777197,
        209777198,
        209777199,
        209777200,
        209777203,
        209777204,
        209777205,
        209777206,
        209777208,
        209777679,
        209777681,
        209801717,
        209801718,
        209777209,
        209777210,
        209777211,
        209777212,
        209777213,
        209777214,
        209777709,
        209777217,
        209777218,
        209777219,
        209777220,
        209777221,
        209777222,
        209777682,
        209777708,
        209729532,
        209777106,
        209777107,
        209801625,
        209801626,
        209800015
    ]
}