{
    "polygons": [
        {
            "MIHHDNIMODI": 204000,
            "min": {
                "x": 11.899999618530273,
                "y": 41.70000076293945,
                "z": 79.5
            }
        },
        {
            "MIHHDNIMODI": 204001,
            "min": {
                "x": 11.899999618530273,
                "y": 41.70000076293945,
                "z": 79.5
            },
            "max": {
                "y": 90.0
            }
        },
        {
            "MIHHDNIMODI": 204002,
            "min": {
                "x": 11.899999618530273,
                "y": 41.70000076293945,
                "z": 79.5
            },
            "max": {
                "y": 180.0
            }
        },
        {
            "MIHHDNIMODI": 204003,
            "min": {
                "x": 11.899999618530273,
                "y": 41.70000076293945,
                "z": 79.5
            },
            "max": {
                "y": 270.0
            }
        },
        {
            "MIHHDNIMODI": 204010,
            "min": {
                "x": 11.899999618530273,
                "y": 41.70000076293945,
                "z": 79.5
            },
            "max": {
                "x": 179.99989318847656
            }
        },
        {
            "MIHHDNIMODI": 204011,
            "min": {
                "x": 11.899999618530273,
                "y": 41.70000076293945,
                "z": 79.5
            },
            "max": {
                "x": 179.99989318847656,
                "y": 90.0
            }
        },
        {
            "MIHHDNIMODI": 204012,
            "min": {
                "x": 11.899999618530273,
                "y": 41.70000076293945,
                "z": 79.5
            },
            "max": {
                "x": 179.99989318847656,
                "y": 180.0
            }
        },
        {
            "MIHHDNIMODI": 204013,
            "min": {
                "x": 11.899999618530273,
                "y": 41.70000076293945,
                "z": 79.5
            },
            "max": {
                "x": 179.99989318847656,
                "y": 270.0
            }
        }
    ]
}