{
    "FIHGJJCKACO": 32005,
    "LPKJNHAMHHL": [
        {
            "HBJKFHBCOKG": 3200501,
            "NKNDDAOAJAF": [
                {
                    "minArea": {
                        "x": 360.8962097167969,
                        "y": 147.04356384277344,
                        "z": 2278.726318359375
                    },
                    "maxArea": {
                        "x": 482.3651123046875,
                        "y": 204.96688842773438,
                        "z": 2358.76806640625
                    },
                    "roadPoints": [
                        {
                            "x": 391.0120544433594,
                            "y": 147.04356384277344,
                            "z": 2287.706298828125
                        },
                        {
                            "x": 375.841552734375,
                            "y": 147.04356384277344,
                            "z": 2293.740478515625
                        },
                        {
                            "x": 360.8962097167969,
                            "y": 147.04356384277344,
                            "z": 2310.51708984375
                        },
                        {
                            "x": 367.8262634277344,
                            "y": 147.04356384277344,
                            "z": 2343.947265625
                        },
                        {
                            "x": 402.9930725097656,
                            "y": 147.04356384277344,
                            "z": 2358.76806640625
                        },
                        {
                            "x": 449.5661926269531,
                            "y": 147.04356384277344,
                            "z": 2341.262451171875
                        },
                        {
                            "x": 459.13336181640625,
                            "y": 147.04356384277344,
                            "z": 2349.86669921875
                        },
                        {
                            "x": 482.3651123046875,
                            "y": 147.04356384277344,
                            "z": 2342.004150390625
                        },
                        {
                            "x": 470.8009338378906,
                            "y": 147.04356384277344,
                            "z": 2314.368408203125
                        },
                        {
                            "x": 462.5108642578125,
                            "y": 147.04356384277344,
                            "z": 2309.49462890625
                        },
                        {
                            "x": 454.18255615234375,
                            "y": 147.04356384277344,
                            "z": 2300.765869140625
                        },
                        {
                            "x": 410.94427490234375,
                            "y": 147.04356384277344,
                            "z": 2315.469970703125
                        },
                        {
                            "x": 391.49237060546875,
                            "y": 147.04356384277344,
                            "z": 2278.726318359375
                        }
                    ]
                },
                {
                    "minArea": {
                        "x": 377.60003662109375,
                        "y": 49.94664001464844,
                        "z": 2295.26025390625
                    },
                    "maxArea": {
                        "x": 672.4885864257812,
                        "y": 207.7742919921875,
                        "z": 2627.90478515625
                    },
                    "roadPoints": [
                        {
                            "x": 471.2655334472656,
                            "y": 49.94664001464844,
                            "z": 2295.26025390625
                        },
                        {
                            "x": 517.6399536132812,
                            "y": 49.94664001464844,
                            "z": 2313.09423828125
                        },
                        {
                            "x": 548.8500366210938,
                            "y": 49.94664001464844,
                            "z": 2344.589111328125
                        },
                        {
                            "x": 576.8366088867188,
                            "y": 49.94664001464844,
                            "z": 2410.950439453125
                        },
                        {
                            "x": 615.314208984375,
                            "y": 49.94664001464844,
                            "z": 2436.607421875
                        },
                        {
                            "x": 649.254638671875,
                            "y": 49.94664001464844,
                            "z": 2507.053466796875
                        },
                        {
                            "x": 666.8878173828125,
                            "y": 49.94664001464844,
                            "z": 2539.759033203125
                        },
                        {
                            "x": 672.4885864257812,
                            "y": 49.94664001464844,
                            "z": 2558.82373046875
                        },
                        {
                            "x": 665.6558837890625,
                            "y": 49.94664001464844,
                            "z": 2569.48779296875
                        },
                        {
                            "x": 592.1482543945312,
                            "y": 49.94664001464844,
                            "z": 2619.046875
                        },
                        {
                            "x": 545.4034423828125,
                            "y": 49.94664001464844,
                            "z": 2627.90478515625
                        },
                        {
                            "x": 444.89520263671875,
                            "y": 49.94664001464844,
                            "z": 2603.509765625
                        },
                        {
                            "x": 387.9566650390625,
                            "y": 49.94664001464844,
                            "z": 2543.29052734375
                        },
                        {
                            "x": 377.60003662109375,
                            "y": 49.94664001464844,
                            "z": 2508.953125
                        },
                        {
                            "x": 389.49896240234375,
                            "y": 49.94664001464844,
                            "z": 2435.4765625
                        },
                        {
                            "x": 391.8210754394531,
                            "y": 49.94664001464844,
                            "z": 2394.874267578125
                        },
                        {
                            "x": 408.5698547363281,
                            "y": 49.94664001464844,
                            "z": 2358.89306640625
                        },
                        {
                            "x": 426.9680480957031,
                            "y": 49.94664001464844,
                            "z": 2320.774169921875
                        },
                        {
                            "x": 464.55462646484375,
                            "y": 49.94664001464844,
                            "z": 2309.964111328125
                        }
                    ]
                },
                {
                    "minArea": {
                        "x": 456.5111083984375,
                        "y": 188.4520721435547,
                        "z": 2421.595703125
                    },
                    "maxArea": {
                        "x": 606.7852783203125,
                        "y": 254.88182067871094,
                        "z": 2582.605712890625
                    },
                    "roadPoints": [
                        {
                            "x": 589.7758178710938,
                            "y": 188.4520721435547,
                            "z": 2578.772705078125
                        },
                        {
                            "x": 606.7852783203125,
                            "y": 188.4520721435547,
                            "z": 2550.61376953125
                        },
                        {
                            "x": 583.43359375,
                            "y": 188.4520721435547,
                            "z": 2493.31640625
                        },
                        {
                            "x": 556.9945068359375,
                            "y": 188.4520721435547,
                            "z": 2421.595703125
                        },
                        {
                            "x": 482.5264587402344,
                            "y": 188.4520721435547,
                            "z": 2422.259521484375
                        },
                        {
                            "x": 456.5111083984375,
                            "y": 188.4520721435547,
                            "z": 2498.531494140625
                        },
                        {
                            "x": 463.1619873046875,
                            "y": 188.4520721435547,
                            "z": 2540.453369140625
                        },
                        {
                            "x": 516.369873046875,
                            "y": 188.4520721435547,
                            "z": 2532.10986328125
                        },
                        {
                            "x": 554.1611328125,
                            "y": 188.4520721435547,
                            "z": 2582.605712890625
                        }
                    ]
                }
            ],
            "HBGNAAKIPKI": [
                {
                    "pos": {
                        "x": 385.5267333984375,
                        "y": 207.83889770507812,
                        "z": 2320.400390625
                    },
                    "shape": {
                        "$type": "LHEGJLAGDIB",
                        "JAFBDKCDHCO": true,
                        "height": 20.0,
                        "radius": 25.0
                    }
                }
            ]
        }
    ],
    "minArea": {
        "x": 360.5267333984375,
        "y": 49.94664001464844,
        "z": 2278.72607421875
    },
    "maxArea": {
        "x": 672.488525390625,
        "y": 254.88182067871094,
        "z": 2627.90478515625
    }
}