{
    "common": {
        "effectAttachShape": {
            "$type": "CMIPFEGOJCH",
            "EJAEFCDBDFB": "EffectMesh"
        },
        "mass": 150.0,
        "height": 2.0999999046325684,
        "modelHeight": 1.899999976158142,
        "viewSize": 1.2000000476837158,
        "affectedByWorld": true,
        "checkInSurface": true,
        "scale": 1.2000000476837158,
        "useGrassDisplacement": true
    },
    "headControl": {
        "$type": "HLGPLMCNIFB",
        "useHeadControl": true,
        "BADCMJGBCHM": 75.0,
        "AIOGIMNHIGK": 30.0,
        "GDIAFJFLHCE": [
            "NormalIdle/Standby",
            "NormalMove/WalkForward",
            "NormalMove/WalkBack",
            "NormalMove/WalkRight",
            "NormalMove/WalkLeft",
            "NormalMove/Run",
            "Turn/TurnLeft",
            "Turn/TurnRight"
        ]
    },
    "model": {
        "bornEffect": "Eff_Monster_Common_Born",
        "attachEffect": ""
    },
    "dither": {
        "showDitherDuration": 1.0
    },
    "combat": {
        "property": {
            "endureType": "Monster_Grunt_Humanoid",
            "weight": 100.0
        },
        "beHit": {
            "hitBloodEffect": ""
        },
        "combatLock": {
            "lockShape": "CircleLockEnemy",
            "lockType": "Avatar&Monster_Lv4"
        },
        "die": {
            "hasAnimatorDie": true,
            "dieEndTime": 4.0,
            "dieForceDisappearTime": 15.0,
            "dieDisappearEffect": "",
            "useRagDoll": true,
            "ragDollDieEndTimeDelay": 15.0,
            "LDOHFFOEPPI": true,
            "BMOKGIFNILM": true,
            "PHCLLDNDFNG": true,
            "CHBAHMJGJBE": true,
            "OPPHENIKFJA": true,
            "CCNGAIMLPIJ": true
        },
        "animEvents": {
            "NormalAtk": {
                "attackPattern": {
                    "$type": "HBFCINNBDFD",
                    "triggerType": "TriggerNoRepeat",
                    "born": {
                        "$type": "KDEPFKAAHCG",
                        "offset": {
                            "HMHIOILIGBF": 0.0,
                            "DPPJGBOHAAL": 0.699999988079071,
                            "DDOAGBLBCEF": 0.5
                        }
                    },
                    "height": 1.5,
                    "NPLOANBGDOK": 90.0,
                    "DFMMIGEMOHH": 2.0
                },
                "attackInfo": {
                    "attackTag": "",
                    "attenuationTag": "",
                    "attenuationGroup": "default",
                    "attackProperty": {
                        "PCFAAPMOCGJ": 1.0,
                        "LCCBNOKMNFG": 0.0,
                        "bonusCritical": 100.0,
                        "strikeType": "Blunt",
                        "enBreak": 200.0,
                        "attackType": "Melee",
                        "FKGFPFNOJMN": 0.0
                    },
                    "hitPattern": {
                        "onHitEffectName": "default",
                        "hitImpulseType": "LV3",
                        "hitHaltTimeScale": 0.009999999776482582
                    },
                    "cameraShake": {
                        "shakeType": "HitVector",
                        "shakeRange": 0.15000000596046448,
                        "shakeTime": 0.11999999731779099,
                        "shakeDistance": 15.0,
                        "shakeDir": {
                            "z": 1.0
                        }
                    }
                }
            },
            "PowerStrike": {
                "attackPattern": {
                    "$type": "HBFCINNBDFD",
                    "triggerType": "TriggerNoRepeat",
                    "born": {
                        "$type": "KDEPFKAAHCG",
                        "offset": {
                            "HMHIOILIGBF": 0.0,
                            "DPPJGBOHAAL": 0.0,
                            "DDOAGBLBCEF": 0.5
                        }
                    },
                    "height": 1.5,
                    "NPLOANBGDOK": 90.0,
                    "DFMMIGEMOHH": 2.0
                },
                "attackInfo": {
                    "attackTag": "",
                    "attenuationTag": "",
                    "attenuationGroup": "default",
                    "attackProperty": {
                        "PCFAAPMOCGJ": 2.0,
                        "LCCBNOKMNFG": 0.0,
                        "bonusCritical": 100.0,
                        "strikeType": "Blunt",
                        "enBreak": 200.0,
                        "attackType": "Melee",
                        "FKGFPFNOJMN": 0.0
                    },
                    "hitPattern": {
                        "onHitEffectName": "default",
                        "hitImpulseType": "LV5"
                    },
                    "cameraShake": {
                        "shakeType": "CustomVector",
                        "shakeRange": 0.15000000596046448,
                        "shakeTime": 0.15000000596046448,
                        "shakeDir": {
                            "y": -1.0
                        }
                    }
                }
            }
        }
    },
    "equipController": {
        "sheathPoint": "",
        "attachPoints": {
            "equip01": "WeaponR",
            "equip02": "WeaponL"
        }
    },
    "abilities": [
        {
            "abilityID": "Alert",
            "abilityName": "Thoarder_Alert",
            "abilityOverride": "",
            "AIMADLAKBAH": true
        },
        {
            "abilityID": "SteerAttack",
            "abilityName": "Thoarder_MuscleMan_NoWeapon_SteerAttack",
            "abilityOverride": ""
        },
        {
            "abilityID": "SteerMove",
            "abilityName": "Thoarder_SteerMove",
            "abilityOverride": ""
        },
        {
            "abilityID": "SpecialsState_Weapon",
            "abilityName": "Thoarder_SpecialsState_Weapon",
            "abilityOverride": "",
            "AIMADLAKBAH": true
        }
    ],
    "stateLayers": {
        "defaultLayer": {
            "$type": "KFHJINNNDPN",
            "BOPIBFKFKCA": "",
            "stateIDs": {
                "NormalIdle": {
                    "$type": "MEECNDLIOBI",
                    "HKPCLGHBKFD": {
                        "Standby": [],
                        "Born": []
                    },
                    "KNOHBHKACHA": true,
                    "BAABNFCMKIO": true,
                    "ADPGACLPFHN": [
                        "DoSkill"
                    ]
                },
                "NormalMove": {
                    "$type": "MEECNDLIOBI",
                    "HKPCLGHBKFD": {
                        "WalkForward": [
                            "Audio_Monster_Thoarder_Normal_Male_Muscle_NoWeapon_Walk"
                        ],
                        "WalkBack": [
                            "Audio_Monster_Thoarder_Normal_Male_Muscle_NoWeapon_Walk"
                        ],
                        "WalkRight": [
                            "Audio_Monster_Thoarder_Normal_Male_Muscle_NoWeapon_Walk"
                        ],
                        "WalkLeft": [
                            "Audio_Monster_Thoarder_Normal_Male_Muscle_NoWeapon_Walk"
                        ],
                        "Run": [
                            "Audio_Monster_Thoarder_Normal_Male_Muscle_NoWeapon_Run"
                        ]
                    },
                    "KNOHBHKACHA": true,
                    "BAABNFCMKIO": true,
                    "ADPGACLPFHN": [
                        "DoSkill"
                    ],
                    "NPMGEMAFACP": true
                },
                "Turn": {
                    "$type": "MEECNDLIOBI",
                    "HKPCLGHBKFD": {
                        "TurnLeft": [
                            "Audio_Monster_Thoarder_Normal_Male_Muscle_NoWeapon_Walk"
                        ],
                        "TurnRight": [
                            "Audio_Monster_Thoarder_Normal_Male_Muscle_NoWeapon_Walk"
                        ]
                    },
                    "KNOHBHKACHA": true,
                    "BAABNFCMKIO": true,
                    "ADPGACLPFHN": [
                        "DoSkill"
                    ],
                    "NPMGEMAFACP": true
                },
                "BeHit": {
                    "$type": "MEECNDLIOBI",
                    "HKPCLGHBKFD": {
                        "Hit_L": [],
                        "Hit_H": [
                            "Audio_Monster_Thoarder_Normal_Male_Muscle_NoWeapon_Hit_H_NoVo"
                        ],
                        "DHit": []
                    },
                    "PJFELLIJONH": [
                        "BeHit"
                    ],
                    "ADPGACLPFHN": [
                        "DoSkill"
                    ]
                },
                "BeHitThrow": {
                    "$type": "MEECNDLIOBI",
                    "HKPCLGHBKFD": {
                        "HitThrow": [],
                        "HitThrowDrop": [],
                        "HitThrowToGround": [
                            "Audio_Monster_Thoarder_Normal_Male_Muscle_NoWeapon_HitThrowToGround_NoVo"
                        ]
                    },
                    "PJFELLIJONH": [
                        "BeHit",
                        "HitAir2HitDrop"
                    ],
                    "ADPGACLPFHN": [
                        "DoSkill"
                    ]
                },
                "Struggle": {
                    "$type": "MEECNDLIOBI",
                    "HKPCLGHBKFD": {
                        "Struggle": []
                    },
                    "PJFELLIJONH": [
                        "BeHit",
                        "HitAir2HitDrop"
                    ],
                    "ADPGACLPFHN": [
                        "DoSkill"
                    ]
                },
                "Die": {
                    "$type": "MEECNDLIOBI",
                    "HKPCLGHBKFD": {
                        "Die1": [
                            "Monster_Thoarder_MuscleMan_Die",
                            "Audio_Monster_Thoarder_Normal_Male_Muscle_NoWeapon_Die_NoVo"
                        ],
                        "Die2": [
                            "Monster_Thoarder_MuscleMan_Die",
                            "Audio_Monster_Thoarder_Normal_Male_Muscle_NoWeapon_Die_NoVo"
                        ],
                        "SwimDie": [],
                        "SwimDie_AS": [
                            "Monster_Thoarder_Common_SwimDie"
                        ]
                    }
                },
                "Die_RagDoll": {
                    "$type": "MEECNDLIOBI",
                    "HKPCLGHBKFD": {
                        "AirDie": [
                            "Monster_Thoarder_Common_AirDie",
                            "Audio_Monster_Thoarder_Normal_Male_Muscle_NoWeapon_Die_NoVo"
                        ]
                    },
                    "CKHCPGMBKGA": true
                },
                "Life_Alert": {
                    "$type": "MEECNDLIOBI",
                    "HKPCLGHBKFD": {
                        "Alert": [
                            "Audio_Monster_Thoarder_Normal_Male_Muscle_NoWeapon_Alert_NoVo"
                        ]
                    },
                    "ADPGACLPFHN": [
                        "BeHit",
                        "DoSkill"
                    ]
                },
                "Life_Warning": {
                    "$type": "MEECNDLIOBI",
                    "HKPCLGHBKFD": {
                        "Warning": [
                            "Monster_Undead01_Warning",
                            "Monster_Thoarder_Alert",
                            "Audio_Monster_Thoarder_Normal_Male_Muscle_NoWeapon_Alert_NoVo"
                        ],
                        "Alert_Armed": [
                            "Monster_Undead01_Warning",
                            "Monster_Thoarder_Alert",
                            "Audio_Monster_Thoarder_Normal_Male_Muscle_NoWeapon_Alert_NoVo"
                        ]
                    },
                    "ADPGACLPFHN": [
                        "BeHit",
                        "DoSkill"
                    ]
                },
                "NormalAtk": {
                    "$type": "MEECNDLIOBI",
                    "HKPCLGHBKFD": {
                        "NormalAtk": [
                            "Monster_Thoarder_MuscleMan_NoWeapon_NormalAtk",
                            "Audio_Monster_Thoarder_Normal_Male_Muscle_NoWeapon_NormalAtk_NoVo"
                        ],
                        "NormalAtk_2": [
                            "Audio_Monster_Thoarder_Normal_Male_Muscle_NoWeapon_NormalAtk_2_NoVo"
                        ],
                        "NormalAtk_3": [
                            "Monster_Thoarder_MuscleMan_NoWeapon_NormalAtk",
                            "Audio_Monster_Thoarder_Normal_Male_Muscle_NoWeapon_NormalAtk_2_NoVo"
                        ]
                    },
                    "PAKNCLFMOAC": 0.5,
                    "ADPGACLPFHN": [
                        "BeHit",
                        "DoSkill"
                    ]
                },
                "PowerStrike": {
                    "$type": "MEECNDLIOBI",
                    "HKPCLGHBKFD": {
                        "PowerStrike": [
                            "Monster_Thoarder_MuscleMan_NoWeapon_PowerStrike",
                            "Audio_Monster_Thoarder_Normal_Male_Muscle_NoWeapon_PowerStrike_NoVo"
                        ]
                    },
                    "PAKNCLFMOAC": 0.5,
                    "ADPGACLPFHN": [
                        "BeHit",
                        "DoSkill"
                    ]
                },
                "Chat": {
                    "$type": "MEECNDLIOBI",
                    "HKPCLGHBKFD": {
                        "Chat": []
                    },
                    "KNOHBHKACHA": true,
                    "ADPGACLPFHN": [
                        "BeHit",
                        "DoSkill"
                    ]
                },
                "ChatFree01": {
                    "$type": "MEECNDLIOBI",
                    "HKPCLGHBKFD": {
                        "ChatFree01": []
                    },
                    "KNOHBHKACHA": true,
                    "ADPGACLPFHN": [
                        "BeHit",
                        "DoSkill"
                    ]
                },
                "Laugh": {
                    "$type": "MEECNDLIOBI",
                    "HKPCLGHBKFD": {
                        "Laugh": []
                    },
                    "KNOHBHKACHA": true,
                    "ADPGACLPFHN": [
                        "BeHit",
                        "DoSkill"
                    ]
                },
                "LaughFree01": {
                    "$type": "MEECNDLIOBI",
                    "HKPCLGHBKFD": {
                        "LaughFree01": []
                    },
                    "KNOHBHKACHA": true,
                    "ADPGACLPFHN": [
                        "BeHit",
                        "DoSkill"
                    ]
                },
                "Mining": {
                    "$type": "MEECNDLIOBI",
                    "HKPCLGHBKFD": {
                        "Mining": []
                    },
                    "KNOHBHKACHA": true,
                    "ADPGACLPFHN": [
                        "BeHit",
                        "DoSkill"
                    ]
                },
                "MiningFree01": {
                    "$type": "MEECNDLIOBI",
                    "HKPCLGHBKFD": {
                        "MiningFree01": [
                            "Monster_Thoarder_MuscleMan_Mining_Sparkle",
                            "Audio_Monster_Thoarder_Normal_Male_Muscle_NoWeapon_Mining"
                        ]
                    },
                    "KNOHBHKACHA": true,
                    "ADPGACLPFHN": [
                        "BeHit",
                        "DoSkill"
                    ]
                }
            }
        }
    },
    "billboard": {
        "$type": "HFEGKLAIGGI",
        "IIKEHINGEME": "BillboardAttach",
        "offset": {
            "x": -0.05000000074505806
        },
        "GEKOGJAPMMH": "Character",
        "HECLHMINJII": 0.25,
        "DMHOOGGGDKG": true
    },
    "initialPoses": {
        "Default": {},
        "FixedPos": {
            "initialPoseID": 2,
            "initialPoseParams": {
                "boolParams": {
                    "FixedPos": "true"
                }
            }
        },
        "FixedPosArmed": {
            "initialPoseID": 3,
            "initialPoseParams": {
                "boolParams": {
                    "FixedPosArmed": "true"
                }
            }
        },
        "Armed": {
            "initialPoseID": 4,
            "initialPoseParams": {
                "boolParams": {
                    "Armed": "true"
                }
            }
        },
        "Chat": {
            "initialPoseID": 9006,
            "initialPoseParams": {
                "boolParams": {
                    "Chat": "true"
                }
            }
        },
        "Laugh": {
            "initialPoseID": 9009,
            "initialPoseParams": {
                "boolParams": {
                    "Laugh": "true"
                }
            }
        },
        "Mining": {
            "initialPoseID": 9101,
            "initialPoseParams": {
                "boolParams": {
                    "Mining01": "true"
                }
            }
        }
    },
    "aibeta": {
        "enable": true,
        "moveSetting": {
            "navMeshAgentName": "Undead01",
            "almostReachedDistanceRun": 1.5
        },
        "sensing": {
            "settings": {
                "DefaultSetting": {
                    "feelRange": 8.0
                },
                "HighAlert": {
                    "viewRange": 40.0,
                    "feelRange": 10.0
                },
                "LowAlert": {
                    "viewRange": 10.0
                },
                "Sleep": {
                    "viewRange": 0.0,
                    "feelRange": 3.0
                },
                "PartnerSensing": {
                    "viewRange": 50.0,
                    "viewPanoramic": true,
                    "feelRange": 40.0
                }
            },
            "templates": {
                "DefaultTemplate": {
                    "DefaultPoses": "DefaultSetting",
                    "9006": "LowAlert",
                    "9009": "LowAlert",
                    "9101": "LowAlert"
                },
                "HighAlertTemplate": {
                    "DefaultPoses": "HighAlert",
                    "9006": "DefaultSetting",
                    "9009": "DefaultSetting"
                },
                "PartnerSensingTemplate": {
                    "DefaultPoses": "PartnerSensing"
                }
            }
        },
        "neurons": {
            "DefaultSetting": [
                "HIT"
            ]
        },
        "threat": {
            "clearThreatByLostPath": true,
            "clearThreatTimerByDistance": 3.0,
            "viewAttenuation": [
                {
                    "x": 10.0,
                    "y": 2.0
                },
                {
                    "x": 15.0,
                    "y": 0.800000011920929
                },
                {
                    "x": 20.0,
                    "y": 0.5
                },
                {
                    "x": 25.0,
                    "y": 0.30000001192092896
                },
                {
                    "x": 30.0,
                    "y": 0.20000000298023224
                }
            ]
        },
        "defendArea": {},
        "profiling": {},
        "skillGroupCDConfigs": [
            {
                "skillGroupCDID": 1,
                "skillGroupCDTime": 2.0
            },
            {
                "skillGroupCDID": 2,
                "skillGroupCDTime": 2.0
            }
        ],
        "skills": {
            "101": {
                "name": "OnAlert",
                "skillType": "OnAlert",
                "faceTarget": true,
                "castCondition": {
                    "pose": [
                        1,
                        2,
                        9002,
                        9003,
                        9004,
                        9005,
                        9006,
                        9008,
                        9009,
                        9101
                    ]
                },
                "publicCDGroup": "",
                "ignoreGCD": true,
                "triggerGCD": false,
                "CLEPNIDJOLN": "",
                "stateIDs": [
                    "Life_Warning"
                ],
                "skillQueryingTime": 3.0,
                "flagTargetReachable": "10",
                "flagSelfOnTemplateCollider": "01",
                "flagSelfInZone": "10",
                "flagTargetInZone": "11"
            },
            "103": {
                "name": "OnAlert_Armed",
                "skillType": "OnAlert",
                "faceTarget": true,
                "castCondition": {
                    "pose": [
                        3,
                        4,
                        9007
                    ]
                },
                "publicCDGroup": "",
                "ignoreGCD": true,
                "triggerGCD": false,
                "CLEPNIDJOLN": "",
                "stateIDs": [
                    "Life_Warning"
                ],
                "skillQueryingTime": 3.0,
                "flagTargetReachable": "10",
                "flagSelfOnTemplateCollider": "01",
                "flagSelfInZone": "10",
                "flagTargetInZone": "11"
            },
            "201": {
                "name": "NormalAtk",
                "combatSkillType": "MeleeAttack",
                "priority": 2,
                "enableSkillPrepare": true,
                "castCondition": {
                    "pose": [
                        1001
                    ],
                    "pickRangeMax": 6.0,
                    "castRangeMax": 3.0
                },
                "cd": 3.5,
                "publicCDGroup": "",
                "skillGroupCDID": 1,
                "CLEPNIDJOLN": "",
                "stateIDs": [
                    "NormalAtk",
                    "PowerStrike"
                ],
                "flagTargetReachable": "10",
                "flagSelfOnTemplateCollider": "01",
                "flagSelfInZone": "10",
                "flagTargetInZone": "11"
            },
            "202": {
                "name": "PowerStrike",
                "combatSkillType": "MeleeAttack",
                "enableSkillPrepare": true,
                "castCondition": {
                    "pose": [
                        1001
                    ],
                    "pickRangeMax": 6.0,
                    "castRangeMax": 4.0
                },
                "cd": 5.0,
                "cdUpperRange": 15.0,
                "publicCDGroup": "",
                "skillGroupCDID": 1,
                "CLEPNIDJOLN": "",
                "stateIDs": [
                    "PowerStrike"
                ],
                "flagTargetReachable": "10",
                "flagSelfOnTemplateCollider": "01",
                "flagSelfInZone": "10",
                "flagTargetInZone": "11"
            },
            "90061": {
                "name": "ChatFree01",
                "skillType": "Free",
                "castCondition": {
                    "pose": [
                        9006
                    ]
                },
                "cd": 3.0,
                "cdUpperRange": 5.0,
                "initialCD": 1.0,
                "initialCDUpperRange": 5.0,
                "publicCDGroup": "",
                "CLEPNIDJOLN": "",
                "stateIDs": [
                    "ChatFree01"
                ],
                "flagTargetReachable": "10",
                "flagSelfOnTemplateCollider": "01",
                "flagSelfInZone": "10",
                "flagTargetInZone": "11"
            },
            "90091": {
                "name": "LaughFree01",
                "skillType": "Free",
                "castCondition": {
                    "pose": [
                        9009
                    ]
                },
                "cd": 6.0,
                "cdUpperRange": 5.0,
                "initialCD": 1.0,
                "initialCDUpperRange": 5.0,
                "publicCDGroup": "",
                "CLEPNIDJOLN": "",
                "stateIDs": [
                    "LaughFree01"
                ],
                "flagTargetReachable": "10",
                "flagSelfOnTemplateCollider": "01",
                "flagSelfInZone": "10",
                "flagTargetInZone": "11"
            },
            "91011": {
                "name": "MiningFree01",
                "skillType": "Free",
                "castCondition": {
                    "pose": [
                        9101
                    ]
                },
                "cdUpperRange": 1.2000000476837158,
                "initialCD": 1.0,
                "publicCDGroup": "",
                "ignoreGCD": true,
                "CLEPNIDJOLN": "",
                "stateIDs": [
                    "MiningFree01"
                ],
                "skillQueryingTime": 0.5,
                "flagTargetReachable": "10",
                "flagSelfOnTemplateCollider": "01",
                "flagSelfInZone": "10",
                "flagTargetInZone": "11"
            }
        },
        "skillGCD": 2.0,
        "combatFixedMoveTactic": [
            {
                "$type": "KIMPOLMEFNK",
                "enable": true,
                "EGJMGEHLDOL": {
                    "pose": [
                        1001,
                        1002
                    ]
                },
                "NGIEOIGFFDH": {
                    "rangeMax": 5.0,
                    "ODLFCBFIAEG": {
                        "MKGIHLDDOPO": 0.0,
                        "AIMKHLAPJGH": 0.0,
                        "LJGPLFGCHJM": 5.0,
                        "ODFJMMCNEHI": 5.0
                    },
                    "EOBOHLNDGNC": "1111",
                    "JFAHEKLBENF": "1111",
                    "FCFLCFFJKLO": ""
                }
            },
            {
                "$type": "AIFAIEAELGP",
                "enable": true,
                "EGJMGEHLDOL": {
                    "pose": [
                        1,
                        4
                    ]
                }
            },
            {
                "$type": "HLPBLIEBJLM",
                "enable": true,
                "EGJMGEHLDOL": {
                    "pose": [
                        1001,
                        1002
                    ]
                },
                "NGIEOIGFFDH": {
                    "GPKNKJPPCOM": 14.0,
                    "NDCHJGOOLCF": 50.0,
                    "FDNLEPNLLBP": 7.0,
                    "DANCMNIMNAM": 7.0,
                    "FCFLCFFJKLO": ""
                }
            },
            {
                "$type": "IPNDPOAANNE",
                "enable": true,
                "NGIEOIGFFDH": {}
            },
            {
                "$type": "GJGILIGEJMO",
                "enable": true,
                "NGIEOIGFFDH": {
                    "FCFLCFFJKLO": "",
                    "BKCOJDIDEGN": ""
                }
            },
            {
                "$type": "IKIHDEMELGB",
                "enable": true,
                "EGJMGEHLDOL": {
                    "pose": [
                        1,
                        4
                    ]
                },
                "NGIEOIGFFDH": {
                    "HOKGJAONGHG": 3.0,
                    "GJOBDMEBGLM": 1.5,
                    "KDLAOJIPGHP": 15.0,
                    "OEFFOIEOJNC": 3.75,
                    "HAHMEDHEBKE": 7.5,
                    "FCFLCFFJKLO": ""
                }
            }
        ]
    },
    "inputKeys": [
        {
            "keyID": 201,
            "inputKeyCode": 257,
            "abilityName": ""
        },
        {
            "keyID": 202,
            "inputKeyCode": 258,
            "abilityName": ""
        },
        {
            "keyID": 301,
            "inputKeyCode": 259,
            "abilityName": ""
        },
        {
            "keyID": 303,
            "inputKeyCode": 260,
            "abilityName": ""
        },
        {
            "keyID": 304,
            "inputKeyCode": 261,
            "abilityName": ""
        },
        {
            "keyID": 901,
            "inputKeyCode": 262,
            "abilityName": ""
        },
        {
            "keyID": 905,
            "inputKeyCode": 263,
            "abilityName": ""
        }
    ],
    "move": {
        "$type": "JKDLANFKJIL",
        "ADKJOFPNHNO": "FourDirection",
        "LDHGAEIKIEE": "StoopType",
        "LPAKBBIADNC": "RootNode"
    },
    "audio": {
        "LKJIHNLBIJL": "",
        "animAudio": {},
        "disableEvent": {
            "text": ""
        },
        "destroyEvent": {
            "text": ""
        },
        "randomVariantSwitchGroup": {
            "text": ""
        },
        "randomVariantSwitchValues": [
            {
                "text": ""
            }
        ]
    }
}