{
    "BigWorld_-3_-5_25BigWorld_01_Inside_Ve": {
        "$type": "FBOPNFAKLDG",
        "JAFBDKCDHCO": true,
        "height": 22.0,
        "KPEJJDMAGEN": "Center",
        "width": 32.0,
        "length": 39.0
    },
    "BigWorld_-3_-5_GTC_01_Inside_Vs": {
        "$type": "FBOPNFAKLDG",
        "JAFBDKCDHCO": true,
        "height": 43.663387298583984,
        "KPEJJDMAGEN": "Center",
        "width": 149.590087890625,
        "length": 91.3583755493164
    },
    "BigWorld_-3_-5_GTC_01_Outside_Vs": {
        "$type": "FBOPNFAKLDG",
        "JAFBDKCDHCO": true,
        "height": 58.48872756958008,
        "KPEJJDMAGEN": "Center",
        "width": 164.5536651611328,
        "length": 122.0887451171875
    },
    "BigWorld_-3_-5_GTC_02_Outside_Vs": {
        "$type": "FBOPNFAKLDG",
        "JAFBDKCDHCO": true,
        "height": 80.80125427246094,
        "KPEJJDMAGEN": "Center",
        "width": 60.080810546875,
        "length": 58.14404296875
    },
    "BigWorld_-3_-5_GTC_03_Outside_Vs": {
        "$type": "FBOPNFAKLDG",
        "JAFBDKCDHCO": true,
        "height": 79.31198120117188,
        "KPEJJDMAGEN": "Center",
        "width": 43.984375,
        "length": 44.723388671875
    },
    "BigWorld_-3_-5_HSYJ_01_Inside_Vs": {
        "$type": "FBOPNFAKLDG",
        "JAFBDKCDHCO": true,
        "height": 40.162841796875,
        "KPEJJDMAGEN": "Center",
        "width": 95.98487091064453,
        "length": 105.98880767822266
    },
    "BigWorld_-3_-5_HSYJ_02_Inside_Vs": {
        "$type": "FBOPNFAKLDG",
        "JAFBDKCDHCO": true,
        "height": 72.38359832763672,
        "KPEJJDMAGEN": "Center",
        "width": 158.74278259277344,
        "length": 308.9731750488281
    },
    "BigWorld_-3_-5_HSYJ_03_Inside_Vs": {
        "$type": "FBOPNFAKLDG",
        "JAFBDKCDHCO": true,
        "height": 34.70598220825195,
        "KPEJJDMAGEN": "Center",
        "width": 102.69696044921875,
        "length": 97.13986206054688
    },
    "BigWorld_-3_-5_HSYJ_01_Outside_Vs": {
        "$type": "FBOPNFAKLDG",
        "JAFBDKCDHCO": true,
        "height": 68.57418823242188,
        "KPEJJDMAGEN": "Center",
        "width": 37.84831619262695,
        "length": 37.19683074951172
    },
    "BigWorld_-3_-5_HSYJ_02_Outside_Vs": {
        "$type": "FBOPNFAKLDG",
        "JAFBDKCDHCO": true,
        "height": 89.80416870117188,
        "KPEJJDMAGEN": "Center",
        "width": 208.8979949951172,
        "length": 353.8670959472656
    },
    "BigWorld_-3_-5_HSYJ_03_Outside_Vs": {
        "$type": "FBOPNFAKLDG",
        "JAFBDKCDHCO": true,
        "height": 100.0,
        "KPEJJDMAGEN": "Center",
        "width": 130.5340576171875,
        "length": 193.21621704101562
    }
}