{
    "id": 3901,
    "NKNDDAOAJAF": [
        {
            "minArea": {
                "x": 2667.646240234375,
                "y": 420.7364807128906,
                "z": 3262.301513671875
            },
            "maxArea": {
                "x": 2905.64501953125,
                "y": 454.6602478027344,
                "z": 3437.7509765625
            },
            "roadPoints": [
                {
                    "x": 2727.312744140625,
                    "y": 420.7364807128906,
                    "z": 3437.7509765625
                },
                {
                    "x": 2760.590576171875,
                    "y": 420.7364807128906,
                    "z": 3432.55517578125
                },
                {
                    "x": 2749.082275390625,
                    "y": 420.7364807128906,
                    "z": 3386.693603515625
                },
                {
                    "x": 2835.837646484375,
                    "y": 420.7364807128906,
                    "z": 3374.4208984375
                },
                {
                    "x": 2905.64501953125,
                    "y": 420.7364807128906,
                    "z": 3376.090087890625
                },
                {
                    "x": 2901.527587890625,
                    "y": 420.7364807128906,
                    "z": 3348.90234375
                },
                {
                    "x": 2884.372314453125,
                    "y": 420.7364807128906,
                    "z": 3326.57861328125
                },
                {
                    "x": 2776.5361328125,
                    "y": 420.7364807128906,
                    "z": 3306.474609375
                },
                {
                    "x": 2686.121826171875,
                    "y": 420.7364807128906,
                    "z": 3262.301513671875
                },
                {
                    "x": 2667.646240234375,
                    "y": 420.7364807128906,
                    "z": 3275.3037109375
                },
                {
                    "x": 2674.49267578125,
                    "y": 420.7364807128906,
                    "z": 3347.15478515625
                },
                {
                    "x": 2706.690673828125,
                    "y": 420.7364807128906,
                    "z": 3374.876708984375
                },
                {
                    "x": 2712.0078125,
                    "y": 420.7364807128906,
                    "z": 3420.15625
                },
                {
                    "x": 2721.152099609375,
                    "y": 420.7364807128906,
                    "z": 3436.9892578125
                }
            ]
        },
        {
            "minArea": {
                "x": 2836.627685546875,
                "y": 370.0,
                "z": 3263.458984375
            },
            "maxArea": {
                "x": 2997.864013671875,
                "y": 429.599853515625,
                "z": 3380.1103515625
            },
            "roadPoints": [
                {
                    "x": 2945.84619140625,
                    "y": 370.0,
                    "z": 3264.806640625
                },
                {
                    "x": 2964.26123046875,
                    "y": 370.0,
                    "z": 3263.458984375
                },
                {
                    "x": 2991.98388671875,
                    "y": 370.0,
                    "z": 3296.810791015625
                },
                {
                    "x": 2997.864013671875,
                    "y": 370.0,
                    "z": 3317.639892578125
                },
                {
                    "x": 2984.088134765625,
                    "y": 370.0,
                    "z": 3330.469970703125
                },
                {
                    "x": 2940.98046875,
                    "y": 370.0,
                    "z": 3355.706787109375
                },
                {
                    "x": 2889.2763671875,
                    "y": 370.0,
                    "z": 3380.1103515625
                },
                {
                    "x": 2863.40380859375,
                    "y": 370.0,
                    "z": 3379.72021484375
                },
                {
                    "x": 2836.627685546875,
                    "y": 370.0,
                    "z": 3373.750732421875
                },
                {
                    "x": 2837.7529296875,
                    "y": 370.0,
                    "z": 3360.474365234375
                },
                {
                    "x": 2840.897705078125,
                    "y": 370.0,
                    "z": 3350.945556640625
                },
                {
                    "x": 2861.232421875,
                    "y": 370.0,
                    "z": 3343.548828125
                },
                {
                    "x": 2855.510498046875,
                    "y": 370.0,
                    "z": 3331.966552734375
                },
                {
                    "x": 2866.31201171875,
                    "y": 370.0,
                    "z": 3317.851318359375
                },
                {
                    "x": 2886.24267578125,
                    "y": 370.0,
                    "z": 3295.8427734375
                },
                {
                    "x": 2893.9453125,
                    "y": 370.0,
                    "z": 3282.781005859375
                },
                {
                    "x": 2902.404541015625,
                    "y": 370.0,
                    "z": 3271.3779296875
                },
                {
                    "x": 2931.740234375,
                    "y": 370.0,
                    "z": 3265.424072265625
                }
            ]
        }
    ],
    "HBGNAAKIPKI": [
        {
            "pos": {
                "x": 2801.654052734375,
                "y": 457.9131164550781,
                "z": 3342.5888671875
            },
            "shape": {
                "$type": "LHEGJLAGDIB",
                "JAFBDKCDHCO": true,
                "height": 40.0,
                "radius": 70.0
            }
        }
    ],
    "DFNBKLHHGCF": [
        {
            "id": 39010001,
            "type": "REGION_ENTRANCE",
            "pos": {
                "x": 2741.59326171875,
                "y": 440.0,
                "z": 3429.056640625
            },
            "PMOKHMLGAOE": "LOGIC_AND",
            "LDJJOAHMBKO": [
                39010002
            ],
            "MKJJDPAHACA": 4294967295,
            "OELAOJEKNDM": 4294967295
        }
    ],
    "LJNNMLGIAJI": true,
    "HNGDGDECKOD": [
        {
            "id": 39010001,
            "type": "REGION_ENTRANCE",
            "pos": {
                "x": 2741.59326171875,
                "y": 440.0,
                "z": 3429.056640625
            },
            "PMOKHMLGAOE": "LOGIC_AND",
            "LDJJOAHMBKO": [
                39010002
            ],
            "MKJJDPAHACA": 4294967295,
            "OELAOJEKNDM": 4294967295
        },
        {
            "id": 39010002,
            "pos": {
                "x": 2735.7080078125,
                "y": 440.0,
                "z": 3385.2841796875
            },
            "PMOKHMLGAOE": "LOGIC_AND",
            "LDJJOAHMBKO": [
                39010001,
                39010003
            ]
        },
        {
            "id": 39010003,
            "pos": {
                "x": 2762.587890625,
                "y": 440.0,
                "z": 3349.105224609375
            },
            "PMOKHMLGAOE": "LOGIC_AND",
            "LDJJOAHMBKO": [
                39010002,
                39010004
            ]
        },
        {
            "id": 39010004,
            "pos": {
                "x": 2784.477294921875,
                "y": 443.45001220703125,
                "z": 3337.229248046875
            },
            "PMOKHMLGAOE": "LOGIC_AND",
            "LDJJOAHMBKO": [
                39010009,
                39010003
            ]
        },
        {
            "id": 39010005,
            "pos": {
                "x": 2850.648681640625,
                "y": 428.61688232421875,
                "z": 3365.427490234375
            },
            "PMOKHMLGAOE": "LOGIC_AND",
            "LDJJOAHMBKO": [
                39010006,
                39010009
            ]
        },
        {
            "id": 39010006,
            "pos": {
                "x": 2860.643798828125,
                "y": 405.1499938964844,
                "z": 3368.090576171875
            },
            "LDOACMOADEJ": {
                "offset": {
                    "y": 1.0
                },
                "DANPBPMCEGB": true
            },
            "PMOKHMLGAOE": "LOGIC_AND",
            "LDJJOAHMBKO": [
                39010005,
                39010007
            ]
        },
        {
            "id": 39010007,
            "pos": {
                "x": 2879.531982421875,
                "y": 399.1499938964844,
                "z": 3371.349853515625
            },
            "LDOACMOADEJ": {
                "offset": {
                    "y": 1.0
                },
                "DANPBPMCEGB": true
            },
            "PMOKHMLGAOE": "LOGIC_AND",
            "LDJJOAHMBKO": [
                39010006,
                39010008
            ]
        },
        {
            "id": 39010008,
            "pos": {
                "x": 2882.88525390625,
                "y": 396.0,
                "z": 3357.48486328125
            },
            "LDOACMOADEJ": {
                "offset": {
                    "y": 1.0
                },
                "DANPBPMCEGB": true
            },
            "area": {
                "type": "INSIDE_POLYGON",
                "LJEBPPEKMJK": {
                    "minArea": {
                        "x": 2861.90576171875,
                        "y": 372.0927429199219,
                        "z": 3266.38623046875
                    },
                    "maxArea": {
                        "x": 2988.417724609375,
                        "y": 425.7842102050781,
                        "z": 3365.712158203125
                    },
                    "roadPoints": [
                        {
                            "x": 2877.09716796875,
                            "y": 372.0927429199219,
                            "z": 3363.603759765625
                        },
                        {
                            "x": 2861.90576171875,
                            "y": 372.0927429199219,
                            "z": 3337.03564453125
                        },
                        {
                            "x": 2873.1201171875,
                            "y": 372.0927429199219,
                            "z": 3324.392822265625
                        },
                        {
                            "x": 2876.939453125,
                            "y": 372.0927429199219,
                            "z": 3310.21923828125
                        },
                        {
                            "x": 2888.718505859375,
                            "y": 372.0927429199219,
                            "z": 3292.564697265625
                        },
                        {
                            "x": 2895.1728515625,
                            "y": 372.0927429199219,
                            "z": 3284.159423828125
                        },
                        {
                            "x": 2900.77490234375,
                            "y": 372.0927429199219,
                            "z": 3277.429443359375
                        },
                        {
                            "x": 2928.921142578125,
                            "y": 372.0927429199219,
                            "z": 3269.77197265625
                        },
                        {
                            "x": 2958.6103515625,
                            "y": 372.0927429199219,
                            "z": 3266.38623046875
                        },
                        {
                            "x": 2978.520751953125,
                            "y": 372.0927429199219,
                            "z": 3297.48583984375
                        },
                        {
                            "x": 2988.417724609375,
                            "y": 372.0927429199219,
                            "z": 3313.011474609375
                        },
                        {
                            "x": 2983.564208984375,
                            "y": 372.0927429199219,
                            "z": 3322.552978515625
                        },
                        {
                            "x": 2944.322509765625,
                            "y": 372.0927429199219,
                            "z": 3347.54150390625
                        },
                        {
                            "x": 2904.9267578125,
                            "y": 372.0927429199219,
                            "z": 3358.668701171875
                        },
                        {
                            "x": 2889.950927734375,
                            "y": 372.0927429199219,
                            "z": 3365.712158203125
                        }
                    ]
                }
            },
            "PMOKHMLGAOE": "LOGIC_AND",
            "LDJJOAHMBKO": [
                39010007
            ]
        },
        {
            "id": 39010009,
            "pos": {
                "x": 2825.26220703125,
                "y": 443.9049072265625,
                "z": 3343.979248046875
            },
            "PMOKHMLGAOE": "LOGIC_AND",
            "LDJJOAHMBKO": [
                39010005,
                39010004
            ]
        }
    ]
}