{
    "ConfigFDKXY": {
        "EJCFDCNLHPO": {
            "trackArea": {
                "$type": "AENFGAAONJA"
            }
        },
        "NLDLHHOLMJD": {
            "updateArea": {
                "$type": "NAMGAFINEBG",
                "actions": [
                    {
                        "$type": "BHAKHFBCMMF",
                        "AFBPDCNMLCL": "ButtonGoto",
                        "OMCLBBNOKFA": true
                    },
                    {
                        "$type": "GMMMNGLDMAH",
                        "AFBPDCNMLCL": "ButtonGoto",
                        "textMap": "UI_ACTIVITY_NEW_REGION_UNLOCK_BUTTON"
                    }
                ]
            },
            "clickTrackArea": {
                "$type": "NAMGAFINEBG",
                "actions": [
                    {
                        "$type": "DJINDIONOGG",
                        "EBPBPAGGBON": 814,
                        "sceneId": 3
                    },
                    {
                        "$type": "AKKPLJFJGBJ",
                        "CMBEHECBPNB": 5163,
                        "HDEKPBNCHGH": 2,
                        "DOCCGBJPBBP": 5163001,
                        "CDNCIAHNGID": ""
                    },
                    {
                        "$type": "IIAOMCLEIJM",
                        "AFBPDCNMLCL": "Animator",
                        "GEJBDGAGOAO": "FadeOut",
                        "MBAODDMELFF": true
                    }
                ]
            }
        },
        "DGHIJAPACPG": [
            {
                "IEHDJLIEFEG": "trackArea",
                "actionName": "updateArea"
            }
        ],
        "HANPAGCINAI": [
            {
                "IEHDJLIEFEG": "trackArea",
                "actionName": "clickTrackArea"
            }
        ]
    }
}