{
    "OANBCHEEDGM": [
        {
            "name": "Character_Alhatham_Q_Normal",
            "IJBCNBKGAIH": [
                {
                    "MKLOOPFFBDE": 0.44999998807907104,
                    "actionGroups": [
                        {
                            "actions": [
                                {
                                    "$type": "JPPGHLKBJCD",
                                    "HGDMIFNLEIE": {
                                        "target": "Actor"
                                    }
                                },
                                {
                                    "$type": "KDDAKGJLFBK",
                                    "HGDMIFNLEIE": {
                                        "target": "Actor"
                                    },
                                    "effectName": "Eff_Gcg_Common_ElementalBurst_NormalCharge",
                                    "DNMNFLAKEIK": "",
                                    "OCPKMMCKEFI": "",
                                    "DOBFAJEFGJK": {
                                        "$type": "NHFGCELPGLG"
                                    }
                                }
                            ]
                        }
                    ]
                },
                {
                    "MKLOOPFFBDE": 1.2599999904632568,
                    "actionGroups": [
                        {
                            "actions": [
                                {
                                    "$type": "KDDAKGJLFBK",
                                    "HGDMIFNLEIE": {
                                        "target": "MainTarget"
                                    },
                                    "effectName": "Eff_Gcg_Avatar_Alhatham_ElementalBurst_Hit",
                                    "HEEHHKLJGDE": {
                                        "z": -0.07999999821186066
                                    },
                                    "DNMNFLAKEIK": "",
                                    "OCPKMMCKEFI": "",
                                    "DOBFAJEFGJK": {
                                        "$type": "HNKIGFCDAKL"
                                    },
                                    "LBCKHNJMEJC": "HorizontalAxisFlip"
                                }
                            ]
                        }
                    ]
                },
                {
                    "actionGroups": [
                        {
                            "actions": [
                                {
                                    "$type": "EEFMLPGLPGH",
                                    "HGDMIFNLEIE": {
                                        "target": "MainTarget"
                                    }
                                },
                                {
                                    "$type": "KCJMJDNJKHG",
                                    "HGDMIFNLEIE": {
                                        "target": "MainTarget"
                                    },
                                    "EHHKPGDAFED": "Common_ShakeScreen_Test_Q"
                                }
                            ]
                        }
                    ]
                },
                {
                    "actionGroups": [
                        {
                            "actions": [
                                {
                                    "$type": "JPPGHLKBJCD",
                                    "HGDMIFNLEIE": {
                                        "target": "Actor"
                                    },
                                    "PHMPBIOIFCK": true
                                }
                            ]
                        }
                    ]
                }
            ]
        }
    ]
}