[
    {
        "value": 4.543035506036607e-33,
        "FOMIALGHGCN": 200.0,
        "IHCEPAGPEEB": -1000.0
    },
    {
        "time": -3703297.75,
        "FOMIALGHGCN": -1.0503695068623738e+38,
        "IHCEPAGPEEB": 8.872416844186512e+32
    },
    {
        "time": -7094.87841796875,
        "FOMIALGHGCN": 1.4229271585996515e-35
    },
    {
        "time": 3945.42431640625,
        "value": -3831.314208984375
    },
    {
        "time": 128.66143798828125,
        "value": 3952.136474609375
    },
    {
        "time": -384.3609619140625,
        "value": 125.99909210205078,
        "FOMIALGHGCN": 3965.9873046875
    },
    {
        "time": -366.22967529296875,
        "value": 129.00738525390625,
        "FOMIALGHGCN": 3959.1259765625
    },
    {
        "time": -362.90863037109375,
        "value": 128.5555877685547,
        "FOMIALGHGCN": 3942.003662109375
    },
    {
        "time": -358.29083251953125,
        "value": 131.05438232421875,
        "FOMIALGHGCN": 3934.586669921875
    },
    {
        "time": -341.5462646484375,
        "value": 130.0806121826172,
        "FOMIALGHGCN": 3919.721923828125
    },
    {
        "time": -352.2008056640625,
        "value": 126.8116683959961,
        "FOMIALGHGCN": 3877.921630859375
    },
    {
        "time": -383.70404052734375,
        "value": 145.2767333984375,
        "FOMIALGHGCN": 3871.1083984375
    },
    {
        "time": -399.86761474609375,
        "value": 131.30776977539062,
        "FOMIALGHGCN": 3903.916748046875
    },
    {
        "time": -402.6110534667969,
        "value": 124.32991027832031,
        "FOMIALGHGCN": 3908.869384765625
    },
    {
        "time": -402.78924560546875,
        "value": 122.89097595214844,
        "FOMIALGHGCN": 3925.173828125
    }
]