{
    "OANBCHEEDGM": [
        {
            "name": "Character_Feiyan_Q_Golden",
            "IJBCNBKGAIH": [
                {
                    "MKLOOPFFBDE": 1.2999999523162842,
                    "actionGroups": [
                        {
                            "actions": [
                                {
                                    "$type": "PLAMCBNHNDP",
                                    "HGDMIFNLEIE": {
                                        "target": "Actor"
                                    }
                                },
                                {
                                    "$type": "JPPGHLKBJCD",
                                    "HGDMIFNLEIE": {
                                        "target": "Actor"
                                    }
                                },
                                {
                                    "$type": "PMMNFCKIMOK",
                                    "HGDMIFNLEIE": {
                                        "target": "Actor"
                                    }
                                },
                                {
                                    "$type": "KDDAKGJLFBK",
                                    "HGDMIFNLEIE": {
                                        "target": "Actor"
                                    },
                                    "effectName": "Eff_Gcg_Avatar_Feiyan_ElementalBurst_Spine",
                                    "CKGBHHHCCFH": true,
                                    "DNMNFLAKEIK": "",
                                    "OCPKMMCKEFI": "",
                                    "DOBFAJEFGJK": {
                                        "$type": "NHFGCELPGLG"
                                    }
                                }
                            ]
                        }
                    ]
                },
                {
                    "MKLOOPFFBDE": 0.10000000149011612,
                    "actionGroups": [
                        {
                            "actions": [
                                {
                                    "$type": "KDDAKGJLFBK",
                                    "HGDMIFNLEIE": {
                                        "target": "Actor"
                                    },
                                    "effectName": "Eff_Gcg_Avatar_Feiyan_ElementalBurst_BS",
                                    "DNMNFLAKEIK": "",
                                    "OCPKMMCKEFI": "",
                                    "DOBFAJEFGJK": {
                                        "$type": "NHFGCELPGLG"
                                    }
                                }
                            ]
                        }
                    ]
                },
                {
                    "MKLOOPFFBDE": 0.25,
                    "actionGroups": [
                        {
                            "actions": [
                                {
                                    "$type": "KDDAKGJLFBK",
                                    "HGDMIFNLEIE": {
                                        "target": "MainTarget"
                                    },
                                    "effectName": "Eff_Gcg_Avatar_Feiyan_ElementalBurst_Hit",
                                    "DNMNFLAKEIK": "",
                                    "OCPKMMCKEFI": "",
                                    "DOBFAJEFGJK": {
                                        "$type": "HNKIGFCDAKL"
                                    },
                                    "LBCKHNJMEJC": "HorizontalAxisFlip"
                                }
                            ]
                        }
                    ]
                },
                {
                    "MKLOOPFFBDE": 2.319999933242798,
                    "actionGroups": [
                        {
                            "actions": [
                                {
                                    "$type": "EEFMLPGLPGH",
                                    "HGDMIFNLEIE": {
                                        "target": "MainTarget"
                                    }
                                },
                                {
                                    "$type": "KCJMJDNJKHG",
                                    "HGDMIFNLEIE": {
                                        "target": "MainTarget"
                                    },
                                    "EHHKPGDAFED": "Common_ShakeScreen_Test_Q"
                                }
                            ]
                        }
                    ]
                },
                {
                    "MKLOOPFFBDE": 0.029999999329447746,
                    "actionGroups": [
                        {
                            "actions": [
                                {
                                    "$type": "KDDAKGJLFBK",
                                    "HGDMIFNLEIE": {
                                        "target": "Actor"
                                    },
                                    "effectName": "Eff_Gcg_Common_Spine_ReturnToLoop",
                                    "CKGBHHHCCFH": true,
                                    "DNMNFLAKEIK": "",
                                    "OCPKMMCKEFI": "",
                                    "DOBFAJEFGJK": {
                                        "$type": "NHFGCELPGLG"
                                    }
                                }
                            ]
                        }
                    ]
                },
                {
                    "actionGroups": [
                        {
                            "actions": [
                                {
                                    "$type": "PLAMCBNHNDP",
                                    "HGDMIFNLEIE": {
                                        "target": "Actor"
                                    },
                                    "PHMPBIOIFCK": true
                                },
                                {
                                    "$type": "JPPGHLKBJCD",
                                    "HGDMIFNLEIE": {
                                        "target": "Actor"
                                    },
                                    "PHMPBIOIFCK": true
                                }
                            ]
                        }
                    ]
                }
            ]
        }
    ]
}