{
    "buttonSequence": [
        {
            "button": "Left_Down",
            "time": 5284,
            "isLongPress": true,
            "longPressTime": 1547
        },
        {
            "button": "Left_Down",
            "time": 11249,
            "isLongPress": true,
            "longPressTime": 663
        },
        {
            "button": "Left_Down",
            "time": 14121
        },
        {
            "button": "Left_Down",
            "time": 15446
        },
        {
            "button": "Left_Down",
            "time": 17213
        },
        {
            "button": "Left_Down",
            "time": 17655
        },
        {
            "button": "Left_Down",
            "time": 18981
        },
        {
            "button": "Left_Down",
            "time": 20748
        },
        {
            "button": "Left_Down",
            "time": 21190
        },
        {
            "button": "Left_Down",
            "time": 22074
        },
        {
            "button": "Left_Down",
            "time": 23620
        },
        {
            "button": "Left_Down",
            "time": 24504
        },
        {
            "button": "Left_Down",
            "time": 24724
        },
        {
            "button": "Left_Down",
            "time": 26271
        },
        {
            "button": "Left_Down",
            "time": 26492
        },
        {
            "button": "Left_Down",
            "time": 26934
        },
        {
            "button": "Left_Down",
            "time": 27375
        },
        {
            "button": "Left_Down",
            "time": 27817
        },
        {
            "button": "Left_Down",
            "time": 28038
        },
        {
            "button": "Left_Down",
            "time": 28259,
            "isLongPress": true,
            "longPressTime": 674
        },
        {
            "button": "Left_Down",
            "time": 30933,
            "isLongPress": true,
            "longPressTime": 445
        },
        {
            "button": "Left_Down",
            "time": 31822,
            "isLongPress": true,
            "longPressTime": 666
        },
        {
            "button": "Left_Down",
            "time": 34489,
            "isLongPress": true,
            "longPressTime": 444
        },
        {
            "button": "Left_Down",
            "time": 38933
        },
        {
            "button": "Left_Down",
            "time": 39378
        },
        {
            "button": "Left_Down",
            "time": 39822
        },
        {
            "button": "Left_Down",
            "time": 40266
        },
        {
            "button": "Left_Down",
            "time": 40711
        },
        {
            "button": "Left_Down",
            "time": 41155
        },
        {
            "button": "Left_Down",
            "time": 41600
        },
        {
            "button": "Left_Down",
            "time": 42044
        },
        {
            "button": "Left_Down",
            "time": 42489
        },
        {
            "button": "Left_Down",
            "time": 42933
        },
        {
            "button": "Left_Down",
            "time": 43378
        },
        {
            "button": "Left_Down",
            "time": 43822
        },
        {
            "button": "Left_Down",
            "time": 44266
        },
        {
            "button": "Left_Down",
            "time": 44711
        },
        {
            "button": "Left_Down",
            "time": 45155
        },
        {
            "button": "Left_Down",
            "time": 45600
        },
        {
            "button": "Left_Down",
            "time": 46489
        },
        {
            "button": "Left_Down",
            "time": 46933,
            "isLongPress": true,
            "longPressTime": 889
        },
        {
            "button": "Left_Down",
            "time": 48267
        },
        {
            "button": "Left_Down",
            "time": 48711,
            "isLongPress": true,
            "longPressTime": 889
        },
        {
            "button": "Left_Down",
            "time": 50489
        },
        {
            "button": "Left_Down",
            "time": 51378
        },
        {
            "button": "Left_Down",
            "time": 51822
        },
        {
            "button": "Left_Down",
            "time": 52267
        },
        {
            "button": "Left_Down",
            "time": 52711
        },
        {
            "button": "Left_Down",
            "time": 52933
        },
        {
            "button": "Left_Down",
            "time": 53155,
            "isLongPress": true,
            "longPressTime": 3667
        },
        {
            "button": "Left_Down",
            "time": 58489,
            "isLongPress": true,
            "longPressTime": 1778
        },
        {
            "button": "Left_Down",
            "time": 70044
        },
        {
            "button": "Left_Down",
            "time": 72711
        },
        {
            "button": "Left_Down",
            "time": 82485,
            "isLongPress": true,
            "longPressTime": 444
        },
        {
            "button": "Left_Down",
            "time": 83818
        },
        {
            "button": "Left_Down",
            "time": 84262,
            "isLongPress": true,
            "longPressTime": 445
        },
        {
            "button": "Left_Down",
            "time": 85818
        },
        {
            "button": "Left_Down",
            "time": 87151
        },
        {
            "button": "Left_Down",
            "time": 87818,
            "isLongPress": true,
            "longPressTime": 889
        },
        {
            "button": "Left_Down",
            "time": 89596
        },
        {
            "button": "Left_Down",
            "time": 90929
        },
        {
            "button": "Left_Down",
            "time": 91373
        },
        {
            "button": "Left_Down",
            "time": 92929
        },
        {
            "button": "Left_Down",
            "time": 93596,
            "isLongPress": true,
            "longPressTime": 1333
        },
        {
            "button": "Left_Down",
            "time": 95373
        },
        {
            "button": "Left_Down",
            "time": 95596
        },
        {
            "button": "Left_Down",
            "time": 97373
        },
        {
            "button": "Left_Down",
            "time": 98269
        },
        {
            "button": "Left_Down",
            "time": 99861
        },
        {
            "button": "Left_Down",
            "time": 101750
        },
        {
            "button": "Left_Right",
            "time": 7714,
            "isLongPress": true,
            "longPressTime": 663
        },
        {
            "button": "Left_Right",
            "time": 14562
        },
        {
            "button": "Left_Right",
            "time": 16772
        },
        {
            "button": "Left_Right",
            "time": 18097
        },
        {
            "button": "Left_Right",
            "time": 20306
        },
        {
            "button": "Left_Right",
            "time": 21411
        },
        {
            "button": "Left_Right",
            "time": 22294
        },
        {
            "button": "Left_Right",
            "time": 23399
        },
        {
            "button": "Left_Right",
            "time": 24283
        },
        {
            "button": "Left_Right",
            "time": 24945
        },
        {
            "button": "Left_Right",
            "time": 26050
        },
        {
            "button": "Left_Right",
            "time": 35378,
            "isLongPress": true,
            "longPressTime": 666
        },
        {
            "button": "Left_Right",
            "time": 36711,
            "isLongPress": true,
            "longPressTime": 667
        },
        {
            "button": "Left_Right",
            "time": 64711,
            "isLongPress": true,
            "longPressTime": 889
        },
        {
            "button": "Left_Right",
            "time": 66489,
            "isLongPress": true,
            "longPressTime": 444
        },
        {
            "button": "Left_Right",
            "time": 67378
        },
        {
            "button": "Left_Right",
            "time": 68711
        },
        {
            "button": "Left_Right",
            "time": 69155
        },
        {
            "button": "Left_Right",
            "time": 74933
        },
        {
            "button": "Left_Right",
            "time": 76267,
            "isLongPress": true,
            "longPressTime": 888
        },
        {
            "button": "Left_Right",
            "time": 78044,
            "isLongPress": true,
            "longPressTime": 3113
        },
        {
            "button": "Left_Right",
            "time": 83596
        },
        {
            "button": "Left_Right",
            "time": 85373
        },
        {
            "button": "Left_Right",
            "time": 86040,
            "isLongPress": true,
            "longPressTime": 445
        },
        {
            "button": "Left_Right",
            "time": 86818
        },
        {
            "button": "Left_Right",
            "time": 87373
        },
        {
            "button": "Left_Right",
            "time": 90707
        },
        {
            "button": "Left_Right",
            "time": 92484
        },
        {
            "button": "Left_Right",
            "time": 99158
        },
        {
            "button": "Left_Right",
            "time": 99602
        },
        {
            "button": "Right_Left",
            "time": 7051,
            "isLongPress": true,
            "longPressTime": 663
        },
        {
            "button": "Right_Left",
            "time": 8377,
            "isLongPress": true,
            "longPressTime": 1767
        },
        {
            "button": "Right_Left",
            "time": 15004
        },
        {
            "button": "Right_Left",
            "time": 16330
        },
        {
            "button": "Right_Left",
            "time": 18539
        },
        {
            "button": "Right_Left",
            "time": 19864
        },
        {
            "button": "Right_Left",
            "time": 21632
        },
        {
            "button": "Right_Left",
            "time": 22515
        },
        {
            "button": "Right_Left",
            "time": 23178
        },
        {
            "button": "Right_Left",
            "time": 24062
        },
        {
            "button": "Right_Left",
            "time": 25166
        },
        {
            "button": "Right_Left",
            "time": 25829
        },
        {
            "button": "Right_Left",
            "time": 36044,
            "isLongPress": true,
            "longPressTime": 667
        },
        {
            "button": "Right_Left",
            "time": 37378
        },
        {
            "button": "Right_Left",
            "time": 60267,
            "isLongPress": true,
            "longPressTime": 3111
        },
        {
            "button": "Right_Left",
            "time": 63822,
            "isLongPress": true,
            "longPressTime": 889
        },
        {
            "button": "Right_Left",
            "time": 65600,
            "isLongPress": true,
            "longPressTime": 889
        },
        {
            "button": "Right_Left",
            "time": 66933,
            "isLongPress": true,
            "longPressTime": 445
        },
        {
            "button": "Right_Left",
            "time": 73155
        },
        {
            "button": "Right_Left",
            "time": 73600
        },
        {
            "button": "Right_Left",
            "time": 74489
        },
        {
            "button": "Right_Left",
            "time": 75378,
            "isLongPress": true,
            "longPressTime": 888
        },
        {
            "button": "Right_Left",
            "time": 77155,
            "isLongPress": true,
            "longPressTime": 889
        },
        {
            "button": "Right_Left",
            "time": 83262
        },
        {
            "button": "Right_Left",
            "time": 85040
        },
        {
            "button": "Right_Left",
            "time": 86485
        },
        {
            "button": "Right_Left",
            "time": 87596
        },
        {
            "button": "Right_Left",
            "time": 90373
        },
        {
            "button": "Right_Left",
            "time": 92151
        },
        {
            "button": "Right_Left",
            "time": 99380
        },
        {
            "button": "Right_Down",
            "time": 10586,
            "isLongPress": true,
            "longPressTime": 663
        },
        {
            "button": "Right_Down",
            "time": 11912,
            "isLongPress": true,
            "longPressTime": 1767
        },
        {
            "button": "Right_Down",
            "time": 15446
        },
        {
            "button": "Right_Down",
            "time": 15888
        },
        {
            "button": "Right_Down",
            "time": 17213
        },
        {
            "button": "Right_Down",
            "time": 18981
        },
        {
            "button": "Right_Down",
            "time": 19423
        },
        {
            "button": "Right_Down",
            "time": 20748
        },
        {
            "button": "Right_Down",
            "time": 21853
        },
        {
            "button": "Right_Down",
            "time": 22736
        },
        {
            "button": "Right_Down",
            "time": 22957
        },
        {
            "button": "Right_Down",
            "time": 23841
        },
        {
            "button": "Right_Down",
            "time": 25387
        },
        {
            "button": "Right_Down",
            "time": 25608
        },
        {
            "button": "Right_Down",
            "time": 26713
        },
        {
            "button": "Right_Down",
            "time": 27155
        },
        {
            "button": "Right_Down",
            "time": 27596
        },
        {
            "button": "Right_Down",
            "time": 27928
        },
        {
            "button": "Right_Down",
            "time": 28149
        },
        {
            "button": "Right_Down",
            "time": 28933,
            "isLongPress": true,
            "longPressTime": 2000
        },
        {
            "button": "Right_Down",
            "time": 31378,
            "isLongPress": true,
            "longPressTime": 444
        },
        {
            "button": "Right_Down",
            "time": 32489,
            "isLongPress": true,
            "longPressTime": 2000
        },
        {
            "button": "Right_Down",
            "time": 34933,
            "isLongPress": true,
            "longPressTime": 444
        },
        {
            "button": "Right_Down",
            "time": 38044
        },
        {
            "button": "Right_Down",
            "time": 38489
        },
        {
            "button": "Right_Down",
            "time": 38933
        },
        {
            "button": "Right_Down",
            "time": 40711
        },
        {
            "button": "Right_Down",
            "time": 42489
        },
        {
            "button": "Right_Down",
            "time": 44266
        },
        {
            "button": "Right_Down",
            "time": 46044,
            "isLongPress": true,
            "longPressTime": 889
        },
        {
            "button": "Right_Down",
            "time": 47378
        },
        {
            "button": "Right_Down",
            "time": 47822,
            "isLongPress": true,
            "longPressTime": 889
        },
        {
            "button": "Right_Down",
            "time": 49155
        },
        {
            "button": "Right_Down",
            "time": 49600
        },
        {
            "button": "Right_Down",
            "time": 50044
        },
        {
            "button": "Right_Down",
            "time": 50933
        },
        {
            "button": "Right_Down",
            "time": 51600
        },
        {
            "button": "Right_Down",
            "time": 52044
        },
        {
            "button": "Right_Down",
            "time": 52489
        },
        {
            "button": "Right_Down",
            "time": 52822
        },
        {
            "button": "Right_Down",
            "time": 53044
        },
        {
            "button": "Right_Down",
            "time": 56822,
            "isLongPress": true,
            "longPressTime": 1667
        },
        {
            "button": "Right_Down",
            "time": 67822
        },
        {
            "button": "Right_Down",
            "time": 68267
        },
        {
            "button": "Right_Down",
            "time": 70489
        },
        {
            "button": "Right_Down",
            "time": 70933,
            "isLongPress": true,
            "longPressTime": 1334
        },
        {
            "button": "Right_Down",
            "time": 74044
        },
        {
            "button": "Right_Down",
            "time": 82929
        },
        {
            "button": "Right_Down",
            "time": 84040
        },
        {
            "button": "Right_Down",
            "time": 84707
        },
        {
            "button": "Right_Down",
            "time": 85596
        },
        {
            "button": "Right_Down",
            "time": 88707,
            "isLongPress": true,
            "longPressTime": 889
        },
        {
            "button": "Right_Down",
            "time": 90040
        },
        {
            "button": "Right_Down",
            "time": 91151
        },
        {
            "button": "Right_Down",
            "time": 91818
        },
        {
            "button": "Right_Down",
            "time": 92707
        },
        {
            "button": "Right_Down",
            "time": 94484,
            "isLongPress": true,
            "longPressTime": 445
        },
        {
            "button": "Right_Down",
            "time": 95373
        },
        {
            "button": "Right_Down",
            "time": 95596
        },
        {
            "button": "Right_Down",
            "time": 98047
        },
        {
            "button": "Right_Down",
            "time": 98935
        },
        {
            "button": "Right_Down",
            "time": 101750
        }
    ],
    "playMusicEvent": {
        "text": "Play_ui_activity_FleurFairV2_musicgame_BGM_Albedo"
    },
    "stopMusicEvent": {
        "text": "Stop_ui_activity_FleurFairV2_musicgame_BGM_Albedo"
    },
    "pauseMusicEvent": {
        "text": "Pause_ui_activity_FleurFairV2_musicgame_BGM_Albedo"
    },
    "resumeMusicEvent": {
        "text": "Resume_ui_activity_FleurFairV2_musicgame_BGM_Albedo"
    },
    "GLMCNPBMPMO": {
        "text": "Play_ui_activity_FleurFairV2_musicgame_BGM_Albedo_Preview"
    },
    "OLFOILFLEJH": {
        "text": "Stop_ui_activity_FleurFairV2_musicgame_BGM_Albedo_Preview"
    }
}