{
  "NOKKDDHKGAK": "Char_Skill_11061",
  "LBJBMKBADGI": {
    "-2060930438": {
      "$type": "JMNPJNKIBNE",
      "CIBLLGMLODF": 2
    },
    "476224977": {
      "$type": "GBMLNFDAKNE",
      "JNMCHAGDLOL": "Element"
    },
    "-1197212178": {
      "$type": "KHOGOPHAOEK",
      "JNMCHAGDLOL": "EffectNum",
      "CIBLLGMLODF": 1
    }
  }
}