{
    "APDIFJEOGIA": 1,
    "ABHGBDGFJJB": [
        {
            "IPDAAHEJOCB": 1,
            "HCGLFJGFHOM": {
                "NEOCBEJDMKN": {
                    "x": 40.0,
                    "y": 50.0,
                    "z": 40.0
                },
                "AJEABPJPKDJ": 1000
            },
            "IEEGBPKMBEL": [
                {
                    "KLBBGGEBNMC": {
                        "x": 2.0,
                        "y": 2.0,
                        "z": 2.0
                    }
                }
            ]
        }
    ]
}