{
    "OANBCHEEDGM": [
        {
            "name": "Character_Kazuha_Q_Golden",
            "IJBCNBKGAIH": [
                {
                    "MKLOOPFFBDE": 2.1500000953674316,
                    "actionGroups": [
                        {
                            "actions": [
                                {
                                    "$type": "PLAMCBNHNDP",
                                    "HGDMIFNLEIE": {
                                        "target": "Actor"
                                    }
                                },
                                {
                                    "$type": "JPPGHLKBJCD",
                                    "HGDMIFNLEIE": {
                                        "target": "Actor"
                                    }
                                },
                                {
                                    "$type": "PMMNFCKIMOK",
                                    "HGDMIFNLEIE": {
                                        "target": "Actor"
                                    }
                                },
                                {
                                    "$type": "KDDAKGJLFBK",
                                    "HGDMIFNLEIE": {
                                        "target": "Actor"
                                    },
                                    "effectName": "Eff_Gcg_Avatar_Kazuha_ElementalBurst_Spine",
                                    "CKGBHHHCCFH": true,
                                    "DNMNFLAKEIK": "",
                                    "OCPKMMCKEFI": "",
                                    "DOBFAJEFGJK": {
                                        "$type": "NHFGCELPGLG"
                                    }
                                }
                            ]
                        }
                    ]
                },
                {
                    "MKLOOPFFBDE": 0.05000000074505806,
                    "actionGroups": [
                        {
                            "actions": [
                                {
                                    "$type": "KDDAKGJLFBK",
                                    "HGDMIFNLEIE": {
                                        "target": "Actor"
                                    },
                                    "effectName": "Eff_Gcg_Avatar_Kazuha_ElementalBurst_BS",
                                    "DNMNFLAKEIK": "",
                                    "OCPKMMCKEFI": "",
                                    "DOBFAJEFGJK": {
                                        "$type": "NHFGCELPGLG"
                                    }
                                }
                            ]
                        }
                    ]
                },
                {
                    "MKLOOPFFBDE": 0.15000000596046448,
                    "actionGroups": [
                        {
                            "actions": [
                                {
                                    "$type": "KDDAKGJLFBK",
                                    "HGDMIFNLEIE": {
                                        "target": "MainTarget"
                                    },
                                    "effectName": "Eff_Gcg_Avatar_Kazuha_ElementalBurst_Hit",
                                    "DNMNFLAKEIK": "",
                                    "OCPKMMCKEFI": "",
                                    "DOBFAJEFGJK": {
                                        "$type": "JKOCKABMLFJ",
                                        "HGDMIFNLEIE": {
                                            "target": "Actor"
                                        }
                                    }
                                }
                            ]
                        }
                    ]
                },
                {
                    "MKLOOPFFBDE": 1.6200000047683716,
                    "actionGroups": [
                        {
                            "actions": [
                                {
                                    "$type": "EEFMLPGLPGH",
                                    "HGDMIFNLEIE": {
                                        "target": "MainTarget"
                                    }
                                },
                                {
                                    "$type": "KCJMJDNJKHG",
                                    "HGDMIFNLEIE": {
                                        "target": "MainTarget"
                                    },
                                    "EHHKPGDAFED": "Common_ShakeScreen_Test_Q"
                                }
                            ]
                        }
                    ]
                },
                {
                    "MKLOOPFFBDE": 0.029999999329447746,
                    "actionGroups": [
                        {
                            "actions": [
                                {
                                    "$type": "KDDAKGJLFBK",
                                    "HGDMIFNLEIE": {
                                        "target": "Actor"
                                    },
                                    "effectName": "Eff_Gcg_Common_Spine_ReturnToLoop",
                                    "CKGBHHHCCFH": true,
                                    "DNMNFLAKEIK": "",
                                    "OCPKMMCKEFI": "",
                                    "DOBFAJEFGJK": {
                                        "$type": "NHFGCELPGLG"
                                    }
                                }
                            ]
                        }
                    ]
                },
                {
                    "actionGroups": [
                        {
                            "actions": [
                                {
                                    "$type": "PLAMCBNHNDP",
                                    "HGDMIFNLEIE": {
                                        "target": "Actor"
                                    },
                                    "PHMPBIOIFCK": true
                                },
                                {
                                    "$type": "JPPGHLKBJCD",
                                    "HGDMIFNLEIE": {
                                        "target": "Actor"
                                    },
                                    "PHMPBIOIFCK": true
                                }
                            ]
                        }
                    ]
                }
            ]
        }
    ]
}