{
    "freeStyleStateMap": {
        "10100": [],
        "10101": [],
        "10201": [],
        "10301": [],
        "10401": [],
        "10501": [],
        "10601": [],
        "10701": [],
        "10801": [],
        "1231": [
            "Ani_Avatar_NPC_AkimboHand01BS_0",
            "Ani_Avatar_NPC_AkimboHand01BS_Sync_0",
            "Ani_Avatar_NPC_AkimboHand01Loop_0",
            "Ani_Avatar_NPC_AkimboHand01Loop_Sync_0",
            "Ani_Avatar_NPC_AkimboHand01AS_0",
            "Ani_Avatar_NPC_AkimboHand01AS_Sync_0",
            "Ani_Avatar_NPC_Akimbo01Loop_0",
            "Ani_Avatar_NPC_Akimbo01Loop_Sync_0",
            "Ani_Avatar_NPC_Akimbo01AS_0",
            "Ani_Avatar_NPC_Akimbo01AS_Sync_0"
        ],
        "1121": [
            "Ani_Avatar_NPC_HoldArmHand01BS_0",
            "Ani_Avatar_NPC_HoldArmHand01BS_Sync_0",
            "Ani_Avatar_NPC_HoldArmHand01Loop_0",
            "Ani_Avatar_NPC_HoldArmHand01Loop_Sync_0",
            "Ani_Avatar_NPC_HoldArmHand01AS_0",
            "Ani_Avatar_NPC_HoldArmHand01AS_Sync_0",
            "Ani_Avatar_NPC_HoldArm01Loop_0",
            "Ani_Avatar_NPC_HoldArm01Loop_Sync_0",
            "Ani_Avatar_NPC_HoldArm01AS_0",
            "Ani_Avatar_NPC_HoldArm01AS_Sync_0"
        ],
        "1191": [
            "Ani_Avatar_NPC_ThinkHand01BS_0",
            "Ani_Avatar_NPC_ThinkHand01BS_Sync_0",
            "Ani_Avatar_NPC_ThinkHand01Loop_0",
            "Ani_Avatar_NPC_ThinkHand01Loop_Sync_0",
            "Ani_Avatar_NPC_ThinkHand01AS_0",
            "Ani_Avatar_NPC_ThinkHand01AS_Sync_0",
            "Ani_Avatar_NPC_Think01Loop_0",
            "Ani_Avatar_NPC_Think01Loop_Sync_0",
            "Ani_Avatar_NPC_Think01AS_0",
            "Ani_Avatar_NPC_Think01AS_Sync_0"
        ],
        "1221": [
            "Ani_Avatar_NPC_AkimboHand02BS_0",
            "Ani_Avatar_NPC_AkimboHand02BS_Sync_0",
            "Ani_Avatar_NPC_AkimboHand02Loop_0",
            "Ani_Avatar_NPC_AkimboHand02Loop_Sync_0",
            "Ani_Avatar_NPC_AkimboHand02AS_0",
            "Ani_Avatar_NPC_AkimboHand02AS_Sync_0",
            "Ani_Avatar_NPC_Akimbo02Loop_0",
            "Ani_Avatar_NPC_Akimbo02Loop_Sync_0",
            "Ani_Avatar_NPC_Akimbo02AS_0",
            "Ani_Avatar_NPC_Akimbo02AS_Sync_0"
        ],
        "8040": [
            "Ani_Avatar_NPC_SitHoldArm01BS_0",
            "Ani_Avatar_NPC_SitHoldArm01BS_Sync_0",
            "Ani_Avatar_NPC_SitHoldArm01Loop_0",
            "Ani_Avatar_NPC_SitHoldArm01Loop_Sync_0",
            "Ani_Avatar_NPC_SitHoldArm01AS_0",
            "Ani_Avatar_NPC_SitHoldArm01AS_Sync_0"
        ],
        "8011": [
            "Ani_Avatar_NPC_SitChat01BS_0",
            "Ani_Avatar_NPC_SitChat01BS_Sync_0",
            "Ani_Avatar_NPC_SitChat01Loop_0",
            "Ani_Avatar_NPC_SitChat01Loop_Sync_0",
            "Ani_Avatar_NPC_SitChat01AS_0",
            "Ani_Avatar_NPC_SitChat01AS_Sync_0"
        ],
        "8012": [
            "Ani_Avatar_NPC_SitShrug01BS_0",
            "Ani_Avatar_NPC_SitShrug01BS_Sync_0",
            "Ani_Avatar_NPC_SitShrug01Loop_0",
            "Ani_Avatar_NPC_SitShrug01Loop_Sync_0",
            "Ani_Avatar_NPC_SitShrug01AS_0",
            "Ani_Avatar_NPC_SitShrug01AS_Sync_0"
        ],
        "8013": [
            "Ani_Avatar_NPC_SitThink01BS_0",
            "Ani_Avatar_NPC_SitThink01BS_Sync_0",
            "Ani_Avatar_NPC_SitThink01Loop_0",
            "Ani_Avatar_NPC_SitThink01Loop_Sync_0",
            "Ani_Avatar_NPC_SitThink01AS_0",
            "Ani_Avatar_NPC_SitThink01AS_Sync_0"
        ],
        "8060": [
            "Ani_Avatar_NPC_SitPutArm01BS_0",
            "Ani_Avatar_NPC_SitPutArm01BS_Sync_0",
            "Ani_Avatar_NPC_SitPutArm01Loop_0",
            "Ani_Avatar_NPC_SitPutArm01Loop_Sync_0",
            "Ani_Avatar_NPC_SitPutArm01AS_0",
            "Ani_Avatar_NPC_SitPutArm01AS_Sync_0"
        ],
        "8041": [
            "Ani_Avatar_NPC_SitHoldArmHand01BS_0",
            "Ani_Avatar_NPC_SitHoldArmHand01BS_Sync_0",
            "Ani_Avatar_NPC_SitHoldArmHand01Loop_0",
            "Ani_Avatar_NPC_SitHoldArmHand01Loop_Sync_0",
            "Ani_Avatar_NPC_SitHoldArmHand01AS_0",
            "Ani_Avatar_NPC_SitHoldArmHand01AS_Sync_0",
            "Ani_Avatar_NPC_SitHoldArm01Loop_0",
            "Ani_Avatar_NPC_SitHoldArm01Loop_Sync_0",
            "Ani_Avatar_NPC_SitHoldArm01AS_0",
            "Ani_Avatar_NPC_SitHoldArm01AS_Sync_0"
        ],
        "8065": [
            "Ani_Avatar_NPC_SitHoldHead01BS_0",
            "Ani_Avatar_NPC_SitHoldHead01BS_Sync_0",
            "Ani_Avatar_NPC_SitHoldHead01Loop_0",
            "Ani_Avatar_NPC_SitHoldHead01Loop_Sync_0",
            "Ani_Avatar_NPC_SitHoldHead01AS_0",
            "Ani_Avatar_NPC_SitHoldHead01AS_Sync_0",
            "Ani_Avatar_NPC_SitPutArm01Loop_0",
            "Ani_Avatar_NPC_SitPutArm01Loop_Sync_0",
            "Ani_Avatar_NPC_SitPutArm01AS_0",
            "Ani_Avatar_NPC_SitPutArm01AS_Sync_0"
        ],
        "1230": [
            "Ani_Avatar_NPC_Akimbo01BS_0",
            "Ani_Avatar_NPC_Akimbo01BS_Sync_0",
            "Ani_Avatar_NPC_Akimbo01Loop_0",
            "Ani_Avatar_NPC_Akimbo01Loop_Sync_0",
            "Ani_Avatar_NPC_Akimbo01AS_0",
            "Ani_Avatar_NPC_Akimbo01AS_Sync_0"
        ],
        "1040": [
            "Ani_Avatar_NPC_Backrake01BS_0",
            "Ani_Avatar_NPC_Backrake01BS_Sync_0",
            "Ani_Avatar_NPC_Backrake01Loop_0",
            "Ani_Avatar_NPC_Backrake01Loop_Sync_0",
            "Ani_Avatar_NPC_Backrake01AS_0",
            "Ani_Avatar_NPC_Backrake01AS_Sync_0"
        ],
        "1050": [
            "Ani_Avatar_NPC_Confuse01BS_0",
            "Ani_Avatar_NPC_Confuse01BS_Sync_0",
            "Ani_Avatar_NPC_Confuse01Loop_0",
            "Ani_Avatar_NPC_Confuse01Loop_Sync_0",
            "Ani_Avatar_NPC_Confuse01AS_0",
            "Ani_Avatar_NPC_Confuse01AS_Sync_0"
        ],
        "1060": [
            "Ani_Avatar_NPC_Forerake01BS_0",
            "Ani_Avatar_NPC_Forerake01BS_Sync_0",
            "Ani_Avatar_NPC_Forerake01Loop_0",
            "Ani_Avatar_NPC_Forerake01Loop_Sync_0",
            "Ani_Avatar_NPC_Forerake01AS_0",
            "Ani_Avatar_NPC_Forerake01AS_Sync_0"
        ],
        "1070": [
            "Ani_Avatar_NPC_Afraid01BS_0",
            "Ani_Avatar_NPC_Afraid01BS_Sync_0",
            "Ani_Avatar_NPC_Afraid01Loop_0",
            "Ani_Avatar_NPC_Afraid01Loop_Sync_0",
            "Ani_Avatar_NPC_Afraid01AS_0",
            "Ani_Avatar_NPC_Afraid01AS_Sync_0"
        ],
        "1080": [
            "Ani_Avatar_NPC_Alert01BS_0",
            "Ani_Avatar_NPC_Alert01BS_Sync_0",
            "Ani_Avatar_NPC_Alert01Loop_0",
            "Ani_Avatar_NPC_Alert01Loop_Sync_0",
            "Ani_Avatar_NPC_Alert01AS_0",
            "Ani_Avatar_NPC_Alert01AS_Sync_0"
        ],
        "1090": [
            "Ani_Avatar_NPC_Shy01BS_0",
            "Ani_Avatar_NPC_Shy01BS_Sync_0",
            "Ani_Avatar_NPC_Shy01Loop_0",
            "Ani_Avatar_NPC_Shy01Loop_Sync_0",
            "Ani_Avatar_NPC_Shy01AS_0",
            "Ani_Avatar_NPC_Shy01AS_Sync_0"
        ],
        "1110": [
            "Ani_Avatar_NPC_Shrug01BS_0",
            "Ani_Avatar_NPC_Shrug01BS_Sync_0",
            "Ani_Avatar_NPC_Shrug01Loop_0",
            "Ani_Avatar_NPC_Shrug01Loop_Sync_0",
            "Ani_Avatar_NPC_Shrug01AS_0",
            "Ani_Avatar_NPC_Shrug01AS_Sync_0"
        ],
        "1120": [
            "Ani_Avatar_NPC_HoldArm01BS_0",
            "Ani_Avatar_NPC_HoldArm01BS_Sync_0",
            "Ani_Avatar_NPC_HoldArm01Loop_0",
            "Ani_Avatar_NPC_HoldArm01Loop_Sync_0",
            "Ani_Avatar_NPC_HoldArm01AS_0",
            "Ani_Avatar_NPC_HoldArm01AS_Sync_0"
        ],
        "1130": [
            "Ani_Avatar_NPC_StrikeChest01BS_0",
            "Ani_Avatar_NPC_StrikeChest01BS_Sync_0",
            "Ani_Avatar_NPC_StrikeChest01Loop_0",
            "Ani_Avatar_NPC_StrikeChest01Loop_Sync_0",
            "Ani_Avatar_NPC_StrikeChest01AS_0",
            "Ani_Avatar_NPC_StrikeChest01AS_Sync_0"
        ],
        "1140": [
            "Ani_Avatar_NPC_PointR01BS_0",
            "Ani_Avatar_NPC_PointR01BS_Sync_0",
            "Ani_Avatar_NPC_PointR01Loop_0",
            "Ani_Avatar_NPC_PointR01Loop_Sync_0",
            "Ani_Avatar_NPC_PointR01AS_0",
            "Ani_Avatar_NPC_PointR01AS_Sync_0"
        ],
        "1150": [
            "Ani_Avatar_NPC_Refuse01_0",
            "Ani_Avatar_NPC_Refuse01_Sync_0"
        ],
        "1160": [
            "Ani_Avatar_NPC_Downcast01BS_0",
            "Ani_Avatar_NPC_Downcast01BS_Sync_0",
            "Ani_Avatar_NPC_Downcast01Loop_0",
            "Ani_Avatar_NPC_Downcast01Loop_Sync_0",
            "Ani_Avatar_NPC_Downcast01AS_0",
            "Ani_Avatar_NPC_Downcast01AS_Sync_0"
        ],
        "1170": [
            "Ani_Avatar_NPC_Chat01BS_0",
            "Ani_Avatar_NPC_Chat01BS_Sync_0",
            "Ani_Avatar_NPC_Chat01Loop_0",
            "Ani_Avatar_NPC_Chat01Loop_Sync_0",
            "Ani_Avatar_NPC_Chat01AS_0",
            "Ani_Avatar_NPC_Chat01AS_Sync_0"
        ],
        "1180": [
            "Ani_Avatar_NPC_Chat02BS_0",
            "Ani_Avatar_NPC_Chat02BS_Sync_0",
            "Ani_Avatar_NPC_Chat02Loop_0",
            "Ani_Avatar_NPC_Chat02Loop_Sync_0",
            "Ani_Avatar_NPC_Chat02AS_0",
            "Ani_Avatar_NPC_Chat02AS_Sync_0"
        ],
        "1190": [
            "Ani_Avatar_NPC_Think01BS_0",
            "Ani_Avatar_NPC_Think01BS_Sync_0",
            "Ani_Avatar_NPC_Think01Loop_0",
            "Ani_Avatar_NPC_Think01Loop_Sync_0",
            "Ani_Avatar_NPC_Think01AS_0",
            "Ani_Avatar_NPC_Think01AS_Sync_0"
        ],
        "9030": [],
        "9040": [],
        "1220": [
            "Ani_Avatar_NPC_Akimbo02BS_0",
            "Ani_Avatar_NPC_Akimbo02BS_Sync_0",
            "Ani_Avatar_NPC_Akimbo02Loop_0",
            "Ani_Avatar_NPC_Akimbo02Loop_Sync_0",
            "Ani_Avatar_NPC_Akimbo02AS_0",
            "Ani_Avatar_NPC_Akimbo02AS_Sync_0"
        ],
        "1240": [
            "Ani_Avatar_NPC_HoldHead01BS_0",
            "Ani_Avatar_NPC_HoldHead01BS_Sync_0",
            "Ani_Avatar_NPC_HoldHead01Loop_0",
            "Ani_Avatar_NPC_HoldHead01Loop_Sync_0",
            "Ani_Avatar_NPC_HoldHead01AS_0",
            "Ani_Avatar_NPC_HoldHead01AS_Sync_0"
        ],
        "1030": [
            "Ani_Avatar_NPC_PutHand01BS_0",
            "Ani_Avatar_NPC_PutHand01BS_Sync_0",
            "Ani_Avatar_NPC_PutHand01Loop_0",
            "Ani_Avatar_NPC_PutHand01Loop_Sync_0",
            "Ani_Avatar_NPC_PutHand01AS_0",
            "Ani_Avatar_NPC_PutHand01AS_Sync_0"
        ],
        "1200": [
            "Ani_Avatar_NPC_Greet01_0",
            "Ani_Avatar_NPC_Greet01_Sync_0"
        ],
        "1210": [
            "Ani_Avatar_NPC_SaluteMengde01BS_0",
            "Ani_Avatar_NPC_SaluteMengde01BS_Sync_0",
            "Ani_Avatar_NPC_SaluteMengde01Loop_0",
            "Ani_Avatar_NPC_SaluteMengde01Loop_Sync_0",
            "Ani_Avatar_NPC_SaluteMengde01AS_0",
            "Ani_Avatar_NPC_SaluteMengde01AS_Sync_0"
        ],
        "8010": [],
        "8020": [],
        "1250": [
            "Ani_Avatar_NPC_Request01BS_0",
            "Ani_Avatar_NPC_Request01BS_Sync_0",
            "Ani_Avatar_NPC_Request01Loop_0",
            "Ani_Avatar_NPC_Request01Loop_Sync_0",
            "Ani_Avatar_NPC_Request01AS_0",
            "Ani_Avatar_NPC_Request01AS_Sync_0"
        ],
        "1260": [
            "Ani_Avatar_NPC_Clap01_0",
            "Ani_Avatar_NPC_Clap01_Sync_0"
        ],
        "1270": [
            "Ani_Avatar_NPC_Cheer01BS_0",
            "Ani_Avatar_NPC_Cheer01BS_Sync_0",
            "Ani_Avatar_NPC_Cheer01Loop_0",
            "Ani_Avatar_NPC_Cheer01Loop_Sync_0",
            "Ani_Avatar_NPC_Cheer01AS_0",
            "Ani_Avatar_NPC_Cheer01AS_Sync_0"
        ],
        "1280": [
            "Ani_Avatar_NPC_Investigate01BS_0",
            "Ani_Avatar_NPC_Investigate01BS_Sync_0",
            "Ani_Avatar_NPC_Investigate01Loop_0",
            "Ani_Avatar_NPC_Investigate01Loop_Sync_0",
            "Ani_Avatar_NPC_Investigate01AS_0",
            "Ani_Avatar_NPC_Investigate01AS_Sync_0"
        ],
        "1290": [
            "Ani_Avatar_NPC_Laugh01_0",
            "Ani_Avatar_NPC_Laugh01_Sync_0"
        ],
        "1300": [
            "Ani_Avatar_NPC_Encourage01_0",
            "Ani_Avatar_NPC_Encourage01_Sync_0"
        ],
        "1310": [
            "Ani_Avatar_NPC_Dusting01_0",
            "Ani_Avatar_NPC_Dusting01_Sync_0"
        ],
        "1141": [
            "Ani_Avatar_NPC_PointF01BS_0",
            "Ani_Avatar_NPC_PointF01BS_Sync_0",
            "Ani_Avatar_NPC_PointF01Loop_0",
            "Ani_Avatar_NPC_PointF01Loop_Sync_0",
            "Ani_Avatar_NPC_PointF01AS_0",
            "Ani_Avatar_NPC_PointF01AS_Sync_0"
        ],
        "1142": [
            "Ani_Avatar_NPC_PointL01BS_0",
            "Ani_Avatar_NPC_PointL01BS_Sync_0",
            "Ani_Avatar_NPC_PointL01Loop_0",
            "Ani_Avatar_NPC_PointL01Loop_Sync_0",
            "Ani_Avatar_NPC_PointL01AS_0",
            "Ani_Avatar_NPC_PointL01AS_Sync_0"
        ],
        "1171": [
            "Ani_Avatar_NPC_Talk01_0",
            "Ani_Avatar_NPC_Talk01_Sync_0"
        ],
        "1172": [
            "Ani_Avatar_NPC_Talk02_0",
            "Ani_Avatar_NPC_Talk02_Sync_0"
        ],
        "1173": [
            "Ani_Avatar_NPC_Talk03_0",
            "Ani_Avatar_NPC_Talk03_Sync_0"
        ],
        "1330": [
            "Ani_Avatar_NPC_Read01BS_0",
            "Ani_Avatar_NPC_Read01BS_Sync_0",
            "Ani_Avatar_NPC_Read01Loop_0",
            "Ani_Avatar_NPC_Read01Loop_Sync_0",
            "Ani_Avatar_NPC_Read01AS_0",
            "Ani_Avatar_NPC_Read01AS_Sync_0"
        ],
        "1342": [
            "Ani_Avatar_Channel01BS_0",
            "Ani_Avatar_Sword_Channel01BS_Sync_0",
            "Ani_Avatar_Channel01Loop_0",
            "Ani_Avatar_Sword_Channel01Loop_Sync_0",
            "Ani_Avatar_Channel01AS_0",
            "Ani_Avatar_Sword_Channel01AS_Sync_0"
        ]
    },
    "stateAnimeMap": {
        "Ani_Avatar_NPC_Akimbo01BS_0": 8687207375418286163,
        "Ani_Avatar_NPC_Akimbo01BS_Sync_0": 9446108161436368140,
        "Ani_Avatar_NPC_Backrake01BS_0": 18139229080019537150,
        "Ani_Avatar_NPC_Backrake01BS_Sync_0": 170736226468020263,
        "Ani_Avatar_NPC_Confuse01BS_0": 11715920638266377077,
        "Ani_Avatar_NPC_Confuse01BS_Sync_0": 12205340390638825204,
        "Ani_Avatar_NPC_Forerake01BS_0": 9482724689116420649,
        "Ani_Avatar_NPC_Forerake01BS_Sync_0": 7475495308532610505,
        "Ani_Avatar_NPC_Afraid01BS_0": 765711825507843518,
        "Ani_Avatar_NPC_Afraid01BS_Sync_0": 977330608392574561,
        "Ani_Avatar_NPC_Alert01BS_0": 13148714946584556741,
        "Ani_Avatar_NPC_Alert01BS_Sync_0": 4506909211908399328,
        "Ani_Avatar_NPC_Shy01BS_0": 12397695083377975973,
        "Ani_Avatar_NPC_Shy01BS_Sync_0": 11060812014056390972,
        "Ani_Avatar_NPC_Shrug01BS_0": 12127153981674536026,
        "Ani_Avatar_NPC_Shrug01BS_Sync_0": 8518559614292199325,
        "Ani_Avatar_NPC_HoldArm01BS_0": 8572885602709724251,
        "Ani_Avatar_NPC_HoldArm01BS_Sync_0": 15785659242640110755,
        "Ani_Avatar_NPC_StrikeChest01BS_0": 171853446183227172,
        "Ani_Avatar_NPC_StrikeChest01BS_Sync_0": 3200934211924388709,
        "Ani_Avatar_NPC_PointR01BS_0": 2450299560933512599,
        "Ani_Avatar_NPC_PointR01BS_Sync_0": 8562992718807828186,
        "Ani_Avatar_NPC_Refuse01_0": 2696954681140064523,
        "Ani_Avatar_NPC_Refuse01_Sync_0": 15059928529671396959,
        "Ani_Avatar_NPC_Downcast01BS_0": 9956927130043792575,
        "Ani_Avatar_NPC_Downcast01BS_Sync_0": 17622859464455501776,
        "Ani_Avatar_NPC_Chat01BS_0": 14203316671546789106,
        "Ani_Avatar_NPC_Chat01BS_Sync_0": 8384056442614773824,
        "Ani_Avatar_NPC_Chat02BS_0": 2307247068619310817,
        "Ani_Avatar_NPC_Chat02BS_Sync_0": 13655789929041427334,
        "Ani_Avatar_NPC_Akimbo01Loop_0": 8134597280124444900,
        "Ani_Avatar_NPC_Akimbo01Loop_Sync_0": 10337933948964833292,
        "Ani_Avatar_NPC_Akimbo01AS_0": 11435557217339532046,
        "Ani_Avatar_NPC_Akimbo01AS_Sync_0": 15902200903108964593,
        "Ani_Avatar_NPC_Backrake01Loop_0": 11326868709249839570,
        "Ani_Avatar_NPC_Backrake01Loop_Sync_0": 724898056163120751,
        "Ani_Avatar_NPC_Confuse01Loop_0": 18277076844544176847,
        "Ani_Avatar_NPC_Confuse01Loop_Sync_0": 13867612769567295979,
        "Ani_Avatar_NPC_Confuse01AS_0": 2490866027202930585,
        "Ani_Avatar_NPC_Confuse01AS_Sync_0": 5958243537364683895,
        "Ani_Avatar_NPC_Forerake01Loop_0": 139899639811135947,
        "Ani_Avatar_NPC_Forerake01Loop_Sync_0": 15243346393881886040,
        "Ani_Avatar_NPC_Forerake01AS_0": 12853025141386432951,
        "Ani_Avatar_NPC_Forerake01AS_Sync_0": 2356158557354059523,
        "Ani_Avatar_NPC_Afraid01Loop_0": 6665345415241813034,
        "Ani_Avatar_NPC_Afraid01Loop_Sync_0": 3510624552854428759,
        "Ani_Avatar_NPC_Afraid01AS_0": 11791885082899028542,
        "Ani_Avatar_NPC_Afraid01AS_Sync_0": 834214276851180557,
        "Ani_Avatar_NPC_Alert01Loop_0": 15561321928905059974,
        "Ani_Avatar_NPC_Alert01Loop_Sync_0": 1297312559091146087,
        "Ani_Avatar_NPC_Alert01AS_0": 3869554312248714179,
        "Ani_Avatar_NPC_Alert01AS_Sync_0": 4572758519202822937,
        "Ani_Avatar_NPC_Shy01Loop_0": 2350597875515910506,
        "Ani_Avatar_NPC_Shy01Loop_Sync_0": 11309000723363495759,
        "Ani_Avatar_NPC_Shy01AS_0": 12897711137515889451,
        "Ani_Avatar_NPC_Shy01AS_Sync_0": 15830171850096652875,
        "Ani_Avatar_NPC_Shrug01Loop_0": 12058799096195234772,
        "Ani_Avatar_NPC_Shrug01Loop_Sync_0": 16815457137610611685,
        "Ani_Avatar_NPC_Shrug01AS_0": 12804492378682926018,
        "Ani_Avatar_NPC_Shrug01AS_Sync_0": 1544889688841771280,
        "Ani_Avatar_NPC_HoldArm01Loop_0": 3495303117420885207,
        "Ani_Avatar_NPC_HoldArm01Loop_Sync_0": 16128281601094474193,
        "Ani_Avatar_NPC_HoldArm01AS_0": 14896751227684016452,
        "Ani_Avatar_NPC_HoldArm01AS_Sync_0": 16026842746575562185,
        "Ani_Avatar_NPC_StrikeChest01Loop_0": 18299091073645162818,
        "Ani_Avatar_NPC_StrikeChest01Loop_Sync_0": 12410429186854154618,
        "Ani_Avatar_NPC_StrikeChest01AS_0": 1076331244716096050,
        "Ani_Avatar_NPC_StrikeChest01AS_Sync_0": 2169799766703901834,
        "Ani_Avatar_NPC_PointR01Loop_0": 13985388450949558776,
        "Ani_Avatar_NPC_PointR01Loop_Sync_0": 16399155051907833798,
        "Ani_Avatar_NPC_PointR01AS_0": 7238902072470349650,
        "Ani_Avatar_NPC_PointR01AS_Sync_0": 14759924470214800108,
        "Ani_Avatar_NPC_Downcast01Loop_0": 15555115093798985087,
        "Ani_Avatar_NPC_Downcast01Loop_Sync_0": 8961571565580138494,
        "Ani_Avatar_NPC_Downcast01AS_0": 7115919146685306883,
        "Ani_Avatar_NPC_Downcast01AS_Sync_0": 13258817802435583946,
        "Ani_Avatar_NPC_Chat01Loop_0": 14659987411826124975,
        "Ani_Avatar_NPC_Chat01Loop_Sync_0": 3798834086676449993,
        "Ani_Avatar_NPC_Chat01AS_0": 13102734640143592331,
        "Ani_Avatar_NPC_Chat01AS_Sync_0": 10015176411141590137,
        "Ani_Avatar_NPC_Chat02Loop_0": 3410315206843931438,
        "Ani_Avatar_NPC_Chat02Loop_Sync_0": 12512580386854582961,
        "Ani_Avatar_NPC_Chat02AS_0": 17465793649590367375,
        "Ani_Avatar_NPC_Chat02AS_Sync_0": 11540199793386100839,
        "Ani_Avatar_NPC_Backrake01AS_0": 16029758900288241219,
        "Ani_Avatar_NPC_Backrake01AS_Sync_0": 17501473451270581937,
        "Ani_Avatar_NPC_Think01BS_0": 3267776653497341819,
        "Ani_Avatar_NPC_Think01BS_Sync_0": 17091047931566091318,
        "Ani_Avatar_NPC_Think01Loop_0": 12870466669703548874,
        "Ani_Avatar_NPC_Think01Loop_Sync_0": 16005620201310059576,
        "Ani_Avatar_NPC_Think01AS_0": 5510419431146566170,
        "Ani_Avatar_NPC_Think01AS_Sync_0": 8710892968566879475,
        "Ani_Avatar_NPC_AkimboHand01Loop_0": 16064249559893479989,
        "Ani_Avatar_NPC_AkimboHand01Loop_Sync_0": 1873491802035235731,
        "Ani_Avatar_NPC_HoldArmHand01Loop_0": 7282614356745302843,
        "Ani_Avatar_NPC_HoldArmHand01Loop_Sync_0": 1110149726979317421,
        "Ani_Avatar_NPC_ThinkHand01Loop_0": 1958743396184326307,
        "Ani_Avatar_NPC_ThinkHand01Loop_Sync_0": 13972897778797999199,
        "Ani_Avatar_NPC_Akimbo02BS_0": 11986320645291187843,
        "Ani_Avatar_NPC_Akimbo02BS_Sync_0": 7012787859091584675,
        "Ani_Avatar_NPC_Akimbo02Loop_0": 17957217819281953073,
        "Ani_Avatar_NPC_Akimbo02Loop_Sync_0": 4273994867406876225,
        "Ani_Avatar_NPC_AkimboHand02Loop_0": 1181399341019210846,
        "Ani_Avatar_NPC_AkimboHand02Loop_Sync_0": 14064732012015962116,
        "Ani_Avatar_NPC_Akimbo02AS_0": 18435948481139493343,
        "Ani_Avatar_NPC_Akimbo02AS_Sync_0": 8780346900642533541,
        "Ani_Avatar_NPC_HoldHead01BS_0": 3068465902692858479,
        "Ani_Avatar_NPC_HoldHead01BS_Sync_0": 10981553868791733427,
        "Ani_Avatar_NPC_HoldHead01Loop_0": 17543212152755533704,
        "Ani_Avatar_NPC_HoldHead01Loop_Sync_0": 7402286941984910244,
        "Ani_Avatar_NPC_HoldHead01AS_0": 7706419061033644890,
        "Ani_Avatar_NPC_HoldHead01AS_Sync_0": 16108025789655750702,
        "Ani_Avatar_NPC_PutHand01BS_0": 6016005119198646822,
        "Ani_Avatar_NPC_PutHand01BS_Sync_0": 6092074215780611571,
        "Ani_Avatar_NPC_PutHand01Loop_0": 7576767650025618235,
        "Ani_Avatar_NPC_PutHand01Loop_Sync_0": 11989674748744813048,
        "Ani_Avatar_NPC_PutHand01AS_0": 13151329314105255936,
        "Ani_Avatar_NPC_PutHand01AS_Sync_0": 12774087654110738109,
        "Ani_Avatar_NPC_Greet01_0": 5505813724457782911,
        "Ani_Avatar_NPC_Greet01_Sync_0": 16483229232935859320,
        "Ani_Avatar_NPC_AkimboHand02BS_0": 16692740252883503539,
        "Ani_Avatar_NPC_AkimboHand02BS_Sync_0": 14822503455689197377,
        "Ani_Avatar_NPC_AkimboHand02AS_0": 10816773832952764853,
        "Ani_Avatar_NPC_AkimboHand02AS_Sync_0": 10540860792886443053,
        "Ani_Avatar_NPC_ThinkHand01BS_0": 5171352576585395867,
        "Ani_Avatar_NPC_ThinkHand01BS_Sync_0": 14189286225262059078,
        "Ani_Avatar_NPC_ThinkHand01AS_0": 16997449098437790761,
        "Ani_Avatar_NPC_ThinkHand01AS_Sync_0": 1649304620808225001,
        "Ani_Avatar_NPC_HoldArmHand01BS_0": 13723733493210159374,
        "Ani_Avatar_NPC_HoldArmHand01BS_Sync_0": 5970586448267049277,
        "Ani_Avatar_NPC_HoldArmHand01AS_0": 14576753436420329001,
        "Ani_Avatar_NPC_HoldArmHand01AS_Sync_0": 1863589287039934581,
        "Ani_Avatar_NPC_AkimboHand01BS_0": 10215559716233001902,
        "Ani_Avatar_NPC_AkimboHand01BS_Sync_0": 13392381114469478177,
        "Ani_Avatar_NPC_AkimboHand01AS_0": 15129101753489867980,
        "Ani_Avatar_NPC_AkimboHand01AS_Sync_0": 15438557894601058516,
        "Ani_Avatar_NPC_SaluteMengde01BS_0": 3306235769379269077,
        "Ani_Avatar_NPC_SaluteMengde01BS_Sync_0": 9490170706649973736,
        "Ani_Avatar_NPC_SaluteMengde01Loop_0": 10236314454883616832,
        "Ani_Avatar_NPC_SaluteMengde01Loop_Sync_0": 1352991144421384795,
        "Ani_Avatar_NPC_SaluteMengde01AS_0": 14885348931116653476,
        "Ani_Avatar_NPC_SaluteMengde01AS_Sync_0": 4281403183510878148,
        "Ani_Avatar_NPC_Request01BS_0": 9936857264206168529,
        "Ani_Avatar_NPC_Request01BS_Sync_0": 13040990820029090111,
        "Ani_Avatar_NPC_Request01Loop_0": 6374177630891191620,
        "Ani_Avatar_NPC_Request01Loop_Sync_0": 14041978005689507147,
        "Ani_Avatar_NPC_Request01AS_0": 9164730333659093262,
        "Ani_Avatar_NPC_Request01AS_Sync_0": 15760635576731230057,
        "Ani_Avatar_NPC_Clap01_0": 4961091061510278021,
        "Ani_Avatar_NPC_Clap01_Sync_0": 3631707078446898522,
        "Ani_Avatar_NPC_Cheer01BS_0": 7988877946935402340,
        "Ani_Avatar_NPC_Cheer01BS_Sync_0": 10456247773142870622,
        "Ani_Avatar_NPC_Cheer01Loop_0": 9777476586530568780,
        "Ani_Avatar_NPC_Cheer01Loop_Sync_0": 4045677663106796600,
        "Ani_Avatar_NPC_Cheer01AS_0": 16407410337300191228,
        "Ani_Avatar_NPC_Cheer01AS_Sync_0": 6112454390796382866,
        "Ani_Avatar_NPC_Investigate01BS_0": 7522376129043743785,
        "Ani_Avatar_NPC_Investigate01BS_Sync_0": 16896399114468374894,
        "Ani_Avatar_NPC_Investigate01Loop_0": 12738416125288287606,
        "Ani_Avatar_NPC_Investigate01Loop_Sync_0": 18348190591781888551,
        "Ani_Avatar_NPC_Investigate01AS_0": 5807098459050076511,
        "Ani_Avatar_NPC_Investigate01AS_Sync_0": 2195851103861530037,
        "Ani_Avatar_NPC_Laugh01_0": 7876482344547923385,
        "Ani_Avatar_NPC_Laugh01_Sync_0": 4110863778262419494,
        "Ani_Avatar_NPC_Encourage01_0": 1534883273217584015,
        "Ani_Avatar_NPC_Encourage01_Sync_0": 10253785249474144062,
        "Ani_Avatar_NPC_Dusting01_0": 4164629401641599748,
        "Ani_Avatar_NPC_Dusting01_Sync_0": 7377858190437157920,
        "Ani_Avatar_NPC_SitHoldArm01BS_0": 15894387410133763959,
        "Ani_Avatar_NPC_SitHoldArm01BS_Sync_0": 18393839941244062656,
        "Ani_Avatar_NPC_SitHoldArm01Loop_0": 17077048878690754462,
        "Ani_Avatar_NPC_SitHoldArm01Loop_Sync_0": 7696163579784251839,
        "Ani_Avatar_NPC_SitHoldArm01AS_0": 8099871174104290865,
        "Ani_Avatar_NPC_SitHoldArm01AS_Sync_0": 12652807124185373021,
        "Ani_Avatar_NPC_SitHoldArmHand01BS_0": 7290034449212747123,
        "Ani_Avatar_NPC_SitHoldArmHand01BS_Sync_0": 12500381368892405583,
        "Ani_Avatar_NPC_SitHoldArmHand01Loop_0": 17692956009122600378,
        "Ani_Avatar_NPC_SitHoldArmHand01Loop_Sync_0": 13123685914568673695,
        "Ani_Avatar_NPC_SitHoldArmHand01AS_0": 8316703107244978878,
        "Ani_Avatar_NPC_SitHoldArmHand01AS_Sync_0": 6139959542398718919,
        "Ani_Avatar_NPC_PointF01BS_0": 4269772795759373827,
        "Ani_Avatar_NPC_PointF01BS_Sync_0": 13000263815579031546,
        "Ani_Avatar_NPC_PointF01Loop_0": 18088829858859345885,
        "Ani_Avatar_NPC_PointF01Loop_Sync_0": 15949132469714207081,
        "Ani_Avatar_NPC_PointF01AS_0": 2597239928668397361,
        "Ani_Avatar_NPC_PointF01AS_Sync_0": 8737565715891536133,
        "Ani_Avatar_NPC_PointL01BS_0": 8040414391445719757,
        "Ani_Avatar_NPC_PointL01BS_Sync_0": 8201019704042251590,
        "Ani_Avatar_NPC_PointL01Loop_0": 14236168800317313477,
        "Ani_Avatar_NPC_PointL01Loop_Sync_0": 382331835867467590,
        "Ani_Avatar_NPC_PointL01AS_0": 5681792259202939434,
        "Ani_Avatar_NPC_PointL01AS_Sync_0": 10753474896125228110,
        "Ani_Avatar_NPC_Talk01_0": 16988454061104439873,
        "Ani_Avatar_NPC_Talk01_Sync_0": 8508099151741655578,
        "Ani_Avatar_NPC_Talk02_0": 12917184784851561876,
        "Ani_Avatar_NPC_Talk02_Sync_0": 16411713008558643320,
        "Ani_Avatar_NPC_Talk03_0": 17273248841709214632,
        "Ani_Avatar_NPC_Talk03_Sync_0": 8703126923942980477,
        "Ani_Avatar_NPC_SitChat01BS_0": 17103245973768843628,
        "Ani_Avatar_NPC_SitChat01BS_Sync_0": 108762438735492983,
        "Ani_Avatar_NPC_SitChat01Loop_0": 18200756731242232918,
        "Ani_Avatar_NPC_SitChat01Loop_Sync_0": 1771575687770566727,
        "Ani_Avatar_NPC_SitChat01AS_0": 6753239789011064203,
        "Ani_Avatar_NPC_SitChat01AS_Sync_0": 10925295890269216751,
        "Ani_Avatar_NPC_SitShrug01AS_0": 14887505765630971277,
        "Ani_Avatar_NPC_SitShrug01AS_Sync_0": 15291530765047387182,
        "Ani_Avatar_NPC_SitShrug01Loop_0": 12610928121848419269,
        "Ani_Avatar_NPC_SitShrug01Loop_Sync_0": 17887289591100043476,
        "Ani_Avatar_NPC_SitShrug01BS_0": 14081138902873304601,
        "Ani_Avatar_NPC_SitShrug01BS_Sync_0": 9983856406569406401,
        "Ani_Avatar_NPC_SitThink01BS_0": 1620694295148601423,
        "Ani_Avatar_NPC_SitThink01BS_Sync_0": 16288527204911504379,
        "Ani_Avatar_NPC_SitThink01Loop_0": 14270342546635714715,
        "Ani_Avatar_NPC_SitThink01Loop_Sync_0": 4259004362640797346,
        "Ani_Avatar_NPC_SitThink01AS_0": 6839562659632883548,
        "Ani_Avatar_NPC_SitThink01AS_Sync_0": 4492918691210394435,
        "Ani_Avatar_NPC_SitPutArm01AS_0": 17285163506801410232,
        "Ani_Avatar_NPC_SitPutArm01AS_Sync_0": 10583661030020658824,
        "Ani_Avatar_NPC_SitPutArm01Loop_0": 4122839000073631794,
        "Ani_Avatar_NPC_SitPutArm01Loop_Sync_0": 14156315497614503341,
        "Ani_Avatar_NPC_SitPutArm01BS_0": 10794887061802215500,
        "Ani_Avatar_NPC_SitPutArm01BS_Sync_0": 4841064836923309913,
        "Ani_Avatar_NPC_Read01AS_0": 11986805321387796200,
        "Ani_Avatar_NPC_Read01AS_Sync_0": 11869728419508152832,
        "Ani_Avatar_NPC_Read01Loop_0": 11438879554662919704,
        "Ani_Avatar_NPC_Read01Loop_Sync_0": 15542675149184716595,
        "Ani_Avatar_NPC_Read01BS_0": 7138265993965502483,
        "Ani_Avatar_NPC_Read01BS_Sync_0": 18003145882252257373,
        "Ani_Avatar_NPC_SitHoldHead01AS_0": 9663175073565676815,
        "Ani_Avatar_NPC_SitHoldHead01AS_Sync_0": 1562846535721524090,
        "Ani_Avatar_NPC_SitHoldHead01Loop_0": 11205260431678219621,
        "Ani_Avatar_NPC_SitHoldHead01Loop_Sync_0": 6264356863548725747,
        "Ani_Avatar_NPC_SitHoldHead01BS_0": 18087825861680823010,
        "Ani_Avatar_NPC_SitHoldHead01BS_Sync_0": 10727837449364747116,
        "Ani_Avatar_Channel01BS_0": 5960687249005625433,
        "Ani_Avatar_Sword_Channel01BS_Sync_0": 4640689294483093414,
        "Ani_Avatar_Channel01Loop_0": 838208740136918127,
        "Ani_Avatar_Sword_Channel01Loop_Sync_0": 12069439677244913691,
        "Ani_Avatar_Channel01AS_0": 3329961036921765553,
        "Ani_Avatar_Sword_Channel01AS_Sync_0": 6304913954990244695
    }
}