{
  "NOKKDDHKGAK": "Char_Skill_12063",
  "LBJBMKBADGI": {
    "-2060930438": {
      "$type": "JMNPJNKIBNE",
      "CIBLLGMLODF": 1
    },
    "476224977": {
      "$type": "GBMLNFDAKNE",
      "JNMCHAGDLOL": "Element",
      "EGBGLFJKMNK": "GCG_ELEMENT_HYDRO"
    }
  }
}