{
    "luaDataPath": "",
    "startBlackKeepTime": 0.5,
    "entityBan": "",
    "disableNpcLod": true,
    "isAutoBanNpc": true,
    "isBanWidgetPet": true,
    "protectNpcMobileLod": true,
    "startFade": {
        "startFadeInDuration": 0.5,
        "startFadeOutDuration": 0.5
    },
    "endFade": {
        "startFadeOutDuration": 0.0
    },
    "actors": [
        {
            "alias": "Avatar",
            "visible": true,
            "bornPointName": "T7308301_N10000005",
            "relativePosNpcAlias": "",
            "bindMovingTargetKey": ""
        },
        {
            "configID": 1005,
            "alias": "1005",
            "visible": true,
            "bornPointName": "T7308301_N1005",
            "removeActorType": "REMOVE_WITH_DISAPPEAR",
            "relativePosNpcAlias": "",
            "bindMovingTargetKey": ""
        }
    ],
    "group": [
        [
            {
                "$type": "MoleMole.Config.ConfigTimeProtectAction",
                "type": "TIME_PROTECT",
                "duration": 1.0,
                "actionId": 104
            },
            {
                "$type": "MoleMole.Config.ConfigBlackScreenAction",
                "type": "BLACK_SCREEN",
                "actionId": 211,
                "blackScreenType": "KEEP_BLACK",
                "durationKeepBlack": 0.5,
                "inteePos": "",
                "textMapID": "",
                "useTextFade": true
            },
            {
                "$type": "MoleMole.Config.ConfigTeleportToAction",
                "type": "TELEPORT_TO",
                "aliasList": [
                    "Avatar"
                ],
                "actionId": 155,
                "position": {
                    "x": -2603.35400390625,
                    "y": 44.91999816894531,
                    "z": 5568.10400390625
                },
                "forward": {
                    "x": 1.0
                },
                "openLongDisTeleport": true,
                "posBindMovingTargetKey": "",
                "forwardBindMovingTargetKey": ""
            },
            {
                "$type": "ILCGAGEGDJI",
                "type": "BODY_LANG",
                "aliasList": [
                    "Avatar"
                ],
                "actionId": 157,
                "JLABKFNJCNP": true,
                "PMJAMGLAJGK": true,
                "LIMPPBIAKGL": false,
                "FNEGLPPEBBF": true,
                "FNDLJGEAMGI": ""
            },
            {
                "$type": "EAMBKPBOPIC",
                "type": "LOOK_AT",
                "aliasList": [
                    "Avatar"
                ],
                "actionId": 208,
                "FIDJDPAIFDN": true,
                "useTargetPos": true,
                "GFKIMGBGADJ": true,
                "GMKIJKADNHN": {
                    "x": -2601.971923828125,
                    "y": 46.16400146484375,
                    "z": 5568.0751953125
                },
                "BCHGCKLKNEH": 0.5,
                "OMCCMPHDLOO": "",
                "CEBMBGKJACI": "NONE",
                "EOHIIHMKDJC": true,
                "KPCALFDIHMC": "",
                "DBLNLMOPEBP": ""
            },
            {
                "$type": "MoleMole.Config.ConfigTeleportToAction",
                "type": "TELEPORT_TO",
                "aliasList": [
                    "1005"
                ],
                "actionId": 156,
                "position": {
                    "x": -2602.702880859375,
                    "y": 45.06800079345703,
                    "z": 5569.44384765625
                },
                "forward": {
                    "x": 1.0
                },
                "openLongDisTeleport": true,
                "posBindMovingTargetKey": "",
                "forwardBindMovingTargetKey": ""
            },
            {
                "$type": "EAMBKPBOPIC",
                "type": "LOOK_AT",
                "aliasList": [
                    "1005"
                ],
                "actionId": 207,
                "FIDJDPAIFDN": true,
                "useTargetPos": true,
                "GFKIMGBGADJ": true,
                "GMKIJKADNHN": {
                    "x": -2601.56396484375,
                    "y": 45.88800048828125,
                    "z": 5569.44287109375
                },
                "BCHGCKLKNEH": 0.5,
                "OMCCMPHDLOO": "",
                "CEBMBGKJACI": "NONE",
                "EOHIIHMKDJC": true,
                "KPCALFDIHMC": "",
                "DBLNLMOPEBP": ""
            },
            {
                "$type": "ILCGAGEGDJI",
                "type": "BODY_LANG",
                "aliasList": [
                    "1005"
                ],
                "actionId": 210,
                "FLBOOPHHFJP": 1110,
                "PMJAMGLAJGK": true,
                "LIMPPBIAKGL": false,
                "FNEGLPPEBBF": true,
                "FNDLJGEAMGI": ""
            },
            {
                "$type": "MOOOKOKLLEI",
                "type": "CAMERA_MOVE",
                "delayTime": 0.550000011920929,
                "duration": 0.10000000149011612,
                "actionId": 159,
                "DOKGBCKOLJK": {
                    "x": -2605.530029296875,
                    "y": 46.689998626708984,
                    "z": 5568.6279296875
                },
                "HGKCPMDICGG": {
                    "x": -2604.590087890625,
                    "y": 46.347999572753906,
                    "z": 5568.619140625
                },
                "AFODHELHCGB": 40.0,
                "MGMFMGNANHH": 6,
                "NDFGFJFGHKL": "EaseInOutCubic",
                "IBCBGNHCICN": {},
                "BNBBLLBEIDL": true,
                "HCPFCAHMGMO": false,
                "OMCCMPHDLOO": "",
                "FEFNBKOHPOG": true,
                "OCFGGGHIKOO": "",
                "LJFHGGJDPHH": "",
                "LPKDFKLNEHL": ""
            }
        ],
        [
            {
                "$type": "MOOOKOKLLEI",
                "type": "CAMERA_MOVE",
                "duration": 0.5,
                "actionId": 154,
                "DOKGBCKOLJK": {
                    "x": -2605.530029296875,
                    "y": 46.689998626708984,
                    "z": 5568.6279296875
                },
                "HGKCPMDICGG": {
                    "x": -2604.590087890625,
                    "y": 46.347999572753906,
                    "z": 5568.619140625
                },
                "AFODHELHCGB": 40.0,
                "MGMFMGNANHH": 6,
                "NDFGFJFGHKL": "EaseInOutCubic",
                "IBCBGNHCICN": {},
                "BNBBLLBEIDL": true,
                "HCPFCAHMGMO": false,
                "OMCCMPHDLOO": "",
                "FEFNBKOHPOG": true,
                "OCFGGGHIKOO": "",
                "LJFHGGJDPHH": "",
                "LPKDFKLNEHL": ""
            },
            {
                "$type": "MoleMole.Config.ConfigBlackScreenAction",
                "type": "BLACK_SCREEN",
                "actionId": 212,
                "blackScreenType": "FROM_BLACK",
                "durationFromBlack": 0.5,
                "inteePos": "",
                "textMapID": "",
                "useTextFade": true
            },
            {
                "$type": "DLPFECMKEKH",
                "type": "DIALOG",
                "aliasList": [
                    "1005"
                ],
                "actionId": 107,
                "NMKEDPFEKBH": 730830101,
                "JLCHMAJCAPA": 0.5
            },
            {
                "$type": "ILCGAGEGDJI",
                "type": "BODY_LANG",
                "aliasList": [
                    "1005"
                ],
                "actionId": 160,
                "FLBOOPHHFJP": 1110,
                "PMJAMGLAJGK": true,
                "LIMPPBIAKGL": false,
                "FNEGLPPEBBF": true,
                "FNDLJGEAMGI": ""
            },
            {
                "$type": "MoleMole.Config.ConfigTeleportToAction",
                "type": "TELEPORT_TO",
                "aliasList": [
                    "1005"
                ],
                "actionId": 213,
                "position": {
                    "x": -2602.702880859375,
                    "y": 44.56800079345703,
                    "z": 5569.44384765625
                },
                "forward": {
                    "x": 1.0
                },
                "openLongDisTeleport": true,
                "posBindMovingTargetKey": "",
                "forwardBindMovingTargetKey": ""
            },
            {
                "$type": "MOOOKOKLLEI",
                "type": "CAMERA_MOVE",
                "delayTime": 0.08799999952316284,
                "duration": 5.0,
                "actionId": 158,
                "DOKGBCKOLJK": {
                    "x": -2605.805908203125,
                    "y": 46.790000915527344,
                    "z": 5568.6298828125
                },
                "HGKCPMDICGG": {
                    "x": -2604.865966796875,
                    "y": 46.448001861572266,
                    "z": 5568.62109375
                },
                "AFODHELHCGB": 40.0,
                "NDFGFJFGHKL": "EaseOutQuad",
                "IBCBGNHCICN": {},
                "BNBBLLBEIDL": true,
                "HCPFCAHMGMO": false,
                "OMCCMPHDLOO": "",
                "FEFNBKOHPOG": true,
                "OCFGGGHIKOO": "",
                "LJFHGGJDPHH": "",
                "LPKDFKLNEHL": ""
            }
        ],
        [
            {
                "$type": "MOOOKOKLLEI",
                "type": "CAMERA_MOVE",
                "duration": 0.5,
                "actionId": 162,
                "DOKGBCKOLJK": {
                    "x": -2602.887939453125,
                    "y": 46.297000885009766,
                    "z": 5567.35498046875
                },
                "HGKCPMDICGG": {
                    "x": -2603.261962890625,
                    "y": 46.11399841308594,
                    "z": 5568.26416015625
                },
                "AFODHELHCGB": 25.0,
                "MGMFMGNANHH": 6,
                "NDFGFJFGHKL": "EaseInOutCubic",
                "IBCBGNHCICN": {},
                "BNBBLLBEIDL": true,
                "HCPFCAHMGMO": false,
                "OMCCMPHDLOO": "",
                "FEFNBKOHPOG": true,
                "OCFGGGHIKOO": "",
                "LJFHGGJDPHH": "",
                "LPKDFKLNEHL": ""
            },
            {
                "$type": "DLPFECMKEKH",
                "type": "DIALOG",
                "aliasList": [
                    "1005"
                ],
                "actionId": 109,
                "NMKEDPFEKBH": 730830102,
                "JLCHMAJCAPA": 0.8529999852180481
            },
            {
                "$type": "MoleMole.Config.ConfigTeleportToAction",
                "type": "TELEPORT_TO",
                "aliasList": [
                    "1005"
                ],
                "actionId": 161,
                "position": {
                    "x": -2603.22705078125,
                    "y": 44.79800033569336,
                    "z": 5568.865234375
                },
                "forward": {
                    "x": 1.0
                },
                "openLongDisTeleport": true,
                "posBindMovingTargetKey": "",
                "forwardBindMovingTargetKey": ""
            },
            {
                "$type": "ILCGAGEGDJI",
                "type": "BODY_LANG",
                "aliasList": [
                    "1005"
                ],
                "actionId": 163,
                "JLABKFNJCNP": true,
                "PMJAMGLAJGK": true,
                "LIMPPBIAKGL": false,
                "FNEGLPPEBBF": true,
                "FNDLJGEAMGI": ""
            },
            {
                "$type": "MOOOKOKLLEI",
                "type": "CAMERA_MOVE",
                "delayTime": 0.08799999952316284,
                "duration": 5.0,
                "actionId": 165,
                "DOKGBCKOLJK": {
                    "x": -2602.908935546875,
                    "y": 46.29499816894531,
                    "z": 5567.34521484375
                },
                "HGKCPMDICGG": {
                    "x": -2603.278076171875,
                    "y": 46.11199951171875,
                    "z": 5568.2568359375
                },
                "AFODHELHCGB": 25.0,
                "NDFGFJFGHKL": "EaseOutQuad",
                "IBCBGNHCICN": {},
                "BNBBLLBEIDL": true,
                "HCPFCAHMGMO": false,
                "OMCCMPHDLOO": "",
                "FEFNBKOHPOG": true,
                "OCFGGGHIKOO": "",
                "LJFHGGJDPHH": "",
                "LPKDFKLNEHL": ""
            },
            {
                "$type": "ILCGAGEGDJI",
                "type": "BODY_LANG",
                "delayTime": 0.41499999165534973,
                "aliasList": [
                    "1005"
                ],
                "actionId": 164,
                "FLBOOPHHFJP": 1190,
                "PMJAMGLAJGK": true,
                "LIMPPBIAKGL": false,
                "FNEGLPPEBBF": true,
                "FNDLJGEAMGI": ""
            }
        ],
        [
            {
                "$type": "EAMBKPBOPIC",
                "type": "LOOK_AT",
                "aliasList": [
                    "Avatar"
                ],
                "actionId": 169,
                "FIDJDPAIFDN": true,
                "BCHGCKLKNEH": 0.5,
                "OMCCMPHDLOO": "1005",
                "EOHIIHMKDJC": true,
                "KPCALFDIHMC": "",
                "DBLNLMOPEBP": ""
            },
            {
                "$type": "DLPFECMKEKH",
                "type": "DIALOG",
                "aliasList": [
                    "1005"
                ],
                "actionId": 111,
                "NMKEDPFEKBH": 730830103,
                "JLCHMAJCAPA": 1.4240000247955322
            },
            {
                "$type": "ILCGAGEGDJI",
                "type": "BODY_LANG",
                "aliasList": [
                    "1005"
                ],
                "actionId": 166,
                "JLABKFNJCNP": true,
                "PMJAMGLAJGK": true,
                "LIMPPBIAKGL": false,
                "FNEGLPPEBBF": true,
                "FNDLJGEAMGI": ""
            },
            {
                "$type": "OOMFCPJAJGL",
                "type": "STEER_TO",
                "duration": 1.0,
                "aliasList": [
                    "1005"
                ],
                "actionId": 167,
                "DMGIIHNDNLC": "ABSOLUTE",
                "PLAPKCOMAKJ": {
                    "x": -2603.2109375,
                    "y": 44.777000427246094,
                    "z": 5568.32177734375
                },
                "HCMINPNPFDF": true,
                "PENAEBFAHCH": true,
                "CKOEAJFMDON": true,
                "OMCCMPHDLOO": "",
                "DBLNLMOPEBP": ""
            },
            {
                "$type": "EAMBKPBOPIC",
                "type": "LOOK_AT",
                "aliasList": [
                    "1005"
                ],
                "actionId": 209,
                "FIDJDPAIFDN": true,
                "BCHGCKLKNEH": 0.5,
                "OMCCMPHDLOO": "Avatar",
                "EOHIIHMKDJC": true,
                "KPCALFDIHMC": "",
                "DBLNLMOPEBP": ""
            },
            {
                "$type": "ILCGAGEGDJI",
                "type": "BODY_LANG",
                "delayTime": 1.0529999732971191,
                "aliasList": [
                    "1005"
                ],
                "actionId": 168,
                "FLBOOPHHFJP": 1130,
                "PMJAMGLAJGK": true,
                "LIMPPBIAKGL": false,
                "FNEGLPPEBBF": true,
                "FNDLJGEAMGI": ""
            }
        ],
        [
            {
                "$type": "MOOOKOKLLEI",
                "type": "CAMERA_MOVE",
                "duration": 0.8190000057220459,
                "actionId": 179,
                "DOKGBCKOLJK": {
                    "x": -2602.81494140625,
                    "y": 46.071998596191406,
                    "z": 5567.7587890625
                },
                "HGKCPMDICGG": {
                    "x": -2603.138916015625,
                    "y": 46.058998107910156,
                    "z": 5568.705078125
                },
                "AFODHELHCGB": 25.0,
                "MGMFMGNANHH": 6,
                "NDFGFJFGHKL": "EaseInOutCubic",
                "IBCBGNHCICN": {},
                "BNBBLLBEIDL": true,
                "HCPFCAHMGMO": false,
                "OMCCMPHDLOO": "",
                "FEFNBKOHPOG": true,
                "OCFGGGHIKOO": "",
                "LJFHGGJDPHH": "",
                "LPKDFKLNEHL": ""
            },
            {
                "$type": "MoleMole.Config.ConfigLocalGadgetOP",
                "type": "LOCAL_GADGET_OP",
                "actionId": 252,
                "gadgetId": 70330284,
                "oprCode": 1,
                "slotName": "",
                "canReCreate": true,
                "position": {
                    "x": -2602.751953125,
                    "y": 45.887001037597656,
                    "z": 5567.81103515625
                },
                "euler": {
                    "y": -84.9749984741211
                },
                "gvKey": ""
            },
            {
                "$type": "ILCGAGEGDJI",
                "type": "BODY_LANG",
                "aliasList": [
                    "Avatar"
                ],
                "actionId": 174,
                "FLBOOPHHFJP": 1030,
                "PMJAMGLAJGK": true,
                "LIMPPBIAKGL": false,
                "FNEGLPPEBBF": true,
                "FNDLJGEAMGI": ""
            },
            {
                "$type": "EAMBKPBOPIC",
                "type": "LOOK_AT",
                "aliasList": [
                    "Avatar"
                ],
                "actionId": 176,
                "FIDJDPAIFDN": true,
                "useTargetPos": true,
                "GFKIMGBGADJ": true,
                "GMKIJKADNHN": {
                    "x": -2602.617919921875,
                    "y": 46.111000061035156,
                    "z": 5568.06494140625
                },
                "BCHGCKLKNEH": 0.5,
                "OMCCMPHDLOO": "",
                "CEBMBGKJACI": "NONE",
                "EOHIIHMKDJC": true,
                "KPCALFDIHMC": "",
                "DBLNLMOPEBP": ""
            },
            {
                "$type": "DLPFECMKEKH",
                "type": "DIALOG",
                "aliasList": [
                    "1005"
                ],
                "actionId": 113,
                "NMKEDPFEKBH": 730830104,
                "JLCHMAJCAPA": 2.7929999828338623
            },
            {
                "$type": "EAMBKPBOPIC",
                "type": "LOOK_AT",
                "aliasList": [
                    "1005"
                ],
                "actionId": 175,
                "FIDJDPAIFDN": true,
                "useTargetPos": true,
                "GFKIMGBGADJ": true,
                "GMKIJKADNHN": {
                    "x": -2602.6650390625,
                    "y": 46.066001892089844,
                    "z": 5568.10107421875
                },
                "BCHGCKLKNEH": 0.5,
                "OMCCMPHDLOO": "",
                "CEBMBGKJACI": "NONE",
                "EOHIIHMKDJC": true,
                "KPCALFDIHMC": "",
                "DBLNLMOPEBP": ""
            },
            {
                "$type": "ILCGAGEGDJI",
                "type": "BODY_LANG",
                "aliasList": [
                    "1005"
                ],
                "actionId": 177,
                "JLABKFNJCNP": true,
                "PMJAMGLAJGK": true,
                "LIMPPBIAKGL": false,
                "FNEGLPPEBBF": true,
                "FNDLJGEAMGI": ""
            },
            {
                "$type": "MOOOKOKLLEI",
                "type": "CAMERA_MOVE",
                "delayTime": 0.09000000357627869,
                "duration": 2.186000108718872,
                "actionId": 180,
                "DOKGBCKOLJK": {
                    "x": -2602.864013671875,
                    "y": 46.06999969482422,
                    "z": 5567.89892578125
                },
                "HGKCPMDICGG": {
                    "x": -2603.18798828125,
                    "y": 46.05699920654297,
                    "z": 5568.84521484375
                },
                "AFODHELHCGB": 25.0,
                "NDFGFJFGHKL": "Linear",
                "IBCBGNHCICN": {},
                "BNBBLLBEIDL": true,
                "HCPFCAHMGMO": false,
                "OMCCMPHDLOO": "",
                "FEFNBKOHPOG": true,
                "OCFGGGHIKOO": "",
                "LJFHGGJDPHH": "",
                "LPKDFKLNEHL": ""
            },
            {
                "$type": "OOMFCPJAJGL",
                "type": "STEER_TO",
                "delayTime": 0.6209999918937683,
                "duration": 1.0,
                "aliasList": [
                    "1005"
                ],
                "actionId": 178,
                "DMGIIHNDNLC": "ABSOLUTE",
                "PLAPKCOMAKJ": {
                    "x": -2602.527099609375,
                    "y": 44.340999603271484,
                    "z": 5568.14501953125
                },
                "HCMINPNPFDF": true,
                "PENAEBFAHCH": true,
                "CKOEAJFMDON": true,
                "OMCCMPHDLOO": "",
                "DBLNLMOPEBP": ""
            },
            {
                "$type": "MOOOKOKLLEI",
                "type": "CAMERA_MOVE",
                "delayTime": 2.311000108718872,
                "duration": 0.5,
                "actionId": 171,
                "DOKGBCKOLJK": {
                    "x": -2599.1708984375,
                    "y": 53.32500076293945,
                    "z": 5559.26416015625
                },
                "HGKCPMDICGG": {
                    "x": -2599.50390625,
                    "y": 52.696998596191406,
                    "z": 5559.9677734375
                },
                "AFODHELHCGB": 25.0,
                "MGMFMGNANHH": 6,
                "NDFGFJFGHKL": "EaseInOutCubic",
                "IBCBGNHCICN": {},
                "BNBBLLBEIDL": true,
                "HCPFCAHMGMO": false,
                "OMCCMPHDLOO": "",
                "FEFNBKOHPOG": true,
                "OCFGGGHIKOO": "",
                "LJFHGGJDPHH": "",
                "LPKDFKLNEHL": ""
            },
            {
                "$type": "MOOOKOKLLEI",
                "type": "CAMERA_MOVE",
                "delayTime": 2.381999969482422,
                "duration": 5.0,
                "actionId": 172,
                "DOKGBCKOLJK": {
                    "x": -2600.177978515625,
                    "y": 52.19900131225586,
                    "z": 5560.34619140625
                },
                "HGKCPMDICGG": {
                    "x": -2600.471923828125,
                    "y": 51.57099914550781,
                    "z": 5561.06689453125
                },
                "AFODHELHCGB": 25.0,
                "NDFGFJFGHKL": "EaseOutQuad",
                "IBCBGNHCICN": {},
                "BNBBLLBEIDL": true,
                "HCPFCAHMGMO": false,
                "OMCCMPHDLOO": "",
                "FEFNBKOHPOG": true,
                "OCFGGGHIKOO": "",
                "LJFHGGJDPHH": "",
                "LPKDFKLNEHL": ""
            }
        ],
        [
            {
                "$type": "MOOOKOKLLEI",
                "type": "CAMERA_MOVE",
                "duration": 0.5,
                "actionId": 181,
                "DOKGBCKOLJK": {
                    "x": -2558.876953125,
                    "y": 21.533000946044922,
                    "z": 5574.7041015625
                },
                "HGKCPMDICGG": {
                    "x": -2559.778076171875,
                    "y": 21.93199920654297,
                    "z": 5574.5361328125
                },
                "AFODHELHCGB": 25.0,
                "MGMFMGNANHH": 6,
                "NDFGFJFGHKL": "EaseInOutCubic",
                "IBCBGNHCICN": {},
                "BNBBLLBEIDL": true,
                "HCPFCAHMGMO": false,
                "OMCCMPHDLOO": "",
                "FEFNBKOHPOG": true,
                "OCFGGGHIKOO": "",
                "LJFHGGJDPHH": "",
                "LPKDFKLNEHL": ""
            },
            {
                "$type": "DLPFECMKEKH",
                "type": "DIALOG",
                "aliasList": [
                    "1005"
                ],
                "actionId": 115,
                "NMKEDPFEKBH": 730830105,
                "JLCHMAJCAPA": 0.5
            },
            {
                "$type": "MOOOKOKLLEI",
                "type": "CAMERA_MOVE",
                "delayTime": 0.08799999952316284,
                "duration": 5.0,
                "actionId": 182,
                "DOKGBCKOLJK": {
                    "x": -2555.547119140625,
                    "y": 20.073999404907227,
                    "z": 5573.796875
                },
                "HGKCPMDICGG": {
                    "x": -2556.4541015625,
                    "y": 20.47599983215332,
                    "z": 5573.6689453125
                },
                "AFODHELHCGB": 25.0,
                "NDFGFJFGHKL": "EaseOutQuad",
                "IBCBGNHCICN": {},
                "BNBBLLBEIDL": true,
                "HCPFCAHMGMO": false,
                "OMCCMPHDLOO": "",
                "FEFNBKOHPOG": true,
                "OCFGGGHIKOO": "",
                "LJFHGGJDPHH": "",
                "LPKDFKLNEHL": ""
            }
        ],
        [
            {
                "$type": "MOOOKOKLLEI",
                "type": "CAMERA_MOVE",
                "duration": 0.5,
                "actionId": 183,
                "DOKGBCKOLJK": {
                    "x": -2602.866943359375,
                    "y": 46.404998779296875,
                    "z": 5567.23193359375
                },
                "HGKCPMDICGG": {
                    "x": -2603.156982421875,
                    "y": 46.13199996948242,
                    "z": 5568.14892578125
                },
                "AFODHELHCGB": 25.0,
                "MGMFMGNANHH": 6,
                "NDFGFJFGHKL": "EaseInOutCubic",
                "IBCBGNHCICN": {},
                "BNBBLLBEIDL": true,
                "HCPFCAHMGMO": false,
                "OMCCMPHDLOO": "",
                "FEFNBKOHPOG": true,
                "OCFGGGHIKOO": "",
                "LJFHGGJDPHH": "",
                "LPKDFKLNEHL": ""
            },
            {
                "$type": "DLPFECMKEKH",
                "type": "DIALOG",
                "aliasList": [
                    "1005"
                ],
                "actionId": 117,
                "NMKEDPFEKBH": 730830106,
                "JLCHMAJCAPA": 0.5
            },
            {
                "$type": "ILCGAGEGDJI",
                "type": "BODY_LANG",
                "aliasList": [
                    "1005"
                ],
                "actionId": 185,
                "FLBOOPHHFJP": 1190,
                "PMJAMGLAJGK": true,
                "LIMPPBIAKGL": false,
                "FNEGLPPEBBF": true,
                "FNDLJGEAMGI": ""
            },
            {
                "$type": "MOOOKOKLLEI",
                "type": "CAMERA_MOVE",
                "delayTime": 0.07100000232458115,
                "duration": 5.0,
                "actionId": 184,
                "DOKGBCKOLJK": {
                    "x": -2602.866943359375,
                    "y": 46.404998779296875,
                    "z": 5567.23193359375
                },
                "HGKCPMDICGG": {
                    "x": -2603.156982421875,
                    "y": 46.13199996948242,
                    "z": 5568.14892578125
                },
                "AFODHELHCGB": 25.0,
                "NDFGFJFGHKL": "EaseOutQuad",
                "IBCBGNHCICN": {},
                "BNBBLLBEIDL": true,
                "HCPFCAHMGMO": false,
                "OMCCMPHDLOO": "",
                "FEFNBKOHPOG": true,
                "OCFGGGHIKOO": "",
                "LJFHGGJDPHH": "",
                "LPKDFKLNEHL": ""
            },
            {
                "$type": "ECLBLHOENAG",
                "type": "DIALOG_SELECT",
                "delayTime": 0.4000000059604645,
                "aliasList": [
                    "Avatar"
                ],
                "actionId": 118,
                "NDMMOPDPKNF": [
                    730830107
                ],
                "FPDBIEGHMCD": [
                    1043980813
                ],
                "PKBOIGBGDEG": true
            }
        ],
        [
            {
                "$type": "MOOOKOKLLEI",
                "type": "CAMERA_MOVE",
                "duration": 0.5,
                "actionId": 186,
                "DOKGBCKOLJK": {
                    "x": -2602.781005859375,
                    "y": 45.9900016784668,
                    "z": 5568.0
                },
                "HGKCPMDICGG": {
                    "x": -2603.282958984375,
                    "y": 46.0369987487793,
                    "z": 5568.86279296875
                },
                "AFODHELHCGB": 25.0,
                "MGMFMGNANHH": 6,
                "NDFGFJFGHKL": "EaseInOutCubic",
                "IBCBGNHCICN": {},
                "BNBBLLBEIDL": true,
                "HCPFCAHMGMO": false,
                "OMCCMPHDLOO": "",
                "FEFNBKOHPOG": true,
                "OCFGGGHIKOO": "",
                "LJFHGGJDPHH": "",
                "LPKDFKLNEHL": ""
            },
            {
                "$type": "DLPFECMKEKH",
                "type": "DIALOG",
                "aliasList": [
                    "1005"
                ],
                "actionId": 120,
                "NMKEDPFEKBH": 730830108,
                "JLCHMAJCAPA": 1.0470000505447388
            },
            {
                "$type": "ILCGAGEGDJI",
                "type": "BODY_LANG",
                "aliasList": [
                    "1005"
                ],
                "actionId": 188,
                "JLABKFNJCNP": true,
                "PMJAMGLAJGK": true,
                "LIMPPBIAKGL": false,
                "FNEGLPPEBBF": true,
                "FNDLJGEAMGI": ""
            },
            {
                "$type": "MOOOKOKLLEI",
                "type": "CAMERA_MOVE",
                "delayTime": 0.07100000232458115,
                "duration": 5.0,
                "actionId": 187,
                "DOKGBCKOLJK": {
                    "x": -2602.8369140625,
                    "y": 46.000999450683594,
                    "z": 5568.0830078125
                },
                "HGKCPMDICGG": {
                    "x": -2603.322998046875,
                    "y": 46.04499816894531,
                    "z": 5568.9560546875
                },
                "AFODHELHCGB": 25.0,
                "NDFGFJFGHKL": "EaseOutQuad",
                "IBCBGNHCICN": {},
                "BNBBLLBEIDL": true,
                "HCPFCAHMGMO": false,
                "OMCCMPHDLOO": "",
                "FEFNBKOHPOG": true,
                "OCFGGGHIKOO": "",
                "LJFHGGJDPHH": "",
                "LPKDFKLNEHL": ""
            },
            {
                "$type": "ILCGAGEGDJI",
                "type": "BODY_LANG",
                "delayTime": 0.5830000042915344,
                "aliasList": [
                    "1005"
                ],
                "actionId": 189,
                "FLBOOPHHFJP": 1120,
                "PMJAMGLAJGK": true,
                "LIMPPBIAKGL": false,
                "FNEGLPPEBBF": true,
                "FNDLJGEAMGI": ""
            }
        ],
        [
            {
                "$type": "MOOOKOKLLEI",
                "type": "CAMERA_MOVE",
                "duration": 0.5,
                "actionId": 190,
                "DOKGBCKOLJK": {
                    "x": -2593.303955078125,
                    "y": 53.70199966430664,
                    "z": 5544.23486328125
                },
                "HGKCPMDICGG": {
                    "x": -2593.75390625,
                    "y": 53.310001373291016,
                    "z": 5545.037109375
                },
                "AFODHELHCGB": 25.0,
                "MGMFMGNANHH": 6,
                "NDFGFJFGHKL": "EaseInOutCubic",
                "IBCBGNHCICN": {},
                "BNBBLLBEIDL": true,
                "HCPFCAHMGMO": false,
                "OMCCMPHDLOO": "",
                "FEFNBKOHPOG": true,
                "OCFGGGHIKOO": "",
                "LJFHGGJDPHH": "",
                "LPKDFKLNEHL": ""
            },
            {
                "$type": "DLPFECMKEKH",
                "type": "DIALOG",
                "aliasList": [
                    "1005"
                ],
                "actionId": 122,
                "NMKEDPFEKBH": 730830109,
                "JLCHMAJCAPA": 0.5
            },
            {
                "$type": "MOOOKOKLLEI",
                "type": "CAMERA_MOVE",
                "delayTime": 0.08799999952316284,
                "duration": 5.0,
                "actionId": 191,
                "DOKGBCKOLJK": {
                    "x": -2592.955078125,
                    "y": 53.69499969482422,
                    "z": 5544.43603515625
                },
                "HGKCPMDICGG": {
                    "x": -2593.447998046875,
                    "y": 53.303001403808594,
                    "z": 5545.212890625
                },
                "AFODHELHCGB": 25.0,
                "NDFGFJFGHKL": "EaseOutQuad",
                "IBCBGNHCICN": {},
                "BNBBLLBEIDL": true,
                "HCPFCAHMGMO": false,
                "OMCCMPHDLOO": "",
                "FEFNBKOHPOG": true,
                "OCFGGGHIKOO": "",
                "LJFHGGJDPHH": "",
                "LPKDFKLNEHL": ""
            },
            {
                "$type": "ECLBLHOENAG",
                "type": "DIALOG_SELECT",
                "delayTime": 0.4000000059604645,
                "aliasList": [
                    "Avatar"
                ],
                "actionId": 123,
                "NDMMOPDPKNF": [
                    730830110,
                    730830112,
                    730830114
                ],
                "FPDBIEGHMCD": [
                    2298633962,
                    2298633963,
                    2298633964
                ],
                "PKBOIGBGDEG": true
            }
        ],
        [
            {
                "$type": "MOOOKOKLLEI",
                "type": "CAMERA_MOVE",
                "duration": 0.5,
                "actionId": 192,
                "DOKGBCKOLJK": {
                    "x": -2602.955078125,
                    "y": 46.33700180053711,
                    "z": 5567.3349609375
                },
                "HGKCPMDICGG": {
                    "x": -2603.19091796875,
                    "y": 46.106998443603516,
                    "z": 5568.27880859375
                },
                "AFODHELHCGB": 25.0,
                "MGMFMGNANHH": 6,
                "NDFGFJFGHKL": "EaseInOutCubic",
                "IBCBGNHCICN": {},
                "BNBBLLBEIDL": true,
                "HCPFCAHMGMO": false,
                "OMCCMPHDLOO": "",
                "FEFNBKOHPOG": true,
                "OCFGGGHIKOO": "",
                "LJFHGGJDPHH": "",
                "LPKDFKLNEHL": ""
            },
            {
                "$type": "DLPFECMKEKH",
                "type": "DIALOG",
                "aliasList": [
                    "1005"
                ],
                "actionId": 125,
                "NMKEDPFEKBH": 730830111,
                "JLCHMAJCAPA": 0.5
            },
            {
                "$type": "ILCGAGEGDJI",
                "type": "BODY_LANG",
                "aliasList": [
                    "1005"
                ],
                "actionId": 194,
                "FLBOOPHHFJP": 1110,
                "PMJAMGLAJGK": true,
                "LIMPPBIAKGL": false,
                "FNEGLPPEBBF": true,
                "FNDLJGEAMGI": ""
            },
            {
                "$type": "MOOOKOKLLEI",
                "type": "CAMERA_MOVE",
                "delayTime": 0.08799999952316284,
                "duration": 5.0,
                "actionId": 193,
                "DOKGBCKOLJK": {
                    "x": -2603.0,
                    "y": 46.34000015258789,
                    "z": 5567.32421875
                },
                "HGKCPMDICGG": {
                    "x": -2603.236083984375,
                    "y": 46.11000061035156,
                    "z": 5568.26904296875
                },
                "AFODHELHCGB": 25.0,
                "NDFGFJFGHKL": "EaseOutQuad",
                "IBCBGNHCICN": {},
                "BNBBLLBEIDL": true,
                "HCPFCAHMGMO": false,
                "OMCCMPHDLOO": "",
                "FEFNBKOHPOG": true,
                "OCFGGGHIKOO": "",
                "LJFHGGJDPHH": "",
                "LPKDFKLNEHL": ""
            }
        ],
        [
            {
                "$type": "MOOOKOKLLEI",
                "type": "CAMERA_MOVE",
                "duration": 0.5,
                "actionId": 196,
                "DOKGBCKOLJK": {
                    "x": -2601.291015625,
                    "y": 49.23899841308594,
                    "z": 5568.26806640625
                },
                "HGKCPMDICGG": {
                    "x": -2601.7509765625,
                    "y": 48.35100173950195,
                    "z": 5568.27783203125
                },
                "AFODHELHCGB": 25.0,
                "MGMFMGNANHH": 6,
                "NDFGFJFGHKL": "EaseInOutCubic",
                "IBCBGNHCICN": {},
                "BNBBLLBEIDL": true,
                "HCPFCAHMGMO": false,
                "OMCCMPHDLOO": "",
                "FEFNBKOHPOG": true,
                "OCFGGGHIKOO": "",
                "LJFHGGJDPHH": "",
                "LPKDFKLNEHL": ""
            },
            {
                "$type": "DLPFECMKEKH",
                "type": "DIALOG",
                "aliasList": [
                    "1005"
                ],
                "actionId": 127,
                "NMKEDPFEKBH": 730830113,
                "JLCHMAJCAPA": 1.065000057220459
            },
            {
                "$type": "ILCGAGEGDJI",
                "type": "BODY_LANG",
                "aliasList": [
                    "1005"
                ],
                "actionId": 195,
                "JLABKFNJCNP": true,
                "PMJAMGLAJGK": true,
                "LIMPPBIAKGL": false,
                "FNEGLPPEBBF": true,
                "FNDLJGEAMGI": ""
            },
            {
                "$type": "MOOOKOKLLEI",
                "type": "CAMERA_MOVE",
                "delayTime": 0.07100000232458115,
                "duration": 5.705999851226807,
                "actionId": 197,
                "DOKGBCKOLJK": {
                    "x": -2600.839111328125,
                    "y": 50.27299880981445,
                    "z": 5568.4189453125
                },
                "HGKCPMDICGG": {
                    "x": -2601.284912109375,
                    "y": 49.37799835205078,
                    "z": 5568.39892578125
                },
                "AFODHELHCGB": 25.0,
                "NDFGFJFGHKL": "EaseOutQuad",
                "IBCBGNHCICN": {},
                "BNBBLLBEIDL": true,
                "HCPFCAHMGMO": false,
                "OMCCMPHDLOO": "",
                "FEFNBKOHPOG": true,
                "OCFGGGHIKOO": "",
                "LJFHGGJDPHH": "",
                "LPKDFKLNEHL": ""
            },
            {
                "$type": "ILCGAGEGDJI",
                "type": "BODY_LANG",
                "delayTime": 0.5740000009536743,
                "aliasList": [
                    "1005"
                ],
                "actionId": 198,
                "FLBOOPHHFJP": 1040,
                "PMJAMGLAJGK": true,
                "LIMPPBIAKGL": false,
                "FNEGLPPEBBF": true,
                "FNDLJGEAMGI": ""
            }
        ],
        [
            {
                "$type": "MOOOKOKLLEI",
                "type": "CAMERA_MOVE",
                "duration": 0.5,
                "actionId": 201,
                "DOKGBCKOLJK": {
                    "x": -2603.013916015625,
                    "y": 46.10200119018555,
                    "z": 5567.705078125
                },
                "HGKCPMDICGG": {
                    "x": -2603.39208984375,
                    "y": 46.01499938964844,
                    "z": 5568.626953125
                },
                "AFODHELHCGB": 25.0,
                "MGMFMGNANHH": 6,
                "NDFGFJFGHKL": "EaseInOutCubic",
                "IBCBGNHCICN": {},
                "BNBBLLBEIDL": true,
                "HCPFCAHMGMO": false,
                "OMCCMPHDLOO": "",
                "FEFNBKOHPOG": true,
                "OCFGGGHIKOO": "",
                "LJFHGGJDPHH": "",
                "LPKDFKLNEHL": ""
            },
            {
                "$type": "DLPFECMKEKH",
                "type": "DIALOG",
                "aliasList": [
                    "1005"
                ],
                "actionId": 129,
                "NMKEDPFEKBH": 730830115,
                "JLCHMAJCAPA": 0.5
            },
            {
                "$type": "ILCGAGEGDJI",
                "type": "BODY_LANG",
                "aliasList": [
                    "1005"
                ],
                "actionId": 199,
                "JLABKFNJCNP": true,
                "PMJAMGLAJGK": true,
                "LIMPPBIAKGL": false,
                "FNEGLPPEBBF": true,
                "FNDLJGEAMGI": ""
            },
            {
                "$type": "MOOOKOKLLEI",
                "type": "CAMERA_MOVE",
                "delayTime": 0.04399999976158142,
                "duration": 5.0,
                "actionId": 203,
                "DOKGBCKOLJK": {
                    "x": -2603.049072265625,
                    "y": 46.10499954223633,
                    "z": 5567.69091796875
                },
                "HGKCPMDICGG": {
                    "x": -2603.404052734375,
                    "y": 46.01499938964844,
                    "z": 5568.62109375
                },
                "AFODHELHCGB": 25.0,
                "NDFGFJFGHKL": "EaseOutQuad",
                "IBCBGNHCICN": {},
                "BNBBLLBEIDL": true,
                "HCPFCAHMGMO": false,
                "OMCCMPHDLOO": "",
                "FEFNBKOHPOG": true,
                "OCFGGGHIKOO": "",
                "LJFHGGJDPHH": "",
                "LPKDFKLNEHL": ""
            },
            {
                "$type": "ILCGAGEGDJI",
                "type": "BODY_LANG",
                "delayTime": 0.23199999332427979,
                "aliasList": [
                    "1005"
                ],
                "actionId": 200,
                "FLBOOPHHFJP": 1190,
                "PMJAMGLAJGK": true,
                "LIMPPBIAKGL": false,
                "FNEGLPPEBBF": true,
                "FNDLJGEAMGI": ""
            }
        ],
        [
            {
                "$type": "MOOOKOKLLEI",
                "type": "CAMERA_MOVE",
                "duration": 0.5,
                "actionId": 205,
                "DOKGBCKOLJK": {
                    "x": -2584.033935546875,
                    "y": 45.527000427246094,
                    "z": 5587.4521484375
                },
                "HGKCPMDICGG": {
                    "x": -2584.7890625,
                    "y": 45.56800079345703,
                    "z": 5586.7978515625
                },
                "AFODHELHCGB": 25.0,
                "MGMFMGNANHH": 6,
                "NDFGFJFGHKL": "EaseInOutCubic",
                "IBCBGNHCICN": {},
                "BNBBLLBEIDL": true,
                "HCPFCAHMGMO": false,
                "OMCCMPHDLOO": "",
                "FEFNBKOHPOG": true,
                "OCFGGGHIKOO": "",
                "LJFHGGJDPHH": "",
                "LPKDFKLNEHL": ""
            },
            {
                "$type": "DLPFECMKEKH",
                "type": "DIALOG",
                "aliasList": [
                    "1005"
                ],
                "actionId": 131,
                "NMKEDPFEKBH": 730830116,
                "JLCHMAJCAPA": 0.5
            },
            {
                "$type": "ILCGAGEGDJI",
                "type": "BODY_LANG",
                "aliasList": [
                    "1005"
                ],
                "actionId": 204,
                "JLABKFNJCNP": true,
                "PMJAMGLAJGK": true,
                "LIMPPBIAKGL": false,
                "FNEGLPPEBBF": true,
                "FNDLJGEAMGI": ""
            },
            {
                "$type": "MOOOKOKLLEI",
                "type": "CAMERA_MOVE",
                "delayTime": 0.04800000041723251,
                "duration": 5.552000045776367,
                "actionId": 206,
                "DOKGBCKOLJK": {
                    "x": -2583.22705078125,
                    "y": 45.50299835205078,
                    "z": 5587.41015625
                },
                "HGKCPMDICGG": {
                    "x": -2583.99609375,
                    "y": 45.54399871826172,
                    "z": 5586.77197265625
                },
                "AFODHELHCGB": 25.0,
                "NDFGFJFGHKL": "EaseOutQuad",
                "IBCBGNHCICN": {},
                "BNBBLLBEIDL": true,
                "HCPFCAHMGMO": false,
                "OMCCMPHDLOO": "",
                "FEFNBKOHPOG": true,
                "OCFGGGHIKOO": "",
                "LJFHGGJDPHH": "",
                "LPKDFKLNEHL": ""
            }
        ],
        [
            {
                "$type": "DLPFECMKEKH",
                "type": "DIALOG",
                "aliasList": [
                    "1005"
                ],
                "actionId": 133,
                "NMKEDPFEKBH": 730830117,
                "JLCHMAJCAPA": 0.5
            },
            {
                "$type": "ECLBLHOENAG",
                "type": "DIALOG_SELECT",
                "delayTime": 0.4000000059604645,
                "aliasList": [
                    "Avatar"
                ],
                "actionId": 134,
                "NDMMOPDPKNF": [
                    730830118,
                    730830121
                ],
                "FPDBIEGHMCD": [
                    2298633967,
                    2298633969
                ],
                "PKBOIGBGDEG": true
            }
        ],
        [
            {
                "$type": "MOOOKOKLLEI",
                "type": "CAMERA_MOVE",
                "duration": 0.5,
                "actionId": 214,
                "DOKGBCKOLJK": {
                    "x": -2602.47900390625,
                    "y": 46.45199966430664,
                    "z": 5566.31884765625
                },
                "HGKCPMDICGG": {
                    "x": -2602.822998046875,
                    "y": 46.26599884033203,
                    "z": 5567.23876953125
                },
                "AFODHELHCGB": 25.0,
                "MGMFMGNANHH": 6,
                "NDFGFJFGHKL": "EaseInOutCubic",
                "IBCBGNHCICN": {},
                "BNBBLLBEIDL": true,
                "HCPFCAHMGMO": false,
                "OMCCMPHDLOO": "",
                "FEFNBKOHPOG": true,
                "OCFGGGHIKOO": "",
                "LJFHGGJDPHH": "",
                "LPKDFKLNEHL": ""
            },
            {
                "$type": "EAMBKPBOPIC",
                "type": "LOOK_AT",
                "aliasList": [
                    "Avatar"
                ],
                "actionId": 218,
                "FIDJDPAIFDN": true,
                "BCHGCKLKNEH": 0.5,
                "OMCCMPHDLOO": "1005",
                "EOHIIHMKDJC": true,
                "KPCALFDIHMC": "",
                "DBLNLMOPEBP": ""
            },
            {
                "$type": "DLPFECMKEKH",
                "type": "DIALOG",
                "aliasList": [
                    "1005"
                ],
                "actionId": 136,
                "NMKEDPFEKBH": 730830119,
                "JLCHMAJCAPA": 1.6230000257492065
            },
            {
                "$type": "EAMBKPBOPIC",
                "type": "LOOK_AT",
                "aliasList": [
                    "1005"
                ],
                "actionId": 216,
                "FIDJDPAIFDN": true,
                "BCHGCKLKNEH": 0.5,
                "OMCCMPHDLOO": "Avatar",
                "EOHIIHMKDJC": true,
                "KPCALFDIHMC": "",
                "DBLNLMOPEBP": ""
            },
            {
                "$type": "MOOOKOKLLEI",
                "type": "CAMERA_MOVE",
                "delayTime": 0.05900000035762787,
                "duration": 5.0,
                "actionId": 215,
                "DOKGBCKOLJK": {
                    "x": -2602.448974609375,
                    "y": 46.40800094604492,
                    "z": 5566.35693359375
                },
                "HGKCPMDICGG": {
                    "x": -2602.76806640625,
                    "y": 46.224998474121094,
                    "z": 5567.287109375
                },
                "AFODHELHCGB": 25.0,
                "NDFGFJFGHKL": "EaseOutQuad",
                "IBCBGNHCICN": {},
                "BNBBLLBEIDL": true,
                "HCPFCAHMGMO": false,
                "OMCCMPHDLOO": "",
                "FEFNBKOHPOG": true,
                "OCFGGGHIKOO": "",
                "LJFHGGJDPHH": "",
                "LPKDFKLNEHL": ""
            },
            {
                "$type": "OOMFCPJAJGL",
                "type": "STEER_TO",
                "delayTime": 0.1889999955892563,
                "duration": 1.0,
                "aliasList": [
                    "1005"
                ],
                "actionId": 217,
                "DMGIIHNDNLC": "ABSOLUTE",
                "PLAPKCOMAKJ": {
                    "x": -2603.154052734375,
                    "y": 44.77899932861328,
                    "z": 5568.14794921875
                },
                "HCMINPNPFDF": true,
                "PENAEBFAHCH": true,
                "CKOEAJFMDON": true,
                "OMCCMPHDLOO": "",
                "DBLNLMOPEBP": ""
            },
            {
                "$type": "ILCGAGEGDJI",
                "type": "BODY_LANG",
                "delayTime": 1.2410000562667847,
                "aliasList": [
                    "1005"
                ],
                "actionId": 219,
                "FLBOOPHHFJP": 1030,
                "PMJAMGLAJGK": true,
                "LIMPPBIAKGL": false,
                "FNEGLPPEBBF": true,
                "FNDLJGEAMGI": ""
            }
        ],
        [
            {
                "$type": "MOOOKOKLLEI",
                "type": "CAMERA_MOVE",
                "duration": 0.5,
                "actionId": 221,
                "DOKGBCKOLJK": {
                    "x": -2602.97998046875,
                    "y": 46.14099884033203,
                    "z": 5568.05517578125
                },
                "HGKCPMDICGG": {
                    "x": -2603.341064453125,
                    "y": 46.08000183105469,
                    "z": 5568.98583984375
                },
                "AFODHELHCGB": 25.0,
                "MGMFMGNANHH": 6,
                "NDFGFJFGHKL": "EaseInOutCubic",
                "IBCBGNHCICN": {},
                "BNBBLLBEIDL": true,
                "HCPFCAHMGMO": false,
                "OMCCMPHDLOO": "",
                "FEFNBKOHPOG": true,
                "OCFGGGHIKOO": "",
                "LJFHGGJDPHH": "",
                "LPKDFKLNEHL": ""
            },
            {
                "$type": "DLPFECMKEKH",
                "type": "DIALOG",
                "aliasList": [
                    "1005"
                ],
                "actionId": 138,
                "NMKEDPFEKBH": 730830120,
                "JLCHMAJCAPA": 0.5
            },
            {
                "$type": "ILCGAGEGDJI",
                "type": "BODY_LANG",
                "aliasList": [
                    "1005"
                ],
                "actionId": 220,
                "JLABKFNJCNP": true,
                "PMJAMGLAJGK": true,
                "LIMPPBIAKGL": false,
                "FNEGLPPEBBF": true,
                "FNDLJGEAMGI": ""
            },
            {
                "$type": "MOOOKOKLLEI",
                "type": "CAMERA_MOVE",
                "delayTime": 0.07400000095367432,
                "duration": 5.0,
                "actionId": 222,
                "DOKGBCKOLJK": {
                    "x": -2603.012939453125,
                    "y": 46.1349983215332,
                    "z": 5568.13818359375
                },
                "HGKCPMDICGG": {
                    "x": -2603.3740234375,
                    "y": 46.07400131225586,
                    "z": 5569.06884765625
                },
                "AFODHELHCGB": 25.0,
                "NDFGFJFGHKL": "EaseOutQuad",
                "IBCBGNHCICN": {},
                "BNBBLLBEIDL": true,
                "HCPFCAHMGMO": false,
                "OMCCMPHDLOO": "",
                "FEFNBKOHPOG": true,
                "OCFGGGHIKOO": "",
                "LJFHGGJDPHH": "",
                "LPKDFKLNEHL": ""
            },
            {
                "$type": "ILCGAGEGDJI",
                "type": "BODY_LANG",
                "delayTime": 0.27300000190734863,
                "aliasList": [
                    "1005"
                ],
                "actionId": 223,
                "FLBOOPHHFJP": 1230,
                "PMJAMGLAJGK": true,
                "LIMPPBIAKGL": false,
                "FNEGLPPEBBF": true,
                "FNDLJGEAMGI": ""
            }
        ],
        [
            {
                "$type": "MOOOKOKLLEI",
                "type": "CAMERA_MOVE",
                "duration": 0.5,
                "actionId": 225,
                "DOKGBCKOLJK": {
                    "x": -2476.85595703125,
                    "y": 32.237998962402344,
                    "z": 5600.56591796875
                },
                "HGKCPMDICGG": {
                    "x": -2476.386962890625,
                    "y": 32.1150016784668,
                    "z": 5599.69091796875
                },
                "AFODHELHCGB": 40.0,
                "MGMFMGNANHH": 6,
                "NDFGFJFGHKL": "EaseInOutCubic",
                "IBCBGNHCICN": {},
                "BNBBLLBEIDL": true,
                "HCPFCAHMGMO": false,
                "OMCCMPHDLOO": "",
                "FEFNBKOHPOG": true,
                "OCFGGGHIKOO": "",
                "LJFHGGJDPHH": "",
                "LPKDFKLNEHL": ""
            },
            {
                "$type": "DLPFECMKEKH",
                "type": "DIALOG",
                "aliasList": [
                    "1005"
                ],
                "actionId": 140,
                "NMKEDPFEKBH": 730830122,
                "JLCHMAJCAPA": 0.5
            },
            {
                "$type": "ILCGAGEGDJI",
                "type": "BODY_LANG",
                "aliasList": [
                    "1005"
                ],
                "actionId": 224,
                "JLABKFNJCNP": true,
                "PMJAMGLAJGK": true,
                "LIMPPBIAKGL": false,
                "FNEGLPPEBBF": true,
                "FNDLJGEAMGI": ""
            },
            {
                "$type": "MOOOKOKLLEI",
                "type": "CAMERA_MOVE",
                "delayTime": 0.09000000357627869,
                "duration": 5.0,
                "actionId": 235,
                "DOKGBCKOLJK": {
                    "x": -2477.544921875,
                    "y": 32.284000396728516,
                    "z": 5600.60205078125
                },
                "HGKCPMDICGG": {
                    "x": -2477.0400390625,
                    "y": 32.1609992980957,
                    "z": 5599.748046875
                },
                "AFODHELHCGB": 40.0,
                "NDFGFJFGHKL": "EaseOutQuad",
                "IBCBGNHCICN": {},
                "BNBBLLBEIDL": true,
                "HCPFCAHMGMO": false,
                "OMCCMPHDLOO": "",
                "FEFNBKOHPOG": true,
                "OCFGGGHIKOO": "",
                "LJFHGGJDPHH": "",
                "LPKDFKLNEHL": ""
            }
        ],
        [
            {
                "$type": "MOOOKOKLLEI",
                "type": "CAMERA_MOVE",
                "duration": 0.5,
                "actionId": 236,
                "DOKGBCKOLJK": {
                    "x": -2592.62109375,
                    "y": 52.29899978637695,
                    "z": 5593.0478515625
                },
                "HGKCPMDICGG": {
                    "x": -2592.971923828125,
                    "y": 52.04600143432617,
                    "z": 5592.14599609375
                },
                "AFODHELHCGB": 40.0,
                "MGMFMGNANHH": 6,
                "NDFGFJFGHKL": "EaseInOutCubic",
                "IBCBGNHCICN": {},
                "BNBBLLBEIDL": true,
                "HCPFCAHMGMO": false,
                "OMCCMPHDLOO": "",
                "FEFNBKOHPOG": true,
                "OCFGGGHIKOO": "",
                "LJFHGGJDPHH": "",
                "LPKDFKLNEHL": ""
            },
            {
                "$type": "DLPFECMKEKH",
                "type": "DIALOG",
                "aliasList": [
                    "1005"
                ],
                "actionId": 142,
                "NMKEDPFEKBH": 730830123,
                "JLCHMAJCAPA": 0.5
            },
            {
                "$type": "EAMBKPBOPIC",
                "type": "LOOK_AT",
                "aliasList": [
                    "1005"
                ],
                "actionId": 238,
                "FIDJDPAIFDN": true,
                "BCHGCKLKNEH": 0.5,
                "OMCCMPHDLOO": "Avatar",
                "EOHIIHMKDJC": true,
                "KPCALFDIHMC": "",
                "DBLNLMOPEBP": ""
            },
            {
                "$type": "MOOOKOKLLEI",
                "type": "CAMERA_MOVE",
                "delayTime": 0.09799999743700027,
                "duration": 5.0,
                "actionId": 237,
                "DOKGBCKOLJK": {
                    "x": -2592.90087890625,
                    "y": 51.952999114990234,
                    "z": 5593.2529296875
                },
                "HGKCPMDICGG": {
                    "x": -2593.2509765625,
                    "y": 51.70000076293945,
                    "z": 5592.35107421875
                },
                "AFODHELHCGB": 40.0,
                "NDFGFJFGHKL": "EaseOutQuad",
                "IBCBGNHCICN": {},
                "BNBBLLBEIDL": true,
                "HCPFCAHMGMO": false,
                "OMCCMPHDLOO": "",
                "FEFNBKOHPOG": true,
                "OCFGGGHIKOO": "",
                "LJFHGGJDPHH": "",
                "LPKDFKLNEHL": ""
            }
        ],
        [
            {
                "$type": "MOOOKOKLLEI",
                "type": "CAMERA_MOVE",
                "duration": 0.5,
                "actionId": 241,
                "DOKGBCKOLJK": {
                    "x": -2602.802001953125,
                    "y": 46.310001373291016,
                    "z": 5567.421875
                },
                "HGKCPMDICGG": {
                    "x": -2603.242919921875,
                    "y": 46.0629997253418,
                    "z": 5568.28515625
                },
                "AFODHELHCGB": 25.0,
                "MGMFMGNANHH": 6,
                "NDFGFJFGHKL": "EaseInOutCubic",
                "IBCBGNHCICN": {},
                "BNBBLLBEIDL": true,
                "HCPFCAHMGMO": false,
                "OMCCMPHDLOO": "",
                "FEFNBKOHPOG": true,
                "OCFGGGHIKOO": "",
                "LJFHGGJDPHH": "",
                "LPKDFKLNEHL": ""
            },
            {
                "$type": "EAMBKPBOPIC",
                "type": "LOOK_AT",
                "aliasList": [
                    "Avatar"
                ],
                "actionId": 239,
                "FIDJDPAIFDN": true,
                "BCHGCKLKNEH": 0.5,
                "OMCCMPHDLOO": "1005",
                "EOHIIHMKDJC": true,
                "KPCALFDIHMC": "",
                "DBLNLMOPEBP": ""
            },
            {
                "$type": "DLPFECMKEKH",
                "type": "DIALOG",
                "aliasList": [
                    "1005"
                ],
                "actionId": 144,
                "NMKEDPFEKBH": 730830124,
                "JLCHMAJCAPA": 0.5
            },
            {
                "$type": "EAMBKPBOPIC",
                "type": "LOOK_AT",
                "aliasList": [
                    "1005"
                ],
                "actionId": 240,
                "FIDJDPAIFDN": true,
                "BCHGCKLKNEH": 0.5,
                "OMCCMPHDLOO": "Avatar",
                "EOHIIHMKDJC": true,
                "KPCALFDIHMC": "",
                "DBLNLMOPEBP": ""
            },
            {
                "$type": "ILCGAGEGDJI",
                "type": "BODY_LANG",
                "aliasList": [
                    "1005"
                ],
                "actionId": 242,
                "FLBOOPHHFJP": 1230,
                "PMJAMGLAJGK": true,
                "LIMPPBIAKGL": false,
                "FNEGLPPEBBF": true,
                "FNDLJGEAMGI": ""
            },
            {
                "$type": "ECLBLHOENAG",
                "type": "DIALOG_SELECT",
                "delayTime": 0.4000000059604645,
                "aliasList": [
                    "Avatar"
                ],
                "actionId": 145,
                "NDMMOPDPKNF": [
                    730830125
                ],
                "FPDBIEGHMCD": [
                    2298633993
                ],
                "PKBOIGBGDEG": true
            }
        ],
        [
            {
                "$type": "MOOOKOKLLEI",
                "type": "CAMERA_MOVE",
                "duration": 0.5,
                "actionId": 243,
                "DOKGBCKOLJK": {
                    "x": -2594.346923828125,
                    "y": 40.86899948120117,
                    "z": 5573.27099609375
                },
                "HGKCPMDICGG": {
                    "x": -2595.201904296875,
                    "y": 41.308998107910156,
                    "z": 5572.998046875
                },
                "AFODHELHCGB": 25.0,
                "MGMFMGNANHH": 6,
                "NDFGFJFGHKL": "EaseInOutCubic",
                "IBCBGNHCICN": {},
                "BNBBLLBEIDL": true,
                "HCPFCAHMGMO": false,
                "OMCCMPHDLOO": "",
                "FEFNBKOHPOG": true,
                "OCFGGGHIKOO": "",
                "LJFHGGJDPHH": "",
                "LPKDFKLNEHL": ""
            },
            {
                "$type": "DLPFECMKEKH",
                "type": "DIALOG",
                "aliasList": [
                    "1005"
                ],
                "actionId": 147,
                "NMKEDPFEKBH": 730830126,
                "JLCHMAJCAPA": 0.5
            },
            {
                "$type": "ILCGAGEGDJI",
                "type": "BODY_LANG",
                "aliasList": [
                    "1005"
                ],
                "actionId": 245,
                "JLABKFNJCNP": true,
                "PMJAMGLAJGK": true,
                "LIMPPBIAKGL": false,
                "FNEGLPPEBBF": true,
                "FNDLJGEAMGI": ""
            },
            {
                "$type": "MOOOKOKLLEI",
                "type": "CAMERA_MOVE",
                "delayTime": 0.09000000357627869,
                "duration": 5.0,
                "actionId": 244,
                "DOKGBCKOLJK": {
                    "x": -2594.528076171875,
                    "y": 40.86899948120117,
                    "z": 5573.78515625
                },
                "HGKCPMDICGG": {
                    "x": -2595.366943359375,
                    "y": 41.308998107910156,
                    "z": 5573.4638671875
                },
                "AFODHELHCGB": 25.0,
                "NDFGFJFGHKL": "EaseOutQuad",
                "IBCBGNHCICN": {},
                "BNBBLLBEIDL": true,
                "HCPFCAHMGMO": false,
                "OMCCMPHDLOO": "",
                "FEFNBKOHPOG": true,
                "OCFGGGHIKOO": "",
                "LJFHGGJDPHH": "",
                "LPKDFKLNEHL": ""
            },
            {
                "$type": "ILCGAGEGDJI",
                "type": "BODY_LANG",
                "delayTime": 0.3160000145435333,
                "aliasList": [
                    "1005"
                ],
                "actionId": 249,
                "FLBOOPHHFJP": 1260,
                "PMJAMGLAJGK": true,
                "LIMPPBIAKGL": false,
                "FNEGLPPEBBF": true,
                "FNDLJGEAMGI": ""
            }
        ],
        [
            {
                "$type": "MOOOKOKLLEI",
                "type": "CAMERA_MOVE",
                "duration": 0.5,
                "actionId": 250,
                "DOKGBCKOLJK": {
                    "x": -2603.720947265625,
                    "y": 46.10100173950195,
                    "z": 5567.72216796875
                },
                "HGKCPMDICGG": {
                    "x": -2603.154052734375,
                    "y": 46.06399917602539,
                    "z": 5568.544921875
                },
                "AFODHELHCGB": 25.0,
                "MGMFMGNANHH": 6,
                "NDFGFJFGHKL": "EaseInOutCubic",
                "IBCBGNHCICN": {},
                "BNBBLLBEIDL": true,
                "HCPFCAHMGMO": false,
                "OMCCMPHDLOO": "",
                "FEFNBKOHPOG": true,
                "OCFGGGHIKOO": "",
                "LJFHGGJDPHH": "",
                "LPKDFKLNEHL": ""
            },
            {
                "$type": "DLPFECMKEKH",
                "type": "DIALOG",
                "aliasList": [
                    "1005"
                ],
                "actionId": 149,
                "NMKEDPFEKBH": 730830127,
                "JLCHMAJCAPA": 0.5
            },
            {
                "$type": "ILCGAGEGDJI",
                "type": "BODY_LANG",
                "aliasList": [
                    "1005"
                ],
                "actionId": 228,
                "JLABKFNJCNP": true,
                "PMJAMGLAJGK": true,
                "LIMPPBIAKGL": false,
                "FNEGLPPEBBF": true,
                "FNDLJGEAMGI": ""
            },
            {
                "$type": "MOOOKOKLLEI",
                "type": "CAMERA_MOVE",
                "delayTime": 0.05900000035762787,
                "duration": 5.0,
                "actionId": 251,
                "DOKGBCKOLJK": {
                    "x": -2603.76708984375,
                    "y": 46.10300064086914,
                    "z": 5567.68017578125
                },
                "HGKCPMDICGG": {
                    "x": -2603.199951171875,
                    "y": 46.066001892089844,
                    "z": 5568.5029296875
                },
                "AFODHELHCGB": 25.0,
                "NDFGFJFGHKL": "EaseOutQuad",
                "IBCBGNHCICN": {},
                "BNBBLLBEIDL": true,
                "HCPFCAHMGMO": false,
                "OMCCMPHDLOO": "",
                "FEFNBKOHPOG": true,
                "OCFGGGHIKOO": "",
                "LJFHGGJDPHH": "",
                "LPKDFKLNEHL": ""
            },
            {
                "$type": "ILCGAGEGDJI",
                "type": "BODY_LANG",
                "delayTime": 0.32600000500679016,
                "aliasList": [
                    "1005"
                ],
                "actionId": 227,
                "FLBOOPHHFJP": 1110,
                "PMJAMGLAJGK": true,
                "LIMPPBIAKGL": false,
                "FNEGLPPEBBF": true,
                "FNDLJGEAMGI": ""
            }
        ],
        [
            {
                "$type": "MOOOKOKLLEI",
                "type": "CAMERA_MOVE",
                "duration": 0.5,
                "actionId": 229,
                "DOKGBCKOLJK": {
                    "x": -2598.35107421875,
                    "y": 50.63800048828125,
                    "z": 5562.31787109375
                },
                "HGKCPMDICGG": {
                    "x": -2598.922119140625,
                    "y": 50.108001708984375,
                    "z": 5562.94482421875
                },
                "AFODHELHCGB": 25.0,
                "MGMFMGNANHH": 6,
                "NDFGFJFGHKL": "EaseInOutCubic",
                "IBCBGNHCICN": {},
                "BNBBLLBEIDL": true,
                "HCPFCAHMGMO": false,
                "OMCCMPHDLOO": "",
                "FEFNBKOHPOG": true,
                "OCFGGGHIKOO": "",
                "LJFHGGJDPHH": "",
                "LPKDFKLNEHL": ""
            },
            {
                "$type": "DLPFECMKEKH",
                "type": "DIALOG",
                "aliasList": [
                    "1005"
                ],
                "actionId": 151,
                "NMKEDPFEKBH": 730830128,
                "JLCHMAJCAPA": 0.5
            },
            {
                "$type": "ILCGAGEGDJI",
                "type": "BODY_LANG",
                "aliasList": [
                    "1005"
                ],
                "actionId": 231,
                "JLABKFNJCNP": true,
                "PMJAMGLAJGK": true,
                "LIMPPBIAKGL": false,
                "FNEGLPPEBBF": true,
                "FNDLJGEAMGI": ""
            },
            {
                "$type": "MOOOKOKLLEI",
                "type": "CAMERA_MOVE",
                "delayTime": 0.05900000035762787,
                "duration": 5.0,
                "actionId": 230,
                "DOKGBCKOLJK": {
                    "x": -2598.343017578125,
                    "y": 51.19599914550781,
                    "z": 5561.0322265625
                },
                "HGKCPMDICGG": {
                    "x": -2598.8330078125,
                    "y": 50.66299819946289,
                    "z": 5561.72216796875
                },
                "AFODHELHCGB": 25.0,
                "NDFGFJFGHKL": "EaseOutQuad",
                "IBCBGNHCICN": {},
                "BNBBLLBEIDL": true,
                "HCPFCAHMGMO": false,
                "OMCCMPHDLOO": "",
                "FEFNBKOHPOG": true,
                "OCFGGGHIKOO": "",
                "LJFHGGJDPHH": "",
                "LPKDFKLNEHL": ""
            },
            {
                "$type": "ILCGAGEGDJI",
                "type": "BODY_LANG",
                "delayTime": 0.2930000126361847,
                "aliasList": [
                    "1005"
                ],
                "actionId": 232,
                "FLBOOPHHFJP": 1120,
                "PMJAMGLAJGK": true,
                "LIMPPBIAKGL": false,
                "FNEGLPPEBBF": true,
                "FNDLJGEAMGI": ""
            }
        ],
        [
            {
                "$type": "MoleMole.Config.ConfigSimpleBlackScreenAction",
                "type": "SIMPLE_BLACK_SCREEN",
                "actionId": 152,
                "durationToBlack": 0.5,
                "durationKeepBlack": 1.0,
                "durationFromBlack": 0.5,
                "textMapID": ""
            },
            {
                "$type": "MoleMole.Config.ConfigTimeProtectAction",
                "type": "TIME_PROTECT",
                "duration": 1.0,
                "actionId": 153
            },
            {
                "$type": "MoleMole.Config.ConfigLocalGadgetOP",
                "type": "LOCAL_GADGET_OP",
                "actionId": 253,
                "gadgetId": 70330284,
                "oprCode": 2,
                "slotName": "",
                "canReCreate": true,
                "position": {
                    "x": -2602.751953125,
                    "y": 45.887001037597656,
                    "z": 5567.81103515625
                },
                "euler": {
                    "y": -84.9749984741211
                },
                "gvKey": ""
            },
            {
                "$type": "ILCGAGEGDJI",
                "type": "BODY_LANG",
                "aliasList": [
                    "1005"
                ],
                "actionId": 233,
                "JLABKFNJCNP": true,
                "PMJAMGLAJGK": true,
                "LIMPPBIAKGL": false,
                "FNEGLPPEBBF": true,
                "FNDLJGEAMGI": ""
            },
            {
                "$type": "MOOOKOKLLEI",
                "type": "CAMERA_MOVE",
                "delayTime": 0.550000011920929,
                "duration": 0.10000000149011612,
                "actionId": 234,
                "DOKGBCKOLJK": {
                    "x": -2605.611083984375,
                    "y": 46.84600067138672,
                    "z": 5568.1728515625
                },
                "HGKCPMDICGG": {
                    "x": -2604.678955078125,
                    "y": 46.48500061035156,
                    "z": 5568.158203125
                },
                "MGMFMGNANHH": 6,
                "NDFGFJFGHKL": "EaseInOutCubic",
                "IBCBGNHCICN": {},
                "BNBBLLBEIDL": true,
                "HCPFCAHMGMO": false,
                "OMCCMPHDLOO": "",
                "FEFNBKOHPOG": true,
                "OCFGGGHIKOO": "",
                "LJFHGGJDPHH": "",
                "LPKDFKLNEHL": ""
            }
        ]
    ],
    "groupId": [
        {
            "grpId": 1043980806,
            "nextGrpId": 1043980807
        },
        {
            "index": 1,
            "grpId": 1043980807,
            "nextGrpId": 1043980808
        },
        {
            "index": 2,
            "grpId": 1043980808,
            "nextGrpId": 1043980809
        },
        {
            "index": 3,
            "grpId": 1043980809,
            "nextGrpId": 1043980810
        },
        {
            "index": 4,
            "grpId": 1043980810,
            "nextGrpId": 1043980811
        },
        {
            "index": 5,
            "grpId": 1043980811,
            "nextGrpId": 1043980812
        },
        {
            "index": 6,
            "grpId": 1043980812,
            "nextGrpId": 1043980813
        },
        {
            "index": 7,
            "grpId": 1043980813,
            "nextGrpId": 1043980814
        },
        {
            "index": 8,
            "grpId": 1043980814,
            "nextGrpId": 2298633962
        },
        {
            "index": 9,
            "grpId": 2298633962,
            "nextGrpId": 2298633965
        },
        {
            "index": 10,
            "grpId": 2298633963,
            "nextGrpId": 2298633965
        },
        {
            "index": 11,
            "grpId": 2298633964,
            "nextGrpId": 2298633965
        },
        {
            "index": 12,
            "grpId": 2298633965,
            "nextGrpId": 2298633966
        },
        {
            "index": 13,
            "grpId": 2298633966,
            "nextGrpId": 2298633967
        },
        {
            "index": 14,
            "grpId": 2298633967,
            "nextGrpId": 2298633968
        },
        {
            "index": 15,
            "grpId": 2298633968,
            "nextGrpId": 2298633994
        },
        {
            "index": 16,
            "grpId": 2298633969,
            "nextGrpId": 2298633970
        },
        {
            "index": 17,
            "grpId": 2298633970,
            "nextGrpId": 2298633971
        },
        {
            "index": 18,
            "grpId": 2298633971,
            "nextGrpId": 2298633993
        },
        {
            "index": 19,
            "grpId": 2298633993,
            "nextGrpId": 2298633994
        },
        {
            "index": 20,
            "grpId": 2298633994,
            "nextGrpId": 2298633995
        },
        {
            "index": 21,
            "grpId": 2298633995,
            "nextGrpId": 2298633996
        },
        {
            "index": 22,
            "grpId": 2298633996,
            "nextGrpId": 2298633997
        }
    ]
}