{
    "luaDataPath": "",
    "entityBan": "",
    "group": [
        [
            {
                "$type": "DLPFECMKEKH",
                "type": "DIALOG_CLEAR"
            }
        ],
        [
            {
                "$type": "DGAIAIBEAMD",
                "type": "SHOP_EXCHANGE",
                "CBOMDEDJDHM": "SHOP_TYPE_NPC_Ashpazi"
            }
        ],
        [
            {
                "$type": "MOOOKOKLLEI",
                "type": "CAMERA_MOVE",
                "duration": 1.0,
                "IPHEFBOANAL": "EXIT",
                "DGGAJKMNNKE": "TO_INTEE",
                "OMPKKAFEHPN": 5.0,
                "OMCCMPHDLOO": "",
                "OCFGGGHIKOO": "",
                "LJFHGGJDPHH": "",
                "LPKDFKLNEHL": ""
            }
        ]
    ]
}