[
    {},
    {},
    {
        "spawnPos": {
            "x": 211.46275329589844,
            "y": 3.082151330643823e-33
        },
        "spawnRot": {
            "z": -1.033984270597919e-25
        }
    },
    {
        "furnitureId": 8516,
        "spawnPos": {
            "y": 2.098644528966748e+20,
            "z": 2.4794575027763313e-41
        }
    },
    {
        "spawnPos": {
            "x": 4818.8505859375,
            "y": 4.2010871568563044e-20
        },
        "spawnRot": {
            "x": 300.0,
            "z": 4842.447265625
        }
    },
    {
        "furnitureId": 122,
        "spawnPos": {
            "x": 2.4801581520084937e-41,
            "y": 4.598427557463851e+18,
            "z": 2.484551222694152e-38
        },
        "spawnRot": {
            "z": 2.480578541547791e-41
        }
    },
    {
        "spawnPos": {
            "x": 4827.13330078125,
            "y": 5.751153388564674e-15
        },
        "spawnRot": {
            "x": 300.0,
            "z": 4810.95068359375
        }
    },
    {
        "furnitureId": 668856,
        "spawnPos": {
            "x": 300.0,
            "z": 4795.38232421875
        },
        "spawnRot": {
            "x": 2720.451904296875,
            "y": 300.0,
            "z": 4790.84619140625
        }
    },
    {
        "furnitureId": 7960,
        "spawnPos": {
            "x": -1.033984270597919e-25
        },
        "spawnRot": {
            "x": 4760.29150390625,
            "y": 1.0727319064236709e-14
        }
    },
    {
        "furnitureId": 0,
        "spawnRot": {}
    },
    {
        "spawnPos": {
            "x": 4771.99072265625,
            "y": 2.819401839797346e-16
        },
        "spawnRot": {
            "x": 300.0,
            "z": 4739.28466796875
        }
    },
    {
        "furnitureId": 11409,
        "spawnPos": {
            "x": -1.033984270597919e-25
        },
        "spawnRot": {
            "x": 4737.42041015625,
            "y": 1.584594417135407e-21
        }
    },
    {
        "furnitureId": 0,
        "spawnRot": {}
    },
    {
        "spawnPos": {
            "x": 4786.0810546875,
            "y": 3.5812414550055476e-22
        },
        "spawnRot": {
            "x": 300.0,
            "z": 4798.8935546875
        }
    }
]