{
    "JFHNOGLGPMK": [
        62,
        -34,
        38,
        32,
        -34,
        -34,
        3,
        -4,
        -2816,
        18,
        -35,
        38,
        32,
        62,
        -34,
        72511782,
        -4,
        953,
        17,
        -35,
        38,
        32,
        62,
        -34,
        29,
        -15,
        -4426,
        -4,
        7922,
        -15,
        -35,
        38,
        32,
        62,
        -34,
        57,
        -566475,
        -4,
        -40,
        -1874,
        -35,
        38,
        32,
        62,
        -34,
        26,
        56,
        -4427,
        -4,
        -2,
        12,
        16,
        -35,
        38,
        32,
        62,
        -34,
        2230,
        4427,
        -4,
        295181,
        -35,
        38,
        32
    ],
    "IGDFLEGOMGA": 62,
    "DGOBAHOLFDG": true,
    "message": ""
}