{
    "0": {
        "BKDFLKPBLJH": -34,
        "GKAONKJFNHK": 1959.909423828125
    },
    "-56": {
        "BKDFLKPBLJH": 0,
        "HNJFJDKGJBF": 3.7604534480545306e-32,
        "GKAONKJFNHK": -0.0301904808729887
    },
    "34": {
        "BKDFLKPBLJH": 71824686,
        "HNJFJDKGJBF": 193.0,
        "BCGDKNKOKGA": 1921.6614990234375
    },
    "-4": {
        "BCGDKNKOKGA": 6.314438654241845e-39,
        "LKOJCNGHOAO": -1.373977217859584e+16,
        "GKAONKJFNHK": 1.4817058078479451e-34
    },
    "21": {
        "BKDFLKPBLJH": 0,
        "HNJFJDKGJBF": 1.4407195351943312e+22,
        "HBFKHDPENLI": 1.4816698772100733e-34,
        "GKAONKJFNHK": 1564.55517578125,
        "FHGKDPBGMNP": 193.0
    },
    "25": {
        "HNJFJDKGJBF": -182.78135681152344,
        "DIEKCBICANC": 8.000064849853516
    },
    "-34": {},
    "31": {
        "HBFKHDPENLI": -45.88479232788086,
        "LKOJCNGHOAO": 8.000064849853516,
        "GKAONKJFNHK": -5.8998314247387485e+28
    }
}