{
    "sceneId": 47717,
    "monsters": [
        {
            "groupId": 247717001,
            "mapInstId": 1004,
            "aiGroupID": 247717001,
            "overrideDefendAreaRange": true,
            "defendAreaRange": 999.0,
            "overrideForceAlertDistance": true,
            "overrideClearThreatTargetDistance": true,
            "clearThreatTargetDistance": 999.0,
            "aiNeuronSetting": "DefaultSetting",
            "aiSensingTemplate": "DefaultTemplate",
            "forceCombatOnSpawn": true,
            "disableWander": true,
            "GHBHKHMIPKM": "",
            "reuseNotRemoveAbilityTag": ""
        },
        {
            "groupId": 247717001,
            "mapInstId": 1005,
            "aiGroupID": 247717001,
            "overrideDefendAreaRange": true,
            "defendAreaRange": 999.0,
            "overrideForceAlertDistance": true,
            "overrideClearThreatTargetDistance": true,
            "clearThreatTargetDistance": 999.0,
            "aiNeuronSetting": "DefaultSetting",
            "aiSensingTemplate": "DefaultTemplate",
            "forceCombatOnSpawn": true,
            "disableWander": true,
            "GHBHKHMIPKM": "",
            "reuseNotRemoveAbilityTag": ""
        },
        {
            "groupId": 247717001,
            "mapInstId": 1006,
            "aiGroupID": 247717001,
            "overrideDefendAreaRange": true,
            "defendAreaRange": 999.0,
            "overrideForceAlertDistance": true,
            "overrideClearThreatTargetDistance": true,
            "clearThreatTargetDistance": 999.0,
            "aiNeuronSetting": "DefaultSetting",
            "aiSensingTemplate": "DefaultTemplate",
            "forceCombatOnSpawn": true,
            "disableWander": true,
            "GHBHKHMIPKM": "",
            "reuseNotRemoveAbilityTag": ""
        },
        {
            "groupId": 247717001,
            "mapInstId": 1011,
            "aiGroupID": 247717001,
            "overrideDefendAreaRange": true,
            "defendAreaRange": 999.0,
            "overrideForceAlertDistance": true,
            "overrideClearThreatTargetDistance": true,
            "clearThreatTargetDistance": 999.0,
            "aiNeuronSetting": "DefaultSetting",
            "aiSensingTemplate": "DefaultTemplate",
            "forceCombatOnSpawn": true,
            "disableWander": true,
            "GHBHKHMIPKM": "",
            "reuseNotRemoveAbilityTag": ""
        },
        {
            "groupId": 247717001,
            "mapInstId": 1013,
            "aiGroupID": 247717001,
            "overrideDefendAreaRange": true,
            "defendAreaRange": 999.0,
            "overrideForceAlertDistance": true,
            "overrideClearThreatTargetDistance": true,
            "clearThreatTargetDistance": 999.0,
            "aiNeuronSetting": "DefaultSetting",
            "aiSensingTemplate": "DefaultTemplate",
            "forceCombatOnSpawn": true,
            "disableWander": true,
            "GHBHKHMIPKM": "",
            "reuseNotRemoveAbilityTag": ""
        },
        {
            "groupId": 247717001,
            "mapInstId": 1016,
            "aiGroupID": 247717001,
            "overrideDefendAreaRange": true,
            "defendAreaRange": 999.0,
            "overrideForceAlertDistance": true,
            "overrideClearThreatTargetDistance": true,
            "clearThreatTargetDistance": 999.0,
            "aiNeuronSetting": "DefaultSetting",
            "aiSensingTemplate": "DefaultTemplate",
            "forceCombatOnSpawn": true,
            "disableWander": true,
            "GHBHKHMIPKM": "",
            "reuseNotRemoveAbilityTag": ""
        },
        {
            "groupId": 247717001,
            "mapInstId": 1017,
            "aiGroupID": 247717001,
            "overrideDefendAreaRange": true,
            "defendAreaRange": 999.0,
            "overrideForceAlertDistance": true,
            "overrideClearThreatTargetDistance": true,
            "clearThreatTargetDistance": 999.0,
            "aiNeuronSetting": "DefaultSetting",
            "aiSensingTemplate": "DefaultTemplate",
            "forceCombatOnSpawn": true,
            "disableWander": true,
            "GHBHKHMIPKM": "",
            "reuseNotRemoveAbilityTag": ""
        },
        {
            "groupId": 247717001,
            "mapInstId": 1018,
            "aiGroupID": 247717001,
            "overrideDefendAreaRange": true,
            "defendAreaRange": 999.0,
            "overrideForceAlertDistance": true,
            "overrideClearThreatTargetDistance": true,
            "clearThreatTargetDistance": 999.0,
            "aiNeuronSetting": "DefaultSetting",
            "aiSensingTemplate": "DefaultTemplate",
            "forceCombatOnSpawn": true,
            "disableWander": true,
            "GHBHKHMIPKM": "",
            "reuseNotRemoveAbilityTag": ""
        },
        {
            "groupId": 247717002,
            "mapInstId": 2001,
            "aiGroupID": 247717002,
            "overrideDefendAreaRange": true,
            "defendAreaRange": 999.0,
            "overrideForceAlertDistance": true,
            "overrideClearThreatTargetDistance": true,
            "clearThreatTargetDistance": 999.0,
            "aiNeuronSetting": "DefaultSetting",
            "aiSensingTemplate": "DefaultTemplate",
            "forceCombatOnSpawn": true,
            "disableWander": true,
            "GHBHKHMIPKM": "",
            "reuseNotRemoveAbilityTag": ""
        },
        {
            "groupId": 247717002,
            "mapInstId": 2007,
            "aiGroupID": 247717002,
            "overrideDefendAreaRange": true,
            "defendAreaRange": 999.0,
            "overrideForceAlertDistance": true,
            "overrideClearThreatTargetDistance": true,
            "clearThreatTargetDistance": 999.0,
            "aiNeuronSetting": "DefaultSetting",
            "aiSensingTemplate": "DefaultTemplate",
            "forceCombatOnSpawn": true,
            "disableWander": true,
            "GHBHKHMIPKM": "",
            "reuseNotRemoveAbilityTag": ""
        },
        {
            "groupId": 247717002,
            "mapInstId": 2009,
            "aiGroupID": 247717002,
            "overrideDefendAreaRange": true,
            "defendAreaRange": 999.0,
            "overrideForceAlertDistance": true,
            "overrideClearThreatTargetDistance": true,
            "clearThreatTargetDistance": 999.0,
            "aiNeuronSetting": "DefaultSetting",
            "aiSensingTemplate": "DefaultTemplate",
            "forceCombatOnSpawn": true,
            "disableWander": true,
            "GHBHKHMIPKM": "",
            "reuseNotRemoveAbilityTag": ""
        },
        {
            "groupId": 247717002,
            "mapInstId": 2011,
            "aiGroupID": 247717002,
            "overrideDefendAreaRange": true,
            "defendAreaRange": 999.0,
            "overrideForceAlertDistance": true,
            "overrideClearThreatTargetDistance": true,
            "clearThreatTargetDistance": 999.0,
            "aiNeuronSetting": "DefaultSetting",
            "aiSensingTemplate": "DefaultTemplate",
            "forceCombatOnSpawn": true,
            "disableWander": true,
            "GHBHKHMIPKM": "",
            "reuseNotRemoveAbilityTag": ""
        },
        {
            "groupId": 247717002,
            "mapInstId": 2012,
            "aiGroupID": 247717002,
            "overrideDefendAreaRange": true,
            "defendAreaRange": 999.0,
            "overrideForceAlertDistance": true,
            "overrideClearThreatTargetDistance": true,
            "clearThreatTargetDistance": 999.0,
            "aiNeuronSetting": "DefaultSetting",
            "aiSensingTemplate": "DefaultTemplate",
            "forceCombatOnSpawn": true,
            "disableWander": true,
            "GHBHKHMIPKM": "",
            "reuseNotRemoveAbilityTag": ""
        },
        {
            "groupId": 247717002,
            "mapInstId": 2018,
            "aiGroupID": 247717002,
            "overrideDefendAreaRange": true,
            "defendAreaRange": 999.0,
            "overrideForceAlertDistance": true,
            "overrideClearThreatTargetDistance": true,
            "clearThreatTargetDistance": 999.0,
            "aiNeuronSetting": "DefaultSetting",
            "aiSensingTemplate": "DefaultTemplate",
            "forceCombatOnSpawn": true,
            "disableWander": true,
            "GHBHKHMIPKM": "",
            "reuseNotRemoveAbilityTag": ""
        },
        {
            "groupId": 247717002,
            "mapInstId": 2019,
            "aiGroupID": 247717002,
            "overrideDefendAreaRange": true,
            "defendAreaRange": 999.0,
            "overrideForceAlertDistance": true,
            "overrideClearThreatTargetDistance": true,
            "clearThreatTargetDistance": 999.0,
            "aiNeuronSetting": "DefaultSetting",
            "aiSensingTemplate": "DefaultTemplate",
            "forceCombatOnSpawn": true,
            "disableWander": true,
            "GHBHKHMIPKM": "",
            "reuseNotRemoveAbilityTag": ""
        },
        {
            "groupId": 247717002,
            "mapInstId": 2020,
            "aiGroupID": 247717002,
            "overrideDefendAreaRange": true,
            "defendAreaRange": 999.0,
            "overrideForceAlertDistance": true,
            "overrideClearThreatTargetDistance": true,
            "clearThreatTargetDistance": 999.0,
            "aiNeuronSetting": "DefaultSetting",
            "aiSensingTemplate": "DefaultTemplate",
            "forceCombatOnSpawn": true,
            "disableWander": true,
            "GHBHKHMIPKM": "",
            "reuseNotRemoveAbilityTag": ""
        },
        {
            "groupId": 247717002,
            "mapInstId": 2021,
            "aiGroupID": 247717002,
            "overrideDefendAreaRange": true,
            "defendAreaRange": 999.0,
            "overrideForceAlertDistance": true,
            "overrideClearThreatTargetDistance": true,
            "clearThreatTargetDistance": 999.0,
            "aiNeuronSetting": "DefaultSetting",
            "aiSensingTemplate": "DefaultTemplate",
            "forceCombatOnSpawn": true,
            "disableWander": true,
            "GHBHKHMIPKM": "",
            "reuseNotRemoveAbilityTag": ""
        },
        {
            "groupId": 247717003,
            "mapInstId": 3001,
            "aiGroupID": 247717003,
            "overrideDefendAreaRange": true,
            "defendAreaRange": 999.0,
            "overrideForceAlertDistance": true,
            "overrideClearThreatTargetDistance": true,
            "clearThreatTargetDistance": 999.0,
            "aiNeuronSetting": "DefaultSetting",
            "aiSensingTemplate": "DefaultTemplate",
            "forceCombatOnSpawn": true,
            "disableWander": true,
            "GHBHKHMIPKM": "",
            "reuseNotRemoveAbilityTag": ""
        },
        {
            "groupId": 247717003,
            "mapInstId": 3002,
            "aiGroupID": 247717003,
            "overrideDefendAreaRange": true,
            "defendAreaRange": 999.0,
            "overrideForceAlertDistance": true,
            "overrideClearThreatTargetDistance": true,
            "clearThreatTargetDistance": 999.0,
            "aiNeuronSetting": "DefaultSetting",
            "aiSensingTemplate": "DefaultTemplate",
            "forceCombatOnSpawn": true,
            "disableWander": true,
            "GHBHKHMIPKM": "",
            "reuseNotRemoveAbilityTag": ""
        },
        {
            "groupId": 247717003,
            "mapInstId": 3003,
            "aiGroupID": 247717003,
            "overrideDefendAreaRange": true,
            "defendAreaRange": 999.0,
            "overrideForceAlertDistance": true,
            "overrideClearThreatTargetDistance": true,
            "clearThreatTargetDistance": 999.0,
            "aiNeuronSetting": "DefaultSetting",
            "aiSensingTemplate": "DefaultTemplate",
            "forceCombatOnSpawn": true,
            "disableWander": true,
            "GHBHKHMIPKM": "",
            "reuseNotRemoveAbilityTag": ""
        },
        {
            "groupId": 247717003,
            "mapInstId": 3006,
            "aiGroupID": 247717003,
            "overrideDefendAreaRange": true,
            "defendAreaRange": 999.0,
            "overrideForceAlertDistance": true,
            "overrideClearThreatTargetDistance": true,
            "clearThreatTargetDistance": 999.0,
            "aiNeuronSetting": "DefaultSetting",
            "aiSensingTemplate": "DefaultTemplate",
            "forceCombatOnSpawn": true,
            "disableWander": true,
            "GHBHKHMIPKM": "",
            "reuseNotRemoveAbilityTag": ""
        },
        {
            "groupId": 247717003,
            "mapInstId": 3012,
            "aiGroupID": 247717003,
            "overrideDefendAreaRange": true,
            "defendAreaRange": 999.0,
            "overrideForceAlertDistance": true,
            "overrideClearThreatTargetDistance": true,
            "clearThreatTargetDistance": 999.0,
            "aiNeuronSetting": "DefaultSetting",
            "aiSensingTemplate": "DefaultTemplate",
            "forceCombatOnSpawn": true,
            "disableWander": true,
            "GHBHKHMIPKM": "",
            "reuseNotRemoveAbilityTag": ""
        },
        {
            "groupId": 247717003,
            "mapInstId": 3013,
            "aiGroupID": 247717003,
            "overrideDefendAreaRange": true,
            "defendAreaRange": 999.0,
            "overrideForceAlertDistance": true,
            "overrideClearThreatTargetDistance": true,
            "clearThreatTargetDistance": 999.0,
            "aiNeuronSetting": "DefaultSetting",
            "aiSensingTemplate": "DefaultTemplate",
            "forceCombatOnSpawn": true,
            "disableWander": true,
            "GHBHKHMIPKM": "",
            "reuseNotRemoveAbilityTag": ""
        },
        {
            "groupId": 247717003,
            "mapInstId": 3014,
            "aiGroupID": 247717003,
            "overrideDefendAreaRange": true,
            "defendAreaRange": 999.0,
            "overrideForceAlertDistance": true,
            "overrideClearThreatTargetDistance": true,
            "clearThreatTargetDistance": 999.0,
            "aiNeuronSetting": "DefaultSetting",
            "aiSensingTemplate": "DefaultTemplate",
            "forceCombatOnSpawn": true,
            "disableWander": true,
            "GHBHKHMIPKM": "",
            "reuseNotRemoveAbilityTag": ""
        },
        {
            "groupId": 247717004,
            "mapInstId": 4001,
            "aiGroupID": 247717004,
            "overrideDefendAreaRange": true,
            "defendAreaRange": 999.0,
            "overrideForceAlertDistance": true,
            "overrideClearThreatTargetDistance": true,
            "clearThreatTargetDistance": 999.0,
            "aiNeuronSetting": "DefaultSetting",
            "aiSensingTemplate": "DefaultTemplate",
            "forceCombatOnSpawn": true,
            "disableWander": true,
            "GHBHKHMIPKM": "",
            "reuseNotRemoveAbilityTag": ""
        },
        {
            "groupId": 247717004,
            "mapInstId": 4004,
            "aiGroupID": 247717004,
            "overrideDefendAreaRange": true,
            "defendAreaRange": 999.0,
            "overrideForceAlertDistance": true,
            "overrideClearThreatTargetDistance": true,
            "clearThreatTargetDistance": 999.0,
            "aiNeuronSetting": "DefaultSetting",
            "aiSensingTemplate": "DefaultTemplate",
            "forceCombatOnSpawn": true,
            "disableWander": true,
            "GHBHKHMIPKM": "",
            "reuseNotRemoveAbilityTag": ""
        },
        {
            "groupId": 247717004,
            "mapInstId": 4005,
            "aiGroupID": 247717004,
            "overrideDefendAreaRange": true,
            "defendAreaRange": 999.0,
            "overrideForceAlertDistance": true,
            "overrideClearThreatTargetDistance": true,
            "clearThreatTargetDistance": 999.0,
            "aiNeuronSetting": "DefaultSetting",
            "aiSensingTemplate": "DefaultTemplate",
            "forceCombatOnSpawn": true,
            "disableWander": true,
            "GHBHKHMIPKM": "",
            "reuseNotRemoveAbilityTag": ""
        },
        {
            "groupId": 247717004,
            "mapInstId": 4006,
            "aiGroupID": 247717004,
            "overrideDefendAreaRange": true,
            "defendAreaRange": 999.0,
            "overrideForceAlertDistance": true,
            "overrideClearThreatTargetDistance": true,
            "clearThreatTargetDistance": 999.0,
            "aiNeuronSetting": "DefaultSetting",
            "aiSensingTemplate": "DefaultTemplate",
            "forceCombatOnSpawn": true,
            "disableWander": true,
            "GHBHKHMIPKM": "",
            "reuseNotRemoveAbilityTag": ""
        },
        {
            "groupId": 247717004,
            "mapInstId": 4012,
            "aiGroupID": 247717004,
            "overrideDefendAreaRange": true,
            "defendAreaRange": 999.0,
            "overrideForceAlertDistance": true,
            "overrideClearThreatTargetDistance": true,
            "clearThreatTargetDistance": 999.0,
            "aiNeuronSetting": "DefaultSetting",
            "aiSensingTemplate": "DefaultTemplate",
            "forceCombatOnSpawn": true,
            "disableWander": true,
            "GHBHKHMIPKM": "",
            "reuseNotRemoveAbilityTag": ""
        },
        {
            "groupId": 247717004,
            "mapInstId": 4013,
            "aiGroupID": 247717004,
            "overrideDefendAreaRange": true,
            "defendAreaRange": 999.0,
            "overrideForceAlertDistance": true,
            "overrideClearThreatTargetDistance": true,
            "clearThreatTargetDistance": 999.0,
            "aiNeuronSetting": "DefaultSetting",
            "aiSensingTemplate": "DefaultTemplate",
            "forceCombatOnSpawn": true,
            "disableWander": true,
            "GHBHKHMIPKM": "",
            "reuseNotRemoveAbilityTag": ""
        },
        {
            "groupId": 247717004,
            "mapInstId": 4016,
            "aiGroupID": 247717004,
            "overrideDefendAreaRange": true,
            "defendAreaRange": 999.0,
            "overrideForceAlertDistance": true,
            "overrideClearThreatTargetDistance": true,
            "clearThreatTargetDistance": 999.0,
            "aiNeuronSetting": "DefaultSetting",
            "aiSensingTemplate": "DefaultTemplate",
            "forceCombatOnSpawn": true,
            "disableWander": true,
            "GHBHKHMIPKM": "",
            "reuseNotRemoveAbilityTag": ""
        },
        {
            "groupId": 247717004,
            "mapInstId": 4017,
            "aiGroupID": 247717004,
            "overrideDefendAreaRange": true,
            "defendAreaRange": 999.0,
            "overrideForceAlertDistance": true,
            "overrideClearThreatTargetDistance": true,
            "clearThreatTargetDistance": 999.0,
            "aiNeuronSetting": "DefaultSetting",
            "aiSensingTemplate": "DefaultTemplate",
            "forceCombatOnSpawn": true,
            "disableWander": true,
            "GHBHKHMIPKM": "",
            "reuseNotRemoveAbilityTag": ""
        },
        {
            "groupId": 247717004,
            "mapInstId": 4018,
            "aiGroupID": 247717004,
            "overrideDefendAreaRange": true,
            "defendAreaRange": 999.0,
            "overrideForceAlertDistance": true,
            "overrideClearThreatTargetDistance": true,
            "clearThreatTargetDistance": 999.0,
            "aiNeuronSetting": "DefaultSetting",
            "aiSensingTemplate": "DefaultTemplate",
            "forceCombatOnSpawn": true,
            "disableWander": true,
            "GHBHKHMIPKM": "",
            "reuseNotRemoveAbilityTag": ""
        },
        {
            "groupId": 247717004,
            "mapInstId": 4019,
            "aiGroupID": 247717004,
            "overrideDefendAreaRange": true,
            "defendAreaRange": 999.0,
            "overrideForceAlertDistance": true,
            "overrideClearThreatTargetDistance": true,
            "clearThreatTargetDistance": 999.0,
            "aiNeuronSetting": "DefaultSetting",
            "aiSensingTemplate": "DefaultTemplate",
            "forceCombatOnSpawn": true,
            "disableWander": true,
            "GHBHKHMIPKM": "",
            "reuseNotRemoveAbilityTag": ""
        },
        {
            "groupId": 247717004,
            "mapInstId": 4020,
            "aiGroupID": 247717004,
            "overrideDefendAreaRange": true,
            "defendAreaRange": 999.0,
            "overrideForceAlertDistance": true,
            "overrideClearThreatTargetDistance": true,
            "clearThreatTargetDistance": 999.0,
            "aiNeuronSetting": "DefaultSetting",
            "aiSensingTemplate": "DefaultTemplate",
            "forceCombatOnSpawn": true,
            "disableWander": true,
            "GHBHKHMIPKM": "",
            "reuseNotRemoveAbilityTag": ""
        }
    ]
}