{
    "sceneId": 35730,
    "monsters": [
        {
            "groupId": 235730004,
            "mapInstId": 4001,
            "aiGroupID": 235730004,
            "overrideDefendAreaRange": true,
            "defendAreaRange": 999.0,
            "overrideClearThreatTargetDistance": true,
            "clearThreatTargetDistance": 999.0,
            "aiNeuronSetting": "DefaultSetting",
            "aiSensingTemplate": "DefaultTemplate",
            "forceCombatOnSpawn": true,
            "disableWander": true,
            "GHBHKHMIPKM": "",
            "reuseNotRemoveAbilityTag": ""
        },
        {
            "groupId": 235730004,
            "mapInstId": 4002,
            "aiGroupID": 235730004,
            "overrideDefendAreaRange": true,
            "defendAreaRange": 999.0,
            "overrideClearThreatTargetDistance": true,
            "clearThreatTargetDistance": 999.0,
            "aiNeuronSetting": "DefaultSetting",
            "aiSensingTemplate": "DefaultTemplate",
            "forceCombatOnSpawn": true,
            "disableWander": true,
            "GHBHKHMIPKM": "",
            "reuseNotRemoveAbilityTag": ""
        },
        {
            "groupId": 235730004,
            "mapInstId": 4005,
            "aiGroupID": 235730004,
            "overrideDefendAreaRange": true,
            "defendAreaRange": 999.0,
            "overrideClearThreatTargetDistance": true,
            "clearThreatTargetDistance": 999.0,
            "aiNeuronSetting": "DefaultSetting",
            "aiSensingTemplate": "DefaultTemplate",
            "forceCombatOnSpawn": true,
            "disableWander": true,
            "GHBHKHMIPKM": "",
            "reuseNotRemoveAbilityTag": ""
        },
        {
            "groupId": 235730005,
            "mapInstId": 5001,
            "aiGroupID": 235730005,
            "overrideDefendAreaRange": true,
            "defendAreaRange": 999.0,
            "overrideClearThreatTargetDistance": true,
            "clearThreatTargetDistance": 999.0,
            "aiNeuronSetting": "DefaultSetting",
            "aiSensingTemplate": "DefaultTemplate",
            "forceCombatOnSpawn": true,
            "disableWander": true,
            "billboardHasUIBar": true,
            "billboardMultiBarNum": 2,
            "GHBHKHMIPKM": "",
            "reuseNotRemoveAbilityTag": ""
        },
        {
            "groupId": 235730005,
            "mapInstId": 5002,
            "aiGroupID": 235730005,
            "overrideDefendAreaRange": true,
            "defendAreaRange": 999.0,
            "overrideClearThreatTargetDistance": true,
            "clearThreatTargetDistance": 999.0,
            "aiNeuronSetting": "DefaultSetting",
            "aiSensingTemplate": "DefaultTemplate",
            "forceCombatOnSpawn": true,
            "disableWander": true,
            "billboardHasUIBar": true,
            "billboardMultiBarSortId": 1,
            "billboardMultiBarNum": 2,
            "GHBHKHMIPKM": "",
            "reuseNotRemoveAbilityTag": ""
        }
    ]
}