{
    "sceneId": 47720,
    "monsters": [
        {
            "groupId": 247720001,
            "mapInstId": 1004,
            "aiGroupID": 247720001,
            "overrideDefendAreaRange": true,
            "defendAreaRange": 999.0,
            "overrideForceAlertDistance": true,
            "overrideClearThreatTargetDistance": true,
            "clearThreatTargetDistance": 999.0,
            "aiNeuronSetting": "DefaultSetting",
            "aiSensingTemplate": "DefaultTemplate",
            "forceCombatOnSpawn": true,
            "disableWander": true,
            "GHBHKHMIPKM": "",
            "reuseNotRemoveAbilityTag": ""
        },
        {
            "groupId": 247720001,
            "mapInstId": 1005,
            "aiGroupID": 247720001,
            "overrideDefendAreaRange": true,
            "defendAreaRange": 999.0,
            "overrideForceAlertDistance": true,
            "overrideClearThreatTargetDistance": true,
            "clearThreatTargetDistance": 999.0,
            "aiNeuronSetting": "DefaultSetting",
            "aiSensingTemplate": "DefaultTemplate",
            "forceCombatOnSpawn": true,
            "disableWander": true,
            "GHBHKHMIPKM": "",
            "reuseNotRemoveAbilityTag": ""
        },
        {
            "groupId": 247720001,
            "mapInstId": 1006,
            "aiGroupID": 247720001,
            "overrideDefendAreaRange": true,
            "defendAreaRange": 999.0,
            "overrideForceAlertDistance": true,
            "overrideClearThreatTargetDistance": true,
            "clearThreatTargetDistance": 999.0,
            "aiNeuronSetting": "DefaultSetting",
            "aiSensingTemplate": "DefaultTemplate",
            "forceCombatOnSpawn": true,
            "disableWander": true,
            "GHBHKHMIPKM": "",
            "reuseNotRemoveAbilityTag": ""
        },
        {
            "groupId": 247720001,
            "mapInstId": 1007,
            "aiGroupID": 247720001,
            "overrideDefendAreaRange": true,
            "defendAreaRange": 999.0,
            "overrideForceAlertDistance": true,
            "overrideClearThreatTargetDistance": true,
            "clearThreatTargetDistance": 999.0,
            "aiNeuronSetting": "DefaultSetting",
            "aiSensingTemplate": "DefaultTemplate",
            "forceCombatOnSpawn": true,
            "disableWander": true,
            "GHBHKHMIPKM": "",
            "reuseNotRemoveAbilityTag": ""
        },
        {
            "groupId": 247720001,
            "mapInstId": 1011,
            "aiGroupID": 247720001,
            "overrideDefendAreaRange": true,
            "defendAreaRange": 999.0,
            "overrideForceAlertDistance": true,
            "overrideClearThreatTargetDistance": true,
            "clearThreatTargetDistance": 999.0,
            "aiNeuronSetting": "DefaultSetting",
            "aiSensingTemplate": "DefaultTemplate",
            "forceCombatOnSpawn": true,
            "disableWander": true,
            "GHBHKHMIPKM": "",
            "reuseNotRemoveAbilityTag": ""
        },
        {
            "groupId": 247720001,
            "mapInstId": 1012,
            "aiGroupID": 247720001,
            "overrideDefendAreaRange": true,
            "defendAreaRange": 999.0,
            "overrideForceAlertDistance": true,
            "overrideClearThreatTargetDistance": true,
            "clearThreatTargetDistance": 999.0,
            "aiNeuronSetting": "DefaultSetting",
            "aiSensingTemplate": "DefaultTemplate",
            "forceCombatOnSpawn": true,
            "disableWander": true,
            "GHBHKHMIPKM": "",
            "reuseNotRemoveAbilityTag": ""
        },
        {
            "groupId": 247720001,
            "mapInstId": 1013,
            "aiGroupID": 247720001,
            "overrideDefendAreaRange": true,
            "defendAreaRange": 999.0,
            "overrideForceAlertDistance": true,
            "overrideClearThreatTargetDistance": true,
            "clearThreatTargetDistance": 999.0,
            "aiNeuronSetting": "DefaultSetting",
            "aiSensingTemplate": "DefaultTemplate",
            "forceCombatOnSpawn": true,
            "disableWander": true,
            "GHBHKHMIPKM": "",
            "reuseNotRemoveAbilityTag": ""
        },
        {
            "groupId": 247720001,
            "mapInstId": 1014,
            "aiGroupID": 247720001,
            "overrideDefendAreaRange": true,
            "defendAreaRange": 999.0,
            "overrideForceAlertDistance": true,
            "overrideClearThreatTargetDistance": true,
            "clearThreatTargetDistance": 999.0,
            "aiNeuronSetting": "DefaultSetting",
            "aiSensingTemplate": "DefaultTemplate",
            "forceCombatOnSpawn": true,
            "disableWander": true,
            "GHBHKHMIPKM": "",
            "reuseNotRemoveAbilityTag": ""
        },
        {
            "groupId": 247720001,
            "mapInstId": 1016,
            "aiGroupID": 247720001,
            "overrideDefendAreaRange": true,
            "defendAreaRange": 999.0,
            "overrideForceAlertDistance": true,
            "overrideClearThreatTargetDistance": true,
            "clearThreatTargetDistance": 999.0,
            "aiNeuronSetting": "DefaultSetting",
            "aiSensingTemplate": "DefaultTemplate",
            "forceCombatOnSpawn": true,
            "disableWander": true,
            "GHBHKHMIPKM": "",
            "reuseNotRemoveAbilityTag": ""
        },
        {
            "groupId": 247720001,
            "mapInstId": 1017,
            "aiGroupID": 247720001,
            "overrideDefendAreaRange": true,
            "defendAreaRange": 999.0,
            "overrideForceAlertDistance": true,
            "overrideClearThreatTargetDistance": true,
            "clearThreatTargetDistance": 999.0,
            "aiNeuronSetting": "DefaultSetting",
            "aiSensingTemplate": "DefaultTemplate",
            "forceCombatOnSpawn": true,
            "disableWander": true,
            "GHBHKHMIPKM": "",
            "reuseNotRemoveAbilityTag": ""
        },
        {
            "groupId": 247720002,
            "mapInstId": 2001,
            "aiGroupID": 247720002,
            "overrideDefendAreaRange": true,
            "defendAreaRange": 999.0,
            "overrideForceAlertDistance": true,
            "overrideClearThreatTargetDistance": true,
            "clearThreatTargetDistance": 999.0,
            "aiNeuronSetting": "DefaultSetting",
            "aiSensingTemplate": "DefaultTemplate",
            "forceCombatOnSpawn": true,
            "disableWander": true,
            "GHBHKHMIPKM": "",
            "reuseNotRemoveAbilityTag": ""
        },
        {
            "groupId": 247720002,
            "mapInstId": 2007,
            "aiGroupID": 247720002,
            "overrideDefendAreaRange": true,
            "defendAreaRange": 999.0,
            "overrideForceAlertDistance": true,
            "overrideClearThreatTargetDistance": true,
            "clearThreatTargetDistance": 999.0,
            "aiNeuronSetting": "DefaultSetting",
            "aiSensingTemplate": "DefaultTemplate",
            "forceCombatOnSpawn": true,
            "disableWander": true,
            "GHBHKHMIPKM": "",
            "reuseNotRemoveAbilityTag": ""
        },
        {
            "groupId": 247720002,
            "mapInstId": 2011,
            "aiGroupID": 247720002,
            "overrideDefendAreaRange": true,
            "defendAreaRange": 999.0,
            "overrideForceAlertDistance": true,
            "overrideClearThreatTargetDistance": true,
            "clearThreatTargetDistance": 999.0,
            "aiNeuronSetting": "DefaultSetting",
            "aiSensingTemplate": "DefaultTemplate",
            "forceCombatOnSpawn": true,
            "disableWander": true,
            "GHBHKHMIPKM": "",
            "reuseNotRemoveAbilityTag": ""
        },
        {
            "groupId": 247720002,
            "mapInstId": 2012,
            "aiGroupID": 247720002,
            "overrideDefendAreaRange": true,
            "defendAreaRange": 999.0,
            "overrideForceAlertDistance": true,
            "overrideClearThreatTargetDistance": true,
            "clearThreatTargetDistance": 999.0,
            "aiNeuronSetting": "DefaultSetting",
            "aiSensingTemplate": "DefaultTemplate",
            "forceCombatOnSpawn": true,
            "disableWander": true,
            "GHBHKHMIPKM": "",
            "reuseNotRemoveAbilityTag": ""
        },
        {
            "groupId": 247720002,
            "mapInstId": 2018,
            "aiGroupID": 247720002,
            "overrideDefendAreaRange": true,
            "defendAreaRange": 999.0,
            "overrideForceAlertDistance": true,
            "overrideClearThreatTargetDistance": true,
            "clearThreatTargetDistance": 999.0,
            "aiNeuronSetting": "DefaultSetting",
            "aiSensingTemplate": "DefaultTemplate",
            "forceCombatOnSpawn": true,
            "disableWander": true,
            "GHBHKHMIPKM": "",
            "reuseNotRemoveAbilityTag": ""
        },
        {
            "groupId": 247720002,
            "mapInstId": 2019,
            "aiGroupID": 247720002,
            "overrideDefendAreaRange": true,
            "defendAreaRange": 999.0,
            "overrideForceAlertDistance": true,
            "overrideClearThreatTargetDistance": true,
            "clearThreatTargetDistance": 999.0,
            "aiNeuronSetting": "DefaultSetting",
            "aiSensingTemplate": "DefaultTemplate",
            "forceCombatOnSpawn": true,
            "disableWander": true,
            "GHBHKHMIPKM": "",
            "reuseNotRemoveAbilityTag": ""
        },
        {
            "groupId": 247720002,
            "mapInstId": 2020,
            "aiGroupID": 247720002,
            "overrideDefendAreaRange": true,
            "defendAreaRange": 999.0,
            "overrideForceAlertDistance": true,
            "overrideClearThreatTargetDistance": true,
            "clearThreatTargetDistance": 999.0,
            "aiNeuronSetting": "DefaultSetting",
            "aiSensingTemplate": "DefaultTemplate",
            "forceCombatOnSpawn": true,
            "disableWander": true,
            "GHBHKHMIPKM": "",
            "reuseNotRemoveAbilityTag": ""
        },
        {
            "groupId": 247720003,
            "mapInstId": 3002,
            "aiGroupID": 247720003,
            "overrideDefendAreaRange": true,
            "defendAreaRange": 999.0,
            "overrideForceAlertDistance": true,
            "overrideClearThreatTargetDistance": true,
            "clearThreatTargetDistance": 999.0,
            "aiNeuronSetting": "DefaultSetting",
            "aiSensingTemplate": "DefaultTemplate",
            "forceCombatOnSpawn": true,
            "disableWander": true,
            "GHBHKHMIPKM": "",
            "reuseNotRemoveAbilityTag": ""
        },
        {
            "groupId": 247720003,
            "mapInstId": 3006,
            "aiGroupID": 247720003,
            "overrideDefendAreaRange": true,
            "defendAreaRange": 999.0,
            "overrideForceAlertDistance": true,
            "overrideClearThreatTargetDistance": true,
            "clearThreatTargetDistance": 999.0,
            "aiNeuronSetting": "DefaultSetting",
            "aiSensingTemplate": "DefaultTemplate",
            "forceCombatOnSpawn": true,
            "disableWander": true,
            "GHBHKHMIPKM": "",
            "reuseNotRemoveAbilityTag": ""
        },
        {
            "groupId": 247720003,
            "mapInstId": 3012,
            "aiGroupID": 247720003,
            "overrideDefendAreaRange": true,
            "defendAreaRange": 999.0,
            "overrideForceAlertDistance": true,
            "overrideClearThreatTargetDistance": true,
            "clearThreatTargetDistance": 999.0,
            "aiNeuronSetting": "DefaultSetting",
            "aiSensingTemplate": "DefaultTemplate",
            "forceCombatOnSpawn": true,
            "disableWander": true,
            "GHBHKHMIPKM": "",
            "reuseNotRemoveAbilityTag": ""
        },
        {
            "groupId": 247720003,
            "mapInstId": 3013,
            "aiGroupID": 247720003,
            "overrideDefendAreaRange": true,
            "defendAreaRange": 999.0,
            "overrideForceAlertDistance": true,
            "overrideClearThreatTargetDistance": true,
            "clearThreatTargetDistance": 999.0,
            "aiNeuronSetting": "DefaultSetting",
            "aiSensingTemplate": "DefaultTemplate",
            "forceCombatOnSpawn": true,
            "disableWander": true,
            "GHBHKHMIPKM": "",
            "reuseNotRemoveAbilityTag": ""
        },
        {
            "groupId": 247720004,
            "mapInstId": 4002,
            "aiGroupID": 247720004,
            "overrideDefendAreaRange": true,
            "defendAreaRange": 999.0,
            "overrideForceAlertDistance": true,
            "overrideClearThreatTargetDistance": true,
            "clearThreatTargetDistance": 999.0,
            "aiNeuronSetting": "DefaultSetting",
            "aiSensingTemplate": "DefaultTemplate",
            "forceCombatOnSpawn": true,
            "disableWander": true,
            "GHBHKHMIPKM": "",
            "reuseNotRemoveAbilityTag": ""
        },
        {
            "groupId": 247720004,
            "mapInstId": 4003,
            "aiGroupID": 247720004,
            "overrideDefendAreaRange": true,
            "defendAreaRange": 999.0,
            "overrideForceAlertDistance": true,
            "overrideClearThreatTargetDistance": true,
            "clearThreatTargetDistance": 999.0,
            "aiNeuronSetting": "DefaultSetting",
            "aiSensingTemplate": "DefaultTemplate",
            "forceCombatOnSpawn": true,
            "disableWander": true,
            "GHBHKHMIPKM": "",
            "reuseNotRemoveAbilityTag": ""
        },
        {
            "groupId": 247720004,
            "mapInstId": 4004,
            "aiGroupID": 247720004,
            "overrideDefendAreaRange": true,
            "defendAreaRange": 999.0,
            "overrideForceAlertDistance": true,
            "overrideClearThreatTargetDistance": true,
            "clearThreatTargetDistance": 999.0,
            "aiNeuronSetting": "DefaultSetting",
            "aiSensingTemplate": "DefaultTemplate",
            "forceCombatOnSpawn": true,
            "disableWander": true,
            "GHBHKHMIPKM": "",
            "reuseNotRemoveAbilityTag": ""
        },
        {
            "groupId": 247720004,
            "mapInstId": 4005,
            "aiGroupID": 247720004,
            "overrideDefendAreaRange": true,
            "defendAreaRange": 999.0,
            "overrideForceAlertDistance": true,
            "overrideClearThreatTargetDistance": true,
            "clearThreatTargetDistance": 999.0,
            "aiNeuronSetting": "DefaultSetting",
            "aiSensingTemplate": "DefaultTemplate",
            "forceCombatOnSpawn": true,
            "disableWander": true,
            "GHBHKHMIPKM": "",
            "reuseNotRemoveAbilityTag": ""
        },
        {
            "groupId": 247720004,
            "mapInstId": 4012,
            "aiGroupID": 247720004,
            "overrideDefendAreaRange": true,
            "defendAreaRange": 999.0,
            "overrideForceAlertDistance": true,
            "overrideClearThreatTargetDistance": true,
            "clearThreatTargetDistance": 999.0,
            "aiNeuronSetting": "DefaultSetting",
            "aiSensingTemplate": "DefaultTemplate",
            "forceCombatOnSpawn": true,
            "disableWander": true,
            "GHBHKHMIPKM": "",
            "reuseNotRemoveAbilityTag": ""
        }
    ]
}