{
    "sceneId": 1,
    "monsters": [
        {
            "groupId": 111102085,
            "mapInstId": 85001,
            "aiGroupID": 111102085,
            "aiNeuronSetting": "DefaultSetting",
            "aiSensingTemplate": "DefaultTemplate",
            "GHBHKHMIPKM": "",
            "reuseNotRemoveAbilityTag": ""
        },
        {
            "groupId": 111102085,
            "mapInstId": 85002,
            "aiGroupID": 111102085,
            "aiNeuronSetting": "DefaultSetting",
            "aiSensingTemplate": "DefaultTemplate",
            "GHBHKHMIPKM": "",
            "reuseNotRemoveAbilityTag": ""
        },
        {
            "groupId": 111102085,
            "mapInstId": 85003,
            "aiGroupID": 111102085,
            "aiNeuronSetting": "DefaultSetting",
            "aiSensingTemplate": "DefaultTemplate",
            "GHBHKHMIPKM": "",
            "reuseNotRemoveAbilityTag": ""
        },
        {
            "groupId": 111102085,
            "mapInstId": 85006,
            "aiNeuronSetting": "NeverCombat",
            "aiSensingTemplate": "NoSensing",
            "GHBHKHMIPKM": "",
            "reuseNotRemoveAbilityTag": ""
        },
        {
            "groupId": 111102085,
            "mapInstId": 85007,
            "aiNeuronSetting": "NeverCombat",
            "aiSensingTemplate": "NoSensing",
            "GHBHKHMIPKM": "",
            "reuseNotRemoveAbilityTag": ""
        }
    ]
}