{
    "sceneId": 40665,
    "monsters": [
        {
            "groupId": 240665002,
            "mapInstId": 2004,
            "aiGroupID": 240665002,
            "overrideDefendAreaRange": true,
            "defendAreaRange": 999.0,
            "aiNeuronSetting": "DefaultSetting",
            "aiSensingTemplate": "DefaultTemplate",
            "forceCombatOnSpawn": true,
            "disableWander": true,
            "GHBHKHMIPKM": "",
            "reuseNotRemoveAbilityTag": ""
        },
        {
            "groupId": 240665002,
            "mapInstId": 2005,
            "aiGroupID": 240665002,
            "overrideDefendAreaRange": true,
            "defendAreaRange": 999.0,
            "aiNeuronSetting": "DefaultSetting",
            "aiSensingTemplate": "DefaultTemplate",
            "forceCombatOnSpawn": true,
            "disableWander": true,
            "GHBHKHMIPKM": "",
            "reuseNotRemoveAbilityTag": ""
        },
        {
            "groupId": 240665002,
            "mapInstId": 2006,
            "aiGroupID": 240665002,
            "overrideDefendAreaRange": true,
            "defendAreaRange": 999.0,
            "aiNeuronSetting": "DefaultSetting",
            "aiSensingTemplate": "DefaultTemplate",
            "forceCombatOnSpawn": true,
            "disableWander": true,
            "GHBHKHMIPKM": "",
            "reuseNotRemoveAbilityTag": ""
        },
        {
            "groupId": 240665002,
            "mapInstId": 2007,
            "aiGroupID": 240665002,
            "overrideDefendAreaRange": true,
            "defendAreaRange": 999.0,
            "aiNeuronSetting": "DefaultSetting",
            "aiSensingTemplate": "DefaultTemplate",
            "forceCombatOnSpawn": true,
            "disableWander": true,
            "GHBHKHMIPKM": "",
            "reuseNotRemoveAbilityTag": ""
        },
        {
            "groupId": 240665002,
            "mapInstId": 2008,
            "aiGroupID": 240665002,
            "overrideDefendAreaRange": true,
            "defendAreaRange": 999.0,
            "aiNeuronSetting": "DefaultSetting",
            "aiSensingTemplate": "DefaultTemplate",
            "forceCombatOnSpawn": true,
            "disableWander": true,
            "GHBHKHMIPKM": "",
            "reuseNotRemoveAbilityTag": ""
        },
        {
            "groupId": 240665002,
            "mapInstId": 2010,
            "aiGroupID": 240665002,
            "overrideDefendAreaRange": true,
            "defendAreaRange": 999.0,
            "aiNeuronSetting": "DefaultSetting",
            "aiSensingTemplate": "DefaultTemplate",
            "forceCombatOnSpawn": true,
            "disableWander": true,
            "GHBHKHMIPKM": "",
            "reuseNotRemoveAbilityTag": ""
        },
        {
            "groupId": 240665002,
            "mapInstId": 2011,
            "aiGroupID": 240665002,
            "overrideDefendAreaRange": true,
            "defendAreaRange": 999.0,
            "aiNeuronSetting": "DefaultSetting",
            "aiSensingTemplate": "DefaultTemplate",
            "forceCombatOnSpawn": true,
            "disableWander": true,
            "GHBHKHMIPKM": "",
            "reuseNotRemoveAbilityTag": ""
        },
        {
            "groupId": 240665002,
            "mapInstId": 2012,
            "aiGroupID": 240665002,
            "overrideDefendAreaRange": true,
            "defendAreaRange": 999.0,
            "aiNeuronSetting": "DefaultSetting",
            "aiSensingTemplate": "DefaultTemplate",
            "forceCombatOnSpawn": true,
            "disableWander": true,
            "GHBHKHMIPKM": "",
            "reuseNotRemoveAbilityTag": ""
        },
        {
            "groupId": 240665002,
            "mapInstId": 2014,
            "aiGroupID": 240665002,
            "overrideDefendAreaRange": true,
            "defendAreaRange": 999.0,
            "aiNeuronSetting": "DefaultSetting",
            "aiSensingTemplate": "DefaultTemplate",
            "forceCombatOnSpawn": true,
            "disableWander": true,
            "GHBHKHMIPKM": "",
            "reuseNotRemoveAbilityTag": ""
        }
    ]
}