{
    "sceneId": 33731,
    "monsters": [
        {
            "groupId": 233731003,
            "mapInstId": 3001,
            "aiGroupID": 233731003,
            "overrideDefendAreaRange": true,
            "defendAreaRange": 999.0,
            "overrideClearThreatTargetDistance": true,
            "clearThreatTargetDistance": 999.0,
            "aiNeuronSetting": "DefaultSetting",
            "aiSensingTemplate": "DefaultTemplate",
            "forceCombatOnSpawn": true,
            "disableWander": true,
            "GHBHKHMIPKM": "",
            "reuseNotRemoveAbilityTag": ""
        },
        {
            "groupId": 233731003,
            "mapInstId": 3002,
            "aiGroupID": 233731003,
            "overrideDefendAreaRange": true,
            "defendAreaRange": 999.0,
            "overrideClearThreatTargetDistance": true,
            "clearThreatTargetDistance": 999.0,
            "aiNeuronSetting": "DefaultSetting",
            "aiSensingTemplate": "DefaultTemplate",
            "forceCombatOnSpawn": true,
            "disableWander": true,
            "GHBHKHMIPKM": "",
            "reuseNotRemoveAbilityTag": ""
        },
        {
            "groupId": 233731003,
            "mapInstId": 3003,
            "aiGroupID": 233731003,
            "overrideDefendAreaRange": true,
            "defendAreaRange": 999.0,
            "overrideClearThreatTargetDistance": true,
            "clearThreatTargetDistance": 999.0,
            "aiNeuronSetting": "DefaultSetting",
            "aiSensingTemplate": "DefaultTemplate",
            "forceCombatOnSpawn": true,
            "disableWander": true,
            "GHBHKHMIPKM": "",
            "reuseNotRemoveAbilityTag": ""
        },
        {
            "groupId": 233731003,
            "mapInstId": 3004,
            "aiGroupID": 233731003,
            "overrideDefendAreaRange": true,
            "defendAreaRange": 999.0,
            "overrideClearThreatTargetDistance": true,
            "clearThreatTargetDistance": 999.0,
            "aiNeuronSetting": "DefaultSetting",
            "aiSensingTemplate": "DefaultTemplate",
            "forceCombatOnSpawn": true,
            "disableWander": true,
            "GHBHKHMIPKM": "",
            "reuseNotRemoveAbilityTag": ""
        },
        {
            "groupId": 233731003,
            "mapInstId": 3005,
            "aiGroupID": 233731003,
            "overrideDefendAreaRange": true,
            "defendAreaRange": 999.0,
            "overrideClearThreatTargetDistance": true,
            "clearThreatTargetDistance": 999.0,
            "aiNeuronSetting": "DefaultSetting",
            "aiSensingTemplate": "DefaultTemplate",
            "forceCombatOnSpawn": true,
            "disableWander": true,
            "GHBHKHMIPKM": "",
            "reuseNotRemoveAbilityTag": ""
        },
        {
            "groupId": 233731003,
            "mapInstId": 3010,
            "aiGroupID": 233731003,
            "overrideDefendAreaRange": true,
            "defendAreaRange": 999.0,
            "overrideClearThreatTargetDistance": true,
            "clearThreatTargetDistance": 999.0,
            "aiNeuronSetting": "DefaultSetting",
            "aiSensingTemplate": "DefaultTemplate",
            "forceCombatOnSpawn": true,
            "disableWander": true,
            "GHBHKHMIPKM": "",
            "reuseNotRemoveAbilityTag": ""
        },
        {
            "groupId": 233731003,
            "mapInstId": 3011,
            "aiGroupID": 233731003,
            "overrideDefendAreaRange": true,
            "defendAreaRange": 999.0,
            "overrideClearThreatTargetDistance": true,
            "clearThreatTargetDistance": 999.0,
            "aiNeuronSetting": "DefaultSetting",
            "aiSensingTemplate": "DefaultTemplate",
            "forceCombatOnSpawn": true,
            "disableWander": true,
            "GHBHKHMIPKM": "",
            "reuseNotRemoveAbilityTag": ""
        },
        {
            "groupId": 233731003,
            "mapInstId": 3012,
            "aiGroupID": 233731003,
            "overrideDefendAreaRange": true,
            "defendAreaRange": 999.0,
            "overrideClearThreatTargetDistance": true,
            "clearThreatTargetDistance": 999.0,
            "aiNeuronSetting": "DefaultSetting",
            "aiSensingTemplate": "DefaultTemplate",
            "forceCombatOnSpawn": true,
            "disableWander": true,
            "GHBHKHMIPKM": "",
            "reuseNotRemoveAbilityTag": ""
        },
        {
            "groupId": 233731003,
            "mapInstId": 3013,
            "aiGroupID": 233731003,
            "overrideDefendAreaRange": true,
            "defendAreaRange": 999.0,
            "overrideClearThreatTargetDistance": true,
            "clearThreatTargetDistance": 999.0,
            "aiNeuronSetting": "DefaultSetting",
            "aiSensingTemplate": "DefaultTemplate",
            "forceCombatOnSpawn": true,
            "disableWander": true,
            "GHBHKHMIPKM": "",
            "reuseNotRemoveAbilityTag": ""
        },
        {
            "groupId": 233731003,
            "mapInstId": 3018,
            "aiGroupID": 233731003,
            "overrideDefendAreaRange": true,
            "defendAreaRange": 999.0,
            "overrideClearThreatTargetDistance": true,
            "clearThreatTargetDistance": 999.0,
            "aiNeuronSetting": "DefaultSetting",
            "aiSensingTemplate": "DefaultTemplate",
            "forceCombatOnSpawn": true,
            "disableWander": true,
            "GHBHKHMIPKM": "",
            "reuseNotRemoveAbilityTag": ""
        },
        {
            "groupId": 233731003,
            "mapInstId": 3019,
            "aiGroupID": 233731003,
            "overrideDefendAreaRange": true,
            "defendAreaRange": 999.0,
            "overrideClearThreatTargetDistance": true,
            "clearThreatTargetDistance": 999.0,
            "aiNeuronSetting": "DefaultSetting",
            "aiSensingTemplate": "DefaultTemplate",
            "forceCombatOnSpawn": true,
            "disableWander": true,
            "GHBHKHMIPKM": "",
            "reuseNotRemoveAbilityTag": ""
        },
        {
            "groupId": 233731003,
            "mapInstId": 3020,
            "aiGroupID": 233731003,
            "overrideDefendAreaRange": true,
            "defendAreaRange": 999.0,
            "overrideClearThreatTargetDistance": true,
            "clearThreatTargetDistance": 999.0,
            "aiNeuronSetting": "DefaultSetting",
            "aiSensingTemplate": "DefaultTemplate",
            "forceCombatOnSpawn": true,
            "disableWander": true,
            "GHBHKHMIPKM": "",
            "reuseNotRemoveAbilityTag": ""
        },
        {
            "groupId": 233731003,
            "mapInstId": 3021,
            "aiGroupID": 233731003,
            "overrideDefendAreaRange": true,
            "defendAreaRange": 999.0,
            "overrideClearThreatTargetDistance": true,
            "clearThreatTargetDistance": 999.0,
            "aiNeuronSetting": "DefaultSetting",
            "aiSensingTemplate": "DefaultTemplate",
            "forceCombatOnSpawn": true,
            "disableWander": true,
            "GHBHKHMIPKM": "",
            "reuseNotRemoveAbilityTag": ""
        },
        {
            "groupId": 233731003,
            "mapInstId": 3022,
            "aiGroupID": 233731003,
            "overrideDefendAreaRange": true,
            "defendAreaRange": 999.0,
            "overrideClearThreatTargetDistance": true,
            "clearThreatTargetDistance": 999.0,
            "aiNeuronSetting": "DefaultSetting",
            "aiSensingTemplate": "DefaultTemplate",
            "forceCombatOnSpawn": true,
            "disableWander": true,
            "GHBHKHMIPKM": "",
            "reuseNotRemoveAbilityTag": ""
        },
        {
            "groupId": 233731003,
            "mapInstId": 3023,
            "aiGroupID": 233731003,
            "overrideDefendAreaRange": true,
            "defendAreaRange": 999.0,
            "overrideClearThreatTargetDistance": true,
            "clearThreatTargetDistance": 999.0,
            "aiNeuronSetting": "DefaultSetting",
            "aiSensingTemplate": "DefaultTemplate",
            "forceCombatOnSpawn": true,
            "disableWander": true,
            "GHBHKHMIPKM": "",
            "reuseNotRemoveAbilityTag": ""
        },
        {
            "groupId": 233731003,
            "mapInstId": 3026,
            "aiGroupID": 233731003,
            "overrideDefendAreaRange": true,
            "defendAreaRange": 999.0,
            "overrideClearThreatTargetDistance": true,
            "clearThreatTargetDistance": 999.0,
            "aiNeuronSetting": "DefaultSetting",
            "aiSensingTemplate": "DefaultTemplate",
            "forceCombatOnSpawn": true,
            "disableWander": true,
            "GHBHKHMIPKM": "",
            "reuseNotRemoveAbilityTag": ""
        },
        {
            "groupId": 233731003,
            "mapInstId": 3027,
            "aiGroupID": 233731003,
            "overrideDefendAreaRange": true,
            "defendAreaRange": 999.0,
            "overrideClearThreatTargetDistance": true,
            "clearThreatTargetDistance": 999.0,
            "aiNeuronSetting": "DefaultSetting",
            "aiSensingTemplate": "DefaultTemplate",
            "forceCombatOnSpawn": true,
            "disableWander": true,
            "GHBHKHMIPKM": "",
            "reuseNotRemoveAbilityTag": ""
        },
        {
            "groupId": 233731003,
            "mapInstId": 3028,
            "aiGroupID": 233731003,
            "overrideDefendAreaRange": true,
            "defendAreaRange": 999.0,
            "overrideClearThreatTargetDistance": true,
            "clearThreatTargetDistance": 999.0,
            "aiNeuronSetting": "DefaultSetting",
            "aiSensingTemplate": "DefaultTemplate",
            "forceCombatOnSpawn": true,
            "disableWander": true,
            "GHBHKHMIPKM": "",
            "reuseNotRemoveAbilityTag": ""
        },
        {
            "groupId": 233731003,
            "mapInstId": 3029,
            "aiGroupID": 233731003,
            "overrideDefendAreaRange": true,
            "defendAreaRange": 999.0,
            "overrideClearThreatTargetDistance": true,
            "clearThreatTargetDistance": 999.0,
            "aiNeuronSetting": "DefaultSetting",
            "aiSensingTemplate": "DefaultTemplate",
            "forceCombatOnSpawn": true,
            "disableWander": true,
            "GHBHKHMIPKM": "",
            "reuseNotRemoveAbilityTag": ""
        },
        {
            "groupId": 233731003,
            "mapInstId": 3030,
            "aiGroupID": 233731003,
            "overrideDefendAreaRange": true,
            "defendAreaRange": 999.0,
            "overrideClearThreatTargetDistance": true,
            "clearThreatTargetDistance": 999.0,
            "aiNeuronSetting": "DefaultSetting",
            "aiSensingTemplate": "DefaultTemplate",
            "forceCombatOnSpawn": true,
            "disableWander": true,
            "GHBHKHMIPKM": "",
            "reuseNotRemoveAbilityTag": ""
        },
        {
            "groupId": 233731003,
            "mapInstId": 3031,
            "aiGroupID": 233731003,
            "overrideDefendAreaRange": true,
            "defendAreaRange": 999.0,
            "overrideClearThreatTargetDistance": true,
            "clearThreatTargetDistance": 999.0,
            "aiNeuronSetting": "DefaultSetting",
            "aiSensingTemplate": "DefaultTemplate",
            "forceCombatOnSpawn": true,
            "disableWander": true,
            "GHBHKHMIPKM": "",
            "reuseNotRemoveAbilityTag": ""
        },
        {
            "groupId": 233731003,
            "mapInstId": 3033,
            "aiGroupID": 233731003,
            "overrideDefendAreaRange": true,
            "defendAreaRange": 999.0,
            "overrideClearThreatTargetDistance": true,
            "clearThreatTargetDistance": 999.0,
            "aiNeuronSetting": "DefaultSetting",
            "aiSensingTemplate": "DefaultTemplate",
            "forceCombatOnSpawn": true,
            "disableWander": true,
            "GHBHKHMIPKM": "",
            "reuseNotRemoveAbilityTag": ""
        },
        {
            "groupId": 233731003,
            "mapInstId": 3034,
            "aiGroupID": 233731003,
            "overrideDefendAreaRange": true,
            "defendAreaRange": 999.0,
            "overrideClearThreatTargetDistance": true,
            "clearThreatTargetDistance": 999.0,
            "aiNeuronSetting": "DefaultSetting",
            "aiSensingTemplate": "DefaultTemplate",
            "forceCombatOnSpawn": true,
            "disableWander": true,
            "GHBHKHMIPKM": "",
            "reuseNotRemoveAbilityTag": ""
        },
        {
            "groupId": 233731003,
            "mapInstId": 3036,
            "aiGroupID": 233731003,
            "overrideDefendAreaRange": true,
            "defendAreaRange": 999.0,
            "overrideClearThreatTargetDistance": true,
            "clearThreatTargetDistance": 999.0,
            "aiNeuronSetting": "DefaultSetting",
            "aiSensingTemplate": "DefaultTemplate",
            "forceCombatOnSpawn": true,
            "disableWander": true,
            "GHBHKHMIPKM": "",
            "reuseNotRemoveAbilityTag": ""
        },
        {
            "groupId": 233731003,
            "mapInstId": 3037,
            "aiGroupID": 233731003,
            "overrideDefendAreaRange": true,
            "defendAreaRange": 999.0,
            "overrideClearThreatTargetDistance": true,
            "clearThreatTargetDistance": 999.0,
            "aiNeuronSetting": "DefaultSetting",
            "aiSensingTemplate": "DefaultTemplate",
            "forceCombatOnSpawn": true,
            "disableWander": true,
            "GHBHKHMIPKM": "",
            "reuseNotRemoveAbilityTag": ""
        },
        {
            "groupId": 233731003,
            "mapInstId": 3038,
            "aiGroupID": 233731003,
            "overrideDefendAreaRange": true,
            "defendAreaRange": 999.0,
            "overrideClearThreatTargetDistance": true,
            "clearThreatTargetDistance": 999.0,
            "aiNeuronSetting": "DefaultSetting",
            "aiSensingTemplate": "DefaultTemplate",
            "forceCombatOnSpawn": true,
            "disableWander": true,
            "GHBHKHMIPKM": "",
            "reuseNotRemoveAbilityTag": ""
        },
        {
            "groupId": 233731003,
            "mapInstId": 3039,
            "aiGroupID": 233731003,
            "overrideDefendAreaRange": true,
            "defendAreaRange": 999.0,
            "overrideClearThreatTargetDistance": true,
            "clearThreatTargetDistance": 999.0,
            "aiNeuronSetting": "DefaultSetting",
            "aiSensingTemplate": "DefaultTemplate",
            "forceCombatOnSpawn": true,
            "disableWander": true,
            "GHBHKHMIPKM": "",
            "reuseNotRemoveAbilityTag": ""
        },
        {
            "groupId": 233731003,
            "mapInstId": 3040,
            "aiGroupID": 233731003,
            "overrideDefendAreaRange": true,
            "defendAreaRange": 999.0,
            "overrideClearThreatTargetDistance": true,
            "clearThreatTargetDistance": 999.0,
            "aiNeuronSetting": "DefaultSetting",
            "aiSensingTemplate": "DefaultTemplate",
            "forceCombatOnSpawn": true,
            "disableWander": true,
            "GHBHKHMIPKM": "",
            "reuseNotRemoveAbilityTag": ""
        },
        {
            "groupId": 233731003,
            "mapInstId": 3041,
            "aiGroupID": 233731003,
            "overrideDefendAreaRange": true,
            "defendAreaRange": 999.0,
            "overrideClearThreatTargetDistance": true,
            "clearThreatTargetDistance": 999.0,
            "aiNeuronSetting": "DefaultSetting",
            "aiSensingTemplate": "DefaultTemplate",
            "forceCombatOnSpawn": true,
            "disableWander": true,
            "GHBHKHMIPKM": "",
            "reuseNotRemoveAbilityTag": ""
        },
        {
            "groupId": 233731003,
            "mapInstId": 3042,
            "aiGroupID": 233731003,
            "overrideDefendAreaRange": true,
            "defendAreaRange": 999.0,
            "overrideClearThreatTargetDistance": true,
            "clearThreatTargetDistance": 999.0,
            "aiNeuronSetting": "DefaultSetting",
            "aiSensingTemplate": "DefaultTemplate",
            "forceCombatOnSpawn": true,
            "disableWander": true,
            "GHBHKHMIPKM": "",
            "reuseNotRemoveAbilityTag": ""
        },
        {
            "groupId": 233731003,
            "mapInstId": 3043,
            "aiGroupID": 233731003,
            "overrideDefendAreaRange": true,
            "defendAreaRange": 999.0,
            "overrideClearThreatTargetDistance": true,
            "clearThreatTargetDistance": 999.0,
            "aiNeuronSetting": "DefaultSetting",
            "aiSensingTemplate": "DefaultTemplate",
            "forceCombatOnSpawn": true,
            "disableWander": true,
            "GHBHKHMIPKM": "",
            "reuseNotRemoveAbilityTag": ""
        },
        {
            "groupId": 233731003,
            "mapInstId": 3044,
            "aiGroupID": 233731003,
            "overrideDefendAreaRange": true,
            "defendAreaRange": 999.0,
            "overrideClearThreatTargetDistance": true,
            "clearThreatTargetDistance": 999.0,
            "aiNeuronSetting": "DefaultSetting",
            "aiSensingTemplate": "DefaultTemplate",
            "forceCombatOnSpawn": true,
            "disableWander": true,
            "GHBHKHMIPKM": "",
            "reuseNotRemoveAbilityTag": ""
        }
    ]
}