{
    "sceneId": 40610,
    "monsters": [
        {
            "groupId": 240610006,
            "mapInstId": 6001,
            "aiGroupID": 240610006,
            "overrideDefendAreaRange": true,
            "defendAreaRange": 999.0,
            "overrideClearThreatTargetDistance": true,
            "clearThreatTargetDistance": 999.0,
            "aiNeuronSetting": "DefaultSetting",
            "aiSensingTemplate": "DefaultTemplate",
            "forceCombatOnSpawn": true,
            "GHBHKHMIPKM": "",
            "reuseNotRemoveAbilityTag": ""
        },
        {
            "groupId": 240610006,
            "mapInstId": 6006,
            "aiGroupID": 240610006,
            "overrideDefendAreaRange": true,
            "defendAreaRange": 999.0,
            "overrideClearThreatTargetDistance": true,
            "clearThreatTargetDistance": 999.0,
            "aiNeuronSetting": "DefaultSetting",
            "aiSensingTemplate": "DefaultTemplate",
            "forceCombatOnSpawn": true,
            "GHBHKHMIPKM": "",
            "reuseNotRemoveAbilityTag": ""
        },
        {
            "groupId": 240610006,
            "mapInstId": 6010,
            "aiGroupID": 240610006,
            "overrideDefendAreaRange": true,
            "defendAreaRange": 999.0,
            "overrideClearThreatTargetDistance": true,
            "clearThreatTargetDistance": 999.0,
            "aiNeuronSetting": "DefaultSetting",
            "aiSensingTemplate": "DefaultTemplate",
            "forceCombatOnSpawn": true,
            "GHBHKHMIPKM": "",
            "reuseNotRemoveAbilityTag": ""
        },
        {
            "groupId": 240610006,
            "mapInstId": 6015,
            "aiGroupID": 240610006,
            "overrideDefendAreaRange": true,
            "defendAreaRange": 999.0,
            "overrideClearThreatTargetDistance": true,
            "clearThreatTargetDistance": 999.0,
            "aiNeuronSetting": "DefaultSetting",
            "aiSensingTemplate": "DefaultTemplate",
            "forceCombatOnSpawn": true,
            "GHBHKHMIPKM": "",
            "reuseNotRemoveAbilityTag": ""
        },
        {
            "groupId": 240610006,
            "mapInstId": 6020,
            "aiGroupID": 240610006,
            "overrideDefendAreaRange": true,
            "defendAreaRange": 999.0,
            "overrideClearThreatTargetDistance": true,
            "clearThreatTargetDistance": 999.0,
            "aiNeuronSetting": "DefaultSetting",
            "aiSensingTemplate": "DefaultTemplate",
            "forceCombatOnSpawn": true,
            "GHBHKHMIPKM": "",
            "reuseNotRemoveAbilityTag": ""
        },
        {
            "groupId": 240610006,
            "mapInstId": 6034,
            "aiGroupID": 240610006,
            "overrideDefendAreaRange": true,
            "defendAreaRange": 999.0,
            "overrideClearThreatTargetDistance": true,
            "clearThreatTargetDistance": 999.0,
            "aiNeuronSetting": "DefaultSetting",
            "aiSensingTemplate": "DefaultTemplate",
            "forceCombatOnSpawn": true,
            "GHBHKHMIPKM": "",
            "reuseNotRemoveAbilityTag": ""
        }
    ]
}