{
    "sceneId": 1006,
    "monsters": [
        {
            "groupId": 201006005,
            "mapInstId": 17,
            "aiGroupID": 201006005,
            "aiNeuronSetting": "DefaultSetting",
            "aiSensingTemplate": "DefaultTemplate",
            "disableWander": true,
            "GHBHKHMIPKM": "",
            "reuseNotRemoveAbilityTag": ""
        },
        {
            "groupId": 201006005,
            "mapInstId": 18,
            "aiGroupID": 201006005,
            "aiNeuronSetting": "DefaultSetting",
            "aiSensingTemplate": "HighAlertTemplate",
            "disableWander": true,
            "GHBHKHMIPKM": "",
            "reuseNotRemoveAbilityTag": ""
        },
        {
            "groupId": 201006005,
            "mapInstId": 20,
            "aiGroupID": 201006005,
            "aiNeuronSetting": "DefaultSetting",
            "aiSensingTemplate": "DefaultTemplate",
            "GHBHKHMIPKM": "",
            "reuseNotRemoveAbilityTag": ""
        },
        {
            "groupId": 201006005,
            "mapInstId": 21,
            "aiGroupID": 201006005,
            "aiNeuronSetting": "DefaultSetting",
            "aiSensingTemplate": "HighAlertTemplate",
            "disableWander": true,
            "GHBHKHMIPKM": "",
            "reuseNotRemoveAbilityTag": ""
        },
        {
            "groupId": 201006007,
            "mapInstId": 22,
            "defendAreaID": 1,
            "aiNeuronSetting": "DefaultSetting",
            "aiSensingTemplate": "DefaultTemplate",
            "disableWander": true,
            "billboardHasUIBar": true,
            "billboardUIBarNeedEnterCombat": true,
            "GHBHKHMIPKM": "",
            "reuseNotRemoveAbilityTag": ""
        },
        {
            "groupId": 201006007,
            "mapInstId": 23,
            "aiGroupID": 7,
            "aiNeuronSetting": "DefaultSetting",
            "aiSensingTemplate": "DefaultTemplate",
            "disableWander": true,
            "GHBHKHMIPKM": "",
            "reuseNotRemoveAbilityTag": ""
        },
        {
            "groupId": 201006007,
            "mapInstId": 24,
            "aiGroupID": 7,
            "aiNeuronSetting": "DefaultSetting",
            "aiSensingTemplate": "DefaultTemplate",
            "disableWander": true,
            "GHBHKHMIPKM": "",
            "reuseNotRemoveAbilityTag": ""
        },
        {
            "groupId": 201006007,
            "mapInstId": 25,
            "aiGroupID": 7,
            "aiNeuronSetting": "DefaultSetting",
            "aiSensingTemplate": "DefaultTemplate",
            "disableWander": true,
            "GHBHKHMIPKM": "",
            "reuseNotRemoveAbilityTag": ""
        },
        {
            "groupId": 201006004,
            "mapInstId": 4001,
            "aiNeuronSetting": "DefaultSetting",
            "aiSensingTemplate": "HighAlertTemplate",
            "disableWander": true,
            "GHBHKHMIPKM": "",
            "reuseNotRemoveAbilityTag": ""
        },
        {
            "groupId": 201006004,
            "mapInstId": 4002,
            "aiGroupID": 201006004,
            "aiNeuronSetting": "DefaultSetting",
            "aiSensingTemplate": "HighAlertTemplate",
            "disableWander": true,
            "GHBHKHMIPKM": "",
            "reuseNotRemoveAbilityTag": ""
        },
        {
            "groupId": 201006004,
            "mapInstId": 4003,
            "aiGroupID": 201006004,
            "aiNeuronSetting": "DefaultSetting",
            "aiSensingTemplate": "HighAlertTemplate",
            "disableWander": true,
            "GHBHKHMIPKM": "",
            "reuseNotRemoveAbilityTag": ""
        },
        {
            "groupId": 201006004,
            "mapInstId": 4004,
            "aiGroupID": 201006004,
            "aiNeuronSetting": "DefaultSetting",
            "aiSensingTemplate": "DefaultTemplate",
            "GHBHKHMIPKM": "",
            "reuseNotRemoveAbilityTag": ""
        },
        {
            "groupId": 201006004,
            "mapInstId": 4005,
            "aiGroupID": 201006004,
            "aiNeuronSetting": "DefaultSetting",
            "aiSensingTemplate": "DefaultTemplate",
            "GHBHKHMIPKM": "",
            "reuseNotRemoveAbilityTag": ""
        }
    ]
}