{
    "sceneId": 20031,
    "monsters": [
        {
            "groupId": 220031001,
            "mapInstId": 1001,
            "aiGroupID": 220031001,
            "aiNeuronSetting": "DefaultSetting",
            "aiSensingTemplate": "DefaultTemplate",
            "GHBHKHMIPKM": "",
            "reuseNotRemoveAbilityTag": ""
        },
        {
            "groupId": 220031001,
            "mapInstId": 1002,
            "aiGroupID": 220031001,
            "aiNeuronSetting": "DefaultSetting",
            "aiSensingTemplate": "DefaultTemplate",
            "GHBHKHMIPKM": "",
            "reuseNotRemoveAbilityTag": ""
        },
        {
            "groupId": 220031001,
            "mapInstId": 1003,
            "aiGroupID": 220031001,
            "aiNeuronSetting": "DefaultSetting",
            "aiSensingTemplate": "DefaultTemplate",
            "GHBHKHMIPKM": "",
            "reuseNotRemoveAbilityTag": ""
        },
        {
            "groupId": 220031001,
            "mapInstId": 1004,
            "aiGroupID": 220031001,
            "aiNeuronSetting": "DefaultSetting",
            "aiSensingTemplate": "DefaultTemplate",
            "GHBHKHMIPKM": "",
            "reuseNotRemoveAbilityTag": ""
        },
        {
            "groupId": 220031001,
            "mapInstId": 1028,
            "aiNeuronSetting": "DefaultSetting",
            "aiSensingTemplate": "DefaultTemplate",
            "disableWander": true,
            "GHBHKHMIPKM": "",
            "reuseNotRemoveAbilityTag": ""
        },
        {
            "groupId": 220031001,
            "mapInstId": 1029,
            "aiNeuronSetting": "DefaultSetting",
            "aiSensingTemplate": "DefaultTemplate",
            "disableWander": true,
            "GHBHKHMIPKM": "",
            "reuseNotRemoveAbilityTag": ""
        },
        {
            "groupId": 220031005,
            "mapInstId": 5001,
            "aiGroupID": 220031005,
            "aiNeuronSetting": "DefaultSetting",
            "aiSensingTemplate": "DefaultTemplate",
            "disableWander": true,
            "GHBHKHMIPKM": "",
            "reuseNotRemoveAbilityTag": ""
        },
        {
            "groupId": 220031005,
            "mapInstId": 5002,
            "aiGroupID": 220031005,
            "aiNeuronSetting": "DefaultSetting",
            "aiSensingTemplate": "DefaultTemplate",
            "disableWander": true,
            "GHBHKHMIPKM": "",
            "reuseNotRemoveAbilityTag": ""
        },
        {
            "groupId": 220031005,
            "mapInstId": 5003,
            "aiGroupID": 220031005,
            "aiNeuronSetting": "DefaultSetting",
            "aiSensingTemplate": "DefaultTemplate",
            "disableWander": true,
            "GHBHKHMIPKM": "",
            "reuseNotRemoveAbilityTag": ""
        },
        {
            "groupId": 220031008,
            "mapInstId": 8001,
            "aiNeuronSetting": "DefaultSetting",
            "aiSensingTemplate": "DefaultTemplate",
            "disableWander": true,
            "GHBHKHMIPKM": "",
            "reuseNotRemoveAbilityTag": ""
        },
        {
            "groupId": 220031008,
            "mapInstId": 8002,
            "aiNeuronSetting": "DefaultSetting",
            "aiSensingTemplate": "DefaultTemplate",
            "disableWander": true,
            "GHBHKHMIPKM": "",
            "reuseNotRemoveAbilityTag": ""
        },
        {
            "groupId": 220031008,
            "mapInstId": 8003,
            "aiNeuronSetting": "DefaultSetting",
            "aiSensingTemplate": "DefaultTemplate",
            "disableWander": true,
            "GHBHKHMIPKM": "",
            "reuseNotRemoveAbilityTag": ""
        },
        {
            "groupId": 220031008,
            "mapInstId": 8006,
            "aiNeuronSetting": "DefaultSetting",
            "aiSensingTemplate": "DefaultTemplate",
            "disableWander": true,
            "GHBHKHMIPKM": "",
            "reuseNotRemoveAbilityTag": ""
        },
        {
            "groupId": 220031008,
            "mapInstId": 8007,
            "aiNeuronSetting": "DefaultSetting",
            "aiSensingTemplate": "DefaultTemplate",
            "disableWander": true,
            "GHBHKHMIPKM": "",
            "reuseNotRemoveAbilityTag": ""
        },
        {
            "groupId": 220031009,
            "mapInstId": 9001,
            "aiGroupID": 220031009,
            "aiNeuronSetting": "DefaultSetting",
            "aiSensingTemplate": "DefaultTemplate",
            "GHBHKHMIPKM": "",
            "reuseNotRemoveAbilityTag": ""
        },
        {
            "groupId": 220031009,
            "mapInstId": 9002,
            "aiGroupID": 220031009,
            "aiNeuronSetting": "DefaultSetting",
            "aiSensingTemplate": "DefaultTemplate",
            "GHBHKHMIPKM": "",
            "reuseNotRemoveAbilityTag": ""
        },
        {
            "groupId": 220031009,
            "mapInstId": 9003,
            "aiGroupID": 220031009,
            "aiNeuronSetting": "DefaultSetting",
            "aiSensingTemplate": "DefaultTemplate",
            "GHBHKHMIPKM": "",
            "reuseNotRemoveAbilityTag": ""
        },
        {
            "groupId": 220031009,
            "mapInstId": 9005,
            "aiGroupID": 220031009,
            "aiNeuronSetting": "DefaultSetting",
            "aiSensingTemplate": "DefaultTemplate",
            "GHBHKHMIPKM": "",
            "reuseNotRemoveAbilityTag": ""
        },
        {
            "groupId": 220031010,
            "mapInstId": 10001,
            "aiGroupID": 220031010,
            "aiNeuronSetting": "DefaultSetting",
            "aiSensingTemplate": "DefaultTemplate",
            "disableWander": true,
            "GHBHKHMIPKM": "",
            "reuseNotRemoveAbilityTag": ""
        },
        {
            "groupId": 220031010,
            "mapInstId": 10002,
            "aiGroupID": 220031010,
            "aiNeuronSetting": "DefaultSetting",
            "aiSensingTemplate": "DefaultTemplate",
            "GHBHKHMIPKM": "",
            "reuseNotRemoveAbilityTag": ""
        }
    ]
}