{
    "luaDataPath": "",
    "isSimpleTalk": true,
    "entityBan": "",
    "disableNpcLod": true,
    "startFade": {
        "startFadeOutDuration": 0.0
    },
    "endFade": {
        "startFadeOutDuration": 0.0
    },
    "actors": [
        {
            "alias": "Avatar",
            "visible": true,
            "bornPointName": "",
            "relativePosNpcAlias": "",
            "bindMovingTargetKey": ""
        },
        {
            "configID": 2082,
            "alias": "2082",
            "visible": true,
            "bornPointName": "",
            "relativePosNpcAlias": "",
            "bindMovingTargetKey": ""
        },
        {
            "configID": 2046,
            "alias": "2046",
            "visible": true,
            "bornPointName": "",
            "relativePosNpcAlias": "",
            "bindMovingTargetKey": ""
        }
    ],
    "group": [
        [
            {
                "$type": "DLPFECMKEKH",
                "type": "DIALOG",
                "aliasList": [
                    "2082"
                ],
                "NMKEDPFEKBH": 413430301
            }
        ],
        [
            {
                "$type": "DLPFECMKEKH",
                "type": "DIALOG",
                "aliasList": [
                    "2082"
                ],
                "NMKEDPFEKBH": 413430302
            }
        ],
        [
            {
                "$type": "DLPFECMKEKH",
                "type": "DIALOG",
                "delayTime": 1.4666664600372314,
                "aliasList": [
                    "2082"
                ],
                "NMKEDPFEKBH": 413430303
            },
            {
                "$type": "MoleMole.Config.ConfigBlackScreenAction",
                "type": "BLACK_SCREEN",
                "duration": 1.5,
                "aliasList": [
                    "2082"
                ],
                "durationToBlack": 0.4000000059604645,
                "durationKeepBlack": 0.5,
                "durationFromBlack": 0.4000000059604645,
                "inteePos": "",
                "textMapID": "QUEST_Message_Q4134303"
            },
            {
                "$type": "DLPFECMKEKH",
                "type": "DIALOG_CLEAR",
                "aliasList": [
                    "2082"
                ]
            }
        ],
        [
            {
                "$type": "DLPFECMKEKH",
                "type": "DIALOG",
                "aliasList": [
                    "2082"
                ],
                "NMKEDPFEKBH": 413430304
            }
        ],
        [
            {
                "$type": "DLPFECMKEKH",
                "type": "DIALOG",
                "aliasList": [
                    "2046"
                ],
                "NMKEDPFEKBH": 413430305
            }
        ],
        [
            {
                "$type": "DLPFECMKEKH",
                "type": "DIALOG",
                "aliasList": [
                    "2082"
                ],
                "NMKEDPFEKBH": 413430306
            }
        ],
        [
            {
                "$type": "ECLBLHOENAG",
                "type": "DIALOG_SELECT",
                "delayTime": 0.4000000059604645,
                "aliasList": [
                    "Avatar"
                ],
                "NDMMOPDPKNF": [
                    413430307
                ],
                "FPDBIEGHMCD": [
                    550528114
                ],
                "PKBOIGBGDEG": true
            }
        ],
        [
            {
                "$type": "DLPFECMKEKH",
                "type": "DIALOG",
                "aliasList": [
                    "2082"
                ],
                "NMKEDPFEKBH": 413430308
            }
        ],
        [
            {
                "$type": "MOOOKOKLLEI",
                "type": "CAMERA_FOCUS",
                "duration": 0.10000000149011612,
                "OMCCMPHDLOO": "",
                "OCFGGGHIKOO": "",
                "LJFHGGJDPHH": "",
                "LPKDFKLNEHL": ""
            },
            {
                "$type": "MoleMole.Config.ConfigTimeProtectAction",
                "type": "TIME_PROTECT",
                "duration": 0.10000000149011612
            }
        ],
        [
            {
                "$type": "MoleMole.Config.ConfigTimeProtectAction",
                "type": "TIME_PROTECT",
                "duration": 0.10000000149011612
            }
        ]
    ],
    "groupId": [
        {
            "grpId": 550528115,
            "nextGrpId": 550528116
        },
        {
            "index": 1,
            "grpId": 550528116,
            "nextGrpId": 550528117
        },
        {
            "index": 2,
            "grpId": 550528117,
            "nextGrpId": 550528118
        },
        {
            "index": 3,
            "grpId": 550528118,
            "nextGrpId": 550528119
        },
        {
            "index": 4,
            "grpId": 550528119,
            "nextGrpId": 550528120
        },
        {
            "index": 5,
            "grpId": 550528120,
            "nextGrpId": 550528121
        },
        {
            "index": 6,
            "grpId": 550528121,
            "nextGrpId": 550528122
        },
        {
            "index": 7,
            "grpId": 550528122,
            "nextGrpId": 550528123
        },
        {
            "index": 8,
            "grpId": 550528123,
            "nextGrpId": 4181469725
        },
        {
            "index": 9,
            "grpId": 4181469725,
            "nextGrpId": 4181469726
        }
    ],
    "freeStyleDic": {
        "2082": [],
        "2046": []
    }
}