{
    "luaDataPath": "",
    "startBlackKeepTime": 0.5,
    "entityBan": "",
    "disableNpcLod": true,
    "isAutoBanNpc": true,
    "isBanWidgetPet": true,
    "protectNpcMobileLod": true,
    "startFade": {
        "startFadeInDuration": 0.5,
        "startFadeOutDuration": 0.5
    },
    "endFade": {
        "startFadeOutDuration": 0.0
    },
    "actors": [
        {
            "alias": "Avatar",
            "visible": true,
            "bornPointName": "Q300305_N10000005",
            "relativePosNpcAlias": "",
            "bindMovingTargetKey": ""
        },
        {
            "configID": 12560,
            "alias": "12560",
            "visible": true,
            "bornPointName": "Q300305_N12560",
            "relativePosNpcAlias": "",
            "bindMovingTargetKey": ""
        },
        {
            "configID": 1005,
            "alias": "1005",
            "visible": true,
            "bornPointName": "",
            "useRelativePos": true,
            "relativePos": {
                "x": -1.0,
                "z": 0.5
            },
            "removeActorType": "REMOVE_WITH_DISAPPEAR",
            "relativePosType": "AVATAR_NEW",
            "relativePosNpcAlias": "",
            "bindMovingTargetKey": ""
        }
    ],
    "group": [
        [
            {
                "$type": "MoleMole.Config.ConfigTimeProtectAction",
                "type": "TIME_PROTECT",
                "duration": 1.0
            },
            {
                "$type": "MoleMole.Config.ConfigBlackScreenAction",
                "type": "BLACK_SCREEN",
                "actionId": 122,
                "blackScreenType": "KEEP_BLACK",
                "durationKeepBlack": 1.0,
                "inteePos": "",
                "textMapID": "",
                "useTextFade": true
            },
            {
                "$type": "MOOOKOKLLEI",
                "type": "CAMERA_MOVE",
                "duration": 0.30000001192092896,
                "actionId": 152,
                "DOKGBCKOLJK": {
                    "x": 518.1420288085938,
                    "y": 104.33300018310547,
                    "z": 379.39898681640625
                },
                "HGKCPMDICGG": {
                    "x": 517.2080078125,
                    "y": 104.29399871826172,
                    "z": 379.0429992675781
                },
                "AFODHELHCGB": 20.0,
                "MGMFMGNANHH": 6,
                "NDFGFJFGHKL": "EaseInOutCubic",
                "IBCBGNHCICN": {},
                "BNBBLLBEIDL": true,
                "NHNPMMBMCFC": -10.0,
                "HCPFCAHMGMO": false,
                "OMCCMPHDLOO": "",
                "FEFNBKOHPOG": true,
                "OCFGGGHIKOO": "",
                "LJFHGGJDPHH": "",
                "LPKDFKLNEHL": ""
            },
            {
                "$type": "MoleMole.Config.ConfigTeleportToAction",
                "type": "TELEPORT_TO",
                "aliasList": [
                    "Avatar"
                ],
                "actionId": 124,
                "position": {
                    "x": 517.6220092773438,
                    "y": 104.23799896240234,
                    "z": 378.614013671875
                },
                "forward": {
                    "x": 0.9160000085830688,
                    "y": 0.29899999499320984,
                    "z": -2.9609999656677246
                },
                "openLongDisTeleport": true,
                "posBindMovingTargetKey": "",
                "forwardBindMovingTargetKey": ""
            },
            {
                "$type": "EAMBKPBOPIC",
                "type": "LOOK_AT",
                "aliasList": [
                    "Avatar"
                ],
                "actionId": 129,
                "FIDJDPAIFDN": true,
                "BCHGCKLKNEH": 0.5,
                "OMCCMPHDLOO": "12560",
                "EOHIIHMKDJC": true,
                "KPCALFDIHMC": "",
                "DBLNLMOPEBP": ""
            },
            {
                "$type": "ILCGAGEGDJI",
                "type": "BODY_LANG",
                "aliasList": [
                    "Avatar"
                ],
                "actionId": 191,
                "JLABKFNJCNP": true,
                "PMJAMGLAJGK": true,
                "LIMPPBIAKGL": false,
                "FNEGLPPEBBF": true,
                "FNDLJGEAMGI": ""
            },
            {
                "$type": "EAMBKPBOPIC",
                "type": "LOOK_AT",
                "aliasList": [
                    "12560"
                ],
                "actionId": 126,
                "FIDJDPAIFDN": true,
                "BCHGCKLKNEH": 0.5,
                "OMCCMPHDLOO": "Avatar",
                "EOHIIHMKDJC": true,
                "KPCALFDIHMC": "",
                "DBLNLMOPEBP": ""
            },
            {
                "$type": "ILCGAGEGDJI",
                "type": "BODY_LANG",
                "aliasList": [
                    "12560"
                ],
                "actionId": 203,
                "JLABKFNJCNP": true,
                "PMJAMGLAJGK": true,
                "LIMPPBIAKGL": false,
                "FNEGLPPEBBF": true,
                "FNDLJGEAMGI": ""
            },
            {
                "$type": "MoleMole.Config.ConfigTeleportToAction",
                "type": "TELEPORT_TO",
                "aliasList": [
                    "1005"
                ],
                "actionId": 127,
                "position": {
                    "x": 517.9959716796875,
                    "y": 104.26100158691406,
                    "z": 378.9519958496094
                },
                "forward": {
                    "x": 0.25600001215934753,
                    "z": -0.9670000076293945
                },
                "openLongDisTeleport": true,
                "posBindMovingTargetKey": "",
                "forwardBindMovingTargetKey": ""
            },
            {
                "$type": "EAMBKPBOPIC",
                "type": "LOOK_AT",
                "aliasList": [
                    "1005"
                ],
                "actionId": 128,
                "FIDJDPAIFDN": true,
                "BCHGCKLKNEH": 0.5,
                "OMCCMPHDLOO": "12560",
                "FJAPKBGLNLC": {
                    "x": 359.2030029296875,
                    "y": 2.371999979019165
                },
                "EOHIIHMKDJC": true,
                "KPCALFDIHMC": "",
                "DBLNLMOPEBP": ""
            },
            {
                "$type": "MoleMole.Config.ConfigTeleportToAction",
                "type": "TELEPORT_TO",
                "delayTime": 0.13199999928474426,
                "aliasList": [
                    "12560"
                ],
                "actionId": 125,
                "position": {
                    "x": 520.0549926757812,
                    "y": 104.06800079345703,
                    "z": 372.4580078125
                },
                "forward": {
                    "x": -2.555000066757202,
                    "y": 1.284999966621399,
                    "z": 6.9019999504089355
                },
                "openLongDisTeleport": true,
                "posBindMovingTargetKey": "",
                "forwardBindMovingTargetKey": ""
            }
        ],
        [
            {
                "$type": "MoleMole.Config.ConfigBlackScreenAction",
                "type": "BLACK_SCREEN",
                "actionId": 123,
                "blackScreenType": "FROM_BLACK",
                "durationFromBlack": 0.5,
                "inteePos": "",
                "textMapID": "",
                "useTextFade": true
            },
            {
                "$type": "MoleMole.Config.ConfigSetModelTransform",
                "type": "SET_MODEL_TRANSFORM",
                "aliasList": [
                    "1005"
                ],
                "actionId": 193,
                "groudHight": 0.30000001192092896
            },
            {
                "$type": "EAMBKPBOPIC",
                "type": "LOOK_AT",
                "aliasList": [
                    "12560"
                ],
                "actionId": 132,
                "FIDJDPAIFDN": true,
                "BCHGCKLKNEH": 0.5,
                "OMCCMPHDLOO": "Avatar",
                "EOHIIHMKDJC": true,
                "KPCALFDIHMC": "",
                "DBLNLMOPEBP": ""
            },
            {
                "$type": "OPCCDGPJCJI",
                "type": "EMO_SYNC",
                "aliasList": [
                    "Avatar"
                ],
                "actionId": 208,
                "IONNJBCBACJ": "",
                "HLEJKBCMNNJ": "Cs_Emo_Avatar_Common/Cs_Emo_Avatar_Angry01",
                "JGHLJJLNGPP": "Cs_Emo_Avatar_Common/Cs_Emo_Avatar_Angry01_B",
                "MANNKIIBOFM": "",
                "COMNAAFDEDH": "",
                "CPGCCLNOCDK": "",
                "MFABDGAFKII": [
                    14296606849723709100,
                    5508348580450379567,
                    7627497203169383327,
                    8979581647593659876
                ],
                "IPAGHAALIII": [
                    12827270931485377071,
                    477271327041930928,
                    15631992893087520179,
                    3915791412555494663
                ]
            },
            {
                "$type": "ILCGAGEGDJI",
                "type": "BODY_LANG",
                "aliasList": [
                    "Avatar"
                ],
                "actionId": 190,
                "FLBOOPHHFJP": 1080,
                "PMJAMGLAJGK": true,
                "LIMPPBIAKGL": false,
                "FNEGLPPEBBF": true,
                "FNDLJGEAMGI": ""
            },
            {
                "$type": "MoleMole.Config.ConfigTimeProtectAction",
                "type": "TIME_PROTECT",
                "duration": 2.9839999675750732,
                "actionId": 201
            },
            {
                "$type": "EAMBKPBOPIC",
                "type": "LOOK_AT",
                "aliasList": [
                    "Avatar"
                ],
                "actionId": 130,
                "FIDJDPAIFDN": true,
                "BCHGCKLKNEH": 0.5,
                "OMCCMPHDLOO": "12560",
                "EOHIIHMKDJC": true,
                "KPCALFDIHMC": "",
                "DBLNLMOPEBP": ""
            },
            {
                "$type": "MOOOKOKLLEI",
                "type": "CAMERA_MOVE",
                "duration": 0.30000001192092896,
                "actionId": 147,
                "DOKGBCKOLJK": {
                    "x": 518.1420288085938,
                    "y": 104.33300018310547,
                    "z": 379.39898681640625
                },
                "HGKCPMDICGG": {
                    "x": 517.2080078125,
                    "y": 104.29399871826172,
                    "z": 379.0429992675781
                },
                "AFODHELHCGB": 20.0,
                "MGMFMGNANHH": 6,
                "NDFGFJFGHKL": "EaseInOutCubic",
                "IBCBGNHCICN": {},
                "BNBBLLBEIDL": true,
                "NHNPMMBMCFC": -10.0,
                "HCPFCAHMGMO": false,
                "OMCCMPHDLOO": "",
                "FEFNBKOHPOG": true,
                "OCFGGGHIKOO": "",
                "LJFHGGJDPHH": "",
                "LPKDFKLNEHL": ""
            },
            {
                "$type": "MOOOKOKLLEI",
                "type": "CAMERA_MOVE",
                "delayTime": 0.10000000149011612,
                "duration": 1.0,
                "actionId": 151,
                "DOKGBCKOLJK": {
                    "x": 518.2930297851562,
                    "y": 104.33999633789062,
                    "z": 379.45599365234375
                },
                "HGKCPMDICGG": {
                    "x": 517.3590087890625,
                    "y": 104.3010025024414,
                    "z": 379.1000061035156
                },
                "AFODHELHCGB": 20.0,
                "NDFGFJFGHKL": "EaseOutQuad",
                "IBCBGNHCICN": {},
                "BNBBLLBEIDL": true,
                "NHNPMMBMCFC": -10.0,
                "HCPFCAHMGMO": false,
                "OMCCMPHDLOO": "",
                "FEFNBKOHPOG": true,
                "OCFGGGHIKOO": "",
                "LJFHGGJDPHH": "",
                "LPKDFKLNEHL": ""
            },
            {
                "$type": "MOOOKOKLLEI",
                "type": "CAMERA_MOVE",
                "delayTime": 1.0880000591278076,
                "duration": 0.30000001192092896,
                "actionId": 194,
                "DOKGBCKOLJK": {
                    "x": 519.1480102539062,
                    "y": 105.14700317382812,
                    "z": 377.05499267578125
                },
                "HGKCPMDICGG": {
                    "x": 518.5969848632812,
                    "y": 104.822998046875,
                    "z": 377.8240051269531
                },
                "AFODHELHCGB": 25.0,
                "MGMFMGNANHH": 6,
                "NDFGFJFGHKL": "EaseInOutCubic",
                "IBCBGNHCICN": {},
                "BNBBLLBEIDL": true,
                "NHNPMMBMCFC": -0.0010000000474974513,
                "HCPFCAHMGMO": false,
                "OMCCMPHDLOO": "",
                "FEFNBKOHPOG": true,
                "OCFGGGHIKOO": "",
                "LJFHGGJDPHH": "",
                "LPKDFKLNEHL": ""
            },
            {
                "$type": "DLPFECMKEKH",
                "type": "DIALOG",
                "delayTime": 1.0880000591278076,
                "aliasList": [
                    "1005"
                ],
                "NMKEDPFEKBH": 30030301,
                "JLCHMAJCAPA": 6.6579999923706055
            },
            {
                "$type": "OPCCDGPJCJI",
                "type": "EMO_SYNC",
                "delayTime": 1.0880000591278076,
                "aliasList": [
                    "1005"
                ],
                "IONNJBCBACJ": "Cs_Emo_Avatar_Simple_Common_Set/Cs_Emo_Avatar_Talk/Cs_Emo_Avatar_MainLine/Cs_Emo_Avatar_Sumeru1/Cs_Emo_30030301",
                "HLEJKBCMNNJ": "",
                "JGHLJJLNGPP": "",
                "MANNKIIBOFM": "",
                "COMNAAFDEDH": "",
                "CPGCCLNOCDK": "",
                "IGEFGCJKCPM": [
                    3900342200789312752,
                    9129785480160906598,
                    2832064503806952401,
                    6603359405968870968
                ]
            },
            {
                "$type": "ILCGAGEGDJI",
                "type": "BODY_LANG",
                "delayTime": 1.093000054359436,
                "aliasList": [
                    "1005"
                ],
                "actionId": 196,
                "FLBOOPHHFJP": 1040,
                "PMJAMGLAJGK": true,
                "LIMPPBIAKGL": false,
                "FNEGLPPEBBF": true,
                "FNDLJGEAMGI": ""
            },
            {
                "$type": "MOOOKOKLLEI",
                "type": "CAMERA_MOVE",
                "delayTime": 1.187999963760376,
                "duration": 0.6000000238418579,
                "actionId": 192,
                "DOKGBCKOLJK": {
                    "x": 518.9429931640625,
                    "y": 106.11299896240234,
                    "z": 377.3160095214844
                },
                "HGKCPMDICGG": {
                    "x": 518.3920288085938,
                    "y": 105.78900146484375,
                    "z": 378.0849914550781
                },
                "AFODHELHCGB": 25.0,
                "NDFGFJFGHKL": "EaseOutQuad",
                "IBCBGNHCICN": {},
                "BNBBLLBEIDL": true,
                "NHNPMMBMCFC": -0.0010000000474974513,
                "HCPFCAHMGMO": false,
                "OMCCMPHDLOO": "",
                "FEFNBKOHPOG": true,
                "OCFGGGHIKOO": "",
                "LJFHGGJDPHH": "",
                "LPKDFKLNEHL": ""
            },
            {
                "$type": "MOOOKOKLLEI",
                "type": "CAMERA_MOVE",
                "delayTime": 1.590999960899353,
                "duration": 9.456000328063965,
                "actionId": 195,
                "DOKGBCKOLJK": {
                    "x": 518.9429931640625,
                    "y": 106.11299896240234,
                    "z": 377.3160095214844
                },
                "HGKCPMDICGG": {
                    "x": 518.3920288085938,
                    "y": 105.78900146484375,
                    "z": 378.0849914550781
                },
                "AFODHELHCGB": 25.0,
                "NDFGFJFGHKL": "EaseOutQuad",
                "IBCBGNHCICN": {},
                "BNBBLLBEIDL": true,
                "NHNPMMBMCFC": -0.0010000000474974513,
                "HCPFCAHMGMO": false,
                "OMCCMPHDLOO": "",
                "FEFNBKOHPOG": true,
                "OCFGGGHIKOO": "",
                "LJFHGGJDPHH": "",
                "LPKDFKLNEHL": ""
            },
            {
                "$type": "EAMBKPBOPIC",
                "type": "LOOK_AT",
                "delayTime": 3.303999900817871,
                "aliasList": [
                    "1005"
                ],
                "actionId": 199,
                "FIDJDPAIFDN": true,
                "BCHGCKLKNEH": 0.5,
                "OMCCMPHDLOO": "Avatar",
                "FJAPKBGLNLC": {
                    "x": 359.2030029296875,
                    "y": 2.371999979019165
                },
                "EOHIIHMKDJC": true,
                "KPCALFDIHMC": "",
                "DBLNLMOPEBP": ""
            },
            {
                "$type": "EAMBKPBOPIC",
                "type": "LOOK_AT",
                "delayTime": 6.454999923706055,
                "aliasList": [
                    "1005"
                ],
                "actionId": 200,
                "FIDJDPAIFDN": true,
                "BCHGCKLKNEH": 0.5,
                "OMCCMPHDLOO": "12560",
                "FJAPKBGLNLC": {
                    "x": 359.2030029296875,
                    "y": 2.371999979019165
                },
                "EOHIIHMKDJC": true,
                "KPCALFDIHMC": "",
                "DBLNLMOPEBP": ""
            },
            {
                "$type": "MOOOKOKLLEI",
                "type": "CAMERA_MOVE",
                "delayTime": 6.796000003814697,
                "duration": 0.5,
                "actionId": 158,
                "DOKGBCKOLJK": {
                    "x": 516.1749877929688,
                    "y": 105.302001953125,
                    "z": 384.1000061035156
                },
                "HGKCPMDICGG": {
                    "x": 516.4910278320312,
                    "y": 105.32499694824219,
                    "z": 383.1520080566406
                },
                "AFODHELHCGB": 10.0,
                "MGMFMGNANHH": 6,
                "NDFGFJFGHKL": "EaseInOutCubic",
                "IBCBGNHCICN": {},
                "BNBBLLBEIDL": true,
                "NHNPMMBMCFC": 0.0010000000474974513,
                "HCPFCAHMGMO": false,
                "OMCCMPHDLOO": "",
                "FEFNBKOHPOG": true,
                "OCFGGGHIKOO": "",
                "LJFHGGJDPHH": "",
                "LPKDFKLNEHL": ""
            },
            {
                "$type": "MOOOKOKLLEI",
                "type": "CAMERA_MOVE",
                "delayTime": 6.995999813079834,
                "duration": 20.020999908447266,
                "actionId": 159,
                "DOKGBCKOLJK": {
                    "x": 516.10400390625,
                    "y": 105.28900146484375,
                    "z": 384.3110046386719
                },
                "HGKCPMDICGG": {
                    "x": 516.4199829101562,
                    "y": 105.3489990234375,
                    "z": 383.364013671875
                },
                "AFODHELHCGB": 10.0,
                "NDFGFJFGHKL": "EaseOutQuad",
                "IBCBGNHCICN": {},
                "BNBBLLBEIDL": true,
                "NHNPMMBMCFC": 0.0010000000474974513,
                "HCPFCAHMGMO": false,
                "OMCCMPHDLOO": "",
                "FEFNBKOHPOG": true,
                "OCFGGGHIKOO": "",
                "LJFHGGJDPHH": "",
                "LPKDFKLNEHL": ""
            }
        ],
        [
            {
                "$type": "DLPFECMKEKH",
                "type": "DIALOG",
                "aliasList": [
                    "12560"
                ],
                "NMKEDPFEKBH": 30030302,
                "JLCHMAJCAPA": 15.494000434875488
            },
            {
                "$type": "OPCCDGPJCJI",
                "type": "EMO_SYNC",
                "aliasList": [
                    "12560"
                ],
                "IONNJBCBACJ": "Cs_Emo_Avatar_Simple_Common_Set/Cs_Emo_Avatar_Talk/Cs_Emo_Avatar_MainLine/Cs_Emo_Avatar_Sumeru1/Cs_Emo_30030302",
                "HLEJKBCMNNJ": "",
                "JGHLJJLNGPP": "",
                "MANNKIIBOFM": "",
                "COMNAAFDEDH": "",
                "CPGCCLNOCDK": "",
                "IGEFGCJKCPM": [
                    13976169294404028542,
                    18438401463603770717,
                    12390419322071124361,
                    6861652612237023487
                ]
            },
            {
                "$type": "EAMBKPBOPIC",
                "type": "LOOK_AT",
                "aliasList": [
                    "1005"
                ],
                "actionId": 155,
                "FIDJDPAIFDN": true,
                "BCHGCKLKNEH": 0.5,
                "OMCCMPHDLOO": "12560",
                "EOHIIHMKDJC": true,
                "KPCALFDIHMC": "",
                "DBLNLMOPEBP": ""
            },
            {
                "$type": "MOOOKOKLLEI",
                "type": "CAMERA_MOVE",
                "delayTime": 11.074000358581543,
                "duration": 1.0,
                "actionId": 215,
                "DOKGBCKOLJK": {
                    "x": 519.9359741210938,
                    "y": 108.47200012207031,
                    "z": 371.5899963378906
                },
                "HGKCPMDICGG": {
                    "x": 519.6849975585938,
                    "y": 108.0510025024414,
                    "z": 372.4620056152344
                },
                "AFODHELHCGB": 25.0,
                "MGMFMGNANHH": 6,
                "NDFGFJFGHKL": "EaseInOutCubic",
                "IBCBGNHCICN": {},
                "BNBBLLBEIDL": true,
                "NHNPMMBMCFC": 0.0010000000474974513,
                "HCPFCAHMGMO": false,
                "OMCCMPHDLOO": "",
                "FEFNBKOHPOG": true,
                "OCFGGGHIKOO": "",
                "LJFHGGJDPHH": "",
                "LPKDFKLNEHL": ""
            },
            {
                "$type": "MOOOKOKLLEI",
                "type": "CAMERA_MOVE",
                "delayTime": 11.199999809265137,
                "duration": 15.53600025177002,
                "actionId": 216,
                "DOKGBCKOLJK": {
                    "x": 519.5230102539062,
                    "y": 107.77899932861328,
                    "z": 373.02398681640625
                },
                "HGKCPMDICGG": {
                    "x": 519.27197265625,
                    "y": 107.35800170898438,
                    "z": 373.89599609375
                },
                "AFODHELHCGB": 25.0,
                "NDFGFJFGHKL": "EaseOutQuad",
                "IBCBGNHCICN": {},
                "BNBBLLBEIDL": true,
                "NHNPMMBMCFC": 0.0010000000474974513,
                "HCPFCAHMGMO": false,
                "OMCCMPHDLOO": "",
                "FEFNBKOHPOG": true,
                "OCFGGGHIKOO": "",
                "LJFHGGJDPHH": "",
                "LPKDFKLNEHL": ""
            },
            {
                "$type": "ECLBLHOENAG",
                "type": "DIALOG_SELECT",
                "delayTime": 15.494000434875488,
                "aliasList": [
                    "Avatar"
                ],
                "NDMMOPDPKNF": [
                    30030303,
                    30030304
                ],
                "FPDBIEGHMCD": [
                    3299335004,
                    3299335004
                ],
                "PKBOIGBGDEG": true
            }
        ],
        [
            {
                "$type": "MOOOKOKLLEI",
                "type": "CAMERA_MOVE",
                "duration": 0.5,
                "actionId": 225,
                "DOKGBCKOLJK": {
                    "x": 519.4390258789062,
                    "y": 106.16899871826172,
                    "z": 373.9639892578125
                },
                "HGKCPMDICGG": {
                    "x": 519.7689819335938,
                    "y": 106.48200225830078,
                    "z": 373.072998046875
                },
                "AFODHELHCGB": 20.0,
                "MGMFMGNANHH": 6,
                "NDFGFJFGHKL": "EaseInOutCubic",
                "IBCBGNHCICN": {},
                "BNBBLLBEIDL": true,
                "NHNPMMBMCFC": 0.0010000000474974513,
                "HCPFCAHMGMO": false,
                "OMCCMPHDLOO": "",
                "FEFNBKOHPOG": true,
                "OCFGGGHIKOO": "",
                "LJFHGGJDPHH": "",
                "LPKDFKLNEHL": ""
            },
            {
                "$type": "DLPFECMKEKH",
                "type": "DIALOG",
                "aliasList": [
                    "12560"
                ],
                "NMKEDPFEKBH": 30030305,
                "JLCHMAJCAPA": 3.0239999294281006
            },
            {
                "$type": "OPCCDGPJCJI",
                "type": "EMO_SYNC",
                "aliasList": [
                    "12560"
                ],
                "IONNJBCBACJ": "Cs_Emo_Avatar_Simple_Common_Set/Cs_Emo_Avatar_Talk/Cs_Emo_Avatar_MainLine/Cs_Emo_Avatar_Sumeru1/Cs_Emo_30030305_2",
                "HLEJKBCMNNJ": "",
                "JGHLJJLNGPP": "",
                "MANNKIIBOFM": "Cs_Emo_Avatar_Simple_Common_Set/Cs_Emo_Avatar_Talk/Cs_Emo_Avatar_MainLine/Cs_Emo_Avatar_Sumeru1/Cs_Emo_30030305_1",
                "COMNAAFDEDH": "",
                "CPGCCLNOCDK": "",
                "IGEFGCJKCPM": [
                    11586801722633939288,
                    8440826285702049603,
                    8201446163117047476,
                    11302786495759172164
                ],
                "HBPEKLKFCCM": [
                    1730796508361920204,
                    8162885293179638226,
                    16930355732474333236,
                    5230832820961000734
                ]
            },
            {
                "$type": "MOOOKOKLLEI",
                "type": "CAMERA_MOVE",
                "delayTime": 0.10000000149011612,
                "duration": 3.253000020980835,
                "actionId": 219,
                "DOKGBCKOLJK": {
                    "x": 519.5089721679688,
                    "y": 106.25299835205078,
                    "z": 373.7720031738281
                },
                "HGKCPMDICGG": {
                    "x": 519.8389892578125,
                    "y": 106.56600189208984,
                    "z": 372.8810119628906
                },
                "AFODHELHCGB": 20.0,
                "NDFGFJFGHKL": "EaseOutQuad",
                "IBCBGNHCICN": {},
                "BNBBLLBEIDL": true,
                "NHNPMMBMCFC": 0.0010000000474974513,
                "HCPFCAHMGMO": false,
                "OMCCMPHDLOO": "",
                "FEFNBKOHPOG": true,
                "OCFGGGHIKOO": "",
                "LJFHGGJDPHH": "",
                "LPKDFKLNEHL": ""
            },
            {
                "$type": "EAMBKPBOPIC",
                "type": "LOOK_AT",
                "delayTime": 1.9119999408721924,
                "aliasList": [
                    "12560"
                ],
                "actionId": 218,
                "FIDJDPAIFDN": true,
                "useTargetPos": true,
                "GFKIMGBGADJ": true,
                "GMKIJKADNHN": {
                    "x": 519.9310302734375,
                    "y": 107.13600158691406,
                    "z": 373.0889892578125
                },
                "BCHGCKLKNEH": 0.5,
                "OMCCMPHDLOO": "",
                "CEBMBGKJACI": "NONE",
                "EOHIIHMKDJC": true,
                "KPCALFDIHMC": "",
                "DBLNLMOPEBP": ""
            },
            {
                "$type": "MOOOKOKLLEI",
                "type": "CAMERA_MOVE",
                "delayTime": 2.1630001068115234,
                "duration": 0.30000001192092896,
                "actionId": 160,
                "DOKGBCKOLJK": {
                    "x": 526.4000244140625,
                    "y": 126.36299896240234,
                    "z": 387.8299865722656
                },
                "HGKCPMDICGG": {
                    "x": 526.1079711914062,
                    "y": 125.5270004272461,
                    "z": 387.364990234375
                },
                "AFODHELHCGB": 20.0,
                "MGMFMGNANHH": 6,
                "NDFGFJFGHKL": "EaseInOutCubic",
                "IBCBGNHCICN": {},
                "BNBBLLBEIDL": true,
                "NHNPMMBMCFC": 0.0020000000949949026,
                "HCPFCAHMGMO": false,
                "OMCCMPHDLOO": "",
                "FEFNBKOHPOG": true,
                "OCFGGGHIKOO": "",
                "LJFHGGJDPHH": "",
                "LPKDFKLNEHL": ""
            },
            {
                "$type": "MOOOKOKLLEI",
                "type": "CAMERA_MOVE",
                "delayTime": 2.263000011444092,
                "duration": 25.40999984741211,
                "actionId": 161,
                "DOKGBCKOLJK": {
                    "x": 529.844970703125,
                    "y": 127.79100036621094,
                    "z": 386.9670104980469
                },
                "HGKCPMDICGG": {
                    "x": 529.4539794921875,
                    "y": 126.96299743652344,
                    "z": 386.5639953613281
                },
                "AFODHELHCGB": 20.0,
                "NDFGFJFGHKL": "EaseOutQuad",
                "IBCBGNHCICN": {},
                "BNBBLLBEIDL": true,
                "NHNPMMBMCFC": 0.0020000000949949026,
                "HCPFCAHMGMO": false,
                "OMCCMPHDLOO": "",
                "FEFNBKOHPOG": true,
                "OCFGGGHIKOO": "",
                "LJFHGGJDPHH": "",
                "LPKDFKLNEHL": ""
            },
            {
                "$type": "EAMBKPBOPIC",
                "type": "LOOK_AT",
                "delayTime": 8.597000122070312,
                "aliasList": [
                    "12560"
                ],
                "actionId": 220,
                "FIDJDPAIFDN": true,
                "GMKIJKADNHN": {
                    "x": 519.9310302734375,
                    "y": 107.13600158691406,
                    "z": 373.0889892578125
                },
                "BCHGCKLKNEH": 0.5,
                "OMCCMPHDLOO": "Avatar",
                "EOHIIHMKDJC": true,
                "KPCALFDIHMC": "",
                "DBLNLMOPEBP": ""
            }
        ],
        [
            {
                "$type": "MOOOKOKLLEI",
                "type": "CAMERA_MOVE",
                "duration": 0.30000001192092896,
                "actionId": 162,
                "DOKGBCKOLJK": {
                    "x": 522.0549926757812,
                    "y": 104.22599792480469,
                    "z": 370.2049865722656
                },
                "HGKCPMDICGG": {
                    "x": 521.4869995117188,
                    "y": 104.33899688720703,
                    "z": 371.0199890136719
                },
                "AFODHELHCGB": 25.0,
                "MGMFMGNANHH": 6,
                "NDFGFJFGHKL": "EaseInOutCubic",
                "IBCBGNHCICN": {},
                "BNBBLLBEIDL": true,
                "NHNPMMBMCFC": 349.22100830078125,
                "HCPFCAHMGMO": false,
                "OMCCMPHDLOO": "",
                "FEFNBKOHPOG": true,
                "OCFGGGHIKOO": "",
                "LJFHGGJDPHH": "",
                "LPKDFKLNEHL": ""
            },
            {
                "$type": "DLPFECMKEKH",
                "type": "DIALOG",
                "aliasList": [
                    "12560"
                ],
                "NMKEDPFEKBH": 30030306,
                "JLCHMAJCAPA": 6.2179999351501465
            },
            {
                "$type": "OPCCDGPJCJI",
                "type": "EMO_SYNC",
                "aliasList": [
                    "12560"
                ],
                "IONNJBCBACJ": "Cs_Emo_Avatar_Simple_Common_Set/Cs_Emo_Avatar_Talk/Cs_Emo_Avatar_MainLine/Cs_Emo_Avatar_Sumeru1/Cs_Emo_30030306_2",
                "HLEJKBCMNNJ": "",
                "JGHLJJLNGPP": "",
                "MANNKIIBOFM": "Cs_Emo_Avatar_Simple_Common_Set/Cs_Emo_Avatar_Talk/Cs_Emo_Avatar_MainLine/Cs_Emo_Avatar_Sumeru1/Cs_Emo_30030306_1",
                "COMNAAFDEDH": "",
                "CPGCCLNOCDK": "",
                "IGEFGCJKCPM": [
                    4203911674025778782,
                    15089402086814425373,
                    10924662538237651941,
                    6514954835965086827
                ],
                "HBPEKLKFCCM": [
                    9752646282537118720,
                    15187218716609396039,
                    619364564023257515,
                    13867630318632557602
                ]
            },
            {
                "$type": "EAMBKPBOPIC",
                "type": "LOOK_AT",
                "aliasList": [
                    "12560"
                ],
                "actionId": 221,
                "FIDJDPAIFDN": true,
                "GMKIJKADNHN": {
                    "x": 519.9310302734375,
                    "y": 107.13600158691406,
                    "z": 373.0889892578125
                },
                "BCHGCKLKNEH": 0.5,
                "OMCCMPHDLOO": "Avatar",
                "EOHIIHMKDJC": true,
                "KPCALFDIHMC": "",
                "DBLNLMOPEBP": ""
            },
            {
                "$type": "MOOOKOKLLEI",
                "type": "CAMERA_MOVE",
                "delayTime": 0.20000000298023224,
                "duration": 7.821000099182129,
                "actionId": 163,
                "DOKGBCKOLJK": {
                    "x": 522.156982421875,
                    "y": 104.2020034790039,
                    "z": 370.27899169921875
                },
                "HGKCPMDICGG": {
                    "x": 521.5889892578125,
                    "y": 104.31500244140625,
                    "z": 371.093994140625
                },
                "AFODHELHCGB": 25.0,
                "NDFGFJFGHKL": "EaseOutQuad",
                "IBCBGNHCICN": {},
                "BNBBLLBEIDL": true,
                "NHNPMMBMCFC": 349.22100830078125,
                "HCPFCAHMGMO": false,
                "OMCCMPHDLOO": "",
                "FEFNBKOHPOG": true,
                "OCFGGGHIKOO": "",
                "LJFHGGJDPHH": "",
                "LPKDFKLNEHL": ""
            },
            {
                "$type": "MOOOKOKLLEI",
                "type": "CAMERA_MOVE",
                "delayTime": 5.446000099182129,
                "duration": 0.30000001192092896,
                "actionId": 207,
                "DOKGBCKOLJK": {
                    "x": 518.0499877929688,
                    "y": 105.91200256347656,
                    "z": 377.8970031738281
                },
                "HGKCPMDICGG": {
                    "x": 517.6199951171875,
                    "y": 105.56800079345703,
                    "z": 378.7309875488281
                },
                "AFODHELHCGB": 20.0,
                "MGMFMGNANHH": 6,
                "NDFGFJFGHKL": "EaseInOutCubic",
                "IBCBGNHCICN": {},
                "BNBBLLBEIDL": true,
                "HCPFCAHMGMO": false,
                "OMCCMPHDLOO": "",
                "FEFNBKOHPOG": true,
                "OCFGGGHIKOO": "",
                "LJFHGGJDPHH": "",
                "LPKDFKLNEHL": ""
            },
            {
                "$type": "MOOOKOKLLEI",
                "type": "CAMERA_MOVE",
                "delayTime": 5.546000003814697,
                "duration": 10.741000175476074,
                "actionId": 206,
                "DOKGBCKOLJK": {
                    "x": 517.9199829101562,
                    "y": 105.80799865722656,
                    "z": 378.14898681640625
                },
                "HGKCPMDICGG": {
                    "x": 517.489990234375,
                    "y": 105.46399688720703,
                    "z": 378.9830017089844
                },
                "AFODHELHCGB": 20.0,
                "NDFGFJFGHKL": "EaseOutQuad",
                "IBCBGNHCICN": {},
                "BNBBLLBEIDL": true,
                "HCPFCAHMGMO": false,
                "OMCCMPHDLOO": "",
                "FEFNBKOHPOG": true,
                "OCFGGGHIKOO": "",
                "LJFHGGJDPHH": "",
                "LPKDFKLNEHL": ""
            },
            {
                "$type": "OPCCDGPJCJI",
                "type": "EMO_SYNC",
                "delayTime": 9.64799976348877,
                "aliasList": [
                    "Avatar"
                ],
                "actionId": 209,
                "IONNJBCBACJ": "",
                "HLEJKBCMNNJ": "Cs_Emo_Avatar_Common/Cs_Emo_Avatar_Angry01",
                "JGHLJJLNGPP": "Cs_Emo_Avatar_Common/Cs_Emo_Avatar_Angry02",
                "MANNKIIBOFM": "",
                "COMNAAFDEDH": "",
                "CPGCCLNOCDK": "",
                "MFABDGAFKII": [
                    14296606849723709100,
                    5508348580450379567,
                    7627497203169383327,
                    8979581647593659876
                ],
                "IPAGHAALIII": [
                    12781774775280653381,
                    2106890207229797702,
                    3298605151875018548,
                    5144712318883339178
                ]
            },
            {
                "$type": "EAMBKPBOPIC",
                "type": "LOOK_AT",
                "delayTime": 9.652999877929688,
                "aliasList": [
                    "Avatar"
                ],
                "actionId": 227,
                "FIDJDPAIFDN": true,
                "useTargetPos": true,
                "GFKIMGBGADJ": true,
                "GMKIJKADNHN": {
                    "x": 517.6190185546875,
                    "y": 105.48400115966797,
                    "z": 378.718994140625
                },
                "BCHGCKLKNEH": 0.5,
                "OMCCMPHDLOO": "",
                "CEBMBGKJACI": "NONE",
                "EOHIIHMKDJC": true,
                "KPCALFDIHMC": "",
                "DBLNLMOPEBP": ""
            },
            {
                "$type": "CJKIHIFAALJ",
                "type": "LOOK_AT_EYECTRL",
                "delayTime": 9.656999588012695,
                "aliasList": [
                    "Avatar"
                ],
                "actionId": 230,
                "useTargetPos": false,
                "BJMEKPDGMPA": 1.0,
                "OMCCMPHDLOO": "",
                "OPPBKKOPIOB": "Face"
            }
        ],
        [
            {
                "$type": "MOOOKOKLLEI",
                "type": "CAMERA_MOVE",
                "duration": 0.30000001192092896,
                "actionId": 164,
                "DOKGBCKOLJK": {
                    "x": 553.1619873046875,
                    "y": 105.48699951171875,
                    "z": 380.3370056152344
                },
                "HGKCPMDICGG": {
                    "x": 552.1710205078125,
                    "y": 105.46299743652344,
                    "z": 380.20599365234375
                },
                "AFODHELHCGB": 20.0,
                "MGMFMGNANHH": 6,
                "NDFGFJFGHKL": "EaseInOutCubic",
                "IBCBGNHCICN": {},
                "BNBBLLBEIDL": true,
                "NHNPMMBMCFC": 0.0010000000474974513,
                "HCPFCAHMGMO": false,
                "OMCCMPHDLOO": "",
                "FEFNBKOHPOG": true,
                "OCFGGGHIKOO": "",
                "LJFHGGJDPHH": "",
                "LPKDFKLNEHL": ""
            },
            {
                "$type": "OPCCDGPJCJI",
                "type": "EMO_SYNC",
                "aliasList": [
                    "Avatar"
                ],
                "actionId": 231,
                "IONNJBCBACJ": "",
                "HLEJKBCMNNJ": "Cs_Emo_Avatar_Common/Cs_Emo_Avatar_Angry01",
                "JGHLJJLNGPP": "Cs_Emo_Avatar_Common/Cs_Emo_Avatar_Angry02",
                "MANNKIIBOFM": "",
                "COMNAAFDEDH": "",
                "CPGCCLNOCDK": "",
                "MFABDGAFKII": [
                    14296606849723709100,
                    5508348580450379567,
                    7627497203169383327,
                    8979581647593659876
                ],
                "IPAGHAALIII": [
                    12781774775280653381,
                    2106890207229797702,
                    3298605151875018548,
                    5144712318883339178
                ]
            },
            {
                "$type": "DLPFECMKEKH",
                "type": "DIALOG",
                "aliasList": [
                    "12560"
                ],
                "NMKEDPFEKBH": 30030307,
                "JLCHMAJCAPA": 0.5
            },
            {
                "$type": "OPCCDGPJCJI",
                "type": "EMO_SYNC",
                "aliasList": [
                    "12560"
                ],
                "IONNJBCBACJ": "Cs_Emo_Avatar_Simple_Common_Set/Cs_Emo_Avatar_Talk/Cs_Emo_Avatar_MainLine/Cs_Emo_Avatar_Sumeru1/Cs_Emo_30030307",
                "HLEJKBCMNNJ": "",
                "JGHLJJLNGPP": "",
                "MANNKIIBOFM": "",
                "COMNAAFDEDH": "",
                "CPGCCLNOCDK": "",
                "IGEFGCJKCPM": [
                    135569841373815055,
                    6067809156122515669,
                    2619347260389969965,
                    18263066400330953358
                ]
            },
            {
                "$type": "MOOOKOKLLEI",
                "type": "CAMERA_MOVE",
                "delayTime": 0.10000000149011612,
                "duration": 17.558000564575195,
                "actionId": 165,
                "DOKGBCKOLJK": {
                    "x": 548.947998046875,
                    "y": 105.58699798583984,
                    "z": 392.71099853515625
                },
                "HGKCPMDICGG": {
                    "x": 548.0830078125,
                    "y": 105.55999755859375,
                    "z": 392.2099914550781
                },
                "AFODHELHCGB": 20.0,
                "NDFGFJFGHKL": "EaseOutQuad",
                "IBCBGNHCICN": {},
                "BNBBLLBEIDL": true,
                "NHNPMMBMCFC": 0.0010000000474974513,
                "HCPFCAHMGMO": false,
                "OMCCMPHDLOO": "",
                "FEFNBKOHPOG": true,
                "OCFGGGHIKOO": "",
                "LJFHGGJDPHH": "",
                "LPKDFKLNEHL": ""
            }
        ],
        [
            {
                "$type": "MOOOKOKLLEI",
                "type": "CAMERA_MOVE",
                "duration": 0.30000001192092896,
                "actionId": 168,
                "DOKGBCKOLJK": {
                    "x": 519.1019897460938,
                    "y": 105.5479965209961,
                    "z": 375.3789978027344
                },
                "HGKCPMDICGG": {
                    "x": 519.3870239257812,
                    "y": 105.822998046875,
                    "z": 374.46099853515625
                },
                "AFODHELHCGB": 15.0,
                "MGMFMGNANHH": 6,
                "NDFGFJFGHKL": "EaseInOutCubic",
                "IBCBGNHCICN": {},
                "BNBBLLBEIDL": true,
                "NHNPMMBMCFC": 0.0010000000474974513,
                "HCPFCAHMGMO": false,
                "OMCCMPHDLOO": "",
                "FEFNBKOHPOG": true,
                "OCFGGGHIKOO": "",
                "LJFHGGJDPHH": "",
                "LPKDFKLNEHL": ""
            },
            {
                "$type": "MoleMole.Config.ConfigTeleportToAction",
                "type": "TELEPORT_TO",
                "aliasList": [
                    "Avatar"
                ],
                "actionId": 212,
                "position": {
                    "x": 516.6199951171875,
                    "y": 103.76000213623047,
                    "z": 382.0799865722656
                },
                "forward": {
                    "x": 0.29600000381469727,
                    "z": -0.9549999833106995
                },
                "openLongDisTeleport": true,
                "posBindMovingTargetKey": "",
                "forwardBindMovingTargetKey": ""
            },
            {
                "$type": "DLPFECMKEKH",
                "type": "DIALOG",
                "aliasList": [
                    "12560"
                ],
                "NMKEDPFEKBH": 30030308,
                "JLCHMAJCAPA": 2.513000011444092
            },
            {
                "$type": "OPCCDGPJCJI",
                "type": "EMO_SYNC",
                "aliasList": [
                    "12560"
                ],
                "IONNJBCBACJ": "Cs_Emo_Avatar_Simple_Common_Set/Cs_Emo_Avatar_Talk/Cs_Emo_Avatar_MainLine/Cs_Emo_Avatar_Sumeru1/Cs_Emo_30030308",
                "HLEJKBCMNNJ": "",
                "JGHLJJLNGPP": "",
                "MANNKIIBOFM": "",
                "COMNAAFDEDH": "",
                "CPGCCLNOCDK": "",
                "IGEFGCJKCPM": [
                    13615402335828905208,
                    10257592180257696184,
                    3602040407636665935,
                    9798963414408413269
                ]
            },
            {
                "$type": "MoleMole.Config.ConfigTeleportToAction",
                "type": "TELEPORT_TO",
                "aliasList": [
                    "1005"
                ],
                "actionId": 211,
                "position": {
                    "x": 517.0280151367188,
                    "y": 103.97599792480469,
                    "z": 382.4490051269531
                },
                "forward": {
                    "x": 0.25600001215934753,
                    "z": -0.9670000076293945
                },
                "openLongDisTeleport": true,
                "posBindMovingTargetKey": "",
                "forwardBindMovingTargetKey": ""
            },
            {
                "$type": "MOOOKOKLLEI",
                "type": "CAMERA_MOVE",
                "delayTime": 0.20000000298023224,
                "duration": 13.718000411987305,
                "actionId": 169,
                "DOKGBCKOLJK": {
                    "x": 519.0819702148438,
                    "y": 105.74099731445312,
                    "z": 375.42999267578125
                },
                "HGKCPMDICGG": {
                    "x": 519.3670043945312,
                    "y": 106.01599884033203,
                    "z": 374.5119934082031
                },
                "AFODHELHCGB": 15.0,
                "NDFGFJFGHKL": "EaseOutQuad",
                "IBCBGNHCICN": {},
                "BNBBLLBEIDL": true,
                "NHNPMMBMCFC": 0.0010000000474974513,
                "HCPFCAHMGMO": false,
                "OMCCMPHDLOO": "",
                "FEFNBKOHPOG": true,
                "OCFGGGHIKOO": "",
                "LJFHGGJDPHH": "",
                "LPKDFKLNEHL": ""
            }
        ],
        [
            {
                "$type": "MoleMole.Config.ConfigTimeProtectAction",
                "type": "TIME_PROTECT",
                "duration": 3.25,
                "actionId": 167
            },
            {
                "$type": "MOOOKOKLLEI",
                "type": "CAMERA_MOVE",
                "duration": 1.1430000066757202,
                "actionId": 170,
                "DOKGBCKOLJK": {
                    "x": 517.85302734375,
                    "y": 104.36599731445312,
                    "z": 380.1390075683594
                },
                "HGKCPMDICGG": {
                    "x": 518.1370239257812,
                    "y": 104.5260009765625,
                    "z": 379.1940002441406
                },
                "AFODHELHCGB": 30.0,
                "NDFGFJFGHKL": "EaseOutQuart",
                "IBCBGNHCICN": {},
                "BNBBLLBEIDL": true,
                "NHNPMMBMCFC": 350.0159912109375,
                "HCPFCAHMGMO": false,
                "OMCCMPHDLOO": "",
                "FEFNBKOHPOG": true,
                "OCFGGGHIKOO": "",
                "LJFHGGJDPHH": "",
                "LPKDFKLNEHL": ""
            },
            {
                "$type": "ILCGAGEGDJI",
                "type": "BODY_LANG",
                "aliasList": [
                    "12560"
                ],
                "actionId": 255,
                "FLBOOPHHFJP": 3,
                "PMJAMGLAJGK": true,
                "LIMPPBIAKGL": false,
                "FNEGLPPEBBF": true,
                "FNDLJGEAMGI": ""
            },
            {
                "$type": "MOOOKOKLLEI",
                "type": "CAMERA_MOVE",
                "delayTime": 0.5180000066757202,
                "duration": 1.8079999685287476,
                "actionId": 210,
                "DOKGBCKOLJK": {
                    "x": 517.85302734375,
                    "y": 104.36599731445312,
                    "z": 380.1390075683594
                },
                "HGKCPMDICGG": {
                    "x": 518.1370239257812,
                    "y": 104.5260009765625,
                    "z": 379.1940002441406
                },
                "AFODHELHCGB": 30.0,
                "NDFGFJFGHKL": "Linear",
                "IBCBGNHCICN": {},
                "BNBBLLBEIDL": true,
                "NHNPMMBMCFC": 350.0159912109375,
                "HCPFCAHMGMO": false,
                "OMCCMPHDLOO": "",
                "FEFNBKOHPOG": true,
                "OCFGGGHIKOO": "",
                "LJFHGGJDPHH": "",
                "LPKDFKLNEHL": ""
            },
            {
                "$type": "MoleMole.Config.ConfigPlayEffectAction",
                "type": "PLAY_EFFECT",
                "delayTime": 1.5,
                "aliasList": [
                    "12560"
                ],
                "actionId": 256,
                "effectIndex": "1",
                "patternName": "Eff_Monster_Invoker_Herald_Water_TransformAtk",
                "pos": {
                    "x": 520.0549926757812,
                    "y": 104.06800079345703,
                    "z": 372.4580078125
                },
                "scale": {
                    "x": 1.0,
                    "y": 1.0,
                    "z": 1.0
                },
                "otherTargetNpcAlias": ""
            },
            {
                "$type": "MoleMole.Config.ConfigSimpleBlackScreenAction",
                "type": "SIMPLE_BLACK_SCREEN",
                "delayTime": 1.600000023841858,
                "actionId": 247,
                "durationToBlack": 0.5,
                "durationKeepBlack": 3.0,
                "durationFromBlack": 0.5,
                "textMapID": ""
            },
            {
                "$type": "MOOOKOKLLEI",
                "type": "CAMERA_MOVE",
                "delayTime": 2.8499999046325684,
                "duration": 0.10000000149011612,
                "actionId": 213,
                "DOKGBCKOLJK": {
                    "x": 515.43701171875,
                    "y": 104.875,
                    "z": 385.4909973144531
                },
                "HGKCPMDICGG": {
                    "x": 515.7839965820312,
                    "y": 104.802001953125,
                    "z": 384.5559997558594
                },
                "MGMFMGNANHH": 6,
                "NDFGFJFGHKL": "EaseOutQuart",
                "IBCBGNHCICN": {},
                "BNBBLLBEIDL": true,
                "HCPFCAHMGMO": false,
                "OMCCMPHDLOO": "",
                "FEFNBKOHPOG": true,
                "OCFGGGHIKOO": "",
                "LJFHGGJDPHH": "",
                "LPKDFKLNEHL": ""
            }
        ]
    ],
    "groupId": [
        {
            "grpId": 3299335001,
            "nextGrpId": 3299335002
        },
        {
            "index": 1,
            "grpId": 3299335002,
            "nextGrpId": 3299335003
        },
        {
            "index": 2,
            "grpId": 3299335003,
            "nextGrpId": 3299335004
        },
        {
            "index": 3,
            "grpId": 3299335004,
            "nextGrpId": 3299335005
        },
        {
            "index": 4,
            "grpId": 3299335005,
            "nextGrpId": 3299335006
        },
        {
            "index": 5,
            "grpId": 3299335006,
            "nextGrpId": 3299335007
        },
        {
            "index": 6,
            "grpId": 3299335007,
            "nextGrpId": 3299335008
        },
        {
            "index": 7,
            "grpId": 3299335008,
            "nextGrpId": 3299335009
        }
    ]
}