{
    "luaDataPath": "",
    "entityBan": "",
    "disableNpcLod": true,
    "protectNpcMobileLod": true,
    "LIICEPFFGMH": 5,
    "startFade": {
        "startFadeOutDuration": 0.0
    },
    "endFade": {
        "startFadeOutDuration": 0.0
    },
    "actors": [
        {
            "alias": "Avatar",
            "visible": true,
            "bornPointName": "",
            "relativePosType": "AVATAR_NEW",
            "relativePosNpcAlias": "",
            "bindMovingTargetKey": ""
        },
        {
            "configID": 30374,
            "alias": "30374",
            "visible": true,
            "bornPointName": "",
            "relativePosType": "AVATAR_NEW",
            "relativePosNpcAlias": "",
            "bindMovingTargetKey": ""
        }
    ],
    "group": [
        [
            {
                "$type": "MOOOKOKLLEI",
                "type": "CAMERA_FOCUS",
                "duration": 0.10000000149011612,
                "actionId": 103,
                "OMCCMPHDLOO": "",
                "OCFGGGHIKOO": "",
                "LJFHGGJDPHH": "",
                "LPKDFKLNEHL": ""
            },
            {
                "$type": "MoleMole.Config.ConfigTimeProtectAction",
                "type": "TIME_PROTECT",
                "duration": 0.10000000149011612,
                "actionId": 104
            },
            {
                "$type": "EAMBKPBOPIC",
                "type": "LOOK_AT",
                "delayTime": 0.22699999809265137,
                "aliasList": [
                    "30374"
                ],
                "actionId": 129,
                "FIDJDPAIFDN": true,
                "BCHGCKLKNEH": 0.5,
                "OMCCMPHDLOO": "Avatar",
                "EOHIIHMKDJC": true,
                "KPCALFDIHMC": "",
                "DBLNLMOPEBP": ""
            },
            {
                "$type": "OOMFCPJAJGL",
                "type": "STEER_TO",
                "delayTime": 0.30000001192092896,
                "duration": 0.800000011920929,
                "aliasList": [
                    "Avatar"
                ],
                "actionId": 125,
                "flag": 32,
                "DMGIIHNDNLC": "TO_TARGET_ADVANCED",
                "HCMINPNPFDF": true,
                "PENAEBFAHCH": true,
                "CKOEAJFMDON": true,
                "OMCCMPHDLOO": "30374",
                "PPGPCHDAOJG": true,
                "DBLNLMOPEBP": ""
            },
            {
                "$type": "OOMFCPJAJGL",
                "type": "STEER_TO",
                "delayTime": 0.30000001192092896,
                "duration": 0.800000011920929,
                "aliasList": [
                    "30374"
                ],
                "actionId": 126,
                "flag": 32,
                "DMGIIHNDNLC": "TO_LOCAL_AVATAR_ADVANCED",
                "HCMINPNPFDF": true,
                "PENAEBFAHCH": true,
                "CKOEAJFMDON": true,
                "OMCCMPHDLOO": "",
                "PPGPCHDAOJG": true,
                "DBLNLMOPEBP": ""
            },
            {
                "$type": "EAMBKPBOPIC",
                "type": "LOOK_AT",
                "delayTime": 0.35100001096725464,
                "aliasList": [
                    "Avatar"
                ],
                "actionId": 128,
                "FIDJDPAIFDN": true,
                "BCHGCKLKNEH": 0.5,
                "OMCCMPHDLOO": "30374",
                "EOHIIHMKDJC": true,
                "KPCALFDIHMC": "",
                "DBLNLMOPEBP": ""
            }
        ],
        [
            {
                "$type": "DLPFECMKEKH",
                "type": "DIALOG",
                "aliasList": [
                    "30374"
                ],
                "actionId": 107,
                "NMKEDPFEKBH": 401114401,
                "JLCHMAJCAPA": 0.9710000157356262
            },
            {
                "$type": "ILCGAGEGDJI",
                "type": "BODY_LANG",
                "aliasList": [
                    "30374"
                ],
                "actionId": 130,
                "FLBOOPHHFJP": 1110,
                "LIMPPBIAKGL": false,
                "FNEGLPPEBBF": true,
                "FNDLJGEAMGI": ""
            },
            {
                "$type": "OPCCDGPJCJI",
                "type": "EMO_SYNC",
                "aliasList": [
                    "30374"
                ],
                "actionId": 164,
                "IONNJBCBACJ": "Cs_Emo_Avatar_Simple_Common_Set/Cs_Emo_Avatar_Talk/Cs_Emo_Avatar_Event/Cs_Emo_KaPaiXunYou/Cs_Emo_401114401",
                "HLEJKBCMNNJ": "",
                "JGHLJJLNGPP": "",
                "MANNKIIBOFM": "",
                "COMNAAFDEDH": "",
                "CPGCCLNOCDK": "",
                "IGEFGCJKCPM": [
                    9875380081073389395,
                    18342373117528046947,
                    15588870292312831842,
                    13179247090228009884
                ]
            },
            {
                "$type": "ILCGAGEGDJI",
                "type": "BODY_LANG",
                "delayTime": 3.7249999046325684,
                "aliasList": [
                    "30374"
                ],
                "actionId": 131,
                "JLABKFNJCNP": true,
                "LIMPPBIAKGL": false,
                "FNEGLPPEBBF": true,
                "FNDLJGEAMGI": ""
            }
        ],
        [
            {
                "$type": "MoleMole.Config.ConfigFirstSightAction",
                "type": "FIRST_SIGHT",
                "aliasList": [
                    "30374"
                ],
                "actionId": 178
            }
        ],
        [
            {
                "$type": "ECLBLHOENAG",
                "type": "DIALOG_SELECT",
                "aliasList": [
                    "Avatar"
                ],
                "actionId": 177,
                "NDMMOPDPKNF": [
                    401114402,
                    401114405,
                    401114411
                ],
                "FPDBIEGHMCD": [
                    3847048548,
                    3847048550,
                    3294387922
                ],
                "PKBOIGBGDEG": true,
                "GOJJPCDMMLN": 3847048543
            }
        ],
        [
            {
                "$type": "DLPFECMKEKH",
                "type": "DIALOG",
                "aliasList": [
                    "30374"
                ],
                "actionId": 110,
                "NMKEDPFEKBH": 401114403,
                "JLCHMAJCAPA": 0.5
            },
            {
                "$type": "ILCGAGEGDJI",
                "type": "BODY_LANG",
                "aliasList": [
                    "30374"
                ],
                "actionId": 132,
                "FLBOOPHHFJP": 1150,
                "LIMPPBIAKGL": false,
                "FNEGLPPEBBF": true,
                "FNDLJGEAMGI": ""
            },
            {
                "$type": "OPCCDGPJCJI",
                "type": "EMO_SYNC",
                "aliasList": [
                    "30374"
                ],
                "actionId": 165,
                "IONNJBCBACJ": "Cs_Emo_Avatar_Simple_Common_Set/Cs_Emo_Avatar_Talk/Cs_Emo_Avatar_Event/Cs_Emo_KaPaiXunYou/Cs_Emo_401114403",
                "HLEJKBCMNNJ": "",
                "JGHLJJLNGPP": "",
                "MANNKIIBOFM": "",
                "COMNAAFDEDH": "",
                "CPGCCLNOCDK": "",
                "IGEFGCJKCPM": [
                    2505475876241956325,
                    7589246447104665047,
                    9242957573679694930,
                    10558360508418132214
                ]
            },
            {
                "$type": "ILCGAGEGDJI",
                "type": "BODY_LANG",
                "delayTime": 0.6700000166893005,
                "aliasList": [
                    "30374"
                ],
                "actionId": 133,
                "JLABKFNJCNP": true,
                "LIMPPBIAKGL": false,
                "FNEGLPPEBBF": true,
                "FNDLJGEAMGI": ""
            },
            {
                "$type": "ILCGAGEGDJI",
                "type": "BODY_LANG",
                "delayTime": 2.1570000648498535,
                "aliasList": [
                    "30374"
                ],
                "actionId": 134,
                "FLBOOPHHFJP": 1120,
                "LIMPPBIAKGL": false,
                "FNEGLPPEBBF": true,
                "FNDLJGEAMGI": ""
            },
            {
                "$type": "ILCGAGEGDJI",
                "type": "BODY_LANG",
                "delayTime": 6.164999961853027,
                "aliasList": [
                    "30374"
                ],
                "actionId": 135,
                "FLBOOPHHFJP": 4040,
                "LIMPPBIAKGL": false,
                "FNEGLPPEBBF": true,
                "FNDLJGEAMGI": ""
            }
        ],
        [
            {
                "$type": "DLPFECMKEKH",
                "type": "DIALOG",
                "aliasList": [
                    "30374"
                ],
                "actionId": 112,
                "NMKEDPFEKBH": 401114404,
                "JLCHMAJCAPA": 0.5
            },
            {
                "$type": "ILCGAGEGDJI",
                "type": "BODY_LANG",
                "aliasList": [
                    "30374"
                ],
                "actionId": 136,
                "JLABKFNJCNP": true,
                "LIMPPBIAKGL": false,
                "FNEGLPPEBBF": true,
                "FNDLJGEAMGI": ""
            },
            {
                "$type": "OPCCDGPJCJI",
                "type": "EMO_SYNC",
                "aliasList": [
                    "30374"
                ],
                "actionId": 166,
                "IONNJBCBACJ": "Cs_Emo_Avatar_Simple_Common_Set/Cs_Emo_Avatar_Talk/Cs_Emo_Avatar_Event/Cs_Emo_KaPaiXunYou/Cs_Emo_401114404",
                "HLEJKBCMNNJ": "",
                "JGHLJJLNGPP": "",
                "MANNKIIBOFM": "",
                "COMNAAFDEDH": "",
                "CPGCCLNOCDK": "",
                "IGEFGCJKCPM": [
                    11982989369487799759,
                    7320366377145357285,
                    1864624470222215617,
                    1729940427330258966
                ]
            },
            {
                "$type": "ILCGAGEGDJI",
                "type": "BODY_LANG",
                "delayTime": 0.3970000147819519,
                "aliasList": [
                    "30374"
                ],
                "actionId": 137,
                "FLBOOPHHFJP": 1171,
                "LIMPPBIAKGL": false,
                "FNEGLPPEBBF": true,
                "FNDLJGEAMGI": ""
            },
            {
                "$type": "ECLBLHOENAG",
                "type": "DIALOG_SELECT",
                "delayTime": 0.4000000059604645,
                "aliasList": [
                    "Avatar"
                ],
                "actionId": 162,
                "NDMMOPDPKNF": [
                    401114405,
                    401114411
                ],
                "FPDBIEGHMCD": [
                    3847048550,
                    3294387922
                ],
                "PKBOIGBGDEG": true,
                "GOJJPCDMMLN": 3847048543
            },
            {
                "$type": "ILCGAGEGDJI",
                "type": "BODY_LANG",
                "delayTime": 2.3389999866485596,
                "aliasList": [
                    "30374"
                ],
                "actionId": 138,
                "JLABKFNJCNP": true,
                "LIMPPBIAKGL": false,
                "FNEGLPPEBBF": true,
                "FNDLJGEAMGI": ""
            }
        ],
        [
            {
                "$type": "DLPFECMKEKH",
                "type": "DIALOG",
                "aliasList": [
                    "30374"
                ],
                "actionId": 114,
                "NMKEDPFEKBH": 401114406,
                "JLCHMAJCAPA": 0.5
            },
            {
                "$type": "ILCGAGEGDJI",
                "type": "BODY_LANG",
                "aliasList": [
                    "30374"
                ],
                "actionId": 139,
                "FLBOOPHHFJP": 1172,
                "LIMPPBIAKGL": false,
                "FNEGLPPEBBF": true,
                "FNDLJGEAMGI": ""
            },
            {
                "$type": "OPCCDGPJCJI",
                "type": "EMO_SYNC",
                "aliasList": [
                    "30374"
                ],
                "actionId": 167,
                "IONNJBCBACJ": "Cs_Emo_Avatar_Simple_Common_Set/Cs_Emo_Avatar_Talk/Cs_Emo_Avatar_Event/Cs_Emo_KaPaiXunYou/Cs_Emo_401114406",
                "HLEJKBCMNNJ": "",
                "JGHLJJLNGPP": "",
                "MANNKIIBOFM": "",
                "COMNAAFDEDH": "",
                "CPGCCLNOCDK": "",
                "IGEFGCJKCPM": [
                    17273201056335772297,
                    16485048566420158094,
                    10758371756102698939,
                    17875547673975297874
                ]
            },
            {
                "$type": "ILCGAGEGDJI",
                "type": "BODY_LANG",
                "delayTime": 3.7890000343322754,
                "aliasList": [
                    "30374"
                ],
                "actionId": 140,
                "JLABKFNJCNP": true,
                "LIMPPBIAKGL": false,
                "FNEGLPPEBBF": true,
                "FNDLJGEAMGI": ""
            }
        ],
        [
            {
                "$type": "DLPFECMKEKH",
                "type": "DIALOG",
                "aliasList": [
                    "30374"
                ],
                "actionId": 116,
                "NMKEDPFEKBH": 401114407,
                "JLCHMAJCAPA": 0.5
            },
            {
                "$type": "ILCGAGEGDJI",
                "type": "BODY_LANG",
                "aliasList": [
                    "30374"
                ],
                "actionId": 141,
                "FLBOOPHHFJP": 1220,
                "LIMPPBIAKGL": false,
                "FNEGLPPEBBF": true,
                "FNDLJGEAMGI": ""
            },
            {
                "$type": "OPCCDGPJCJI",
                "type": "EMO_SYNC",
                "aliasList": [
                    "30374"
                ],
                "actionId": 168,
                "IONNJBCBACJ": "Cs_Emo_Avatar_Simple_Common_Set/Cs_Emo_Avatar_Talk/Cs_Emo_Avatar_Event/Cs_Emo_KaPaiXunYou/Cs_Emo_401114407",
                "HLEJKBCMNNJ": "",
                "JGHLJJLNGPP": "",
                "MANNKIIBOFM": "",
                "COMNAAFDEDH": "",
                "CPGCCLNOCDK": "",
                "IGEFGCJKCPM": [
                    12416730508251238219,
                    14589334883267873554,
                    8333061761582786790,
                    3883564037723638987
                ]
            },
            {
                "$type": "ILCGAGEGDJI",
                "type": "BODY_LANG",
                "delayTime": 2.2750000953674316,
                "aliasList": [
                    "30374"
                ],
                "actionId": 142,
                "FLBOOPHHFJP": 1221,
                "LIMPPBIAKGL": false,
                "FNEGLPPEBBF": true,
                "FNDLJGEAMGI": ""
            },
            {
                "$type": "ILCGAGEGDJI",
                "type": "BODY_LANG",
                "delayTime": 4.7129998207092285,
                "aliasList": [
                    "30374"
                ],
                "actionId": 143,
                "JLABKFNJCNP": true,
                "LIMPPBIAKGL": false,
                "FNEGLPPEBBF": true,
                "FNDLJGEAMGI": ""
            }
        ],
        [
            {
                "$type": "DLPFECMKEKH",
                "type": "DIALOG",
                "aliasList": [
                    "30374"
                ],
                "actionId": 118,
                "NMKEDPFEKBH": 401114408,
                "JLCHMAJCAPA": 0.5
            },
            {
                "$type": "ILCGAGEGDJI",
                "type": "BODY_LANG",
                "aliasList": [
                    "30374"
                ],
                "actionId": 144,
                "JLABKFNJCNP": true,
                "LIMPPBIAKGL": false,
                "FNEGLPPEBBF": true,
                "FNDLJGEAMGI": ""
            },
            {
                "$type": "OPCCDGPJCJI",
                "type": "EMO_SYNC",
                "aliasList": [
                    "30374"
                ],
                "actionId": 169,
                "IONNJBCBACJ": "Cs_Emo_Avatar_Simple_Common_Set/Cs_Emo_Avatar_Talk/Cs_Emo_Avatar_Event/Cs_Emo_KaPaiXunYou/Cs_Emo_401114408",
                "HLEJKBCMNNJ": "",
                "JGHLJJLNGPP": "",
                "MANNKIIBOFM": "",
                "COMNAAFDEDH": "",
                "CPGCCLNOCDK": "",
                "IGEFGCJKCPM": [
                    1969998711924457894,
                    13588584508763992792,
                    901068584256814567,
                    7965977811704341995
                ]
            },
            {
                "$type": "ILCGAGEGDJI",
                "type": "BODY_LANG",
                "delayTime": 0.1940000057220459,
                "aliasList": [
                    "30374"
                ],
                "actionId": 147,
                "FLBOOPHHFJP": 1130,
                "LIMPPBIAKGL": false,
                "FNEGLPPEBBF": true,
                "FNDLJGEAMGI": ""
            },
            {
                "$type": "ILCGAGEGDJI",
                "type": "BODY_LANG",
                "delayTime": 1.847000002861023,
                "aliasList": [
                    "30374"
                ],
                "actionId": 148,
                "FLBOOPHHFJP": 4040,
                "LIMPPBIAKGL": false,
                "FNEGLPPEBBF": true,
                "FNDLJGEAMGI": ""
            },
            {
                "$type": "ILCGAGEGDJI",
                "type": "BODY_LANG",
                "delayTime": 2.878999948501587,
                "aliasList": [
                    "30374"
                ],
                "actionId": 149,
                "JLABKFNJCNP": true,
                "LIMPPBIAKGL": false,
                "FNEGLPPEBBF": true,
                "FNDLJGEAMGI": ""
            },
            {
                "$type": "ILCGAGEGDJI",
                "type": "BODY_LANG",
                "delayTime": 3.4579999446868896,
                "aliasList": [
                    "30374"
                ],
                "actionId": 145,
                "FLBOOPHHFJP": 1110,
                "LIMPPBIAKGL": false,
                "FNEGLPPEBBF": true,
                "FNDLJGEAMGI": ""
            },
            {
                "$type": "ILCGAGEGDJI",
                "type": "BODY_LANG",
                "delayTime": 5.1519999504089355,
                "aliasList": [
                    "30374"
                ],
                "actionId": 146,
                "JLABKFNJCNP": true,
                "LIMPPBIAKGL": false,
                "FNEGLPPEBBF": true,
                "FNDLJGEAMGI": ""
            }
        ],
        [
            {
                "$type": "DLPFECMKEKH",
                "type": "DIALOG",
                "aliasList": [
                    "30374"
                ],
                "actionId": 120,
                "NMKEDPFEKBH": 401114409,
                "JLCHMAJCAPA": 0.5
            },
            {
                "$type": "ILCGAGEGDJI",
                "type": "BODY_LANG",
                "aliasList": [
                    "30374"
                ],
                "actionId": 150,
                "JLABKFNJCNP": true,
                "LIMPPBIAKGL": false,
                "FNEGLPPEBBF": true,
                "FNDLJGEAMGI": ""
            },
            {
                "$type": "OPCCDGPJCJI",
                "type": "EMO_SYNC",
                "aliasList": [
                    "30374"
                ],
                "actionId": 170,
                "IONNJBCBACJ": "Cs_Emo_Avatar_Simple_Common_Set/Cs_Emo_Avatar_Talk/Cs_Emo_Avatar_Event/Cs_Emo_KaPaiXunYou/Cs_Emo_401114409",
                "HLEJKBCMNNJ": "",
                "JGHLJJLNGPP": "",
                "MANNKIIBOFM": "",
                "COMNAAFDEDH": "",
                "CPGCCLNOCDK": "",
                "IGEFGCJKCPM": [
                    17924663116283051134,
                    9286066247838674962,
                    6351417435659179366,
                    12856126376337482102
                ]
            },
            {
                "$type": "ILCGAGEGDJI",
                "type": "BODY_LANG",
                "delayTime": 0.5720000267028809,
                "aliasList": [
                    "30374"
                ],
                "actionId": 151,
                "FLBOOPHHFJP": 1120,
                "LIMPPBIAKGL": false,
                "FNEGLPPEBBF": true,
                "FNDLJGEAMGI": ""
            },
            {
                "$type": "ILCGAGEGDJI",
                "type": "BODY_LANG",
                "delayTime": 7.2230000495910645,
                "aliasList": [
                    "30374"
                ],
                "actionId": 152,
                "FLBOOPHHFJP": 1121,
                "LIMPPBIAKGL": false,
                "FNEGLPPEBBF": true,
                "FNDLJGEAMGI": ""
            },
            {
                "$type": "ILCGAGEGDJI",
                "type": "BODY_LANG",
                "delayTime": 8.730999946594238,
                "aliasList": [
                    "30374"
                ],
                "actionId": 153,
                "JLABKFNJCNP": true,
                "LIMPPBIAKGL": false,
                "FNEGLPPEBBF": true,
                "FNDLJGEAMGI": ""
            }
        ],
        [
            {
                "$type": "DLPFECMKEKH",
                "type": "DIALOG",
                "aliasList": [
                    "30374"
                ],
                "actionId": 122,
                "NMKEDPFEKBH": 401114410,
                "JLCHMAJCAPA": 0.5
            },
            {
                "$type": "ILCGAGEGDJI",
                "type": "BODY_LANG",
                "aliasList": [
                    "30374"
                ],
                "actionId": 154,
                "LIMPPBIAKGL": false,
                "FNEGLPPEBBF": true,
                "FNDLJGEAMGI": ""
            },
            {
                "$type": "OPCCDGPJCJI",
                "type": "EMO_SYNC",
                "aliasList": [
                    "30374"
                ],
                "actionId": 171,
                "IONNJBCBACJ": "Cs_Emo_Avatar_Simple_Common_Set/Cs_Emo_Avatar_Talk/Cs_Emo_Avatar_Event/Cs_Emo_KaPaiXunYou/Cs_Emo_401114410",
                "HLEJKBCMNNJ": "",
                "JGHLJJLNGPP": "",
                "MANNKIIBOFM": "",
                "COMNAAFDEDH": "",
                "CPGCCLNOCDK": "",
                "IGEFGCJKCPM": [
                    5300867962529095864,
                    9352389057776658749,
                    8376752209287416700,
                    13473465780621678363
                ]
            },
            {
                "$type": "ECLBLHOENAG",
                "type": "DIALOG_SELECT",
                "delayTime": 0.4000000059604645,
                "aliasList": [
                    "Avatar"
                ],
                "actionId": 163,
                "NDMMOPDPKNF": [
                    401114402,
                    401114411
                ],
                "FPDBIEGHMCD": [
                    3847048548,
                    3294387922
                ],
                "PKBOIGBGDEG": true,
                "GOJJPCDMMLN": 3847048543
            },
            {
                "$type": "ILCGAGEGDJI",
                "type": "BODY_LANG",
                "delayTime": 1.5110000371932983,
                "aliasList": [
                    "30374"
                ],
                "actionId": 155,
                "FLBOOPHHFJP": 1172,
                "LIMPPBIAKGL": false,
                "FNEGLPPEBBF": true,
                "FNDLJGEAMGI": ""
            },
            {
                "$type": "ILCGAGEGDJI",
                "type": "BODY_LANG",
                "delayTime": 3.927999973297119,
                "aliasList": [
                    "30374"
                ],
                "actionId": 156,
                "JLABKFNJCNP": true,
                "LIMPPBIAKGL": false,
                "FNEGLPPEBBF": true,
                "FNDLJGEAMGI": ""
            }
        ],
        [
            {
                "$type": "DLPFECMKEKH",
                "type": "DIALOG",
                "aliasList": [
                    "30374"
                ],
                "actionId": 124,
                "NMKEDPFEKBH": 401114412,
                "JLCHMAJCAPA": 0.5
            },
            {
                "$type": "ILCGAGEGDJI",
                "type": "BODY_LANG",
                "aliasList": [
                    "30374"
                ],
                "actionId": 160,
                "JLABKFNJCNP": true,
                "LIMPPBIAKGL": false,
                "FNEGLPPEBBF": true,
                "FNDLJGEAMGI": ""
            },
            {
                "$type": "OPCCDGPJCJI",
                "type": "EMO_SYNC",
                "aliasList": [
                    "30374"
                ],
                "actionId": 172,
                "IONNJBCBACJ": "Cs_Emo_Avatar_Simple_Common_Set/Cs_Emo_Avatar_Talk/Cs_Emo_Avatar_Event/Cs_Emo_KaPaiXunYou/Cs_Emo_401114412",
                "HLEJKBCMNNJ": "",
                "JGHLJJLNGPP": "",
                "MANNKIIBOFM": "",
                "COMNAAFDEDH": "",
                "CPGCCLNOCDK": "",
                "IGEFGCJKCPM": [
                    5165066567724381816,
                    5118385971428372370,
                    676450740427669831,
                    13334205465520647201
                ]
            },
            {
                "$type": "ILCGAGEGDJI",
                "type": "BODY_LANG",
                "delayTime": 0.3019999861717224,
                "aliasList": [
                    "30374"
                ],
                "actionId": 157,
                "FLBOOPHHFJP": 4040,
                "LIMPPBIAKGL": false,
                "FNEGLPPEBBF": true,
                "FNDLJGEAMGI": ""
            }
        ],
        [
            {
                "$type": "MoleMole.Config.ConfigTimeProtectAction",
                "type": "TIME_PROTECT",
                "duration": 0.10000000149011612,
                "actionId": 105
            },
            {
                "$type": "EAMBKPBOPIC",
                "type": "LOOK_AT",
                "aliasList": [
                    "Avatar"
                ],
                "actionId": 161,
                "BCHGCKLKNEH": 0.5,
                "OMCCMPHDLOO": "",
                "EOHIIHMKDJC": true,
                "KPCALFDIHMC": "",
                "DBLNLMOPEBP": ""
            },
            {
                "$type": "OOMFCPJAJGL",
                "type": "STEER_TO",
                "duration": 1.0,
                "aliasList": [
                    "30374"
                ],
                "actionId": 127,
                "flag": 32,
                "DMGIIHNDNLC": "RETURN",
                "HCMINPNPFDF": true,
                "PENAEBFAHCH": true,
                "CKOEAJFMDON": true,
                "OMCCMPHDLOO": "",
                "AKKPIOCLGOP": true,
                "PPGPCHDAOJG": true,
                "DBLNLMOPEBP": ""
            },
            {
                "$type": "EAMBKPBOPIC",
                "type": "LOOK_AT",
                "aliasList": [
                    "30374"
                ],
                "actionId": 158,
                "BCHGCKLKNEH": 0.5,
                "OMCCMPHDLOO": "",
                "EOHIIHMKDJC": true,
                "KPCALFDIHMC": "",
                "DBLNLMOPEBP": ""
            },
            {
                "$type": "ILCGAGEGDJI",
                "type": "BODY_LANG",
                "aliasList": [
                    "30374"
                ],
                "actionId": 159,
                "JLABKFNJCNP": true,
                "LIMPPBIAKGL": false,
                "FNEGLPPEBBF": true,
                "FNDLJGEAMGI": ""
            }
        ]
    ],
    "groupId": [
        {
            "grpId": 3847048544,
            "nextGrpId": 3847048545
        },
        {
            "index": 1,
            "grpId": 3847048545,
            "nextGrpId": 3847048546
        },
        {
            "index": 2,
            "grpId": 3847048546,
            "nextGrpId": 3847048547
        },
        {
            "index": 3,
            "grpId": 3847048547,
            "nextGrpId": 3847048548
        },
        {
            "index": 4,
            "grpId": 3847048548,
            "nextGrpId": 3847048549
        },
        {
            "index": 5,
            "grpId": 3847048549,
            "nextGrpId": 3847048545
        },
        {
            "index": 6,
            "grpId": 3847048550,
            "nextGrpId": 3847048551
        },
        {
            "index": 7,
            "grpId": 3847048551,
            "nextGrpId": 3847048552
        },
        {
            "index": 8,
            "grpId": 3847048552,
            "nextGrpId": 3294387920
        },
        {
            "index": 9,
            "grpId": 3294387920,
            "nextGrpId": 3294387921
        },
        {
            "index": 10,
            "grpId": 3294387921,
            "nextGrpId": 3847048545
        },
        {
            "index": 11,
            "grpId": 3294387922,
            "nextGrpId": 3294387923
        },
        {
            "index": 12,
            "grpId": 3294387923,
            "nextGrpId": 3294387924
        }
    ],
    "freeStyleDic": {
        "30374": [
            1110,
            1150,
            1120,
            4040,
            1171,
            1172,
            1220,
            1221,
            1130,
            1121
        ]
    },
    "NKMHEOFLONH": {
        "30374": [
            "SitChat01AS",
            "SitHoldArm01AS",
            "SitShrug01AS",
            "SitThink01AS"
        ]
    }
}