{
    "luaDataPath": "",
    "isSimpleTalk": true,
    "startBlackKeepTime": 1.0,
    "entityBan": "",
    "disableNpcLod": true,
    "startFade": {
        "startFadeInDuration": 0.30000001192092896,
        "startFadeOutDuration": 0.5
    },
    "endFade": {
        "startFadeInDuration": 0.30000001192092896,
        "startFadeOutDuration": 0.5
    },
    "actors": [
        {
            "alias": "Avatar",
            "visible": true,
            "bornPointName": "Q70003Player2",
            "relativePosNpcAlias": "",
            "bindMovingTargetKey": ""
        },
        {
            "configID": 1445,
            "alias": "1445",
            "visible": true,
            "bornPointName": "Q70003Alami",
            "relativePosNpcAlias": "",
            "bindMovingTargetKey": ""
        },
        {
            "configID": 1431,
            "alias": "1431",
            "visible": true,
            "bornPointName": "Q70003Margret",
            "removeActorType": "REMOVE",
            "relativePosNpcAlias": "",
            "bindMovingTargetKey": ""
        },
        {
            "configID": 20219,
            "alias": "20219",
            "visible": true,
            "bornPointName": "Q70003Cat2",
            "removeActorType": "REMOVE",
            "relativePosNpcAlias": "",
            "bindMovingTargetKey": ""
        },
        {
            "configID": 1005,
            "alias": "1005",
            "visible": true,
            "bornPointName": "Q70003Paimon2",
            "removeActorType": "REMOVE_WITH_DISAPPEAR",
            "relativePosNpcAlias": "",
            "bindMovingTargetKey": ""
        }
    ],
    "group": [
        [
            {
                "$type": "MOOOKOKLLEI",
                "type": "CAMERA_FOCUS",
                "duration": 0.10000000149011612,
                "OMCCMPHDLOO": "",
                "OCFGGGHIKOO": "",
                "LJFHGGJDPHH": "",
                "LPKDFKLNEHL": ""
            },
            {
                "$type": "MoleMole.Config.ConfigTimeProtectAction",
                "type": "TIME_PROTECT",
                "duration": 0.10000000149011612
            },
            {
                "$type": "ILCGAGEGDJI",
                "type": "BODY_LANG",
                "aliasList": [
                    "1445"
                ],
                "FLBOOPHHFJP": 1050,
                "PMJAMGLAJGK": true,
                "FNDLJGEAMGI": ""
            },
            {
                "$type": "EAMBKPBOPIC",
                "type": "LOOK_AT",
                "delayTime": 0.7833333611488342,
                "aliasList": [
                    "1445"
                ],
                "BCHGCKLKNEH": 0.5,
                "OMCCMPHDLOO": "1431",
                "KPCALFDIHMC": "",
                "DBLNLMOPEBP": ""
            },
            {
                "$type": "ILCGAGEGDJI",
                "type": "BODY_LANG",
                "aliasList": [
                    "1431"
                ],
                "FLBOOPHHFJP": 1240,
                "PMJAMGLAJGK": true,
                "FNDLJGEAMGI": ""
            },
            {
                "$type": "EAMBKPBOPIC",
                "type": "LOOK_AT",
                "delayTime": 0.7999999523162842,
                "aliasList": [
                    "1431"
                ],
                "BCHGCKLKNEH": 0.5,
                "OMCCMPHDLOO": "1445",
                "KPCALFDIHMC": "",
                "DBLNLMOPEBP": ""
            }
        ],
        [
            {
                "$type": "DLPFECMKEKH",
                "type": "DIALOG",
                "aliasList": [
                    "1445"
                ],
                "NMKEDPFEKBH": 700030601,
                "JLCHMAJCAPA": 0.5
            }
        ],
        [
            {
                "$type": "ECLBLHOENAG",
                "type": "DIALOG_SELECT",
                "delayTime": 0.4000000059604645,
                "aliasList": [
                    "Avatar"
                ],
                "NDMMOPDPKNF": [
                    700030603
                ],
                "FPDBIEGHMCD": [
                    2771197113
                ],
                "PKBOIGBGDEG": true
            },
            {
                "$type": "DLPFECMKEKH",
                "type": "DIALOG",
                "aliasList": [
                    "1431"
                ],
                "NMKEDPFEKBH": 700030602,
                "JLCHMAJCAPA": 0.5
            }
        ],
        [
            {
                "$type": "DLPFECMKEKH",
                "type": "DIALOG",
                "aliasList": [
                    "20219"
                ],
                "NMKEDPFEKBH": 700030604,
                "JLCHMAJCAPA": 0.5
            }
        ],
        [
            {
                "$type": "ECLBLHOENAG",
                "type": "DIALOG_SELECT",
                "delayTime": 0.4000000059604645,
                "aliasList": [
                    "Avatar"
                ],
                "NDMMOPDPKNF": [
                    700030606
                ],
                "FPDBIEGHMCD": [
                    2771197115
                ],
                "PKBOIGBGDEG": true
            },
            {
                "$type": "OOMFCPJAJGL",
                "type": "STEER_TO",
                "duration": 0.800000011920929,
                "aliasList": [
                    "1445"
                ],
                "DMGIIHNDNLC": "TO_LOCAL_AVATAR",
                "HCMINPNPFDF": true,
                "OMCCMPHDLOO": "",
                "DBLNLMOPEBP": ""
            },
            {
                "$type": "EAMBKPBOPIC",
                "type": "LOOK_AT",
                "delayTime": 1.08899986743927,
                "aliasList": [
                    "1445"
                ],
                "FIDJDPAIFDN": true,
                "BCHGCKLKNEH": 0.5,
                "OMCCMPHDLOO": "20219",
                "KPCALFDIHMC": "",
                "DBLNLMOPEBP": ""
            },
            {
                "$type": "DLPFECMKEKH",
                "type": "DIALOG",
                "aliasList": [
                    "1431"
                ],
                "NMKEDPFEKBH": 700030605,
                "JLCHMAJCAPA": 0.5
            },
            {
                "$type": "OOMFCPJAJGL",
                "type": "STEER_TO",
                "duration": 0.800000011920929,
                "aliasList": [
                    "1431"
                ],
                "DMGIIHNDNLC": "TO_LOCAL_AVATAR",
                "HCMINPNPFDF": true,
                "OMCCMPHDLOO": "",
                "DBLNLMOPEBP": ""
            },
            {
                "$type": "ILCGAGEGDJI",
                "type": "BODY_LANG",
                "delayTime": 1.0294533967971802,
                "aliasList": [
                    "1431"
                ],
                "FLBOOPHHFJP": 1130,
                "PMJAMGLAJGK": true,
                "FNDLJGEAMGI": ""
            },
            {
                "$type": "EAMBKPBOPIC",
                "type": "LOOK_AT",
                "delayTime": 1.0806665420532227,
                "aliasList": [
                    "1431"
                ],
                "FIDJDPAIFDN": true,
                "BCHGCKLKNEH": 0.5,
                "OMCCMPHDLOO": "20219",
                "KPCALFDIHMC": "",
                "DBLNLMOPEBP": ""
            }
        ],
        [
            {
                "$type": "EAMBKPBOPIC",
                "type": "LOOK_AT",
                "delayTime": 0.2975950241088867,
                "aliasList": [
                    "1445"
                ],
                "FIDJDPAIFDN": true,
                "BCHGCKLKNEH": 0.5,
                "OMCCMPHDLOO": "Avatar",
                "KPCALFDIHMC": "",
                "DBLNLMOPEBP": ""
            },
            {
                "$type": "DLPFECMKEKH",
                "type": "DIALOG",
                "aliasList": [
                    "1431"
                ],
                "NMKEDPFEKBH": 700030607,
                "JLCHMAJCAPA": 0.5
            },
            {
                "$type": "EAMBKPBOPIC",
                "type": "LOOK_AT",
                "delayTime": 0.2725954055786133,
                "aliasList": [
                    "1431"
                ],
                "FIDJDPAIFDN": true,
                "BCHGCKLKNEH": 0.5,
                "OMCCMPHDLOO": "Avatar",
                "KPCALFDIHMC": "",
                "DBLNLMOPEBP": ""
            }
        ],
        [
            {
                "$type": "ECLBLHOENAG",
                "type": "DIALOG_SELECT",
                "delayTime": 0.4000000059604645,
                "aliasList": [
                    "Avatar"
                ],
                "NDMMOPDPKNF": [
                    700030609,
                    700030610
                ],
                "FPDBIEGHMCD": [
                    2771197117,
                    2771197117
                ],
                "PKBOIGBGDEG": true
            },
            {
                "$type": "DLPFECMKEKH",
                "type": "DIALOG",
                "aliasList": [
                    "1431"
                ],
                "NMKEDPFEKBH": 700030608,
                "JLCHMAJCAPA": 0.5
            }
        ],
        [
            {
                "$type": "DLPFECMKEKH",
                "type": "DIALOG",
                "aliasList": [
                    "1431"
                ],
                "NMKEDPFEKBH": 700030611,
                "JLCHMAJCAPA": 0.5
            },
            {
                "$type": "ILCGAGEGDJI",
                "type": "BODY_LANG",
                "delayTime": 0.4791889190673828,
                "aliasList": [
                    "1431"
                ],
                "FLBOOPHHFJP": 1200,
                "PMJAMGLAJGK": true,
                "FNDLJGEAMGI": ""
            }
        ],
        [
            {
                "$type": "MoleMole.Config.ConfigBlackScreenAction",
                "type": "BLACK_SCREEN",
                "durationToBlack": 0.20000000298023224,
                "durationKeepBlack": 1.0,
                "durationFromBlack": 0.20000000298023224,
                "inteePos": "",
                "textMapID": ""
            },
            {
                "$type": "DLPFECMKEKH",
                "type": "DIALOG_CLEAR"
            },
            {
                "$type": "MoleMole.Config.ConfigVisibleInterAction",
                "type": "VISIBLE",
                "delayTime": 0.3908967971801758,
                "aliasList": [
                    "1431"
                ],
                "extraParam": ""
            },
            {
                "$type": "MoleMole.Config.ConfigVisibleInterAction",
                "type": "VISIBLE",
                "delayTime": 0.39089706540107727,
                "aliasList": [
                    "20219"
                ],
                "extraParam": ""
            }
        ],
        [
            {
                "$type": "DLPFECMKEKH",
                "type": "DIALOG",
                "aliasList": [
                    "1445"
                ],
                "NMKEDPFEKBH": 700030612,
                "JLCHMAJCAPA": 0.5
            },
            {
                "$type": "ILCGAGEGDJI",
                "type": "BODY_LANG",
                "aliasList": [
                    "1445"
                ],
                "FLBOOPHHFJP": 1171,
                "PMJAMGLAJGK": true,
                "FNDLJGEAMGI": ""
            }
        ],
        [
            {
                "$type": "DLPFECMKEKH",
                "type": "DIALOG",
                "aliasList": [
                    "1445"
                ],
                "NMKEDPFEKBH": 700030613,
                "JLCHMAJCAPA": 0.5
            }
        ],
        [
            {
                "$type": "DLPFECMKEKH",
                "type": "DIALOG",
                "aliasList": [
                    "1445"
                ],
                "NMKEDPFEKBH": 700030614,
                "JLCHMAJCAPA": 0.5
            },
            {
                "$type": "ILCGAGEGDJI",
                "type": "BODY_LANG",
                "aliasList": [
                    "1445"
                ],
                "FLBOOPHHFJP": 1210,
                "PMJAMGLAJGK": true,
                "FNDLJGEAMGI": ""
            }
        ],
        [
            {
                "$type": "MoleMole.Config.ConfigTimeProtectAction",
                "type": "TIME_PROTECT",
                "duration": 0.10000000149011612
            },
            {
                "$type": "MoleMole.Config.ConfigSimpleBlackScreenAction",
                "type": "SIMPLE_BLACK_SCREEN",
                "durationToBlack": 0.5,
                "durationKeepBlack": 1.0,
                "durationFromBlack": 0.5,
                "textMapID": ""
            },
            {
                "$type": "DLPFECMKEKH",
                "type": "DIALOG_CLEAR"
            }
        ]
    ],
    "groupId": [
        {
            "grpId": 2771197110,
            "nextGrpId": 2771197111
        },
        {
            "index": 1,
            "grpId": 2771197111,
            "nextGrpId": 2771197112
        },
        {
            "index": 2,
            "grpId": 2771197112,
            "nextGrpId": 2771197113
        },
        {
            "index": 3,
            "grpId": 2771197113,
            "nextGrpId": 2771197114
        },
        {
            "index": 4,
            "grpId": 2771197114,
            "nextGrpId": 2771197115
        },
        {
            "index": 5,
            "grpId": 2771197115,
            "nextGrpId": 2771197116
        },
        {
            "index": 6,
            "grpId": 2771197116,
            "nextGrpId": 2771197117
        },
        {
            "index": 7,
            "grpId": 2771197117,
            "nextGrpId": 2771197118
        },
        {
            "index": 8,
            "grpId": 2771197118,
            "nextGrpId": 7764538
        },
        {
            "index": 9,
            "grpId": 7764538,
            "nextGrpId": 7764539
        },
        {
            "index": 10,
            "grpId": 7764539,
            "nextGrpId": 7764540
        },
        {
            "index": 11,
            "grpId": 7764540,
            "nextGrpId": 7764541
        },
        {
            "index": 12,
            "grpId": 7764541,
            "nextGrpId": 7764542
        }
    ],
    "freeStyleDic": {
        "1445": [
            1050,
            1171,
            1210
        ],
        "1431": [
            1240,
            1130,
            1200
        ]
    }
}