{
    "SceneObj_Area_Xm_Property_Prop_EnterSceneLook_01": {
        "$type": "AAMHONAFMEC",
        "combatTemplate": "",
        "abilities": [
            {
                "abilityID": "ability_01",
                "abilityName": "SceneObj_Area_Xm_Property_Prop_EnterSceneLook_01_Ability",
                "abilityOverride": ""
            }
        ]
    },
    "SceneObj_Area_Xm_Property_Ani_Prop_LotusLeaf_01": {
        "$type": "AAMHONAFMEC",
        "FNCGDIJNLBK": true,
        "combat": {
            "property": {
                "HP": 99999.0,
                "isLockHP": true
            },
            "beHit": {
                "hitBloodEffect": "",
                "hitAutoRedirect": false,
                "muteAllHitText": true
            },
            "combatLock": {
                "lockShape": "CircleLockEnemy",
                "lockType": "Gadget_Lv1",
                "overrideRange": 5.0
            }
        },
        "combatTemplate": "",
        "abilities": [
            {
                "abilityID": "ability_ThreeState",
                "abilityName": "GrassGadget_ThreeState",
                "abilityOverride": ""
            },
            {
                "abilityID": "ability_01",
                "abilityName": "SceneObj_Area_Xm_Property_Ani_Prop_LotusLeaf_01_Ability",
                "abilityOverride": ""
            }
        ],
        "IJLCLNIAPOM": {
            "$type": "GBLCAJLLILH",
            "attachPoint": "ColliderRoot"
        },
        "MFKPHCFMEJF": {
            "NNKFJFIJEGD": [
                {
                    "$type": "DKAGMDFBKFG",
                    "intID": "GadgetState",
                    "BNBNPANFDGD": true
                }
            ]
        }
    },
    "SceneObj_Area_Xm_Property_Ani_Prop_GrapplingHookPoint_01": {
        "$type": "AAMHONAFMEC",
        "model": {
            "HOPACANEMDO": "",
            "DCFFDLFJPBL": "Eff_SceneObj_GrappleHook_01"
        },
        "FNCGDIJNLBK": true,
        "combat": {
            "property": {
                "HP": 99999.0,
                "isLockHP": true,
                "isGhostToAllied": true,
                "isGhostToEnemy": true
            },
            "combatLock": {
                "lockShape": "CircleLockEnemy",
                "denyLockOn": true,
                "lockType": "Default"
            }
        },
        "combatTemplate": "",
        "abilities": [
            {
                "abilityID": "ability_01",
                "abilityName": "SceneObj_Area_Xm_Property_Ani_Prop_GrapplingHookPoint_01_Ability",
                "abilityOverride": ""
            }
        ],
        "MFKPHCFMEJF": {
            "NNKFJFIJEGD": [
                {
                    "$type": "DKAGMDFBKFG",
                    "intID": "GadgetState",
                    "BNBNPANFDGD": true
                }
            ]
        }
    },
    "SceneObj_Area_Xm_Property_Ani_Prop_GrapplingHookPoint_SanBin01": {
        "$type": "AAMHONAFMEC",
        "model": {
            "HOPACANEMDO": "",
            "DCFFDLFJPBL": "Eff_SceneObj_GrappleHook_01"
        },
        "FNCGDIJNLBK": true,
        "combat": {
            "property": {
                "HP": 99999.0,
                "isLockHP": true,
                "isGhostToAllied": true,
                "isGhostToEnemy": true
            },
            "combatLock": {
                "lockShape": "CircleLockEnemy",
                "denyLockOn": true,
                "lockType": "Default"
            }
        },
        "combatTemplate": "",
        "abilities": [
            {
                "abilityID": "ability_01",
                "abilityName": "SceneObj_Area_Xm_Property_Ani_Prop_GrapplingHookPoint_SanBin01",
                "abilityOverride": ""
            }
        ],
        "MFKPHCFMEJF": {
            "NNKFJFIJEGD": [
                {
                    "$type": "DKAGMDFBKFG",
                    "intID": "GadgetState",
                    "BNBNPANFDGD": true
                }
            ]
        }
    },
    "SceneObj_Area_Xm_Property_Ani_Tree_GrassSeedCreate_01": {
        "$type": "AAMHONAFMEC",
        "FNCGDIJNLBK": true,
        "combat": {
            "property": {
                "HP": 99999.0,
                "isLockHP": true,
                "isGhostToAllied": true,
                "isGhostToEnemy": true
            }
        },
        "combatTemplate": "",
        "abilities": [
            {
                "abilityID": "ability_01",
                "abilityName": "SceneObj_Area_Xm_Property_Ani_Tree_GrassSeedCreate_01_State",
                "abilityOverride": ""
            },
            {
                "abilityID": "ability_02",
                "abilityName": "SceneObj_Area_Xm_Property_Ani_Tree_GrassSeedCreate_01_Buff",
                "abilityOverride": ""
            },
            {
                "abilityID": "ability_02",
                "abilityName": "Scene_RockGadget_Summon_Detect",
                "abilityOverride": ""
            }
        ],
        "EOLFAMFPCOL": {
            "AOGIJKALGNB": "TEST/TEST_Chest_Btn",
            "DLLLIKCMJMP": "",
            "IGMHLCNPBHI": "WidgetMPSupport",
            "FGAFOJBEILG": [
                "SceneObj_Area_Xm_Property_Ani_Tree_GrassSeedCreate_01_Buff"
            ],
            "icon": "",
            "GEALIGKGCBF": "",
            "NFJICIGABPE": "",
            "MIHHAGGNIIO": ""
        },
        "MFKPHCFMEJF": {
            "NNKFJFIJEGD": [
                {
                    "$type": "GNOFGJLHGKO",
                    "enable": true
                },
                {
                    "$type": "GNOFGJLHGKO",
                    "MDBPPIHBJGG": "GearStop"
                }
            ]
        }
    },
    "SceneObj_Area_Xm_Property_Ani_Tree_GrassSeedCreate_02": {
        "$type": "AAMHONAFMEC",
        "FNCGDIJNLBK": true,
        "combat": {
            "property": {
                "HP": 99999.0,
                "isLockHP": true,
                "isGhostToAllied": true,
                "isGhostToEnemy": true
            }
        },
        "combatTemplate": "",
        "abilities": [
            {
                "abilityID": "ability_01",
                "abilityName": "SceneObj_Area_Xm_Property_Ani_Tree_GrassSeedCreate_02_State",
                "abilityOverride": ""
            },
            {
                "abilityID": "ability_02",
                "abilityName": "SceneObj_Area_Xm_Property_Ani_Tree_GrassSeedCreate_02_Buff",
                "abilityOverride": ""
            },
            {
                "abilityID": "ability_02",
                "abilityName": "Scene_RockGadget_Summon_Detect",
                "abilityOverride": ""
            }
        ],
        "EOLFAMFPCOL": {
            "AOGIJKALGNB": "TEST/TEST_Chest_Btn",
            "DLLLIKCMJMP": "",
            "IGMHLCNPBHI": "WidgetMPSupport",
            "FGAFOJBEILG": [
                "SceneObj_Area_Xm_Property_Ani_Tree_GrassSeedCreate_02_Buff"
            ],
            "icon": "",
            "GEALIGKGCBF": "",
            "NFJICIGABPE": "",
            "MIHHAGGNIIO": ""
        },
        "MFKPHCFMEJF": {
            "NNKFJFIJEGD": [
                {
                    "$type": "GNOFGJLHGKO"
                },
                {
                    "$type": "GNOFGJLHGKO",
                    "MDBPPIHBJGG": "GearStart",
                    "enable": true
                },
                {
                    "$type": "GNOFGJLHGKO",
                    "MDBPPIHBJGG": "GearStop"
                }
            ]
        }
    },
    "SceneObj_Area_Xm_Property_Ani_Prop_GrassSeedBullet_01": {
        "$type": "AAMHONAFMEC",
        "common": {
            "effectAttachShape": {
                "$type": "FPGDAMEDKLC"
            }
        },
        "combat": {
            "property": {
                "useCreatorProperty": true,
                "isGhostToAllied": true,
                "isGhostToEnemy": true,
                "HCONDLFFICE": false
            },
            "beHit": {
                "hitBloodEffect": "",
                "GBDHDFFOBPO": true,
                "HNPPKGPHAKM": true,
                "muteAllHitText": true
            },
            "combatLock": {
                "lockShape": "CircleLockEnemy",
                "denyLockOn": true,
                "lockType": "Gadget_Lv1"
            }
        },
        "combatTemplate": "",
        "abilities": [
            {
                "abilityID": "",
                "abilityName": "SceneObj_Area_Xm_Property_Ani_Prop_GrassSeedBullet_01_Damage",
                "abilityOverride": ""
            }
        ],
        "AHCOGNAHOOF": {
            "ELIEJDIFIJE": 5.0
        },
        "IJLCLNIAPOM": {
            "$type": "EGIBMIADEHO",
            "speed": 10.0,
            "maxSpeed": 60.0,
            "GBPNCGHBJMC": 30.0,
            "AFIKDKDFKCJ": 5.0,
            "KGGKADOKFII": 0.10000000149011612,
            "BCNECAMPGJJ": true
        },
        "LGBJNNEDJDF": {
            "$type": "AJELOFLEBAF",
            "collision": {
                "targetType": "Enemy",
                "ignoreScene": true
            },
            "JFFIPBCGGOM": [
                {
                    "$type": "NFGPPKHKFBL",
                    "abilityName": "SceneObj_Area_Xm_Property_Ani_Prop_GrassSeedBullet_01_Damage"
                }
            ],
            "JPNAMDFCBFN": [
                {
                    "$type": "NFGPPKHKFBL",
                    "abilityName": "SceneObj_Area_Xm_Property_Ani_Prop_GrassSeedBullet_01_Damage"
                }
            ],
            "ENBJBDDCLMC": 0.30000001192092896
        }
    },
    "SceneObj_Area_Xm_Property_Ani_Prop_GrassSeedBullet_02": {
        "$type": "AAMHONAFMEC",
        "common": {
            "effectAttachShape": {
                "$type": "FPGDAMEDKLC"
            }
        },
        "combat": {
            "property": {
                "useCreatorProperty": true,
                "isGhostToAllied": true,
                "isGhostToEnemy": true,
                "HCONDLFFICE": false
            },
            "beHit": {
                "hitBloodEffect": "",
                "GBDHDFFOBPO": true,
                "HNPPKGPHAKM": true,
                "muteAllHitText": true
            },
            "combatLock": {
                "lockShape": "CircleLockEnemy",
                "denyLockOn": true,
                "lockType": "Gadget_Lv1"
            }
        },
        "combatTemplate": "",
        "abilities": [
            {
                "abilityID": "",
                "abilityName": "SceneObj_Area_Xm_Property_Ani_Prop_GrassSeedBullet_02_Damage",
                "abilityOverride": ""
            }
        ],
        "AHCOGNAHOOF": {
            "ELIEJDIFIJE": 5.0
        },
        "IJLCLNIAPOM": {
            "$type": "EGIBMIADEHO",
            "speed": 10.0,
            "maxSpeed": 60.0,
            "GBPNCGHBJMC": 30.0,
            "AFIKDKDFKCJ": 5.0,
            "KGGKADOKFII": 0.10000000149011612,
            "BCNECAMPGJJ": true
        },
        "LGBJNNEDJDF": {
            "$type": "AJELOFLEBAF",
            "collision": {
                "targetType": "Enemy",
                "ignoreScene": true
            },
            "JFFIPBCGGOM": [
                {
                    "$type": "NFGPPKHKFBL",
                    "abilityName": "SceneObj_Area_Xm_Property_Ani_Prop_GrassSeedBullet_02_Damage"
                }
            ],
            "JPNAMDFCBFN": [
                {
                    "$type": "NFGPPKHKFBL",
                    "abilityName": "SceneObj_Area_Xm_Property_Ani_Prop_GrassSeedBullet_02_Damage"
                }
            ],
            "ENBJBDDCLMC": 0.30000001192092896
        }
    },
    "SceneObj_Area_Xm_Property_Prop_GrassSeedDummy_01": {
        "$type": "AAMHONAFMEC",
        "common": {
            "effectAttachShape": {
                "$type": "FPGDAMEDKLC"
            }
        },
        "combatTemplate": "canBeAttacked",
        "abilities": [
            {
                "abilityID": "ability_01",
                "abilityName": "SceneObj_Area_Xm_Property_Prop_GrassSeedDummy_01_Ability",
                "abilityOverride": ""
            }
        ],
        "AHCOGNAHOOF": {
            "ELIEJDIFIJE": 2.0
        }
    }
}