{
    "Dehya_ElementalArt_Grave": {
        "$type": "AAMHONAFMEC",
        "common": {
            "effectAttachShape": {
                "$type": "FPGDAMEDKLC"
            }
        },
        "combat": {
            "property": {
                "useCreatorProperty": true,
                "HP": 99999.0,
                "defense": 99999.0,
                "isInvincible": true,
                "isGhostToAllied": true,
                "isGhostToEnemy": true
            },
            "beHit": {
                "hitBloodEffect": "",
                "GBDHDFFOBPO": true,
                "HNPPKGPHAKM": true,
                "muteAllHitText": true
            },
            "combatLock": {
                "lockShape": "CircleLockEnemy",
                "denyLockOn": true,
                "lockType": "Gadget_Lv1"
            }
        },
        "combatTemplate": "",
        "abilities": [
            {
                "abilityID": "Gadget_Dehya_ElementalArt_Grave",
                "abilityName": "Gadget_Dehya_ElementalArt_Grave",
                "abilityOverride": ""
            }
        ],
        "ILFGILMPMOJ": {
            "CKAACIMPGHK": "AllTeams",
            "shape": "CircleR10H10",
            "PMOHIIJOLNG": "",
            "LPMNCGBHLFJ": true,
            "JOLFFKJHCNI": 0.029999999329447746,
            "ELIEJDIFIJE": 25.0,
            "PKAHLJPJPEK": false,
            "JHEKALHPHBK": "",
            "JFLLEDMCPLF": ""
        },
        "AHCOGNAHOOF": {
            "ELIEJDIFIJE": 25.0
        },
        "billboard": {
            "$type": "JOBMBKHMEKJ",
            "attachPoint": "BillboardAttach",
            "HNBHIFHDHHP": 3.0,
            "showDistance": 50.0,
            "BAFOFKKNFAI": true,
            "JDBIAMOLEMB": 50.0,
            "size": "Grand",
            "OCLHINJIEBL": true
        }
    },
    "Dehya_ElementalArt_Grave_Bullet": {
        "$type": "AAMHONAFMEC",
        "common": {
            "effectAttachShape": {
                "$type": "FPGDAMEDKLC"
            }
        },
        "combat": {
            "property": {
                "useCreatorProperty": true,
                "isGhostToAllied": true,
                "isGhostToEnemy": true,
                "HCONDLFFICE": false
            },
            "beHit": {
                "hitBloodEffect": "",
                "GBDHDFFOBPO": true,
                "HNPPKGPHAKM": true,
                "muteAllHitText": true
            },
            "combatLock": {
                "lockShape": "CircleLockEnemy",
                "denyLockOn": true,
                "lockType": "Gadget_Lv1"
            }
        },
        "combatTemplate": "",
        "abilities": [
            {
                "abilityID": "Bullet_Dehya_ElementalArt_Grave",
                "abilityName": "Bullet_Dehya_ElementalArt_Grave",
                "abilityOverride": ""
            }
        ],
        "AHCOGNAHOOF": {
            "ELIEJDIFIJE": 2.0
        },
        "IJLCLNIAPOM": {
            "$type": "EGIBMIADEHO",
            "speed": 20.0,
            "maxSpeed": 70.0,
            "minSpeed": 20.0,
            "AFIKDKDFKCJ": 25.0,
            "BCNECAMPGJJ": true
        },
        "LGBJNNEDJDF": {
            "$type": "AJELOFLEBAF",
            "collision": {
                "triggerType": "TriggerNoRepeat",
                "targetType": "SelfCamp",
                "ignoreScene": true,
                "ignoreWater": true
            },
            "JFFIPBCGGOM": [
                {
                    "$type": "NFGPPKHKFBL",
                    "abilityName": "Bullet_Dehya_ElementalArt_Grave"
                }
            ],
            "JPNAMDFCBFN": [
                {
                    "$type": "NFGPPKHKFBL",
                    "abilityName": "Bullet_Dehya_ElementalArt_Grave"
                }
            ]
        }
    }
}