{
    "SceneObj_GrassDragon_ProtectObj": {
        "$type": "AAMHONAFMEC",
        "common": {
            "disableTickDistance": 100000.0
        },
        "globalValue": {
            "GJJKGJNPBHJ": [
                "SGV_GrassDragon_CUR_PROGRESS",
                "SGV_On_Progress_Up"
            ],
            "DHFCEBNMKDA": {
                "SGV_GrassDragon_CUR_PROGRESS": 0.0,
                "SGV_On_Progress_Up": 0.0
            }
        },
        "FNCGDIJNLBK": true,
        "combat": {
            "property": {
                "HP": 1000.0,
                "attack": 100.0,
                "weight": 50.0,
                "isInvincible": true,
                "isLockHP": true
            },
            "beHit": {
                "hitBloodEffect": "",
                "hitAutoRedirect": false,
                "GBDHDFFOBPO": true,
                "HNPPKGPHAKM": true,
                "muteAllHitText": true
            },
            "combatLock": {
                "lockShape": "CircleLockEnemy",
                "denyLockOn": true,
                "lockType": "Gadget_Lv1"
            },
            "die": {
                "dieForceDisappearTime": 0.10000000149011612,
                "dieDisappearEffect": ""
            }
        },
        "combatTemplate": "",
        "abilities": [
            {
                "abilityID": "SceneObj_GrassDragon_ProtectObj",
                "abilityName": "SceneObj_GrassDragon_ProtectObj",
                "abilityOverride": ""
            },
            {
                "abilityID": "Ability_02",
                "abilityName": "Scene_RockGadget_Summon_Detect",
                "abilityOverride": ""
            }
        ],
        "stateLayers": {
            "defaultLayer": {
                "$type": "GMHKGJPLHFD",
                "DLEKAADOFBI": "",
                "stateIDs": {
                    "TurnToLand": {
                        "$type": "CCIEFDKKMLG",
                        "DNPOFANDHPP": {
                            "TurnToLand": []
                        },
                        "CGNNAJLBEMJ": true
                    }
                }
            }
        },
        "MFKPHCFMEJF": {
            "NNKFJFIJEGD": [
                {
                    "$type": "DKAGMDFBKFG",
                    "intID": "GadgetState",
                    "BNBNPANFDGD": true
                }
            ]
        }
    },
    "SceneObj_GrassDragon_Vine_Up": {
        "$type": "AAMHONAFMEC",
        "common": {
            "disableTickDistance": 100000.0
        },
        "FNCGDIJNLBK": true,
        "combat": {
            "property": {
                "HP": 1000.0,
                "attack": 100.0,
                "weight": 50.0,
                "isInvincible": true,
                "isLockHP": true,
                "isGhostToAllied": true
            },
            "beHit": {
                "hitBloodEffect": "",
                "hitAutoRedirect": false,
                "GBDHDFFOBPO": true,
                "HNPPKGPHAKM": true,
                "muteAllHitText": true
            },
            "combatLock": {
                "lockShape": "CircleLockEnemy",
                "denyLockOn": true,
                "lockType": "Gadget_Lv1"
            },
            "die": {
                "dieForceDisappearTime": 0.10000000149011612,
                "dieDisappearEffect": ""
            }
        },
        "combatTemplate": "",
        "abilities": [
            {
                "abilityID": "SceneObj_GrassDragon_Vine_Up",
                "abilityName": "SceneObj_GrassDragon_Vine_Up",
                "abilityOverride": ""
            }
        ],
        "MFKPHCFMEJF": {
            "NNKFJFIJEGD": [
                {
                    "$type": "DKAGMDFBKFG",
                    "intID": "GadgetState",
                    "BNBNPANFDGD": true
                }
            ]
        }
    },
    "SceneObj_GrassDragon_StoryNotify": {
        "$type": "AAMHONAFMEC",
        "common": {
            "disableTickDistance": 100000.0
        },
        "FNCGDIJNLBK": true,
        "combat": {
            "property": {
                "HP": 1000.0,
                "attack": 100.0,
                "weight": 50.0,
                "isInvincible": true,
                "isLockHP": true,
                "isGhostToAllied": true
            },
            "beHit": {
                "hitBloodEffect": "",
                "hitAutoRedirect": false,
                "GBDHDFFOBPO": true,
                "HNPPKGPHAKM": true,
                "muteAllHitText": true
            },
            "combatLock": {
                "lockShape": "CircleLockEnemy",
                "denyLockOn": true,
                "lockType": "Gadget_Lv1"
            },
            "die": {
                "dieForceDisappearTime": 0.10000000149011612,
                "dieDisappearEffect": ""
            }
        },
        "combatTemplate": "",
        "abilities": [
            {
                "abilityID": "SceneObj_GrassDragon_StoryNotify",
                "abilityName": "SceneObj_GrassDragon_StoryNotify",
                "abilityOverride": ""
            }
        ]
    },
    "SceneObj_GrassDragon_StageChange_12_Cam": {
        "$type": "AAMHONAFMEC",
        "common": {
            "disableTickDistance": 100000.0
        },
        "FNCGDIJNLBK": true,
        "combat": {
            "property": {
                "HP": 1000.0,
                "attack": 100.0,
                "weight": 50.0,
                "isInvincible": true,
                "isLockHP": true,
                "isGhostToAllied": true
            },
            "beHit": {
                "hitBloodEffect": "",
                "hitAutoRedirect": false,
                "GBDHDFFOBPO": true,
                "HNPPKGPHAKM": true,
                "muteAllHitText": true
            },
            "combatLock": {
                "lockShape": "CircleLockEnemy",
                "denyLockOn": true,
                "lockType": "Gadget_Lv1"
            },
            "die": {
                "dieForceDisappearTime": 0.10000000149011612,
                "dieDisappearEffect": ""
            }
        },
        "combatTemplate": "",
        "abilities": [
            {
                "abilityID": "SceneObj_GrassDragon_StageChange_12_Cam",
                "abilityName": "SceneObj_GrassDragon_StageChange_12_Cam",
                "abilityOverride": ""
            }
        ]
    },
    "SceneObj_GrassDragon_Music": {
        "$type": "AAMHONAFMEC",
        "common": {
            "disableTickDistance": 100000.0
        },
        "FNCGDIJNLBK": true,
        "combat": {
            "property": {
                "HP": 1000.0,
                "attack": 100.0,
                "weight": 50.0,
                "isInvincible": true,
                "isLockHP": true,
                "isGhostToAllied": true
            },
            "beHit": {
                "hitBloodEffect": "",
                "hitAutoRedirect": false,
                "GBDHDFFOBPO": true,
                "HNPPKGPHAKM": true,
                "muteAllHitText": true
            },
            "combatLock": {
                "lockShape": "CircleLockEnemy",
                "denyLockOn": true,
                "lockType": "Gadget_Lv1"
            },
            "die": {
                "dieForceDisappearTime": 0.10000000149011612,
                "dieDisappearEffect": ""
            }
        },
        "combatTemplate": "",
        "abilities": [
            {
                "abilityID": "SceneObj_GrassDragon_Music",
                "abilityName": "SceneObj_GrassDragon_Music",
                "abilityOverride": ""
            }
        ]
    },
    "SceneObj_GrassDragon_Protect_Gel": {
        "$type": "AAMHONAFMEC",
        "common": {
            "disableTickDistance": 100000.0
        },
        "globalValue": {
            "GJJKGJNPBHJ": [
                "SGV_GrassDragon_CUR_PROGRESS"
            ]
        },
        "FNCGDIJNLBK": true,
        "combat": {
            "property": {
                "HP": 1000.0,
                "attack": 100.0,
                "weight": 50.0,
                "isInvincible": true,
                "isLockHP": true
            },
            "beHit": {
                "hitBloodEffect": "",
                "hitAutoRedirect": false,
                "GBDHDFFOBPO": true,
                "HNPPKGPHAKM": true,
                "muteAllHitText": true
            },
            "combatLock": {
                "lockShape": "CircleLockEnemy",
                "denyLockOn": true,
                "lockType": "Gadget_Lv1"
            },
            "die": {
                "dieForceDisappearTime": 0.10000000149011612,
                "dieDisappearEffect": ""
            }
        },
        "combatTemplate": "",
        "abilities": [
            {
                "abilityID": "SceneObj_GrassDragon_Protect_Gel",
                "abilityName": "SceneObj_GrassDragon_Protect_Gel",
                "abilityOverride": ""
            }
        ],
        "stateLayers": {
            "defaultLayer": {
                "$type": "GMHKGJPLHFD",
                "DLEKAADOFBI": "",
                "stateIDs": {
                    "TurnToLand": {
                        "$type": "CCIEFDKKMLG",
                        "DNPOFANDHPP": {
                            "TurnToLand": []
                        },
                        "CGNNAJLBEMJ": true
                    },
                    "LandState": {
                        "$type": "CCIEFDKKMLG",
                        "DNPOFANDHPP": {
                            "LandState": []
                        },
                        "CGNNAJLBEMJ": true
                    }
                }
            }
        },
        "MFKPHCFMEJF": {
            "NNKFJFIJEGD": [
                {
                    "$type": "DKAGMDFBKFG",
                    "intID": "GadgetState",
                    "BNBNPANFDGD": true
                }
            ]
        }
    }
}