{
    "MPLevel": {
        "$type": "AAMHONAFMEC",
        "combat": {
            "property": {
                "HP": 999999.0,
                "level": 1,
                "isGhostToAllied": true,
                "isGhostToEnemy": true,
                "HCONDLFFICE": false,
                "ignoreDamageToSelf": true
            }
        },
        "combatTemplate": ""
    },
    "Team": {
        "$type": "AAMHONAFMEC",
        "combat": {
            "property": {
                "HP": 999999.0,
                "isGhostToAllied": true,
                "isGhostToEnemy": true,
                "HCONDLFFICE": false,
                "ignoreDamageToSelf": true
            }
        },
        "combatTemplate": "",
        "IJLCLNIAPOM": {
            "$type": "DKAMCGDMNKI",
            "target": "LocalAvatarSyncedLocation",
            "attachPoint": "RootNode",
            "JGFLINDOJDF": {
                "z": 1.0
            },
            "HMPJAIBPNND": ""
        }
    },
    "Enviro01": {
        "$type": "AAMHONAFMEC",
        "combatTemplate": "",
        "DOAGHPLPNDD": {
            "AMINFBPAGPP": [
                {
                    "type": "InStorm",
                    "OOGNPBCLKFB": 6,
                    "OJFJFNJONLO": [
                        2004,
                        2004,
                        2012,
                        2004
                    ],
                    "maxNum": 30,
                    "GNNPEFPFIAL": 4.0,
                    "ECJNAIEGELK": 25.0
                },
                {
                    "type": "InRain",
                    "OOGNPBCLKFB": 6,
                    "IFLMGDIBGCI": [
                        10.0,
                        15.0,
                        20.0
                    ],
                    "OJFJFNJONLO": [
                        2002,
                        2002,
                        2002,
                        2010
                    ],
                    "BJCOCDAHHAB": [
                        5,
                        8,
                        15
                    ],
                    "maxNum": 30,
                    "GNNPEFPFIAL": 4.0,
                    "ECJNAIEGELK": 25.0
                },
                {
                    "type": "InSnow",
                    "OOGNPBCLKFB": 6,
                    "IFLMGDIBGCI": [
                        10.0,
                        15.0,
                        20.0
                    ],
                    "OJFJFNJONLO": [
                        2006,
                        2006,
                        2014,
                        2014
                    ],
                    "BJCOCDAHHAB": [
                        5,
                        8,
                        15
                    ],
                    "maxNum": 30,
                    "GNNPEFPFIAL": 4.0,
                    "ECJNAIEGELK": 25.0
                },
                {
                    "type": "AfterRain",
                    "OOGNPBCLKFB": 6,
                    "IFLMGDIBGCI": [
                        10.0,
                        15.0,
                        20.0
                    ],
                    "OJFJFNJONLO": [
                        2003,
                        2003,
                        2011
                    ],
                    "BJCOCDAHHAB": [
                        5,
                        8,
                        15
                    ],
                    "maxNum": 15,
                    "GNNPEFPFIAL": 3.0,
                    "ECJNAIEGELK": 25.0
                }
            ],
            "shapeName": "CircleR10000",
            "position": [
                0.0,
                0.0,
                0.0
            ],
            "CMILLLLHHEO": "MengdeAreaDefault03",
            "weatherList": [
                "ClearSky",
                "Cloudy",
                "Cloudy1",
                "Cloudy2",
                "Cloudy3",
                "HeavyRain",
                "HeavySnow",
                "Storm",
                "Blustery"
            ],
            "LGOFBBBHIBN": [
                90.0,
                50.0,
                0.0,
                0.0,
                0.0,
                0.0,
                0.0,
                0.0,
                0.0
            ]
        }
    },
    "Enviro02": {
        "$type": "AAMHONAFMEC",
        "combatTemplate": "",
        "DOAGHPLPNDD": {
            "AMINFBPAGPP": [
                {
                    "type": "InStorm",
                    "OOGNPBCLKFB": 6,
                    "OJFJFNJONLO": [
                        2004,
                        2004,
                        2012,
                        2004
                    ],
                    "maxNum": 30,
                    "GNNPEFPFIAL": 4.0,
                    "ECJNAIEGELK": 25.0
                },
                {
                    "type": "InRain",
                    "OOGNPBCLKFB": 6,
                    "IFLMGDIBGCI": [
                        10.0,
                        15.0,
                        20.0
                    ],
                    "OJFJFNJONLO": [
                        2002,
                        2002,
                        2002,
                        2010
                    ],
                    "BJCOCDAHHAB": [
                        5,
                        8,
                        15
                    ],
                    "maxNum": 30,
                    "GNNPEFPFIAL": 4.0,
                    "ECJNAIEGELK": 25.0
                },
                {
                    "type": "InSnow",
                    "OOGNPBCLKFB": 6,
                    "IFLMGDIBGCI": [
                        10.0,
                        15.0,
                        20.0
                    ],
                    "OJFJFNJONLO": [
                        2006,
                        2006,
                        2014,
                        2014
                    ],
                    "BJCOCDAHHAB": [
                        5,
                        8,
                        15
                    ],
                    "maxNum": 30,
                    "GNNPEFPFIAL": 4.0,
                    "ECJNAIEGELK": 25.0
                },
                {
                    "type": "AfterRain",
                    "OOGNPBCLKFB": 6,
                    "IFLMGDIBGCI": [
                        10.0,
                        15.0,
                        20.0
                    ],
                    "OJFJFNJONLO": [
                        2003,
                        2003,
                        2011
                    ],
                    "BJCOCDAHHAB": [
                        5,
                        8,
                        15
                    ],
                    "maxNum": 15,
                    "GNNPEFPFIAL": 3.0,
                    "ECJNAIEGELK": 25.0
                }
            ],
            "shapeName": "CircleRWindDragon",
            "position": [
                2698.0,
                195.0,
                158.0
            ],
            "priority": 10,
            "CMILLLLHHEO": "WindDragonEnviroArea",
            "weatherList": [
                "WindDragonWeather"
            ],
            "LGOFBBBHIBN": [
                100.0,
                0.0
            ]
        }
    },
    "Enviro03": {
        "$type": "AAMHONAFMEC",
        "combatTemplate": "",
        "DOAGHPLPNDD": {
            "shapeName": "CircleR350",
            "position": [
                2368.0,
                208.0,
                -793.0
            ],
            "priority": 20,
            "CMILLLLHHEO": "MengdeAreaDefault03",
            "weatherList": [
                "Blustery"
            ],
            "LGOFBBBHIBN": [
                100.0,
                0.0
            ],
            "EPOJDMPOEPL": 1000.0
        }
    },
    "Grass01": {
        "$type": "AAMHONAFMEC",
        "common": {
            "effectAttachShape": {
                "$type": "FPGDAMEDKLC",
                "FCAGPAEOLPI": 0.800000011920929,
                "HOJBBPFJMIL": 0.800000011920929,
                "CPGMBCECPEN": 0.30000001192092896
            },
            "affectedByWorld": true
        },
        "combat": {
            "property": {
                "HP": 999999.0,
                "attack": 1.0,
                "defense": 999999.0,
                "weight": 50.0,
                "isGhostToAllied": true,
                "HCONDLFFICE": false
            },
            "beHit": {
                "hitBloodEffect": "",
                "GBDHDFFOBPO": true,
                "HNPPKGPHAKM": true,
                "muteAllHitText": true
            },
            "combatLock": {
                "lockShape": "CircleLockEnemy",
                "denyLockOn": true,
                "lockType": "Gadget_Lv1"
            }
        },
        "combatTemplate": "",
        "abilities": [
            {
                "abilityID": "Grass",
                "abilityName": "GrassMaterial",
                "abilityOverride": ""
            }
        ]
    },
    "Water01": {
        "$type": "AAMHONAFMEC",
        "common": {
            "effectAttachShape": {
                "$type": "FPGDAMEDKLC",
                "FCAGPAEOLPI": 2.0,
                "HOJBBPFJMIL": 2.0,
                "CPGMBCECPEN": 0.5
            }
        },
        "combat": {
            "property": {
                "HP": 999999.0,
                "attack": 1.0,
                "defense": 999999.0,
                "weight": 50.0,
                "isGhostToAllied": true,
                "HCONDLFFICE": false
            },
            "beHit": {
                "hitBloodEffect": "",
                "GBDHDFFOBPO": true,
                "HNPPKGPHAKM": true,
                "muteAllHitText": true
            },
            "combatLock": {
                "lockShape": "CircleLockEnemy",
                "denyLockOn": true,
                "lockType": "Gadget_Lv1"
            }
        },
        "combatTemplate": "",
        "abilities": [
            {
                "abilityID": "Water",
                "abilityName": "WaterMaterial",
                "abilityOverride": ""
            }
        ]
    },
    "Tree01": {
        "$type": "AAMHONAFMEC",
        "common": {
            "effectAttachShape": {
                "$type": "IOJMFPKFPFA",
                "CDOIALFJGFK": "EffectMesh"
            },
            "affectedByWorld": true
        },
        "combat": {
            "property": {
                "HP": 300.0,
                "attack": 10.0,
                "weight": 75.0,
                "isLockHP": true,
                "isGhostToAllied": true,
                "HCONDLFFICE": false,
                "canTriggerBullet": true
            },
            "beHit": {
                "hitBloodEffect": "",
                "muteAllHitText": true
            },
            "combatLock": {
                "lockShape": "CircleLockEnemy",
                "denyLockOn": true,
                "lockType": "Gadget_Lv1"
            }
        },
        "combatTemplate": ""
    },
    "Bush01": {
        "$type": "AAMHONAFMEC",
        "common": {
            "effectAttachShape": {
                "$type": "IOJMFPKFPFA",
                "CDOIALFJGFK": "EffectMesh"
            },
            "affectedByWorld": true
        },
        "combat": {
            "property": {
                "HP": 100.0,
                "attack": 10.0,
                "weight": 75.0,
                "isLockHP": true,
                "isGhostToAllied": true,
                "canTriggerBullet": true
            },
            "beHit": {
                "hitBloodEffect": "",
                "GBDHDFFOBPO": true,
                "HNPPKGPHAKM": true,
                "muteAllHitText": true
            },
            "combatLock": {
                "lockShape": "CircleLockEnemy",
                "denyLockOn": true,
                "lockType": "Gadget_Lv1"
            },
            "die": {
                "dieDisappearEffect": ""
            }
        },
        "combatTemplate": "",
        "abilities": [
            {
                "abilityID": "Bush01",
                "abilityName": "BushMaterial01",
                "abilityOverride": ""
            }
        ]
    },
    "Bush02": {
        "$type": "AAMHONAFMEC",
        "common": {
            "effectAttachShape": {
                "$type": "IOJMFPKFPFA",
                "CDOIALFJGFK": "EffectMesh"
            },
            "affectedByWorld": true
        },
        "combat": {
            "property": {
                "HP": 100.0,
                "attack": 10.0,
                "weight": 75.0,
                "isLockHP": true,
                "isGhostToAllied": true,
                "canTriggerBullet": true
            },
            "beHit": {
                "hitBloodEffect": "",
                "GBDHDFFOBPO": true,
                "HNPPKGPHAKM": true,
                "muteAllHitText": true
            },
            "combatLock": {
                "lockShape": "CircleLockEnemy",
                "denyLockOn": true,
                "lockType": "Gadget_Lv1"
            },
            "die": {
                "dieDisappearEffect": ""
            }
        },
        "combatTemplate": "",
        "abilities": [
            {
                "abilityID": "Bush01",
                "abilityName": "BushMaterial01",
                "abilityOverride": ""
            }
        ]
    },
    "Bush_NoFire01": {
        "$type": "AAMHONAFMEC",
        "common": {
            "effectAttachShape": {
                "$type": "IOJMFPKFPFA",
                "CDOIALFJGFK": "EffectMesh"
            },
            "affectedByWorld": true
        },
        "combat": {
            "property": {
                "HP": 100.0,
                "attack": 10.0,
                "weight": 75.0,
                "isLockHP": true,
                "isGhostToAllied": true,
                "canTriggerBullet": true
            },
            "beHit": {
                "hitBloodEffect": "",
                "GBDHDFFOBPO": true,
                "HNPPKGPHAKM": true,
                "muteAllHitText": true
            },
            "combatLock": {
                "lockShape": "CircleLockEnemy",
                "denyLockOn": true,
                "lockType": "Gadget_Lv1"
            },
            "die": {
                "dieDisappearEffect": ""
            }
        },
        "combatTemplate": "",
        "abilities": [
            {
                "abilityID": "Bush_NoFire01",
                "abilityName": "Bush_NoFire01",
                "abilityOverride": ""
            }
        ]
    },
    "Bush_Yellow": {
        "$type": "AAMHONAFMEC",
        "common": {
            "effectAttachShape": {
                "$type": "IOJMFPKFPFA",
                "CDOIALFJGFK": "EffectMesh"
            },
            "viewSize": 1.7000000476837158,
            "affectedByWorld": true
        },
        "combat": {
            "property": {
                "HP": 100.0,
                "attack": 10.0,
                "weight": 75.0,
                "isLockHP": true,
                "isGhostToAllied": true,
                "canTriggerBullet": true
            },
            "beHit": {
                "hitBloodEffect": "",
                "GBDHDFFOBPO": true,
                "HNPPKGPHAKM": true,
                "muteAllHitText": true
            },
            "die": {
                "dieDisappearEffect": ""
            }
        },
        "combatTemplate": "",
        "abilities": [
            {
                "abilityID": "Ability_01",
                "abilityName": "YellowBushMaterial01",
                "abilityOverride": ""
            }
        ]
    },
    "CustomTile": {
        "$type": "AAMHONAFMEC",
        "common": {
            "effectAttachShape": {
                "$type": "FPGDAMEDKLC",
                "FCAGPAEOLPI": 2.0,
                "HOJBBPFJMIL": 2.0,
                "CPGMBCECPEN": 0.5
            }
        },
        "combat": {
            "property": {
                "HP": 999999.0,
                "attack": 1.0,
                "defense": 999999.0,
                "weight": 50.0,
                "isGhostToAllied": true,
                "HCONDLFFICE": false
            },
            "beHit": {
                "hitBloodEffect": "",
                "GBDHDFFOBPO": true,
                "HNPPKGPHAKM": true,
                "muteAllHitText": true
            },
            "combatLock": {
                "lockShape": "CircleLockEnemy",
                "denyLockOn": true,
                "lockType": "Gadget_Lv1"
            }
        },
        "combatTemplate": ""
    },
    "Foxtail_Grass01": {
        "$type": "AAMHONAFMEC",
        "common": {
            "effectAttachShape": {
                "$type": "IOJMFPKFPFA",
                "CDOIALFJGFK": "EffectMesh"
            },
            "affectedByWorld": true
        },
        "combat": {
            "property": {
                "HP": 100.0,
                "attack": 10.0,
                "weight": 75.0,
                "isLockHP": true,
                "isGhostToAllied": true,
                "canTriggerBullet": true
            },
            "beHit": {
                "hitBloodEffect": "",
                "GBDHDFFOBPO": true,
                "HNPPKGPHAKM": true,
                "muteAllHitText": true
            },
            "die": {
                "dieDisappearEffect": ""
            }
        },
        "combatTemplate": "",
        "abilities": [
            {
                "abilityID": "Ability_01",
                "abilityName": "Foxtail_Grass01_Material",
                "abilityOverride": ""
            }
        ]
    },
    "Foxtail_Grass02": {
        "$type": "AAMHONAFMEC",
        "common": {
            "effectAttachShape": {
                "$type": "IOJMFPKFPFA",
                "CDOIALFJGFK": "EffectMesh"
            },
            "affectedByWorld": true
        },
        "combat": {
            "property": {
                "HP": 100.0,
                "attack": 10.0,
                "weight": 75.0,
                "isLockHP": true,
                "isGhostToAllied": true,
                "canTriggerBullet": true
            },
            "beHit": {
                "hitBloodEffect": "",
                "GBDHDFFOBPO": true,
                "HNPPKGPHAKM": true,
                "muteAllHitText": true
            },
            "die": {
                "dieDisappearEffect": ""
            }
        },
        "combatTemplate": "",
        "abilities": [
            {
                "abilityID": "Ability_01",
                "abilityName": "Foxtail_Grass02_Material",
                "abilityOverride": ""
            }
        ]
    },
    "Windmill": {
        "$type": "AAMHONAFMEC",
        "common": {
            "overrideCullBoundsRadius": 45.0
        },
        "combatTemplate": "",
        "IJLCLNIAPOM": {
            "$type": "JENOFDDEAKK"
        }
    },
    "Oil": {
        "$type": "AAMHONAFMEC",
        "common": {
            "effectAttachShape": {
                "$type": "IOJMFPKFPFA",
                "CDOIALFJGFK": "EffectMesh"
            },
            "viewSize": 1.5,
            "affectedByWorld": true
        },
        "FNCGDIJNLBK": true,
        "combat": {
            "property": {
                "HP": 5000.0,
                "attack": 15.0,
                "weight": 50.0,
                "isLockHP": true
            },
            "beHit": {
                "hitBloodEffect": "",
                "hitAutoRedirect": false,
                "muteAllHitText": true
            },
            "die": {
                "dieEndTime": 0.10000000149011612,
                "dieForceDisappearTime": 0.20000000298023224,
                "dieDisappearEffect": ""
            }
        },
        "combatTemplate": "",
        "abilities": [
            {
                "abilityID": "Oil_Interact",
                "abilityName": "Oil_Interact",
                "abilityOverride": ""
            }
        ],
        "PHPNGMPHDGB": false,
        "billboard": {
            "$type": "JOBMBKHMEKJ",
            "attachPoint": "BillboardAttach",
            "offset": {
                "y": 1.5
            },
            "HNBHIFHDHHP": 1.0,
            "BAFOFKKNFAI": true,
            "OCLHINJIEBL": true
        }
    },
    "Storm_Lightning": {
        "$type": "AAMHONAFMEC",
        "common": {
            "effectAttachShape": {
                "$type": "IOJMFPKFPFA",
                "CDOIALFJGFK": "EffectMesh"
            },
            "checkInSurface": true
        },
        "combat": {
            "property": {
                "HP": 999999.0,
                "attack": 1.0,
                "defense": 999999.0,
                "weight": 0.0,
                "isLockHP": true,
                "isGhostToAllied": true,
                "isGhostToEnemy": true,
                "HCONDLFFICE": false
            },
            "beHit": {
                "hitBloodEffect": "",
                "hitAutoRedirect": false,
                "GBDHDFFOBPO": true,
                "HNPPKGPHAKM": true,
                "muteAllHitText": true
            },
            "combatLock": {
                "lockShape": "CircleLockEnemy",
                "denyLockOn": true,
                "lockType": "Default"
            }
        },
        "combatTemplate": "",
        "abilities": [
            {
                "abilityID": "Storm_Lightning",
                "abilityName": "SceneObj_Storm_Lightning",
                "abilityOverride": ""
            }
        ],
        "AHCOGNAHOOF": {
            "ELIEJDIFIJE": 10.0
        }
    },
    "Storm_Lightning_New": {
        "$type": "AAMHONAFMEC",
        "common": {
            "effectAttachShape": {
                "$type": "IOJMFPKFPFA",
                "CDOIALFJGFK": "EffectMesh"
            },
            "checkInSurface": true
        },
        "combat": {
            "property": {
                "HP": 999999.0,
                "attack": 1.0,
                "defense": 999999.0,
                "weight": 0.0,
                "isLockHP": true,
                "isGhostToAllied": true,
                "isGhostToEnemy": true,
                "HCONDLFFICE": false
            },
            "beHit": {
                "hitBloodEffect": "",
                "hitAutoRedirect": false,
                "GBDHDFFOBPO": true,
                "HNPPKGPHAKM": true,
                "muteAllHitText": true
            },
            "combatLock": {
                "lockShape": "CircleLockEnemy",
                "denyLockOn": true,
                "lockType": "Default"
            }
        },
        "combatTemplate": "",
        "abilities": [
            {
                "abilityID": "Storm_Lightning",
                "abilityName": "SceneObj_Storm_Lightnin_New",
                "abilityOverride": ""
            }
        ],
        "AHCOGNAHOOF": {
            "ELIEJDIFIJE": 10.0
        }
    }
}