{
    "MonEquip_Simitar_01": {
        "$type": "AAMHONAFMEC",
        "common": {
            "effectAttachShape": {
                "$type": "IOJMFPKFPFA",
                "CDOIALFJGFK": "EffectMesh"
            }
        },
        "combat": {
            "property": {
                "HP": 10.0,
                "isInvincible": true,
                "isGhostToAllied": true
            },
            "beHit": {
                "hitBloodEffect": "",
                "GBDHDFFOBPO": true,
                "muteAllHitText": true
            },
            "combatLock": {
                "lockShape": "CircleLockEnemy",
                "denyLockOn": true,
                "lockType": "Default"
            },
            "die": {
                "dieEndTime": 4.0,
                "dieForceDisappearTime": 8.0,
                "dieDisappearEffect": "Eff_Death_Eremite_Golden",
                "dieShaderData": "EremiteEquipDie",
                "dieShaderEnableDurationTime": 0.7799999713897705
            }
        },
        "combatTemplate": "",
        "abilities": [
            {
                "abilityID": "",
                "abilityName": "Eremite_Equip_Delay_Destory",
                "abilityOverride": ""
            }
        ],
        "DMLCOCHDCEH": {
            "HCIMOHLCHIN": "equip01",
            "GFKFOBMIGBP": "",
            "GJMCMBJONKF": "",
            "MPIOHPDIFAA": "SwordOneHand"
        }
    },
    "MonEquip_Eremite_Crossbow_01": {
        "$type": "AAMHONAFMEC",
        "common": {
            "effectAttachShape": {
                "$type": "IOJMFPKFPFA",
                "CDOIALFJGFK": "EffectMesh"
            }
        },
        "combat": {
            "property": {
                "HP": 10.0,
                "isInvincible": true,
                "isGhostToAllied": true
            },
            "beHit": {
                "hitBloodEffect": "",
                "GBDHDFFOBPO": true,
                "muteAllHitText": true
            },
            "combatLock": {
                "lockShape": "CircleLockEnemy",
                "denyLockOn": true,
                "lockType": "Default"
            },
            "die": {
                "dieEndTime": 4.0,
                "dieForceDisappearTime": 8.0,
                "dieDisappearEffect": "Eff_Death_Eremite_Golden",
                "dieShaderData": "EremiteEquipDie",
                "dieShaderEnableDurationTime": 0.7799999713897705
            }
        },
        "combatTemplate": "",
        "abilities": [
            {
                "abilityID": "",
                "abilityName": "Eremite_Equip_Delay_Destory",
                "abilityOverride": ""
            }
        ],
        "DMLCOCHDCEH": {
            "HCIMOHLCHIN": "equip01",
            "GFKFOBMIGBP": "",
            "GJMCMBJONKF": "",
            "MPIOHPDIFAA": "CrossBow"
        }
    },
    "MonEquip_Eremite_Gloves_01": {
        "$type": "AAMHONAFMEC",
        "common": {
            "effectAttachShape": {
                "$type": "IOJMFPKFPFA",
                "CDOIALFJGFK": "EffectMesh"
            }
        },
        "combat": {
            "property": {
                "HP": 10.0,
                "isInvincible": true,
                "isGhostToAllied": true
            },
            "beHit": {
                "hitBloodEffect": "",
                "GBDHDFFOBPO": true,
                "muteAllHitText": true
            },
            "combatLock": {
                "lockShape": "CircleLockEnemy",
                "denyLockOn": true,
                "lockType": "Default"
            },
            "die": {
                "dieEndTime": 4.0,
                "dieForceDisappearTime": 8.0,
                "dieDisappearEffect": "Eff_Death_Eremite_Golden",
                "dieShaderData": "EremiteEquipDie",
                "dieShaderEnableDurationTime": 0.7799999713897705
            }
        },
        "combatTemplate": "",
        "abilities": [
            {
                "abilityID": "",
                "abilityName": "Eremite_Equip_Delay_Destory",
                "abilityOverride": ""
            },
            {
                "abilityID": "",
                "abilityName": "Eremite_Gloves_Equip_Display_Logic",
                "abilityOverride": ""
            }
        ],
        "DMLCOCHDCEH": {
            "HCIMOHLCHIN": "equip01",
            "GFKFOBMIGBP": "",
            "GJMCMBJONKF": "",
            "MPIOHPDIFAA": "SwordOneHand"
        }
    },
    "MonEquip_Eremite_Gloves_02": {
        "$type": "AAMHONAFMEC",
        "common": {
            "effectAttachShape": {
                "$type": "IOJMFPKFPFA",
                "CDOIALFJGFK": "EffectMesh"
            }
        },
        "combat": {
            "property": {
                "HP": 10.0,
                "isInvincible": true,
                "isGhostToAllied": true
            },
            "beHit": {
                "hitBloodEffect": "",
                "GBDHDFFOBPO": true,
                "muteAllHitText": true
            },
            "combatLock": {
                "lockShape": "CircleLockEnemy",
                "denyLockOn": true,
                "lockType": "Default"
            },
            "die": {
                "dieEndTime": 4.0,
                "dieForceDisappearTime": 8.0,
                "dieDisappearEffect": "Eff_Death_Eremite_Golden",
                "dieShaderData": "EremiteEquipDie",
                "dieShaderEnableDurationTime": 0.7799999713897705
            }
        },
        "combatTemplate": "",
        "abilities": [
            {
                "abilityID": "",
                "abilityName": "Eremite_Equip_Delay_Destory",
                "abilityOverride": ""
            },
            {
                "abilityID": "",
                "abilityName": "Eremite_Gloves_Equip_Display_Logic",
                "abilityOverride": ""
            }
        ],
        "DMLCOCHDCEH": {
            "HCIMOHLCHIN": "equip02",
            "GFKFOBMIGBP": "",
            "GJMCMBJONKF": "",
            "MPIOHPDIFAA": "SwordOneHand"
        }
    },
    "MonEquip_Eremite_Hatchet_01": {
        "$type": "AAMHONAFMEC",
        "common": {
            "effectAttachShape": {
                "$type": "IOJMFPKFPFA",
                "CDOIALFJGFK": "EffectMesh"
            }
        },
        "combat": {
            "property": {
                "HP": 10.0,
                "isInvincible": true,
                "isGhostToAllied": true
            },
            "beHit": {
                "hitBloodEffect": "",
                "GBDHDFFOBPO": true,
                "muteAllHitText": true
            },
            "combatLock": {
                "lockShape": "CircleLockEnemy",
                "denyLockOn": true,
                "lockType": "Default"
            },
            "die": {
                "dieEndTime": 4.0,
                "dieForceDisappearTime": 8.0,
                "dieDisappearEffect": "Eff_Death_Eremite_Golden",
                "dieShaderData": "EremiteEquipDie",
                "dieShaderEnableDurationTime": 0.7799999713897705
            }
        },
        "combatTemplate": "",
        "abilities": [
            {
                "abilityID": "",
                "abilityName": "Eremite_Equip_Delay_Destory",
                "abilityOverride": ""
            }
        ],
        "DMLCOCHDCEH": {
            "HCIMOHLCHIN": "equip01",
            "GFKFOBMIGBP": "",
            "GJMCMBJONKF": "",
            "MPIOHPDIFAA": "SwordOneHand"
        }
    },
    "MonEquip_Eremite_Pole_01": {
        "$type": "AAMHONAFMEC",
        "common": {
            "effectAttachShape": {
                "$type": "IOJMFPKFPFA",
                "CDOIALFJGFK": "EffectMesh"
            }
        },
        "combat": {
            "property": {
                "HP": 10.0,
                "isInvincible": true,
                "isGhostToAllied": true
            },
            "beHit": {
                "hitBloodEffect": "",
                "GBDHDFFOBPO": true,
                "muteAllHitText": true
            },
            "combatLock": {
                "lockShape": "CircleLockEnemy",
                "denyLockOn": true,
                "lockType": "Default"
            },
            "die": {
                "dieEndTime": 4.0,
                "dieForceDisappearTime": 8.0,
                "dieDisappearEffect": "Eff_Death_Eremite_Golden",
                "dieShaderData": "EremiteEquipDie",
                "dieShaderEnableDurationTime": 0.7799999713897705
            }
        },
        "combatTemplate": "",
        "abilities": [
            {
                "abilityID": "",
                "abilityName": "Eremite_Equip_Delay_Destory",
                "abilityOverride": ""
            },
            {
                "abilityID": "",
                "abilityName": "Eremite_Pole_Equip_Display_Logic",
                "abilityOverride": ""
            }
        ],
        "DMLCOCHDCEH": {
            "HCIMOHLCHIN": "equip01",
            "GFKFOBMIGBP": "",
            "GJMCMBJONKF": "AuxWeaponPoint",
            "MPIOHPDIFAA": "Pole"
        }
    },
    "MonEquip_Eremite_PushDagger_01": {
        "$type": "AAMHONAFMEC",
        "common": {
            "effectAttachShape": {
                "$type": "IOJMFPKFPFA",
                "CDOIALFJGFK": "EffectMesh"
            }
        },
        "combat": {
            "property": {
                "HP": 10.0,
                "isInvincible": true,
                "isGhostToAllied": true
            },
            "beHit": {
                "hitBloodEffect": "",
                "GBDHDFFOBPO": true,
                "muteAllHitText": true
            },
            "combatLock": {
                "lockShape": "CircleLockEnemy",
                "denyLockOn": true,
                "lockType": "Default"
            },
            "die": {
                "dieEndTime": 4.0,
                "dieForceDisappearTime": 8.0,
                "dieDisappearEffect": "Eff_Death_Eremite_Golden",
                "dieShaderData": "EremiteEquipDie",
                "dieShaderEnableDurationTime": 0.7799999713897705
            }
        },
        "combatTemplate": "",
        "abilities": [
            {
                "abilityID": "",
                "abilityName": "Eremite_Equip_Delay_Destory",
                "abilityOverride": ""
            },
            {
                "abilityID": "",
                "abilityName": "Monster_Eremite_CommonEquip_UnhideWeapon_Logic",
                "abilityOverride": ""
            }
        ],
        "DMLCOCHDCEH": {
            "HCIMOHLCHIN": "equip01",
            "GFKFOBMIGBP": "",
            "GJMCMBJONKF": "",
            "MPIOHPDIFAA": "SwordOneHand"
        }
    },
    "MonEquip_Eremite_PushDagger_02": {
        "$type": "AAMHONAFMEC",
        "common": {
            "effectAttachShape": {
                "$type": "IOJMFPKFPFA",
                "CDOIALFJGFK": "EffectMesh"
            }
        },
        "combat": {
            "property": {
                "HP": 10.0,
                "isInvincible": true,
                "isGhostToAllied": true
            },
            "beHit": {
                "hitBloodEffect": "",
                "GBDHDFFOBPO": true,
                "muteAllHitText": true
            },
            "combatLock": {
                "lockShape": "CircleLockEnemy",
                "denyLockOn": true,
                "lockType": "Default"
            },
            "die": {
                "dieEndTime": 4.0,
                "dieForceDisappearTime": 8.0,
                "dieDisappearEffect": "Eff_Death_Eremite_Golden",
                "dieShaderData": "EremiteEquipDie",
                "dieShaderEnableDurationTime": 0.7799999713897705
            }
        },
        "combatTemplate": "",
        "abilities": [
            {
                "abilityID": "",
                "abilityName": "Eremite_Equip_Delay_Destory",
                "abilityOverride": ""
            },
            {
                "abilityID": "",
                "abilityName": "Monster_Eremite_CommonEquip_UnhideWeapon_Logic",
                "abilityOverride": ""
            }
        ],
        "DMLCOCHDCEH": {
            "HCIMOHLCHIN": "equip02",
            "GFKFOBMIGBP": "",
            "GJMCMBJONKF": "",
            "MPIOHPDIFAA": "SwordOneHand"
        }
    },
    "MonEquip_Eremite_Glaive_01": {
        "$type": "AAMHONAFMEC",
        "common": {
            "effectAttachShape": {
                "$type": "IOJMFPKFPFA",
                "CDOIALFJGFK": "EffectMesh"
            }
        },
        "combat": {
            "property": {
                "HP": 10.0,
                "isInvincible": true,
                "isGhostToAllied": true
            },
            "beHit": {
                "hitBloodEffect": "",
                "GBDHDFFOBPO": true,
                "muteAllHitText": true
            },
            "combatLock": {
                "lockShape": "CircleLockEnemy",
                "denyLockOn": true,
                "lockType": "Default"
            },
            "die": {
                "dieEndTime": 4.0,
                "dieForceDisappearTime": 8.0,
                "dieDisappearEffect": "Eff_Death_Eremite_Golden",
                "dieShaderData": "EremiteEquipDie",
                "dieShaderEnableDurationTime": 0.7799999713897705
            }
        },
        "combatTemplate": "",
        "abilities": [
            {
                "abilityID": "",
                "abilityName": "Eremite_Equip_Delay_Destory",
                "abilityOverride": ""
            },
            {
                "abilityID": "",
                "abilityName": "Monster_Eremite_CommonEquip_UnhideWeapon_Logic",
                "abilityOverride": ""
            }
        ],
        "DMLCOCHDCEH": {
            "HCIMOHLCHIN": "equip01",
            "GFKFOBMIGBP": "",
            "GJMCMBJONKF": "",
            "MPIOHPDIFAA": "SwordOneHand"
        }
    },
    "MonEquip_Eremite_Glaive_02": {
        "$type": "AAMHONAFMEC",
        "common": {
            "effectAttachShape": {
                "$type": "IOJMFPKFPFA",
                "CDOIALFJGFK": "EffectMesh"
            }
        },
        "combat": {
            "property": {
                "HP": 10.0,
                "isInvincible": true,
                "isGhostToAllied": true
            },
            "beHit": {
                "hitBloodEffect": "",
                "GBDHDFFOBPO": true,
                "muteAllHitText": true
            },
            "combatLock": {
                "lockShape": "CircleLockEnemy",
                "denyLockOn": true,
                "lockType": "Default"
            },
            "die": {
                "dieEndTime": 4.0,
                "dieForceDisappearTime": 8.0,
                "dieDisappearEffect": "Eff_Death_Eremite_Golden",
                "dieShaderData": "EremiteEquipDie",
                "dieShaderEnableDurationTime": 0.7799999713897705
            }
        },
        "combatTemplate": "",
        "abilities": [
            {
                "abilityID": "",
                "abilityName": "Eremite_Equip_Delay_Destory",
                "abilityOverride": ""
            },
            {
                "abilityID": "",
                "abilityName": "Monster_Eremite_CommonEquip_UnhideWeapon_Logic",
                "abilityOverride": ""
            }
        ],
        "DMLCOCHDCEH": {
            "HCIMOHLCHIN": "equip02",
            "GFKFOBMIGBP": "",
            "GJMCMBJONKF": "",
            "MPIOHPDIFAA": "SwordOneHand"
        }
    },
    "MonEquip_Eremite_Ploearm_01": {
        "$type": "AAMHONAFMEC",
        "common": {
            "effectAttachShape": {
                "$type": "IOJMFPKFPFA",
                "CDOIALFJGFK": "EffectMesh"
            }
        },
        "combat": {
            "property": {
                "HP": 10.0,
                "isInvincible": true,
                "isGhostToAllied": true
            },
            "beHit": {
                "hitBloodEffect": "",
                "GBDHDFFOBPO": true,
                "muteAllHitText": true
            },
            "combatLock": {
                "lockShape": "CircleLockEnemy",
                "denyLockOn": true,
                "lockType": "Default"
            },
            "die": {
                "dieEndTime": 4.0,
                "dieForceDisappearTime": 8.0,
                "dieDisappearEffect": "Eff_Death_Eremite_Golden",
                "dieShaderData": "EremiteEquipDie",
                "dieShaderEnableDurationTime": 0.7799999713897705
            }
        },
        "combatTemplate": "",
        "abilities": [
            {
                "abilityID": "",
                "abilityName": "Eremite_Equip_Delay_Destory",
                "abilityOverride": ""
            },
            {
                "abilityID": "",
                "abilityName": "Monster_Eremite_CommonEquip_UnhideWeapon_Logic",
                "abilityOverride": ""
            }
        ],
        "DMLCOCHDCEH": {
            "HCIMOHLCHIN": "equip01",
            "GFKFOBMIGBP": "",
            "GJMCMBJONKF": "",
            "MPIOHPDIFAA": "Pole"
        }
    }
}