{
    "SceneObj_Event_ElementTrack": {
        "$type": "AAMHONAFMEC",
        "common": {},
        "combat": {
            "property": {
                "HP": 800.0,
                "attack": 15.0,
                "weight": 50.0,
                "isLockHP": true,
                "isGhostToEnemy": true
            },
            "beHit": {
                "hitBloodEffect": "",
                "hitAutoRedirect": false,
                "muteAllHitText": true
            },
            "combatLock": {
                "lockShape": "CircleLockEnemy",
                "denyLockOn": true,
                "lockType": "Gadget_Lv1"
            },
            "die": {
                "dieForceDisappearTime": 0.0,
                "dieDisappearEffect": ""
            }
        },
        "combatTemplate": "",
        "abilities": [
            {
                "abilityID": "SceneObj_Event_ElementTrack",
                "abilityName": "SceneObj_Event_ElementTrack",
                "abilityOverride": ""
            }
        ]
    },
    "SceneObj_Event_TargetPoint": {
        "$type": "AAMHONAFMEC",
        "common": {},
        "combat": {
            "property": {
                "HP": 800.0,
                "attack": 15.0,
                "weight": 50.0,
                "isLockHP": true,
                "isGhostToEnemy": true
            },
            "beHit": {
                "hitBloodEffect": "",
                "hitAutoRedirect": false,
                "muteAllHitText": true
            },
            "combatLock": {
                "lockShape": "CircleLockEnemy",
                "denyLockOn": true,
                "lockType": "Gadget_Lv1"
            },
            "die": {
                "dieForceDisappearTime": 0.0,
                "dieDisappearEffect": ""
            }
        },
        "combatTemplate": "",
        "abilities": [
            {
                "abilityID": "SceneObj_Event_TargetPoint",
                "abilityName": "SceneObj_Event_TargetPoint",
                "abilityOverride": ""
            }
        ]
    },
    "SceneObj_Event_RoadBlock": {
        "$type": "AAMHONAFMEC",
        "common": {
            "effectAttachShape": {
                "$type": "IOJMFPKFPFA",
                "CDOIALFJGFK": "EffectMesh"
            },
            "viewSize": 2.5,
            "affectedByWorld": true
        },
        "FNCGDIJNLBK": true,
        "combat": {
            "property": {
                "HP": 800.0,
                "attack": 15.0,
                "weight": 50.0
            },
            "beHit": {
                "hitBloodEffect": "Eff_Hit_QQObject_Immortal",
                "hitAutoRedirect": false
            },
            "combatLock": {
                "lockShape": "CircleLockEnemy",
                "denyLockOn": true,
                "lockType": "Gadget_Lv1"
            },
            "die": {
                "dieEndTime": 0.009999999776482582,
                "dieDisappearEffect": "Eff_SceneObj_WoodenObject_Broken"
            }
        },
        "combatTemplate": "",
        "abilities": [
            {
                "abilityID": "SceneObj_Event_RoadBlock",
                "abilityName": "SceneObj_Event_RoadBlock",
                "abilityOverride": ""
            }
        ],
        "billboard": {
            "$type": "JOBMBKHMEKJ",
            "attachPoint": "BillboardAttach",
            "offset": {
                "y": 2.200000047683716
            },
            "HNBHIFHDHHP": 1.0,
            "showDistance": 0.0,
            "BAFOFKKNFAI": true
        }
    },
    "SceneObj_Event_RoadBlock02": {
        "$type": "AAMHONAFMEC",
        "FNCGDIJNLBK": true,
        "combat": {
            "property": {
                "HP": 800.0,
                "attack": 15.0,
                "weight": 50.0,
                "isLockHP": true
            },
            "beHit": {
                "hitBloodEffect": "Eff_Hit_QQObject_Immortal",
                "hitAutoRedirect": false,
                "muteAllHitText": true
            },
            "combatLock": {
                "lockShape": "CircleLockEnemy",
                "denyLockOn": true,
                "lockType": "Gadget_Lv1"
            },
            "die": {
                "dieEndTime": 0.10000000149011612,
                "dieForceDisappearTime": 0.20000000298023224,
                "dieDisappearEffect": ""
            }
        },
        "combatTemplate": ""
    },
    "SceneObj_Event_RoadBlock03": {
        "$type": "AAMHONAFMEC",
        "FNCGDIJNLBK": true,
        "combat": {
            "property": {
                "HP": 800.0,
                "attack": 15.0,
                "weight": 50.0
            },
            "beHit": {
                "hitBloodEffect": "Eff_Hit_QQObject_Immortal",
                "hitAutoRedirect": false
            },
            "combatLock": {
                "lockShape": "CircleLockEnemy",
                "denyLockOn": true,
                "lockType": "Gadget_Lv1"
            },
            "die": {
                "dieEndTime": 0.10000000149011612,
                "dieForceDisappearTime": 0.20000000298023224,
                "dieDisappearEffect": "Eff_Build_Hili_House_10_Destory"
            }
        },
        "combatTemplate": "",
        "billboard": {
            "$type": "JOBMBKHMEKJ",
            "attachPoint": "BillboardAttach",
            "offset": {
                "y": 2.200000047683716
            },
            "HNBHIFHDHHP": 1.0,
            "showDistance": 0.0,
            "BAFOFKKNFAI": true
        }
    },
    "SceneObj_Event_RoadBlock04": {
        "$type": "AAMHONAFMEC",
        "FNCGDIJNLBK": true,
        "combat": {
            "property": {
                "HP": 800.0,
                "attack": 15.0,
                "weight": 50.0,
                "isLockHP": true
            },
            "beHit": {
                "hitBloodEffect": "Eff_Hit_QQObject_Immortal",
                "hitAutoRedirect": false,
                "muteAllHitText": true
            },
            "combatLock": {
                "lockShape": "CircleLockEnemy",
                "denyLockOn": true,
                "lockType": "Gadget_Lv1"
            },
            "die": {
                "dieEndTime": 0.10000000149011612,
                "dieForceDisappearTime": 0.20000000298023224,
                "dieDisappearEffect": "Eff_SceneObj_WoodenObject_Broken"
            }
        },
        "combatTemplate": ""
    },
    "SceneObj_Event_RoadBlock05": {
        "$type": "AAMHONAFMEC",
        "common": {
            "effectAttachShape": {
                "$type": "IOJMFPKFPFA",
                "CDOIALFJGFK": "EffectMesh"
            },
            "viewSize": 2.5,
            "affectedByWorld": true
        },
        "FNCGDIJNLBK": true,
        "combat": {
            "property": {
                "HP": 800.0,
                "attack": 15.0,
                "weight": 50.0
            },
            "beHit": {
                "hitBloodEffect": "Eff_Hit_QQObject_Immortal",
                "hitAutoRedirect": false
            },
            "combatLock": {
                "lockShape": "CircleLockEnemy",
                "denyLockOn": true,
                "lockType": "Gadget_Lv1"
            },
            "die": {
                "dieEndTime": 0.10000000149011612,
                "dieForceDisappearTime": 0.20000000298023224,
                "dieDisappearEffect": "Eff_RoadBlock05_Destory"
            }
        },
        "combatTemplate": "",
        "abilities": [
            {
                "abilityID": "SceneObj_Event_RoadBlock05",
                "abilityName": "SceneObj_Event_RoadBlock05",
                "abilityOverride": ""
            }
        ],
        "billboard": {
            "$type": "JOBMBKHMEKJ",
            "attachPoint": "BillboardAttach",
            "offset": {
                "y": 2.200000047683716,
                "z": 1.0
            },
            "HNBHIFHDHHP": 1.0,
            "showDistance": 0.0,
            "BAFOFKKNFAI": true
        }
    },
    "SceneObj_Event_RoadBlock06": {
        "$type": "AAMHONAFMEC",
        "common": {
            "effectAttachShape": {
                "$type": "IOJMFPKFPFA",
                "CDOIALFJGFK": "EffectMesh"
            },
            "viewSize": 2.5,
            "affectedByWorld": true
        },
        "FNCGDIJNLBK": true,
        "combat": {
            "property": {
                "HP": 800.0,
                "attack": 15.0,
                "weight": 50.0
            },
            "beHit": {
                "hitBloodEffect": "Eff_Hit_QQObject_Immortal",
                "hitAutoRedirect": false
            },
            "combatLock": {
                "lockShape": "CircleLockEnemy",
                "denyLockOn": true,
                "lockType": "Gadget_Lv1"
            },
            "die": {
                "dieEndTime": 0.009999999776482582,
                "dieDisappearEffect": "Eff_SceneObj_WoodenObject_Broken"
            }
        },
        "combatTemplate": "",
        "abilities": [
            {
                "abilityID": "SceneObj_Event_RoadBlock06",
                "abilityName": "SceneObj_Event_RoadBlock06",
                "abilityOverride": ""
            }
        ],
        "billboard": {
            "$type": "JOBMBKHMEKJ",
            "attachPoint": "BillboardAttach",
            "offset": {
                "y": 2.200000047683716
            },
            "HNBHIFHDHHP": 1.0,
            "showDistance": 0.0,
            "BAFOFKKNFAI": true
        }
    },
    "SceneObj_Event_QQPlatform": {
        "$type": "AAMHONAFMEC",
        "FNCGDIJNLBK": true,
        "combat": {
            "property": {
                "HP": 800.0,
                "attack": 15.0,
                "weight": 50.0,
                "isLockHP": true
            },
            "beHit": {
                "hitBloodEffect": "Eff_Hit_QQObject_Immortal",
                "hitAutoRedirect": false,
                "muteAllHitText": true
            },
            "combatLock": {
                "lockShape": "CircleLockEnemy",
                "denyLockOn": true,
                "lockType": "Gadget_Lv1"
            },
            "die": {
                "dieEndTime": 0.10000000149011612,
                "dieForceDisappearTime": 0.20000000298023224,
                "dieDisappearEffect": "Eff_SceneObj_WoodenObject_Broken"
            }
        },
        "combatTemplate": ""
    },
    "SceneObj_Event_QQPile": {
        "$type": "AAMHONAFMEC",
        "FNCGDIJNLBK": true,
        "combat": {
            "property": {
                "HP": 800.0,
                "attack": 15.0,
                "weight": 50.0,
                "isLockHP": true
            },
            "beHit": {
                "hitBloodEffect": "Eff_Hit_QQObject_Immortal",
                "hitAutoRedirect": false,
                "muteAllHitText": true
            },
            "combatLock": {
                "lockShape": "CircleLockEnemy",
                "denyLockOn": true,
                "lockType": "Gadget_Lv1"
            },
            "die": {
                "dieEndTime": 0.10000000149011612,
                "dieForceDisappearTime": 0.20000000298023224,
                "dieDisappearEffect": "Eff_SceneObj_WoodenObject_Broken"
            }
        },
        "combatTemplate": ""
    },
    "SceneObj_Event_QQPot": {
        "$type": "AAMHONAFMEC",
        "FNCGDIJNLBK": true,
        "combat": {
            "property": {
                "HP": 800.0,
                "attack": 15.0,
                "weight": 50.0
            },
            "beHit": {
                "hitBloodEffect": "Eff_Hit_QQObject_Immortal",
                "hitAutoRedirect": false
            },
            "combatLock": {
                "lockShape": "CircleLockEnemy",
                "denyLockOn": true,
                "lockType": "Gadget_Lv1"
            },
            "die": {
                "dieEndTime": 0.10000000149011612,
                "dieForceDisappearTime": 0.20000000298023224,
                "dieDisappearEffect": "Eff_SceneObj_WoodenObject_Broken"
            }
        },
        "combatTemplate": "",
        "billboard": {
            "$type": "JOBMBKHMEKJ",
            "attachPoint": "BillboardAttach",
            "offset": {
                "y": 2.200000047683716
            },
            "HNBHIFHDHHP": 1.0,
            "showDistance": 0.0,
            "BAFOFKKNFAI": true
        }
    },
    "SceneObj_Event_QQTarget": {
        "$type": "AAMHONAFMEC",
        "FNCGDIJNLBK": true,
        "combat": {
            "property": {
                "HP": 800.0,
                "attack": 15.0,
                "weight": 50.0
            },
            "beHit": {
                "hitBloodEffect": "Eff_Hit_QQObject_Immortal",
                "hitAutoRedirect": false
            },
            "combatLock": {
                "lockShape": "CircleLockEnemy",
                "denyLockOn": true,
                "lockType": "Gadget_Lv1"
            },
            "die": {
                "dieEndTime": 0.10000000149011612,
                "dieForceDisappearTime": 0.20000000298023224,
                "dieDisappearEffect": "Eff_QQTarget_Destroy"
            }
        },
        "combatTemplate": "",
        "billboard": {
            "$type": "JOBMBKHMEKJ",
            "attachPoint": "BillboardAttach",
            "offset": {
                "y": 2.200000047683716
            },
            "HNBHIFHDHHP": 1.0,
            "showDistance": 0.0,
            "BAFOFKKNFAI": true
        }
    },
    "SceneObj_Event_QQTotem": {
        "$type": "AAMHONAFMEC",
        "FNCGDIJNLBK": true,
        "combat": {
            "property": {
                "HP": 800.0,
                "attack": 15.0,
                "weight": 50.0
            },
            "beHit": {
                "hitBloodEffect": "Eff_Hit_QQObject_Immortal",
                "hitAutoRedirect": false
            },
            "combatLock": {
                "lockShape": "CircleLockEnemy",
                "denyLockOn": true,
                "lockType": "Gadget_Lv1"
            },
            "die": {
                "dieEndTime": 0.10000000149011612,
                "dieForceDisappearTime": 0.20000000298023224,
                "dieDisappearEffect": "Eff_QQTotem_Destroy"
            }
        },
        "combatTemplate": "",
        "billboard": {
            "$type": "JOBMBKHMEKJ",
            "attachPoint": "BillboardAttach",
            "offset": {
                "y": 2.200000047683716
            },
            "HNBHIFHDHHP": 1.0,
            "showDistance": 0.0,
            "BAFOFKKNFAI": true
        }
    },
    "SceneObj_Event_WatchTower01": {
        "$type": "AAMHONAFMEC",
        "FNCGDIJNLBK": true,
        "combat": {
            "property": {
                "HP": 800.0,
                "attack": 15.0,
                "weight": 50.0,
                "isLockHP": true
            },
            "beHit": {
                "hitBloodEffect": "Eff_Hit_QQObject_Immortal",
                "hitAutoRedirect": false,
                "muteAllHitText": true
            },
            "combatLock": {
                "lockShape": "CircleLockEnemy",
                "denyLockOn": true,
                "lockType": "Gadget_Lv1"
            },
            "die": {
                "dieEndTime": 0.10000000149011612,
                "dieForceDisappearTime": 0.20000000298023224,
                "dieDisappearEffect": "Eff_SceneObj_WoodenObject_Broken"
            }
        },
        "combatTemplate": ""
    },
    "SceneObj_Event_WatchTower02": {
        "$type": "AAMHONAFMEC",
        "FNCGDIJNLBK": true,
        "combat": {
            "property": {
                "HP": 800.0,
                "attack": 15.0,
                "weight": 50.0
            },
            "beHit": {
                "hitBloodEffect": "Eff_Hit_QQObject_Immortal",
                "hitAutoRedirect": false
            },
            "combatLock": {
                "lockShape": "CircleLockEnemy",
                "lockType": "Default",
                "overrideRange": 2.0,
                "overrideNormalPri": 1.2000000476837158,
                "overrideCombatPri": 1.2000000476837158
            },
            "die": {
                "dieEndTime": 0.10000000149011612,
                "dieForceDisappearTime": 0.20000000298023224,
                "dieDisappearEffect": "Eff_WatchTower_02_Destory"
            }
        },
        "combatTemplate": "",
        "CFEIPLEGNFH": {
            "APJGLOKDMCN": "",
            "IFOFJCIPNLE": 2.1579999923706055
        },
        "billboard": {
            "$type": "JOBMBKHMEKJ",
            "attachPoint": "BillboardAttach",
            "offset": {
                "y": 3.0
            },
            "HNBHIFHDHHP": 1.0,
            "showDistance": 0.0,
            "BAFOFKKNFAI": true
        }
    },
    "SceneObj_Event_QQTent": {
        "$type": "AAMHONAFMEC",
        "FNCGDIJNLBK": true,
        "combat": {
            "property": {
                "HP": 800.0,
                "attack": 15.0,
                "weight": 50.0
            },
            "beHit": {
                "hitBloodEffect": "Eff_Hit_QQObject_Immortal",
                "hitAutoRedirect": false
            },
            "combatLock": {
                "lockShape": "CircleLockEnemy",
                "denyLockOn": true,
                "lockType": "Gadget_Lv1"
            },
            "die": {
                "dieEndTime": 0.10000000149011612,
                "dieForceDisappearTime": 0.20000000298023224,
                "dieDisappearEffect": "Eff_Hili_House_02_Destory"
            }
        },
        "combatTemplate": "",
        "billboard": {
            "$type": "JOBMBKHMEKJ",
            "attachPoint": "BillboardAttach",
            "offset": {
                "y": 1.5
            },
            "HNBHIFHDHHP": 1.0,
            "showDistance": 0.0,
            "BAFOFKKNFAI": true
        }
    },
    "SceneObj_Event_QQTent02": {
        "$type": "AAMHONAFMEC",
        "FNCGDIJNLBK": true,
        "combat": {
            "property": {
                "HP": 800.0,
                "attack": 15.0,
                "weight": 50.0
            },
            "beHit": {
                "hitBloodEffect": "Eff_Hit_QQObject_Immortal",
                "hitAutoRedirect": false
            },
            "combatLock": {
                "lockShape": "CircleLockEnemy",
                "denyLockOn": true,
                "lockType": "Gadget_Lv1"
            },
            "die": {
                "dieEndTime": 0.10000000149011612,
                "dieForceDisappearTime": 0.20000000298023224,
                "dieDisappearEffect": "Eff_Hili_House_01_Destory"
            }
        },
        "combatTemplate": "",
        "billboard": {
            "$type": "JOBMBKHMEKJ",
            "attachPoint": "BillboardAttach",
            "offset": {
                "y": 1.5
            },
            "HNBHIFHDHHP": 1.0,
            "showDistance": 0.0,
            "BAFOFKKNFAI": true
        }
    },
    "SceneObj_Event_HumanCart": {
        "$type": "AAMHONAFMEC",
        "FNCGDIJNLBK": true,
        "combat": {
            "property": {
                "HP": 800.0,
                "attack": 15.0,
                "weight": 50.0
            },
            "beHit": {
                "hitBloodEffect": "",
                "hitAutoRedirect": false
            },
            "combatLock": {
                "lockShape": "CircleLockEnemy",
                "denyLockOn": true,
                "lockType": "Gadget_Lv1"
            },
            "die": {
                "dieEndTime": 0.10000000149011612,
                "dieForceDisappearTime": 0.20000000298023224,
                "dieDisappearEffect": "Eff_Humancart_Destroy"
            }
        },
        "combatTemplate": "",
        "billboard": {
            "$type": "JOBMBKHMEKJ",
            "attachPoint": "BillboardAttach",
            "offset": {
                "y": 1.5
            },
            "HNBHIFHDHHP": 1.0,
            "showDistance": 0.0,
            "BAFOFKKNFAI": true
        }
    },
    "SceneObj_Event_HumanCart_Broken": {
        "$type": "AAMHONAFMEC",
        "FNCGDIJNLBK": true,
        "combat": {
            "property": {
                "HP": 800.0,
                "attack": 15.0,
                "weight": 50.0,
                "isLockHP": true
            },
            "beHit": {
                "hitBloodEffect": "",
                "hitAutoRedirect": false,
                "muteAllHitText": true
            },
            "combatLock": {
                "lockShape": "CircleLockEnemy",
                "denyLockOn": true,
                "lockType": "Gadget_Lv1"
            },
            "die": {
                "dieEndTime": 0.10000000149011612,
                "dieForceDisappearTime": 0.20000000298023224,
                "dieDisappearEffect": "Eff_Humancart_Broken_Destroy"
            }
        },
        "combatTemplate": ""
    },
    "SceneObj_Event_HumanCart_Goods": {
        "$type": "AAMHONAFMEC",
        "FNCGDIJNLBK": true,
        "combat": {
            "property": {
                "HP": 800.0,
                "attack": 15.0,
                "weight": 50.0
            },
            "beHit": {
                "hitBloodEffect": "",
                "hitAutoRedirect": false
            },
            "combatLock": {
                "lockShape": "CircleLockEnemy",
                "denyLockOn": true,
                "lockType": "Gadget_Lv1"
            },
            "die": {
                "dieEndTime": 0.10000000149011612,
                "dieForceDisappearTime": 0.20000000298023224,
                "dieDisappearEffect": "Eff_Goods_Stack_Destroy"
            }
        },
        "combatTemplate": "",
        "billboard": {
            "$type": "JOBMBKHMEKJ",
            "attachPoint": "BillboardAttach",
            "offset": {
                "y": 1.5
            },
            "HNBHIFHDHHP": 1.0,
            "showDistance": 0.0,
            "BAFOFKKNFAI": true
        }
    },
    "SceneObj_Event_Spoils": {
        "$type": "AAMHONAFMEC",
        "FNCGDIJNLBK": true,
        "combat": {
            "property": {
                "HP": 800.0,
                "attack": 15.0,
                "weight": 50.0,
                "isLockHP": true
            },
            "beHit": {
                "hitBloodEffect": "Eff_Hit_QQObject",
                "hitAutoRedirect": false,
                "muteAllHitText": true
            },
            "combatLock": {
                "lockShape": "CircleLockEnemy",
                "denyLockOn": true,
                "lockType": "Gadget_Lv1"
            },
            "die": {
                "dieEndTime": 0.10000000149011612,
                "dieForceDisappearTime": 0.20000000298023224,
                "dieDisappearEffect": "Eff_Hili_House_01_Destory"
            }
        },
        "combatTemplate": "",
        "billboard": {
            "$type": "JOBMBKHMEKJ",
            "attachPoint": "BillboardAttach",
            "offset": {
                "y": 1.5
            },
            "HNBHIFHDHHP": 1.0,
            "showDistance": 0.0,
            "BAFOFKKNFAI": true
        }
    },
    "SceneObj_Event_DuckEat": {
        "$type": "AAMHONAFMEC",
        "common": {},
        "combatTemplate": "",
        "abilities": [
            {
                "abilityID": "SceneObj_Event_DuckEat",
                "abilityName": "SceneObj_Event_DuckEat",
                "abilityOverride": ""
            }
        ]
    },
    "SceneObj_Event_StableCart": {
        "$type": "AAMHONAFMEC",
        "common": {
            "effectAttachShape": {
                "$type": "IOJMFPKFPFA",
                "CDOIALFJGFK": "EffectMesh"
            },
            "viewSize": 2.0,
            "affectedByWorld": true
        },
        "dither": {
            "CKFAFHECEJJ": 2.0
        },
        "FNCGDIJNLBK": true,
        "combat": {
            "property": {
                "HP": 1000.0,
                "attack": 50.0,
                "weight": 50.0,
                "isGhostToAllied": true
            },
            "beHit": {
                "hitBloodEffect": "Eff_Hit_QQObject",
                "hitAutoRedirect": false
            },
            "combatLock": {
                "lockShape": "CircleLockEnemy",
                "denyLockOn": true,
                "lockType": "Gadget_Lv1"
            },
            "die": {
                "dieForceDisappearTime": 0.0,
                "dieDisappearEffect": "Eff_SceneObj_BombBarrel_01_Explode"
            }
        },
        "combatTemplate": "",
        "abilities": [
            {
                "abilityID": "SceneObj_Event_StableCart",
                "abilityName": "SceneObj_Event_StableCart",
                "abilityOverride": ""
            }
        ],
        "stateLayers": {
            "defaultLayer": {
                "$type": "GMHKGJPLHFD",
                "DLEKAADOFBI": "",
                "stateIDs": {
                    "All": {
                        "$type": "CCIEFDKKMLG",
                        "DNPOFANDHPP": {
                            "Buffer_Normal": [
                                "Balloon_Cart_Normal"
                            ],
                            "Buffer_Brk1": [
                                "Balloon_Cart_Brk1"
                            ],
                            "Buffer_Brk2": [
                                "Balloon_Cart_Brk2"
                            ]
                        }
                    }
                }
            }
        },
        "MFKPHCFMEJF": {
            "NNKFJFIJEGD": [
                {
                    "$type": "DKAGMDFBKFG",
                    "intID": "gadgetState",
                    "BNBNPANFDGD": true
                }
            ]
        },
        "billboard": {
            "$type": "JOBMBKHMEKJ",
            "attachPoint": "RootNode",
            "offset": {
                "y": 2.0
            },
            "HNBHIFHDHHP": 1.0,
            "MILPPPJLDIG": true,
            "showDistance": 48.0,
            "BAFOFKKNFAI": true,
            "size": "Grand"
        }
    },
    "SceneObj_Event_Kelee_Seal": {
        "$type": "AAMHONAFMEC",
        "FNCGDIJNLBK": true,
        "combat": {
            "property": {
                "HP": 800.0,
                "attack": 15.0,
                "weight": 50.0,
                "isLockHP": true
            },
            "beHit": {
                "hitBloodEffect": "",
                "hitAutoRedirect": false,
                "HNPPKGPHAKM": true,
                "muteAllHitText": true
            },
            "combatLock": {
                "lockShape": "CircleLockEnemy",
                "denyLockOn": true,
                "lockType": "Gadget_Lv1"
            },
            "die": {
                "dieEndTime": 0.10000000149011612,
                "dieForceDisappearTime": 0.20000000298023224,
                "dieDisappearEffect": ""
            }
        },
        "combatTemplate": "",
        "abilities": [
            {
                "abilityID": "SceneObj_Event_Kelee_Seal",
                "abilityName": "SceneObj_Event_Kelee_Seal",
                "abilityOverride": ""
            }
        ],
        "MFKPHCFMEJF": {
            "NNKFJFIJEGD": [
                {
                    "$type": "DKAGMDFBKFG",
                    "intID": "gadgetState",
                    "BNBNPANFDGD": true
                }
            ]
        }
    },
    "SceneObj_Event_Kelee_SealR110": {
        "$type": "AAMHONAFMEC",
        "FNCGDIJNLBK": true,
        "combat": {
            "property": {
                "HP": 800.0,
                "attack": 15.0,
                "weight": 50.0,
                "isLockHP": true
            },
            "beHit": {
                "hitBloodEffect": "",
                "hitAutoRedirect": false,
                "HNPPKGPHAKM": true,
                "muteAllHitText": true
            },
            "combatLock": {
                "lockShape": "CircleLockEnemy",
                "denyLockOn": true,
                "lockType": "Gadget_Lv1"
            },
            "die": {
                "dieEndTime": 0.10000000149011612,
                "dieForceDisappearTime": 0.20000000298023224,
                "dieDisappearEffect": ""
            }
        },
        "combatTemplate": "",
        "abilities": [
            {
                "abilityID": "SceneObj_Event_Kelee_SealR110_Ability",
                "abilityName": "SceneObj_Event_Kelee_SealR110_Ability",
                "abilityOverride": ""
            }
        ],
        "MFKPHCFMEJF": {
            "NNKFJFIJEGD": [
                {
                    "$type": "DKAGMDFBKFG",
                    "intID": "gadgetState",
                    "BNBNPANFDGD": true
                }
            ]
        }
    },
    "SceneObj_Event_Stain": {
        "$type": "AAMHONAFMEC",
        "FNCGDIJNLBK": true,
        "combat": {
            "property": {
                "HP": 800.0,
                "attack": 15.0,
                "weight": 50.0,
                "isLockHP": true
            },
            "beHit": {
                "hitBloodEffect": "",
                "hitAutoRedirect": false,
                "HNPPKGPHAKM": true,
                "muteAllHitText": true
            },
            "combatLock": {
                "lockShape": "CircleLockEnemy",
                "lockType": "Gadget_Lv1"
            },
            "die": {
                "dieForceDisappearTime": 0.0,
                "dieDisappearEffect": ""
            }
        },
        "combatTemplate": "",
        "abilities": [
            {
                "abilityID": "SceneObj_Event_Stain",
                "abilityName": "SceneObj_Event_Stain",
                "abilityOverride": ""
            }
        ],
        "MFKPHCFMEJF": {
            "NNKFJFIJEGD": [
                {
                    "$type": "DKAGMDFBKFG",
                    "intID": "gadgetState",
                    "BNBNPANFDGD": true
                }
            ]
        }
    }
}