{
    "Apep_Underling_SeedOfKarna_Bullet": {
        "$type": "AAMHONAFMEC",
        "common": {
            "effectAttachShape": {
                "$type": "FPGDAMEDKLC",
                "CPGMBCECPEN": 0.4000000059604645
            }
        },
        "combat": {
            "property": {
                "useCreatorProperty": true,
                "HP": 999999.0,
                "attack": 10.0,
                "defense": 999999.0,
                "isLockHP": true
            },
            "beHit": {
                "hitBloodEffect": "",
                "GBDHDFFOBPO": true,
                "HNPPKGPHAKM": true,
                "muteAllHitText": true
            },
            "combatLock": {
                "lockShape": "CircleLockEnemy",
                "denyLockOn": true,
                "lockType": "Default"
            }
        },
        "combatTemplate": "",
        "abilities": [
            {
                "abilityID": "",
                "abilityName": "Apep_Underling_SeedOfKarna_Bullet",
                "abilityOverride": ""
            }
        ],
        "AHCOGNAHOOF": {
            "ELIEJDIFIJE": 5.0
        },
        "IJLCLNIAPOM": {
            "$type": "FHJABLDOPCE",
            "speed": 15.0,
            "LHELNOJGENO": {
                "$type": "CIOIIBOBLMD"
            },
            "LDOEEHMFPHN": 30.0,
            "IPBPLMGOJKC": 15.0,
            "NKKKMPEEEAP": {
                "$type": "HHINGLNHGCK",
                "PKKOKKLEFMB": 1.5,
                "AHBLNOPFFIP": 15.0,
                "minSpeed": 4.0,
                "maxSpeed": 24.0
            }
        },
        "LGBJNNEDJDF": {
            "$type": "AJELOFLEBAF",
            "collision": {
                "targetType": "Enemy"
            },
            "JFFIPBCGGOM": [
                {
                    "$type": "NFGPPKHKFBL",
                    "abilityName": "Apep_Underling_SeedOfKarna_Bullet"
                }
            ],
            "GNGMJEIPCJE": true
        }
    },
    "Apep_Underling_SeedOfKarna_Bullet02": {
        "$type": "AAMHONAFMEC",
        "common": {
            "effectAttachShape": {
                "$type": "FPGDAMEDKLC",
                "CPGMBCECPEN": 0.4000000059604645
            }
        },
        "combat": {
            "property": {
                "useCreatorProperty": true,
                "HP": 999999.0,
                "attack": 10.0,
                "defense": 999999.0,
                "isLockHP": true
            },
            "beHit": {
                "hitBloodEffect": "",
                "GBDHDFFOBPO": true,
                "HNPPKGPHAKM": true,
                "muteAllHitText": true
            },
            "combatLock": {
                "lockShape": "CircleLockEnemy",
                "denyLockOn": true,
                "lockType": "Default"
            }
        },
        "combatTemplate": "",
        "abilities": [
            {
                "abilityID": "",
                "abilityName": "Apep_Underling_SeedOfKarna_Bullet",
                "abilityOverride": ""
            }
        ],
        "AHCOGNAHOOF": {
            "ELIEJDIFIJE": 5.0
        },
        "IJLCLNIAPOM": {
            "$type": "FHJABLDOPCE",
            "speed": 15.0,
            "LHELNOJGENO": {
                "$type": "CIOIIBOBLMD"
            },
            "LDOEEHMFPHN": 30.0,
            "IPBPLMGOJKC": 15.0,
            "NKKKMPEEEAP": {
                "$type": "HHINGLNHGCK",
                "PKKOKKLEFMB": 1.5,
                "AHBLNOPFFIP": 15.0,
                "minSpeed": 4.0,
                "maxSpeed": 24.0
            }
        },
        "LGBJNNEDJDF": {
            "$type": "AJELOFLEBAF",
            "collision": {
                "targetType": "Enemy"
            },
            "JFFIPBCGGOM": [
                {
                    "$type": "NFGPPKHKFBL",
                    "abilityName": "Apep_Underling_SeedOfKarna_Bullet"
                }
            ],
            "GNGMJEIPCJE": true
        }
    },
    "Apep_Underling_SeedOfKarna_Die": {
        "$type": "AAMHONAFMEC",
        "common": {
            "effectAttachShape": {
                "$type": "FPGDAMEDKLC"
            }
        },
        "combat": {
            "property": {
                "useCreatorProperty": true,
                "HP": 999999.0,
                "attack": 10.0,
                "defense": 999999.0,
                "isInvincible": true,
                "isGhostToEnemy": true
            },
            "beHit": {
                "hitBloodEffect": "",
                "GBDHDFFOBPO": true,
                "HNPPKGPHAKM": true,
                "muteAllHitText": true
            },
            "combatLock": {
                "lockShape": "CircleLockEnemy",
                "denyLockOn": true,
                "lockType": "Default"
            }
        },
        "combatTemplate": "",
        "abilities": [
            {
                "abilityID": "",
                "abilityName": "Apep_Underling_SeedOfKarna_Die",
                "abilityOverride": ""
            }
        ],
        "AHCOGNAHOOF": {
            "ELIEJDIFIJE": 2.0
        }
    },
    "Apep_Underling_SeedOfVishnu_Thorn": {
        "$type": "AAMHONAFMEC",
        "common": {
            "effectAttachShape": {
                "$type": "FPGDAMEDKLC"
            }
        },
        "combat": {
            "property": {
                "useCreatorProperty": true,
                "HP": 999999.0,
                "attack": 10.0,
                "defense": 999999.0,
                "isInvincible": true,
                "isGhostToAllied": true,
                "isGhostToEnemy": true
            },
            "beHit": {
                "hitBloodEffect": "",
                "GBDHDFFOBPO": true,
                "HNPPKGPHAKM": true,
                "muteAllHitText": true
            },
            "combatLock": {
                "lockShape": "CircleLockEnemy",
                "denyLockOn": true,
                "lockType": "Default"
            }
        },
        "combatTemplate": "",
        "abilities": [
            {
                "abilityID": "",
                "abilityName": "Apep_Underling_SeedOfVishnu_Thorn",
                "abilityOverride": ""
            }
        ],
        "AHCOGNAHOOF": {
            "ELIEJDIFIJE": 1.7999999523162842
        }
    },
    "Apep_Underling_SeedOfAshura_SwallowTarget": {
        "$type": "AAMHONAFMEC",
        "common": {
            "effectAttachShape": {
                "$type": "FPGDAMEDKLC"
            }
        },
        "combat": {
            "property": {
                "useCreatorProperty": true,
                "HP": 999999.0,
                "attack": 10.0,
                "defense": 999999.0,
                "isInvincible": true,
                "isGhostToAllied": true,
                "isGhostToEnemy": true
            },
            "beHit": {
                "hitBloodEffect": "",
                "GBDHDFFOBPO": true,
                "HNPPKGPHAKM": true,
                "muteAllHitText": true
            },
            "combatLock": {
                "lockShape": "CircleLockEnemy",
                "denyLockOn": true,
                "lockType": "Default"
            },
            "simulatePhysics": {
                "enable": true
            }
        },
        "combatTemplate": "",
        "abilities": [
            {
                "abilityID": "",
                "abilityName": "Apep_Underling_SeedOfAshura_SwallowTarget",
                "abilityOverride": ""
            }
        ],
        "AHCOGNAHOOF": {
            "ELIEJDIFIJE": 3.0
        },
        "IJLCLNIAPOM": {
            "$type": "DGFHGKIONHF"
        },
        "LGBJNNEDJDF": {
            "$type": "OANGKAJJAPC",
            "collision": {
                "triggerType": "TriggerNoRepeat",
                "targetType": "Enemy"
            },
            "JFFIPBCGGOM": [
                {
                    "$type": "NFGPPKHKFBL",
                    "abilityName": "Apep_Underling_SeedOfAshura_SwallowTarget"
                }
            ],
            "JPNAMDFCBFN": [
                {
                    "$type": "NFGPPKHKFBL",
                    "abilityName": "Apep_Underling_SeedOfAshura_SwallowTarget"
                }
            ],
            "GNGMJEIPCJE": true,
            "ABEEECCLELB": {
                "$type": "OGGEHAJAGHJ",
                "shieldHP": "Eff_Monster_Apep_Underling_SeedOfAshura_Swallow_TargetSuccess"
            }
        }
    },
    "Apep_Underling_SummonPos": {
        "$type": "AAMHONAFMEC",
        "common": {
            "effectAttachShape": {
                "$type": "FPGDAMEDKLC"
            }
        },
        "combat": {
            "property": {
                "useCreatorProperty": true,
                "HP": 999999.0,
                "attack": 10.0,
                "defense": 999999.0,
                "isInvincible": true,
                "isGhostToAllied": true,
                "isGhostToEnemy": true
            },
            "beHit": {
                "hitBloodEffect": "",
                "GBDHDFFOBPO": true,
                "HNPPKGPHAKM": true,
                "muteAllHitText": true
            },
            "combatLock": {
                "lockShape": "CircleLockEnemy",
                "denyLockOn": true,
                "lockType": "Default"
            }
        },
        "combatTemplate": "",
        "AHCOGNAHOOF": {
            "ELIEJDIFIJE": 5.0
        }
    },
    "Apep_Underling_SeedOfShiva_Explode": {
        "$type": "AAMHONAFMEC",
        "common": {
            "effectAttachShape": {
                "$type": "FPGDAMEDKLC"
            }
        },
        "combat": {
            "property": {
                "useCreatorProperty": true,
                "HP": 999999.0,
                "attack": 10.0,
                "defense": 999999.0,
                "isInvincible": true,
                "isGhostToAllied": true,
                "isGhostToEnemy": true
            },
            "beHit": {
                "hitBloodEffect": "",
                "GBDHDFFOBPO": true,
                "HNPPKGPHAKM": true,
                "muteAllHitText": true
            },
            "combatLock": {
                "lockShape": "CircleLockEnemy",
                "denyLockOn": true,
                "lockType": "Default"
            }
        },
        "combatTemplate": "",
        "abilities": [
            {
                "abilityID": "",
                "abilityName": "Apep_Underling_SeedOfShiva_SelfExplosion",
                "abilityOverride": ""
            }
        ],
        "AHCOGNAHOOF": {
            "ELIEJDIFIJE": 2.0
        }
    },
    "Apep_Underling_SeedOfShiva_Die": {
        "$type": "AAMHONAFMEC",
        "common": {
            "effectAttachShape": {
                "$type": "FPGDAMEDKLC"
            }
        },
        "combat": {
            "property": {
                "useCreatorProperty": true,
                "HP": 999999.0,
                "attack": 10.0,
                "defense": 999999.0,
                "isInvincible": true,
                "isGhostToEnemy": true
            },
            "beHit": {
                "hitBloodEffect": "",
                "GBDHDFFOBPO": true,
                "HNPPKGPHAKM": true,
                "muteAllHitText": true
            },
            "combatLock": {
                "lockShape": "CircleLockEnemy",
                "denyLockOn": true,
                "lockType": "Default"
            }
        },
        "combatTemplate": "",
        "abilities": [
            {
                "abilityID": "",
                "abilityName": "Apep_Underling_SeedOfShiva_Die",
                "abilityOverride": ""
            }
        ],
        "AHCOGNAHOOF": {
            "ELIEJDIFIJE": 2.0
        }
    },
    "Apep_Underling_SeedOfBrahma_RemoveShield": {
        "$type": "AAMHONAFMEC",
        "common": {
            "effectAttachShape": {
                "$type": "FPGDAMEDKLC"
            }
        },
        "combat": {
            "property": {
                "useCreatorProperty": true,
                "HP": 999999.0,
                "attack": 10.0,
                "defense": 999999.0,
                "isInvincible": true,
                "isGhostToAllied": true,
                "isGhostToEnemy": true
            },
            "beHit": {
                "hitBloodEffect": "",
                "GBDHDFFOBPO": true,
                "HNPPKGPHAKM": true,
                "muteAllHitText": true
            },
            "combatLock": {
                "lockShape": "CircleLockEnemy",
                "denyLockOn": true,
                "lockType": "Default"
            }
        },
        "combatTemplate": "",
        "abilities": [
            {
                "abilityID": "",
                "abilityName": "Apep_Underling_SeedOfBrahma_RemoveShield",
                "abilityOverride": ""
            }
        ],
        "AHCOGNAHOOF": {
            "ELIEJDIFIJE": 1.0
        }
    },
    "Apep_Underling_ReviveEnergy": {
        "$type": "AAMHONAFMEC",
        "common": {
            "effectAttachShape": {
                "$type": "FPGDAMEDKLC"
            }
        },
        "combat": {
            "property": {
                "useCreatorProperty": true,
                "HP": 999999.0,
                "attack": 10.0,
                "defense": 999999.0,
                "isInvincible": true,
                "isGhostToEnemy": true
            },
            "beHit": {
                "hitBloodEffect": "",
                "GBDHDFFOBPO": true,
                "HNPPKGPHAKM": true,
                "muteAllHitText": true
            },
            "combatLock": {
                "lockShape": "CircleLockEnemy",
                "denyLockOn": true,
                "lockType": "Default"
            }
        },
        "combatTemplate": "",
        "abilities": [
            {
                "abilityID": "",
                "abilityName": "Apep_Underling_ReviveEnergy",
                "abilityOverride": ""
            }
        ],
        "AHCOGNAHOOF": {
            "ELIEJDIFIJE": 1.0
        }
    }
}