{
  "14dd5b0e-a7c0-4521-83fc-1922cefc471b": {
    "HLGGFCENLPA": "14dd5b0e-a7c0-4521-83fc-1922cefc471b",
    "MKHDAJHOOJF": 1.0,
    "BEHKGKMMAPD": "Dialog",
    "FFDHLEAFBLM": 140171008,
    "LFIFIPFFFKO": 2,
    "MCKHLBHHEDL": "bda35243-4239-44bc-aff5-ced21ca541a8",
    "EIKJKDICKMJ": [
      {
        "HLGOMILNFNK": "VO_LQ\\VO_navia\\vo_NVLQ003_7_navia_05.wem",
        "EJNOJBCBJPP": 1.0,
        "KAGFOFEDGIA": "",
        "NNBGHAJLJLA": ""
      }
    ]
  },
  "1e92eaf3-8459-4b19-a8a5-e2592f8a0916": {
    "HLGGFCENLPA": "1e92eaf3-8459-4b19-a8a5-e2592f8a0916",
    "MKHDAJHOOJF": 1.0,
    "BEHKGKMMAPD": "Dialog",
    "FFDHLEAFBLM": 140171003,
    "LFIFIPFFFKO": 2,
    "MCKHLBHHEDL": "bda35243-4239-44bc-aff5-ced21ca541a8",
    "EIKJKDICKMJ": [
      {
        "HLGOMILNFNK": "VO_LQ\\VO_npc\\vo_NVLQ003_7_florent_02.wem",
        "EJNOJBCBJPP": 1.0,
        "KAGFOFEDGIA": "",
        "NNBGHAJLJLA": ""
      }
    ]
  },
  "26749913-c2d6-44cc-9c0e-af4927b1bda4": {
    "HLGGFCENLPA": "26749913-c2d6-44cc-9c0e-af4927b1bda4",
    "MKHDAJHOOJF": 1.0,
    "BEHKGKMMAPD": "Dialog",
    "FFDHLEAFBLM": 140171020,
    "LFIFIPFFFKO": 2,
    "MCKHLBHHEDL": "bda35243-4239-44bc-aff5-ced21ca541a8",
    "EIKJKDICKMJ": [
      {
        "HLGOMILNFNK": "VO_LQ\\VO_paimon\\vo_NVLQ003_7_paimon_02a.wem",
        "EJNOJBCBJPP": 1.0,
        "KAGFOFEDGIA": "",
        "NNBGHAJLJLA": "",
        "BBKIPNLMMCL": 2
      },
      {
        "HLGOMILNFNK": "VO_LQ\\VO_paimon\\vo_NVLQ003_7_paimon_02b.wem",
        "EJNOJBCBJPP": 1.0,
        "KAGFOFEDGIA": "",
        "NNBGHAJLJLA": "",
        "BBKIPNLMMCL": 1
      }
    ]
  },
  "3de24d40-f78f-4604-b0cb-a254a064104a": {
    "HLGGFCENLPA": "3de24d40-f78f-4604-b0cb-a254a064104a",
    "MKHDAJHOOJF": 1.0,
    "BEHKGKMMAPD": "Dialog",
    "FFDHLEAFBLM": 140171013,
    "LFIFIPFFFKO": 2,
    "MCKHLBHHEDL": "bda35243-4239-44bc-aff5-ced21ca541a8",
    "EIKJKDICKMJ": [
      {
        "HLGOMILNFNK": "VO_LQ\\VO_npc\\vo_NVLQ003_7_yvette_01.wem",
        "EJNOJBCBJPP": 1.0,
        "KAGFOFEDGIA": "",
        "NNBGHAJLJLA": ""
      }
    ]
  },
  "4214e304-f7aa-43e1-9a6b-8f2a4cb205bb": {
    "HLGGFCENLPA": "4214e304-f7aa-43e1-9a6b-8f2a4cb205bb",
    "MKHDAJHOOJF": 1.0,
    "BEHKGKMMAPD": "Dialog",
    "FFDHLEAFBLM": 140171010,
    "LFIFIPFFFKO": 2,
    "MCKHLBHHEDL": "bda35243-4239-44bc-aff5-ced21ca541a8",
    "EIKJKDICKMJ": [
      {
        "HLGOMILNFNK": "VO_LQ\\VO_paimon\\vo_NVLQ003_7_paimon_01.wem",
        "EJNOJBCBJPP": 1.0,
        "KAGFOFEDGIA": "",
        "NNBGHAJLJLA": ""
      }
    ]
  },
  "4d4ca650-97f9-4526-8fed-fb789da90c89": {
    "HLGGFCENLPA": "4d4ca650-97f9-4526-8fed-fb789da90c89",
    "MKHDAJHOOJF": 1.0,
    "BEHKGKMMAPD": "Dialog",
    "FFDHLEAFBLM": 140171026,
    "LFIFIPFFFKO": 2,
    "MCKHLBHHEDL": "bda35243-4239-44bc-aff5-ced21ca541a8",
    "EIKJKDICKMJ": [
      {
        "HLGOMILNFNK": "VO_LQ\\VO_npc\\vo_NVLQ003_7_Clementine_01.wem",
        "EJNOJBCBJPP": 1.0,
        "KAGFOFEDGIA": "",
        "NNBGHAJLJLA": ""
      }
    ]
  },
  "5c410472-cab3-4205-9f73-28af3e256811": {
    "HLGGFCENLPA": "5c410472-cab3-4205-9f73-28af3e256811",
    "MKHDAJHOOJF": 1.0,
    "BEHKGKMMAPD": "Dialog",
    "FFDHLEAFBLM": 140171016,
    "LFIFIPFFFKO": 2,
    "MCKHLBHHEDL": "bda35243-4239-44bc-aff5-ced21ca541a8",
    "EIKJKDICKMJ": [
      {
        "HLGOMILNFNK": "VO_LQ\\VO_npc\\vo_NVLQ003_7_adele_01.wem",
        "EJNOJBCBJPP": 1.0,
        "KAGFOFEDGIA": "",
        "NNBGHAJLJLA": ""
      }
    ]
  },
  "612ec498-7ba0-4041-ad73-74df86eac361": {
    "HLGGFCENLPA": "612ec498-7ba0-4041-ad73-74df86eac361",
    "MKHDAJHOOJF": 1.0,
    "BEHKGKMMAPD": "Dialog",
    "FFDHLEAFBLM": 140171007,
    "LFIFIPFFFKO": 2,
    "MCKHLBHHEDL": "bda35243-4239-44bc-aff5-ced21ca541a8",
    "EIKJKDICKMJ": [
      {
        "HLGOMILNFNK": "VO_LQ\\VO_navia\\vo_NVLQ003_7_navia_04.wem",
        "EJNOJBCBJPP": 1.0,
        "KAGFOFEDGIA": "",
        "NNBGHAJLJLA": ""
      }
    ]
  },
  "6169388a-d463-4bc4-85f0-c9825bd30845": {
    "HLGGFCENLPA": "6169388a-d463-4bc4-85f0-c9825bd30845",
    "MKHDAJHOOJF": 1.0,
    "BEHKGKMMAPD": "Dialog",
    "FFDHLEAFBLM": 140171017,
    "LFIFIPFFFKO": 2,
    "MCKHLBHHEDL": "bda35243-4239-44bc-aff5-ced21ca541a8",
    "EIKJKDICKMJ": [
      {
        "HLGOMILNFNK": "VO_LQ\\VO_npc\\vo_NVLQ003_7_coralie_01.wem",
        "EJNOJBCBJPP": 1.0,
        "KAGFOFEDGIA": "",
        "NNBGHAJLJLA": ""
      }
    ]
  },
  "69171924-4416-4864-bc1c-1f70700a2358": {
    "HLGGFCENLPA": "69171924-4416-4864-bc1c-1f70700a2358",
    "MKHDAJHOOJF": 1.0,
    "BEHKGKMMAPD": "Dialog",
    "FFDHLEAFBLM": 140171001,
    "LFIFIPFFFKO": 2,
    "MCKHLBHHEDL": "bda35243-4239-44bc-aff5-ced21ca541a8",
    "EIKJKDICKMJ": [
      {
        "HLGOMILNFNK": "VO_LQ\\VO_navia\\vo_NVLQ003_7_navia_01.wem",
        "EJNOJBCBJPP": 1.0,
        "KAGFOFEDGIA": "",
        "NNBGHAJLJLA": ""
      }
    ]
  },
  "77d6d7e1-b9d0-4780-bf24-24a285a18ec6": {
    "HLGGFCENLPA": "77d6d7e1-b9d0-4780-bf24-24a285a18ec6",
    "MKHDAJHOOJF": 1.0,
    "BEHKGKMMAPD": "Dialog",
    "FFDHLEAFBLM": 140171011,
    "LFIFIPFFFKO": 2,
    "MCKHLBHHEDL": "bda35243-4239-44bc-aff5-ced21ca541a8",
    "EIKJKDICKMJ": [
      {
        "HLGOMILNFNK": "VO_LQ\\VO_npc\\vo_NVLQ003_7_florent_05.wem",
        "EJNOJBCBJPP": 1.0,
        "KAGFOFEDGIA": "",
        "NNBGHAJLJLA": ""
      }
    ]
  },
  "7b40384a-25ea-4137-8810-4dde6a181c10": {
    "HLGGFCENLPA": "7b40384a-25ea-4137-8810-4dde6a181c10",
    "MKHDAJHOOJF": 1.0,
    "BEHKGKMMAPD": "Dialog",
    "FFDHLEAFBLM": 140171009,
    "LFIFIPFFFKO": 2,
    "MCKHLBHHEDL": "bda35243-4239-44bc-aff5-ced21ca541a8",
    "EIKJKDICKMJ": [
      {
        "HLGOMILNFNK": "VO_LQ\\VO_npc\\vo_NVLQ003_7_florent_04.wem",
        "EJNOJBCBJPP": 1.0,
        "KAGFOFEDGIA": "",
        "NNBGHAJLJLA": ""
      }
    ]
  },
  "7e6b78f8-ec69-4c60-b672-9d78a8865a5e": {
    "HLGGFCENLPA": "7e6b78f8-ec69-4c60-b672-9d78a8865a5e",
    "MKHDAJHOOJF": 1.0,
    "BEHKGKMMAPD": "Dialog",
    "FFDHLEAFBLM": 140171015,
    "LFIFIPFFFKO": 2,
    "MCKHLBHHEDL": "bda35243-4239-44bc-aff5-ced21ca541a8",
    "EIKJKDICKMJ": [
      {
        "HLGOMILNFNK": "VO_LQ\\VO_npc\\vo_NVLQ003_7_archenoul_01.wem",
        "EJNOJBCBJPP": 1.0,
        "KAGFOFEDGIA": "",
        "NNBGHAJLJLA": ""
      }
    ]
  },
  "8846269f-9943-4be1-88d3-3a2793fb4b0b": {
    "HLGGFCENLPA": "8846269f-9943-4be1-88d3-3a2793fb4b0b",
    "MKHDAJHOOJF": 1.0,
    "BEHKGKMMAPD": "Dialog",
    "FFDHLEAFBLM": 140171023,
    "LFIFIPFFFKO": 2,
    "MCKHLBHHEDL": "bda35243-4239-44bc-aff5-ced21ca541a8",
    "EIKJKDICKMJ": [
      {
        "HLGOMILNFNK": "VO_LQ\\VO_navia\\vo_NVLQ003_7_navia_07.wem",
        "EJNOJBCBJPP": 1.0,
        "KAGFOFEDGIA": "",
        "NNBGHAJLJLA": ""
      }
    ]
  },
  "88bbdb3e-1df6-48a5-a894-e259d44fd7e6": {
    "HLGGFCENLPA": "88bbdb3e-1df6-48a5-a894-e259d44fd7e6",
    "MKHDAJHOOJF": 1.0,
    "BEHKGKMMAPD": "Dialog",
    "FFDHLEAFBLM": 140171024,
    "LFIFIPFFFKO": 2,
    "MCKHLBHHEDL": "bda35243-4239-44bc-aff5-ced21ca541a8",
    "EIKJKDICKMJ": [
      {
        "HLGOMILNFNK": "VO_LQ\\VO_navia\\vo_NVLQ003_7_navia_08.wem",
        "EJNOJBCBJPP": 1.0,
        "KAGFOFEDGIA": "",
        "NNBGHAJLJLA": ""
      }
    ]
  },
  "91ab5898-695b-40e7-a16c-66e7f798487c": {
    "HLGGFCENLPA": "91ab5898-695b-40e7-a16c-66e7f798487c",
    "MKHDAJHOOJF": 1.0,
    "BEHKGKMMAPD": "Dialog",
    "FFDHLEAFBLM": 140171025,
    "LFIFIPFFFKO": 2,
    "MCKHLBHHEDL": "bda35243-4239-44bc-aff5-ced21ca541a8",
    "EIKJKDICKMJ": [
      {
        "HLGOMILNFNK": "VO_LQ\\VO_npc\\vo_NVLQ003_7_Callas_01.wem",
        "EJNOJBCBJPP": 1.0,
        "KAGFOFEDGIA": "",
        "NNBGHAJLJLA": ""
      }
    ]
  },
  "97556604-3712-45c2-a813-be2bfc19a87d": {
    "HLGGFCENLPA": "97556604-3712-45c2-a813-be2bfc19a87d",
    "MKHDAJHOOJF": 1.0,
    "BEHKGKMMAPD": "Dialog",
    "FFDHLEAFBLM": 140171012,
    "LFIFIPFFFKO": 2,
    "MCKHLBHHEDL": "bda35243-4239-44bc-aff5-ced21ca541a8",
    "EIKJKDICKMJ": [
      {
        "HLGOMILNFNK": "VO_LQ\\VO_npc\\vo_NVLQ003_7_florent_06.wem",
        "EJNOJBCBJPP": 1.0,
        "KAGFOFEDGIA": "",
        "NNBGHAJLJLA": ""
      }
    ]
  },
  "9935e8f5-c65f-4ed6-ae26-03580d761ebf": {
    "HLGGFCENLPA": "9935e8f5-c65f-4ed6-ae26-03580d761ebf",
    "MKHDAJHOOJF": 1.0,
    "BEHKGKMMAPD": "Dialog",
    "FFDHLEAFBLM": 140171004,
    "LFIFIPFFFKO": 2,
    "MCKHLBHHEDL": "bda35243-4239-44bc-aff5-ced21ca541a8",
    "EIKJKDICKMJ": [
      {
        "HLGOMILNFNK": "VO_LQ\\VO_navia\\vo_NVLQ003_7_navia_02.wem",
        "EJNOJBCBJPP": 1.0,
        "KAGFOFEDGIA": "",
        "NNBGHAJLJLA": ""
      }
    ]
  },
  "9a6bd3cf-54c3-4b61-8486-0701305b04f5": {
    "HLGGFCENLPA": "9a6bd3cf-54c3-4b61-8486-0701305b04f5",
    "MKHDAJHOOJF": 1.0,
    "BEHKGKMMAPD": "Dialog",
    "FFDHLEAFBLM": 140171005,
    "LFIFIPFFFKO": 2,
    "MCKHLBHHEDL": "bda35243-4239-44bc-aff5-ced21ca541a8",
    "EIKJKDICKMJ": [
      {
        "HLGOMILNFNK": "VO_LQ\\VO_npc\\vo_NVLQ003_7_florent_03.wem",
        "EJNOJBCBJPP": 1.0,
        "KAGFOFEDGIA": "",
        "NNBGHAJLJLA": ""
      }
    ]
  },
  "9e9458c8-5baf-425b-95cc-ebff26b2fb7b": {
    "HLGGFCENLPA": "9e9458c8-5baf-425b-95cc-ebff26b2fb7b",
    "MKHDAJHOOJF": 1.0,
    "BEHKGKMMAPD": "Dialog",
    "FFDHLEAFBLM": 140171002,
    "LFIFIPFFFKO": 2,
    "MCKHLBHHEDL": "bda35243-4239-44bc-aff5-ced21ca541a8",
    "EIKJKDICKMJ": [
      {
        "HLGOMILNFNK": "VO_LQ\\VO_npc\\vo_NVLQ003_7_florent_01.wem",
        "EJNOJBCBJPP": 1.0,
        "KAGFOFEDGIA": "",
        "NNBGHAJLJLA": ""
      }
    ]
  },
  "b659a793-e51e-4d3b-8534-dc548872e8b2": {
    "HLGGFCENLPA": "b659a793-e51e-4d3b-8534-dc548872e8b2",
    "MKHDAJHOOJF": 1.0,
    "BEHKGKMMAPD": "Dialog",
    "FFDHLEAFBLM": 140171022,
    "LFIFIPFFFKO": 2,
    "MCKHLBHHEDL": "bda35243-4239-44bc-aff5-ced21ca541a8",
    "EIKJKDICKMJ": [
      {
        "HLGOMILNFNK": "VO_LQ\\VO_navia\\vo_NVLQ003_7_navia_06.wem",
        "EJNOJBCBJPP": 1.0,
        "KAGFOFEDGIA": "",
        "NNBGHAJLJLA": ""
      }
    ]
  },
  "c09d15a0-7cba-49d4-94f6-2844b716212c": {
    "HLGGFCENLPA": "c09d15a0-7cba-49d4-94f6-2844b716212c",
    "MKHDAJHOOJF": 1.0,
    "BEHKGKMMAPD": "Dialog",
    "FFDHLEAFBLM": 140171018,
    "LFIFIPFFFKO": 2,
    "MCKHLBHHEDL": "bda35243-4239-44bc-aff5-ced21ca541a8",
    "EIKJKDICKMJ": [
      {
        "HLGOMILNFNK": "VO_LQ\\VO_npc\\vo_NVLQ003_7_florent_07.wem",
        "EJNOJBCBJPP": 1.0,
        "KAGFOFEDGIA": "",
        "NNBGHAJLJLA": ""
      }
    ]
  },
  "e2d0f823-51de-42b4-8384-89ca7271a4fc": {
    "HLGGFCENLPA": "e2d0f823-51de-42b4-8384-89ca7271a4fc",
    "MKHDAJHOOJF": 1.0,
    "BEHKGKMMAPD": "Dialog",
    "FFDHLEAFBLM": 140171014,
    "LFIFIPFFFKO": 2,
    "MCKHLBHHEDL": "bda35243-4239-44bc-aff5-ced21ca541a8",
    "EIKJKDICKMJ": [
      {
        "HLGOMILNFNK": "VO_LQ\\VO_npc\\vo_NVLQ003_7_sandino_01.wem",
        "EJNOJBCBJPP": 1.0,
        "KAGFOFEDGIA": "",
        "NNBGHAJLJLA": ""
      }
    ]
  },
  "e7932c7e-8d9e-4a35-b11b-e00cfc8420a7": {
    "HLGGFCENLPA": "e7932c7e-8d9e-4a35-b11b-e00cfc8420a7",
    "MKHDAJHOOJF": 1.0,
    "BEHKGKMMAPD": "Dialog",
    "FFDHLEAFBLM": 140171019,
    "LFIFIPFFFKO": 2,
    "MCKHLBHHEDL": "bda35243-4239-44bc-aff5-ced21ca541a8",
    "EIKJKDICKMJ": [
      {
        "HLGOMILNFNK": "VO_LQ\\VO_npc\\vo_NVLQ003_7_florent_08.wem",
        "EJNOJBCBJPP": 1.0,
        "KAGFOFEDGIA": "",
        "NNBGHAJLJLA": ""
      }
    ]
  },
  "fb281e16-4f1e-43b1-a1d6-3d8dbb0a1572": {
    "HLGGFCENLPA": "fb281e16-4f1e-43b1-a1d6-3d8dbb0a1572",
    "MKHDAJHOOJF": 1.0,
    "BEHKGKMMAPD": "Dialog",
    "FFDHLEAFBLM": 140171006,
    "LFIFIPFFFKO": 2,
    "MCKHLBHHEDL": "bda35243-4239-44bc-aff5-ced21ca541a8",
    "EIKJKDICKMJ": [
      {
        "HLGOMILNFNK": "VO_LQ\\VO_navia\\vo_NVLQ003_7_navia_03.wem",
        "EJNOJBCBJPP": 1.0,
        "KAGFOFEDGIA": "",
        "NNBGHAJLJLA": ""
      }
    ]
  }
}