{
    "366261e1-37ef-4cca-8e70-bebafb8d465b": {
        "Guid": "366261e1-37ef-4cca-8e70-bebafb8d465b",
        "playRate": 1.0,
        "GameTrigger": "Dialog",
        "gameTriggerArgs": 191520103,
        "personalConfig": 2,
        "ParentID": "a2e7c930-282e-46d5-a856-2e0672d5e198",
        "SourceNames": [
            {
                "sourceFileName": "VO_COOP\\VO_npc\\vo_LYLCOP001_1915201_katayoun_02.wem",
                "rate": 1.0,
                "avatarName": "",
                "emotion": ""
            }
        ]
    },
    "4f78f12a-0bda-4667-a702-b1725538684e": {
        "Guid": "4f78f12a-0bda-4667-a702-b1725538684e",
        "playRate": 1.0,
        "GameTrigger": "Dialog",
        "gameTriggerArgs": 191520114,
        "personalConfig": 2,
        "ParentID": "a2e7c930-282e-46d5-a856-2e0672d5e198",
        "SourceNames": [
            {
                "sourceFileName": "VO_COOP\\VO_layla\\vo_LYLCOP001_1915201_layla_05.wem",
                "rate": 1.0,
                "avatarName": "",
                "emotion": ""
            }
        ]
    },
    "5326c00b-8702-4ff9-9585-c6533b497afc": {
        "Guid": "5326c00b-8702-4ff9-9585-c6533b497afc",
        "playRate": 1.0,
        "GameTrigger": "Dialog",
        "gameTriggerArgs": 191520106,
        "personalConfig": 2,
        "ParentID": "a2e7c930-282e-46d5-a856-2e0672d5e198",
        "SourceNames": [
            {
                "sourceFileName": "VO_COOP\\VO_npc\\vo_LYLCOP001_1915201_katayoun_04.wem",
                "rate": 1.0,
                "avatarName": "",
                "emotion": ""
            }
        ]
    },
    "54163ff9-ebd1-459d-9c48-5e5dd39c55b7": {
        "Guid": "54163ff9-ebd1-459d-9c48-5e5dd39c55b7",
        "playRate": 1.0,
        "GameTrigger": "Dialog",
        "gameTriggerArgs": 191529901,
        "personalConfig": 2,
        "GIFECDGOOPJ": 1,
        "IsPlayOnTeam": true,
        "ParentID": "a2e7c930-282e-46d5-a856-2e0672d5e198",
        "SourceNames": [
            {
                "sourceFileName": "VO_COOP\\VO_npc\\vo_LYLCOP001_1915201_katayoun_11.wem",
                "rate": 1.0,
                "avatarName": "",
                "emotion": ""
            }
        ]
    },
    "55297ab0-0f50-4454-b8f9-620a2badb007": {
        "Guid": "55297ab0-0f50-4454-b8f9-620a2badb007",
        "playRate": 1.0,
        "GameTrigger": "Dialog",
        "gameTriggerArgs": 191529902,
        "personalConfig": 2,
        "GIFECDGOOPJ": 1,
        "IsPlayOnTeam": true,
        "ParentID": "a2e7c930-282e-46d5-a856-2e0672d5e198",
        "SourceNames": [
            {
                "sourceFileName": "VO_COOP\\VO_npc\\vo_LYLCOP001_1915201_katayoun_12.wem",
                "rate": 1.0,
                "avatarName": "",
                "emotion": ""
            }
        ]
    },
    "552a0876-05a5-4d01-afc3-990a6c926acd": {
        "Guid": "552a0876-05a5-4d01-afc3-990a6c926acd",
        "playRate": 1.0,
        "GameTrigger": "Dialog",
        "gameTriggerArgs": 191520108,
        "personalConfig": 2,
        "ParentID": "a2e7c930-282e-46d5-a856-2e0672d5e198",
        "SourceNames": [
            {
                "sourceFileName": "VO_COOP\\VO_layla\\vo_LYLCOP001_1915201_layla_03.wem",
                "rate": 1.0,
                "avatarName": "",
                "emotion": ""
            }
        ]
    },
    "5955cdf6-6c4a-4bcd-8399-40b30725e82d": {
        "Guid": "5955cdf6-6c4a-4bcd-8399-40b30725e82d",
        "playRate": 1.0,
        "GameTrigger": "Dialog",
        "gameTriggerArgs": 191520105,
        "personalConfig": 2,
        "ParentID": "a2e7c930-282e-46d5-a856-2e0672d5e198",
        "SourceNames": [
            {
                "sourceFileName": "VO_COOP\\VO_npc\\vo_LYLCOP001_1915201_katayoun_03.wem",
                "rate": 1.0,
                "avatarName": "",
                "emotion": ""
            }
        ]
    },
    "75bcbd87-21f4-49fc-b86b-4d4bb056dfbd": {
        "Guid": "75bcbd87-21f4-49fc-b86b-4d4bb056dfbd",
        "playRate": 1.0,
        "GameTrigger": "Dialog",
        "gameTriggerArgs": 191520104,
        "personalConfig": 2,
        "ParentID": "a2e7c930-282e-46d5-a856-2e0672d5e198",
        "SourceNames": [
            {
                "sourceFileName": "VO_COOP\\VO_layla\\vo_LYLCOP001_1915201_layla_02.wem",
                "rate": 1.0,
                "avatarName": "",
                "emotion": ""
            }
        ]
    },
    "9bf28dde-f535-423a-ba1a-ec42ee8d3c39": {
        "Guid": "9bf28dde-f535-423a-ba1a-ec42ee8d3c39",
        "playRate": 1.0,
        "GameTrigger": "Dialog",
        "gameTriggerArgs": 191520110,
        "personalConfig": 2,
        "ParentID": "a2e7c930-282e-46d5-a856-2e0672d5e198",
        "SourceNames": [
            {
                "sourceFileName": "VO_COOP\\VO_npc\\vo_LYLCOP001_1915201_katayoun_07.wem",
                "rate": 1.0,
                "avatarName": "",
                "emotion": ""
            }
        ]
    },
    "9bf30679-fc50-4f8a-819d-a8ab9ef4321b": {
        "Guid": "9bf30679-fc50-4f8a-819d-a8ab9ef4321b",
        "playRate": 1.0,
        "GameTrigger": "Dialog",
        "gameTriggerArgs": 191520107,
        "personalConfig": 2,
        "ParentID": "a2e7c930-282e-46d5-a856-2e0672d5e198",
        "SourceNames": [
            {
                "sourceFileName": "VO_COOP\\VO_npc\\vo_LYLCOP001_1915201_katayoun_05.wem",
                "rate": 1.0,
                "avatarName": "",
                "emotion": ""
            }
        ]
    },
    "bd424410-8286-4cbd-8fd7-7af3dbc6e1e9": {
        "Guid": "bd424410-8286-4cbd-8fd7-7af3dbc6e1e9",
        "playRate": 1.0,
        "GameTrigger": "Dialog",
        "gameTriggerArgs": 191520109,
        "personalConfig": 2,
        "ParentID": "a2e7c930-282e-46d5-a856-2e0672d5e198",
        "SourceNames": [
            {
                "sourceFileName": "VO_COOP\\VO_npc\\vo_LYLCOP001_1915201_katayoun_06.wem",
                "rate": 1.0,
                "avatarName": "",
                "emotion": ""
            }
        ]
    },
    "c5f3bc74-1513-43d7-b2e6-669eb24f324c": {
        "Guid": "c5f3bc74-1513-43d7-b2e6-669eb24f324c",
        "playRate": 1.0,
        "GameTrigger": "Dialog",
        "gameTriggerArgs": 191520111,
        "personalConfig": 2,
        "ParentID": "a2e7c930-282e-46d5-a856-2e0672d5e198",
        "SourceNames": [
            {
                "sourceFileName": "VO_COOP\\VO_npc\\vo_LYLCOP001_1915201_katayoun_08.wem",
                "rate": 1.0,
                "avatarName": "",
                "emotion": ""
            }
        ]
    },
    "d97204d5-bade-46b3-a965-2a2e611da4cd": {
        "Guid": "d97204d5-bade-46b3-a965-2a2e611da4cd",
        "playRate": 1.0,
        "GameTrigger": "Dialog",
        "gameTriggerArgs": 191520102,
        "personalConfig": 2,
        "ParentID": "a2e7c930-282e-46d5-a856-2e0672d5e198",
        "SourceNames": [
            {
                "sourceFileName": "VO_COOP\\VO_layla\\vo_LYLCOP001_1915201_layla_01.wem",
                "rate": 1.0,
                "avatarName": "",
                "emotion": ""
            }
        ]
    },
    "e1da2838-1139-4220-bbfd-5e001b5d3870": {
        "Guid": "e1da2838-1139-4220-bbfd-5e001b5d3870",
        "playRate": 1.0,
        "GameTrigger": "Dialog",
        "gameTriggerArgs": 191520101,
        "personalConfig": 2,
        "ParentID": "a2e7c930-282e-46d5-a856-2e0672d5e198",
        "SourceNames": [
            {
                "sourceFileName": "VO_COOP\\VO_npc\\vo_LYLCOP001_1915201_katayoun_01.wem",
                "rate": 1.0,
                "avatarName": "",
                "emotion": ""
            }
        ]
    },
    "f2cc2499-6d38-4983-979b-4fd2e8d9af2d": {
        "Guid": "f2cc2499-6d38-4983-979b-4fd2e8d9af2d",
        "playRate": 1.0,
        "GameTrigger": "Dialog",
        "gameTriggerArgs": 191520501,
        "personalConfig": 2,
        "ParentID": "a2e7c930-282e-46d5-a856-2e0672d5e198",
        "SourceNames": [
            {
                "sourceFileName": "VO_COOP\\VO_npc\\vo_LYLCOP001_1915201_katayoun_10.wem",
                "rate": 1.0,
                "avatarName": "",
                "emotion": ""
            }
        ]
    },
    "fb7fab7f-d5e3-4c0a-8f7b-326335334e95": {
        "Guid": "fb7fab7f-d5e3-4c0a-8f7b-326335334e95",
        "playRate": 1.0,
        "GameTrigger": "Dialog",
        "gameTriggerArgs": 191520112,
        "personalConfig": 2,
        "ParentID": "a2e7c930-282e-46d5-a856-2e0672d5e198",
        "SourceNames": [
            {
                "sourceFileName": "VO_COOP\\VO_npc\\vo_LYLCOP001_1915201_katayoun_09.wem",
                "rate": 1.0,
                "avatarName": "",
                "emotion": ""
            }
        ]
    },
    "fd5e5f33-91ca-4439-9f38-f9c78444b17b": {
        "Guid": "fd5e5f33-91ca-4439-9f38-f9c78444b17b",
        "playRate": 1.0,
        "GameTrigger": "Dialog",
        "gameTriggerArgs": 191520113,
        "personalConfig": 2,
        "ParentID": "a2e7c930-282e-46d5-a856-2e0672d5e198",
        "SourceNames": [
            {
                "sourceFileName": "VO_COOP\\VO_layla\\vo_LYLCOP001_1915201_layla_04.wem",
                "rate": 1.0,
                "avatarName": "",
                "emotion": ""
            }
        ]
    }
}