{
    "01467a3f-9832-407b-bdf7-e86dbb61174c": {
        "Guid": "01467a3f-9832-407b-bdf7-e86dbb61174c",
        "playRate": 1.0,
        "GameTrigger": "Dialog",
        "gameTriggerArgs": 401151455,
        "personalConfig": 2,
        "ParentID": "f3535664-50dc-4abf-adc3-14ffd5a9ce0c",
        "SourceNames": [
            {
                "sourceFileName": "VO_EQ\\VO_NPC\\vo_YQEQ204_6_maymom_10.wem",
                "rate": 1.0,
                "avatarName": "",
                "emotion": ""
            }
        ]
    },
    "01e60bbd-a3bb-42ab-99b5-a4ad5e996775": {
        "Guid": "01e60bbd-a3bb-42ab-99b5-a4ad5e996775",
        "playRate": 1.0,
        "GameTrigger": "Dialog",
        "gameTriggerArgs": 401151421,
        "personalConfig": 2,
        "ParentID": "f3535664-50dc-4abf-adc3-14ffd5a9ce0c",
        "SourceNames": [
            {
                "sourceFileName": "VO_EQ\\VO_NPC\\vo_YQEQ204_6_lessig_08.wem",
                "rate": 1.0,
                "avatarName": "",
                "emotion": ""
            }
        ]
    },
    "0da978e8-421a-46c7-a901-ccd924996eae": {
        "Guid": "0da978e8-421a-46c7-a901-ccd924996eae",
        "playRate": 1.0,
        "GameTrigger": "Dialog",
        "gameTriggerArgs": 401151436,
        "personalConfig": 2,
        "ParentID": "f3535664-50dc-4abf-adc3-14ffd5a9ce0c",
        "SourceNames": [
            {
                "sourceFileName": "VO_EQ\\VO_eula\\vo_YQEQ204_6_eula_06.wem",
                "rate": 1.0,
                "avatarName": "",
                "emotion": ""
            }
        ]
    },
    "11ed111e-1c66-498f-8d57-8983686e4585": {
        "Guid": "11ed111e-1c66-498f-8d57-8983686e4585",
        "playRate": 1.0,
        "GameTrigger": "Dialog",
        "gameTriggerArgs": 401151410,
        "personalConfig": 2,
        "ParentID": "f3535664-50dc-4abf-adc3-14ffd5a9ce0c",
        "SourceNames": [
            {
                "sourceFileName": "VO_EQ\\VO_NPC\\vo_YQEQ204_6_lessig_02.wem",
                "rate": 1.0,
                "avatarName": "",
                "emotion": ""
            }
        ]
    },
    "13b6ba58-84a5-4e63-adee-6394ae3d4069": {
        "Guid": "13b6ba58-84a5-4e63-adee-6394ae3d4069",
        "playRate": 1.0,
        "GameTrigger": "Dialog",
        "gameTriggerArgs": 401151404,
        "personalConfig": 2,
        "ParentID": "f3535664-50dc-4abf-adc3-14ffd5a9ce0c",
        "SourceNames": [
            {
                "sourceFileName": "VO_EQ\\VO_collei\\vo_YQEQ204_6_collei_01.wem",
                "rate": 1.0,
                "avatarName": "",
                "emotion": ""
            }
        ]
    },
    "18447671-8dc2-4180-a67d-9b122adafcf7": {
        "Guid": "18447671-8dc2-4180-a67d-9b122adafcf7",
        "playRate": 1.0,
        "GameTrigger": "Dialog",
        "gameTriggerArgs": 401151403,
        "personalConfig": 2,
        "ParentID": "f3535664-50dc-4abf-adc3-14ffd5a9ce0c",
        "SourceNames": [
            {
                "sourceFileName": "VO_EQ\\VO_NPC\\vo_YQEQ204_6_idyia_02.wem",
                "rate": 1.0,
                "avatarName": "",
                "emotion": ""
            }
        ]
    },
    "1bfc7d1d-d91c-43fa-91d6-72c083f4737a": {
        "Guid": "1bfc7d1d-d91c-43fa-91d6-72c083f4737a",
        "playRate": 1.0,
        "GameTrigger": "Dialog",
        "gameTriggerArgs": 401151424,
        "personalConfig": 2,
        "ParentID": "f3535664-50dc-4abf-adc3-14ffd5a9ce0c",
        "SourceNames": [
            {
                "sourceFileName": "VO_EQ\\VO_NPC\\vo_YQEQ204_6_lessig_11.wem",
                "rate": 1.0,
                "avatarName": "",
                "emotion": ""
            }
        ]
    },
    "1d4a075e-186c-4bfb-89c0-af73d4ea7251": {
        "Guid": "1d4a075e-186c-4bfb-89c0-af73d4ea7251",
        "playRate": 1.0,
        "GameTrigger": "Dialog",
        "gameTriggerArgs": 401151429,
        "personalConfig": 2,
        "ParentID": "f3535664-50dc-4abf-adc3-14ffd5a9ce0c",
        "SourceNames": [
            {
                "sourceFileName": "VO_EQ\\VO_eula\\vo_YQEQ204_6_eula_05.wem",
                "rate": 1.0,
                "avatarName": "",
                "emotion": ""
            }
        ]
    },
    "1f250176-31e8-4407-80c6-e7afa5d2bd5f": {
        "Guid": "1f250176-31e8-4407-80c6-e7afa5d2bd5f",
        "playRate": 1.0,
        "GameTrigger": "Dialog",
        "gameTriggerArgs": 401151442,
        "personalConfig": 2,
        "ParentID": "f3535664-50dc-4abf-adc3-14ffd5a9ce0c",
        "SourceNames": [
            {
                "sourceFileName": "VO_EQ\\VO_NPC\\vo_YQEQ204_6_idyia_06.wem",
                "rate": 1.0,
                "avatarName": "",
                "emotion": ""
            }
        ]
    },
    "2edc3db9-e82a-476b-8da4-eb93ab3be399": {
        "Guid": "2edc3db9-e82a-476b-8da4-eb93ab3be399",
        "playRate": 1.0,
        "GameTrigger": "Dialog",
        "gameTriggerArgs": 401151450,
        "personalConfig": 2,
        "ParentID": "f3535664-50dc-4abf-adc3-14ffd5a9ce0c",
        "SourceNames": [
            {
                "sourceFileName": "VO_EQ\\VO_paimon\\vo_YQEQ204_6_paimon_04a_1.wem",
                "rate": 1.0,
                "avatarName": "",
                "emotion": ""
            }
        ]
    },
    "2f485cb4-37b2-4e8b-acb8-ab2cda924147": {
        "Guid": "2f485cb4-37b2-4e8b-acb8-ab2cda924147",
        "playRate": 1.0,
        "GameTrigger": "Dialog",
        "gameTriggerArgs": 401151434,
        "personalConfig": 2,
        "ParentID": "f3535664-50dc-4abf-adc3-14ffd5a9ce0c",
        "SourceNames": [
            {
                "sourceFileName": "VO_EQ\\VO_NPC\\vo_YQEQ204_6_maymom_04.wem",
                "rate": 1.0,
                "avatarName": "",
                "emotion": ""
            }
        ]
    },
    "35effe84-e866-41bc-86bf-588c29b8401a": {
        "Guid": "35effe84-e866-41bc-86bf-588c29b8401a",
        "playRate": 1.0,
        "GameTrigger": "Dialog",
        "gameTriggerArgs": 401151437,
        "personalConfig": 2,
        "ParentID": "f3535664-50dc-4abf-adc3-14ffd5a9ce0c",
        "SourceNames": [
            {
                "sourceFileName": "VO_EQ\\VO_eula\\vo_YQEQ204_6_eula_07.wem",
                "rate": 1.0,
                "avatarName": "",
                "emotion": ""
            }
        ]
    },
    "3b72a251-304f-4a69-a6af-5c1c7238a7ab": {
        "Guid": "3b72a251-304f-4a69-a6af-5c1c7238a7ab",
        "playRate": 1.0,
        "GameTrigger": "Dialog",
        "gameTriggerArgs": 401151407,
        "personalConfig": 2,
        "ParentID": "f3535664-50dc-4abf-adc3-14ffd5a9ce0c",
        "SourceNames": [
            {
                "sourceFileName": "VO_EQ\\VO_NPC\\vo_YQEQ204_6_maymom_01.wem",
                "rate": 1.0,
                "avatarName": "",
                "emotion": ""
            }
        ]
    },
    "3d4ac239-19df-4d24-b5c2-cc52b128a273": {
        "Guid": "3d4ac239-19df-4d24-b5c2-cc52b128a273",
        "playRate": 1.0,
        "GameTrigger": "Dialog",
        "gameTriggerArgs": 401151444,
        "personalConfig": 2,
        "ParentID": "f3535664-50dc-4abf-adc3-14ffd5a9ce0c",
        "SourceNames": [
            {
                "sourceFileName": "VO_EQ\\VO_NPC\\vo_YQEQ204_6_idyia_07.wem",
                "rate": 1.0,
                "avatarName": "",
                "emotion": ""
            }
        ]
    },
    "3e7e7de9-7538-485b-b497-fcc6db226004": {
        "Guid": "3e7e7de9-7538-485b-b497-fcc6db226004",
        "playRate": 1.0,
        "GameTrigger": "Dialog",
        "gameTriggerArgs": 401151453,
        "personalConfig": 2,
        "ParentID": "f3535664-50dc-4abf-adc3-14ffd5a9ce0c",
        "SourceNames": [
            {
                "sourceFileName": "VO_EQ\\VO_NPC\\vo_YQEQ204_6_maymom_08.wem",
                "rate": 1.0,
                "avatarName": "",
                "emotion": ""
            }
        ]
    },
    "3edabd01-de22-49f2-b84e-9aacedefcbce": {
        "Guid": "3edabd01-de22-49f2-b84e-9aacedefcbce",
        "playRate": 1.0,
        "GameTrigger": "Dialog",
        "gameTriggerArgs": 401151435,
        "personalConfig": 2,
        "ParentID": "f3535664-50dc-4abf-adc3-14ffd5a9ce0c",
        "SourceNames": [
            {
                "sourceFileName": "VO_EQ\\VO_NPC\\vo_YQEQ204_6_maymom_05.wem",
                "rate": 1.0,
                "avatarName": "",
                "emotion": ""
            }
        ]
    },
    "43881488-4a84-4172-b8bb-faa2505b8bc9": {
        "Guid": "43881488-4a84-4172-b8bb-faa2505b8bc9",
        "playRate": 1.0,
        "GameTrigger": "Dialog",
        "gameTriggerArgs": 401151419,
        "personalConfig": 2,
        "ParentID": "f3535664-50dc-4abf-adc3-14ffd5a9ce0c",
        "SourceNames": [
            {
                "sourceFileName": "VO_EQ\\VO_NPC\\vo_YQEQ204_6_lessig_06.wem",
                "rate": 1.0,
                "avatarName": "",
                "emotion": ""
            }
        ]
    },
    "44395ede-0ce9-4ce5-a9d3-ce44cb367841": {
        "Guid": "44395ede-0ce9-4ce5-a9d3-ce44cb367841",
        "playRate": 1.0,
        "GameTrigger": "Dialog",
        "gameTriggerArgs": 401151405,
        "personalConfig": 2,
        "ParentID": "f3535664-50dc-4abf-adc3-14ffd5a9ce0c",
        "SourceNames": [
            {
                "sourceFileName": "VO_EQ\\VO_NPC\\vo_YQEQ204_6_lessig_01.wem",
                "rate": 1.0,
                "avatarName": "",
                "emotion": ""
            }
        ]
    },
    "47c28deb-a546-4cde-96d2-768000d182d7": {
        "Guid": "47c28deb-a546-4cde-96d2-768000d182d7",
        "playRate": 1.0,
        "GameTrigger": "Dialog",
        "gameTriggerArgs": 401151417,
        "personalConfig": 2,
        "ParentID": "f3535664-50dc-4abf-adc3-14ffd5a9ce0c",
        "SourceNames": [
            {
                "sourceFileName": "VO_EQ\\VO_eula\\vo_YQEQ204_6_eula_02.wem",
                "rate": 1.0,
                "avatarName": "",
                "emotion": ""
            }
        ]
    },
    "4f732b13-9d23-47fb-9e6b-ea7164429712": {
        "Guid": "4f732b13-9d23-47fb-9e6b-ea7164429712",
        "playRate": 1.0,
        "GameTrigger": "Dialog",
        "gameTriggerArgs": 401151411,
        "personalConfig": 2,
        "ParentID": "f3535664-50dc-4abf-adc3-14ffd5a9ce0c",
        "SourceNames": [
            {
                "sourceFileName": "VO_EQ\\VO_NPC\\vo_YQEQ204_6_lessig_03.wem",
                "rate": 1.0,
                "avatarName": "",
                "emotion": ""
            }
        ]
    },
    "5044f991-8e55-4a5b-8df5-669250610bc5": {
        "Guid": "5044f991-8e55-4a5b-8df5-669250610bc5",
        "playRate": 1.0,
        "GameTrigger": "Dialog",
        "gameTriggerArgs": 401151433,
        "personalConfig": 2,
        "ParentID": "f3535664-50dc-4abf-adc3-14ffd5a9ce0c",
        "SourceNames": [
            {
                "sourceFileName": "VO_EQ\\VO_NPC\\vo_YQEQ204_6_lessig_16.wem",
                "rate": 1.0,
                "avatarName": "",
                "emotion": ""
            }
        ]
    },
    "5c38d96a-a3e8-4788-9ad3-c0bfa368c4cc": {
        "Guid": "5c38d96a-a3e8-4788-9ad3-c0bfa368c4cc",
        "playRate": 1.0,
        "GameTrigger": "Dialog",
        "gameTriggerArgs": 401151452,
        "personalConfig": 2,
        "ParentID": "f3535664-50dc-4abf-adc3-14ffd5a9ce0c",
        "SourceNames": [
            {
                "sourceFileName": "VO_EQ\\VO_collei\\vo_YQEQ204_6_collei_04.wem",
                "rate": 1.0,
                "avatarName": "",
                "emotion": ""
            }
        ]
    },
    "70a424ed-110e-4369-987a-36e816be8e3d": {
        "Guid": "70a424ed-110e-4369-987a-36e816be8e3d",
        "playRate": 1.0,
        "GameTrigger": "Dialog",
        "gameTriggerArgs": 401151432,
        "personalConfig": 2,
        "ParentID": "f3535664-50dc-4abf-adc3-14ffd5a9ce0c",
        "SourceNames": [
            {
                "sourceFileName": "VO_EQ\\VO_NPC\\vo_YQEQ204_6_maymom_03.wem",
                "rate": 1.0,
                "avatarName": "",
                "emotion": ""
            }
        ]
    },
    "7bd71d10-eee6-4472-85b9-76f6eb41d04c": {
        "Guid": "7bd71d10-eee6-4472-85b9-76f6eb41d04c",
        "playRate": 1.0,
        "GameTrigger": "Dialog",
        "gameTriggerArgs": 401151422,
        "personalConfig": 2,
        "ParentID": "f3535664-50dc-4abf-adc3-14ffd5a9ce0c",
        "SourceNames": [
            {
                "sourceFileName": "VO_EQ\\VO_NPC\\vo_YQEQ204_6_lessig_09.wem",
                "rate": 1.0,
                "avatarName": "",
                "emotion": ""
            }
        ]
    },
    "81961308-82cf-4487-aec9-5e2b44b473b6": {
        "Guid": "81961308-82cf-4487-aec9-5e2b44b473b6",
        "playRate": 1.0,
        "GameTrigger": "Dialog",
        "gameTriggerArgs": 401151447,
        "personalConfig": 2,
        "ParentID": "f3535664-50dc-4abf-adc3-14ffd5a9ce0c",
        "SourceNames": [
            {
                "sourceFileName": "VO_EQ\\VO_collei\\vo_YQEQ204_6_collei_03.wem",
                "rate": 1.0,
                "avatarName": "",
                "emotion": ""
            }
        ]
    },
    "84aa3f86-6e0d-401c-80af-56c5a27fc342": {
        "Guid": "84aa3f86-6e0d-401c-80af-56c5a27fc342",
        "playRate": 1.0,
        "GameTrigger": "Dialog",
        "gameTriggerArgs": 401151430,
        "personalConfig": 2,
        "ParentID": "f3535664-50dc-4abf-adc3-14ffd5a9ce0c",
        "SourceNames": [
            {
                "sourceFileName": "VO_EQ\\VO_NPC\\vo_YQEQ204_6_lessig_14.wem",
                "rate": 1.0,
                "avatarName": "",
                "emotion": ""
            }
        ]
    },
    "8af0bf05-1eae-4f0a-8006-6cdb696ebb6f": {
        "Guid": "8af0bf05-1eae-4f0a-8006-6cdb696ebb6f",
        "playRate": 1.0,
        "GameTrigger": "Dialog",
        "gameTriggerArgs": 401151458,
        "personalConfig": 2,
        "ParentID": "f3535664-50dc-4abf-adc3-14ffd5a9ce0c",
        "SourceNames": [
            {
                "sourceFileName": "VO_EQ\\VO_NPC\\vo_YQEQ204_6_idyia_09.wem",
                "rate": 1.0,
                "avatarName": "",
                "emotion": ""
            }
        ]
    },
    "8b4bb4b1-cbbb-420e-aecb-1307690f79a6": {
        "Guid": "8b4bb4b1-cbbb-420e-aecb-1307690f79a6",
        "playRate": 1.0,
        "GameTrigger": "Dialog",
        "gameTriggerArgs": 401151418,
        "personalConfig": 2,
        "ParentID": "f3535664-50dc-4abf-adc3-14ffd5a9ce0c",
        "SourceNames": [
            {
                "sourceFileName": "VO_EQ\\VO_eula\\vo_YQEQ204_6_eula_03.wem",
                "rate": 1.0,
                "avatarName": "",
                "emotion": ""
            }
        ]
    },
    "8cc08165-dab8-4216-8d12-1bf307957042": {
        "Guid": "8cc08165-dab8-4216-8d12-1bf307957042",
        "playRate": 1.0,
        "GameTrigger": "Dialog",
        "gameTriggerArgs": 401151427,
        "personalConfig": 2,
        "ParentID": "f3535664-50dc-4abf-adc3-14ffd5a9ce0c",
        "SourceNames": [
            {
                "sourceFileName": "VO_EQ\\VO_NPC\\vo_YQEQ204_6_lessig_12.wem",
                "rate": 1.0,
                "avatarName": "",
                "emotion": ""
            }
        ]
    },
    "93f92b29-e13b-4907-b072-6cee4c183c53": {
        "Guid": "93f92b29-e13b-4907-b072-6cee4c183c53",
        "playRate": 1.0,
        "GameTrigger": "Dialog",
        "gameTriggerArgs": 401151445,
        "personalConfig": 2,
        "ParentID": "f3535664-50dc-4abf-adc3-14ffd5a9ce0c",
        "SourceNames": [
            {
                "sourceFileName": "VO_EQ\\VO_NPC\\vo_YQEQ204_6_maymom_07.wem",
                "rate": 1.0,
                "avatarName": "",
                "emotion": ""
            }
        ]
    },
    "98d9b358-f14c-47e5-a477-54c9d9b515ce": {
        "Guid": "98d9b358-f14c-47e5-a477-54c9d9b515ce",
        "playRate": 1.0,
        "GameTrigger": "Dialog",
        "gameTriggerArgs": 401151428,
        "personalConfig": 2,
        "ParentID": "f3535664-50dc-4abf-adc3-14ffd5a9ce0c",
        "SourceNames": [
            {
                "sourceFileName": "VO_EQ\\VO_NPC\\vo_YQEQ204_6_lessig_13.wem",
                "rate": 1.0,
                "avatarName": "",
                "emotion": ""
            }
        ]
    },
    "9db576ba-5a03-4770-8c6e-911710154912": {
        "Guid": "9db576ba-5a03-4770-8c6e-911710154912",
        "playRate": 1.0,
        "GameTrigger": "Dialog",
        "gameTriggerArgs": 401151406,
        "personalConfig": 2,
        "ParentID": "f3535664-50dc-4abf-adc3-14ffd5a9ce0c",
        "SourceNames": [
            {
                "sourceFileName": "VO_EQ\\VO_NPC\\vo_YQEQ204_6_idyia_03.wem",
                "rate": 1.0,
                "avatarName": "",
                "emotion": ""
            }
        ]
    },
    "9db82c53-a486-4844-b910-7305e3ccc3dd": {
        "Guid": "9db82c53-a486-4844-b910-7305e3ccc3dd",
        "playRate": 1.0,
        "GameTrigger": "Dialog",
        "gameTriggerArgs": 401151454,
        "personalConfig": 2,
        "ParentID": "f3535664-50dc-4abf-adc3-14ffd5a9ce0c",
        "SourceNames": [
            {
                "sourceFileName": "VO_EQ\\VO_NPC\\vo_YQEQ204_6_maymom_09.wem",
                "rate": 1.0,
                "avatarName": "",
                "emotion": ""
            }
        ]
    },
    "ae614e27-8ae7-491d-8c88-cc949c492f89": {
        "Guid": "ae614e27-8ae7-491d-8c88-cc949c492f89",
        "playRate": 1.0,
        "GameTrigger": "Dialog",
        "gameTriggerArgs": 401151439,
        "personalConfig": 2,
        "ParentID": "f3535664-50dc-4abf-adc3-14ffd5a9ce0c",
        "SourceNames": [
            {
                "sourceFileName": "VO_EQ\\VO_eula\\vo_YQEQ204_6_eula_08.wem",
                "rate": 1.0,
                "avatarName": "",
                "emotion": ""
            }
        ]
    },
    "b0a709bd-e6bf-43d9-9813-41828cd687d6": {
        "Guid": "b0a709bd-e6bf-43d9-9813-41828cd687d6",
        "playRate": 1.0,
        "GameTrigger": "Dialog",
        "gameTriggerArgs": 401151426,
        "personalConfig": 2,
        "ParentID": "f3535664-50dc-4abf-adc3-14ffd5a9ce0c",
        "SourceNames": [
            {
                "sourceFileName": "VO_EQ\\VO_eula\\vo_YQEQ204_6_eula_04.wem",
                "rate": 1.0,
                "avatarName": "",
                "emotion": ""
            }
        ]
    },
    "b7c0ad0b-b48b-4a2d-926b-efc964841958": {
        "Guid": "b7c0ad0b-b48b-4a2d-926b-efc964841958",
        "playRate": 1.0,
        "GameTrigger": "Dialog",
        "gameTriggerArgs": 401151423,
        "personalConfig": 2,
        "ParentID": "f3535664-50dc-4abf-adc3-14ffd5a9ce0c",
        "SourceNames": [
            {
                "sourceFileName": "VO_EQ\\VO_NPC\\vo_YQEQ204_6_lessig_10.wem",
                "rate": 1.0,
                "avatarName": "",
                "emotion": ""
            }
        ]
    },
    "b7f32aeb-5601-40b0-88be-7d49062d3ef0": {
        "Guid": "b7f32aeb-5601-40b0-88be-7d49062d3ef0",
        "playRate": 1.0,
        "GameTrigger": "Dialog",
        "gameTriggerArgs": 401151446,
        "personalConfig": 2,
        "ParentID": "f3535664-50dc-4abf-adc3-14ffd5a9ce0c",
        "SourceNames": [
            {
                "sourceFileName": "VO_EQ\\VO_NPC\\vo_YQEQ204_6_idyia_08.wem",
                "rate": 1.0,
                "avatarName": "",
                "emotion": ""
            }
        ]
    },
    "b8b1da25-889a-4961-8d47-58ebfe6d3445": {
        "Guid": "b8b1da25-889a-4961-8d47-58ebfe6d3445",
        "playRate": 1.0,
        "GameTrigger": "Dialog",
        "gameTriggerArgs": 401151401,
        "personalConfig": 2,
        "ParentID": "f3535664-50dc-4abf-adc3-14ffd5a9ce0c",
        "SourceNames": [
            {
                "sourceFileName": "VO_EQ\\VO_paimon\\vo_YQEQ204_6_paimon_01.wem",
                "rate": 1.0,
                "avatarName": "",
                "emotion": ""
            }
        ]
    },
    "bae549a4-0c05-447c-b4d0-10294306117f": {
        "Guid": "bae549a4-0c05-447c-b4d0-10294306117f",
        "playRate": 1.0,
        "GameTrigger": "Dialog",
        "gameTriggerArgs": 401151459,
        "personalConfig": 2,
        "ParentID": "f3535664-50dc-4abf-adc3-14ffd5a9ce0c",
        "SourceNames": [
            {
                "sourceFileName": "VO_EQ\\VO_NPC\\vo_YQEQ204_6_idyia_10.wem",
                "rate": 1.0,
                "avatarName": "",
                "emotion": ""
            }
        ]
    },
    "c20b71b8-d25d-4838-8d1d-acbd0c707d5c": {
        "Guid": "c20b71b8-d25d-4838-8d1d-acbd0c707d5c",
        "playRate": 1.0,
        "GameTrigger": "Dialog",
        "gameTriggerArgs": 401151408,
        "personalConfig": 2,
        "ParentID": "f3535664-50dc-4abf-adc3-14ffd5a9ce0c",
        "SourceNames": [
            {
                "sourceFileName": "VO_EQ\\VO_NPC\\vo_YQEQ204_6_idyia_04.wem",
                "rate": 1.0,
                "avatarName": "",
                "emotion": ""
            }
        ]
    },
    "c4ef6eaa-500d-4c8d-88ee-f24e10364ee8": {
        "Guid": "c4ef6eaa-500d-4c8d-88ee-f24e10364ee8",
        "playRate": 1.0,
        "GameTrigger": "Dialog",
        "gameTriggerArgs": 401151413,
        "personalConfig": 2,
        "ParentID": "f3535664-50dc-4abf-adc3-14ffd5a9ce0c",
        "SourceNames": [
            {
                "sourceFileName": "VO_EQ\\VO_NPC\\vo_YQEQ204_6_lessig_04.wem",
                "rate": 1.0,
                "avatarName": "",
                "emotion": ""
            }
        ]
    },
    "c9455bdf-db8b-498e-84d4-90a146a546fb": {
        "Guid": "c9455bdf-db8b-498e-84d4-90a146a546fb",
        "playRate": 1.0,
        "GameTrigger": "Dialog",
        "gameTriggerArgs": 401151402,
        "personalConfig": 2,
        "ParentID": "f3535664-50dc-4abf-adc3-14ffd5a9ce0c",
        "SourceNames": [
            {
                "sourceFileName": "VO_EQ\\VO_NPC\\vo_YQEQ204_6_idyia_01.wem",
                "rate": 1.0,
                "avatarName": "",
                "emotion": ""
            }
        ]
    },
    "cefe196e-90aa-487f-8fba-d364ff095269": {
        "Guid": "cefe196e-90aa-487f-8fba-d364ff095269",
        "playRate": 1.0,
        "GameTrigger": "Dialog",
        "gameTriggerArgs": 401151416,
        "personalConfig": 2,
        "ParentID": "f3535664-50dc-4abf-adc3-14ffd5a9ce0c",
        "SourceNames": [
            {
                "sourceFileName": "VO_EQ\\VO_NPC\\vo_YQEQ204_6_lessig_05.wem",
                "rate": 1.0,
                "avatarName": "",
                "emotion": ""
            }
        ]
    },
    "d2c94488-30d6-434e-b677-b74803ebc7bb": {
        "Guid": "d2c94488-30d6-434e-b677-b74803ebc7bb",
        "playRate": 1.0,
        "GameTrigger": "Dialog",
        "gameTriggerArgs": 401151431,
        "personalConfig": 2,
        "ParentID": "f3535664-50dc-4abf-adc3-14ffd5a9ce0c",
        "SourceNames": [
            {
                "sourceFileName": "VO_EQ\\VO_NPC\\vo_YQEQ204_6_lessig_15.wem",
                "rate": 1.0,
                "avatarName": "",
                "emotion": ""
            }
        ]
    },
    "d74146a0-0c76-4188-99c4-456430109c6e": {
        "Guid": "d74146a0-0c76-4188-99c4-456430109c6e",
        "playRate": 1.0,
        "GameTrigger": "Dialog",
        "gameTriggerArgs": 401151443,
        "personalConfig": 2,
        "ParentID": "f3535664-50dc-4abf-adc3-14ffd5a9ce0c",
        "SourceNames": [
            {
                "sourceFileName": "VO_EQ\\VO_NPC\\vo_YQEQ204_6_maymom_06.wem",
                "rate": 1.0,
                "avatarName": "",
                "emotion": ""
            }
        ]
    },
    "d7e29360-b3c8-434f-afc7-48b16b07f00d": {
        "Guid": "d7e29360-b3c8-434f-afc7-48b16b07f00d",
        "playRate": 1.0,
        "GameTrigger": "Dialog",
        "gameTriggerArgs": 401151448,
        "personalConfig": 2,
        "ParentID": "f3535664-50dc-4abf-adc3-14ffd5a9ce0c",
        "SourceNames": [
            {
                "sourceFileName": "VO_EQ\\VO_paimon\\vo_YQEQ204_6_paimon_03.wem",
                "rate": 1.0,
                "avatarName": "",
                "emotion": ""
            }
        ]
    },
    "db7443f7-fb95-4932-b129-cc70a35ca69e": {
        "Guid": "db7443f7-fb95-4932-b129-cc70a35ca69e",
        "playRate": 1.0,
        "GameTrigger": "Dialog",
        "gameTriggerArgs": 401151440,
        "personalConfig": 2,
        "ParentID": "f3535664-50dc-4abf-adc3-14ffd5a9ce0c",
        "SourceNames": [
            {
                "sourceFileName": "VO_EQ\\VO_eula\\vo_YQEQ204_6_eula_09.wem",
                "rate": 1.0,
                "avatarName": "",
                "emotion": ""
            }
        ]
    },
    "e0a9cf7a-fe7e-4f6a-b02e-f3450d0d708c": {
        "Guid": "e0a9cf7a-fe7e-4f6a-b02e-f3450d0d708c",
        "playRate": 1.0,
        "GameTrigger": "Dialog",
        "gameTriggerArgs": 401151457,
        "personalConfig": 2,
        "ParentID": "f3535664-50dc-4abf-adc3-14ffd5a9ce0c",
        "SourceNames": [
            {
                "sourceFileName": "VO_EQ\\VO_NPC\\vo_YQEQ204_6_lessig_18.wem",
                "rate": 1.0,
                "avatarName": "",
                "emotion": ""
            }
        ]
    },
    "e986b1ad-3f58-41ed-b0bb-30e4bb1c87c1": {
        "Guid": "e986b1ad-3f58-41ed-b0bb-30e4bb1c87c1",
        "playRate": 1.0,
        "GameTrigger": "Dialog",
        "gameTriggerArgs": 401151420,
        "personalConfig": 2,
        "ParentID": "f3535664-50dc-4abf-adc3-14ffd5a9ce0c",
        "SourceNames": [
            {
                "sourceFileName": "VO_EQ\\VO_NPC\\vo_YQEQ204_6_lessig_07.wem",
                "rate": 1.0,
                "avatarName": "",
                "emotion": ""
            }
        ]
    },
    "ee5acf88-c28a-4e80-8ee2-59d90c7f3f5a": {
        "Guid": "ee5acf88-c28a-4e80-8ee2-59d90c7f3f5a",
        "playRate": 1.0,
        "GameTrigger": "Dialog",
        "gameTriggerArgs": 401151415,
        "personalConfig": 2,
        "ParentID": "f3535664-50dc-4abf-adc3-14ffd5a9ce0c",
        "SourceNames": [
            {
                "sourceFileName": "VO_EQ\\VO_eula\\vo_YQEQ204_6_eula_01.wem",
                "rate": 1.0,
                "avatarName": "",
                "emotion": ""
            }
        ]
    },
    "ee94372e-396e-4d6e-9105-d27878542c0f": {
        "Guid": "ee94372e-396e-4d6e-9105-d27878542c0f",
        "playRate": 1.0,
        "GameTrigger": "Dialog",
        "gameTriggerArgs": 401151409,
        "personalConfig": 2,
        "ParentID": "f3535664-50dc-4abf-adc3-14ffd5a9ce0c",
        "SourceNames": [
            {
                "sourceFileName": "VO_EQ\\VO_NPC\\vo_YQEQ204_6_maymom_02.wem",
                "rate": 1.0,
                "avatarName": "",
                "emotion": ""
            }
        ]
    },
    "f0c110ff-8d9f-4d6b-953e-28eb68f7d976": {
        "Guid": "f0c110ff-8d9f-4d6b-953e-28eb68f7d976",
        "playRate": 1.0,
        "GameTrigger": "Dialog",
        "gameTriggerArgs": 401151412,
        "personalConfig": 2,
        "ParentID": "f3535664-50dc-4abf-adc3-14ffd5a9ce0c",
        "SourceNames": [
            {
                "sourceFileName": "VO_EQ\\VO_NPC\\vo_YQEQ204_6_idyia_05.wem",
                "rate": 1.0,
                "avatarName": "",
                "emotion": ""
            }
        ]
    },
    "f84e4569-177a-48c3-92ea-c1423269b0c4": {
        "Guid": "f84e4569-177a-48c3-92ea-c1423269b0c4",
        "playRate": 1.0,
        "GameTrigger": "Dialog",
        "gameTriggerArgs": 401151425,
        "personalConfig": 2,
        "ParentID": "f3535664-50dc-4abf-adc3-14ffd5a9ce0c",
        "SourceNames": [
            {
                "sourceFileName": "VO_EQ\\VO_paimon\\vo_YQEQ204_6_paimon_02.wem",
                "rate": 1.0,
                "avatarName": "",
                "emotion": ""
            }
        ]
    },
    "f95eb5fb-616e-4930-899b-181ca9ed1b98": {
        "Guid": "f95eb5fb-616e-4930-899b-181ca9ed1b98",
        "playRate": 1.0,
        "GameTrigger": "Dialog",
        "gameTriggerArgs": 401151441,
        "personalConfig": 2,
        "GIFECDGOOPJ": 1,
        "ParentID": "f3535664-50dc-4abf-adc3-14ffd5a9ce0c",
        "SourceNames": [
            {
                "sourceFileName": "VO_EQ\\VO_collei\\vo_YQEQ204_6_collei_02.wem",
                "rate": 1.0,
                "avatarName": "",
                "emotion": ""
            }
        ]
    },
    "faffc3cf-b599-4a8c-a0b8-4ad020a5e85f": {
        "Guid": "faffc3cf-b599-4a8c-a0b8-4ad020a5e85f",
        "playRate": 1.0,
        "GameTrigger": "Dialog",
        "gameTriggerArgs": 401151438,
        "personalConfig": 2,
        "ParentID": "f3535664-50dc-4abf-adc3-14ffd5a9ce0c",
        "SourceNames": [
            {
                "sourceFileName": "VO_EQ\\VO_NPC\\vo_YQEQ204_6_lessig_17.wem",
                "rate": 1.0,
                "avatarName": "",
                "emotion": ""
            }
        ]
    },
    "fc50f9f6-2795-4e04-a7f0-d3095ca390b7": {
        "Guid": "fc50f9f6-2795-4e04-a7f0-d3095ca390b7",
        "playRate": 1.0,
        "GameTrigger": "Dialog",
        "gameTriggerArgs": 401151456,
        "personalConfig": 2,
        "ParentID": "f3535664-50dc-4abf-adc3-14ffd5a9ce0c",
        "SourceNames": [
            {
                "sourceFileName": "VO_EQ\\VO_paimon\\vo_YQEQ204_6_paimon_05.wem",
                "rate": 1.0,
                "avatarName": "",
                "emotion": ""
            }
        ]
    }
}