{
    "01659a26-37f6-40e2-a9de-2c6281d6825a": {
        "HLGGFCENLPA": "01659a26-37f6-40e2-a9de-2c6281d6825a",
        "MKHDAJHOOJF": 1.0,
        "BEHKGKMMAPD": "Dialog",
        "FFDHLEAFBLM": 401330330,
        "LFIFIPFFFKO": 2,
        "MCKHLBHHEDL": "c0f24a6b-6966-49ee-b1d2-be02ad1673ec",
        "EIKJKDICKMJ": [
            {
                "HLGOMILNFNK": "VO_EQ\\VO_NPC\\vo_DYJEQ002_2_xavier_03.wem",
                "EJNOJBCBJPP": 1.0,
                "KAGFOFEDGIA": "",
                "NNBGHAJLJLA": ""
            }
        ]
    },
    "0d4686cf-08cc-4db6-b8a6-a5b082524ce7": {
        "HLGGFCENLPA": "0d4686cf-08cc-4db6-b8a6-a5b082524ce7",
        "MKHDAJHOOJF": 1.0,
        "BEHKGKMMAPD": "Dialog",
        "FFDHLEAFBLM": 401330344,
        "LFIFIPFFFKO": 2,
        "MCKHLBHHEDL": "c0f24a6b-6966-49ee-b1d2-be02ad1673ec",
        "EIKJKDICKMJ": [
            {
                "HLGOMILNFNK": "VO_EQ\\VO_NPC\\vo_DYJEQ002_2_xavier_12.wem",
                "EJNOJBCBJPP": 1.0,
                "KAGFOFEDGIA": "",
                "NNBGHAJLJLA": ""
            }
        ]
    },
    "11528035-c80f-4f40-a2ea-678e5d341333": {
        "HLGGFCENLPA": "11528035-c80f-4f40-a2ea-678e5d341333",
        "MKHDAJHOOJF": 1.0,
        "BEHKGKMMAPD": "Dialog",
        "FFDHLEAFBLM": 401330318,
        "LFIFIPFFFKO": 2,
        "MCKHLBHHEDL": "c0f24a6b-6966-49ee-b1d2-be02ad1673ec",
        "EIKJKDICKMJ": [
            {
                "HLGOMILNFNK": "VO_EQ\\VO_furina\\vo_DYJEQ002_2_furina_04.wem",
                "EJNOJBCBJPP": 1.0,
                "KAGFOFEDGIA": "",
                "NNBGHAJLJLA": ""
            }
        ]
    },
    "129c3d22-b3c9-4a75-92bd-b413142412f0": {
        "HLGGFCENLPA": "129c3d22-b3c9-4a75-92bd-b413142412f0",
        "MKHDAJHOOJF": 1.0,
        "BEHKGKMMAPD": "Dialog",
        "FFDHLEAFBLM": 401330303,
        "LFIFIPFFFKO": 2,
        "MCKHLBHHEDL": "c0f24a6b-6966-49ee-b1d2-be02ad1673ec",
        "EIKJKDICKMJ": [
            {
                "HLGOMILNFNK": "VO_EQ\\VO_yoimiya\\vo_DYJEQ002_2_yoimiya_11.wem",
                "EJNOJBCBJPP": 1.0,
                "KAGFOFEDGIA": "",
                "NNBGHAJLJLA": ""
            }
        ]
    },
    "14169e70-9063-4ec9-883d-c73ef5fe938f": {
        "HLGGFCENLPA": "14169e70-9063-4ec9-883d-c73ef5fe938f",
        "MKHDAJHOOJF": 1.0,
        "BEHKGKMMAPD": "Dialog",
        "FFDHLEAFBLM": 401330304,
        "LFIFIPFFFKO": 2,
        "MCKHLBHHEDL": "c0f24a6b-6966-49ee-b1d2-be02ad1673ec",
        "EIKJKDICKMJ": [
            {
                "HLGOMILNFNK": "VO_EQ\\VO_paimon\\vo_DYJEQ002_2_paimon_05.wem",
                "EJNOJBCBJPP": 1.0,
                "KAGFOFEDGIA": "",
                "NNBGHAJLJLA": ""
            }
        ]
    },
    "148e6bf1-1092-44f0-b0ec-a2e911d3aa5b": {
        "HLGGFCENLPA": "148e6bf1-1092-44f0-b0ec-a2e911d3aa5b",
        "MKHDAJHOOJF": 1.0,
        "BEHKGKMMAPD": "Dialog",
        "FFDHLEAFBLM": 401330315,
        "LFIFIPFFFKO": 2,
        "MCKHLBHHEDL": "c0f24a6b-6966-49ee-b1d2-be02ad1673ec",
        "EIKJKDICKMJ": [
            {
                "HLGOMILNFNK": "VO_EQ\\VO_yoimiya\\vo_DYJEQ002_2_yoimiya_12.wem",
                "EJNOJBCBJPP": 1.0,
                "KAGFOFEDGIA": "",
                "NNBGHAJLJLA": ""
            }
        ]
    },
    "1ab81829-c6fa-4071-a363-ebdcb5db58ab": {
        "HLGGFCENLPA": "1ab81829-c6fa-4071-a363-ebdcb5db58ab",
        "MKHDAJHOOJF": 1.0,
        "BEHKGKMMAPD": "Dialog",
        "FFDHLEAFBLM": 401330340,
        "LFIFIPFFFKO": 2,
        "MCKHLBHHEDL": "c0f24a6b-6966-49ee-b1d2-be02ad1673ec",
        "EIKJKDICKMJ": [
            {
                "HLGOMILNFNK": "VO_EQ\\VO_furina\\vo_DYJEQ002_2_furina_08.wem",
                "EJNOJBCBJPP": 1.0,
                "KAGFOFEDGIA": "",
                "NNBGHAJLJLA": ""
            }
        ]
    },
    "1d9754e4-e6d6-4368-9363-e18e579fa88b": {
        "HLGGFCENLPA": "1d9754e4-e6d6-4368-9363-e18e579fa88b",
        "MKHDAJHOOJF": 1.0,
        "BEHKGKMMAPD": "Dialog",
        "FFDHLEAFBLM": 401330325,
        "LFIFIPFFFKO": 2,
        "MCKHLBHHEDL": "c0f24a6b-6966-49ee-b1d2-be02ad1673ec",
        "EIKJKDICKMJ": [
            {
                "HLGOMILNFNK": "VO_EQ\\VO_ayato\\vo_DYJEQ002_2_ayato_01.wem",
                "EJNOJBCBJPP": 1.0,
                "KAGFOFEDGIA": "",
                "NNBGHAJLJLA": ""
            }
        ]
    },
    "1f5ea3c4-82de-4ab3-b62e-503627714c7e": {
        "HLGGFCENLPA": "1f5ea3c4-82de-4ab3-b62e-503627714c7e",
        "MKHDAJHOOJF": 1.0,
        "BEHKGKMMAPD": "Dialog",
        "FFDHLEAFBLM": 401330333,
        "LFIFIPFFFKO": 2,
        "MCKHLBHHEDL": "c0f24a6b-6966-49ee-b1d2-be02ad1673ec",
        "EIKJKDICKMJ": [
            {
                "HLGOMILNFNK": "VO_EQ\\VO_paimon\\vo_DYJEQ002_2_paimon_10.wem",
                "EJNOJBCBJPP": 1.0,
                "KAGFOFEDGIA": "",
                "NNBGHAJLJLA": ""
            }
        ]
    },
    "1f99085a-a15d-4e65-af1e-4f473a62ad58": {
        "HLGGFCENLPA": "1f99085a-a15d-4e65-af1e-4f473a62ad58",
        "MKHDAJHOOJF": 1.0,
        "BEHKGKMMAPD": "Dialog",
        "FFDHLEAFBLM": 401330306,
        "LFIFIPFFFKO": 2,
        "MCKHLBHHEDL": "c0f24a6b-6966-49ee-b1d2-be02ad1673ec",
        "EIKJKDICKMJ": [
            {
                "HLGOMILNFNK": "VO_EQ\\VO_ayaka\\vo_DYJEQ002_2_ayaka_10.wem",
                "EJNOJBCBJPP": 1.0,
                "KAGFOFEDGIA": "",
                "NNBGHAJLJLA": ""
            }
        ]
    },
    "2131c69d-c650-4955-85c8-027437078455": {
        "HLGGFCENLPA": "2131c69d-c650-4955-85c8-027437078455",
        "MKHDAJHOOJF": 1.0,
        "BEHKGKMMAPD": "Dialog",
        "FFDHLEAFBLM": 401330103,
        "LFIFIPFFFKO": 2,
        "MCKHLBHHEDL": "c0f24a6b-6966-49ee-b1d2-be02ad1673ec",
        "EIKJKDICKMJ": [
            {
                "HLGOMILNFNK": "VO_EQ\\VO_paimon\\vo_DYJEQ002_2_paimon_02.wem",
                "EJNOJBCBJPP": 1.0,
                "KAGFOFEDGIA": "",
                "NNBGHAJLJLA": ""
            }
        ]
    },
    "2d271397-063e-4ecf-8541-e817f35d3d76": {
        "HLGGFCENLPA": "2d271397-063e-4ecf-8541-e817f35d3d76",
        "MKHDAJHOOJF": 1.0,
        "BEHKGKMMAPD": "Dialog",
        "FFDHLEAFBLM": 401330203,
        "LFIFIPFFFKO": 2,
        "MCKHLBHHEDL": "c0f24a6b-6966-49ee-b1d2-be02ad1673ec",
        "EIKJKDICKMJ": [
            {
                "HLGOMILNFNK": "VO_EQ\\VO_ayaka\\vo_DYJEQ002_2_ayaka_06.wem",
                "EJNOJBCBJPP": 1.0,
                "KAGFOFEDGIA": "",
                "NNBGHAJLJLA": ""
            }
        ]
    },
    "312725a2-c514-4839-b049-a584d34dfa38": {
        "HLGGFCENLPA": "312725a2-c514-4839-b049-a584d34dfa38",
        "MKHDAJHOOJF": 1.0,
        "BEHKGKMMAPD": "Dialog",
        "FFDHLEAFBLM": 401330308,
        "LFIFIPFFFKO": 2,
        "MCKHLBHHEDL": "c0f24a6b-6966-49ee-b1d2-be02ad1673ec",
        "EIKJKDICKMJ": [
            {
                "HLGOMILNFNK": "VO_EQ\\VO_chevreuse\\vo_DYJEQ002_2_chevreuse_01.wem",
                "EJNOJBCBJPP": 1.0,
                "KAGFOFEDGIA": "",
                "NNBGHAJLJLA": ""
            }
        ]
    },
    "328359bc-fa43-43cd-ae05-b1f719123d3b": {
        "HLGGFCENLPA": "328359bc-fa43-43cd-ae05-b1f719123d3b",
        "MKHDAJHOOJF": 1.0,
        "BEHKGKMMAPD": "Dialog",
        "FFDHLEAFBLM": 401330106,
        "LFIFIPFFFKO": 2,
        "MCKHLBHHEDL": "c0f24a6b-6966-49ee-b1d2-be02ad1673ec",
        "EIKJKDICKMJ": [
            {
                "HLGOMILNFNK": "VO_EQ\\VO_ayaka\\vo_DYJEQ002_2_ayaka_04.wem",
                "EJNOJBCBJPP": 1.0,
                "KAGFOFEDGIA": "",
                "NNBGHAJLJLA": ""
            }
        ]
    },
    "34e9b5e7-938f-4860-8bd8-5c7e037058dd": {
        "HLGGFCENLPA": "34e9b5e7-938f-4860-8bd8-5c7e037058dd",
        "MKHDAJHOOJF": 1.0,
        "BEHKGKMMAPD": "Dialog",
        "FFDHLEAFBLM": 401330201,
        "LFIFIPFFFKO": 2,
        "MCKHLBHHEDL": "c0f24a6b-6966-49ee-b1d2-be02ad1673ec",
        "EIKJKDICKMJ": [
            {
                "HLGOMILNFNK": "VO_EQ\\VO_yoimiya\\vo_DYJEQ002_2_yoimiya_05.wem",
                "EJNOJBCBJPP": 1.0,
                "KAGFOFEDGIA": "",
                "NNBGHAJLJLA": ""
            }
        ]
    },
    "3606b69a-97d2-46a9-9867-8e51266ad7f1": {
        "HLGGFCENLPA": "3606b69a-97d2-46a9-9867-8e51266ad7f1",
        "MKHDAJHOOJF": 1.0,
        "BEHKGKMMAPD": "Dialog",
        "FFDHLEAFBLM": 401330341,
        "LFIFIPFFFKO": 2,
        "MCKHLBHHEDL": "c0f24a6b-6966-49ee-b1d2-be02ad1673ec",
        "EIKJKDICKMJ": [
            {
                "HLGOMILNFNK": "VO_EQ\\VO_NPC\\vo_DYJEQ002_2_xavier_09.wem",
                "EJNOJBCBJPP": 1.0,
                "KAGFOFEDGIA": "",
                "NNBGHAJLJLA": ""
            }
        ]
    },
    "3869afa4-8b45-4a54-9360-4eabcadefaaf": {
        "HLGGFCENLPA": "3869afa4-8b45-4a54-9360-4eabcadefaaf",
        "MKHDAJHOOJF": 1.0,
        "BEHKGKMMAPD": "Dialog",
        "FFDHLEAFBLM": 401330205,
        "LFIFIPFFFKO": 2,
        "MCKHLBHHEDL": "c0f24a6b-6966-49ee-b1d2-be02ad1673ec",
        "EIKJKDICKMJ": [
            {
                "HLGOMILNFNK": "VO_EQ\\VO_yoimiya\\vo_DYJEQ002_2_yoimiya_07.wem",
                "EJNOJBCBJPP": 1.0,
                "KAGFOFEDGIA": "",
                "NNBGHAJLJLA": ""
            }
        ]
    },
    "3d12c39e-8818-4a63-94da-e624eaaa6e7a": {
        "HLGGFCENLPA": "3d12c39e-8818-4a63-94da-e624eaaa6e7a",
        "MKHDAJHOOJF": 1.0,
        "BEHKGKMMAPD": "Dialog",
        "FFDHLEAFBLM": 401330345,
        "LFIFIPFFFKO": 2,
        "MCKHLBHHEDL": "c0f24a6b-6966-49ee-b1d2-be02ad1673ec",
        "EIKJKDICKMJ": [
            {
                "HLGOMILNFNK": "VO_EQ\\VO_furina\\vo_DYJEQ002_2_furina_09.wem",
                "EJNOJBCBJPP": 1.0,
                "KAGFOFEDGIA": "",
                "NNBGHAJLJLA": ""
            }
        ]
    },
    "417951cf-1559-4b31-90dc-80a0f66b9796": {
        "HLGGFCENLPA": "417951cf-1559-4b31-90dc-80a0f66b9796",
        "MKHDAJHOOJF": 1.0,
        "BEHKGKMMAPD": "Dialog",
        "FFDHLEAFBLM": 401330336,
        "LFIFIPFFFKO": 2,
        "MCKHLBHHEDL": "c0f24a6b-6966-49ee-b1d2-be02ad1673ec",
        "EIKJKDICKMJ": [
            {
                "HLGOMILNFNK": "VO_EQ\\VO_NPC\\vo_DYJEQ002_2_xavier_08.wem",
                "EJNOJBCBJPP": 1.0,
                "KAGFOFEDGIA": "",
                "NNBGHAJLJLA": ""
            }
        ]
    },
    "4b3efbb6-6222-4ee5-8d3c-756a37c2d154": {
        "HLGGFCENLPA": "4b3efbb6-6222-4ee5-8d3c-756a37c2d154",
        "MKHDAJHOOJF": 1.0,
        "BEHKGKMMAPD": "Dialog",
        "FFDHLEAFBLM": 401330105,
        "LFIFIPFFFKO": 2,
        "MCKHLBHHEDL": "c0f24a6b-6966-49ee-b1d2-be02ad1673ec",
        "EIKJKDICKMJ": [
            {
                "HLGOMILNFNK": "VO_EQ\\VO_ayaka\\vo_DYJEQ002_2_ayaka_03.wem",
                "EJNOJBCBJPP": 1.0,
                "KAGFOFEDGIA": "",
                "NNBGHAJLJLA": ""
            }
        ]
    },
    "4b8dba8d-fe76-4015-bbe8-1b6c72bb7833": {
        "HLGGFCENLPA": "4b8dba8d-fe76-4015-bbe8-1b6c72bb7833",
        "MKHDAJHOOJF": 1.0,
        "BEHKGKMMAPD": "Dialog",
        "FFDHLEAFBLM": 401330323,
        "LFIFIPFFFKO": 2,
        "MCKHLBHHEDL": "c0f24a6b-6966-49ee-b1d2-be02ad1673ec",
        "EIKJKDICKMJ": [
            {
                "HLGOMILNFNK": "VO_EQ\\VO_furina\\vo_DYJEQ002_2_furina_07.wem",
                "EJNOJBCBJPP": 1.0,
                "KAGFOFEDGIA": "",
                "NNBGHAJLJLA": ""
            }
        ]
    },
    "4cfaf913-40b5-4eec-8121-f4e1cf4d2add": {
        "HLGGFCENLPA": "4cfaf913-40b5-4eec-8121-f4e1cf4d2add",
        "MKHDAJHOOJF": 1.0,
        "BEHKGKMMAPD": "Dialog",
        "FFDHLEAFBLM": 401330352,
        "LFIFIPFFFKO": 2,
        "MCKHLBHHEDL": "c0f24a6b-6966-49ee-b1d2-be02ad1673ec",
        "EIKJKDICKMJ": [
            {
                "HLGOMILNFNK": "VO_EQ\\VO_paimon\\vo_DYJEQ002_2_paimon_13.wem",
                "EJNOJBCBJPP": 1.0,
                "KAGFOFEDGIA": "",
                "NNBGHAJLJLA": ""
            }
        ]
    },
    "511d6f56-3820-4984-a4d5-dd9579e30e55": {
        "HLGGFCENLPA": "511d6f56-3820-4984-a4d5-dd9579e30e55",
        "MKHDAJHOOJF": 1.0,
        "BEHKGKMMAPD": "Dialog",
        "FFDHLEAFBLM": 401330327,
        "LFIFIPFFFKO": 2,
        "MCKHLBHHEDL": "c0f24a6b-6966-49ee-b1d2-be02ad1673ec",
        "EIKJKDICKMJ": [
            {
                "HLGOMILNFNK": "VO_EQ\\VO_ayato\\vo_DYJEQ002_2_ayato_02.wem",
                "EJNOJBCBJPP": 1.0,
                "KAGFOFEDGIA": "",
                "NNBGHAJLJLA": ""
            }
        ]
    },
    "56c2e716-701f-4445-87fc-cc5ede174efd": {
        "HLGGFCENLPA": "56c2e716-701f-4445-87fc-cc5ede174efd",
        "MKHDAJHOOJF": 1.0,
        "BEHKGKMMAPD": "Dialog",
        "FFDHLEAFBLM": 401330114,
        "LFIFIPFFFKO": 2,
        "MCKHLBHHEDL": "c0f24a6b-6966-49ee-b1d2-be02ad1673ec",
        "EIKJKDICKMJ": [
            {
                "HLGOMILNFNK": "VO_EQ\\VO_yoimiya\\vo_DYJEQ002_2_yoimiya_04.wem",
                "EJNOJBCBJPP": 1.0,
                "KAGFOFEDGIA": "",
                "NNBGHAJLJLA": ""
            }
        ]
    },
    "56e4a073-5b7c-45c4-878c-2ed89da5f4a8": {
        "HLGGFCENLPA": "56e4a073-5b7c-45c4-878c-2ed89da5f4a8",
        "MKHDAJHOOJF": 1.0,
        "BEHKGKMMAPD": "Dialog",
        "FFDHLEAFBLM": 401330317,
        "LFIFIPFFFKO": 2,
        "MCKHLBHHEDL": "c0f24a6b-6966-49ee-b1d2-be02ad1673ec",
        "EIKJKDICKMJ": [
            {
                "HLGOMILNFNK": "VO_EQ\\VO_paimon\\vo_DYJEQ002_2_paimon_07.wem",
                "EJNOJBCBJPP": 1.0,
                "KAGFOFEDGIA": "",
                "NNBGHAJLJLA": ""
            }
        ]
    },
    "5968f66c-f416-4adc-a933-503faba48e51": {
        "HLGGFCENLPA": "5968f66c-f416-4adc-a933-503faba48e51",
        "MKHDAJHOOJF": 1.0,
        "BEHKGKMMAPD": "Dialog",
        "FFDHLEAFBLM": 401330309,
        "LFIFIPFFFKO": 2,
        "MCKHLBHHEDL": "c0f24a6b-6966-49ee-b1d2-be02ad1673ec",
        "EIKJKDICKMJ": [
            {
                "HLGOMILNFNK": "VO_EQ\\VO_paimon\\vo_DYJEQ002_2_paimon_06.wem",
                "EJNOJBCBJPP": 1.0,
                "KAGFOFEDGIA": "",
                "NNBGHAJLJLA": ""
            }
        ]
    },
    "5abb0954-6ecf-48e8-91e8-9f07a0fde069": {
        "HLGGFCENLPA": "5abb0954-6ecf-48e8-91e8-9f07a0fde069",
        "MKHDAJHOOJF": 1.0,
        "BEHKGKMMAPD": "Dialog",
        "FFDHLEAFBLM": 401330322,
        "LFIFIPFFFKO": 2,
        "MCKHLBHHEDL": "c0f24a6b-6966-49ee-b1d2-be02ad1673ec",
        "EIKJKDICKMJ": [
            {
                "HLGOMILNFNK": "VO_EQ\\VO_yoimiya\\vo_DYJEQ002_2_yoimiya_13.wem",
                "EJNOJBCBJPP": 1.0,
                "KAGFOFEDGIA": "",
                "NNBGHAJLJLA": ""
            }
        ]
    },
    "5c91629c-aa84-4622-a421-0f0c362a3049": {
        "HLGGFCENLPA": "5c91629c-aa84-4622-a421-0f0c362a3049",
        "MKHDAJHOOJF": 1.0,
        "BEHKGKMMAPD": "Dialog",
        "FFDHLEAFBLM": 401330342,
        "LFIFIPFFFKO": 2,
        "MCKHLBHHEDL": "c0f24a6b-6966-49ee-b1d2-be02ad1673ec",
        "EIKJKDICKMJ": [
            {
                "HLGOMILNFNK": "VO_EQ\\VO_NPC\\vo_DYJEQ002_2_xavier_10.wem",
                "EJNOJBCBJPP": 1.0,
                "KAGFOFEDGIA": "",
                "NNBGHAJLJLA": ""
            }
        ]
    },
    "5d55e5ed-5195-439c-9891-021f223c4147": {
        "HLGGFCENLPA": "5d55e5ed-5195-439c-9891-021f223c4147",
        "MKHDAJHOOJF": 1.0,
        "BEHKGKMMAPD": "Dialog",
        "FFDHLEAFBLM": 401330311,
        "LFIFIPFFFKO": 2,
        "MCKHLBHHEDL": "c0f24a6b-6966-49ee-b1d2-be02ad1673ec",
        "EIKJKDICKMJ": [
            {
                "HLGOMILNFNK": "VO_EQ\\VO_ayaka\\vo_DYJEQ002_2_ayaka_11.wem",
                "EJNOJBCBJPP": 1.0,
                "KAGFOFEDGIA": "",
                "NNBGHAJLJLA": ""
            }
        ]
    },
    "61745c34-46ca-4b0e-aee3-b2985b41c7c9": {
        "HLGGFCENLPA": "61745c34-46ca-4b0e-aee3-b2985b41c7c9",
        "MKHDAJHOOJF": 1.0,
        "BEHKGKMMAPD": "Dialog",
        "FFDHLEAFBLM": 401330328,
        "LFIFIPFFFKO": 2,
        "MCKHLBHHEDL": "c0f24a6b-6966-49ee-b1d2-be02ad1673ec",
        "EIKJKDICKMJ": [
            {
                "HLGOMILNFNK": "VO_EQ\\VO_ayato\\vo_DYJEQ002_2_ayato_03.wem",
                "EJNOJBCBJPP": 1.0,
                "KAGFOFEDGIA": "",
                "NNBGHAJLJLA": ""
            }
        ]
    },
    "75c7612a-0b2b-41fb-8a69-17c12a4a69fe": {
        "HLGGFCENLPA": "75c7612a-0b2b-41fb-8a69-17c12a4a69fe",
        "MKHDAJHOOJF": 1.0,
        "BEHKGKMMAPD": "Dialog",
        "FFDHLEAFBLM": 401330321,
        "LFIFIPFFFKO": 2,
        "MCKHLBHHEDL": "c0f24a6b-6966-49ee-b1d2-be02ad1673ec",
        "EIKJKDICKMJ": [
            {
                "HLGOMILNFNK": "VO_EQ\\VO_furina\\vo_DYJEQ002_2_furina_06.wem",
                "EJNOJBCBJPP": 1.0,
                "KAGFOFEDGIA": "",
                "NNBGHAJLJLA": ""
            }
        ]
    },
    "7e9aface-e0f4-4522-a8a9-29f3b7c2d266": {
        "HLGGFCENLPA": "7e9aface-e0f4-4522-a8a9-29f3b7c2d266",
        "MKHDAJHOOJF": 1.0,
        "BEHKGKMMAPD": "Dialog",
        "FFDHLEAFBLM": 401330113,
        "LFIFIPFFFKO": 2,
        "MCKHLBHHEDL": "c0f24a6b-6966-49ee-b1d2-be02ad1673ec",
        "EIKJKDICKMJ": [
            {
                "HLGOMILNFNK": "VO_EQ\\VO_yoimiya\\vo_DYJEQ002_2_yoimiya_03.wem",
                "EJNOJBCBJPP": 1.0,
                "KAGFOFEDGIA": "",
                "NNBGHAJLJLA": ""
            }
        ]
    },
    "80ef60a6-efbe-44d2-a915-bee58939bb67": {
        "HLGGFCENLPA": "80ef60a6-efbe-44d2-a915-bee58939bb67",
        "MKHDAJHOOJF": 1.0,
        "BEHKGKMMAPD": "Dialog",
        "FFDHLEAFBLM": 401330316,
        "LFIFIPFFFKO": 2,
        "MCKHLBHHEDL": "c0f24a6b-6966-49ee-b1d2-be02ad1673ec",
        "EIKJKDICKMJ": [
            {
                "HLGOMILNFNK": "VO_EQ\\VO_furina\\vo_DYJEQ002_2_furina_03.wem",
                "EJNOJBCBJPP": 1.0,
                "KAGFOFEDGIA": "",
                "NNBGHAJLJLA": ""
            }
        ]
    },
    "85cc7b33-abeb-4c1d-810a-090617ce836d": {
        "HLGGFCENLPA": "85cc7b33-abeb-4c1d-810a-090617ce836d",
        "MKHDAJHOOJF": 1.0,
        "BEHKGKMMAPD": "Dialog",
        "FFDHLEAFBLM": 401330206,
        "LFIFIPFFFKO": 2,
        "MCKHLBHHEDL": "c0f24a6b-6966-49ee-b1d2-be02ad1673ec",
        "EIKJKDICKMJ": [
            {
                "HLGOMILNFNK": "VO_EQ\\VO_yoimiya\\vo_DYJEQ002_2_yoimiya_08.wem",
                "EJNOJBCBJPP": 1.0,
                "KAGFOFEDGIA": "",
                "NNBGHAJLJLA": ""
            }
        ]
    },
    "885abe83-fe3a-475c-a51f-4f1dccc8ced7": {
        "HLGGFCENLPA": "885abe83-fe3a-475c-a51f-4f1dccc8ced7",
        "MKHDAJHOOJF": 1.0,
        "BEHKGKMMAPD": "Dialog",
        "FFDHLEAFBLM": 401330339,
        "LFIFIPFFFKO": 2,
        "MCKHLBHHEDL": "c0f24a6b-6966-49ee-b1d2-be02ad1673ec",
        "EIKJKDICKMJ": [
            {
                "HLGOMILNFNK": "VO_EQ\\VO_ayato\\vo_DYJEQ002_2_ayato_05.wem",
                "EJNOJBCBJPP": 1.0,
                "KAGFOFEDGIA": "",
                "NNBGHAJLJLA": ""
            }
        ]
    },
    "8a583091-77ca-49ae-837b-7ee8414ad0be": {
        "HLGGFCENLPA": "8a583091-77ca-49ae-837b-7ee8414ad0be",
        "MKHDAJHOOJF": 1.0,
        "BEHKGKMMAPD": "Dialog",
        "FFDHLEAFBLM": 401330204,
        "LFIFIPFFFKO": 2,
        "MCKHLBHHEDL": "c0f24a6b-6966-49ee-b1d2-be02ad1673ec",
        "EIKJKDICKMJ": [
            {
                "HLGOMILNFNK": "VO_EQ\\VO_ayaka\\vo_DYJEQ002_2_ayaka_07.wem",
                "EJNOJBCBJPP": 1.0,
                "KAGFOFEDGIA": "",
                "NNBGHAJLJLA": ""
            }
        ]
    },
    "936042d4-0f85-48fe-ac9a-7e82372e7207": {
        "HLGGFCENLPA": "936042d4-0f85-48fe-ac9a-7e82372e7207",
        "MKHDAJHOOJF": 1.0,
        "BEHKGKMMAPD": "Dialog",
        "FFDHLEAFBLM": 401330101,
        "LFIFIPFFFKO": 2,
        "MCKHLBHHEDL": "c0f24a6b-6966-49ee-b1d2-be02ad1673ec",
        "EIKJKDICKMJ": [
            {
                "HLGOMILNFNK": "VO_EQ\\VO_paimon\\vo_DYJEQ002_2_paimon_01.wem",
                "EJNOJBCBJPP": 1.0,
                "KAGFOFEDGIA": "",
                "NNBGHAJLJLA": ""
            }
        ]
    },
    "963e82fc-4ed3-49d0-b9a3-a5327c1a2fd2": {
        "HLGGFCENLPA": "963e82fc-4ed3-49d0-b9a3-a5327c1a2fd2",
        "MKHDAJHOOJF": 1.0,
        "BEHKGKMMAPD": "Dialog",
        "FFDHLEAFBLM": 401330319,
        "LFIFIPFFFKO": 2,
        "MCKHLBHHEDL": "c0f24a6b-6966-49ee-b1d2-be02ad1673ec",
        "EIKJKDICKMJ": [
            {
                "HLGOMILNFNK": "VO_EQ\\VO_paimon\\vo_DYJEQ002_2_paimon_08.wem",
                "EJNOJBCBJPP": 1.0,
                "KAGFOFEDGIA": "",
                "NNBGHAJLJLA": ""
            }
        ]
    },
    "9727f671-5581-41d6-9f36-b7780cfa4473": {
        "HLGGFCENLPA": "9727f671-5581-41d6-9f36-b7780cfa4473",
        "MKHDAJHOOJF": 1.0,
        "BEHKGKMMAPD": "Dialog",
        "FFDHLEAFBLM": 401330346,
        "LFIFIPFFFKO": 2,
        "MCKHLBHHEDL": "c0f24a6b-6966-49ee-b1d2-be02ad1673ec",
        "EIKJKDICKMJ": [
            {
                "HLGOMILNFNK": "VO_EQ\\VO_furina\\vo_DYJEQ002_2_furina_10.wem",
                "EJNOJBCBJPP": 1.0,
                "KAGFOFEDGIA": "",
                "NNBGHAJLJLA": ""
            }
        ]
    },
    "9ac9d62b-b46b-4926-96fc-b65a655b4d75": {
        "HLGGFCENLPA": "9ac9d62b-b46b-4926-96fc-b65a655b4d75",
        "MKHDAJHOOJF": 1.0,
        "BEHKGKMMAPD": "Dialog",
        "FFDHLEAFBLM": 401330110,
        "LFIFIPFFFKO": 2,
        "MCKHLBHHEDL": "c0f24a6b-6966-49ee-b1d2-be02ad1673ec",
        "EIKJKDICKMJ": [
            {
                "HLGOMILNFNK": "VO_EQ\\VO_yoimiya\\vo_DYJEQ002_2_yoimiya_02.wem",
                "EJNOJBCBJPP": 1.0,
                "KAGFOFEDGIA": "",
                "NNBGHAJLJLA": ""
            }
        ]
    },
    "9fb6ec3c-db65-4f83-8576-a20c2d041626": {
        "HLGGFCENLPA": "9fb6ec3c-db65-4f83-8576-a20c2d041626",
        "MKHDAJHOOJF": 1.0,
        "BEHKGKMMAPD": "Dialog",
        "FFDHLEAFBLM": 401330337,
        "LFIFIPFFFKO": 2,
        "MCKHLBHHEDL": "c0f24a6b-6966-49ee-b1d2-be02ad1673ec",
        "EIKJKDICKMJ": [
            {
                "HLGOMILNFNK": "VO_EQ\\VO_ayaka\\vo_DYJEQ002_2_ayaka_13.wem",
                "EJNOJBCBJPP": 1.0,
                "KAGFOFEDGIA": "",
                "NNBGHAJLJLA": ""
            }
        ]
    },
    "9fbb70fb-8b18-4e08-ad09-5b9a80e3ff18": {
        "HLGGFCENLPA": "9fbb70fb-8b18-4e08-ad09-5b9a80e3ff18",
        "MKHDAJHOOJF": 1.0,
        "BEHKGKMMAPD": "Dialog",
        "FFDHLEAFBLM": 401330208,
        "LFIFIPFFFKO": 2,
        "MCKHLBHHEDL": "c0f24a6b-6966-49ee-b1d2-be02ad1673ec",
        "EIKJKDICKMJ": [
            {
                "HLGOMILNFNK": "VO_EQ\\VO_yoimiya\\vo_DYJEQ002_2_yoimiya_09.wem",
                "EJNOJBCBJPP": 1.0,
                "KAGFOFEDGIA": "",
                "NNBGHAJLJLA": ""
            }
        ]
    },
    "a33cdad8-d4a2-4586-b48c-0e0e9e6b0800": {
        "HLGGFCENLPA": "a33cdad8-d4a2-4586-b48c-0e0e9e6b0800",
        "MKHDAJHOOJF": 1.0,
        "BEHKGKMMAPD": "Dialog",
        "FFDHLEAFBLM": 401330104,
        "LFIFIPFFFKO": 2,
        "MCKHLBHHEDL": "c0f24a6b-6966-49ee-b1d2-be02ad1673ec",
        "EIKJKDICKMJ": [
            {
                "HLGOMILNFNK": "VO_EQ\\VO_ayaka\\vo_DYJEQ002_2_ayaka_02.wem",
                "EJNOJBCBJPP": 1.0,
                "KAGFOFEDGIA": "",
                "NNBGHAJLJLA": ""
            }
        ]
    },
    "a54255f5-3adb-4a29-97b3-e67e4a1d505e": {
        "HLGGFCENLPA": "a54255f5-3adb-4a29-97b3-e67e4a1d505e",
        "MKHDAJHOOJF": 1.0,
        "BEHKGKMMAPD": "Dialog",
        "FFDHLEAFBLM": 401330307,
        "LFIFIPFFFKO": 2,
        "MCKHLBHHEDL": "c0f24a6b-6966-49ee-b1d2-be02ad1673ec",
        "EIKJKDICKMJ": [
            {
                "HLGOMILNFNK": "VO_EQ\\VO_chiori\\vo_DYJEQ002_2_chiori_01.wem",
                "EJNOJBCBJPP": 1.0,
                "KAGFOFEDGIA": "",
                "NNBGHAJLJLA": ""
            }
        ]
    },
    "a6dd29f2-2160-4762-99ac-b9b9a6d52b4e": {
        "HLGGFCENLPA": "a6dd29f2-2160-4762-99ac-b9b9a6d52b4e",
        "MKHDAJHOOJF": 1.0,
        "BEHKGKMMAPD": "Dialog",
        "FFDHLEAFBLM": 401330301,
        "LFIFIPFFFKO": 2,
        "MCKHLBHHEDL": "c0f24a6b-6966-49ee-b1d2-be02ad1673ec",
        "EIKJKDICKMJ": [
            {
                "HLGOMILNFNK": "VO_EQ\\VO_ayaka\\vo_DYJEQ002_2_ayaka_08.wem",
                "EJNOJBCBJPP": 1.0,
                "KAGFOFEDGIA": "",
                "NNBGHAJLJLA": ""
            }
        ]
    },
    "aa2e2407-b9ba-49c9-89af-1303826852c0": {
        "HLGGFCENLPA": "aa2e2407-b9ba-49c9-89af-1303826852c0",
        "MKHDAJHOOJF": 1.0,
        "BEHKGKMMAPD": "Dialog",
        "FFDHLEAFBLM": 401330312,
        "LFIFIPFFFKO": 2,
        "MCKHLBHHEDL": "c0f24a6b-6966-49ee-b1d2-be02ad1673ec",
        "EIKJKDICKMJ": [
            {
                "HLGOMILNFNK": "VO_EQ\\VO_furina\\vo_DYJEQ002_2_furina_02.wem",
                "EJNOJBCBJPP": 1.0,
                "KAGFOFEDGIA": "",
                "NNBGHAJLJLA": ""
            }
        ]
    },
    "b111082c-186d-4b41-94e1-87d1779a4f25": {
        "HLGGFCENLPA": "b111082c-186d-4b41-94e1-87d1779a4f25",
        "MKHDAJHOOJF": 1.0,
        "BEHKGKMMAPD": "Dialog",
        "FFDHLEAFBLM": 401330302,
        "LFIFIPFFFKO": 2,
        "MCKHLBHHEDL": "c0f24a6b-6966-49ee-b1d2-be02ad1673ec",
        "EIKJKDICKMJ": [
            {
                "HLGOMILNFNK": "VO_EQ\\VO_yoimiya\\vo_DYJEQ002_2_yoimiya_10.wem",
                "EJNOJBCBJPP": 1.0,
                "KAGFOFEDGIA": "",
                "NNBGHAJLJLA": ""
            }
        ]
    },
    "b153e9fb-f4ba-4ace-ac95-5697cc72e06a": {
        "HLGGFCENLPA": "b153e9fb-f4ba-4ace-ac95-5697cc72e06a",
        "MKHDAJHOOJF": 1.0,
        "BEHKGKMMAPD": "Dialog",
        "FFDHLEAFBLM": 401330347,
        "LFIFIPFFFKO": 2,
        "MCKHLBHHEDL": "c0f24a6b-6966-49ee-b1d2-be02ad1673ec",
        "EIKJKDICKMJ": [
            {
                "HLGOMILNFNK": "VO_EQ\\VO_paimon\\vo_DYJEQ002_2_paimon_11.wem",
                "EJNOJBCBJPP": 1.0,
                "KAGFOFEDGIA": "",
                "NNBGHAJLJLA": ""
            }
        ]
    },
    "b5b4aac1-b746-46f5-be31-6e26be490d4a": {
        "HLGGFCENLPA": "b5b4aac1-b746-46f5-be31-6e26be490d4a",
        "MKHDAJHOOJF": 1.0,
        "BEHKGKMMAPD": "Dialog",
        "FFDHLEAFBLM": 401330331,
        "LFIFIPFFFKO": 2,
        "MCKHLBHHEDL": "c0f24a6b-6966-49ee-b1d2-be02ad1673ec",
        "EIKJKDICKMJ": [
            {
                "HLGOMILNFNK": "VO_EQ\\VO_NPC\\vo_DYJEQ002_2_xavier_04.wem",
                "EJNOJBCBJPP": 1.0,
                "KAGFOFEDGIA": "",
                "NNBGHAJLJLA": ""
            }
        ]
    },
    "b61524af-f80e-4669-8358-aefe5b00d919": {
        "HLGGFCENLPA": "b61524af-f80e-4669-8358-aefe5b00d919",
        "MKHDAJHOOJF": 1.0,
        "BEHKGKMMAPD": "Dialog",
        "FFDHLEAFBLM": 401330102,
        "LFIFIPFFFKO": 2,
        "MCKHLBHHEDL": "c0f24a6b-6966-49ee-b1d2-be02ad1673ec",
        "EIKJKDICKMJ": [
            {
                "HLGOMILNFNK": "VO_EQ\\VO_ayaka\\vo_DYJEQ002_2_ayaka_01.wem",
                "EJNOJBCBJPP": 1.0,
                "KAGFOFEDGIA": "",
                "NNBGHAJLJLA": ""
            }
        ]
    },
    "bf55e280-7ca0-4be6-9b19-18f42fce62cc": {
        "HLGGFCENLPA": "bf55e280-7ca0-4be6-9b19-18f42fce62cc",
        "MKHDAJHOOJF": 1.0,
        "BEHKGKMMAPD": "Dialog",
        "FFDHLEAFBLM": 401330351,
        "LFIFIPFFFKO": 2,
        "MCKHLBHHEDL": "c0f24a6b-6966-49ee-b1d2-be02ad1673ec",
        "EIKJKDICKMJ": [
            {
                "HLGOMILNFNK": "VO_EQ\\VO_paimon\\vo_DYJEQ002_2_paimon_12.wem",
                "EJNOJBCBJPP": 1.0,
                "KAGFOFEDGIA": "",
                "NNBGHAJLJLA": ""
            }
        ]
    },
    "c661341e-b5c1-4ec1-9df9-9c8413cf4f73": {
        "HLGGFCENLPA": "c661341e-b5c1-4ec1-9df9-9c8413cf4f73",
        "MKHDAJHOOJF": 1.0,
        "BEHKGKMMAPD": "Dialog",
        "FFDHLEAFBLM": 401330348,
        "LFIFIPFFFKO": 2,
        "MCKHLBHHEDL": "c0f24a6b-6966-49ee-b1d2-be02ad1673ec",
        "EIKJKDICKMJ": [
            {
                "HLGOMILNFNK": "VO_EQ\\VO_furina\\vo_DYJEQ002_2_furina_11.wem",
                "EJNOJBCBJPP": 1.0,
                "KAGFOFEDGIA": "",
                "NNBGHAJLJLA": ""
            }
        ]
    },
    "c86b024f-6449-4731-b5dc-db76bc310b05": {
        "HLGGFCENLPA": "c86b024f-6449-4731-b5dc-db76bc310b05",
        "MKHDAJHOOJF": 1.0,
        "BEHKGKMMAPD": "Dialog",
        "FFDHLEAFBLM": 401330349,
        "LFIFIPFFFKO": 2,
        "MCKHLBHHEDL": "c0f24a6b-6966-49ee-b1d2-be02ad1673ec",
        "EIKJKDICKMJ": [
            {
                "HLGOMILNFNK": "VO_EQ\\VO_furina\\vo_DYJEQ002_2_furina_12.wem",
                "EJNOJBCBJPP": 1.0,
                "KAGFOFEDGIA": "",
                "NNBGHAJLJLA": ""
            }
        ]
    },
    "c925b797-d77c-4539-927c-6be3d94988f7": {
        "HLGGFCENLPA": "c925b797-d77c-4539-927c-6be3d94988f7",
        "MKHDAJHOOJF": 1.0,
        "BEHKGKMMAPD": "Dialog",
        "FFDHLEAFBLM": 401330332,
        "LFIFIPFFFKO": 2,
        "MCKHLBHHEDL": "c0f24a6b-6966-49ee-b1d2-be02ad1673ec",
        "EIKJKDICKMJ": [
            {
                "HLGOMILNFNK": "VO_EQ\\VO_NPC\\vo_DYJEQ002_2_xavier_05.wem",
                "EJNOJBCBJPP": 1.0,
                "KAGFOFEDGIA": "",
                "NNBGHAJLJLA": ""
            }
        ]
    },
    "cabe10de-5d3e-440b-8f91-e5de84cbbb19": {
        "HLGGFCENLPA": "cabe10de-5d3e-440b-8f91-e5de84cbbb19",
        "MKHDAJHOOJF": 1.0,
        "BEHKGKMMAPD": "Dialog",
        "FFDHLEAFBLM": 401330350,
        "LFIFIPFFFKO": 2,
        "MCKHLBHHEDL": "c0f24a6b-6966-49ee-b1d2-be02ad1673ec",
        "EIKJKDICKMJ": [
            {
                "HLGOMILNFNK": "VO_EQ\\VO_furina\\vo_DYJEQ002_2_furina_13.wem",
                "EJNOJBCBJPP": 1.0,
                "KAGFOFEDGIA": "",
                "NNBGHAJLJLA": ""
            }
        ]
    },
    "cc34d74a-ec11-4ddc-85c1-18a8f7ab0a33": {
        "HLGGFCENLPA": "cc34d74a-ec11-4ddc-85c1-18a8f7ab0a33",
        "MKHDAJHOOJF": 1.0,
        "BEHKGKMMAPD": "Dialog",
        "FFDHLEAFBLM": 401330329,
        "LFIFIPFFFKO": 2,
        "MCKHLBHHEDL": "c0f24a6b-6966-49ee-b1d2-be02ad1673ec",
        "EIKJKDICKMJ": [
            {
                "HLGOMILNFNK": "VO_EQ\\VO_NPC\\vo_DYJEQ002_2_xavier_02.wem",
                "EJNOJBCBJPP": 1.0,
                "KAGFOFEDGIA": "",
                "NNBGHAJLJLA": ""
            }
        ]
    },
    "ccbe4465-d42e-4228-8d85-d32ae8462d2b": {
        "HLGGFCENLPA": "ccbe4465-d42e-4228-8d85-d32ae8462d2b",
        "MKHDAJHOOJF": 1.0,
        "BEHKGKMMAPD": "Dialog",
        "FFDHLEAFBLM": 401330111,
        "LFIFIPFFFKO": 2,
        "MCKHLBHHEDL": "c0f24a6b-6966-49ee-b1d2-be02ad1673ec",
        "EIKJKDICKMJ": [
            {
                "HLGOMILNFNK": "VO_EQ\\VO_ayaka\\vo_DYJEQ002_2_ayaka_05.wem",
                "EJNOJBCBJPP": 1.0,
                "KAGFOFEDGIA": "",
                "NNBGHAJLJLA": ""
            }
        ]
    },
    "d13e5a5e-b13f-4568-9082-9e26f7c3b586": {
        "HLGGFCENLPA": "d13e5a5e-b13f-4568-9082-9e26f7c3b586",
        "MKHDAJHOOJF": 1.0,
        "BEHKGKMMAPD": "Dialog",
        "FFDHLEAFBLM": 401330335,
        "LFIFIPFFFKO": 2,
        "MCKHLBHHEDL": "c0f24a6b-6966-49ee-b1d2-be02ad1673ec",
        "EIKJKDICKMJ": [
            {
                "HLGOMILNFNK": "VO_EQ\\VO_NPC\\vo_DYJEQ002_2_xavier_07.wem",
                "EJNOJBCBJPP": 1.0,
                "KAGFOFEDGIA": "",
                "NNBGHAJLJLA": ""
            }
        ]
    },
    "d6028dea-3796-4859-8632-3b2c82086eb0": {
        "HLGGFCENLPA": "d6028dea-3796-4859-8632-3b2c82086eb0",
        "MKHDAJHOOJF": 1.0,
        "BEHKGKMMAPD": "Dialog",
        "FFDHLEAFBLM": 401330310,
        "LFIFIPFFFKO": 2,
        "MCKHLBHHEDL": "c0f24a6b-6966-49ee-b1d2-be02ad1673ec",
        "EIKJKDICKMJ": [
            {
                "HLGOMILNFNK": "VO_EQ\\VO_furina\\vo_DYJEQ002_2_furina_01.wem",
                "EJNOJBCBJPP": 1.0,
                "KAGFOFEDGIA": "",
                "NNBGHAJLJLA": ""
            }
        ]
    },
    "e20e2173-427f-4edf-b520-9668f9f095e1": {
        "HLGGFCENLPA": "e20e2173-427f-4edf-b520-9668f9f095e1",
        "MKHDAJHOOJF": 1.0,
        "BEHKGKMMAPD": "Dialog",
        "FFDHLEAFBLM": 401330305,
        "LFIFIPFFFKO": 2,
        "MCKHLBHHEDL": "c0f24a6b-6966-49ee-b1d2-be02ad1673ec",
        "EIKJKDICKMJ": [
            {
                "HLGOMILNFNK": "VO_EQ\\VO_ayaka\\vo_DYJEQ002_2_ayaka_09.wem",
                "EJNOJBCBJPP": 1.0,
                "KAGFOFEDGIA": "",
                "NNBGHAJLJLA": ""
            }
        ]
    },
    "e32176ef-346d-4959-8091-630dec1c434d": {
        "HLGGFCENLPA": "e32176ef-346d-4959-8091-630dec1c434d",
        "MKHDAJHOOJF": 1.0,
        "BEHKGKMMAPD": "Dialog",
        "FFDHLEAFBLM": 401330107,
        "LFIFIPFFFKO": 2,
        "MCKHLBHHEDL": "c0f24a6b-6966-49ee-b1d2-be02ad1673ec",
        "EIKJKDICKMJ": [
            {
                "HLGOMILNFNK": "VO_EQ\\VO_yoimiya\\vo_DYJEQ002_2_yoimiya_01.wem",
                "EJNOJBCBJPP": 1.0,
                "KAGFOFEDGIA": "",
                "NNBGHAJLJLA": ""
            }
        ]
    },
    "e4833366-4918-4653-8809-1eff0dab0421": {
        "HLGGFCENLPA": "e4833366-4918-4653-8809-1eff0dab0421",
        "MKHDAJHOOJF": 1.0,
        "BEHKGKMMAPD": "Dialog",
        "FFDHLEAFBLM": 401330320,
        "LFIFIPFFFKO": 2,
        "MCKHLBHHEDL": "c0f24a6b-6966-49ee-b1d2-be02ad1673ec",
        "EIKJKDICKMJ": [
            {
                "HLGOMILNFNK": "VO_EQ\\VO_furina\\vo_DYJEQ002_2_furina_05.wem",
                "EJNOJBCBJPP": 1.0,
                "KAGFOFEDGIA": "",
                "NNBGHAJLJLA": ""
            }
        ]
    },
    "e59c49c0-dbd6-4e10-a0dd-dbaf3b4d34d7": {
        "HLGGFCENLPA": "e59c49c0-dbd6-4e10-a0dd-dbaf3b4d34d7",
        "MKHDAJHOOJF": 1.0,
        "BEHKGKMMAPD": "Dialog",
        "FFDHLEAFBLM": 401330326,
        "LFIFIPFFFKO": 2,
        "MCKHLBHHEDL": "c0f24a6b-6966-49ee-b1d2-be02ad1673ec",
        "EIKJKDICKMJ": [
            {
                "HLGOMILNFNK": "VO_EQ\\VO_paimon\\vo_DYJEQ002_2_paimon_09.wem",
                "EJNOJBCBJPP": 1.0,
                "KAGFOFEDGIA": "",
                "NNBGHAJLJLA": ""
            }
        ]
    },
    "e74d1e60-f81a-43b9-907c-1bdce359c069": {
        "HLGGFCENLPA": "e74d1e60-f81a-43b9-907c-1bdce359c069",
        "MKHDAJHOOJF": 1.0,
        "BEHKGKMMAPD": "Dialog",
        "FFDHLEAFBLM": 401330334,
        "LFIFIPFFFKO": 2,
        "MCKHLBHHEDL": "c0f24a6b-6966-49ee-b1d2-be02ad1673ec",
        "EIKJKDICKMJ": [
            {
                "HLGOMILNFNK": "VO_EQ\\VO_NPC\\vo_DYJEQ002_2_xavier_06.wem",
                "EJNOJBCBJPP": 1.0,
                "KAGFOFEDGIA": "",
                "NNBGHAJLJLA": ""
            }
        ]
    },
    "eb47bc78-56ae-4c89-a41b-2c5b98dbb776": {
        "HLGGFCENLPA": "eb47bc78-56ae-4c89-a41b-2c5b98dbb776",
        "MKHDAJHOOJF": 1.0,
        "BEHKGKMMAPD": "Dialog",
        "FFDHLEAFBLM": 401330313,
        "LFIFIPFFFKO": 2,
        "MCKHLBHHEDL": "c0f24a6b-6966-49ee-b1d2-be02ad1673ec",
        "EIKJKDICKMJ": [
            {
                "HLGOMILNFNK": "VO_EQ\\VO_ayaka\\vo_DYJEQ002_2_ayaka_12.wem",
                "EJNOJBCBJPP": 1.0,
                "KAGFOFEDGIA": "",
                "NNBGHAJLJLA": ""
            }
        ]
    },
    "ec28a106-2d7f-4c81-9e96-bc4bafcfd903": {
        "HLGGFCENLPA": "ec28a106-2d7f-4c81-9e96-bc4bafcfd903",
        "MKHDAJHOOJF": 1.0,
        "BEHKGKMMAPD": "Dialog",
        "FFDHLEAFBLM": 401330343,
        "LFIFIPFFFKO": 2,
        "MCKHLBHHEDL": "c0f24a6b-6966-49ee-b1d2-be02ad1673ec",
        "EIKJKDICKMJ": [
            {
                "HLGOMILNFNK": "VO_EQ\\VO_NPC\\vo_DYJEQ002_2_xavier_11.wem",
                "EJNOJBCBJPP": 1.0,
                "KAGFOFEDGIA": "",
                "NNBGHAJLJLA": ""
            }
        ]
    },
    "f265c2ec-019c-456f-9762-28bc350fff54": {
        "HLGGFCENLPA": "f265c2ec-019c-456f-9762-28bc350fff54",
        "MKHDAJHOOJF": 1.0,
        "BEHKGKMMAPD": "Dialog",
        "FFDHLEAFBLM": 401330202,
        "LFIFIPFFFKO": 2,
        "MCKHLBHHEDL": "c0f24a6b-6966-49ee-b1d2-be02ad1673ec",
        "EIKJKDICKMJ": [
            {
                "HLGOMILNFNK": "VO_EQ\\VO_yoimiya\\vo_DYJEQ002_2_yoimiya_06.wem",
                "EJNOJBCBJPP": 1.0,
                "KAGFOFEDGIA": "",
                "NNBGHAJLJLA": ""
            }
        ]
    },
    "f4682cd9-0852-44ed-b9ee-41f849a5314c": {
        "HLGGFCENLPA": "f4682cd9-0852-44ed-b9ee-41f849a5314c",
        "MKHDAJHOOJF": 1.0,
        "BEHKGKMMAPD": "Dialog",
        "FFDHLEAFBLM": 401330314,
        "LFIFIPFFFKO": 2,
        "MCKHLBHHEDL": "c0f24a6b-6966-49ee-b1d2-be02ad1673ec",
        "EIKJKDICKMJ": [
            {
                "HLGOMILNFNK": "VO_EQ\\VO_chiori\\vo_DYJEQ002_2_chiori_02.wem",
                "EJNOJBCBJPP": 1.0,
                "KAGFOFEDGIA": "",
                "NNBGHAJLJLA": ""
            }
        ]
    },
    "f909e89c-0de6-421c-8091-cd5f81093a68": {
        "HLGGFCENLPA": "f909e89c-0de6-421c-8091-cd5f81093a68",
        "MKHDAJHOOJF": 1.0,
        "BEHKGKMMAPD": "Dialog",
        "FFDHLEAFBLM": 401330324,
        "LFIFIPFFFKO": 2,
        "MCKHLBHHEDL": "c0f24a6b-6966-49ee-b1d2-be02ad1673ec",
        "EIKJKDICKMJ": [
            {
                "HLGOMILNFNK": "VO_EQ\\VO_NPC\\vo_DYJEQ002_2_xavier_01.wem",
                "EJNOJBCBJPP": 1.0,
                "KAGFOFEDGIA": "",
                "NNBGHAJLJLA": ""
            }
        ]
    },
    "fc4d314b-eda8-4318-af75-0f5a91f1dd72": {
        "HLGGFCENLPA": "fc4d314b-eda8-4318-af75-0f5a91f1dd72",
        "MKHDAJHOOJF": 1.0,
        "BEHKGKMMAPD": "Dialog",
        "FFDHLEAFBLM": 401330207,
        "LFIFIPFFFKO": 2,
        "MCKHLBHHEDL": "c0f24a6b-6966-49ee-b1d2-be02ad1673ec",
        "EIKJKDICKMJ": [
            {
                "HLGOMILNFNK": "VO_EQ\\VO_paimon\\vo_DYJEQ002_2_paimon_04.wem",
                "EJNOJBCBJPP": 1.0,
                "KAGFOFEDGIA": "",
                "NNBGHAJLJLA": ""
            }
        ]
    },
    "fed1dcfa-1bf6-4eb5-9ea7-394e413fc5dc": {
        "HLGGFCENLPA": "fed1dcfa-1bf6-4eb5-9ea7-394e413fc5dc",
        "MKHDAJHOOJF": 1.0,
        "BEHKGKMMAPD": "Dialog",
        "FFDHLEAFBLM": 401330338,
        "LFIFIPFFFKO": 2,
        "MCKHLBHHEDL": "c0f24a6b-6966-49ee-b1d2-be02ad1673ec",
        "EIKJKDICKMJ": [
            {
                "HLGOMILNFNK": "VO_EQ\\VO_ayato\\vo_DYJEQ002_2_ayato_04.wem",
                "EJNOJBCBJPP": 1.0,
                "KAGFOFEDGIA": "",
                "NNBGHAJLJLA": ""
            }
        ]
    },
    "fff4690f-4a9f-4e61-8d52-a3cb53590e6d": {
        "HLGGFCENLPA": "fff4690f-4a9f-4e61-8d52-a3cb53590e6d",
        "MKHDAJHOOJF": 1.0,
        "BEHKGKMMAPD": "Dialog",
        "FFDHLEAFBLM": 401330112,
        "LFIFIPFFFKO": 2,
        "MCKHLBHHEDL": "c0f24a6b-6966-49ee-b1d2-be02ad1673ec",
        "EIKJKDICKMJ": [
            {
                "HLGOMILNFNK": "VO_EQ\\VO_paimon\\vo_DYJEQ002_2_paimon_03.wem",
                "EJNOJBCBJPP": 1.0,
                "KAGFOFEDGIA": "",
                "NNBGHAJLJLA": ""
            }
        ]
    }
}