{
    "06693c17-97ec-4d72-bbab-cd98ec5a5fcb": {
        "HLGGFCENLPA": "06693c17-97ec-4d72-bbab-cd98ec5a5fcb",
        "MKHDAJHOOJF": 1.0,
        "BEHKGKMMAPD": "Dialog",
        "FFDHLEAFBLM": 401320521,
        "LFIFIPFFFKO": 2,
        "MCKHLBHHEDL": "10bbb1b6-5e11-42fb-9b9d-ba67623ffd78",
        "EIKJKDICKMJ": [
            {
                "HLGOMILNFNK": "VO_EQ\\VO_NPC\\vo_DYJEQ001_6_xavier_07.wem",
                "EJNOJBCBJPP": 1.0,
                "KAGFOFEDGIA": "",
                "NNBGHAJLJLA": ""
            }
        ]
    },
    "0ee7b241-1211-4cf3-8fe0-4e9954d0354a": {
        "HLGGFCENLPA": "0ee7b241-1211-4cf3-8fe0-4e9954d0354a",
        "MKHDAJHOOJF": 1.0,
        "BEHKGKMMAPD": "Dialog",
        "FFDHLEAFBLM": 401320504,
        "LFIFIPFFFKO": 2,
        "MCKHLBHHEDL": "10bbb1b6-5e11-42fb-9b9d-ba67623ffd78",
        "EIKJKDICKMJ": [
            {
                "HLGOMILNFNK": "VO_EQ\\VO_furina\\vo_DYJEQ001_6_furina_01.wem",
                "EJNOJBCBJPP": 1.0,
                "KAGFOFEDGIA": "",
                "NNBGHAJLJLA": ""
            }
        ]
    },
    "10cf324f-ee3c-43d1-a1d6-6e10a8a2053b": {
        "HLGGFCENLPA": "10cf324f-ee3c-43d1-a1d6-6e10a8a2053b",
        "MKHDAJHOOJF": 1.0,
        "BEHKGKMMAPD": "Dialog",
        "FFDHLEAFBLM": 401320509,
        "LFIFIPFFFKO": 2,
        "MCKHLBHHEDL": "10bbb1b6-5e11-42fb-9b9d-ba67623ffd78",
        "EIKJKDICKMJ": [
            {
                "HLGOMILNFNK": "VO_EQ\\VO_furina\\vo_DYJEQ001_6_furina_04.wem",
                "EJNOJBCBJPP": 1.0,
                "KAGFOFEDGIA": "",
                "NNBGHAJLJLA": ""
            }
        ]
    },
    "25f07fad-f543-47e7-8e4c-d61c04a21fbf": {
        "HLGGFCENLPA": "25f07fad-f543-47e7-8e4c-d61c04a21fbf",
        "MKHDAJHOOJF": 1.0,
        "BEHKGKMMAPD": "Dialog",
        "FFDHLEAFBLM": 401320519,
        "LFIFIPFFFKO": 2,
        "MCKHLBHHEDL": "10bbb1b6-5e11-42fb-9b9d-ba67623ffd78",
        "EIKJKDICKMJ": [
            {
                "HLGOMILNFNK": "VO_EQ\\VO_NPC\\vo_DYJEQ001_6_xavier_06.wem",
                "EJNOJBCBJPP": 1.0,
                "KAGFOFEDGIA": "",
                "NNBGHAJLJLA": ""
            }
        ]
    },
    "2e678493-4331-4e66-954e-bff88d2d936a": {
        "HLGGFCENLPA": "2e678493-4331-4e66-954e-bff88d2d936a",
        "MKHDAJHOOJF": 1.0,
        "BEHKGKMMAPD": "Dialog",
        "FFDHLEAFBLM": 401320528,
        "LFIFIPFFFKO": 2,
        "MCKHLBHHEDL": "10bbb1b6-5e11-42fb-9b9d-ba67623ffd78",
        "EIKJKDICKMJ": [
            {
                "HLGOMILNFNK": "VO_EQ\\VO_paimon\\vo_DYJEQ001_6_paimon_05.wem",
                "EJNOJBCBJPP": 1.0,
                "KAGFOFEDGIA": "",
                "NNBGHAJLJLA": ""
            }
        ]
    },
    "3ef6c475-cb34-4f37-902b-de7b9b545e21": {
        "HLGGFCENLPA": "3ef6c475-cb34-4f37-902b-de7b9b545e21",
        "MKHDAJHOOJF": 1.0,
        "BEHKGKMMAPD": "Dialog",
        "FFDHLEAFBLM": 401320506,
        "LFIFIPFFFKO": 2,
        "MCKHLBHHEDL": "10bbb1b6-5e11-42fb-9b9d-ba67623ffd78",
        "EIKJKDICKMJ": [
            {
                "HLGOMILNFNK": "VO_EQ\\VO_NPC\\vo_DYJEQ001_6_xavier_03.wem",
                "EJNOJBCBJPP": 1.0,
                "KAGFOFEDGIA": "",
                "NNBGHAJLJLA": ""
            }
        ]
    },
    "4cf0603f-97d5-41c6-b2c1-f135ec871df0": {
        "HLGGFCENLPA": "4cf0603f-97d5-41c6-b2c1-f135ec871df0",
        "MKHDAJHOOJF": 1.0,
        "BEHKGKMMAPD": "Dialog",
        "FFDHLEAFBLM": 401320535,
        "LFIFIPFFFKO": 2,
        "MCKHLBHHEDL": "10bbb1b6-5e11-42fb-9b9d-ba67623ffd78",
        "EIKJKDICKMJ": [
            {
                "HLGOMILNFNK": "VO_EQ\\VO_furina\\vo_DYJEQ001_6_furina_15.wem",
                "EJNOJBCBJPP": 1.0,
                "KAGFOFEDGIA": "",
                "NNBGHAJLJLA": ""
            }
        ]
    },
    "4d26f836-52a2-49d3-83ea-3a4ceb68436a": {
        "HLGGFCENLPA": "4d26f836-52a2-49d3-83ea-3a4ceb68436a",
        "MKHDAJHOOJF": 1.0,
        "BEHKGKMMAPD": "Dialog",
        "FFDHLEAFBLM": 401320511,
        "LFIFIPFFFKO": 2,
        "MCKHLBHHEDL": "10bbb1b6-5e11-42fb-9b9d-ba67623ffd78",
        "EIKJKDICKMJ": [
            {
                "HLGOMILNFNK": "VO_EQ\\VO_paimon\\vo_DYJEQ001_6_paimon_02.wem",
                "EJNOJBCBJPP": 1.0,
                "KAGFOFEDGIA": "",
                "NNBGHAJLJLA": ""
            }
        ]
    },
    "4dbf5f6f-12d4-4374-a93f-2a72a00b0e52": {
        "HLGGFCENLPA": "4dbf5f6f-12d4-4374-a93f-2a72a00b0e52",
        "MKHDAJHOOJF": 1.0,
        "BEHKGKMMAPD": "Dialog",
        "FFDHLEAFBLM": 401320507,
        "LFIFIPFFFKO": 2,
        "MCKHLBHHEDL": "10bbb1b6-5e11-42fb-9b9d-ba67623ffd78",
        "EIKJKDICKMJ": [
            {
                "HLGOMILNFNK": "VO_EQ\\VO_furina\\vo_DYJEQ001_6_furina_03.wem",
                "EJNOJBCBJPP": 1.0,
                "KAGFOFEDGIA": "",
                "NNBGHAJLJLA": ""
            }
        ]
    },
    "590740af-896d-42d2-bb10-024ebca69ef9": {
        "HLGGFCENLPA": "590740af-896d-42d2-bb10-024ebca69ef9",
        "MKHDAJHOOJF": 1.0,
        "BEHKGKMMAPD": "Dialog",
        "FFDHLEAFBLM": 401320527,
        "LFIFIPFFFKO": 2,
        "MCKHLBHHEDL": "10bbb1b6-5e11-42fb-9b9d-ba67623ffd78",
        "EIKJKDICKMJ": [
            {
                "HLGOMILNFNK": "VO_EQ\\VO_furina\\vo_DYJEQ001_6_furina_11.wem",
                "EJNOJBCBJPP": 1.0,
                "KAGFOFEDGIA": "",
                "NNBGHAJLJLA": ""
            }
        ]
    },
    "5ad8f4ad-7446-40c4-b2f5-2e814943c9ec": {
        "HLGGFCENLPA": "5ad8f4ad-7446-40c4-b2f5-2e814943c9ec",
        "MKHDAJHOOJF": 1.0,
        "BEHKGKMMAPD": "Dialog",
        "FFDHLEAFBLM": 401320518,
        "LFIFIPFFFKO": 2,
        "MCKHLBHHEDL": "10bbb1b6-5e11-42fb-9b9d-ba67623ffd78",
        "EIKJKDICKMJ": [
            {
                "HLGOMILNFNK": "VO_EQ\\VO_NPC\\vo_DYJEQ001_6_xavier_05.wem",
                "EJNOJBCBJPP": 1.0,
                "KAGFOFEDGIA": "",
                "NNBGHAJLJLA": ""
            }
        ]
    },
    "64c8e6dd-f9af-40e8-b1f4-caa86283671e": {
        "HLGGFCENLPA": "64c8e6dd-f9af-40e8-b1f4-caa86283671e",
        "MKHDAJHOOJF": 1.0,
        "BEHKGKMMAPD": "Dialog",
        "FFDHLEAFBLM": 401320522,
        "LFIFIPFFFKO": 2,
        "MCKHLBHHEDL": "10bbb1b6-5e11-42fb-9b9d-ba67623ffd78",
        "EIKJKDICKMJ": [
            {
                "HLGOMILNFNK": "VO_EQ\\VO_furina\\vo_DYJEQ001_6_furina_09.wem",
                "EJNOJBCBJPP": 1.0,
                "KAGFOFEDGIA": "",
                "NNBGHAJLJLA": ""
            }
        ]
    },
    "6560055f-9fe4-45cd-901e-3bfa928d4801": {
        "HLGGFCENLPA": "6560055f-9fe4-45cd-901e-3bfa928d4801",
        "MKHDAJHOOJF": 1.0,
        "BEHKGKMMAPD": "Dialog",
        "FFDHLEAFBLM": 401320514,
        "LFIFIPFFFKO": 2,
        "MCKHLBHHEDL": "10bbb1b6-5e11-42fb-9b9d-ba67623ffd78",
        "EIKJKDICKMJ": [
            {
                "HLGOMILNFNK": "VO_EQ\\VO_paimon\\vo_DYJEQ001_6_paimon_03.wem",
                "EJNOJBCBJPP": 1.0,
                "KAGFOFEDGIA": "",
                "NNBGHAJLJLA": ""
            }
        ]
    },
    "6df62680-ba30-47eb-8600-5fa74ff0fbc5": {
        "HLGGFCENLPA": "6df62680-ba30-47eb-8600-5fa74ff0fbc5",
        "MKHDAJHOOJF": 1.0,
        "BEHKGKMMAPD": "Dialog",
        "FFDHLEAFBLM": 401320508,
        "LFIFIPFFFKO": 2,
        "MCKHLBHHEDL": "10bbb1b6-5e11-42fb-9b9d-ba67623ffd78",
        "EIKJKDICKMJ": [
            {
                "HLGOMILNFNK": "VO_EQ\\VO_chiori\\vo_DYJEQ001_6_chiori_01.wem",
                "EJNOJBCBJPP": 1.0,
                "KAGFOFEDGIA": "",
                "NNBGHAJLJLA": ""
            }
        ]
    },
    "7016cba9-24a4-44e1-9dcd-06c626633866": {
        "HLGGFCENLPA": "7016cba9-24a4-44e1-9dcd-06c626633866",
        "MKHDAJHOOJF": 1.0,
        "BEHKGKMMAPD": "Dialog",
        "FFDHLEAFBLM": 401320501,
        "LFIFIPFFFKO": 2,
        "MCKHLBHHEDL": "10bbb1b6-5e11-42fb-9b9d-ba67623ffd78",
        "EIKJKDICKMJ": [
            {
                "HLGOMILNFNK": "VO_EQ\\VO_paimon\\vo_DYJEQ001_6_paimon_01.wem",
                "EJNOJBCBJPP": 1.0,
                "KAGFOFEDGIA": "",
                "NNBGHAJLJLA": ""
            }
        ]
    },
    "83aeef48-331b-486d-bf2c-121844c4d29b": {
        "HLGGFCENLPA": "83aeef48-331b-486d-bf2c-121844c4d29b",
        "MKHDAJHOOJF": 1.0,
        "BEHKGKMMAPD": "Dialog",
        "FFDHLEAFBLM": 401320539,
        "LFIFIPFFFKO": 2,
        "MCKHLBHHEDL": "10bbb1b6-5e11-42fb-9b9d-ba67623ffd78",
        "EIKJKDICKMJ": [
            {
                "HLGOMILNFNK": "VO_EQ\\VO_furina\\vo_DYJEQ001_6_furina_16b_1.wem",
                "EJNOJBCBJPP": 1.0,
                "KAGFOFEDGIA": "",
                "NNBGHAJLJLA": ""
            }
        ]
    },
    "8825894a-fe3d-4511-925c-1d793385d872": {
        "HLGGFCENLPA": "8825894a-fe3d-4511-925c-1d793385d872",
        "MKHDAJHOOJF": 1.0,
        "BEHKGKMMAPD": "Dialog",
        "FFDHLEAFBLM": 401320517,
        "LFIFIPFFFKO": 2,
        "MCKHLBHHEDL": "10bbb1b6-5e11-42fb-9b9d-ba67623ffd78",
        "EIKJKDICKMJ": [
            {
                "HLGOMILNFNK": "VO_EQ\\VO_furina\\vo_DYJEQ001_6_furina_07.wem",
                "EJNOJBCBJPP": 1.0,
                "KAGFOFEDGIA": "",
                "NNBGHAJLJLA": ""
            }
        ]
    },
    "8be9eda9-86de-4085-b1b5-5f41a252116d": {
        "HLGGFCENLPA": "8be9eda9-86de-4085-b1b5-5f41a252116d",
        "MKHDAJHOOJF": 1.0,
        "BEHKGKMMAPD": "Dialog",
        "FFDHLEAFBLM": 401320523,
        "LFIFIPFFFKO": 2,
        "MCKHLBHHEDL": "10bbb1b6-5e11-42fb-9b9d-ba67623ffd78",
        "EIKJKDICKMJ": [
            {
                "HLGOMILNFNK": "VO_EQ\\VO_paimon\\vo_DYJEQ001_6_paimon_04a.wem",
                "EJNOJBCBJPP": 1.0,
                "KAGFOFEDGIA": "",
                "NNBGHAJLJLA": "",
                "BBKIPNLMMCL": 2
            },
            {
                "HLGOMILNFNK": "VO_EQ\\VO_paimon\\vo_DYJEQ001_6_paimon_04b.wem",
                "EJNOJBCBJPP": 1.0,
                "KAGFOFEDGIA": "",
                "NNBGHAJLJLA": "",
                "BBKIPNLMMCL": 1
            }
        ]
    },
    "a12abec2-6cc4-4758-8f69-724bb3f39d87": {
        "HLGGFCENLPA": "a12abec2-6cc4-4758-8f69-724bb3f39d87",
        "MKHDAJHOOJF": 1.0,
        "BEHKGKMMAPD": "Dialog",
        "FFDHLEAFBLM": 401320537,
        "LFIFIPFFFKO": 2,
        "MCKHLBHHEDL": "10bbb1b6-5e11-42fb-9b9d-ba67623ffd78",
        "EIKJKDICKMJ": [
            {
                "HLGOMILNFNK": "VO_EQ\\VO_furina\\vo_DYJEQ001_6_furina_16a_1.wem",
                "EJNOJBCBJPP": 1.0,
                "KAGFOFEDGIA": "",
                "NNBGHAJLJLA": ""
            }
        ]
    },
    "ad4a3fa1-d5ba-4878-ac31-e2b6be34fc39": {
        "HLGGFCENLPA": "ad4a3fa1-d5ba-4878-ac31-e2b6be34fc39",
        "MKHDAJHOOJF": 1.0,
        "BEHKGKMMAPD": "Dialog",
        "FFDHLEAFBLM": 401320530,
        "LFIFIPFFFKO": 2,
        "MCKHLBHHEDL": "10bbb1b6-5e11-42fb-9b9d-ba67623ffd78",
        "EIKJKDICKMJ": [
            {
                "HLGOMILNFNK": "VO_EQ\\VO_furina\\vo_DYJEQ001_6_furina_12.wem",
                "EJNOJBCBJPP": 1.0,
                "KAGFOFEDGIA": "",
                "NNBGHAJLJLA": ""
            }
        ]
    },
    "bb9a051c-4b34-44e5-b39a-75802d79fe84": {
        "HLGGFCENLPA": "bb9a051c-4b34-44e5-b39a-75802d79fe84",
        "MKHDAJHOOJF": 1.0,
        "BEHKGKMMAPD": "Dialog",
        "FFDHLEAFBLM": 401320515,
        "LFIFIPFFFKO": 2,
        "MCKHLBHHEDL": "10bbb1b6-5e11-42fb-9b9d-ba67623ffd78",
        "EIKJKDICKMJ": [
            {
                "HLGOMILNFNK": "VO_EQ\\VO_furina\\vo_DYJEQ001_6_furina_06.wem",
                "EJNOJBCBJPP": 1.0,
                "KAGFOFEDGIA": "",
                "NNBGHAJLJLA": ""
            }
        ]
    },
    "bfdf6029-a002-4afd-9dda-d7038cb29f5b": {
        "HLGGFCENLPA": "bfdf6029-a002-4afd-9dda-d7038cb29f5b",
        "MKHDAJHOOJF": 1.0,
        "BEHKGKMMAPD": "Dialog",
        "FFDHLEAFBLM": 401320531,
        "LFIFIPFFFKO": 2,
        "MCKHLBHHEDL": "10bbb1b6-5e11-42fb-9b9d-ba67623ffd78",
        "EIKJKDICKMJ": [
            {
                "HLGOMILNFNK": "VO_EQ\\VO_furina\\vo_DYJEQ001_6_furina_13.wem",
                "EJNOJBCBJPP": 1.0,
                "KAGFOFEDGIA": "",
                "NNBGHAJLJLA": ""
            }
        ]
    },
    "c1864434-72c4-4f0c-ad88-edaa87516b87": {
        "HLGGFCENLPA": "c1864434-72c4-4f0c-ad88-edaa87516b87",
        "MKHDAJHOOJF": 1.0,
        "BEHKGKMMAPD": "Dialog",
        "FFDHLEAFBLM": 401320505,
        "LFIFIPFFFKO": 2,
        "MCKHLBHHEDL": "10bbb1b6-5e11-42fb-9b9d-ba67623ffd78",
        "EIKJKDICKMJ": [
            {
                "HLGOMILNFNK": "VO_EQ\\VO_furina\\vo_DYJEQ001_6_furina_02.wem",
                "EJNOJBCBJPP": 1.0,
                "KAGFOFEDGIA": "",
                "NNBGHAJLJLA": ""
            }
        ]
    },
    "c75ff766-0d64-447c-b9bf-e615a34e9f85": {
        "HLGGFCENLPA": "c75ff766-0d64-447c-b9bf-e615a34e9f85",
        "MKHDAJHOOJF": 1.0,
        "BEHKGKMMAPD": "Dialog",
        "FFDHLEAFBLM": 401320502,
        "LFIFIPFFFKO": 2,
        "MCKHLBHHEDL": "10bbb1b6-5e11-42fb-9b9d-ba67623ffd78",
        "EIKJKDICKMJ": [
            {
                "HLGOMILNFNK": "VO_EQ\\VO_NPC\\vo_DYJEQ001_6_xavier_01.wem",
                "EJNOJBCBJPP": 1.0,
                "KAGFOFEDGIA": "",
                "NNBGHAJLJLA": ""
            }
        ]
    },
    "c9cc7b58-2389-4402-bdb4-93043555e184": {
        "HLGGFCENLPA": "c9cc7b58-2389-4402-bdb4-93043555e184",
        "MKHDAJHOOJF": 1.0,
        "BEHKGKMMAPD": "Dialog",
        "FFDHLEAFBLM": 401320529,
        "LFIFIPFFFKO": 2,
        "MCKHLBHHEDL": "10bbb1b6-5e11-42fb-9b9d-ba67623ffd78",
        "EIKJKDICKMJ": [
            {
                "HLGOMILNFNK": "VO_EQ\\VO_paimon\\vo_DYJEQ001_6_paimon_06a.wem",
                "EJNOJBCBJPP": 1.0,
                "KAGFOFEDGIA": "",
                "NNBGHAJLJLA": "",
                "BBKIPNLMMCL": 2
            },
            {
                "HLGOMILNFNK": "VO_EQ\\VO_paimon\\vo_DYJEQ001_6_paimon_06b.wem",
                "EJNOJBCBJPP": 1.0,
                "KAGFOFEDGIA": "",
                "NNBGHAJLJLA": "",
                "BBKIPNLMMCL": 1
            }
        ]
    },
    "d63866f3-a78a-4282-8193-d7cb6e530c9e": {
        "HLGGFCENLPA": "d63866f3-a78a-4282-8193-d7cb6e530c9e",
        "MKHDAJHOOJF": 1.0,
        "BEHKGKMMAPD": "Dialog",
        "FFDHLEAFBLM": 401320510,
        "LFIFIPFFFKO": 2,
        "MCKHLBHHEDL": "10bbb1b6-5e11-42fb-9b9d-ba67623ffd78",
        "EIKJKDICKMJ": [
            {
                "HLGOMILNFNK": "VO_EQ\\VO_furina\\vo_DYJEQ001_6_furina_05.wem",
                "EJNOJBCBJPP": 1.0,
                "KAGFOFEDGIA": "",
                "NNBGHAJLJLA": ""
            }
        ]
    },
    "e85e02d2-224e-42be-94af-8b467277afbc": {
        "HLGGFCENLPA": "e85e02d2-224e-42be-94af-8b467277afbc",
        "MKHDAJHOOJF": 1.0,
        "BEHKGKMMAPD": "Dialog",
        "FFDHLEAFBLM": 401320520,
        "LFIFIPFFFKO": 2,
        "MCKHLBHHEDL": "10bbb1b6-5e11-42fb-9b9d-ba67623ffd78",
        "EIKJKDICKMJ": [
            {
                "HLGOMILNFNK": "VO_EQ\\VO_furina\\vo_DYJEQ001_6_furina_08.wem",
                "EJNOJBCBJPP": 1.0,
                "KAGFOFEDGIA": "",
                "NNBGHAJLJLA": ""
            }
        ]
    },
    "e90126df-df0a-44c6-a24d-a29f4f2e5ce0": {
        "HLGGFCENLPA": "e90126df-df0a-44c6-a24d-a29f4f2e5ce0",
        "MKHDAJHOOJF": 1.0,
        "BEHKGKMMAPD": "Dialog",
        "FFDHLEAFBLM": 401320516,
        "LFIFIPFFFKO": 2,
        "MCKHLBHHEDL": "10bbb1b6-5e11-42fb-9b9d-ba67623ffd78",
        "EIKJKDICKMJ": [
            {
                "HLGOMILNFNK": "VO_EQ\\VO_NPC\\vo_DYJEQ001_6_xavier_04.wem",
                "EJNOJBCBJPP": 1.0,
                "KAGFOFEDGIA": "",
                "NNBGHAJLJLA": ""
            }
        ]
    },
    "eace72bd-8bfe-4c51-a988-719fde56d92a": {
        "HLGGFCENLPA": "eace72bd-8bfe-4c51-a988-719fde56d92a",
        "MKHDAJHOOJF": 1.0,
        "BEHKGKMMAPD": "Dialog",
        "FFDHLEAFBLM": 401320534,
        "LFIFIPFFFKO": 2,
        "MCKHLBHHEDL": "10bbb1b6-5e11-42fb-9b9d-ba67623ffd78",
        "EIKJKDICKMJ": [
            {
                "HLGOMILNFNK": "VO_EQ\\VO_furina\\vo_DYJEQ001_6_furina_14.wem",
                "EJNOJBCBJPP": 1.0,
                "KAGFOFEDGIA": "",
                "NNBGHAJLJLA": ""
            }
        ]
    },
    "fd7def4f-9964-4274-ba35-facb787f32b5": {
        "HLGGFCENLPA": "fd7def4f-9964-4274-ba35-facb787f32b5",
        "MKHDAJHOOJF": 1.0,
        "BEHKGKMMAPD": "Dialog",
        "FFDHLEAFBLM": 401320524,
        "LFIFIPFFFKO": 2,
        "MCKHLBHHEDL": "10bbb1b6-5e11-42fb-9b9d-ba67623ffd78",
        "EIKJKDICKMJ": [
            {
                "HLGOMILNFNK": "VO_EQ\\VO_furina\\vo_DYJEQ001_6_furina_10.wem",
                "EJNOJBCBJPP": 1.0,
                "KAGFOFEDGIA": "",
                "NNBGHAJLJLA": ""
            }
        ]
    }
}