{
    "0853f395-5aea-407c-90cf-94c5c8eccb3e": {
        "Guid": "0853f395-5aea-407c-90cf-94c5c8eccb3e",
        "playRate": 1.0,
        "GameTrigger": "Dialog",
        "gameTriggerArgs": 140071838,
        "personalConfig": 2,
        "ParentID": "399aa342-f8ea-4d35-8efc-7270a084f8ff",
        "SourceNames": [
            {
                "sourceFileName": "VO_LQ\\VO_paimon\\vo_SLLQ001_23_paimon_16.wem",
                "rate": 1.0,
                "avatarName": "",
                "emotion": ""
            }
        ]
    },
    "1069435f-2d56-44d3-a352-7b5b670bbf84": {
        "Guid": "1069435f-2d56-44d3-a352-7b5b670bbf84",
        "playRate": 1.0,
        "GameTrigger": "Dialog",
        "gameTriggerArgs": 140071834,
        "personalConfig": 2,
        "ParentID": "399aa342-f8ea-4d35-8efc-7270a084f8ff",
        "SourceNames": [
            {
                "sourceFileName": "VO_LQ\\VO_neuvillette\\vo_SLLQ001_23_neuvillette_16.wem",
                "rate": 1.0,
                "avatarName": "",
                "emotion": ""
            }
        ]
    },
    "15340a3f-b341-40fe-8973-8c3d8073bc92": {
        "Guid": "15340a3f-b341-40fe-8973-8c3d8073bc92",
        "playRate": 1.0,
        "GameTrigger": "Dialog",
        "gameTriggerArgs": 140071872,
        "personalConfig": 2,
        "ParentID": "399aa342-f8ea-4d35-8efc-7270a084f8ff",
        "SourceNames": [
            {
                "sourceFileName": "VO_LQ\\VO_neuvillette\\vo_SLLQ001_23_neuvillette_37.wem",
                "rate": 1.0,
                "avatarName": "",
                "emotion": ""
            }
        ]
    },
    "1bbfe085-379a-419d-bf97-33903a57ea25": {
        "Guid": "1bbfe085-379a-419d-bf97-33903a57ea25",
        "playRate": 1.0,
        "GameTrigger": "Dialog",
        "gameTriggerArgs": 140071807,
        "personalConfig": 2,
        "ParentID": "399aa342-f8ea-4d35-8efc-7270a084f8ff",
        "SourceNames": [
            {
                "sourceFileName": "VO_LQ\\VO_neuvillette\\vo_SLLQ001_23_neuvillette_04.wem",
                "rate": 1.0,
                "avatarName": "",
                "emotion": ""
            }
        ]
    },
    "1e0a7be6-8433-45fb-b4b5-4cab76a8685d": {
        "Guid": "1e0a7be6-8433-45fb-b4b5-4cab76a8685d",
        "playRate": 1.0,
        "GameTrigger": "Dialog",
        "gameTriggerArgs": 140071825,
        "personalConfig": 2,
        "ParentID": "399aa342-f8ea-4d35-8efc-7270a084f8ff",
        "SourceNames": [
            {
                "sourceFileName": "VO_LQ\\VO_neuvillette\\vo_SLLQ001_23_neuvillette_11.wem",
                "rate": 1.0,
                "avatarName": "",
                "emotion": ""
            }
        ]
    },
    "218383e4-105a-4b34-9062-4483089e135f": {
        "Guid": "218383e4-105a-4b34-9062-4483089e135f",
        "playRate": 1.0,
        "GameTrigger": "Dialog",
        "gameTriggerArgs": 140071861,
        "personalConfig": 2,
        "ParentID": "399aa342-f8ea-4d35-8efc-7270a084f8ff",
        "SourceNames": [
            {
                "sourceFileName": "VO_LQ\\VO_neuvillette\\vo_SLLQ001_23_neuvillette_30.wem",
                "rate": 1.0,
                "avatarName": "",
                "emotion": ""
            }
        ]
    },
    "22894688-47ed-4a2b-b4e7-e0a52419fcc9": {
        "Guid": "22894688-47ed-4a2b-b4e7-e0a52419fcc9",
        "playRate": 1.0,
        "GameTrigger": "Dialog",
        "gameTriggerArgs": 140071867,
        "personalConfig": 2,
        "ParentID": "399aa342-f8ea-4d35-8efc-7270a084f8ff",
        "SourceNames": [
            {
                "sourceFileName": "VO_LQ\\VO_neuvillette\\vo_SLLQ001_23_neuvillette_33.wem",
                "rate": 1.0,
                "avatarName": "",
                "emotion": ""
            }
        ]
    },
    "234de15b-b669-4b20-bc18-39f57b14a296": {
        "Guid": "234de15b-b669-4b20-bc18-39f57b14a296",
        "playRate": 1.0,
        "GameTrigger": "Dialog",
        "gameTriggerArgs": 140071858,
        "personalConfig": 2,
        "ParentID": "399aa342-f8ea-4d35-8efc-7270a084f8ff",
        "SourceNames": [
            {
                "sourceFileName": "VO_LQ\\VO_neuvillette\\vo_SLLQ001_23_neuvillette_29.wem",
                "rate": 1.0,
                "avatarName": "",
                "emotion": ""
            }
        ]
    },
    "2528846c-4309-47e7-a208-a1a76fab7267": {
        "Guid": "2528846c-4309-47e7-a208-a1a76fab7267",
        "playRate": 1.0,
        "GameTrigger": "Dialog",
        "gameTriggerArgs": 140071817,
        "personalConfig": 2,
        "ParentID": "399aa342-f8ea-4d35-8efc-7270a084f8ff",
        "SourceNames": [
            {
                "sourceFileName": "VO_LQ\\VO_neuvillette\\vo_SLLQ001_23_neuvillette_09.wem",
                "rate": 1.0,
                "avatarName": "",
                "emotion": ""
            }
        ]
    },
    "25de2462-e6b1-47e0-a0ef-53a9f078d0f0": {
        "Guid": "25de2462-e6b1-47e0-a0ef-53a9f078d0f0",
        "playRate": 1.0,
        "GameTrigger": "Dialog",
        "gameTriggerArgs": 140071827,
        "personalConfig": 2,
        "ParentID": "399aa342-f8ea-4d35-8efc-7270a084f8ff",
        "SourceNames": [
            {
                "sourceFileName": "VO_LQ\\VO_neuvillette\\vo_SLLQ001_23_neuvillette_12.wem",
                "rate": 1.0,
                "avatarName": "",
                "emotion": ""
            }
        ]
    },
    "29158017-6bed-41cd-a56b-3821ed617ad1": {
        "Guid": "29158017-6bed-41cd-a56b-3821ed617ad1",
        "playRate": 1.0,
        "GameTrigger": "Dialog",
        "gameTriggerArgs": 140071828,
        "personalConfig": 2,
        "ParentID": "399aa342-f8ea-4d35-8efc-7270a084f8ff",
        "SourceNames": [
            {
                "sourceFileName": "VO_LQ\\VO_paimon\\vo_SLLQ001_23_paimon_14.wem",
                "rate": 1.0,
                "avatarName": "",
                "emotion": ""
            }
        ]
    },
    "2ea1084e-9ef6-4eee-bfc8-fc19410f3f31": {
        "Guid": "2ea1084e-9ef6-4eee-bfc8-fc19410f3f31",
        "playRate": 1.0,
        "GameTrigger": "Dialog",
        "gameTriggerArgs": 140071829,
        "personalConfig": 2,
        "ParentID": "399aa342-f8ea-4d35-8efc-7270a084f8ff",
        "SourceNames": [
            {
                "sourceFileName": "VO_LQ\\VO_neuvillette\\vo_SLLQ001_23_neuvillette_13.wem",
                "rate": 1.0,
                "avatarName": "",
                "emotion": ""
            }
        ]
    },
    "378a0cf4-89fa-41df-8153-ed146284c781": {
        "Guid": "378a0cf4-89fa-41df-8153-ed146284c781",
        "playRate": 1.0,
        "GameTrigger": "Dialog",
        "gameTriggerArgs": 140071845,
        "personalConfig": 2,
        "ParentID": "399aa342-f8ea-4d35-8efc-7270a084f8ff",
        "SourceNames": [
            {
                "sourceFileName": "VO_LQ\\VO_neuvillette\\vo_SLLQ001_23_neuvillette_20.wem",
                "rate": 1.0,
                "avatarName": "",
                "emotion": ""
            }
        ]
    },
    "3b16e27d-1692-44e0-9892-129c9e938022": {
        "Guid": "3b16e27d-1692-44e0-9892-129c9e938022",
        "playRate": 1.0,
        "GameTrigger": "Dialog",
        "gameTriggerArgs": 140071843,
        "personalConfig": 2,
        "ParentID": "399aa342-f8ea-4d35-8efc-7270a084f8ff",
        "SourceNames": [
            {
                "sourceFileName": "VO_LQ\\VO_paimon\\vo_SLLQ001_23_paimon_19.wem",
                "rate": 1.0,
                "avatarName": "",
                "emotion": ""
            }
        ]
    },
    "3b759ad0-42fd-4728-95ec-3ad8427db027": {
        "Guid": "3b759ad0-42fd-4728-95ec-3ad8427db027",
        "playRate": 1.0,
        "GameTrigger": "Dialog",
        "gameTriggerArgs": 140071830,
        "personalConfig": 2,
        "ParentID": "399aa342-f8ea-4d35-8efc-7270a084f8ff",
        "SourceNames": [
            {
                "sourceFileName": "VO_LQ\\VO_neuvillette\\vo_SLLQ001_23_neuvillette_14.wem",
                "rate": 1.0,
                "avatarName": "",
                "emotion": ""
            }
        ]
    },
    "3be92f92-b302-4262-bfb6-59bf502593b3": {
        "Guid": "3be92f92-b302-4262-bfb6-59bf502593b3",
        "playRate": 1.0,
        "GameTrigger": "Dialog",
        "gameTriggerArgs": 140071809,
        "personalConfig": 2,
        "ParentID": "399aa342-f8ea-4d35-8efc-7270a084f8ff",
        "SourceNames": [
            {
                "sourceFileName": "VO_LQ\\VO_paimon\\vo_SLLQ001_23_paimon_04.wem",
                "rate": 1.0,
                "avatarName": "",
                "emotion": ""
            }
        ]
    },
    "3e26b709-afc1-4024-9536-67f84f08e635": {
        "Guid": "3e26b709-afc1-4024-9536-67f84f08e635",
        "playRate": 1.0,
        "GameTrigger": "Dialog",
        "gameTriggerArgs": 140071822,
        "personalConfig": 2,
        "ParentID": "399aa342-f8ea-4d35-8efc-7270a084f8ff",
        "SourceNames": [
            {
                "sourceFileName": "VO_LQ\\VO_paimon\\vo_SLLQ001_23_paimon_11.wem",
                "rate": 1.0,
                "avatarName": "",
                "emotion": ""
            }
        ]
    },
    "3efe056f-f2bb-4d3c-afd3-fb0e10966059": {
        "Guid": "3efe056f-f2bb-4d3c-afd3-fb0e10966059",
        "playRate": 1.0,
        "GameTrigger": "Dialog",
        "gameTriggerArgs": 140071848,
        "personalConfig": 2,
        "ParentID": "399aa342-f8ea-4d35-8efc-7270a084f8ff",
        "SourceNames": [
            {
                "sourceFileName": "VO_LQ\\VO_neuvillette\\vo_SLLQ001_23_neuvillette_22.wem",
                "rate": 1.0,
                "avatarName": "",
                "emotion": ""
            }
        ]
    },
    "41f96881-2406-4475-b706-5f7bfc36fc6d": {
        "Guid": "41f96881-2406-4475-b706-5f7bfc36fc6d",
        "playRate": 1.0,
        "GameTrigger": "Dialog",
        "gameTriggerArgs": 140071852,
        "personalConfig": 2,
        "ParentID": "399aa342-f8ea-4d35-8efc-7270a084f8ff",
        "SourceNames": [
            {
                "sourceFileName": "VO_LQ\\VO_neuvillette\\vo_SLLQ001_23_neuvillette_25.wem",
                "rate": 1.0,
                "avatarName": "",
                "emotion": ""
            }
        ]
    },
    "42a41520-bac4-4fa3-8482-38f98518e5c2": {
        "Guid": "42a41520-bac4-4fa3-8482-38f98518e5c2",
        "playRate": 1.0,
        "GameTrigger": "Dialog",
        "gameTriggerArgs": 140071823,
        "personalConfig": 2,
        "ParentID": "399aa342-f8ea-4d35-8efc-7270a084f8ff",
        "SourceNames": [
            {
                "sourceFileName": "VO_LQ\\VO_neuvillette\\vo_SLLQ001_23_neuvillette_10.wem",
                "rate": 1.0,
                "avatarName": "",
                "emotion": ""
            }
        ]
    },
    "445a0e2d-7890-448c-92d8-f2910c63586c": {
        "Guid": "445a0e2d-7890-448c-92d8-f2910c63586c",
        "playRate": 1.0,
        "GameTrigger": "Dialog",
        "gameTriggerArgs": 140071870,
        "personalConfig": 2,
        "ParentID": "399aa342-f8ea-4d35-8efc-7270a084f8ff",
        "SourceNames": [
            {
                "sourceFileName": "VO_LQ\\VO_neuvillette\\vo_SLLQ001_23_neuvillette_36.wem",
                "rate": 1.0,
                "avatarName": "",
                "emotion": ""
            }
        ]
    },
    "45255f30-6313-4263-8f7e-bd8a3c2c5f50": {
        "Guid": "45255f30-6313-4263-8f7e-bd8a3c2c5f50",
        "playRate": 1.0,
        "GameTrigger": "Dialog",
        "gameTriggerArgs": 140071831,
        "personalConfig": 2,
        "ParentID": "399aa342-f8ea-4d35-8efc-7270a084f8ff",
        "SourceNames": [
            {
                "sourceFileName": "VO_LQ\\VO_neuvillette\\vo_SLLQ001_23_neuvillette_15.wem",
                "rate": 1.0,
                "avatarName": "",
                "emotion": ""
            }
        ]
    },
    "475a9307-435b-4b55-9e1e-697ca11680b1": {
        "Guid": "475a9307-435b-4b55-9e1e-697ca11680b1",
        "playRate": 1.0,
        "GameTrigger": "Dialog",
        "gameTriggerArgs": 140071856,
        "personalConfig": 2,
        "ParentID": "399aa342-f8ea-4d35-8efc-7270a084f8ff",
        "SourceNames": [
            {
                "sourceFileName": "VO_LQ\\VO_neuvillette\\vo_SLLQ001_23_neuvillette_27.wem",
                "rate": 1.0,
                "avatarName": "",
                "emotion": ""
            }
        ]
    },
    "4fccd77c-54b2-4c5f-8e7d-9c74ef251432": {
        "Guid": "4fccd77c-54b2-4c5f-8e7d-9c74ef251432",
        "playRate": 1.0,
        "GameTrigger": "Dialog",
        "gameTriggerArgs": 140071864,
        "personalConfig": 2,
        "ParentID": "399aa342-f8ea-4d35-8efc-7270a084f8ff",
        "SourceNames": [
            {
                "sourceFileName": "VO_LQ\\VO_neuvillette\\vo_SLLQ001_23_neuvillette_32.wem",
                "rate": 1.0,
                "avatarName": "",
                "emotion": ""
            }
        ]
    },
    "6055a516-f577-43a9-8853-4375cd056339": {
        "Guid": "6055a516-f577-43a9-8853-4375cd056339",
        "playRate": 1.0,
        "GameTrigger": "Dialog",
        "gameTriggerArgs": 140071847,
        "personalConfig": 2,
        "ParentID": "399aa342-f8ea-4d35-8efc-7270a084f8ff",
        "SourceNames": [
            {
                "sourceFileName": "VO_LQ\\VO_neuvillette\\vo_SLLQ001_23_neuvillette_21.wem",
                "rate": 1.0,
                "avatarName": "",
                "emotion": ""
            }
        ]
    },
    "6597b3e3-764f-4365-ba90-e71e700d3c7e": {
        "Guid": "6597b3e3-764f-4365-ba90-e71e700d3c7e",
        "playRate": 1.0,
        "GameTrigger": "Dialog",
        "gameTriggerArgs": 140071857,
        "personalConfig": 2,
        "ParentID": "399aa342-f8ea-4d35-8efc-7270a084f8ff",
        "SourceNames": [
            {
                "sourceFileName": "VO_LQ\\VO_neuvillette\\vo_SLLQ001_23_neuvillette_28.wem",
                "rate": 1.0,
                "avatarName": "",
                "emotion": ""
            }
        ]
    },
    "67c880e1-492d-4ec6-8508-ffbf8f1a78ba": {
        "Guid": "67c880e1-492d-4ec6-8508-ffbf8f1a78ba",
        "playRate": 1.0,
        "GameTrigger": "Dialog",
        "gameTriggerArgs": 140071808,
        "personalConfig": 2,
        "ParentID": "399aa342-f8ea-4d35-8efc-7270a084f8ff",
        "SourceNames": [
            {
                "sourceFileName": "VO_LQ\\VO_neuvillette\\vo_SLLQ001_23_neuvillette_05.wem",
                "rate": 1.0,
                "avatarName": "",
                "emotion": ""
            }
        ]
    },
    "6a7d1fa1-6d60-4ede-a025-889d9c482df6": {
        "Guid": "6a7d1fa1-6d60-4ede-a025-889d9c482df6",
        "playRate": 1.0,
        "GameTrigger": "Dialog",
        "gameTriggerArgs": 140071835,
        "personalConfig": 2,
        "ParentID": "399aa342-f8ea-4d35-8efc-7270a084f8ff",
        "SourceNames": [
            {
                "sourceFileName": "VO_LQ\\VO_neuvillette\\vo_SLLQ001_23_neuvillette_17.wem",
                "rate": 1.0,
                "avatarName": "",
                "emotion": ""
            }
        ]
    },
    "6dcbd4b7-194b-4850-8af5-9a2cf61a13eb": {
        "Guid": "6dcbd4b7-194b-4850-8af5-9a2cf61a13eb",
        "playRate": 1.0,
        "GameTrigger": "Dialog",
        "gameTriggerArgs": 140071818,
        "personalConfig": 2,
        "ParentID": "399aa342-f8ea-4d35-8efc-7270a084f8ff",
        "SourceNames": [
            {
                "sourceFileName": "VO_LQ\\VO_paimon\\vo_SLLQ001_23_paimon_08.wem",
                "rate": 1.0,
                "avatarName": "",
                "emotion": ""
            }
        ]
    },
    "7327fbcf-e820-4989-a027-2feb9afa1ab8": {
        "Guid": "7327fbcf-e820-4989-a027-2feb9afa1ab8",
        "playRate": 1.0,
        "GameTrigger": "Dialog",
        "gameTriggerArgs": 140071869,
        "personalConfig": 2,
        "ParentID": "399aa342-f8ea-4d35-8efc-7270a084f8ff",
        "SourceNames": [
            {
                "sourceFileName": "VO_LQ\\VO_neuvillette\\vo_SLLQ001_23_neuvillette_35.wem",
                "rate": 1.0,
                "avatarName": "",
                "emotion": ""
            }
        ]
    },
    "772399e3-4700-4e75-b88a-aa98f77c61ba": {
        "Guid": "772399e3-4700-4e75-b88a-aa98f77c61ba",
        "playRate": 1.0,
        "GameTrigger": "Dialog",
        "gameTriggerArgs": 140071805,
        "personalConfig": 2,
        "ParentID": "399aa342-f8ea-4d35-8efc-7270a084f8ff",
        "SourceNames": [
            {
                "sourceFileName": "VO_LQ\\VO_neuvillette\\vo_SLLQ001_23_neuvillette_03.wem",
                "rate": 1.0,
                "avatarName": "",
                "emotion": ""
            }
        ]
    },
    "812fbbec-c228-4865-a23c-b180a8dc628f": {
        "Guid": "812fbbec-c228-4865-a23c-b180a8dc628f",
        "playRate": 1.0,
        "GameTrigger": "Dialog",
        "gameTriggerArgs": 140071826,
        "personalConfig": 2,
        "ParentID": "399aa342-f8ea-4d35-8efc-7270a084f8ff",
        "SourceNames": [
            {
                "sourceFileName": "VO_LQ\\VO_paimon\\vo_SLLQ001_23_paimon_13.wem",
                "rate": 1.0,
                "avatarName": "",
                "emotion": ""
            }
        ]
    },
    "851b20db-1ce3-4c48-a969-9c01fdddf733": {
        "Guid": "851b20db-1ce3-4c48-a969-9c01fdddf733",
        "playRate": 1.0,
        "GameTrigger": "Dialog",
        "gameTriggerArgs": 140071851,
        "personalConfig": 2,
        "ParentID": "399aa342-f8ea-4d35-8efc-7270a084f8ff",
        "SourceNames": [
            {
                "sourceFileName": "VO_LQ\\VO_neuvillette\\vo_SLLQ001_23_neuvillette_24.wem",
                "rate": 1.0,
                "avatarName": "",
                "emotion": ""
            }
        ]
    },
    "88a5ecda-1845-4db2-be59-704f701175b5": {
        "Guid": "88a5ecda-1845-4db2-be59-704f701175b5",
        "playRate": 1.0,
        "GameTrigger": "Dialog",
        "gameTriggerArgs": 140071860,
        "personalConfig": 2,
        "ParentID": "399aa342-f8ea-4d35-8efc-7270a084f8ff",
        "SourceNames": [
            {
                "sourceFileName": "VO_LQ\\VO_paimon\\vo_SLLQ001_23_paimon_24.wem",
                "rate": 1.0,
                "avatarName": "",
                "emotion": ""
            }
        ]
    },
    "9029b25d-0172-4463-b463-226f205ebd4e": {
        "Guid": "9029b25d-0172-4463-b463-226f205ebd4e",
        "playRate": 1.0,
        "GameTrigger": "Dialog",
        "gameTriggerArgs": 140071862,
        "personalConfig": 2,
        "ParentID": "399aa342-f8ea-4d35-8efc-7270a084f8ff",
        "SourceNames": [
            {
                "sourceFileName": "VO_LQ\\VO_neuvillette\\vo_SLLQ001_23_neuvillette_31.wem",
                "rate": 1.0,
                "avatarName": "",
                "emotion": ""
            }
        ]
    },
    "9a454ade-9db9-4cf8-b36e-03558d7d91ca": {
        "Guid": "9a454ade-9db9-4cf8-b36e-03558d7d91ca",
        "playRate": 1.0,
        "GameTrigger": "Dialog",
        "gameTriggerArgs": 140071803,
        "personalConfig": 2,
        "ParentID": "399aa342-f8ea-4d35-8efc-7270a084f8ff",
        "SourceNames": [
            {
                "sourceFileName": "VO_LQ\\VO_paimon\\vo_SLLQ001_23_paimon_02.wem",
                "rate": 1.0,
                "avatarName": "",
                "emotion": ""
            }
        ]
    },
    "9c2ee357-29cd-4d1d-91dd-89858892b051": {
        "Guid": "9c2ee357-29cd-4d1d-91dd-89858892b051",
        "playRate": 1.0,
        "GameTrigger": "Dialog",
        "gameTriggerArgs": 140071854,
        "personalConfig": 2,
        "ParentID": "399aa342-f8ea-4d35-8efc-7270a084f8ff",
        "SourceNames": [
            {
                "sourceFileName": "VO_LQ\\VO_neuvillette\\vo_SLLQ001_23_neuvillette_26.wem",
                "rate": 1.0,
                "avatarName": "",
                "emotion": ""
            }
        ]
    },
    "a044f513-2469-43ef-9b5d-0e872e868c5a": {
        "Guid": "a044f513-2469-43ef-9b5d-0e872e868c5a",
        "playRate": 1.0,
        "GameTrigger": "Dialog",
        "gameTriggerArgs": 140071846,
        "personalConfig": 2,
        "ParentID": "399aa342-f8ea-4d35-8efc-7270a084f8ff",
        "SourceNames": [
            {
                "sourceFileName": "VO_LQ\\VO_paimon\\vo_SLLQ001_23_paimon_21.wem",
                "rate": 1.0,
                "avatarName": "",
                "emotion": ""
            }
        ]
    },
    "a0b305af-e909-439e-9c8e-07212470ab3f": {
        "Guid": "a0b305af-e909-439e-9c8e-07212470ab3f",
        "playRate": 1.0,
        "GameTrigger": "Dialog",
        "gameTriggerArgs": 140071801,
        "personalConfig": 2,
        "ParentID": "399aa342-f8ea-4d35-8efc-7270a084f8ff",
        "SourceNames": [
            {
                "sourceFileName": "VO_LQ\\VO_neuvillette\\vo_SLLQ001_23_neuvillette_01.wem",
                "rate": 1.0,
                "avatarName": "",
                "emotion": ""
            }
        ]
    },
    "a12a8ea2-92ef-4ef5-847e-4b0c35e17c2c": {
        "Guid": "a12a8ea2-92ef-4ef5-847e-4b0c35e17c2c",
        "playRate": 1.0,
        "GameTrigger": "Dialog",
        "gameTriggerArgs": 140071812,
        "personalConfig": 2,
        "ParentID": "399aa342-f8ea-4d35-8efc-7270a084f8ff",
        "SourceNames": [
            {
                "sourceFileName": "VO_LQ\\VO_paimon\\vo_SLLQ001_23_paimon_05.wem",
                "rate": 1.0,
                "avatarName": "",
                "emotion": ""
            }
        ]
    },
    "a9c30f83-4794-4020-a178-c21d7deed953": {
        "Guid": "a9c30f83-4794-4020-a178-c21d7deed953",
        "playRate": 1.0,
        "GameTrigger": "Dialog",
        "gameTriggerArgs": 140071819,
        "personalConfig": 2,
        "ParentID": "399aa342-f8ea-4d35-8efc-7270a084f8ff",
        "SourceNames": [
            {
                "sourceFileName": "VO_LQ\\VO_paimon\\vo_SLLQ001_23_paimon_09.wem",
                "rate": 1.0,
                "avatarName": "",
                "emotion": ""
            }
        ]
    },
    "ad2ae2db-af19-483f-9a20-3dcf1bc3ae48": {
        "Guid": "ad2ae2db-af19-483f-9a20-3dcf1bc3ae48",
        "playRate": 1.0,
        "GameTrigger": "Dialog",
        "gameTriggerArgs": 140071824,
        "personalConfig": 2,
        "ParentID": "399aa342-f8ea-4d35-8efc-7270a084f8ff",
        "SourceNames": [
            {
                "sourceFileName": "VO_LQ\\VO_paimon\\vo_SLLQ001_23_paimon_12.wem",
                "rate": 1.0,
                "avatarName": "",
                "emotion": ""
            }
        ]
    },
    "b4c58da7-ac51-4518-9d0f-a628b4bca39a": {
        "Guid": "b4c58da7-ac51-4518-9d0f-a628b4bca39a",
        "playRate": 1.0,
        "GameTrigger": "Dialog",
        "gameTriggerArgs": 140071816,
        "personalConfig": 2,
        "ParentID": "399aa342-f8ea-4d35-8efc-7270a084f8ff",
        "SourceNames": [
            {
                "sourceFileName": "VO_LQ\\VO_neuvillette\\vo_SLLQ001_23_neuvillette_08.wem",
                "rate": 1.0,
                "avatarName": "",
                "emotion": ""
            }
        ]
    },
    "b74123c3-08c6-4723-9685-acf7edd2833e": {
        "Guid": "b74123c3-08c6-4723-9685-acf7edd2833e",
        "playRate": 1.0,
        "GameTrigger": "Dialog",
        "gameTriggerArgs": 140071871,
        "personalConfig": 2,
        "ParentID": "399aa342-f8ea-4d35-8efc-7270a084f8ff",
        "SourceNames": [
            {
                "sourceFileName": "VO_LQ\\VO_paimon\\vo_SLLQ001_23_paimon_27.wem",
                "rate": 1.0,
                "avatarName": "",
                "emotion": ""
            }
        ]
    },
    "b99200b5-994c-4705-bdda-a5a21658f0a7": {
        "Guid": "b99200b5-994c-4705-bdda-a5a21658f0a7",
        "playRate": 1.0,
        "GameTrigger": "Dialog",
        "gameTriggerArgs": 140071814,
        "personalConfig": 2,
        "ParentID": "399aa342-f8ea-4d35-8efc-7270a084f8ff",
        "SourceNames": [
            {
                "sourceFileName": "VO_LQ\\VO_paimon\\vo_SLLQ001_23_paimon_06.wem",
                "rate": 1.0,
                "avatarName": "",
                "emotion": ""
            }
        ]
    },
    "bdcf7cdb-2e9c-49d7-8adc-2492b9e7eb3a": {
        "Guid": "bdcf7cdb-2e9c-49d7-8adc-2492b9e7eb3a",
        "playRate": 1.0,
        "GameTrigger": "Dialog",
        "gameTriggerArgs": 140071865,
        "personalConfig": 2,
        "ParentID": "399aa342-f8ea-4d35-8efc-7270a084f8ff",
        "SourceNames": [
            {
                "sourceFileName": "VO_LQ\\VO_paimon\\vo_SLLQ001_23_paimon_26.wem",
                "rate": 1.0,
                "avatarName": "",
                "emotion": ""
            }
        ]
    },
    "c6bfd6dd-10c6-4c72-bb77-75933487c957": {
        "Guid": "c6bfd6dd-10c6-4c72-bb77-75933487c957",
        "playRate": 1.0,
        "GameTrigger": "Dialog",
        "gameTriggerArgs": 140071806,
        "personalConfig": 2,
        "ParentID": "399aa342-f8ea-4d35-8efc-7270a084f8ff",
        "SourceNames": [
            {
                "sourceFileName": "VO_LQ\\VO_paimon\\vo_SLLQ001_23_paimon_03.wem",
                "rate": 1.0,
                "avatarName": "",
                "emotion": ""
            }
        ]
    },
    "c96de089-b30d-435d-9265-630f45557c6c": {
        "Guid": "c96de089-b30d-435d-9265-630f45557c6c",
        "playRate": 1.0,
        "GameTrigger": "Dialog",
        "gameTriggerArgs": 140071863,
        "personalConfig": 2,
        "ParentID": "399aa342-f8ea-4d35-8efc-7270a084f8ff",
        "SourceNames": [
            {
                "sourceFileName": "VO_LQ\\VO_paimon\\vo_SLLQ001_23_paimon_25.wem",
                "rate": 1.0,
                "avatarName": "",
                "emotion": ""
            }
        ]
    },
    "ce4be4c8-7df1-422a-92ee-fef6e8c999c3": {
        "Guid": "ce4be4c8-7df1-422a-92ee-fef6e8c999c3",
        "playRate": 1.0,
        "GameTrigger": "Dialog",
        "gameTriggerArgs": 140071855,
        "personalConfig": 2,
        "ParentID": "399aa342-f8ea-4d35-8efc-7270a084f8ff",
        "SourceNames": [
            {
                "sourceFileName": "VO_LQ\\VO_paimon\\vo_SLLQ001_23_paimon_23.wem",
                "rate": 1.0,
                "avatarName": "",
                "emotion": ""
            }
        ]
    },
    "d0a156d9-7e09-4cb0-8abd-725d19986bb1": {
        "Guid": "d0a156d9-7e09-4cb0-8abd-725d19986bb1",
        "playRate": 1.0,
        "GameTrigger": "Dialog",
        "gameTriggerArgs": 140071810,
        "personalConfig": 2,
        "ParentID": "399aa342-f8ea-4d35-8efc-7270a084f8ff",
        "SourceNames": [
            {
                "sourceFileName": "VO_LQ\\VO_neuvillette\\vo_SLLQ001_23_neuvillette_06.wem",
                "rate": 1.0,
                "avatarName": "",
                "emotion": ""
            }
        ]
    },
    "d26ecfd9-a24b-4a89-adab-0ed78af33161": {
        "Guid": "d26ecfd9-a24b-4a89-adab-0ed78af33161",
        "playRate": 1.0,
        "GameTrigger": "Dialog",
        "gameTriggerArgs": 140071849,
        "personalConfig": 2,
        "ParentID": "399aa342-f8ea-4d35-8efc-7270a084f8ff",
        "SourceNames": [
            {
                "sourceFileName": "VO_LQ\\VO_paimon\\vo_SLLQ001_23_paimon_22.wem",
                "rate": 1.0,
                "avatarName": "",
                "emotion": ""
            }
        ]
    },
    "dcfce161-f86c-4769-908c-eb0e627b1979": {
        "Guid": "dcfce161-f86c-4769-908c-eb0e627b1979",
        "playRate": 1.0,
        "GameTrigger": "Dialog",
        "gameTriggerArgs": 140071837,
        "personalConfig": 2,
        "ParentID": "399aa342-f8ea-4d35-8efc-7270a084f8ff",
        "SourceNames": [
            {
                "sourceFileName": "VO_LQ\\VO_neuvillette\\vo_SLLQ001_23_neuvillette_18.wem",
                "rate": 1.0,
                "avatarName": "",
                "emotion": ""
            }
        ]
    },
    "e171bb3a-292e-480c-8c83-7df3d5548652": {
        "Guid": "e171bb3a-292e-480c-8c83-7df3d5548652",
        "playRate": 1.0,
        "GameTrigger": "Dialog",
        "gameTriggerArgs": 140071868,
        "personalConfig": 2,
        "ParentID": "399aa342-f8ea-4d35-8efc-7270a084f8ff",
        "SourceNames": [
            {
                "sourceFileName": "VO_LQ\\VO_neuvillette\\vo_SLLQ001_23_neuvillette_34.wem",
                "rate": 1.0,
                "avatarName": "",
                "emotion": ""
            }
        ]
    },
    "e206dc86-ecdf-439f-b3ce-253384b487e7": {
        "Guid": "e206dc86-ecdf-439f-b3ce-253384b487e7",
        "playRate": 1.0,
        "GameTrigger": "Dialog",
        "gameTriggerArgs": 140071802,
        "personalConfig": 2,
        "ParentID": "399aa342-f8ea-4d35-8efc-7270a084f8ff",
        "SourceNames": [
            {
                "sourceFileName": "VO_LQ\\VO_paimon\\vo_SLLQ001_23_paimon_01.wem",
                "rate": 1.0,
                "avatarName": "",
                "emotion": ""
            }
        ]
    },
    "e26260f4-71e0-4dd8-bc2c-5afd344d5dc2": {
        "Guid": "e26260f4-71e0-4dd8-bc2c-5afd344d5dc2",
        "playRate": 1.0,
        "GameTrigger": "Dialog",
        "gameTriggerArgs": 140071839,
        "personalConfig": 2,
        "ParentID": "399aa342-f8ea-4d35-8efc-7270a084f8ff",
        "SourceNames": [
            {
                "sourceFileName": "VO_LQ\\VO_neuvillette\\vo_SLLQ001_23_neuvillette_19.wem",
                "rate": 1.0,
                "avatarName": "",
                "emotion": ""
            }
        ]
    },
    "e723fd83-52b2-4ba9-abee-033bf705c575": {
        "Guid": "e723fd83-52b2-4ba9-abee-033bf705c575",
        "playRate": 1.0,
        "GameTrigger": "Dialog",
        "gameTriggerArgs": 140071844,
        "personalConfig": 2,
        "ParentID": "399aa342-f8ea-4d35-8efc-7270a084f8ff",
        "SourceNames": [
            {
                "sourceFileName": "VO_LQ\\VO_paimon\\vo_SLLQ001_23_paimon_20.wem",
                "rate": 1.0,
                "avatarName": "",
                "emotion": ""
            }
        ]
    },
    "e9c2129d-82c8-48a8-8b13-445054059b8b": {
        "Guid": "e9c2129d-82c8-48a8-8b13-445054059b8b",
        "playRate": 1.0,
        "GameTrigger": "Dialog",
        "gameTriggerArgs": 140071811,
        "personalConfig": 2,
        "ParentID": "399aa342-f8ea-4d35-8efc-7270a084f8ff",
        "SourceNames": [
            {
                "sourceFileName": "VO_LQ\\VO_neuvillette\\vo_SLLQ001_23_neuvillette_07.wem",
                "rate": 1.0,
                "avatarName": "",
                "emotion": ""
            }
        ]
    },
    "eb3cdc96-aea2-4500-beba-0b1436e9fc08": {
        "Guid": "eb3cdc96-aea2-4500-beba-0b1436e9fc08",
        "playRate": 1.0,
        "GameTrigger": "Dialog",
        "gameTriggerArgs": 140071836,
        "personalConfig": 2,
        "ParentID": "399aa342-f8ea-4d35-8efc-7270a084f8ff",
        "SourceNames": [
            {
                "sourceFileName": "VO_LQ\\VO_paimon\\vo_SLLQ001_23_paimon_15.wem",
                "rate": 1.0,
                "avatarName": "",
                "emotion": ""
            }
        ]
    },
    "efaa510a-bdb5-4564-a0d6-96342b4ef53b": {
        "Guid": "efaa510a-bdb5-4564-a0d6-96342b4ef53b",
        "playRate": 1.0,
        "GameTrigger": "Dialog",
        "gameTriggerArgs": 140071850,
        "personalConfig": 2,
        "ParentID": "399aa342-f8ea-4d35-8efc-7270a084f8ff",
        "SourceNames": [
            {
                "sourceFileName": "VO_LQ\\VO_neuvillette\\vo_SLLQ001_23_neuvillette_23.wem",
                "rate": 1.0,
                "avatarName": "",
                "emotion": ""
            }
        ]
    },
    "f0bad778-5168-42b3-af69-e34cf17c307f": {
        "Guid": "f0bad778-5168-42b3-af69-e34cf17c307f",
        "playRate": 1.0,
        "GameTrigger": "Dialog",
        "gameTriggerArgs": 140071815,
        "personalConfig": 2,
        "ParentID": "399aa342-f8ea-4d35-8efc-7270a084f8ff",
        "SourceNames": [
            {
                "sourceFileName": "VO_LQ\\VO_paimon\\vo_SLLQ001_23_paimon_07.wem",
                "rate": 1.0,
                "avatarName": "",
                "emotion": ""
            }
        ]
    },
    "f81b4f25-f094-4850-bd3f-2c18ff9a5649": {
        "Guid": "f81b4f25-f094-4850-bd3f-2c18ff9a5649",
        "playRate": 1.0,
        "GameTrigger": "Dialog",
        "gameTriggerArgs": 140071841,
        "personalConfig": 2,
        "ParentID": "399aa342-f8ea-4d35-8efc-7270a084f8ff",
        "SourceNames": [
            {
                "sourceFileName": "VO_LQ\\VO_paimon\\vo_SLLQ001_23_paimon_18.wem",
                "rate": 1.0,
                "avatarName": "",
                "emotion": ""
            }
        ]
    },
    "f8c888d0-7eda-44df-bbe4-8789b79127fd": {
        "Guid": "f8c888d0-7eda-44df-bbe4-8789b79127fd",
        "playRate": 1.0,
        "GameTrigger": "Dialog",
        "gameTriggerArgs": 140071840,
        "personalConfig": 2,
        "ParentID": "399aa342-f8ea-4d35-8efc-7270a084f8ff",
        "SourceNames": [
            {
                "sourceFileName": "VO_LQ\\VO_paimon\\vo_SLLQ001_23_paimon_17.wem",
                "rate": 1.0,
                "avatarName": "",
                "emotion": ""
            }
        ]
    },
    "f9729f1c-18c1-4ade-95f7-addf6b8f8c8f": {
        "Guid": "f9729f1c-18c1-4ade-95f7-addf6b8f8c8f",
        "playRate": 1.0,
        "GameTrigger": "Dialog",
        "gameTriggerArgs": 140071820,
        "personalConfig": 2,
        "ParentID": "399aa342-f8ea-4d35-8efc-7270a084f8ff",
        "SourceNames": [
            {
                "sourceFileName": "VO_LQ\\VO_paimon\\vo_SLLQ001_23_paimon_10.wem",
                "rate": 1.0,
                "avatarName": "",
                "emotion": ""
            }
        ]
    },
    "fe0136e8-2a00-4a24-a02e-ae6c3bbe1483": {
        "Guid": "fe0136e8-2a00-4a24-a02e-ae6c3bbe1483",
        "playRate": 1.0,
        "GameTrigger": "Dialog",
        "gameTriggerArgs": 140071804,
        "personalConfig": 2,
        "ParentID": "399aa342-f8ea-4d35-8efc-7270a084f8ff",
        "SourceNames": [
            {
                "sourceFileName": "VO_LQ\\VO_neuvillette\\vo_SLLQ001_23_neuvillette_02.wem",
                "rate": 1.0,
                "avatarName": "",
                "emotion": ""
            }
        ]
    }
}