{
    "024854a5-06fb-4315-b4cc-981445d75f3b": {
        "Guid": "024854a5-06fb-4315-b4cc-981445d75f3b",
        "playRate": 1.0,
        "GameTrigger": "Dialog",
        "gameTriggerArgs": 130300726,
        "personalConfig": 2,
        "ParentID": "429b71fd-9326-4808-b51b-2fc45c9aa189",
        "SourceNames": [
            {
                "sourceFileName": "VO_LQ\\VO_yoimiya\\vo_XGLQ201_7_yoimiya_17.wem",
                "rate": 1.0,
                "avatarName": "",
                "emotion": ""
            }
        ]
    },
    "03b8a5b5-6300-4ee3-8299-94736ff0a392": {
        "Guid": "03b8a5b5-6300-4ee3-8299-94736ff0a392",
        "playRate": 1.0,
        "GameTrigger": "Dialog",
        "gameTriggerArgs": 130300734,
        "personalConfig": 2,
        "ParentID": "429b71fd-9326-4808-b51b-2fc45c9aa189",
        "SourceNames": [
            {
                "sourceFileName": "VO_LQ\\VO_yoimiya\\vo_XGLQ201_7_yoimiya_23.wem",
                "rate": 1.0,
                "avatarName": "",
                "emotion": ""
            }
        ]
    },
    "049b666e-3836-4c3a-b326-e79771bb3a35": {
        "Guid": "049b666e-3836-4c3a-b326-e79771bb3a35",
        "playRate": 1.0,
        "GameTrigger": "Dialog",
        "gameTriggerArgs": 130300752,
        "personalConfig": 2,
        "ParentID": "429b71fd-9326-4808-b51b-2fc45c9aa189",
        "SourceNames": [
            {
                "sourceFileName": "VO_LQ\\VO_paimon\\vo_XGLQ201_7_paimon_07.wem",
                "rate": 1.0,
                "avatarName": "",
                "emotion": ""
            }
        ]
    },
    "08297b3b-fcfd-48ab-99fa-2e9c683a88ce": {
        "Guid": "08297b3b-fcfd-48ab-99fa-2e9c683a88ce",
        "playRate": 1.0,
        "GameTrigger": "Dialog",
        "gameTriggerArgs": 130300717,
        "personalConfig": 2,
        "ParentID": "429b71fd-9326-4808-b51b-2fc45c9aa189",
        "SourceNames": [
            {
                "sourceFileName": "VO_LQ\\VO_paimon\\vo_XGLQ201_7_paimon_01.wem",
                "rate": 1.0,
                "avatarName": "",
                "emotion": ""
            }
        ]
    },
    "0a11efab-0813-4e65-97d7-7668c2e83d5a": {
        "Guid": "0a11efab-0813-4e65-97d7-7668c2e83d5a",
        "playRate": 1.0,
        "GameTrigger": "Dialog",
        "gameTriggerArgs": 130300709,
        "personalConfig": 2,
        "ParentID": "429b71fd-9326-4808-b51b-2fc45c9aa189",
        "SourceNames": [
            {
                "sourceFileName": "VO_LQ\\VO_yoimiya\\vo_XGLQ201_7_yoimiya_07.wem",
                "rate": 1.0,
                "avatarName": "",
                "emotion": ""
            }
        ]
    },
    "16453906-c6e6-4b49-9ee5-81834b7aa1c4": {
        "Guid": "16453906-c6e6-4b49-9ee5-81834b7aa1c4",
        "playRate": 1.0,
        "GameTrigger": "Dialog",
        "gameTriggerArgs": 130300746,
        "personalConfig": 2,
        "GIFECDGOOPJ": 1,
        "ParentID": "429b71fd-9326-4808-b51b-2fc45c9aa189",
        "SourceNames": [
            {
                "sourceFileName": "VO_LQ\\VO_paimon\\vo_XGLQ201_7_paimon_06.wem",
                "rate": 1.0,
                "avatarName": "",
                "emotion": ""
            }
        ]
    },
    "1e68adaa-9963-4fb9-aeb6-9f995b0a4b37": {
        "Guid": "1e68adaa-9963-4fb9-aeb6-9f995b0a4b37",
        "playRate": 1.0,
        "GameTrigger": "Dialog",
        "gameTriggerArgs": 130300742,
        "personalConfig": 2,
        "ParentID": "429b71fd-9326-4808-b51b-2fc45c9aa189",
        "SourceNames": [
            {
                "sourceFileName": "VO_LQ\\VO_yoimiya\\vo_XGLQ201_7_yoimiya_28.wem",
                "rate": 1.0,
                "avatarName": "",
                "emotion": ""
            }
        ]
    },
    "2e780cc1-2c93-481c-aba0-a6ff1c297cee": {
        "Guid": "2e780cc1-2c93-481c-aba0-a6ff1c297cee",
        "playRate": 1.0,
        "GameTrigger": "Dialog",
        "gameTriggerArgs": 130300721,
        "personalConfig": 2,
        "ParentID": "429b71fd-9326-4808-b51b-2fc45c9aa189",
        "SourceNames": [
            {
                "sourceFileName": "VO_LQ\\VO_yoimiya\\vo_XGLQ201_7_yoimiya_13.wem",
                "rate": 1.0,
                "avatarName": "",
                "emotion": ""
            }
        ]
    },
    "335a741b-f469-4af0-bcba-3094aa7ae8ea": {
        "Guid": "335a741b-f469-4af0-bcba-3094aa7ae8ea",
        "playRate": 1.0,
        "GameTrigger": "Dialog",
        "gameTriggerArgs": 130300714,
        "personalConfig": 2,
        "ParentID": "429b71fd-9326-4808-b51b-2fc45c9aa189",
        "SourceNames": [
            {
                "sourceFileName": "VO_LQ\\VO_npc\\vo_XGLQ201_7_avin_06.wem",
                "rate": 1.0,
                "avatarName": "",
                "emotion": ""
            }
        ]
    },
    "3e3f3fbb-bc0b-453c-96cf-83d700b96cd9": {
        "Guid": "3e3f3fbb-bc0b-453c-96cf-83d700b96cd9",
        "playRate": 1.0,
        "GameTrigger": "Dialog",
        "gameTriggerArgs": 130300708,
        "personalConfig": 2,
        "ParentID": "429b71fd-9326-4808-b51b-2fc45c9aa189",
        "SourceNames": [
            {
                "sourceFileName": "VO_LQ\\VO_yoimiya\\vo_XGLQ201_7_yoimiya_06.wem",
                "rate": 1.0,
                "avatarName": "",
                "emotion": ""
            }
        ]
    },
    "3ef54acd-b8a5-48c7-b133-3f75a6b99438": {
        "Guid": "3ef54acd-b8a5-48c7-b133-3f75a6b99438",
        "playRate": 1.0,
        "GameTrigger": "Dialog",
        "gameTriggerArgs": 130300749,
        "personalConfig": 2,
        "ParentID": "429b71fd-9326-4808-b51b-2fc45c9aa189",
        "SourceNames": [
            {
                "sourceFileName": "VO_LQ\\VO_yoimiya\\vo_XGLQ201_7_yoimiya_32.wem",
                "rate": 1.0,
                "avatarName": "",
                "emotion": ""
            }
        ]
    },
    "40c4a96d-c78d-4132-8ad6-1706460e8ebf": {
        "Guid": "40c4a96d-c78d-4132-8ad6-1706460e8ebf",
        "playRate": 1.0,
        "GameTrigger": "Dialog",
        "gameTriggerArgs": 130300706,
        "personalConfig": 2,
        "ParentID": "429b71fd-9326-4808-b51b-2fc45c9aa189",
        "SourceNames": [
            {
                "sourceFileName": "VO_LQ\\VO_yoimiya\\vo_XGLQ201_7_yoimiya_04.wem",
                "rate": 1.0,
                "avatarName": "",
                "emotion": ""
            }
        ]
    },
    "40ef9fc2-3aab-4742-af3f-e23fa242fb75": {
        "Guid": "40ef9fc2-3aab-4742-af3f-e23fa242fb75",
        "playRate": 1.0,
        "GameTrigger": "Dialog",
        "gameTriggerArgs": 130300702,
        "personalConfig": 2,
        "ParentID": "429b71fd-9326-4808-b51b-2fc45c9aa189",
        "SourceNames": [
            {
                "sourceFileName": "VO_LQ\\VO_npc\\vo_XGLQ201_7_avin_01.wem",
                "rate": 1.0,
                "avatarName": "",
                "emotion": ""
            }
        ]
    },
    "42107fe2-a610-4485-9621-b0d74cbcb15c": {
        "Guid": "42107fe2-a610-4485-9621-b0d74cbcb15c",
        "playRate": 1.0,
        "GameTrigger": "Dialog",
        "gameTriggerArgs": 130300735,
        "personalConfig": 2,
        "ParentID": "429b71fd-9326-4808-b51b-2fc45c9aa189",
        "SourceNames": [
            {
                "sourceFileName": "VO_LQ\\VO_paimon\\vo_XGLQ201_7_paimon_03.wem",
                "rate": 1.0,
                "avatarName": "",
                "emotion": ""
            }
        ]
    },
    "48c4d09f-e906-4cb4-a500-dfe25215c017": {
        "Guid": "48c4d09f-e906-4cb4-a500-dfe25215c017",
        "playRate": 1.0,
        "GameTrigger": "Dialog",
        "gameTriggerArgs": 130300704,
        "personalConfig": 2,
        "ParentID": "429b71fd-9326-4808-b51b-2fc45c9aa189",
        "SourceNames": [
            {
                "sourceFileName": "VO_LQ\\VO_yoimiya\\vo_XGLQ201_7_yoimiya_03.wem",
                "rate": 1.0,
                "avatarName": "",
                "emotion": ""
            }
        ]
    },
    "4c52a1dd-3a61-4081-b792-8f581132138e": {
        "Guid": "4c52a1dd-3a61-4081-b792-8f581132138e",
        "playRate": 1.0,
        "GameTrigger": "Dialog",
        "gameTriggerArgs": 130300743,
        "personalConfig": 2,
        "ParentID": "429b71fd-9326-4808-b51b-2fc45c9aa189",
        "SourceNames": [
            {
                "sourceFileName": "VO_LQ\\VO_paimon\\vo_XGLQ201_7_paimon_04.wem",
                "rate": 1.0,
                "avatarName": "",
                "emotion": ""
            }
        ]
    },
    "53efc54c-2e9a-4f84-bbaa-a8b8ab54d595": {
        "Guid": "53efc54c-2e9a-4f84-bbaa-a8b8ab54d595",
        "playRate": 1.0,
        "GameTrigger": "Dialog",
        "gameTriggerArgs": 130300718,
        "personalConfig": 2,
        "ParentID": "429b71fd-9326-4808-b51b-2fc45c9aa189",
        "SourceNames": [
            {
                "sourceFileName": "VO_LQ\\VO_yoimiya\\vo_XGLQ201_7_yoimiya_10.wem",
                "rate": 1.0,
                "avatarName": "",
                "emotion": ""
            }
        ]
    },
    "5c55c6a4-bc84-4e12-8de6-09e965f72268": {
        "Guid": "5c55c6a4-bc84-4e12-8de6-09e965f72268",
        "playRate": 1.0,
        "GameTrigger": "Dialog",
        "gameTriggerArgs": 130300727,
        "personalConfig": 2,
        "ParentID": "429b71fd-9326-4808-b51b-2fc45c9aa189",
        "SourceNames": [
            {
                "sourceFileName": "VO_LQ\\VO_yoimiya\\vo_XGLQ201_7_yoimiya_18.wem",
                "rate": 1.0,
                "avatarName": "",
                "emotion": ""
            }
        ]
    },
    "60f223ff-f33f-46ca-ba84-b9cbd2c8f5f1": {
        "Guid": "60f223ff-f33f-46ca-ba84-b9cbd2c8f5f1",
        "playRate": 1.0,
        "GameTrigger": "Dialog",
        "gameTriggerArgs": 130300738,
        "personalConfig": 2,
        "ParentID": "429b71fd-9326-4808-b51b-2fc45c9aa189",
        "SourceNames": [
            {
                "sourceFileName": "VO_LQ\\VO_yoimiya\\vo_XGLQ201_7_yoimiya_25.wem",
                "rate": 1.0,
                "avatarName": "",
                "emotion": ""
            }
        ]
    },
    "6a44fda8-af2a-4e7f-9535-90c76eb3f69f": {
        "Guid": "6a44fda8-af2a-4e7f-9535-90c76eb3f69f",
        "playRate": 1.0,
        "GameTrigger": "Dialog",
        "gameTriggerArgs": 130300753,
        "personalConfig": 2,
        "ParentID": "429b71fd-9326-4808-b51b-2fc45c9aa189",
        "SourceNames": [
            {
                "sourceFileName": "VO_LQ\\VO_yoimiya\\vo_XGLQ201_7_yoimiya_33.wem",
                "rate": 1.0,
                "avatarName": "",
                "emotion": ""
            }
        ]
    },
    "6fc5a806-a38c-4308-b2a1-837dca7ebe07": {
        "Guid": "6fc5a806-a38c-4308-b2a1-837dca7ebe07",
        "playRate": 1.0,
        "GameTrigger": "Dialog",
        "gameTriggerArgs": 130300736,
        "personalConfig": 2,
        "ParentID": "429b71fd-9326-4808-b51b-2fc45c9aa189",
        "SourceNames": [
            {
                "sourceFileName": "VO_LQ\\VO_yoimiya\\vo_XGLQ201_7_yoimiya_24.wem",
                "rate": 1.0,
                "avatarName": "",
                "emotion": ""
            }
        ]
    },
    "768272b0-c867-4a26-92ab-82ae45d04ab4": {
        "Guid": "768272b0-c867-4a26-92ab-82ae45d04ab4",
        "playRate": 1.0,
        "GameTrigger": "Dialog",
        "gameTriggerArgs": 130300745,
        "personalConfig": 2,
        "ParentID": "429b71fd-9326-4808-b51b-2fc45c9aa189",
        "SourceNames": [
            {
                "sourceFileName": "VO_LQ\\VO_paimon\\vo_XGLQ201_7_paimon_05.wem",
                "rate": 1.0,
                "avatarName": "",
                "emotion": ""
            }
        ]
    },
    "7762e661-c10e-4f3b-9fce-8e88cd09c2a2": {
        "Guid": "7762e661-c10e-4f3b-9fce-8e88cd09c2a2",
        "playRate": 1.0,
        "GameTrigger": "Dialog",
        "gameTriggerArgs": 130300728,
        "personalConfig": 2,
        "ParentID": "429b71fd-9326-4808-b51b-2fc45c9aa189",
        "SourceNames": [
            {
                "sourceFileName": "VO_LQ\\VO_paimon\\vo_XGLQ201_7_paimon_02.wem",
                "rate": 1.0,
                "avatarName": "",
                "emotion": ""
            }
        ]
    },
    "7a476275-28ae-434c-92d4-bb7b35b09a2f": {
        "Guid": "7a476275-28ae-434c-92d4-bb7b35b09a2f",
        "playRate": 1.0,
        "GameTrigger": "Dialog",
        "gameTriggerArgs": 130300731,
        "personalConfig": 2,
        "ParentID": "429b71fd-9326-4808-b51b-2fc45c9aa189",
        "SourceNames": [
            {
                "sourceFileName": "VO_LQ\\VO_yoimiya\\vo_XGLQ201_7_yoimiya_21.wem",
                "rate": 1.0,
                "avatarName": "",
                "emotion": ""
            }
        ]
    },
    "81b840ef-c411-47fa-936e-a7c710a7e936": {
        "Guid": "81b840ef-c411-47fa-936e-a7c710a7e936",
        "playRate": 1.0,
        "GameTrigger": "Dialog",
        "gameTriggerArgs": 130300723,
        "personalConfig": 2,
        "ParentID": "429b71fd-9326-4808-b51b-2fc45c9aa189",
        "SourceNames": [
            {
                "sourceFileName": "VO_LQ\\VO_yoimiya\\vo_XGLQ201_7_yoimiya_14.wem",
                "rate": 1.0,
                "avatarName": "",
                "emotion": ""
            }
        ]
    },
    "83be284f-ba4e-43cb-9aef-e4507bc1932a": {
        "Guid": "83be284f-ba4e-43cb-9aef-e4507bc1932a",
        "playRate": 1.0,
        "GameTrigger": "Dialog",
        "gameTriggerArgs": 130300747,
        "personalConfig": 2,
        "ParentID": "429b71fd-9326-4808-b51b-2fc45c9aa189",
        "SourceNames": [
            {
                "sourceFileName": "VO_LQ\\VO_yoimiya\\vo_XGLQ201_7_yoimiya_30.wem",
                "rate": 1.0,
                "avatarName": "",
                "emotion": ""
            }
        ]
    },
    "968f9a0f-83e3-4681-826d-ae32d0e85f0e": {
        "Guid": "968f9a0f-83e3-4681-826d-ae32d0e85f0e",
        "playRate": 1.0,
        "GameTrigger": "Dialog",
        "gameTriggerArgs": 130300713,
        "personalConfig": 2,
        "ParentID": "429b71fd-9326-4808-b51b-2fc45c9aa189",
        "SourceNames": [
            {
                "sourceFileName": "VO_LQ\\VO_yoimiya\\vo_XGLQ201_7_yoimiya_08.wem",
                "rate": 1.0,
                "avatarName": "",
                "emotion": ""
            }
        ]
    },
    "9a324a06-a095-4aac-b893-e05ff88a7cda": {
        "Guid": "9a324a06-a095-4aac-b893-e05ff88a7cda",
        "playRate": 1.0,
        "GameTrigger": "Dialog",
        "gameTriggerArgs": 130300748,
        "personalConfig": 2,
        "ParentID": "429b71fd-9326-4808-b51b-2fc45c9aa189",
        "SourceNames": [
            {
                "sourceFileName": "VO_LQ\\VO_yoimiya\\vo_XGLQ201_7_yoimiya_31.wem",
                "rate": 1.0,
                "avatarName": "",
                "emotion": ""
            }
        ]
    },
    "abd71eac-e782-430c-ac25-1e861f924f1d": {
        "Guid": "abd71eac-e782-430c-ac25-1e861f924f1d",
        "playRate": 1.0,
        "GameTrigger": "Dialog",
        "gameTriggerArgs": 130300729,
        "personalConfig": 2,
        "ParentID": "429b71fd-9326-4808-b51b-2fc45c9aa189",
        "SourceNames": [
            {
                "sourceFileName": "VO_LQ\\VO_yoimiya\\vo_XGLQ201_7_yoimiya_19.wem",
                "rate": 1.0,
                "avatarName": "",
                "emotion": ""
            }
        ]
    },
    "acc9bf11-d8a4-462e-84e2-ad102b571728": {
        "Guid": "acc9bf11-d8a4-462e-84e2-ad102b571728",
        "playRate": 1.0,
        "GameTrigger": "Dialog",
        "gameTriggerArgs": 130300719,
        "personalConfig": 2,
        "ParentID": "429b71fd-9326-4808-b51b-2fc45c9aa189",
        "SourceNames": [
            {
                "sourceFileName": "VO_LQ\\VO_yoimiya\\vo_XGLQ201_7_yoimiya_11.wem",
                "rate": 1.0,
                "avatarName": "",
                "emotion": ""
            }
        ]
    },
    "b1749ae6-52b2-4328-9ba1-4f7b44638050": {
        "Guid": "b1749ae6-52b2-4328-9ba1-4f7b44638050",
        "playRate": 1.0,
        "GameTrigger": "Dialog",
        "gameTriggerArgs": 130300740,
        "personalConfig": 2,
        "ParentID": "429b71fd-9326-4808-b51b-2fc45c9aa189",
        "SourceNames": [
            {
                "sourceFileName": "VO_LQ\\VO_yoimiya\\vo_XGLQ201_7_yoimiya_26.wem",
                "rate": 1.0,
                "avatarName": "",
                "emotion": ""
            }
        ]
    },
    "b1b135a9-ba69-4356-ba86-e001edd02da4": {
        "Guid": "b1b135a9-ba69-4356-ba86-e001edd02da4",
        "playRate": 1.0,
        "GameTrigger": "Dialog",
        "gameTriggerArgs": 130300711,
        "personalConfig": 2,
        "ParentID": "429b71fd-9326-4808-b51b-2fc45c9aa189",
        "SourceNames": [
            {
                "sourceFileName": "VO_LQ\\VO_npc\\vo_XGLQ201_7_avin_04.wem",
                "rate": 1.0,
                "avatarName": "",
                "emotion": ""
            }
        ]
    },
    "b21034ba-e0fd-4ebc-9db0-4ba5f618b360": {
        "Guid": "b21034ba-e0fd-4ebc-9db0-4ba5f618b360",
        "playRate": 1.0,
        "GameTrigger": "Dialog",
        "gameTriggerArgs": 130300732,
        "personalConfig": 2,
        "ParentID": "429b71fd-9326-4808-b51b-2fc45c9aa189",
        "SourceNames": [
            {
                "sourceFileName": "VO_LQ\\VO_yoimiya\\vo_XGLQ201_7_yoimiya_22.wem",
                "rate": 1.0,
                "avatarName": "",
                "emotion": ""
            }
        ]
    },
    "b3021cc0-f250-47f9-a4fa-d52d28ac2fde": {
        "Guid": "b3021cc0-f250-47f9-a4fa-d52d28ac2fde",
        "playRate": 1.0,
        "GameTrigger": "Dialog",
        "gameTriggerArgs": 130300701,
        "personalConfig": 2,
        "ParentID": "429b71fd-9326-4808-b51b-2fc45c9aa189",
        "SourceNames": [
            {
                "sourceFileName": "VO_LQ\\VO_yoimiya\\vo_XGLQ201_7_yoimiya_01.wem",
                "rate": 1.0,
                "avatarName": "",
                "emotion": ""
            }
        ]
    },
    "b8d9b030-0f47-4202-83c5-73f883447c24": {
        "Guid": "b8d9b030-0f47-4202-83c5-73f883447c24",
        "playRate": 1.0,
        "GameTrigger": "Dialog",
        "gameTriggerArgs": 130300724,
        "personalConfig": 2,
        "ParentID": "429b71fd-9326-4808-b51b-2fc45c9aa189",
        "SourceNames": [
            {
                "sourceFileName": "VO_LQ\\VO_yoimiya\\vo_XGLQ201_7_yoimiya_15.wem",
                "rate": 1.0,
                "avatarName": "",
                "emotion": ""
            }
        ]
    },
    "c2fda3ab-5529-426e-bf45-e94138a58780": {
        "Guid": "c2fda3ab-5529-426e-bf45-e94138a58780",
        "playRate": 1.0,
        "GameTrigger": "Dialog",
        "gameTriggerArgs": 130300707,
        "personalConfig": 2,
        "ParentID": "429b71fd-9326-4808-b51b-2fc45c9aa189",
        "SourceNames": [
            {
                "sourceFileName": "VO_LQ\\VO_yoimiya\\vo_XGLQ201_7_yoimiya_05.wem",
                "rate": 1.0,
                "avatarName": "",
                "emotion": ""
            }
        ]
    },
    "c616f649-5c0a-45d8-8ac0-308981e83504": {
        "Guid": "c616f649-5c0a-45d8-8ac0-308981e83504",
        "playRate": 1.0,
        "GameTrigger": "Dialog",
        "gameTriggerArgs": 130300730,
        "personalConfig": 2,
        "ParentID": "429b71fd-9326-4808-b51b-2fc45c9aa189",
        "SourceNames": [
            {
                "sourceFileName": "VO_LQ\\VO_yoimiya\\vo_XGLQ201_7_yoimiya_20.wem",
                "rate": 1.0,
                "avatarName": "",
                "emotion": ""
            }
        ]
    },
    "c9375044-8b4b-4b58-a294-3486c5ae79d8": {
        "Guid": "c9375044-8b4b-4b58-a294-3486c5ae79d8",
        "playRate": 1.0,
        "GameTrigger": "Dialog",
        "gameTriggerArgs": 130300705,
        "personalConfig": 2,
        "ParentID": "429b71fd-9326-4808-b51b-2fc45c9aa189",
        "SourceNames": [
            {
                "sourceFileName": "VO_LQ\\VO_npc\\vo_XGLQ201_7_avin_02.wem",
                "rate": 1.0,
                "avatarName": "",
                "emotion": ""
            }
        ]
    },
    "cdfbc3e0-fef3-46be-90ea-81585a11b520": {
        "Guid": "cdfbc3e0-fef3-46be-90ea-81585a11b520",
        "playRate": 1.0,
        "GameTrigger": "Dialog",
        "gameTriggerArgs": 130300712,
        "personalConfig": 2,
        "ParentID": "429b71fd-9326-4808-b51b-2fc45c9aa189",
        "SourceNames": [
            {
                "sourceFileName": "VO_LQ\\VO_npc\\vo_XGLQ201_7_avin_05.wem",
                "rate": 1.0,
                "avatarName": "",
                "emotion": ""
            }
        ]
    },
    "d0db6e72-fa5d-45e4-a1db-ef4ae5363eae": {
        "Guid": "d0db6e72-fa5d-45e4-a1db-ef4ae5363eae",
        "playRate": 1.0,
        "GameTrigger": "Dialog",
        "gameTriggerArgs": 130300744,
        "personalConfig": 2,
        "ParentID": "429b71fd-9326-4808-b51b-2fc45c9aa189",
        "SourceNames": [
            {
                "sourceFileName": "VO_LQ\\VO_yoimiya\\vo_XGLQ201_7_yoimiya_29.wem",
                "rate": 1.0,
                "avatarName": "",
                "emotion": ""
            }
        ]
    },
    "d651c4fa-3903-43f7-a54e-3b003e848772": {
        "Guid": "d651c4fa-3903-43f7-a54e-3b003e848772",
        "playRate": 1.0,
        "GameTrigger": "Dialog",
        "gameTriggerArgs": 130300716,
        "personalConfig": 2,
        "ParentID": "429b71fd-9326-4808-b51b-2fc45c9aa189",
        "SourceNames": [
            {
                "sourceFileName": "VO_LQ\\VO_yoimiya\\vo_XGLQ201_7_yoimiya_09.wem",
                "rate": 1.0,
                "avatarName": "",
                "emotion": ""
            }
        ]
    },
    "d8dfde8e-c101-4fd1-994a-c3cdd7e8f70e": {
        "Guid": "d8dfde8e-c101-4fd1-994a-c3cdd7e8f70e",
        "playRate": 1.0,
        "GameTrigger": "Dialog",
        "gameTriggerArgs": 130300720,
        "personalConfig": 2,
        "ParentID": "429b71fd-9326-4808-b51b-2fc45c9aa189",
        "SourceNames": [
            {
                "sourceFileName": "VO_LQ\\VO_yoimiya\\vo_XGLQ201_7_yoimiya_12.wem",
                "rate": 1.0,
                "avatarName": "",
                "emotion": ""
            }
        ]
    },
    "ddddaaf0-c2de-4aaf-b80b-3fedf2487543": {
        "Guid": "ddddaaf0-c2de-4aaf-b80b-3fedf2487543",
        "playRate": 1.0,
        "GameTrigger": "Dialog",
        "gameTriggerArgs": 130300710,
        "personalConfig": 2,
        "ParentID": "429b71fd-9326-4808-b51b-2fc45c9aa189",
        "SourceNames": [
            {
                "sourceFileName": "VO_LQ\\VO_npc\\vo_XGLQ201_7_avin_03.wem",
                "rate": 1.0,
                "avatarName": "",
                "emotion": ""
            }
        ]
    },
    "ebd6e721-6ce2-4f54-8397-8f274694952c": {
        "Guid": "ebd6e721-6ce2-4f54-8397-8f274694952c",
        "playRate": 1.0,
        "GameTrigger": "Dialog",
        "gameTriggerArgs": 130300741,
        "personalConfig": 2,
        "ParentID": "429b71fd-9326-4808-b51b-2fc45c9aa189",
        "SourceNames": [
            {
                "sourceFileName": "VO_LQ\\VO_yoimiya\\vo_XGLQ201_7_yoimiya_27.wem",
                "rate": 1.0,
                "avatarName": "",
                "emotion": ""
            }
        ]
    },
    "f062bc25-5f7f-451e-bea1-860a8c78ab1d": {
        "Guid": "f062bc25-5f7f-451e-bea1-860a8c78ab1d",
        "playRate": 1.0,
        "GameTrigger": "Dialog",
        "gameTriggerArgs": 130300725,
        "personalConfig": 2,
        "ParentID": "429b71fd-9326-4808-b51b-2fc45c9aa189",
        "SourceNames": [
            {
                "sourceFileName": "VO_LQ\\VO_yoimiya\\vo_XGLQ201_7_yoimiya_16.wem",
                "rate": 1.0,
                "avatarName": "",
                "emotion": ""
            }
        ]
    },
    "f7c272d9-34d9-416d-8de1-1d94d2d46ff7": {
        "Guid": "f7c272d9-34d9-416d-8de1-1d94d2d46ff7",
        "playRate": 1.0,
        "GameTrigger": "Dialog",
        "gameTriggerArgs": 130300703,
        "personalConfig": 2,
        "ParentID": "429b71fd-9326-4808-b51b-2fc45c9aa189",
        "SourceNames": [
            {
                "sourceFileName": "VO_LQ\\VO_yoimiya\\vo_XGLQ201_7_yoimiya_02.wem",
                "rate": 1.0,
                "avatarName": "",
                "emotion": ""
            }
        ]
    }
}