{
    "2a6090bf-3e7c-4f9f-a8a7-e708b330c7d1": {
        "Guid": "2a6090bf-3e7c-4f9f-a8a7-e708b330c7d1",
        "playRate": 1.0,
        "GameTrigger": "Dialog",
        "gameTriggerArgs": 1018302810,
        "personalConfig": 2,
        "GIFECDGOOPJ": 1,
        "ParentID": "bdbc2849-73a2-406f-87e1-d9418215254b",
        "SourceNames": [
            {
                "sourceFileName": "VO_EQ\\VO_lisa\\vo_LXEQ001_4_lisa_01.wem",
                "rate": 1.0,
                "avatarName": "",
                "emotion": ""
            }
        ]
    },
    "88629eda-7175-4082-9f96-c1fdc9b04cea": {
        "Guid": "88629eda-7175-4082-9f96-c1fdc9b04cea",
        "playRate": 1.0,
        "GameTrigger": "Dialog",
        "gameTriggerArgs": 1018302830,
        "personalConfig": 2,
        "GIFECDGOOPJ": 1,
        "ParentID": "bdbc2849-73a2-406f-87e1-d9418215254b",
        "SourceNames": [
            {
                "sourceFileName": "VO_EQ\\VO_collei\\vo_LXEQ001_4_collei_01.wem",
                "rate": 1.0,
                "avatarName": "",
                "emotion": ""
            }
        ]
    },
    "a9be18f0-cec6-465e-b130-6a943a9d6895": {
        "Guid": "a9be18f0-cec6-465e-b130-6a943a9d6895",
        "playRate": 1.0,
        "GameTrigger": "Dialog",
        "gameTriggerArgs": 1018302790,
        "personalConfig": 2,
        "GIFECDGOOPJ": 1,
        "ParentID": "bdbc2849-73a2-406f-87e1-d9418215254b",
        "SourceNames": [
            {
                "sourceFileName": "VO_EQ\\VO_NPC\\vo_LXEQ001_4_gafoor_01.wem",
                "rate": 1.0,
                "avatarName": "",
                "emotion": ""
            }
        ]
    }
}