{
    "0175dfd0-5946-4525-8f02-926c5a7d05ea": {
        "Guid": "0175dfd0-5946-4525-8f02-926c5a7d05ea",
        "playRate": 1.0,
        "GameTrigger": "Dialog",
        "gameTriggerArgs": 140080917,
        "personalConfig": 2,
        "ParentID": "c14cdf35-6faf-42db-a500-03db9ff64f6a",
        "SourceNames": [
            {
                "sourceFileName": "VO_LQ\\VO_neuvillette\\vo_SLLQ002_13_neuvillette_01.wem",
                "rate": 1.0,
                "avatarName": "",
                "emotion": ""
            }
        ]
    },
    "024352ea-f677-46e1-a72a-91689c353b1a": {
        "Guid": "024352ea-f677-46e1-a72a-91689c353b1a",
        "playRate": 1.0,
        "GameTrigger": "Dialog",
        "gameTriggerArgs": 140080909,
        "personalConfig": 2,
        "ParentID": "c14cdf35-6faf-42db-a500-03db9ff64f6a",
        "SourceNames": [
            {
                "sourceFileName": "VO_LQ\\VO_npc\\vo_SLLQ002_13_baderico_05.wem",
                "rate": 1.0,
                "avatarName": "",
                "emotion": ""
            }
        ]
    },
    "095052c5-22e9-41db-b403-11f57281f3ca": {
        "Guid": "095052c5-22e9-41db-b403-11f57281f3ca",
        "playRate": 1.0,
        "GameTrigger": "Dialog",
        "gameTriggerArgs": 140080928,
        "personalConfig": 2,
        "ParentID": "c14cdf35-6faf-42db-a500-03db9ff64f6a",
        "SourceNames": [
            {
                "sourceFileName": "VO_LQ\\VO_npc\\vo_SLLQ002_13_vautrin_04.wem",
                "rate": 1.0,
                "avatarName": "",
                "emotion": ""
            }
        ]
    },
    "096a6e14-65da-4b25-836c-6d19f1cfe11f": {
        "Guid": "096a6e14-65da-4b25-836c-6d19f1cfe11f",
        "playRate": 1.0,
        "GameTrigger": "Dialog",
        "gameTriggerArgs": 140080913,
        "personalConfig": 2,
        "ParentID": "c14cdf35-6faf-42db-a500-03db9ff64f6a",
        "SourceNames": [
            {
                "sourceFileName": "VO_LQ\\VO_npc\\vo_SLLQ002_13_baderico_06.wem",
                "rate": 1.0,
                "avatarName": "",
                "emotion": ""
            }
        ]
    },
    "125bf988-a570-4dc1-9950-87408dc13e7d": {
        "Guid": "125bf988-a570-4dc1-9950-87408dc13e7d",
        "playRate": 1.0,
        "GameTrigger": "Dialog",
        "gameTriggerArgs": 140080932,
        "personalConfig": 2,
        "ParentID": "c14cdf35-6faf-42db-a500-03db9ff64f6a",
        "SourceNames": [
            {
                "sourceFileName": "VO_LQ\\VO_npc\\vo_SLLQ002_13_vautrin_05.wem",
                "rate": 1.0,
                "avatarName": "",
                "emotion": ""
            }
        ]
    },
    "32993652-f02b-4ff2-83ac-4715955ff4e0": {
        "Guid": "32993652-f02b-4ff2-83ac-4715955ff4e0",
        "playRate": 1.0,
        "GameTrigger": "Dialog",
        "gameTriggerArgs": 140080929,
        "personalConfig": 2,
        "ParentID": "c14cdf35-6faf-42db-a500-03db9ff64f6a",
        "SourceNames": [
            {
                "sourceFileName": "VO_LQ\\VO_neuvillette\\vo_SLLQ002_13_neuvillette_08.wem",
                "rate": 1.0,
                "avatarName": "",
                "emotion": ""
            }
        ]
    },
    "4492643a-e82c-4eb1-ac41-e44ab137f692": {
        "Guid": "4492643a-e82c-4eb1-ac41-e44ab137f692",
        "playRate": 1.0,
        "GameTrigger": "Dialog",
        "gameTriggerArgs": 140080922,
        "personalConfig": 2,
        "ParentID": "c14cdf35-6faf-42db-a500-03db9ff64f6a",
        "SourceNames": [
            {
                "sourceFileName": "VO_LQ\\VO_neuvillette\\vo_SLLQ002_13_neuvillette_06.wem",
                "rate": 1.0,
                "avatarName": "",
                "emotion": ""
            }
        ]
    },
    "48f28689-58c9-4220-b17f-d5e4703b25c6": {
        "Guid": "48f28689-58c9-4220-b17f-d5e4703b25c6",
        "playRate": 1.0,
        "GameTrigger": "Dialog",
        "gameTriggerArgs": 140080918,
        "personalConfig": 2,
        "ParentID": "c14cdf35-6faf-42db-a500-03db9ff64f6a",
        "SourceNames": [
            {
                "sourceFileName": "VO_LQ\\VO_neuvillette\\vo_SLLQ002_13_neuvillette_02.wem",
                "rate": 1.0,
                "avatarName": "",
                "emotion": ""
            }
        ]
    },
    "4c85c203-8631-4d3f-9f63-4ff1774c6575": {
        "Guid": "4c85c203-8631-4d3f-9f63-4ff1774c6575",
        "playRate": 1.0,
        "GameTrigger": "Dialog",
        "gameTriggerArgs": 140080925,
        "personalConfig": 2,
        "ParentID": "c14cdf35-6faf-42db-a500-03db9ff64f6a",
        "SourceNames": [
            {
                "sourceFileName": "VO_LQ\\VO_neuvillette\\vo_SLLQ002_13_neuvillette_07.wem",
                "rate": 1.0,
                "avatarName": "",
                "emotion": ""
            }
        ]
    },
    "5ce5ec99-93cc-44dd-8fff-8681fd2e30b8": {
        "Guid": "5ce5ec99-93cc-44dd-8fff-8681fd2e30b8",
        "playRate": 1.0,
        "GameTrigger": "Dialog",
        "gameTriggerArgs": 140080905,
        "personalConfig": 2,
        "ParentID": "c14cdf35-6faf-42db-a500-03db9ff64f6a",
        "SourceNames": [
            {
                "sourceFileName": "VO_LQ\\VO_npc\\vo_SLLQ002_13_lothaire_02.wem",
                "rate": 1.0,
                "avatarName": "",
                "emotion": ""
            }
        ]
    },
    "61d8c114-b546-41f7-a14d-f890d8c15182": {
        "Guid": "61d8c114-b546-41f7-a14d-f890d8c15182",
        "playRate": 1.0,
        "GameTrigger": "Dialog",
        "gameTriggerArgs": 140080910,
        "personalConfig": 2,
        "ParentID": "c14cdf35-6faf-42db-a500-03db9ff64f6a",
        "SourceNames": [
            {
                "sourceFileName": "VO_LQ\\VO_npc\\vo_SLLQ002_13_prume_01.wem",
                "rate": 1.0,
                "avatarName": "",
                "emotion": ""
            }
        ]
    },
    "6aceb3c8-47ea-4736-bc3c-09dd78797b1c": {
        "Guid": "6aceb3c8-47ea-4736-bc3c-09dd78797b1c",
        "playRate": 1.0,
        "GameTrigger": "Dialog",
        "gameTriggerArgs": 140080931,
        "personalConfig": 2,
        "ParentID": "c14cdf35-6faf-42db-a500-03db9ff64f6a",
        "SourceNames": [
            {
                "sourceFileName": "VO_LQ\\VO_neuvillette\\vo_SLLQ002_13_neuvillette_10.wem",
                "rate": 1.0,
                "avatarName": "",
                "emotion": ""
            }
        ]
    },
    "70ef860e-14f7-459c-94a6-59892b6b74ba": {
        "Guid": "70ef860e-14f7-459c-94a6-59892b6b74ba",
        "playRate": 1.0,
        "GameTrigger": "Dialog",
        "gameTriggerArgs": 140080908,
        "personalConfig": 2,
        "ParentID": "c14cdf35-6faf-42db-a500-03db9ff64f6a",
        "SourceNames": [
            {
                "sourceFileName": "VO_LQ\\VO_npc\\vo_SLLQ002_13_baderico_04.wem",
                "rate": 1.0,
                "avatarName": "",
                "emotion": ""
            }
        ]
    },
    "78ecf93f-d8f5-4f20-b937-542a4fe41abf": {
        "Guid": "78ecf93f-d8f5-4f20-b937-542a4fe41abf",
        "playRate": 1.0,
        "GameTrigger": "Dialog",
        "gameTriggerArgs": 140080921,
        "personalConfig": 2,
        "ParentID": "c14cdf35-6faf-42db-a500-03db9ff64f6a",
        "SourceNames": [
            {
                "sourceFileName": "VO_LQ\\VO_neuvillette\\vo_SLLQ002_13_neuvillette_05.wem",
                "rate": 1.0,
                "avatarName": "",
                "emotion": ""
            }
        ]
    },
    "7a254c11-aab5-4e19-8538-7f193e818ed3": {
        "Guid": "7a254c11-aab5-4e19-8538-7f193e818ed3",
        "playRate": 1.0,
        "GameTrigger": "Dialog",
        "gameTriggerArgs": 140080920,
        "personalConfig": 2,
        "ParentID": "c14cdf35-6faf-42db-a500-03db9ff64f6a",
        "SourceNames": [
            {
                "sourceFileName": "VO_LQ\\VO_neuvillette\\vo_SLLQ002_13_neuvillette_04.wem",
                "rate": 1.0,
                "avatarName": "",
                "emotion": ""
            }
        ]
    },
    "84166e63-a6a4-4bd3-b656-ac84fa224632": {
        "Guid": "84166e63-a6a4-4bd3-b656-ac84fa224632",
        "playRate": 1.0,
        "GameTrigger": "Dialog",
        "gameTriggerArgs": 140080930,
        "personalConfig": 2,
        "ParentID": "c14cdf35-6faf-42db-a500-03db9ff64f6a",
        "SourceNames": [
            {
                "sourceFileName": "VO_LQ\\VO_neuvillette\\vo_SLLQ002_13_neuvillette_09.wem",
                "rate": 1.0,
                "avatarName": "",
                "emotion": ""
            }
        ]
    },
    "8e5db966-bb09-4313-bf3b-c35439afc18d": {
        "Guid": "8e5db966-bb09-4313-bf3b-c35439afc18d",
        "playRate": 1.0,
        "GameTrigger": "Dialog",
        "gameTriggerArgs": 140080912,
        "personalConfig": 2,
        "ParentID": "c14cdf35-6faf-42db-a500-03db9ff64f6a",
        "SourceNames": [
            {
                "sourceFileName": "VO_LQ\\VO_npc\\vo_SLLQ002_13_vautrin_01.wem",
                "rate": 1.0,
                "avatarName": "",
                "emotion": ""
            }
        ]
    },
    "8fde9b49-cf57-444c-9173-ef6ebbe9df43": {
        "Guid": "8fde9b49-cf57-444c-9173-ef6ebbe9df43",
        "playRate": 1.0,
        "GameTrigger": "Dialog",
        "gameTriggerArgs": 140080914,
        "personalConfig": 2,
        "ParentID": "c14cdf35-6faf-42db-a500-03db9ff64f6a",
        "SourceNames": [
            {
                "sourceFileName": "VO_LQ\\VO_npc\\vo_SLLQ002_13_together_01.wem",
                "rate": 1.0,
                "avatarName": "",
                "emotion": ""
            }
        ]
    },
    "a8f30bad-516d-448e-aa52-139db8bb67fa": {
        "Guid": "a8f30bad-516d-448e-aa52-139db8bb67fa",
        "playRate": 1.0,
        "GameTrigger": "Dialog",
        "gameTriggerArgs": 140080923,
        "personalConfig": 2,
        "ParentID": "c14cdf35-6faf-42db-a500-03db9ff64f6a",
        "SourceNames": [
            {
                "sourceFileName": "VO_LQ\\VO_npc\\vo_SLLQ002_13_baderico_07.wem",
                "rate": 1.0,
                "avatarName": "",
                "emotion": ""
            }
        ]
    },
    "b101ef6d-f14e-44a4-b3ba-a49a40eb727d": {
        "Guid": "b101ef6d-f14e-44a4-b3ba-a49a40eb727d",
        "playRate": 1.0,
        "GameTrigger": "Dialog",
        "gameTriggerArgs": 140080934,
        "personalConfig": 2,
        "ParentID": "c14cdf35-6faf-42db-a500-03db9ff64f6a",
        "SourceNames": [
            {
                "sourceFileName": "VO_LQ\\VO_npc\\vo_SLLQ002_13_lothaire_06.wem",
                "rate": 1.0,
                "avatarName": "",
                "emotion": ""
            }
        ]
    },
    "b9e61f2a-9d0b-4d40-8114-23df0e809910": {
        "Guid": "b9e61f2a-9d0b-4d40-8114-23df0e809910",
        "playRate": 1.0,
        "GameTrigger": "Dialog",
        "gameTriggerArgs": 140080927,
        "personalConfig": 2,
        "ParentID": "c14cdf35-6faf-42db-a500-03db9ff64f6a",
        "SourceNames": [
            {
                "sourceFileName": "VO_LQ\\VO_npc\\vo_SLLQ002_13_vautrin_03.wem",
                "rate": 1.0,
                "avatarName": "",
                "emotion": ""
            }
        ]
    },
    "bb78c119-7371-4e99-b717-4e879d5d3de2": {
        "Guid": "bb78c119-7371-4e99-b717-4e879d5d3de2",
        "playRate": 1.0,
        "GameTrigger": "Dialog",
        "gameTriggerArgs": 140080906,
        "personalConfig": 2,
        "ParentID": "c14cdf35-6faf-42db-a500-03db9ff64f6a",
        "SourceNames": [
            {
                "sourceFileName": "VO_LQ\\VO_npc\\vo_SLLQ002_13_lothaire_03.wem",
                "rate": 1.0,
                "avatarName": "",
                "emotion": ""
            }
        ]
    },
    "bb94cc78-b9f1-41fd-9f9f-cc4faf59291a": {
        "Guid": "bb94cc78-b9f1-41fd-9f9f-cc4faf59291a",
        "playRate": 1.0,
        "GameTrigger": "Dialog",
        "gameTriggerArgs": 140080903,
        "personalConfig": 2,
        "ParentID": "c14cdf35-6faf-42db-a500-03db9ff64f6a",
        "SourceNames": [
            {
                "sourceFileName": "VO_LQ\\VO_npc\\vo_SLLQ002_13_lothaire_01.wem",
                "rate": 1.0,
                "avatarName": "",
                "emotion": ""
            }
        ]
    },
    "c5b997de-f170-4c0c-83b2-1a48453f4496": {
        "Guid": "c5b997de-f170-4c0c-83b2-1a48453f4496",
        "playRate": 1.0,
        "GameTrigger": "Dialog",
        "gameTriggerArgs": 140080911,
        "personalConfig": 2,
        "ParentID": "c14cdf35-6faf-42db-a500-03db9ff64f6a",
        "SourceNames": [
            {
                "sourceFileName": "VO_LQ\\VO_npc\\vo_SLLQ002_13_lothaire_04.wem",
                "rate": 1.0,
                "avatarName": "",
                "emotion": ""
            }
        ]
    },
    "c5e7b4e3-205c-4f6e-8079-fba46a505191": {
        "Guid": "c5e7b4e3-205c-4f6e-8079-fba46a505191",
        "playRate": 1.0,
        "GameTrigger": "Dialog",
        "gameTriggerArgs": 140080926,
        "personalConfig": 2,
        "ParentID": "c14cdf35-6faf-42db-a500-03db9ff64f6a",
        "SourceNames": [
            {
                "sourceFileName": "VO_LQ\\VO_npc\\vo_SLLQ002_13_vautrin_02.wem",
                "rate": 1.0,
                "avatarName": "",
                "emotion": ""
            }
        ]
    },
    "d6c3aac3-fc45-4b8b-8f42-ede5ef3357d6": {
        "Guid": "d6c3aac3-fc45-4b8b-8f42-ede5ef3357d6",
        "playRate": 1.0,
        "GameTrigger": "Dialog",
        "gameTriggerArgs": 140080924,
        "personalConfig": 2,
        "ParentID": "c14cdf35-6faf-42db-a500-03db9ff64f6a",
        "SourceNames": [
            {
                "sourceFileName": "VO_LQ\\VO_npc\\vo_SLLQ002_13_lothaire_05.wem",
                "rate": 1.0,
                "avatarName": "",
                "emotion": ""
            }
        ]
    },
    "ea7bd717-6537-401a-916b-35f5c6ed4b8f": {
        "Guid": "ea7bd717-6537-401a-916b-35f5c6ed4b8f",
        "playRate": 1.0,
        "GameTrigger": "Dialog",
        "gameTriggerArgs": 140080902,
        "personalConfig": 2,
        "ParentID": "c14cdf35-6faf-42db-a500-03db9ff64f6a",
        "SourceNames": [
            {
                "sourceFileName": "VO_LQ\\VO_npc\\vo_SLLQ002_13_baderico_02.wem",
                "rate": 1.0,
                "avatarName": "",
                "emotion": ""
            }
        ]
    },
    "f6673a99-6d6c-462b-9f20-3493a6ac2a0b": {
        "Guid": "f6673a99-6d6c-462b-9f20-3493a6ac2a0b",
        "playRate": 1.0,
        "GameTrigger": "Dialog",
        "gameTriggerArgs": 140080904,
        "personalConfig": 2,
        "ParentID": "c14cdf35-6faf-42db-a500-03db9ff64f6a",
        "SourceNames": [
            {
                "sourceFileName": "VO_LQ\\VO_npc\\vo_SLLQ002_13_baderico_03.wem",
                "rate": 1.0,
                "avatarName": "",
                "emotion": ""
            }
        ]
    },
    "f90c5835-ae2b-44c3-9da5-b2e75202fc2a": {
        "Guid": "f90c5835-ae2b-44c3-9da5-b2e75202fc2a",
        "playRate": 1.0,
        "GameTrigger": "Dialog",
        "gameTriggerArgs": 140080901,
        "personalConfig": 2,
        "ParentID": "c14cdf35-6faf-42db-a500-03db9ff64f6a",
        "SourceNames": [
            {
                "sourceFileName": "VO_LQ\\VO_npc\\vo_SLLQ002_13_baderico_01.wem",
                "rate": 1.0,
                "avatarName": "",
                "emotion": ""
            }
        ]
    },
    "fc2b3516-ab0a-4826-9b15-e9526bb3b550": {
        "Guid": "fc2b3516-ab0a-4826-9b15-e9526bb3b550",
        "playRate": 1.0,
        "GameTrigger": "Dialog",
        "gameTriggerArgs": 140080933,
        "personalConfig": 2,
        "ParentID": "c14cdf35-6faf-42db-a500-03db9ff64f6a",
        "SourceNames": [
            {
                "sourceFileName": "VO_LQ\\VO_npc\\vo_SLLQ002_13_baderico_08.wem",
                "rate": 1.0,
                "avatarName": "",
                "emotion": ""
            }
        ]
    },
    "ff9fd503-2ca3-481b-b439-1c679b3410aa": {
        "Guid": "ff9fd503-2ca3-481b-b439-1c679b3410aa",
        "playRate": 1.0,
        "GameTrigger": "Dialog",
        "gameTriggerArgs": 140080919,
        "personalConfig": 2,
        "ParentID": "c14cdf35-6faf-42db-a500-03db9ff64f6a",
        "SourceNames": [
            {
                "sourceFileName": "VO_LQ\\VO_neuvillette\\vo_SLLQ002_13_neuvillette_03.wem",
                "rate": 1.0,
                "avatarName": "",
                "emotion": ""
            }
        ]
    }
}