{
    "124d1670-9a8e-4b6a-9045-1d625dc28d9a": {
        "Guid": "124d1670-9a8e-4b6a-9045-1d625dc28d9a",
        "playRate": 1.0,
        "GameTrigger": "Dialog",
        "gameTriggerArgs": 40060306,
        "personalConfig": 2,
        "ParentID": "5d9d0687-4e39-4a46-a070-0e7de7199ac8",
        "SourceNames": [
            {
                "sourceFileName": "VO_AQ\\VO_NPC\\vo_FDAQ003_5_vaughn_03.wem",
                "rate": 1.0,
                "avatarName": "",
                "emotion": ""
            }
        ]
    },
    "173cad80-3d78-4903-a544-71403b109de8": {
        "Guid": "173cad80-3d78-4903-a544-71403b109de8",
        "playRate": 1.0,
        "GameTrigger": "Dialog",
        "gameTriggerArgs": 40060301,
        "personalConfig": 2,
        "ParentID": "5d9d0687-4e39-4a46-a070-0e7de7199ac8",
        "SourceNames": [
            {
                "sourceFileName": "VO_AQ\\VO_NPC\\vo_FDAQ003_5_kent_01.wem",
                "rate": 1.0,
                "avatarName": "",
                "emotion": ""
            }
        ]
    },
    "1d4f5602-2f57-4f53-b2ed-ea2001c3f2c3": {
        "Guid": "1d4f5602-2f57-4f53-b2ed-ea2001c3f2c3",
        "playRate": 1.0,
        "GameTrigger": "Dialog",
        "gameTriggerArgs": 40060304,
        "personalConfig": 2,
        "ParentID": "5d9d0687-4e39-4a46-a070-0e7de7199ac8",
        "SourceNames": [
            {
                "sourceFileName": "VO_AQ\\VO_NPC\\vo_FDAQ003_5_kent_02.wem",
                "rate": 1.0,
                "avatarName": "",
                "emotion": ""
            }
        ]
    },
    "21f41214-83dc-49fd-b904-5ffc0fce9e63": {
        "Guid": "21f41214-83dc-49fd-b904-5ffc0fce9e63",
        "playRate": 1.0,
        "GameTrigger": "Dialog",
        "gameTriggerArgs": 40060307,
        "personalConfig": 2,
        "ParentID": "5d9d0687-4e39-4a46-a070-0e7de7199ac8",
        "SourceNames": [
            {
                "sourceFileName": "VO_AQ\\VO_NPC\\vo_FDAQ003_5_kent_03.wem",
                "rate": 1.0,
                "avatarName": "",
                "emotion": ""
            }
        ]
    },
    "5a7575fc-c706-40c6-9838-f7433b77e13a": {
        "Guid": "5a7575fc-c706-40c6-9838-f7433b77e13a",
        "playRate": 1.0,
        "GameTrigger": "Dialog",
        "gameTriggerArgs": 40060310,
        "personalConfig": 2,
        "ParentID": "5d9d0687-4e39-4a46-a070-0e7de7199ac8",
        "SourceNames": [
            {
                "sourceFileName": "VO_AQ\\VO_paimon\\vo_FDAQ003_5_paimon_02.wem",
                "rate": 1.0,
                "avatarName": "",
                "emotion": ""
            }
        ]
    },
    "95c3ecbe-1f0d-4a4d-8607-f1ab1015aeee": {
        "Guid": "95c3ecbe-1f0d-4a4d-8607-f1ab1015aeee",
        "playRate": 1.0,
        "GameTrigger": "Dialog",
        "gameTriggerArgs": 40060308,
        "personalConfig": 2,
        "ParentID": "5d9d0687-4e39-4a46-a070-0e7de7199ac8",
        "SourceNames": [
            {
                "sourceFileName": "VO_AQ\\VO_NPC\\vo_FDAQ003_5_kent_04.wem",
                "rate": 1.0,
                "avatarName": "",
                "emotion": ""
            }
        ]
    },
    "9916417c-d999-4858-8e07-0aee42d7b69d": {
        "Guid": "9916417c-d999-4858-8e07-0aee42d7b69d",
        "playRate": 1.0,
        "GameTrigger": "Dialog",
        "gameTriggerArgs": 40060305,
        "personalConfig": 2,
        "ParentID": "5d9d0687-4e39-4a46-a070-0e7de7199ac8",
        "SourceNames": [
            {
                "sourceFileName": "VO_AQ\\VO_NPC\\vo_FDAQ003_5_vaughn_02.wem",
                "rate": 1.0,
                "avatarName": "",
                "emotion": ""
            }
        ]
    },
    "a9be02db-f9c7-4539-ac98-aaac1a097578": {
        "Guid": "a9be02db-f9c7-4539-ac98-aaac1a097578",
        "playRate": 1.0,
        "GameTrigger": "Dialog",
        "gameTriggerArgs": 40060302,
        "personalConfig": 2,
        "ParentID": "5d9d0687-4e39-4a46-a070-0e7de7199ac8",
        "SourceNames": [
            {
                "sourceFileName": "VO_AQ\\VO_NPC\\vo_FDAQ003_5_vaughn_01.wem",
                "rate": 1.0,
                "avatarName": "",
                "emotion": ""
            }
        ]
    },
    "c500df63-5ae0-4d83-827f-8b260b0e8f28": {
        "Guid": "c500df63-5ae0-4d83-827f-8b260b0e8f28",
        "playRate": 1.0,
        "GameTrigger": "Dialog",
        "gameTriggerArgs": 40060311,
        "personalConfig": 2,
        "ParentID": "5d9d0687-4e39-4a46-a070-0e7de7199ac8",
        "SourceNames": [
            {
                "sourceFileName": "VO_AQ\\VO_NPC\\vo_FDAQ003_5_kent_06.wem",
                "rate": 1.0,
                "avatarName": "",
                "emotion": ""
            }
        ]
    },
    "cc103aed-6a94-453d-ba31-8dbcd7d793fc": {
        "Guid": "cc103aed-6a94-453d-ba31-8dbcd7d793fc",
        "playRate": 1.0,
        "GameTrigger": "Dialog",
        "gameTriggerArgs": 40060303,
        "personalConfig": 2,
        "ParentID": "5d9d0687-4e39-4a46-a070-0e7de7199ac8",
        "SourceNames": [
            {
                "sourceFileName": "VO_AQ\\VO_paimon\\vo_FDAQ003_5_paimon_01.wem",
                "rate": 1.0,
                "avatarName": "",
                "emotion": ""
            }
        ]
    },
    "dc1af1fc-2f2f-49c5-8114-84b039812520": {
        "Guid": "dc1af1fc-2f2f-49c5-8114-84b039812520",
        "playRate": 1.0,
        "GameTrigger": "Dialog",
        "gameTriggerArgs": 40060313,
        "personalConfig": 2,
        "ParentID": "5d9d0687-4e39-4a46-a070-0e7de7199ac8",
        "SourceNames": [
            {
                "sourceFileName": "VO_AQ\\VO_paimon\\vo_FDAQ003_5_paimon_03.wem",
                "rate": 1.0,
                "avatarName": "",
                "emotion": ""
            }
        ]
    },
    "f8966680-b55f-48d5-bf69-37a23ffc95a3": {
        "Guid": "f8966680-b55f-48d5-bf69-37a23ffc95a3",
        "playRate": 1.0,
        "GameTrigger": "Dialog",
        "gameTriggerArgs": 40060309,
        "personalConfig": 2,
        "ParentID": "5d9d0687-4e39-4a46-a070-0e7de7199ac8",
        "SourceNames": [
            {
                "sourceFileName": "VO_AQ\\VO_NPC\\vo_FDAQ003_5_kent_05.wem",
                "rate": 1.0,
                "avatarName": "",
                "emotion": ""
            }
        ]
    }
}