{
    "343e1d76-a9d8-4abe-90d9-a23985d21f5a": {
        "Guid": "343e1d76-a9d8-4abe-90d9-a23985d21f5a",
        "playRate": 1.0,
        "GameTrigger": "Dialog",
        "gameTriggerArgs": 40081207,
        "personalConfig": 2,
        "ParentID": "5ec8a4c3-7c31-4f5a-9cfb-aae3702d5ef5",
        "SourceNames": [
            {
                "sourceFileName": "VO_AQ\\VO_lynette\\vo_FDAQ106_10_lynette_02.wem",
                "rate": 1.0,
                "avatarName": "",
                "emotion": ""
            }
        ]
    },
    "365881bd-4cb2-491f-af89-91e8c3246cb5": {
        "Guid": "365881bd-4cb2-491f-af89-91e8c3246cb5",
        "playRate": 1.0,
        "GameTrigger": "Dialog",
        "gameTriggerArgs": 40081217,
        "personalConfig": 2,
        "ParentID": "5ec8a4c3-7c31-4f5a-9cfb-aae3702d5ef5",
        "SourceNames": [
            {
                "sourceFileName": "VO_AQ\\VO_paimon\\vo_FDAQ106_10_paimon_03.wem",
                "rate": 1.0,
                "avatarName": "",
                "emotion": ""
            }
        ]
    },
    "3cdcc18f-1d55-47c8-9754-7eb0dfac957f": {
        "Guid": "3cdcc18f-1d55-47c8-9754-7eb0dfac957f",
        "playRate": 1.0,
        "GameTrigger": "Dialog",
        "gameTriggerArgs": 40081204,
        "personalConfig": 2,
        "ParentID": "5ec8a4c3-7c31-4f5a-9cfb-aae3702d5ef5",
        "SourceNames": [
            {
                "sourceFileName": "VO_AQ\\VO_lyney\\vo_FDAQ106_10_lyney_02.wem",
                "rate": 1.0,
                "avatarName": "",
                "emotion": ""
            }
        ]
    },
    "4f1ff428-faaf-45cc-a8d7-bbeb9948df8e": {
        "Guid": "4f1ff428-faaf-45cc-a8d7-bbeb9948df8e",
        "playRate": 1.0,
        "GameTrigger": "Dialog",
        "gameTriggerArgs": 40081218,
        "personalConfig": 2,
        "ParentID": "5ec8a4c3-7c31-4f5a-9cfb-aae3702d5ef5",
        "SourceNames": [
            {
                "sourceFileName": "VO_AQ\\VO_sigewinne\\vo_FDAQ106_10_sigewinne_05.wem",
                "rate": 1.0,
                "avatarName": "",
                "emotion": ""
            }
        ]
    },
    "528994cb-5089-4939-ad66-13ad009a4f90": {
        "Guid": "528994cb-5089-4939-ad66-13ad009a4f90",
        "playRate": 1.0,
        "GameTrigger": "Dialog",
        "gameTriggerArgs": 40081215,
        "personalConfig": 2,
        "ParentID": "5ec8a4c3-7c31-4f5a-9cfb-aae3702d5ef5",
        "SourceNames": [
            {
                "sourceFileName": "VO_AQ\\VO_sigewinne\\vo_FDAQ106_10_sigewinne_04.wem",
                "rate": 1.0,
                "avatarName": "",
                "emotion": ""
            }
        ]
    },
    "53021e7b-71a0-49df-aa21-84493585ff2f": {
        "Guid": "53021e7b-71a0-49df-aa21-84493585ff2f",
        "playRate": 1.0,
        "GameTrigger": "Dialog",
        "gameTriggerArgs": 40081201,
        "personalConfig": 2,
        "ParentID": "5ec8a4c3-7c31-4f5a-9cfb-aae3702d5ef5",
        "SourceNames": [
            {
                "sourceFileName": "VO_AQ\\VO_paimon\\vo_FDAQ106_10_paimon_01.wem",
                "rate": 1.0,
                "avatarName": "",
                "emotion": ""
            }
        ]
    },
    "68ea0be8-e87d-4610-a130-bc46585e0f4f": {
        "Guid": "68ea0be8-e87d-4610-a130-bc46585e0f4f",
        "playRate": 1.0,
        "GameTrigger": "Dialog",
        "gameTriggerArgs": 40081212,
        "personalConfig": 2,
        "ParentID": "5ec8a4c3-7c31-4f5a-9cfb-aae3702d5ef5",
        "SourceNames": [
            {
                "sourceFileName": "VO_AQ\\VO_sigewinne\\vo_FDAQ106_10_sigewinne_03.wem",
                "rate": 1.0,
                "avatarName": "",
                "emotion": ""
            }
        ]
    },
    "9f3765eb-12f1-4648-a991-c4e52fe32765": {
        "Guid": "9f3765eb-12f1-4648-a991-c4e52fe32765",
        "playRate": 1.0,
        "GameTrigger": "Dialog",
        "gameTriggerArgs": 40081214,
        "personalConfig": 2,
        "ParentID": "5ec8a4c3-7c31-4f5a-9cfb-aae3702d5ef5",
        "SourceNames": [
            {
                "sourceFileName": "VO_AQ\\VO_lynette\\vo_FDAQ106_10_lynette_03.wem",
                "rate": 1.0,
                "avatarName": "",
                "emotion": ""
            }
        ]
    },
    "ac1066be-2134-4a60-a150-e458111795d7": {
        "Guid": "ac1066be-2134-4a60-a150-e458111795d7",
        "playRate": 1.0,
        "GameTrigger": "Dialog",
        "gameTriggerArgs": 40081213,
        "personalConfig": 2,
        "ParentID": "5ec8a4c3-7c31-4f5a-9cfb-aae3702d5ef5",
        "SourceNames": [
            {
                "sourceFileName": "VO_AQ\\VO_lyney\\vo_FDAQ106_10_lyney_04.wem",
                "rate": 1.0,
                "avatarName": "",
                "emotion": ""
            }
        ]
    },
    "b754108e-1951-4f20-8868-3270e20a213d": {
        "Guid": "b754108e-1951-4f20-8868-3270e20a213d",
        "playRate": 1.0,
        "GameTrigger": "Dialog",
        "gameTriggerArgs": 40081206,
        "personalConfig": 2,
        "ParentID": "5ec8a4c3-7c31-4f5a-9cfb-aae3702d5ef5",
        "SourceNames": [
            {
                "sourceFileName": "VO_AQ\\VO_lynette\\vo_FDAQ106_10_lynette_01.wem",
                "rate": 1.0,
                "avatarName": "",
                "emotion": ""
            }
        ]
    },
    "c662a9c2-8cdc-435e-9544-8bc009c48b86": {
        "Guid": "c662a9c2-8cdc-435e-9544-8bc009c48b86",
        "playRate": 1.0,
        "GameTrigger": "Dialog",
        "gameTriggerArgs": 40081203,
        "personalConfig": 2,
        "ParentID": "5ec8a4c3-7c31-4f5a-9cfb-aae3702d5ef5",
        "SourceNames": [
            {
                "sourceFileName": "VO_AQ\\VO_paimon\\vo_FDAQ106_10_paimon_02.wem",
                "rate": 1.0,
                "avatarName": "",
                "emotion": ""
            }
        ]
    },
    "c7968f94-57c7-47f4-bf14-e3127d18684d": {
        "Guid": "c7968f94-57c7-47f4-bf14-e3127d18684d",
        "playRate": 1.0,
        "GameTrigger": "Dialog",
        "gameTriggerArgs": 40081202,
        "personalConfig": 2,
        "ParentID": "5ec8a4c3-7c31-4f5a-9cfb-aae3702d5ef5",
        "SourceNames": [
            {
                "sourceFileName": "VO_AQ\\VO_lyney\\vo_FDAQ106_10_lyney_01.wem",
                "rate": 1.0,
                "avatarName": "",
                "emotion": ""
            }
        ]
    },
    "d77006d6-5b04-4812-b95f-2ccd1bd4a512": {
        "Guid": "d77006d6-5b04-4812-b95f-2ccd1bd4a512",
        "playRate": 1.0,
        "GameTrigger": "Dialog",
        "gameTriggerArgs": 40081211,
        "personalConfig": 2,
        "ParentID": "5ec8a4c3-7c31-4f5a-9cfb-aae3702d5ef5",
        "SourceNames": [
            {
                "sourceFileName": "VO_AQ\\VO_lyney\\vo_FDAQ106_10_lyney_03.wem",
                "rate": 1.0,
                "avatarName": "",
                "emotion": ""
            }
        ]
    },
    "dcd8b644-d570-4d7b-bee9-5e145555b283": {
        "Guid": "dcd8b644-d570-4d7b-bee9-5e145555b283",
        "playRate": 1.0,
        "GameTrigger": "Dialog",
        "gameTriggerArgs": 40081208,
        "personalConfig": 2,
        "ParentID": "5ec8a4c3-7c31-4f5a-9cfb-aae3702d5ef5",
        "SourceNames": [
            {
                "sourceFileName": "VO_AQ\\VO_sigewinne\\vo_FDAQ106_10_sigewinne_02.wem",
                "rate": 1.0,
                "avatarName": "",
                "emotion": ""
            }
        ]
    },
    "ed42aa46-216d-4898-a2f3-8b0961e97e7b": {
        "Guid": "ed42aa46-216d-4898-a2f3-8b0961e97e7b",
        "playRate": 1.0,
        "GameTrigger": "Dialog",
        "gameTriggerArgs": 40081205,
        "personalConfig": 2,
        "ParentID": "5ec8a4c3-7c31-4f5a-9cfb-aae3702d5ef5",
        "SourceNames": [
            {
                "sourceFileName": "VO_AQ\\VO_sigewinne\\vo_FDAQ106_10_sigewinne_01.wem",
                "rate": 1.0,
                "avatarName": "",
                "emotion": ""
            }
        ]
    },
    "f1f17757-150e-468b-bda3-89e60581edf7": {
        "Guid": "f1f17757-150e-468b-bda3-89e60581edf7",
        "playRate": 1.0,
        "GameTrigger": "Dialog",
        "gameTriggerArgs": 40081210,
        "personalConfig": 2,
        "ParentID": "5ec8a4c3-7c31-4f5a-9cfb-aae3702d5ef5",
        "SourceNames": [
            {
                "sourceFileName": "VO_AQ\\VO_freminet\\vo_FDAQ106_10_freminet_01.wem",
                "rate": 1.0,
                "avatarName": "",
                "emotion": ""
            }
        ]
    }
}