{
    "274aa3ee-1f5d-4194-8d79-5137e0ca8d1e": {
        "HLGGFCENLPA": "274aa3ee-1f5d-4194-8d79-5137e0ca8d1e",
        "MKHDAJHOOJF": 1.0,
        "BEHKGKMMAPD": "Dialog",
        "FFDHLEAFBLM": 140150210,
        "LFIFIPFFFKO": 2,
        "MCKHLBHHEDL": "1fa805f4-c785-4895-88a5-e7a4ad564c14",
        "EIKJKDICKMJ": [
            {
                "HLGOMILNFNK": "VO_LQ\\VO_navia\\vo_NVLQ001_2_navia_05.wem",
                "EJNOJBCBJPP": 1.0,
                "KAGFOFEDGIA": "",
                "NNBGHAJLJLA": ""
            }
        ]
    },
    "2d1acc3f-fa0b-4408-a7a9-d11b56337283": {
        "HLGGFCENLPA": "2d1acc3f-fa0b-4408-a7a9-d11b56337283",
        "MKHDAJHOOJF": 1.0,
        "BEHKGKMMAPD": "Dialog",
        "FFDHLEAFBLM": 140150201,
        "LFIFIPFFFKO": 2,
        "MCKHLBHHEDL": "1fa805f4-c785-4895-88a5-e7a4ad564c14",
        "EIKJKDICKMJ": [
            {
                "HLGOMILNFNK": "VO_LQ\\VO_navia\\vo_NVLQ001_2_navia_01.wem",
                "EJNOJBCBJPP": 1.0,
                "KAGFOFEDGIA": "",
                "NNBGHAJLJLA": ""
            }
        ]
    },
    "587cc763-60ce-40f6-bce4-3d43a3cfadbd": {
        "HLGGFCENLPA": "587cc763-60ce-40f6-bce4-3d43a3cfadbd",
        "MKHDAJHOOJF": 1.0,
        "BEHKGKMMAPD": "Dialog",
        "FFDHLEAFBLM": 140150202,
        "LFIFIPFFFKO": 2,
        "MCKHLBHHEDL": "1fa805f4-c785-4895-88a5-e7a4ad564c14",
        "EIKJKDICKMJ": [
            {
                "HLGOMILNFNK": "VO_LQ\\VO_paimon\\vo_NVLQ001_2_paimon_01.wem",
                "EJNOJBCBJPP": 1.0,
                "KAGFOFEDGIA": "",
                "NNBGHAJLJLA": ""
            }
        ]
    },
    "6a709f08-5e27-4052-8c07-ccd06ecd4c82": {
        "HLGGFCENLPA": "6a709f08-5e27-4052-8c07-ccd06ecd4c82",
        "MKHDAJHOOJF": 1.0,
        "BEHKGKMMAPD": "Dialog",
        "FFDHLEAFBLM": 140150208,
        "LFIFIPFFFKO": 2,
        "MCKHLBHHEDL": "1fa805f4-c785-4895-88a5-e7a4ad564c14",
        "EIKJKDICKMJ": [
            {
                "HLGOMILNFNK": "VO_LQ\\VO_navia\\vo_NVLQ001_2_navia_04.wem",
                "EJNOJBCBJPP": 1.0,
                "KAGFOFEDGIA": "",
                "NNBGHAJLJLA": ""
            }
        ]
    },
    "702d8e9f-c890-4014-8e86-cfaadd7dfbae": {
        "HLGGFCENLPA": "702d8e9f-c890-4014-8e86-cfaadd7dfbae",
        "MKHDAJHOOJF": 1.0,
        "BEHKGKMMAPD": "Dialog",
        "FFDHLEAFBLM": 140150205,
        "LFIFIPFFFKO": 2,
        "MCKHLBHHEDL": "1fa805f4-c785-4895-88a5-e7a4ad564c14",
        "EIKJKDICKMJ": [
            {
                "HLGOMILNFNK": "VO_LQ\\VO_paimon\\vo_NVLQ001_2_paimon_02.wem",
                "EJNOJBCBJPP": 1.0,
                "KAGFOFEDGIA": "",
                "NNBGHAJLJLA": ""
            }
        ]
    },
    "747538ed-eac6-4e7d-b2ab-13e9e9f84f43": {
        "HLGGFCENLPA": "747538ed-eac6-4e7d-b2ab-13e9e9f84f43",
        "MKHDAJHOOJF": 1.0,
        "BEHKGKMMAPD": "Dialog",
        "FFDHLEAFBLM": 140150203,
        "LFIFIPFFFKO": 2,
        "MCKHLBHHEDL": "1fa805f4-c785-4895-88a5-e7a4ad564c14",
        "EIKJKDICKMJ": [
            {
                "HLGOMILNFNK": "VO_LQ\\VO_navia\\vo_NVLQ001_2_navia_02.wem",
                "EJNOJBCBJPP": 1.0,
                "KAGFOFEDGIA": "",
                "NNBGHAJLJLA": ""
            }
        ]
    },
    "9144f1ed-5eca-4207-81ff-f2cd5ad3410b": {
        "HLGGFCENLPA": "9144f1ed-5eca-4207-81ff-f2cd5ad3410b",
        "MKHDAJHOOJF": 1.0,
        "BEHKGKMMAPD": "Dialog",
        "FFDHLEAFBLM": 140150217,
        "LFIFIPFFFKO": 2,
        "MCKHLBHHEDL": "1fa805f4-c785-4895-88a5-e7a4ad564c14",
        "EIKJKDICKMJ": [
            {
                "HLGOMILNFNK": "VO_LQ\\VO_npc\\vo_NVLQ001_2_leslie_01.wem",
                "EJNOJBCBJPP": 1.0,
                "KAGFOFEDGIA": "",
                "NNBGHAJLJLA": ""
            }
        ]
    },
    "9a099aad-4a9a-4bc3-87b1-e8e5fc3fc43e": {
        "HLGGFCENLPA": "9a099aad-4a9a-4bc3-87b1-e8e5fc3fc43e",
        "MKHDAJHOOJF": 1.0,
        "BEHKGKMMAPD": "Dialog",
        "FFDHLEAFBLM": 140150206,
        "LFIFIPFFFKO": 2,
        "MCKHLBHHEDL": "1fa805f4-c785-4895-88a5-e7a4ad564c14",
        "EIKJKDICKMJ": [
            {
                "HLGOMILNFNK": "VO_LQ\\VO_paimon\\vo_NVLQ001_2_paimon_03.wem",
                "EJNOJBCBJPP": 1.0,
                "KAGFOFEDGIA": "",
                "NNBGHAJLJLA": ""
            }
        ]
    },
    "a69d237c-d4cb-4360-b9f0-5a5bcb8bbad0": {
        "HLGGFCENLPA": "a69d237c-d4cb-4360-b9f0-5a5bcb8bbad0",
        "MKHDAJHOOJF": 1.0,
        "BEHKGKMMAPD": "Dialog",
        "FFDHLEAFBLM": 140150215,
        "LFIFIPFFFKO": 2,
        "MCKHLBHHEDL": "1fa805f4-c785-4895-88a5-e7a4ad564c14",
        "EIKJKDICKMJ": [
            {
                "HLGOMILNFNK": "VO_LQ\\VO_paimon\\vo_NVLQ001_2_paimon_05.wem",
                "EJNOJBCBJPP": 1.0,
                "KAGFOFEDGIA": "",
                "NNBGHAJLJLA": ""
            }
        ]
    },
    "b5748f8e-c439-4533-84b8-71a00fe847ef": {
        "HLGGFCENLPA": "b5748f8e-c439-4533-84b8-71a00fe847ef",
        "MKHDAJHOOJF": 1.0,
        "BEHKGKMMAPD": "Dialog",
        "FFDHLEAFBLM": 140150209,
        "LFIFIPFFFKO": 2,
        "MCKHLBHHEDL": "1fa805f4-c785-4895-88a5-e7a4ad564c14",
        "EIKJKDICKMJ": [
            {
                "HLGOMILNFNK": "VO_LQ\\VO_paimon\\vo_NVLQ001_2_paimon_04.wem",
                "EJNOJBCBJPP": 1.0,
                "KAGFOFEDGIA": "",
                "NNBGHAJLJLA": ""
            }
        ]
    },
    "b5d24f01-1ff0-4345-9f0c-c1518bcc5fc1": {
        "HLGGFCENLPA": "b5d24f01-1ff0-4345-9f0c-c1518bcc5fc1",
        "MKHDAJHOOJF": 1.0,
        "BEHKGKMMAPD": "Dialog",
        "FFDHLEAFBLM": 140150214,
        "LFIFIPFFFKO": 2,
        "MCKHLBHHEDL": "1fa805f4-c785-4895-88a5-e7a4ad564c14",
        "EIKJKDICKMJ": [
            {
                "HLGOMILNFNK": "VO_LQ\\VO_navia\\vo_NVLQ001_2_navia_07.wem",
                "EJNOJBCBJPP": 1.0,
                "KAGFOFEDGIA": "",
                "NNBGHAJLJLA": ""
            }
        ]
    },
    "b5feb7f7-81f7-4be4-a17d-1462cd277ce1": {
        "HLGGFCENLPA": "b5feb7f7-81f7-4be4-a17d-1462cd277ce1",
        "MKHDAJHOOJF": 1.0,
        "BEHKGKMMAPD": "Dialog",
        "FFDHLEAFBLM": 140150207,
        "LFIFIPFFFKO": 2,
        "MCKHLBHHEDL": "1fa805f4-c785-4895-88a5-e7a4ad564c14",
        "EIKJKDICKMJ": [
            {
                "HLGOMILNFNK": "VO_LQ\\VO_navia\\vo_NVLQ001_2_navia_03.wem",
                "EJNOJBCBJPP": 1.0,
                "KAGFOFEDGIA": "",
                "NNBGHAJLJLA": ""
            }
        ]
    },
    "c7554a1b-5fec-4c5a-bc1f-aa029d9336e5": {
        "HLGGFCENLPA": "c7554a1b-5fec-4c5a-bc1f-aa029d9336e5",
        "MKHDAJHOOJF": 1.0,
        "BEHKGKMMAPD": "Dialog",
        "FFDHLEAFBLM": 140150213,
        "LFIFIPFFFKO": 2,
        "MCKHLBHHEDL": "1fa805f4-c785-4895-88a5-e7a4ad564c14",
        "EIKJKDICKMJ": [
            {
                "HLGOMILNFNK": "VO_LQ\\VO_navia\\vo_NVLQ001_2_navia_06.wem",
                "EJNOJBCBJPP": 1.0,
                "KAGFOFEDGIA": "",
                "NNBGHAJLJLA": ""
            }
        ]
    },
    "d9403484-8c79-417f-b96d-439feb69ecee": {
        "HLGGFCENLPA": "d9403484-8c79-417f-b96d-439feb69ecee",
        "MKHDAJHOOJF": 1.0,
        "BEHKGKMMAPD": "Dialog",
        "FFDHLEAFBLM": 140150218,
        "LFIFIPFFFKO": 2,
        "MCKHLBHHEDL": "1fa805f4-c785-4895-88a5-e7a4ad564c14",
        "EIKJKDICKMJ": [
            {
                "HLGOMILNFNK": "VO_LQ\\VO_navia\\vo_NVLQ001_2_navia_09.wem",
                "EJNOJBCBJPP": 1.0,
                "KAGFOFEDGIA": "",
                "NNBGHAJLJLA": ""
            }
        ]
    },
    "de669752-d6bd-46f4-9a40-07f7a7400c04": {
        "HLGGFCENLPA": "de669752-d6bd-46f4-9a40-07f7a7400c04",
        "MKHDAJHOOJF": 1.0,
        "BEHKGKMMAPD": "Dialog",
        "FFDHLEAFBLM": 140150216,
        "LFIFIPFFFKO": 2,
        "MCKHLBHHEDL": "1fa805f4-c785-4895-88a5-e7a4ad564c14",
        "EIKJKDICKMJ": [
            {
                "HLGOMILNFNK": "VO_LQ\\VO_navia\\vo_NVLQ001_2_navia_08.wem",
                "EJNOJBCBJPP": 1.0,
                "KAGFOFEDGIA": "",
                "NNBGHAJLJLA": ""
            }
        ]
    }
}