{
    "92085a9e-d429-4671-a387-f0e4566d574a": {
        "Guid": "92085a9e-d429-4671-a387-f0e4566d574a",
        "playRate": 1.0,
        "GameTrigger": "Dialog",
        "gameTriggerArgs": 40081601,
        "personalConfig": 2,
        "ParentID": "5abb26a0-7275-47fb-b388-6422954468d5",
        "SourceNames": [
            {
                "sourceFileName": "VO_AQ\\VO_freminet\\vo_FDAQ106_13_freminet_01.wem",
                "rate": 1.0,
                "avatarName": "",
                "emotion": ""
            }
        ]
    },
    "ab30cd25-9b09-4d2d-83ab-6393f39419ba": {
        "Guid": "ab30cd25-9b09-4d2d-83ab-6393f39419ba",
        "playRate": 1.0,
        "GameTrigger": "Dialog",
        "gameTriggerArgs": 40081602,
        "personalConfig": 2,
        "GIFECDGOOPJ": 1,
        "ParentID": "5abb26a0-7275-47fb-b388-6422954468d5",
        "SourceNames": [
            {
                "sourceFileName": "VO_AQ\\VO_freminet\\vo_FDAQ106_13_freminet_02.wem",
                "rate": 1.0,
                "avatarName": "",
                "emotion": ""
            }
        ]
    }
}