{
    "00352030-82dc-458a-99dd-363dbac7b9cf": {
        "Guid": "00352030-82dc-458a-99dd-363dbac7b9cf",
        "playRate": 1.0,
        "GameTrigger": "Dialog",
        "gameTriggerArgs": 140051050,
        "personalConfig": 2,
        "ParentID": "35d732b0-3cf1-49b6-81c7-bfc3f6123b95",
        "SourceNames": [
            {
                "sourceFileName": "VO_LQ\\VO_wriothesley\\vo_DYZLQ002_11_wriothesley_34.wem",
                "rate": 1.0,
                "avatarName": "",
                "emotion": ""
            }
        ]
    },
    "0587dd79-847e-4d81-a40c-0b0310e9f229": {
        "Guid": "0587dd79-847e-4d81-a40c-0b0310e9f229",
        "playRate": 1.0,
        "GameTrigger": "Dialog",
        "gameTriggerArgs": 140051019,
        "personalConfig": 2,
        "ParentID": "35d732b0-3cf1-49b6-81c7-bfc3f6123b95",
        "SourceNames": [
            {
                "sourceFileName": "VO_LQ\\VO_wriothesley\\vo_DYZLQ002_11_wriothesley_13.wem",
                "rate": 1.0,
                "avatarName": "",
                "emotion": ""
            }
        ]
    },
    "0995e1ca-b0fe-4a92-95cf-974de1b7805e": {
        "Guid": "0995e1ca-b0fe-4a92-95cf-974de1b7805e",
        "playRate": 1.0,
        "GameTrigger": "Dialog",
        "gameTriggerArgs": 140051012,
        "personalConfig": 2,
        "ParentID": "35d732b0-3cf1-49b6-81c7-bfc3f6123b95",
        "SourceNames": [
            {
                "sourceFileName": "VO_LQ\\VO_wriothesley\\vo_DYZLQ002_11_wriothesley_08.wem",
                "rate": 1.0,
                "avatarName": "",
                "emotion": ""
            }
        ]
    },
    "0ad72556-49e7-470c-82a1-f57f80596935": {
        "Guid": "0ad72556-49e7-470c-82a1-f57f80596935",
        "playRate": 1.0,
        "GameTrigger": "Dialog",
        "gameTriggerArgs": 140051025,
        "personalConfig": 2,
        "ParentID": "35d732b0-3cf1-49b6-81c7-bfc3f6123b95",
        "SourceNames": [
            {
                "sourceFileName": "VO_LQ\\VO_wriothesley\\vo_DYZLQ002_11_wriothesley_18.wem",
                "rate": 1.0,
                "avatarName": "",
                "emotion": ""
            }
        ]
    },
    "0aff6709-9ca6-4ea3-96b5-a934f869663d": {
        "Guid": "0aff6709-9ca6-4ea3-96b5-a934f869663d",
        "playRate": 1.0,
        "GameTrigger": "Dialog",
        "gameTriggerArgs": 140051126,
        "personalConfig": 2,
        "ParentID": "35d732b0-3cf1-49b6-81c7-bfc3f6123b95",
        "SourceNames": [
            {
                "sourceFileName": "VO_LQ\\VO_npc\\vo_DYZLQ002_11_dougier_06.wem",
                "rate": 1.0,
                "avatarName": "",
                "emotion": ""
            }
        ]
    },
    "0d9dea5a-f750-4661-9f85-eadc27cfdf75": {
        "Guid": "0d9dea5a-f750-4661-9f85-eadc27cfdf75",
        "playRate": 1.0,
        "GameTrigger": "Dialog",
        "gameTriggerArgs": 140051132,
        "personalConfig": 2,
        "ParentID": "35d732b0-3cf1-49b6-81c7-bfc3f6123b95",
        "SourceNames": [
            {
                "sourceFileName": "VO_LQ\\VO_npc\\vo_DYZLQ002_11_avice_15.wem",
                "rate": 1.0,
                "avatarName": "",
                "emotion": ""
            }
        ]
    },
    "10e64c35-50a5-4fc2-947c-c593032b453e": {
        "Guid": "10e64c35-50a5-4fc2-947c-c593032b453e",
        "playRate": 1.0,
        "GameTrigger": "Dialog",
        "gameTriggerArgs": 140051130,
        "personalConfig": 2,
        "ParentID": "35d732b0-3cf1-49b6-81c7-bfc3f6123b95",
        "SourceNames": [
            {
                "sourceFileName": "VO_LQ\\VO_wriothesley\\vo_DYZLQ002_11_wriothesley_39.wem",
                "rate": 1.0,
                "avatarName": "",
                "emotion": ""
            }
        ]
    },
    "1212e444-c602-413c-9aa5-069b5afc7c48": {
        "Guid": "1212e444-c602-413c-9aa5-069b5afc7c48",
        "playRate": 1.0,
        "GameTrigger": "Dialog",
        "gameTriggerArgs": 140051106,
        "personalConfig": 2,
        "ParentID": "35d732b0-3cf1-49b6-81c7-bfc3f6123b95",
        "SourceNames": [
            {
                "sourceFileName": "VO_LQ\\VO_paimon\\vo_DYZLQ002_11_paimon_07.wem",
                "rate": 1.0,
                "avatarName": "",
                "emotion": ""
            }
        ]
    },
    "124515d2-ab65-4c06-ad0a-af2b4dd53ac5": {
        "Guid": "124515d2-ab65-4c06-ad0a-af2b4dd53ac5",
        "playRate": 1.0,
        "GameTrigger": "Dialog",
        "gameTriggerArgs": 140051149,
        "personalConfig": 2,
        "ParentID": "35d732b0-3cf1-49b6-81c7-bfc3f6123b95",
        "SourceNames": [
            {
                "sourceFileName": "VO_LQ\\VO_npc\\vo_DYZLQ002_11_dougier_14.wem",
                "rate": 1.0,
                "avatarName": "",
                "emotion": ""
            }
        ]
    },
    "15ba4f97-78e0-45a8-a2dc-d538d54ff6e0": {
        "Guid": "15ba4f97-78e0-45a8-a2dc-d538d54ff6e0",
        "playRate": 1.0,
        "GameTrigger": "Dialog",
        "gameTriggerArgs": 140051117,
        "personalConfig": 2,
        "ParentID": "35d732b0-3cf1-49b6-81c7-bfc3f6123b95",
        "SourceNames": [
            {
                "sourceFileName": "VO_LQ\\VO_npc\\vo_DYZLQ002_11_dougier_03.wem",
                "rate": 1.0,
                "avatarName": "",
                "emotion": ""
            }
        ]
    },
    "15fa4955-4c8c-4d9b-8c67-2e9e462a752e": {
        "Guid": "15fa4955-4c8c-4d9b-8c67-2e9e462a752e",
        "playRate": 1.0,
        "GameTrigger": "Dialog",
        "gameTriggerArgs": 140051129,
        "personalConfig": 2,
        "ParentID": "35d732b0-3cf1-49b6-81c7-bfc3f6123b95",
        "SourceNames": [
            {
                "sourceFileName": "VO_LQ\\VO_npc\\vo_DYZLQ002_11_avice_13.wem",
                "rate": 1.0,
                "avatarName": "",
                "emotion": ""
            }
        ]
    },
    "1ed19cba-858e-4a59-aca6-eb0ef176f21c": {
        "Guid": "1ed19cba-858e-4a59-aca6-eb0ef176f21c",
        "playRate": 1.0,
        "GameTrigger": "Dialog",
        "gameTriggerArgs": 140051145,
        "personalConfig": 2,
        "ParentID": "35d732b0-3cf1-49b6-81c7-bfc3f6123b95",
        "SourceNames": [
            {
                "sourceFileName": "VO_LQ\\VO_wriothesley\\vo_DYZLQ002_11_wriothesley_44.wem",
                "rate": 1.0,
                "avatarName": "",
                "emotion": ""
            }
        ]
    },
    "1eda1568-b652-4e3b-ac9b-d75a6dc5641d": {
        "Guid": "1eda1568-b652-4e3b-ac9b-d75a6dc5641d",
        "playRate": 1.0,
        "GameTrigger": "Dialog",
        "gameTriggerArgs": 140051105,
        "personalConfig": 2,
        "ParentID": "35d732b0-3cf1-49b6-81c7-bfc3f6123b95",
        "SourceNames": [
            {
                "sourceFileName": "VO_LQ\\VO_npc\\vo_DYZLQ002_11_avice_04.wem",
                "rate": 1.0,
                "avatarName": "",
                "emotion": ""
            }
        ]
    },
    "2084a713-c326-406d-a324-ed0a598b8aa0": {
        "Guid": "2084a713-c326-406d-a324-ed0a598b8aa0",
        "playRate": 1.0,
        "GameTrigger": "Dialog",
        "gameTriggerArgs": 140051147,
        "personalConfig": 2,
        "ParentID": "35d732b0-3cf1-49b6-81c7-bfc3f6123b95",
        "SourceNames": [
            {
                "sourceFileName": "VO_LQ\\VO_npc\\vo_DYZLQ002_11_dougier_12.wem",
                "rate": 1.0,
                "avatarName": "",
                "emotion": ""
            }
        ]
    },
    "2d7063f3-2cb2-4123-8f66-d562b27c302c": {
        "Guid": "2d7063f3-2cb2-4123-8f66-d562b27c302c",
        "playRate": 1.0,
        "GameTrigger": "Dialog",
        "gameTriggerArgs": 140051142,
        "personalConfig": 2,
        "ParentID": "35d732b0-3cf1-49b6-81c7-bfc3f6123b95",
        "SourceNames": [
            {
                "sourceFileName": "VO_LQ\\VO_npc\\vo_DYZLQ002_11_dougier_10.wem",
                "rate": 1.0,
                "avatarName": "",
                "emotion": ""
            }
        ]
    },
    "304e284b-bc35-487c-8c82-559c6f5c2c24": {
        "Guid": "304e284b-bc35-487c-8c82-559c6f5c2c24",
        "playRate": 1.0,
        "GameTrigger": "Dialog",
        "gameTriggerArgs": 140051023,
        "personalConfig": 2,
        "ParentID": "35d732b0-3cf1-49b6-81c7-bfc3f6123b95",
        "SourceNames": [
            {
                "sourceFileName": "VO_LQ\\VO_wriothesley\\vo_DYZLQ002_11_wriothesley_16.wem",
                "rate": 1.0,
                "avatarName": "",
                "emotion": ""
            }
        ]
    },
    "305fbea9-6a96-437a-9ec9-dd07d1cb5dc4": {
        "Guid": "305fbea9-6a96-437a-9ec9-dd07d1cb5dc4",
        "playRate": 1.0,
        "GameTrigger": "Dialog",
        "gameTriggerArgs": 140051018,
        "personalConfig": 2,
        "ParentID": "35d732b0-3cf1-49b6-81c7-bfc3f6123b95",
        "SourceNames": [
            {
                "sourceFileName": "VO_LQ\\VO_wriothesley\\vo_DYZLQ002_11_wriothesley_12.wem",
                "rate": 1.0,
                "avatarName": "",
                "emotion": ""
            }
        ]
    },
    "364364c5-f968-4329-a22e-8c77653251dd": {
        "Guid": "364364c5-f968-4329-a22e-8c77653251dd",
        "playRate": 1.0,
        "GameTrigger": "Dialog",
        "gameTriggerArgs": 140051036,
        "personalConfig": 2,
        "ParentID": "35d732b0-3cf1-49b6-81c7-bfc3f6123b95",
        "SourceNames": [
            {
                "sourceFileName": "VO_LQ\\VO_wriothesley\\vo_DYZLQ002_11_wriothesley_25.wem",
                "rate": 1.0,
                "avatarName": "",
                "emotion": ""
            }
        ]
    },
    "38c706f8-db78-4ad9-b6d3-cc03f7698493": {
        "Guid": "38c706f8-db78-4ad9-b6d3-cc03f7698493",
        "playRate": 1.0,
        "GameTrigger": "Dialog",
        "gameTriggerArgs": 140051116,
        "personalConfig": 2,
        "ParentID": "35d732b0-3cf1-49b6-81c7-bfc3f6123b95",
        "SourceNames": [
            {
                "sourceFileName": "VO_LQ\\VO_npc\\vo_DYZLQ002_11_dougier_02.wem",
                "rate": 1.0,
                "avatarName": "",
                "emotion": ""
            }
        ]
    },
    "3953c5ae-9086-4634-9391-18a9a2fbc403": {
        "Guid": "3953c5ae-9086-4634-9391-18a9a2fbc403",
        "playRate": 1.0,
        "GameTrigger": "Dialog",
        "gameTriggerArgs": 140051042,
        "personalConfig": 2,
        "ParentID": "35d732b0-3cf1-49b6-81c7-bfc3f6123b95",
        "SourceNames": [
            {
                "sourceFileName": "VO_LQ\\VO_wriothesley\\vo_DYZLQ002_11_wriothesley_28.wem",
                "rate": 1.0,
                "avatarName": "",
                "emotion": ""
            }
        ]
    },
    "39e27840-2a7d-4f31-bf4a-d32fb72ce125": {
        "Guid": "39e27840-2a7d-4f31-bf4a-d32fb72ce125",
        "playRate": 1.0,
        "GameTrigger": "Dialog",
        "gameTriggerArgs": 140051001,
        "personalConfig": 2,
        "ParentID": "35d732b0-3cf1-49b6-81c7-bfc3f6123b95",
        "SourceNames": [
            {
                "sourceFileName": "VO_LQ\\VO_wriothesley\\vo_DYZLQ002_11_wriothesley_01.wem",
                "rate": 1.0,
                "avatarName": "",
                "emotion": ""
            }
        ]
    },
    "3b05f2c2-e93f-4fe0-af08-68f80b86b74e": {
        "Guid": "3b05f2c2-e93f-4fe0-af08-68f80b86b74e",
        "playRate": 1.0,
        "GameTrigger": "Dialog",
        "gameTriggerArgs": 140051046,
        "personalConfig": 2,
        "ParentID": "35d732b0-3cf1-49b6-81c7-bfc3f6123b95",
        "SourceNames": [
            {
                "sourceFileName": "VO_LQ\\VO_wriothesley\\vo_DYZLQ002_11_wriothesley_32.wem",
                "rate": 1.0,
                "avatarName": "",
                "emotion": ""
            }
        ]
    },
    "48c8dfa8-8da0-4303-8b6c-15f54826fa58": {
        "Guid": "48c8dfa8-8da0-4303-8b6c-15f54826fa58",
        "playRate": 1.0,
        "GameTrigger": "Dialog",
        "gameTriggerArgs": 140051101,
        "personalConfig": 2,
        "ParentID": "35d732b0-3cf1-49b6-81c7-bfc3f6123b95",
        "SourceNames": [
            {
                "sourceFileName": "VO_LQ\\VO_npc\\vo_DYZLQ002_11_avice_02.wem",
                "rate": 1.0,
                "avatarName": "",
                "emotion": ""
            }
        ]
    },
    "4add8df8-161d-4c08-9395-caf3eeafd952": {
        "Guid": "4add8df8-161d-4c08-9395-caf3eeafd952",
        "playRate": 1.0,
        "GameTrigger": "Dialog",
        "gameTriggerArgs": 140051002,
        "personalConfig": 2,
        "ParentID": "35d732b0-3cf1-49b6-81c7-bfc3f6123b95",
        "SourceNames": [
            {
                "sourceFileName": "VO_LQ\\VO_paimon\\vo_DYZLQ002_11_paimon_01.wem",
                "rate": 1.0,
                "avatarName": "",
                "emotion": ""
            }
        ]
    },
    "4ec3427a-5707-4255-b64f-90ba4b596ac5": {
        "Guid": "4ec3427a-5707-4255-b64f-90ba4b596ac5",
        "playRate": 1.0,
        "GameTrigger": "Dialog",
        "gameTriggerArgs": 140051006,
        "personalConfig": 2,
        "ParentID": "35d732b0-3cf1-49b6-81c7-bfc3f6123b95",
        "SourceNames": [
            {
                "sourceFileName": "VO_LQ\\VO_paimon\\vo_DYZLQ002_11_paimon_02.wem",
                "rate": 1.0,
                "avatarName": "",
                "emotion": ""
            }
        ]
    },
    "5286cbd1-0636-4958-8589-26b432894f02": {
        "Guid": "5286cbd1-0636-4958-8589-26b432894f02",
        "playRate": 1.0,
        "GameTrigger": "Dialog",
        "gameTriggerArgs": 140051109,
        "personalConfig": 2,
        "ParentID": "35d732b0-3cf1-49b6-81c7-bfc3f6123b95",
        "SourceNames": [
            {
                "sourceFileName": "VO_LQ\\VO_npc\\vo_DYZLQ002_11_avice_07.wem",
                "rate": 1.0,
                "avatarName": "",
                "emotion": ""
            }
        ]
    },
    "54647082-ccb9-4aab-a52f-c1ada47c1c20": {
        "Guid": "54647082-ccb9-4aab-a52f-c1ada47c1c20",
        "playRate": 1.0,
        "GameTrigger": "Dialog",
        "gameTriggerArgs": 140051131,
        "personalConfig": 2,
        "ParentID": "35d732b0-3cf1-49b6-81c7-bfc3f6123b95",
        "SourceNames": [
            {
                "sourceFileName": "VO_LQ\\VO_npc\\vo_DYZLQ002_11_avice_14.wem",
                "rate": 1.0,
                "avatarName": "",
                "emotion": ""
            }
        ]
    },
    "569c87c3-aca5-44b2-8e3b-296255494348": {
        "Guid": "569c87c3-aca5-44b2-8e3b-296255494348",
        "playRate": 1.0,
        "GameTrigger": "Dialog",
        "gameTriggerArgs": 140051033,
        "personalConfig": 2,
        "ParentID": "35d732b0-3cf1-49b6-81c7-bfc3f6123b95",
        "SourceNames": [
            {
                "sourceFileName": "VO_LQ\\VO_paimon\\vo_DYZLQ002_11_paimon_05.wem",
                "rate": 1.0,
                "avatarName": "",
                "emotion": ""
            }
        ]
    },
    "5808330a-4525-4e41-9a48-75c99a433793": {
        "Guid": "5808330a-4525-4e41-9a48-75c99a433793",
        "playRate": 1.0,
        "GameTrigger": "Dialog",
        "gameTriggerArgs": 140051112,
        "personalConfig": 2,
        "ParentID": "35d732b0-3cf1-49b6-81c7-bfc3f6123b95",
        "SourceNames": [
            {
                "sourceFileName": "VO_LQ\\VO_npc\\vo_DYZLQ002_11_avice_09.wem",
                "rate": 1.0,
                "avatarName": "",
                "emotion": ""
            }
        ]
    },
    "60418c4d-62a1-41e4-b3e9-e7d60d5fe74d": {
        "Guid": "60418c4d-62a1-41e4-b3e9-e7d60d5fe74d",
        "playRate": 1.0,
        "GameTrigger": "Dialog",
        "gameTriggerArgs": 140051030,
        "personalConfig": 2,
        "ParentID": "35d732b0-3cf1-49b6-81c7-bfc3f6123b95",
        "SourceNames": [
            {
                "sourceFileName": "VO_LQ\\VO_wriothesley\\vo_DYZLQ002_11_wriothesley_21.wem",
                "rate": 1.0,
                "avatarName": "",
                "emotion": ""
            }
        ]
    },
    "67f41d47-595e-4c6c-8868-4fcf5aff4db9": {
        "Guid": "67f41d47-595e-4c6c-8868-4fcf5aff4db9",
        "playRate": 1.0,
        "GameTrigger": "Dialog",
        "gameTriggerArgs": 140051138,
        "personalConfig": 2,
        "ParentID": "35d732b0-3cf1-49b6-81c7-bfc3f6123b95",
        "SourceNames": [
            {
                "sourceFileName": "VO_LQ\\VO_wriothesley\\vo_DYZLQ002_11_wriothesley_42.wem",
                "rate": 1.0,
                "avatarName": "",
                "emotion": ""
            }
        ]
    },
    "68b3a7ad-46bd-44e1-b102-f51badc7d13b": {
        "Guid": "68b3a7ad-46bd-44e1-b102-f51badc7d13b",
        "playRate": 1.0,
        "GameTrigger": "Dialog",
        "gameTriggerArgs": 140051032,
        "personalConfig": 2,
        "ParentID": "35d732b0-3cf1-49b6-81c7-bfc3f6123b95",
        "SourceNames": [
            {
                "sourceFileName": "VO_LQ\\VO_wriothesley\\vo_DYZLQ002_11_wriothesley_23.wem",
                "rate": 1.0,
                "avatarName": "",
                "emotion": ""
            }
        ]
    },
    "6af1b048-6ee4-4039-ab36-d6995051ac1b": {
        "Guid": "6af1b048-6ee4-4039-ab36-d6995051ac1b",
        "playRate": 1.0,
        "GameTrigger": "Dialog",
        "gameTriggerArgs": 140051152,
        "personalConfig": 2,
        "ParentID": "35d732b0-3cf1-49b6-81c7-bfc3f6123b95",
        "SourceNames": [
            {
                "sourceFileName": "VO_LQ\\VO_npc\\vo_DYZLQ002_11_dougier_16.wem",
                "rate": 1.0,
                "avatarName": "",
                "emotion": ""
            }
        ]
    },
    "6e3b1b20-821c-40ca-8c54-f89b474464d9": {
        "Guid": "6e3b1b20-821c-40ca-8c54-f89b474464d9",
        "playRate": 1.0,
        "GameTrigger": "Dialog",
        "gameTriggerArgs": 140051022,
        "personalConfig": 2,
        "ParentID": "35d732b0-3cf1-49b6-81c7-bfc3f6123b95",
        "SourceNames": [
            {
                "sourceFileName": "VO_LQ\\VO_wriothesley\\vo_DYZLQ002_11_wriothesley_15.wem",
                "rate": 1.0,
                "avatarName": "",
                "emotion": ""
            }
        ]
    },
    "737ec580-74c1-43ee-b863-ab27bdd4472e": {
        "Guid": "737ec580-74c1-43ee-b863-ab27bdd4472e",
        "playRate": 1.0,
        "GameTrigger": "Dialog",
        "gameTriggerArgs": 140051024,
        "personalConfig": 2,
        "ParentID": "35d732b0-3cf1-49b6-81c7-bfc3f6123b95",
        "SourceNames": [
            {
                "sourceFileName": "VO_LQ\\VO_wriothesley\\vo_DYZLQ002_11_wriothesley_17.wem",
                "rate": 1.0,
                "avatarName": "",
                "emotion": ""
            }
        ]
    },
    "74c64cd8-6083-4dc2-a98e-82ac0c733a61": {
        "Guid": "74c64cd8-6083-4dc2-a98e-82ac0c733a61",
        "playRate": 1.0,
        "GameTrigger": "Dialog",
        "gameTriggerArgs": 140051039,
        "personalConfig": 2,
        "ParentID": "35d732b0-3cf1-49b6-81c7-bfc3f6123b95",
        "SourceNames": [
            {
                "sourceFileName": "VO_LQ\\VO_paimon\\vo_DYZLQ002_11_paimon_06.wem",
                "rate": 1.0,
                "avatarName": "",
                "emotion": ""
            }
        ]
    },
    "75ea04ac-4d33-4f0f-8c4c-91fdaa0e8922": {
        "Guid": "75ea04ac-4d33-4f0f-8c4c-91fdaa0e8922",
        "playRate": 1.0,
        "GameTrigger": "Dialog",
        "gameTriggerArgs": 140051108,
        "personalConfig": 2,
        "ParentID": "35d732b0-3cf1-49b6-81c7-bfc3f6123b95",
        "SourceNames": [
            {
                "sourceFileName": "VO_LQ\\VO_npc\\vo_DYZLQ002_11_avice_06.wem",
                "rate": 1.0,
                "avatarName": "",
                "emotion": ""
            }
        ]
    },
    "79beb363-725c-424c-91fe-c0b30989353e": {
        "Guid": "79beb363-725c-424c-91fe-c0b30989353e",
        "playRate": 1.0,
        "GameTrigger": "Dialog",
        "gameTriggerArgs": 140051125,
        "personalConfig": 2,
        "ParentID": "35d732b0-3cf1-49b6-81c7-bfc3f6123b95",
        "SourceNames": [
            {
                "sourceFileName": "VO_LQ\\VO_wriothesley\\vo_DYZLQ002_11_wriothesley_38.wem",
                "rate": 1.0,
                "avatarName": "",
                "emotion": ""
            }
        ]
    },
    "7ad42678-a1f3-43b1-b535-b465b27f5f81": {
        "Guid": "7ad42678-a1f3-43b1-b535-b465b27f5f81",
        "playRate": 1.0,
        "GameTrigger": "Dialog",
        "gameTriggerArgs": 140051020,
        "personalConfig": 2,
        "ParentID": "35d732b0-3cf1-49b6-81c7-bfc3f6123b95",
        "SourceNames": [
            {
                "sourceFileName": "VO_LQ\\VO_wriothesley\\vo_DYZLQ002_11_wriothesley_14.wem",
                "rate": 1.0,
                "avatarName": "",
                "emotion": ""
            }
        ]
    },
    "7b15eb59-b374-43e1-9719-aadbf4314867": {
        "Guid": "7b15eb59-b374-43e1-9719-aadbf4314867",
        "playRate": 1.0,
        "GameTrigger": "Dialog",
        "gameTriggerArgs": 140051151,
        "personalConfig": 2,
        "ParentID": "35d732b0-3cf1-49b6-81c7-bfc3f6123b95",
        "SourceNames": [
            {
                "sourceFileName": "VO_LQ\\VO_npc\\vo_DYZLQ002_11_dougier_15.wem",
                "rate": 1.0,
                "avatarName": "",
                "emotion": ""
            }
        ]
    },
    "7fc0b8d6-1a94-4b87-9eb9-d5be8c4f5b2a": {
        "Guid": "7fc0b8d6-1a94-4b87-9eb9-d5be8c4f5b2a",
        "playRate": 1.0,
        "GameTrigger": "Dialog",
        "gameTriggerArgs": 140051136,
        "personalConfig": 2,
        "ParentID": "35d732b0-3cf1-49b6-81c7-bfc3f6123b95",
        "SourceNames": [
            {
                "sourceFileName": "VO_LQ\\VO_wriothesley\\vo_DYZLQ002_11_wriothesley_40.wem",
                "rate": 1.0,
                "avatarName": "",
                "emotion": ""
            }
        ]
    },
    "8b0df658-d08f-4947-a58b-ea1a21deccaa": {
        "Guid": "8b0df658-d08f-4947-a58b-ea1a21deccaa",
        "playRate": 1.0,
        "GameTrigger": "Dialog",
        "gameTriggerArgs": 140051135,
        "personalConfig": 2,
        "ParentID": "35d732b0-3cf1-49b6-81c7-bfc3f6123b95",
        "SourceNames": [
            {
                "sourceFileName": "VO_LQ\\VO_npc\\vo_DYZLQ002_11_dougier_08.wem",
                "rate": 1.0,
                "avatarName": "",
                "emotion": ""
            }
        ]
    },
    "8ee0cddc-970e-4431-a61c-9326d0bc133b": {
        "Guid": "8ee0cddc-970e-4431-a61c-9326d0bc133b",
        "playRate": 1.0,
        "GameTrigger": "Dialog",
        "gameTriggerArgs": 140051044,
        "personalConfig": 2,
        "ParentID": "35d732b0-3cf1-49b6-81c7-bfc3f6123b95",
        "SourceNames": [
            {
                "sourceFileName": "VO_LQ\\VO_wriothesley\\vo_DYZLQ002_11_wriothesley_30.wem",
                "rate": 1.0,
                "avatarName": "",
                "emotion": ""
            }
        ]
    },
    "8f9c09c3-6b48-4d36-9180-2ed7e1dd4b38": {
        "Guid": "8f9c09c3-6b48-4d36-9180-2ed7e1dd4b38",
        "playRate": 1.0,
        "GameTrigger": "Dialog",
        "gameTriggerArgs": 140051047,
        "personalConfig": 2,
        "ParentID": "35d732b0-3cf1-49b6-81c7-bfc3f6123b95",
        "SourceNames": [
            {
                "sourceFileName": "VO_LQ\\VO_wriothesley\\vo_DYZLQ002_11_wriothesley_33.wem",
                "rate": 1.0,
                "avatarName": "",
                "emotion": ""
            }
        ]
    },
    "9787899b-fad6-4624-9b67-44c946244371": {
        "Guid": "9787899b-fad6-4624-9b67-44c946244371",
        "playRate": 1.0,
        "GameTrigger": "Dialog",
        "gameTriggerArgs": 140051127,
        "personalConfig": 2,
        "ParentID": "35d732b0-3cf1-49b6-81c7-bfc3f6123b95",
        "SourceNames": [
            {
                "sourceFileName": "VO_LQ\\VO_npc\\vo_DYZLQ002_11_dougier_07.wem",
                "rate": 1.0,
                "avatarName": "",
                "emotion": ""
            }
        ]
    },
    "9824d5af-7fd7-4098-8cf4-f872364c6f26": {
        "Guid": "9824d5af-7fd7-4098-8cf4-f872364c6f26",
        "playRate": 1.0,
        "GameTrigger": "Dialog",
        "gameTriggerArgs": 140051146,
        "personalConfig": 2,
        "ParentID": "35d732b0-3cf1-49b6-81c7-bfc3f6123b95",
        "SourceNames": [
            {
                "sourceFileName": "VO_LQ\\VO_npc\\vo_DYZLQ002_11_dougier_11.wem",
                "rate": 1.0,
                "avatarName": "",
                "emotion": ""
            }
        ]
    },
    "9a31f70c-5cb1-459b-b835-9c3018c8d953": {
        "Guid": "9a31f70c-5cb1-459b-b835-9c3018c8d953",
        "playRate": 1.0,
        "GameTrigger": "Dialog",
        "gameTriggerArgs": 140051114,
        "personalConfig": 2,
        "ParentID": "35d732b0-3cf1-49b6-81c7-bfc3f6123b95",
        "SourceNames": [
            {
                "sourceFileName": "VO_LQ\\VO_npc\\vo_DYZLQ002_11_avice_11.wem",
                "rate": 1.0,
                "avatarName": "",
                "emotion": ""
            }
        ]
    },
    "9acb8606-fc74-468d-94cc-bf23b399eb8f": {
        "Guid": "9acb8606-fc74-468d-94cc-bf23b399eb8f",
        "playRate": 1.0,
        "GameTrigger": "Dialog",
        "gameTriggerArgs": 140051028,
        "personalConfig": 2,
        "ParentID": "35d732b0-3cf1-49b6-81c7-bfc3f6123b95",
        "SourceNames": [
            {
                "sourceFileName": "VO_LQ\\VO_wriothesley\\vo_DYZLQ002_11_wriothesley_20.wem",
                "rate": 1.0,
                "avatarName": "",
                "emotion": ""
            }
        ]
    },
    "9ad0c567-b282-4251-b46d-58ec41befd37": {
        "Guid": "9ad0c567-b282-4251-b46d-58ec41befd37",
        "playRate": 1.0,
        "GameTrigger": "Dialog",
        "gameTriggerArgs": 140051150,
        "personalConfig": 2,
        "ParentID": "35d732b0-3cf1-49b6-81c7-bfc3f6123b95",
        "SourceNames": [
            {
                "sourceFileName": "VO_LQ\\VO_wriothesley\\vo_DYZLQ002_11_wriothesley_45.wem",
                "rate": 1.0,
                "avatarName": "",
                "emotion": ""
            }
        ]
    },
    "9f147eb8-afb9-4020-b0be-ddeda6bc6860": {
        "Guid": "9f147eb8-afb9-4020-b0be-ddeda6bc6860",
        "playRate": 1.0,
        "GameTrigger": "Dialog",
        "gameTriggerArgs": 140051008,
        "personalConfig": 2,
        "ParentID": "35d732b0-3cf1-49b6-81c7-bfc3f6123b95",
        "SourceNames": [
            {
                "sourceFileName": "VO_LQ\\VO_wriothesley\\vo_DYZLQ002_11_wriothesley_06.wem",
                "rate": 1.0,
                "avatarName": "",
                "emotion": ""
            }
        ]
    },
    "a4ac6837-2d4a-4efc-aa05-24665ae46055": {
        "Guid": "a4ac6837-2d4a-4efc-aa05-24665ae46055",
        "playRate": 1.0,
        "GameTrigger": "Dialog",
        "gameTriggerArgs": 140051031,
        "personalConfig": 2,
        "ParentID": "35d732b0-3cf1-49b6-81c7-bfc3f6123b95",
        "SourceNames": [
            {
                "sourceFileName": "VO_LQ\\VO_wriothesley\\vo_DYZLQ002_11_wriothesley_22.wem",
                "rate": 1.0,
                "avatarName": "",
                "emotion": ""
            }
        ]
    },
    "a90bec5c-36f2-41ca-882a-03ffc8352f22": {
        "Guid": "a90bec5c-36f2-41ca-882a-03ffc8352f22",
        "playRate": 1.0,
        "GameTrigger": "Dialog",
        "gameTriggerArgs": 140051005,
        "personalConfig": 2,
        "ParentID": "35d732b0-3cf1-49b6-81c7-bfc3f6123b95",
        "SourceNames": [
            {
                "sourceFileName": "VO_LQ\\VO_wriothesley\\vo_DYZLQ002_11_wriothesley_04.wem",
                "rate": 1.0,
                "avatarName": "",
                "emotion": ""
            }
        ]
    },
    "a9894176-69cf-4d30-b767-79d2de451138": {
        "Guid": "a9894176-69cf-4d30-b767-79d2de451138",
        "playRate": 1.0,
        "GameTrigger": "Dialog",
        "gameTriggerArgs": 140051137,
        "personalConfig": 2,
        "ParentID": "35d732b0-3cf1-49b6-81c7-bfc3f6123b95",
        "SourceNames": [
            {
                "sourceFileName": "VO_LQ\\VO_wriothesley\\vo_DYZLQ002_11_wriothesley_41.wem",
                "rate": 1.0,
                "avatarName": "",
                "emotion": ""
            }
        ]
    },
    "aaec03d7-ea55-46df-b8fa-34132e4afed1": {
        "Guid": "aaec03d7-ea55-46df-b8fa-34132e4afed1",
        "playRate": 1.0,
        "GameTrigger": "Dialog",
        "gameTriggerArgs": 140051049,
        "personalConfig": 2,
        "ParentID": "35d732b0-3cf1-49b6-81c7-bfc3f6123b95",
        "SourceNames": [
            {
                "sourceFileName": "VO_LQ\\VO_npc\\vo_DYZLQ002_11_avice_01.wem",
                "rate": 1.0,
                "avatarName": "",
                "emotion": ""
            }
        ]
    },
    "ad5ef20b-f028-49f1-9263-e2c10d483f75": {
        "Guid": "ad5ef20b-f028-49f1-9263-e2c10d483f75",
        "playRate": 1.0,
        "GameTrigger": "Dialog",
        "gameTriggerArgs": 140051148,
        "personalConfig": 2,
        "ParentID": "35d732b0-3cf1-49b6-81c7-bfc3f6123b95",
        "SourceNames": [
            {
                "sourceFileName": "VO_LQ\\VO_npc\\vo_DYZLQ002_11_dougier_13.wem",
                "rate": 1.0,
                "avatarName": "",
                "emotion": ""
            }
        ]
    },
    "ae5982e1-4dfb-4359-b0e4-21a57b9ecda9": {
        "Guid": "ae5982e1-4dfb-4359-b0e4-21a57b9ecda9",
        "playRate": 1.0,
        "GameTrigger": "Dialog",
        "gameTriggerArgs": 140051113,
        "personalConfig": 2,
        "ParentID": "35d732b0-3cf1-49b6-81c7-bfc3f6123b95",
        "SourceNames": [
            {
                "sourceFileName": "VO_LQ\\VO_npc\\vo_DYZLQ002_11_avice_10.wem",
                "rate": 1.0,
                "avatarName": "",
                "emotion": ""
            }
        ]
    },
    "b1be9136-4956-474e-b98a-fb4b77e483cc": {
        "Guid": "b1be9136-4956-474e-b98a-fb4b77e483cc",
        "playRate": 1.0,
        "GameTrigger": "Dialog",
        "gameTriggerArgs": 140051026,
        "personalConfig": 2,
        "ParentID": "35d732b0-3cf1-49b6-81c7-bfc3f6123b95",
        "SourceNames": [
            {
                "sourceFileName": "VO_LQ\\VO_paimon\\vo_DYZLQ002_11_paimon_04.wem",
                "rate": 1.0,
                "avatarName": "",
                "emotion": ""
            }
        ]
    },
    "b40e2424-d322-4cd4-bbc5-14b1777582bc": {
        "Guid": "b40e2424-d322-4cd4-bbc5-14b1777582bc",
        "playRate": 1.0,
        "GameTrigger": "Dialog",
        "gameTriggerArgs": 140051103,
        "personalConfig": 2,
        "ParentID": "35d732b0-3cf1-49b6-81c7-bfc3f6123b95",
        "SourceNames": [
            {
                "sourceFileName": "VO_LQ\\VO_npc\\vo_DYZLQ002_11_avice_03.wem",
                "rate": 1.0,
                "avatarName": "",
                "emotion": ""
            }
        ]
    },
    "b428ab90-a7b9-45dc-9cc0-bd40446aaa90": {
        "Guid": "b428ab90-a7b9-45dc-9cc0-bd40446aaa90",
        "playRate": 1.0,
        "GameTrigger": "Dialog",
        "gameTriggerArgs": 140051037,
        "personalConfig": 2,
        "ParentID": "35d732b0-3cf1-49b6-81c7-bfc3f6123b95",
        "SourceNames": [
            {
                "sourceFileName": "VO_LQ\\VO_wriothesley\\vo_DYZLQ002_11_wriothesley_26.wem",
                "rate": 1.0,
                "avatarName": "",
                "emotion": ""
            }
        ]
    },
    "b5a8b113-c90f-4c72-a0fb-d356f195d4ad": {
        "Guid": "b5a8b113-c90f-4c72-a0fb-d356f195d4ad",
        "playRate": 1.0,
        "GameTrigger": "Dialog",
        "gameTriggerArgs": 140051143,
        "personalConfig": 2,
        "ParentID": "35d732b0-3cf1-49b6-81c7-bfc3f6123b95",
        "SourceNames": [
            {
                "sourceFileName": "VO_LQ\\VO_wriothesley\\vo_DYZLQ002_11_wriothesley_43.wem",
                "rate": 1.0,
                "avatarName": "",
                "emotion": ""
            }
        ]
    },
    "b5b3169d-1e9c-49eb-911b-45cda97839b5": {
        "Guid": "b5b3169d-1e9c-49eb-911b-45cda97839b5",
        "playRate": 1.0,
        "GameTrigger": "Dialog",
        "gameTriggerArgs": 140051007,
        "personalConfig": 2,
        "ParentID": "35d732b0-3cf1-49b6-81c7-bfc3f6123b95",
        "SourceNames": [
            {
                "sourceFileName": "VO_LQ\\VO_wriothesley\\vo_DYZLQ002_11_wriothesley_05.wem",
                "rate": 1.0,
                "avatarName": "",
                "emotion": ""
            }
        ]
    },
    "ba3f71df-545b-427c-83bd-5cf66891a556": {
        "Guid": "ba3f71df-545b-427c-83bd-5cf66891a556",
        "playRate": 1.0,
        "GameTrigger": "Dialog",
        "gameTriggerArgs": 140051027,
        "personalConfig": 2,
        "ParentID": "35d732b0-3cf1-49b6-81c7-bfc3f6123b95",
        "SourceNames": [
            {
                "sourceFileName": "VO_LQ\\VO_wriothesley\\vo_DYZLQ002_11_wriothesley_19.wem",
                "rate": 1.0,
                "avatarName": "",
                "emotion": ""
            }
        ]
    },
    "bb2d3dd5-5542-44d7-beb8-dbb3460a63de": {
        "Guid": "bb2d3dd5-5542-44d7-beb8-dbb3460a63de",
        "playRate": 1.0,
        "GameTrigger": "Dialog",
        "gameTriggerArgs": 140051013,
        "personalConfig": 2,
        "ParentID": "35d732b0-3cf1-49b6-81c7-bfc3f6123b95",
        "SourceNames": [
            {
                "sourceFileName": "VO_LQ\\VO_wriothesley\\vo_DYZLQ002_11_wriothesley_09.wem",
                "rate": 1.0,
                "avatarName": "",
                "emotion": ""
            }
        ]
    },
    "bf653541-b7cc-4533-9a5b-6421c064887c": {
        "Guid": "bf653541-b7cc-4533-9a5b-6421c064887c",
        "playRate": 1.0,
        "GameTrigger": "Dialog",
        "gameTriggerArgs": 140051141,
        "personalConfig": 2,
        "ParentID": "35d732b0-3cf1-49b6-81c7-bfc3f6123b95",
        "SourceNames": [
            {
                "sourceFileName": "VO_LQ\\VO_paimon\\vo_DYZLQ002_11_paimon_09.wem",
                "rate": 1.0,
                "avatarName": "",
                "emotion": ""
            }
        ]
    },
    "bfab3f22-180e-44a4-8b41-458a8ef15b8f": {
        "Guid": "bfab3f22-180e-44a4-8b41-458a8ef15b8f",
        "playRate": 1.0,
        "GameTrigger": "Dialog",
        "gameTriggerArgs": 140051009,
        "personalConfig": 2,
        "ParentID": "35d732b0-3cf1-49b6-81c7-bfc3f6123b95",
        "SourceNames": [
            {
                "sourceFileName": "VO_LQ\\VO_wriothesley\\vo_DYZLQ002_11_wriothesley_07.wem",
                "rate": 1.0,
                "avatarName": "",
                "emotion": ""
            }
        ]
    },
    "bfe8dfdd-53d5-4292-bea5-dc66e5e2d200": {
        "Guid": "bfe8dfdd-53d5-4292-bea5-dc66e5e2d200",
        "playRate": 1.0,
        "GameTrigger": "Dialog",
        "gameTriggerArgs": 140051119,
        "personalConfig": 2,
        "ParentID": "35d732b0-3cf1-49b6-81c7-bfc3f6123b95",
        "SourceNames": [
            {
                "sourceFileName": "VO_LQ\\VO_npc\\vo_DYZLQ002_11_dougier_04.wem",
                "rate": 1.0,
                "avatarName": "",
                "emotion": ""
            }
        ]
    },
    "c0257e20-980a-4693-a194-006014efc883": {
        "Guid": "c0257e20-980a-4693-a194-006014efc883",
        "playRate": 1.0,
        "GameTrigger": "Dialog",
        "gameTriggerArgs": 140051111,
        "personalConfig": 2,
        "ParentID": "35d732b0-3cf1-49b6-81c7-bfc3f6123b95",
        "SourceNames": [
            {
                "sourceFileName": "VO_LQ\\VO_npc\\vo_DYZLQ002_11_avice_08.wem",
                "rate": 1.0,
                "avatarName": "",
                "emotion": ""
            }
        ]
    },
    "c74ba82b-bf24-42ba-850c-d13a8681d0ac": {
        "Guid": "c74ba82b-bf24-42ba-850c-d13a8681d0ac",
        "playRate": 1.0,
        "GameTrigger": "Dialog",
        "gameTriggerArgs": 140051107,
        "personalConfig": 2,
        "ParentID": "35d732b0-3cf1-49b6-81c7-bfc3f6123b95",
        "SourceNames": [
            {
                "sourceFileName": "VO_LQ\\VO_npc\\vo_DYZLQ002_11_avice_05.wem",
                "rate": 1.0,
                "avatarName": "",
                "emotion": ""
            }
        ]
    },
    "c904ffc5-3392-43e9-a089-1e2f20e1eea3": {
        "Guid": "c904ffc5-3392-43e9-a089-1e2f20e1eea3",
        "playRate": 1.0,
        "GameTrigger": "Dialog",
        "gameTriggerArgs": 140051003,
        "personalConfig": 2,
        "ParentID": "35d732b0-3cf1-49b6-81c7-bfc3f6123b95",
        "SourceNames": [
            {
                "sourceFileName": "VO_LQ\\VO_wriothesley\\vo_DYZLQ002_11_wriothesley_02.wem",
                "rate": 1.0,
                "avatarName": "",
                "emotion": ""
            }
        ]
    },
    "c90ddcd3-7a18-4cba-9dfa-f92458f3f7dd": {
        "Guid": "c90ddcd3-7a18-4cba-9dfa-f92458f3f7dd",
        "playRate": 1.0,
        "GameTrigger": "Dialog",
        "gameTriggerArgs": 140051014,
        "personalConfig": 2,
        "ParentID": "35d732b0-3cf1-49b6-81c7-bfc3f6123b95",
        "SourceNames": [
            {
                "sourceFileName": "VO_LQ\\VO_wriothesley\\vo_DYZLQ002_11_wriothesley_10.wem",
                "rate": 1.0,
                "avatarName": "",
                "emotion": ""
            }
        ]
    },
    "cbb0c331-3979-4532-8c7f-4f2e34a3a9a8": {
        "Guid": "cbb0c331-3979-4532-8c7f-4f2e34a3a9a8",
        "playRate": 1.0,
        "GameTrigger": "Dialog",
        "gameTriggerArgs": 140051124,
        "personalConfig": 2,
        "ParentID": "35d732b0-3cf1-49b6-81c7-bfc3f6123b95",
        "SourceNames": [
            {
                "sourceFileName": "VO_LQ\\VO_npc\\vo_DYZLQ002_11_dougier_05.wem",
                "rate": 1.0,
                "avatarName": "",
                "emotion": ""
            }
        ]
    },
    "d3df9258-7825-4a45-8c46-2029485ea7fd": {
        "Guid": "d3df9258-7825-4a45-8c46-2029485ea7fd",
        "playRate": 1.0,
        "GameTrigger": "Dialog",
        "gameTriggerArgs": 140051128,
        "personalConfig": 2,
        "ParentID": "35d732b0-3cf1-49b6-81c7-bfc3f6123b95",
        "SourceNames": [
            {
                "sourceFileName": "VO_LQ\\VO_npc\\vo_DYZLQ002_11_avice_12.wem",
                "rate": 1.0,
                "avatarName": "",
                "emotion": ""
            }
        ]
    },
    "d548d83d-2ef5-45ff-a055-4b148d5c0f05": {
        "Guid": "d548d83d-2ef5-45ff-a055-4b148d5c0f05",
        "playRate": 1.0,
        "GameTrigger": "Dialog",
        "gameTriggerArgs": 140051120,
        "personalConfig": 2,
        "ParentID": "35d732b0-3cf1-49b6-81c7-bfc3f6123b95",
        "SourceNames": [
            {
                "sourceFileName": "VO_LQ\\VO_paimon\\vo_DYZLQ002_11_paimon_08.wem",
                "rate": 1.0,
                "avatarName": "",
                "emotion": ""
            }
        ]
    },
    "df0adac9-b66b-47b5-b56a-3b008ec49aeb": {
        "Guid": "df0adac9-b66b-47b5-b56a-3b008ec49aeb",
        "playRate": 1.0,
        "GameTrigger": "Dialog",
        "gameTriggerArgs": 140051115,
        "personalConfig": 2,
        "ParentID": "35d732b0-3cf1-49b6-81c7-bfc3f6123b95",
        "SourceNames": [
            {
                "sourceFileName": "VO_LQ\\VO_npc\\vo_DYZLQ002_11_dougier_01.wem",
                "rate": 1.0,
                "avatarName": "",
                "emotion": ""
            }
        ]
    },
    "e593c7c3-53bf-4fe2-ae87-8396b13a8999": {
        "Guid": "e593c7c3-53bf-4fe2-ae87-8396b13a8999",
        "playRate": 1.0,
        "GameTrigger": "Dialog",
        "gameTriggerArgs": 140051140,
        "personalConfig": 2,
        "ParentID": "35d732b0-3cf1-49b6-81c7-bfc3f6123b95",
        "SourceNames": [
            {
                "sourceFileName": "VO_LQ\\VO_npc\\vo_DYZLQ002_11_avice_17.wem",
                "rate": 1.0,
                "avatarName": "",
                "emotion": ""
            }
        ]
    },
    "e76fc79d-ef3e-4b5c-aaca-49409871fe1c": {
        "Guid": "e76fc79d-ef3e-4b5c-aaca-49409871fe1c",
        "playRate": 1.0,
        "GameTrigger": "Dialog",
        "gameTriggerArgs": 140051118,
        "personalConfig": 2,
        "ParentID": "35d732b0-3cf1-49b6-81c7-bfc3f6123b95",
        "SourceNames": [
            {
                "sourceFileName": "VO_LQ\\VO_wriothesley\\vo_DYZLQ002_11_wriothesley_37.wem",
                "rate": 1.0,
                "avatarName": "",
                "emotion": ""
            }
        ]
    },
    "f047cc36-a0a2-441f-a6ee-518a2ae78a06": {
        "Guid": "f047cc36-a0a2-441f-a6ee-518a2ae78a06",
        "playRate": 1.0,
        "GameTrigger": "Dialog",
        "gameTriggerArgs": 140051015,
        "personalConfig": 2,
        "ParentID": "35d732b0-3cf1-49b6-81c7-bfc3f6123b95",
        "SourceNames": [
            {
                "sourceFileName": "VO_LQ\\VO_wriothesley\\vo_DYZLQ002_11_wriothesley_11.wem",
                "rate": 1.0,
                "avatarName": "",
                "emotion": ""
            }
        ]
    },
    "f2081390-ac1d-4c9d-adea-19a9fef961f2": {
        "Guid": "f2081390-ac1d-4c9d-adea-19a9fef961f2",
        "playRate": 1.0,
        "GameTrigger": "Dialog",
        "gameTriggerArgs": 140051104,
        "personalConfig": 2,
        "ParentID": "35d732b0-3cf1-49b6-81c7-bfc3f6123b95",
        "SourceNames": [
            {
                "sourceFileName": "VO_LQ\\VO_wriothesley\\vo_DYZLQ002_11_wriothesley_35.wem",
                "rate": 1.0,
                "avatarName": "",
                "emotion": ""
            }
        ]
    },
    "f4b098d5-a3ff-4ff5-bad7-719b992d73bd": {
        "Guid": "f4b098d5-a3ff-4ff5-bad7-719b992d73bd",
        "playRate": 1.0,
        "GameTrigger": "Dialog",
        "gameTriggerArgs": 140051004,
        "personalConfig": 2,
        "ParentID": "35d732b0-3cf1-49b6-81c7-bfc3f6123b95",
        "SourceNames": [
            {
                "sourceFileName": "VO_LQ\\VO_wriothesley\\vo_DYZLQ002_11_wriothesley_03.wem",
                "rate": 1.0,
                "avatarName": "",
                "emotion": ""
            }
        ]
    },
    "f68b93bd-20ab-4ec4-8676-ea88fb407882": {
        "Guid": "f68b93bd-20ab-4ec4-8676-ea88fb407882",
        "playRate": 1.0,
        "GameTrigger": "Dialog",
        "gameTriggerArgs": 140051110,
        "personalConfig": 2,
        "ParentID": "35d732b0-3cf1-49b6-81c7-bfc3f6123b95",
        "SourceNames": [
            {
                "sourceFileName": "VO_LQ\\VO_wriothesley\\vo_DYZLQ002_11_wriothesley_36.wem",
                "rate": 1.0,
                "avatarName": "",
                "emotion": ""
            }
        ]
    },
    "f881d628-f9d0-4712-a3e7-0560a0f4f6da": {
        "Guid": "f881d628-f9d0-4712-a3e7-0560a0f4f6da",
        "playRate": 1.0,
        "GameTrigger": "Dialog",
        "gameTriggerArgs": 140051045,
        "personalConfig": 2,
        "ParentID": "35d732b0-3cf1-49b6-81c7-bfc3f6123b95",
        "SourceNames": [
            {
                "sourceFileName": "VO_LQ\\VO_wriothesley\\vo_DYZLQ002_11_wriothesley_31.wem",
                "rate": 1.0,
                "avatarName": "",
                "emotion": ""
            }
        ]
    },
    "f9e008ce-48de-4b6c-a689-4edf2001ac16": {
        "Guid": "f9e008ce-48de-4b6c-a689-4edf2001ac16",
        "playRate": 1.0,
        "GameTrigger": "Dialog",
        "gameTriggerArgs": 140051038,
        "personalConfig": 2,
        "ParentID": "35d732b0-3cf1-49b6-81c7-bfc3f6123b95",
        "SourceNames": [
            {
                "sourceFileName": "VO_LQ\\VO_wriothesley\\vo_DYZLQ002_11_wriothesley_27.wem",
                "rate": 1.0,
                "avatarName": "",
                "emotion": ""
            }
        ]
    },
    "fae7f9ac-66f3-4a74-ac2e-ef1527b5942c": {
        "Guid": "fae7f9ac-66f3-4a74-ac2e-ef1527b5942c",
        "playRate": 1.0,
        "GameTrigger": "Dialog",
        "gameTriggerArgs": 140051043,
        "personalConfig": 2,
        "ParentID": "35d732b0-3cf1-49b6-81c7-bfc3f6123b95",
        "SourceNames": [
            {
                "sourceFileName": "VO_LQ\\VO_wriothesley\\vo_DYZLQ002_11_wriothesley_29.wem",
                "rate": 1.0,
                "avatarName": "",
                "emotion": ""
            }
        ]
    },
    "fc4a80a8-38fd-4e95-bcc5-5519d7af5a53": {
        "Guid": "fc4a80a8-38fd-4e95-bcc5-5519d7af5a53",
        "playRate": 1.0,
        "GameTrigger": "Dialog",
        "gameTriggerArgs": 140051035,
        "personalConfig": 2,
        "ParentID": "35d732b0-3cf1-49b6-81c7-bfc3f6123b95",
        "SourceNames": [
            {
                "sourceFileName": "VO_LQ\\VO_wriothesley\\vo_DYZLQ002_11_wriothesley_24.wem",
                "rate": 1.0,
                "avatarName": "",
                "emotion": ""
            }
        ]
    },
    "fe071d49-6a89-4535-bd97-3b6674b68d08": {
        "Guid": "fe071d49-6a89-4535-bd97-3b6674b68d08",
        "playRate": 1.0,
        "GameTrigger": "Dialog",
        "gameTriggerArgs": 140051016,
        "personalConfig": 2,
        "ParentID": "35d732b0-3cf1-49b6-81c7-bfc3f6123b95",
        "SourceNames": [
            {
                "sourceFileName": "VO_LQ\\VO_paimon\\vo_DYZLQ002_11_paimon_03.wem",
                "rate": 1.0,
                "avatarName": "",
                "emotion": ""
            }
        ]
    },
    "fe6f5678-39a1-47f5-9369-d8ee0eec0592": {
        "Guid": "fe6f5678-39a1-47f5-9369-d8ee0eec0592",
        "playRate": 1.0,
        "GameTrigger": "Dialog",
        "gameTriggerArgs": 140051139,
        "personalConfig": 2,
        "ParentID": "35d732b0-3cf1-49b6-81c7-bfc3f6123b95",
        "SourceNames": [
            {
                "sourceFileName": "VO_LQ\\VO_npc\\vo_DYZLQ002_11_dougier_09.wem",
                "rate": 1.0,
                "avatarName": "",
                "emotion": ""
            }
        ]
    },
    "ffa5ff1e-f21f-44b6-b9e4-66920a67f89b": {
        "Guid": "ffa5ff1e-f21f-44b6-b9e4-66920a67f89b",
        "playRate": 1.0,
        "GameTrigger": "Dialog",
        "gameTriggerArgs": 140051134,
        "personalConfig": 2,
        "ParentID": "35d732b0-3cf1-49b6-81c7-bfc3f6123b95",
        "SourceNames": [
            {
                "sourceFileName": "VO_LQ\\VO_npc\\vo_DYZLQ002_11_avice_16.wem",
                "rate": 1.0,
                "avatarName": "",
                "emotion": ""
            }
        ]
    }
}