{
    "1f0a592c-282f-41af-aa10-f9911cb22e61": {
        "Guid": "1f0a592c-282f-41af-aa10-f9911cb22e61",
        "playRate": 1.0,
        "GameTrigger": "Dialog",
        "gameTriggerArgs": 40129905,
        "personalConfig": 2,
        "IsPlayOnTeam": true,
        "ParentID": "2939daa5-f550-47ae-996e-79e16b1ce94b",
        "SourceNames": [
            {
                "sourceFileName": "VO_AQ\\VO_paimon\\vo_FDAQ102_12_paimon_05.wem",
                "rate": 1.0,
                "avatarName": "",
                "emotion": ""
            }
        ]
    },
    "92fe5fb5-c401-411c-9cfd-5d2a3c71d899": {
        "Guid": "92fe5fb5-c401-411c-9cfd-5d2a3c71d899",
        "playRate": 1.0,
        "GameTrigger": "Dialog",
        "gameTriggerArgs": 40129904,
        "personalConfig": 2,
        "IsPlayOnTeam": true,
        "ParentID": "2939daa5-f550-47ae-996e-79e16b1ce94b",
        "SourceNames": [
            {
                "sourceFileName": "VO_AQ\\VO_paimon\\vo_FDAQ102_12_paimon_01.wem",
                "rate": 1.0,
                "avatarName": "",
                "emotion": ""
            }
        ]
    },
    "945123d9-77bc-403b-90f6-b315e080a5f2": {
        "Guid": "945123d9-77bc-403b-90f6-b315e080a5f2",
        "playRate": 1.0,
        "GameTrigger": "Dialog",
        "gameTriggerArgs": 40121205,
        "personalConfig": 2,
        "ParentID": "2939daa5-f550-47ae-996e-79e16b1ce94b",
        "SourceNames": [
            {
                "sourceFileName": "VO_AQ\\VO_paimon\\vo_FDAQ102_12_paimon_04.wem",
                "rate": 1.0,
                "avatarName": "",
                "emotion": ""
            }
        ]
    },
    "9f0d321a-3388-45dd-be02-58ea4b148859": {
        "Guid": "9f0d321a-3388-45dd-be02-58ea4b148859",
        "playRate": 1.0,
        "GameTrigger": "Dialog",
        "gameTriggerArgs": 40129906,
        "personalConfig": 2,
        "IsPlayOnTeam": true,
        "ParentID": "2939daa5-f550-47ae-996e-79e16b1ce94b",
        "SourceNames": [
            {
                "sourceFileName": "VO_AQ\\VO_paimon\\vo_FDAQ102_12_paimon_06.wem",
                "rate": 1.0,
                "avatarName": "",
                "emotion": ""
            }
        ]
    },
    "9f5567ab-76c2-4679-b192-85b11abf7b17": {
        "Guid": "9f5567ab-76c2-4679-b192-85b11abf7b17",
        "playRate": 1.0,
        "GameTrigger": "Dialog",
        "gameTriggerArgs": 40121204,
        "personalConfig": 2,
        "ParentID": "2939daa5-f550-47ae-996e-79e16b1ce94b",
        "SourceNames": [
            {
                "sourceFileName": "VO_AQ\\VO_paimon\\vo_FDAQ102_12_paimon_03.wem",
                "rate": 1.0,
                "avatarName": "",
                "emotion": ""
            }
        ]
    },
    "db227f92-e047-4997-927b-ad770e391c6c": {
        "Guid": "db227f92-e047-4997-927b-ad770e391c6c",
        "playRate": 1.0,
        "GameTrigger": "Dialog",
        "gameTriggerArgs": 40129907,
        "personalConfig": 2,
        "IsPlayOnTeam": true,
        "ParentID": "2939daa5-f550-47ae-996e-79e16b1ce94b",
        "SourceNames": [
            {
                "sourceFileName": "VO_AQ\\VO_paimon\\vo_FDAQ102_12_paimon_07.wem",
                "rate": 1.0,
                "avatarName": "",
                "emotion": ""
            }
        ]
    },
    "e4f8eb15-52b1-4e9e-b44f-94b59ca2cf0e": {
        "Guid": "e4f8eb15-52b1-4e9e-b44f-94b59ca2cf0e",
        "playRate": 1.0,
        "GameTrigger": "Dialog",
        "gameTriggerArgs": 40121203,
        "personalConfig": 2,
        "ParentID": "2939daa5-f550-47ae-996e-79e16b1ce94b",
        "SourceNames": [
            {
                "sourceFileName": "VO_AQ\\VO_paimon\\vo_FDAQ102_12_paimon_02.wem",
                "rate": 1.0,
                "avatarName": "",
                "emotion": ""
            }
        ]
    },
    "e622783e-4ca0-477b-bb44-e73fcdd5effe": {
        "Guid": "e622783e-4ca0-477b-bb44-e73fcdd5effe",
        "playRate": 1.0,
        "GameTrigger": "Dialog",
        "gameTriggerArgs": 40121202,
        "personalConfig": 2,
        "ParentID": "2939daa5-f550-47ae-996e-79e16b1ce94b",
        "SourceNames": [
            {
                "sourceFileName": "VO_AQ\\VO_NPC\\vo_FDAQ102_12_grainville_02.wem",
                "rate": 1.0,
                "avatarName": "",
                "emotion": ""
            }
        ]
    },
    "fcf8c953-5b6e-47e0-b322-85fa19c48840": {
        "Guid": "fcf8c953-5b6e-47e0-b322-85fa19c48840",
        "playRate": 1.0,
        "GameTrigger": "Dialog",
        "gameTriggerArgs": 40121201,
        "personalConfig": 2,
        "ParentID": "2939daa5-f550-47ae-996e-79e16b1ce94b",
        "SourceNames": [
            {
                "sourceFileName": "VO_AQ\\VO_NPC\\vo_FDAQ102_12_grainville_01.wem",
                "rate": 1.0,
                "avatarName": "",
                "emotion": ""
            }
        ]
    }
}