{
    "019f88c4-ac16-472e-9da7-002c1af6831c": {
        "Guid": "019f88c4-ac16-472e-9da7-002c1af6831c",
        "playRate": 1.0,
        "GameTrigger": "Dialog",
        "gameTriggerArgs": 401411017,
        "personalConfig": 2,
        "ParentID": "05ddf485-a6f9-494d-9039-49c3aa0a977c",
        "SourceNames": [
            {
                "sourceFileName": "VO_EQ\\VO_gaming\\vo_EQHDJ303_13_gaming_08.wem",
                "rate": 1.0,
                "avatarName": "",
                "emotion": ""
            }
        ]
    },
    "0e4ca0a9-1187-4232-bfcf-d20b6bf96415": {
        "Guid": "0e4ca0a9-1187-4232-bfcf-d20b6bf96415",
        "playRate": 1.0,
        "GameTrigger": "Dialog",
        "gameTriggerArgs": 401411003,
        "personalConfig": 2,
        "GIFECDGOOPJ": 1,
        "ParentID": "05ddf485-a6f9-494d-9039-49c3aa0a977c",
        "SourceNames": [
            {
                "sourceFileName": "VO_EQ\\VO_gaming\\vo_EQHDJ303_13_gaming_01.wem",
                "rate": 1.0,
                "avatarName": "",
                "emotion": ""
            }
        ]
    },
    "130c2c37-fe46-4db2-8bc7-930ac0ed9c7c": {
        "Guid": "130c2c37-fe46-4db2-8bc7-930ac0ed9c7c",
        "playRate": 1.0,
        "GameTrigger": "Dialog",
        "gameTriggerArgs": 401411008,
        "personalConfig": 2,
        "ParentID": "05ddf485-a6f9-494d-9039-49c3aa0a977c",
        "SourceNames": [
            {
                "sourceFileName": "VO_EQ\\VO_gaming\\vo_EQHDJ303_13_gaming_04.wem",
                "rate": 1.0,
                "avatarName": "",
                "emotion": ""
            }
        ]
    },
    "2d5a0e42-63ef-4af9-981c-5c91675a0377": {
        "Guid": "2d5a0e42-63ef-4af9-981c-5c91675a0377",
        "playRate": 1.0,
        "GameTrigger": "Dialog",
        "gameTriggerArgs": 401411012,
        "personalConfig": 2,
        "ParentID": "05ddf485-a6f9-494d-9039-49c3aa0a977c",
        "SourceNames": [
            {
                "sourceFileName": "VO_EQ\\VO_paimon\\vo_EQHDJ303_13_paimon_05.wem",
                "rate": 1.0,
                "avatarName": "",
                "emotion": ""
            }
        ]
    },
    "2fcedd31-0079-4835-82ea-8c214fc34c75": {
        "Guid": "2fcedd31-0079-4835-82ea-8c214fc34c75",
        "playRate": 1.0,
        "GameTrigger": "Dialog",
        "gameTriggerArgs": 401411002,
        "personalConfig": 2,
        "ParentID": "05ddf485-a6f9-494d-9039-49c3aa0a977c",
        "SourceNames": [
            {
                "sourceFileName": "VO_EQ\\VO_paimon\\vo_EQHDJ303_13_paimon_01.wem",
                "rate": 1.0,
                "avatarName": "",
                "emotion": ""
            }
        ]
    },
    "318271b9-9e97-4e72-a984-c4f342dfde2a": {
        "Guid": "318271b9-9e97-4e72-a984-c4f342dfde2a",
        "playRate": 1.0,
        "GameTrigger": "Dialog",
        "gameTriggerArgs": 401411009,
        "personalConfig": 2,
        "ParentID": "05ddf485-a6f9-494d-9039-49c3aa0a977c",
        "SourceNames": [
            {
                "sourceFileName": "VO_EQ\\VO_xianyun\\vo_EQHDJ303_13_xianyun_03.wem",
                "rate": 1.0,
                "avatarName": "",
                "emotion": ""
            }
        ]
    },
    "37c2479b-78a4-4496-8202-49f08b3ec771": {
        "Guid": "37c2479b-78a4-4496-8202-49f08b3ec771",
        "playRate": 1.0,
        "GameTrigger": "Dialog",
        "gameTriggerArgs": 401411023,
        "personalConfig": 2,
        "ParentID": "05ddf485-a6f9-494d-9039-49c3aa0a977c",
        "SourceNames": [
            {
                "sourceFileName": "VO_EQ\\VO_paimon\\vo_EQHDJ303_13_paimon_07.wem",
                "rate": 1.0,
                "avatarName": "",
                "emotion": ""
            }
        ]
    },
    "5044bb25-9484-426f-b73c-bfab132fe68c": {
        "Guid": "5044bb25-9484-426f-b73c-bfab132fe68c",
        "playRate": 1.0,
        "GameTrigger": "Dialog",
        "gameTriggerArgs": 401411010,
        "personalConfig": 2,
        "ParentID": "05ddf485-a6f9-494d-9039-49c3aa0a977c",
        "SourceNames": [
            {
                "sourceFileName": "VO_EQ\\VO_paimon\\vo_EQHDJ303_13_paimon_03.wem",
                "rate": 1.0,
                "avatarName": "",
                "emotion": ""
            }
        ]
    },
    "507741d4-b684-40ce-b017-da90d36c42d0": {
        "Guid": "507741d4-b684-40ce-b017-da90d36c42d0",
        "playRate": 1.0,
        "GameTrigger": "Dialog",
        "gameTriggerArgs": 401411021,
        "personalConfig": 2,
        "ParentID": "05ddf485-a6f9-494d-9039-49c3aa0a977c",
        "SourceNames": [
            {
                "sourceFileName": "VO_EQ\\VO_paimon\\vo_EQHDJ303_13_paimon_06.wem",
                "rate": 1.0,
                "avatarName": "",
                "emotion": ""
            }
        ]
    },
    "5520059d-1b03-41db-afd6-12d180cc5223": {
        "Guid": "5520059d-1b03-41db-afd6-12d180cc5223",
        "playRate": 1.0,
        "GameTrigger": "Dialog",
        "gameTriggerArgs": 401411006,
        "personalConfig": 2,
        "ParentID": "05ddf485-a6f9-494d-9039-49c3aa0a977c",
        "SourceNames": [
            {
                "sourceFileName": "VO_EQ\\VO_gaming\\vo_EQHDJ303_13_gaming_03.wem",
                "rate": 1.0,
                "avatarName": "",
                "emotion": ""
            }
        ]
    },
    "5ca6eae8-cf1f-450a-9b0d-56a1841eccf7": {
        "Guid": "5ca6eae8-cf1f-450a-9b0d-56a1841eccf7",
        "playRate": 1.0,
        "GameTrigger": "Dialog",
        "gameTriggerArgs": 401411018,
        "personalConfig": 2,
        "ParentID": "05ddf485-a6f9-494d-9039-49c3aa0a977c",
        "SourceNames": [
            {
                "sourceFileName": "VO_EQ\\VO_gaming\\vo_EQHDJ303_13_gaming_09.wem",
                "rate": 1.0,
                "avatarName": "",
                "emotion": ""
            }
        ]
    },
    "5d00511c-f50f-4f37-a771-2b3c7f9fbd80": {
        "Guid": "5d00511c-f50f-4f37-a771-2b3c7f9fbd80",
        "playRate": 1.0,
        "GameTrigger": "Dialog",
        "gameTriggerArgs": 401411011,
        "personalConfig": 2,
        "ParentID": "05ddf485-a6f9-494d-9039-49c3aa0a977c",
        "SourceNames": [
            {
                "sourceFileName": "VO_EQ\\VO_paimon\\vo_EQHDJ303_13_paimon_04.wem",
                "rate": 1.0,
                "avatarName": "",
                "emotion": ""
            }
        ]
    },
    "703a00d5-102f-42f9-b38d-adc871485e7a": {
        "Guid": "703a00d5-102f-42f9-b38d-adc871485e7a",
        "playRate": 1.0,
        "GameTrigger": "Dialog",
        "gameTriggerArgs": 401411001,
        "personalConfig": 2,
        "ParentID": "05ddf485-a6f9-494d-9039-49c3aa0a977c",
        "SourceNames": [
            {
                "sourceFileName": "VO_EQ\\VO_xianyun\\vo_EQHDJ303_13_xianyun_01.wem",
                "rate": 1.0,
                "avatarName": "",
                "emotion": ""
            }
        ]
    },
    "8852d863-2beb-4733-9e3d-866de7240371": {
        "Guid": "8852d863-2beb-4733-9e3d-866de7240371",
        "playRate": 1.0,
        "GameTrigger": "Dialog",
        "gameTriggerArgs": 401411025,
        "personalConfig": 2,
        "ParentID": "05ddf485-a6f9-494d-9039-49c3aa0a977c",
        "SourceNames": [
            {
                "sourceFileName": "VO_EQ\\VO_paimon\\vo_EQHDJ303_13_paimon_09.wem",
                "rate": 1.0,
                "avatarName": "",
                "emotion": ""
            }
        ]
    },
    "8da637ef-f2a6-482b-bd18-3af13eb0aee3": {
        "Guid": "8da637ef-f2a6-482b-bd18-3af13eb0aee3",
        "playRate": 1.0,
        "GameTrigger": "Dialog",
        "gameTriggerArgs": 401411005,
        "personalConfig": 2,
        "ParentID": "05ddf485-a6f9-494d-9039-49c3aa0a977c",
        "SourceNames": [
            {
                "sourceFileName": "VO_EQ\\VO_xianyun\\vo_EQHDJ303_13_xianyun_02.wem",
                "rate": 1.0,
                "avatarName": "",
                "emotion": ""
            }
        ]
    },
    "8e082c70-e938-44a1-8d64-4ed08338b2c9": {
        "Guid": "8e082c70-e938-44a1-8d64-4ed08338b2c9",
        "playRate": 1.0,
        "GameTrigger": "Dialog",
        "gameTriggerArgs": 401411020,
        "personalConfig": 2,
        "ParentID": "05ddf485-a6f9-494d-9039-49c3aa0a977c",
        "SourceNames": [
            {
                "sourceFileName": "VO_EQ\\VO_xianyun\\vo_EQHDJ303_13_xianyun_05.wem",
                "rate": 1.0,
                "avatarName": "",
                "emotion": ""
            }
        ]
    },
    "b8f2be41-9649-48f8-8be2-52b636fbac5c": {
        "Guid": "b8f2be41-9649-48f8-8be2-52b636fbac5c",
        "playRate": 1.0,
        "GameTrigger": "Dialog",
        "gameTriggerArgs": 401411026,
        "personalConfig": 2,
        "ParentID": "05ddf485-a6f9-494d-9039-49c3aa0a977c",
        "SourceNames": [
            {
                "sourceFileName": "VO_EQ\\VO_paimon\\vo_EQHDJ303_13_paimon_10.wem",
                "rate": 1.0,
                "avatarName": "",
                "emotion": ""
            }
        ]
    },
    "cab430ad-b1be-4470-8409-d967ea7724aa": {
        "Guid": "cab430ad-b1be-4470-8409-d967ea7724aa",
        "playRate": 1.0,
        "GameTrigger": "Dialog",
        "gameTriggerArgs": 401411022,
        "personalConfig": 2,
        "ParentID": "05ddf485-a6f9-494d-9039-49c3aa0a977c",
        "SourceNames": [
            {
                "sourceFileName": "VO_EQ\\VO_gaming\\vo_EQHDJ303_13_gaming_11.wem",
                "rate": 1.0,
                "avatarName": "",
                "emotion": ""
            }
        ]
    },
    "d4082183-d5f5-45e8-aada-0417d532a40d": {
        "Guid": "d4082183-d5f5-45e8-aada-0417d532a40d",
        "playRate": 1.0,
        "GameTrigger": "Dialog",
        "gameTriggerArgs": 401411014,
        "personalConfig": 2,
        "ParentID": "05ddf485-a6f9-494d-9039-49c3aa0a977c",
        "SourceNames": [
            {
                "sourceFileName": "VO_EQ\\VO_gaming\\vo_EQHDJ303_13_gaming_06.wem",
                "rate": 1.0,
                "avatarName": "",
                "emotion": ""
            }
        ]
    },
    "d7df7801-d914-4263-a2b2-a871fa06859f": {
        "Guid": "d7df7801-d914-4263-a2b2-a871fa06859f",
        "playRate": 1.0,
        "GameTrigger": "Dialog",
        "gameTriggerArgs": 401411007,
        "personalConfig": 2,
        "ParentID": "05ddf485-a6f9-494d-9039-49c3aa0a977c",
        "SourceNames": [
            {
                "sourceFileName": "VO_EQ\\VO_paimon\\vo_EQHDJ303_13_paimon_02.wem",
                "rate": 1.0,
                "avatarName": "",
                "emotion": ""
            }
        ]
    },
    "dc286729-b73b-4e71-ad44-ee96cf3ac9e5": {
        "Guid": "dc286729-b73b-4e71-ad44-ee96cf3ac9e5",
        "playRate": 1.0,
        "GameTrigger": "Dialog",
        "gameTriggerArgs": 401411016,
        "personalConfig": 2,
        "ParentID": "05ddf485-a6f9-494d-9039-49c3aa0a977c",
        "SourceNames": [
            {
                "sourceFileName": "VO_EQ\\VO_gaming\\vo_EQHDJ303_13_gaming_07.wem",
                "rate": 1.0,
                "avatarName": "",
                "emotion": ""
            }
        ]
    },
    "ec1fb151-7dcb-4de8-a050-83f11135940d": {
        "Guid": "ec1fb151-7dcb-4de8-a050-83f11135940d",
        "playRate": 1.0,
        "GameTrigger": "Dialog",
        "gameTriggerArgs": 401411013,
        "personalConfig": 2,
        "ParentID": "05ddf485-a6f9-494d-9039-49c3aa0a977c",
        "SourceNames": [
            {
                "sourceFileName": "VO_EQ\\VO_gaming\\vo_EQHDJ303_13_gaming_05.wem",
                "rate": 1.0,
                "avatarName": "",
                "emotion": ""
            }
        ]
    },
    "f118b2c2-4c2e-4e0f-88fc-58de4e6e3f5a": {
        "Guid": "f118b2c2-4c2e-4e0f-88fc-58de4e6e3f5a",
        "playRate": 1.0,
        "GameTrigger": "Dialog",
        "gameTriggerArgs": 401411015,
        "personalConfig": 2,
        "ParentID": "05ddf485-a6f9-494d-9039-49c3aa0a977c",
        "SourceNames": [
            {
                "sourceFileName": "VO_EQ\\VO_xianyun\\vo_EQHDJ303_13_xianyun_04.wem",
                "rate": 1.0,
                "avatarName": "",
                "emotion": ""
            }
        ]
    },
    "f6546141-8c1b-45d8-8d08-3b3a1fddd0c6": {
        "Guid": "f6546141-8c1b-45d8-8d08-3b3a1fddd0c6",
        "playRate": 1.0,
        "GameTrigger": "Dialog",
        "gameTriggerArgs": 401411004,
        "personalConfig": 2,
        "GIFECDGOOPJ": 1,
        "ParentID": "05ddf485-a6f9-494d-9039-49c3aa0a977c",
        "SourceNames": [
            {
                "sourceFileName": "VO_EQ\\VO_gaming\\vo_EQHDJ303_13_gaming_02.wem",
                "rate": 1.0,
                "avatarName": "",
                "emotion": ""
            }
        ]
    },
    "f71f8c19-f4f6-4031-a82b-2c34ec8ff839": {
        "Guid": "f71f8c19-f4f6-4031-a82b-2c34ec8ff839",
        "playRate": 1.0,
        "GameTrigger": "Dialog",
        "gameTriggerArgs": 401411019,
        "personalConfig": 2,
        "ParentID": "05ddf485-a6f9-494d-9039-49c3aa0a977c",
        "SourceNames": [
            {
                "sourceFileName": "VO_EQ\\VO_gaming\\vo_EQHDJ303_13_gaming_10.wem",
                "rate": 1.0,
                "avatarName": "",
                "emotion": ""
            }
        ]
    },
    "fe6d12be-9a04-45f6-976c-143cf4eeb9b8": {
        "Guid": "fe6d12be-9a04-45f6-976c-143cf4eeb9b8",
        "playRate": 1.0,
        "GameTrigger": "Dialog",
        "gameTriggerArgs": 401411024,
        "personalConfig": 2,
        "ParentID": "05ddf485-a6f9-494d-9039-49c3aa0a977c",
        "SourceNames": [
            {
                "sourceFileName": "VO_EQ\\VO_paimon\\vo_EQHDJ303_13_paimon_08.wem",
                "rate": 1.0,
                "avatarName": "",
                "emotion": ""
            }
        ]
    }
}