{
  "1d88f620-86a5-4d2e-b91b-7ba0bb71a4d7": {
    "JFNDAOJCHPO": "1d88f620-86a5-4d2e-b91b-7ba0bb71a4d7",
    "JOEFDKMFMIA": 1.0,
    "BFKCDJLLGNJ": "Dialog",
    "FMHLBONJKPJ": 140121102,
    "JPMLINEFNCM": 2,
    "FGIMEKGHJFB": "e74b3934-3266-47fd-9180-264bf169b85c",
    "OFEEIPOMNKD": [
      {
        "CBGLAJNLFCB": "VO_LQ\\VO_furina\\vo_FNNLQ003_2_furina_01.wem",
        "HBDMHPLJGBG": 1.0,
        "GJMDHCLJGHH": "",
        "GCAGMFHFFML": ""
      }
    ]
  },
  "2f64b577-7bbf-4425-bb87-44035a4c41f9": {
    "JFNDAOJCHPO": "2f64b577-7bbf-4425-bb87-44035a4c41f9",
    "JOEFDKMFMIA": 1.0,
    "BFKCDJLLGNJ": "Dialog",
    "FMHLBONJKPJ": 140121114,
    "JPMLINEFNCM": 2,
    "FGIMEKGHJFB": "e74b3934-3266-47fd-9180-264bf169b85c",
    "OFEEIPOMNKD": [
      {
        "CBGLAJNLFCB": "VO_LQ\\VO_npc\\vo_FNNLQ003_2_dulphy_02.wem",
        "HBDMHPLJGBG": 1.0,
        "GJMDHCLJGHH": "",
        "GCAGMFHFFML": ""
      }
    ]
  },
  "44fa59b2-1555-441d-a35b-a004232e7330": {
    "JFNDAOJCHPO": "44fa59b2-1555-441d-a35b-a004232e7330",
    "JOEFDKMFMIA": 1.0,
    "BFKCDJLLGNJ": "Dialog",
    "FMHLBONJKPJ": 140121116,
    "JPMLINEFNCM": 2,
    "FGIMEKGHJFB": "e74b3934-3266-47fd-9180-264bf169b85c",
    "OFEEIPOMNKD": [
      {
        "CBGLAJNLFCB": "VO_LQ\\VO_paimon\\vo_FNNLQ003_2_paimon_03.wem",
        "HBDMHPLJGBG": 1.0,
        "GJMDHCLJGHH": "",
        "GCAGMFHFFML": ""
      }
    ]
  },
  "4f873ad3-2e52-4f7b-95b3-0dbe59bb5147": {
    "JFNDAOJCHPO": "4f873ad3-2e52-4f7b-95b3-0dbe59bb5147",
    "JOEFDKMFMIA": 1.0,
    "BFKCDJLLGNJ": "Dialog",
    "FMHLBONJKPJ": 140121112,
    "JPMLINEFNCM": 2,
    "FGIMEKGHJFB": "e74b3934-3266-47fd-9180-264bf169b85c",
    "OFEEIPOMNKD": [
      {
        "CBGLAJNLFCB": "VO_LQ\\VO_furina\\vo_FNNLQ003_2_furina_05b_1.wem",
        "HBDMHPLJGBG": 1.0,
        "GJMDHCLJGHH": "",
        "GCAGMFHFFML": ""
      }
    ]
  },
  "53dbc469-266c-4feb-94a3-66c9d5bc235d": {
    "JFNDAOJCHPO": "53dbc469-266c-4feb-94a3-66c9d5bc235d",
    "JOEFDKMFMIA": 1.0,
    "BFKCDJLLGNJ": "Dialog",
    "FMHLBONJKPJ": 140121115,
    "JPMLINEFNCM": 2,
    "FGIMEKGHJFB": "e74b3934-3266-47fd-9180-264bf169b85c",
    "OFEEIPOMNKD": [
      {
        "CBGLAJNLFCB": "VO_LQ\\VO_npc\\vo_FNNLQ003_2_lauwick_02.wem",
        "HBDMHPLJGBG": 1.0,
        "GJMDHCLJGHH": "",
        "GCAGMFHFFML": ""
      }
    ]
  },
  "578dfbcd-52a3-4df1-b46b-18ff658d54c3": {
    "JFNDAOJCHPO": "578dfbcd-52a3-4df1-b46b-18ff658d54c3",
    "JOEFDKMFMIA": 1.0,
    "BFKCDJLLGNJ": "Dialog",
    "FMHLBONJKPJ": 140121101,
    "JPMLINEFNCM": 2,
    "FGIMEKGHJFB": "e74b3934-3266-47fd-9180-264bf169b85c",
    "OFEEIPOMNKD": [
      {
        "CBGLAJNLFCB": "VO_LQ\\VO_paimon\\vo_FNNLQ003_2_paimon_01.wem",
        "HBDMHPLJGBG": 1.0,
        "GJMDHCLJGHH": "",
        "GCAGMFHFFML": ""
      }
    ]
  },
  "705f40fc-c16d-4d10-b445-a05406b46e62": {
    "JFNDAOJCHPO": "705f40fc-c16d-4d10-b445-a05406b46e62",
    "JOEFDKMFMIA": 1.0,
    "BFKCDJLLGNJ": "Dialog",
    "FMHLBONJKPJ": 140121105,
    "JPMLINEFNCM": 2,
    "FGIMEKGHJFB": "e74b3934-3266-47fd-9180-264bf169b85c",
    "OFEEIPOMNKD": [
      {
        "CBGLAJNLFCB": "VO_LQ\\VO_npc\\vo_FNNLQ003_2_lauwick_01.wem",
        "HBDMHPLJGBG": 1.0,
        "GJMDHCLJGHH": "",
        "GCAGMFHFFML": ""
      }
    ]
  },
  "716b57e0-7de3-49a6-8022-2a464b85d9ee": {
    "JFNDAOJCHPO": "716b57e0-7de3-49a6-8022-2a464b85d9ee",
    "JOEFDKMFMIA": 1.0,
    "BFKCDJLLGNJ": "Dialog",
    "FMHLBONJKPJ": 140121113,
    "JPMLINEFNCM": 2,
    "FGIMEKGHJFB": "e74b3934-3266-47fd-9180-264bf169b85c",
    "OFEEIPOMNKD": [
      {
        "CBGLAJNLFCB": "VO_LQ\\VO_furina\\vo_FNNLQ003_2_furina_05b_2.wem",
        "HBDMHPLJGBG": 1.0,
        "GJMDHCLJGHH": "",
        "GCAGMFHFFML": ""
      }
    ]
  },
  "95f11de7-f356-43e5-bb5c-044edb0d5aeb": {
    "JFNDAOJCHPO": "95f11de7-f356-43e5-bb5c-044edb0d5aeb",
    "JOEFDKMFMIA": 1.0,
    "BFKCDJLLGNJ": "Dialog",
    "FMHLBONJKPJ": 140121110,
    "JPMLINEFNCM": 2,
    "FGIMEKGHJFB": "e74b3934-3266-47fd-9180-264bf169b85c",
    "OFEEIPOMNKD": [
      {
        "CBGLAJNLFCB": "VO_LQ\\VO_furina\\vo_FNNLQ003_2_furina_05a_1.wem",
        "HBDMHPLJGBG": 1.0,
        "GJMDHCLJGHH": "",
        "GCAGMFHFFML": ""
      }
    ]
  },
  "9fb18d7d-3ad0-4a06-b036-a08c022289c7": {
    "JFNDAOJCHPO": "9fb18d7d-3ad0-4a06-b036-a08c022289c7",
    "JOEFDKMFMIA": 1.0,
    "BFKCDJLLGNJ": "Dialog",
    "FMHLBONJKPJ": 140121103,
    "JPMLINEFNCM": 2,
    "FGIMEKGHJFB": "e74b3934-3266-47fd-9180-264bf169b85c",
    "OFEEIPOMNKD": [
      {
        "CBGLAJNLFCB": "VO_LQ\\VO_furina\\vo_FNNLQ003_2_furina_02.wem",
        "HBDMHPLJGBG": 1.0,
        "GJMDHCLJGHH": "",
        "GCAGMFHFFML": ""
      }
    ]
  },
  "e388b8cf-d11f-488c-ae42-ae0ae3dc1063": {
    "JFNDAOJCHPO": "e388b8cf-d11f-488c-ae42-ae0ae3dc1063",
    "JOEFDKMFMIA": 1.0,
    "BFKCDJLLGNJ": "Dialog",
    "FMHLBONJKPJ": 140121104,
    "JPMLINEFNCM": 2,
    "FGIMEKGHJFB": "e74b3934-3266-47fd-9180-264bf169b85c",
    "OFEEIPOMNKD": [
      {
        "CBGLAJNLFCB": "VO_LQ\\VO_npc\\vo_FNNLQ003_2_dulphy_01.wem",
        "HBDMHPLJGBG": 1.0,
        "GJMDHCLJGHH": "",
        "GCAGMFHFFML": ""
      }
    ]
  },
  "f49adc60-c0e3-4519-9ee5-008cadcba262": {
    "JFNDAOJCHPO": "f49adc60-c0e3-4519-9ee5-008cadcba262",
    "JOEFDKMFMIA": 1.0,
    "BFKCDJLLGNJ": "Dialog",
    "FMHLBONJKPJ": 140121106,
    "JPMLINEFNCM": 2,
    "FGIMEKGHJFB": "e74b3934-3266-47fd-9180-264bf169b85c",
    "OFEEIPOMNKD": [
      {
        "CBGLAJNLFCB": "VO_LQ\\VO_furina\\vo_FNNLQ003_2_furina_03.wem",
        "HBDMHPLJGBG": 1.0,
        "GJMDHCLJGHH": "",
        "GCAGMFHFFML": ""
      }
    ]
  },
  "fc07b857-2b57-44ca-9ac2-81089372b237": {
    "JFNDAOJCHPO": "fc07b857-2b57-44ca-9ac2-81089372b237",
    "JOEFDKMFMIA": 1.0,
    "BFKCDJLLGNJ": "Dialog",
    "FMHLBONJKPJ": 140121108,
    "JPMLINEFNCM": 2,
    "FGIMEKGHJFB": "e74b3934-3266-47fd-9180-264bf169b85c",
    "OFEEIPOMNKD": [
      {
        "CBGLAJNLFCB": "VO_LQ\\VO_paimon\\vo_FNNLQ003_2_paimon_02.wem",
        "HBDMHPLJGBG": 1.0,
        "GJMDHCLJGHH": "",
        "GCAGMFHFFML": ""
      }
    ]
  },
  "fd1ce37d-b438-48b2-8a5d-fe15c3203313": {
    "JFNDAOJCHPO": "fd1ce37d-b438-48b2-8a5d-fe15c3203313",
    "JOEFDKMFMIA": 1.0,
    "BFKCDJLLGNJ": "Dialog",
    "FMHLBONJKPJ": 140121107,
    "JPMLINEFNCM": 2,
    "FGIMEKGHJFB": "e74b3934-3266-47fd-9180-264bf169b85c",
    "OFEEIPOMNKD": [
      {
        "CBGLAJNLFCB": "VO_LQ\\VO_furina\\vo_FNNLQ003_2_furina_04.wem",
        "HBDMHPLJGBG": 1.0,
        "GJMDHCLJGHH": "",
        "GCAGMFHFFML": ""
      }
    ]
  }
}