{
    "035795ba-2e14-4f8a-bff6-a9290dca5882": {
        "Guid": "035795ba-2e14-4f8a-bff6-a9290dca5882",
        "playRate": 1.0,
        "GameTrigger": "Dialog",
        "gameTriggerArgs": 130190873,
        "personalConfig": 2,
        "ParentID": "a04329cf-95a3-433a-a257-bcc54f1ddb8b",
        "SourceNames": [
            {
                "sourceFileName": "VO_LQ\\VO_npc\\vo_NHDLQ101_10_anemoFungusLifeform_14.wem",
                "rate": 1.0,
                "avatarName": "",
                "emotion": ""
            }
        ]
    },
    "07e8a3ce-c512-41f5-949d-dffeb5f7e702": {
        "Guid": "07e8a3ce-c512-41f5-949d-dffeb5f7e702",
        "playRate": 1.0,
        "GameTrigger": "Dialog",
        "gameTriggerArgs": 130190821,
        "personalConfig": 2,
        "ParentID": "a04329cf-95a3-433a-a257-bcc54f1ddb8b",
        "SourceNames": [
            {
                "sourceFileName": "VO_LQ\\VO_npc\\vo_NHDLQ101_10_hydroFungusLifeform_05.wem",
                "rate": 1.0,
                "avatarName": "",
                "emotion": ""
            }
        ]
    },
    "0d1d54a5-02f2-4f7d-b587-012515de428d": {
        "Guid": "0d1d54a5-02f2-4f7d-b587-012515de428d",
        "playRate": 1.0,
        "GameTrigger": "Dialog",
        "gameTriggerArgs": 130190824,
        "personalConfig": 2,
        "ParentID": "a04329cf-95a3-433a-a257-bcc54f1ddb8b",
        "SourceNames": [
            {
                "sourceFileName": "VO_LQ\\VO_nahida\\vo_NHDLQ101_10_nahida_14.wem",
                "rate": 1.0,
                "avatarName": "",
                "emotion": ""
            }
        ]
    },
    "0fd9b2f5-96db-4e99-9411-bf19c89f927f": {
        "Guid": "0fd9b2f5-96db-4e99-9411-bf19c89f927f",
        "playRate": 1.0,
        "GameTrigger": "Dialog",
        "gameTriggerArgs": 130190826,
        "personalConfig": 2,
        "ParentID": "a04329cf-95a3-433a-a257-bcc54f1ddb8b",
        "SourceNames": [
            {
                "sourceFileName": "VO_LQ\\VO_npc\\vo_NHDLQ101_10_hydroFungusLifeform_07.wem",
                "rate": 1.0,
                "avatarName": "",
                "emotion": ""
            }
        ]
    },
    "1121991b-2b01-4388-af73-df53d1b0a6db": {
        "Guid": "1121991b-2b01-4388-af73-df53d1b0a6db",
        "playRate": 1.0,
        "GameTrigger": "Dialog",
        "gameTriggerArgs": 130190841,
        "personalConfig": 2,
        "ParentID": "a04329cf-95a3-433a-a257-bcc54f1ddb8b",
        "SourceNames": [
            {
                "sourceFileName": "VO_LQ\\VO_nahida\\vo_NHDLQ101_10_nahida_19.wem",
                "rate": 1.0,
                "avatarName": "",
                "emotion": ""
            }
        ]
    },
    "128129f3-22c6-4488-b1d0-bd15009be6ae": {
        "Guid": "128129f3-22c6-4488-b1d0-bd15009be6ae",
        "playRate": 1.0,
        "GameTrigger": "Dialog",
        "gameTriggerArgs": 130190835,
        "personalConfig": 2,
        "ParentID": "a04329cf-95a3-433a-a257-bcc54f1ddb8b",
        "SourceNames": [
            {
                "sourceFileName": "VO_LQ\\VO_nahida\\vo_NHDLQ101_10_nahida_16.wem",
                "rate": 1.0,
                "avatarName": "",
                "emotion": ""
            }
        ]
    },
    "167805a2-a084-476c-86f0-a7741681e97c": {
        "Guid": "167805a2-a084-476c-86f0-a7741681e97c",
        "playRate": 1.0,
        "GameTrigger": "Dialog",
        "gameTriggerArgs": 130190830,
        "personalConfig": 2,
        "ParentID": "a04329cf-95a3-433a-a257-bcc54f1ddb8b",
        "SourceNames": [
            {
                "sourceFileName": "VO_LQ\\VO_npc\\vo_NHDLQ101_10_hydroFungusLifeform_09.wem",
                "rate": 1.0,
                "avatarName": "",
                "emotion": ""
            }
        ]
    },
    "1aa7fe96-6df3-465b-bbf5-04a9b9626b21": {
        "Guid": "1aa7fe96-6df3-465b-bbf5-04a9b9626b21",
        "playRate": 1.0,
        "GameTrigger": "DungeonReminder",
        "gameTriggerArgs": 31070409,
        "personalConfig": 2,
        "ParentID": "a04329cf-95a3-433a-a257-bcc54f1ddb8b",
        "SourceNames": [
            {
                "sourceFileName": "VO_LQ\\VO_paimon\\vo_NHDLQ101_10_paimon_11.wem",
                "rate": 1.0,
                "avatarName": "",
                "emotion": ""
            }
        ]
    },
    "1bbffe42-7b7c-40df-a973-1c41bc888cc2": {
        "Guid": "1bbffe42-7b7c-40df-a973-1c41bc888cc2",
        "playRate": 1.0,
        "GameTrigger": "Dialog",
        "gameTriggerArgs": 130190818,
        "personalConfig": 2,
        "ParentID": "a04329cf-95a3-433a-a257-bcc54f1ddb8b",
        "SourceNames": [
            {
                "sourceFileName": "VO_LQ\\VO_paimon\\vo_NHDLQ101_10_paimon_03.wem",
                "rate": 1.0,
                "avatarName": "",
                "emotion": ""
            }
        ]
    },
    "20c5cd25-8c5e-445b-88d5-d42f37113baa": {
        "Guid": "20c5cd25-8c5e-445b-88d5-d42f37113baa",
        "playRate": 1.0,
        "GameTrigger": "Dialog",
        "gameTriggerArgs": 130190828,
        "personalConfig": 2,
        "ParentID": "a04329cf-95a3-433a-a257-bcc54f1ddb8b",
        "SourceNames": [
            {
                "sourceFileName": "VO_LQ\\VO_npc\\vo_NHDLQ101_10_anemoFungusLifeform_06.wem",
                "rate": 1.0,
                "avatarName": "",
                "emotion": ""
            }
        ]
    },
    "2515cfbb-3db6-4562-abfe-bfb41b7fc130": {
        "Guid": "2515cfbb-3db6-4562-abfe-bfb41b7fc130",
        "playRate": 1.0,
        "GameTrigger": "Dialog",
        "gameTriggerArgs": 130190864,
        "personalConfig": 2,
        "ParentID": "a04329cf-95a3-433a-a257-bcc54f1ddb8b",
        "SourceNames": [
            {
                "sourceFileName": "VO_LQ\\VO_npc\\vo_NHDLQ101_10_anemoFungusLifeform_10.wem",
                "rate": 1.0,
                "avatarName": "",
                "emotion": ""
            }
        ]
    },
    "29d64625-07b0-477e-96dc-919cb287cc49": {
        "Guid": "29d64625-07b0-477e-96dc-919cb287cc49",
        "playRate": 1.0,
        "GameTrigger": "Dialog",
        "gameTriggerArgs": 130190702,
        "personalConfig": 2,
        "ParentID": "a04329cf-95a3-433a-a257-bcc54f1ddb8b",
        "SourceNames": [
            {
                "sourceFileName": "VO_LQ\\VO_npc\\vo_NHDLQ101_10_rightFungus_01.wem",
                "rate": 1.0,
                "avatarName": "",
                "emotion": ""
            }
        ]
    },
    "2a21876b-2028-4c0e-bf6b-a7050b262e7c": {
        "Guid": "2a21876b-2028-4c0e-bf6b-a7050b262e7c",
        "playRate": 1.0,
        "GameTrigger": "Dialog",
        "gameTriggerArgs": 130199924,
        "personalConfig": 2,
        "IsPlayOnTeam": true,
        "ParentID": "a04329cf-95a3-433a-a257-bcc54f1ddb8b",
        "SourceNames": [
            {
                "sourceFileName": "VO_LQ\\VO_paimon\\vo_NHDLQ101_10_paimon_01.wem",
                "rate": 1.0,
                "avatarName": "",
                "emotion": ""
            }
        ]
    },
    "2b06baee-79c3-46a4-bc3c-3d0b9162d350": {
        "Guid": "2b06baee-79c3-46a4-bc3c-3d0b9162d350",
        "playRate": 1.0,
        "GameTrigger": "Dialog",
        "gameTriggerArgs": 130190811,
        "personalConfig": 2,
        "ParentID": "a04329cf-95a3-433a-a257-bcc54f1ddb8b",
        "SourceNames": [
            {
                "sourceFileName": "VO_LQ\\VO_npc\\vo_NHDLQ101_10_anemoFungusLifeform_01.wem",
                "rate": 1.0,
                "avatarName": "",
                "emotion": ""
            }
        ]
    },
    "2c572d58-28be-4f34-b503-b1627f5a87a8": {
        "Guid": "2c572d58-28be-4f34-b503-b1627f5a87a8",
        "playRate": 1.0,
        "GameTrigger": "Dialog",
        "gameTriggerArgs": 130190707,
        "personalConfig": 2,
        "ParentID": "a04329cf-95a3-433a-a257-bcc54f1ddb8b",
        "SourceNames": [
            {
                "sourceFileName": "VO_LQ\\VO_npc\\vo_NHDLQ101_10_wingedDendroshroomb_02.wem",
                "rate": 1.0,
                "avatarName": "",
                "emotion": ""
            }
        ]
    },
    "331a1b14-7b61-4678-ac27-7c3b68b4d86c": {
        "Guid": "331a1b14-7b61-4678-ac27-7c3b68b4d86c",
        "playRate": 1.0,
        "GameTrigger": "Dialog",
        "gameTriggerArgs": 130190827,
        "personalConfig": 2,
        "ParentID": "a04329cf-95a3-433a-a257-bcc54f1ddb8b",
        "SourceNames": [
            {
                "sourceFileName": "VO_LQ\\VO_paimon\\vo_NHDLQ101_10_paimon_05.wem",
                "rate": 1.0,
                "avatarName": "",
                "emotion": ""
            }
        ]
    },
    "337a0e06-df1f-4650-8aa3-79add0a46b8e": {
        "Guid": "337a0e06-df1f-4650-8aa3-79add0a46b8e",
        "playRate": 1.0,
        "GameTrigger": "Dialog",
        "gameTriggerArgs": 130199927,
        "personalConfig": 2,
        "IsPlayOnTeam": true,
        "ParentID": "a04329cf-95a3-433a-a257-bcc54f1ddb8b",
        "SourceNames": [
            {
                "sourceFileName": "VO_LQ\\VO_paimon\\vo_NHDLQ101_10_paimon_10.wem",
                "rate": 1.0,
                "avatarName": "",
                "emotion": ""
            }
        ]
    },
    "3940e9c0-e95d-46f7-8680-efe122c489d4": {
        "Guid": "3940e9c0-e95d-46f7-8680-efe122c489d4",
        "playRate": 1.0,
        "GameTrigger": "Dialog",
        "gameTriggerArgs": 130190806,
        "personalConfig": 2,
        "ParentID": "a04329cf-95a3-433a-a257-bcc54f1ddb8b",
        "SourceNames": [
            {
                "sourceFileName": "VO_LQ\\VO_paimon\\vo_NHDLQ101_10_paimon_02.wem",
                "rate": 1.0,
                "avatarName": "",
                "emotion": ""
            }
        ]
    },
    "4082ba7b-e734-4ed3-82d9-5191da6f4024": {
        "Guid": "4082ba7b-e734-4ed3-82d9-5191da6f4024",
        "playRate": 1.0,
        "GameTrigger": "Dialog",
        "gameTriggerArgs": 130190865,
        "personalConfig": 2,
        "ParentID": "a04329cf-95a3-433a-a257-bcc54f1ddb8b",
        "SourceNames": [
            {
                "sourceFileName": "VO_LQ\\VO_npc\\vo_NHDLQ101_10_anemoFungusLifeform_11.wem",
                "rate": 1.0,
                "avatarName": "",
                "emotion": ""
            }
        ]
    },
    "422406d3-b8ad-4718-b030-2c180d870144": {
        "Guid": "422406d3-b8ad-4718-b030-2c180d870144",
        "playRate": 1.0,
        "GameTrigger": "Dialog",
        "gameTriggerArgs": 130190847,
        "personalConfig": 2,
        "ParentID": "a04329cf-95a3-433a-a257-bcc54f1ddb8b",
        "SourceNames": [
            {
                "sourceFileName": "VO_LQ\\VO_nahida\\vo_NHDLQ101_10_nahida_24.wem",
                "rate": 1.0,
                "avatarName": "",
                "emotion": ""
            }
        ]
    },
    "42635e55-fde6-4574-8bca-ede433aa1c29": {
        "Guid": "42635e55-fde6-4574-8bca-ede433aa1c29",
        "playRate": 1.0,
        "GameTrigger": "Dialog",
        "gameTriggerArgs": 130190823,
        "personalConfig": 2,
        "ParentID": "a04329cf-95a3-433a-a257-bcc54f1ddb8b",
        "SourceNames": [
            {
                "sourceFileName": "VO_LQ\\VO_paimon\\vo_NHDLQ101_10_paimon_04.wem",
                "rate": 1.0,
                "avatarName": "",
                "emotion": ""
            }
        ]
    },
    "44dd1040-6c69-4f11-a384-7e8991771ce2": {
        "Guid": "44dd1040-6c69-4f11-a384-7e8991771ce2",
        "playRate": 1.0,
        "GameTrigger": "Dialog",
        "gameTriggerArgs": 130190701,
        "personalConfig": 2,
        "GIFECDGOOPJ": 1,
        "ParentID": "a04329cf-95a3-433a-a257-bcc54f1ddb8b",
        "SourceNames": [
            {
                "sourceFileName": "VO_LQ\\VO_nahida\\vo_NHDLQ101_10_nahida_01.wem",
                "rate": 1.0,
                "avatarName": "",
                "emotion": ""
            }
        ]
    },
    "45c27640-a965-44fa-be18-37e1e63c42c3": {
        "Guid": "45c27640-a965-44fa-be18-37e1e63c42c3",
        "playRate": 1.0,
        "GameTrigger": "Dialog",
        "gameTriggerArgs": 130190816,
        "personalConfig": 2,
        "ParentID": "a04329cf-95a3-433a-a257-bcc54f1ddb8b",
        "SourceNames": [
            {
                "sourceFileName": "VO_LQ\\VO_npc\\vo_NHDLQ101_10_hydroFungusLifeform_04.wem",
                "rate": 1.0,
                "avatarName": "",
                "emotion": ""
            }
        ]
    },
    "50004352-b770-4d87-b6ab-87289b6b45a9": {
        "Guid": "50004352-b770-4d87-b6ab-87289b6b45a9",
        "playRate": 1.0,
        "GameTrigger": "Dialog",
        "gameTriggerArgs": 130190812,
        "personalConfig": 2,
        "ParentID": "a04329cf-95a3-433a-a257-bcc54f1ddb8b",
        "SourceNames": [
            {
                "sourceFileName": "VO_LQ\\VO_npc\\vo_NHDLQ101_10_anemoFungusLifeform_02.wem",
                "rate": 1.0,
                "avatarName": "",
                "emotion": ""
            }
        ]
    },
    "52d5503c-e15d-4645-a999-7dbf5bb799df": {
        "Guid": "52d5503c-e15d-4645-a999-7dbf5bb799df",
        "playRate": 1.0,
        "GameTrigger": "Dialog",
        "gameTriggerArgs": 130190708,
        "personalConfig": 2,
        "ParentID": "a04329cf-95a3-433a-a257-bcc54f1ddb8b",
        "SourceNames": [
            {
                "sourceFileName": "VO_LQ\\VO_npc\\vo_NHDLQ101_10_leftFungus_01.wem",
                "rate": 1.0,
                "avatarName": "",
                "emotion": ""
            }
        ]
    },
    "53a1fa6f-1068-4100-bde0-5bf1b5d4885a": {
        "Guid": "53a1fa6f-1068-4100-bde0-5bf1b5d4885a",
        "playRate": 1.0,
        "GameTrigger": "Dialog",
        "gameTriggerArgs": 130190831,
        "personalConfig": 2,
        "ParentID": "a04329cf-95a3-433a-a257-bcc54f1ddb8b",
        "SourceNames": [
            {
                "sourceFileName": "VO_LQ\\VO_npc\\vo_NHDLQ101_10_hydroFungusLifeform_10.wem",
                "rate": 1.0,
                "avatarName": "",
                "emotion": ""
            }
        ]
    },
    "53f45ad2-c20d-4ea2-b773-2f59563d53ab": {
        "Guid": "53f45ad2-c20d-4ea2-b773-2f59563d53ab",
        "playRate": 1.0,
        "GameTrigger": "Dialog",
        "gameTriggerArgs": 130190815,
        "personalConfig": 2,
        "ParentID": "a04329cf-95a3-433a-a257-bcc54f1ddb8b",
        "SourceNames": [
            {
                "sourceFileName": "VO_LQ\\VO_npc\\vo_NHDLQ101_10_anemoFungusLifeform_03.wem",
                "rate": 1.0,
                "avatarName": "",
                "emotion": ""
            }
        ]
    },
    "5855a367-ed70-417d-b0b1-61be6a6f2e9b": {
        "Guid": "5855a367-ed70-417d-b0b1-61be6a6f2e9b",
        "playRate": 1.0,
        "GameTrigger": "Dialog",
        "gameTriggerArgs": 130190808,
        "personalConfig": 2,
        "ParentID": "a04329cf-95a3-433a-a257-bcc54f1ddb8b",
        "SourceNames": [
            {
                "sourceFileName": "VO_LQ\\VO_nahida\\vo_NHDLQ101_10_nahida_13.wem",
                "rate": 1.0,
                "avatarName": "",
                "emotion": ""
            }
        ]
    },
    "5e660ae0-037d-4fb2-9ee3-c816b5b4c482": {
        "Guid": "5e660ae0-037d-4fb2-9ee3-c816b5b4c482",
        "playRate": 1.0,
        "GameTrigger": "Dialog",
        "gameTriggerArgs": 130190813,
        "personalConfig": 2,
        "ParentID": "a04329cf-95a3-433a-a257-bcc54f1ddb8b",
        "SourceNames": [
            {
                "sourceFileName": "VO_LQ\\VO_npc\\vo_NHDLQ101_10_hydroFungusLifeform_03.wem",
                "rate": 1.0,
                "avatarName": "",
                "emotion": ""
            }
        ]
    },
    "60532f3e-4969-4232-8795-f9c15471399c": {
        "Guid": "60532f3e-4969-4232-8795-f9c15471399c",
        "playRate": 1.0,
        "GameTrigger": "Dialog",
        "gameTriggerArgs": 130190855,
        "personalConfig": 2,
        "ParentID": "a04329cf-95a3-433a-a257-bcc54f1ddb8b",
        "SourceNames": [
            {
                "sourceFileName": "VO_LQ\\VO_npc\\vo_NHDLQ101_10_hydroFungusLifeform_15.wem",
                "rate": 1.0,
                "avatarName": "",
                "emotion": ""
            }
        ]
    },
    "629b2eab-adef-463f-888d-6f91f94c8528": {
        "Guid": "629b2eab-adef-463f-888d-6f91f94c8528",
        "playRate": 1.0,
        "GameTrigger": "Dialog",
        "gameTriggerArgs": 130190810,
        "personalConfig": 2,
        "ParentID": "a04329cf-95a3-433a-a257-bcc54f1ddb8b",
        "SourceNames": [
            {
                "sourceFileName": "VO_LQ\\VO_npc\\vo_NHDLQ101_10_hydroFungusLifeform_02.wem",
                "rate": 1.0,
                "avatarName": "",
                "emotion": ""
            }
        ]
    },
    "673960a3-1ec7-4e44-96b6-df84e1a95c13": {
        "Guid": "673960a3-1ec7-4e44-96b6-df84e1a95c13",
        "playRate": 1.0,
        "GameTrigger": "DungeonReminder",
        "gameTriggerArgs": 31070409,
        "personalConfig": 2,
        "IsPlayOnTeam": true,
        "ParentID": "a04329cf-95a3-433a-a257-bcc54f1ddb8b",
        "SourceNames": [
            {
                "sourceFileName": "VO_LQ\\VO_paimon\\vo_NHDLQ101_10_paimon_11.wem",
                "rate": 1.0,
                "avatarName": "",
                "emotion": ""
            }
        ]
    },
    "68185cf6-aec1-4bb6-aa22-b5fa799feb10": {
        "Guid": "68185cf6-aec1-4bb6-aa22-b5fa799feb10",
        "playRate": 1.0,
        "GameTrigger": "Dialog",
        "gameTriggerArgs": 130190704,
        "personalConfig": 2,
        "ParentID": "a04329cf-95a3-433a-a257-bcc54f1ddb8b",
        "SourceNames": [
            {
                "sourceFileName": "VO_LQ\\VO_npc\\vo_NHDLQ101_10_wingedDendroshroomb_01.wem",
                "rate": 1.0,
                "avatarName": "",
                "emotion": ""
            }
        ]
    },
    "68729f84-9f99-4a9f-b339-fa10d57e562c": {
        "Guid": "68729f84-9f99-4a9f-b339-fa10d57e562c",
        "playRate": 1.0,
        "GameTrigger": "Dialog",
        "gameTriggerArgs": 130199925,
        "personalConfig": 2,
        "GIFECDGOOPJ": 1,
        "IsPlayOnTeam": true,
        "ParentID": "a04329cf-95a3-433a-a257-bcc54f1ddb8b",
        "SourceNames": [
            {
                "sourceFileName": "VO_LQ\\VO_npc\\vo_NHDLQ101_10_hydroFungusLifeform_21.wem",
                "rate": 1.0,
                "avatarName": "",
                "emotion": ""
            }
        ]
    },
    "693eaf4a-239b-45d5-a2d1-96e46cadc743": {
        "Guid": "693eaf4a-239b-45d5-a2d1-96e46cadc743",
        "playRate": 1.0,
        "GameTrigger": "Dialog",
        "gameTriggerArgs": 130190703,
        "personalConfig": 2,
        "GIFECDGOOPJ": 1,
        "ParentID": "a04329cf-95a3-433a-a257-bcc54f1ddb8b",
        "SourceNames": [
            {
                "sourceFileName": "VO_LQ\\VO_nahida\\vo_NHDLQ101_10_nahida_02.wem",
                "rate": 1.0,
                "avatarName": "",
                "emotion": ""
            }
        ]
    },
    "6b6c682b-57d4-4071-a494-e99ea0d791a2": {
        "Guid": "6b6c682b-57d4-4071-a494-e99ea0d791a2",
        "playRate": 1.0,
        "GameTrigger": "Dialog",
        "gameTriggerArgs": 130190715,
        "personalConfig": 2,
        "GIFECDGOOPJ": 1,
        "ParentID": "a04329cf-95a3-433a-a257-bcc54f1ddb8b",
        "SourceNames": [
            {
                "sourceFileName": "VO_LQ\\VO_nahida\\vo_NHDLQ101_10_nahida_08.wem",
                "rate": 1.0,
                "avatarName": "",
                "emotion": ""
            }
        ]
    },
    "703ddaf7-c00f-4a1a-8ce9-10348734d354": {
        "Guid": "703ddaf7-c00f-4a1a-8ce9-10348734d354",
        "playRate": 1.0,
        "GameTrigger": "Dialog",
        "gameTriggerArgs": 130190870,
        "personalConfig": 2,
        "ParentID": "a04329cf-95a3-433a-a257-bcc54f1ddb8b",
        "SourceNames": [
            {
                "sourceFileName": "VO_LQ\\VO_nahida\\vo_NHDLQ101_10_nahida_32.wem",
                "rate": 1.0,
                "avatarName": "",
                "emotion": ""
            }
        ]
    },
    "70cec210-4f30-4bab-a4f1-7024a2403e67": {
        "Guid": "70cec210-4f30-4bab-a4f1-7024a2403e67",
        "playRate": 1.0,
        "GameTrigger": "Dialog",
        "gameTriggerArgs": 130190860,
        "personalConfig": 2,
        "ParentID": "a04329cf-95a3-433a-a257-bcc54f1ddb8b",
        "SourceNames": [
            {
                "sourceFileName": "VO_LQ\\VO_npc\\vo_NHDLQ101_10_anemoFungusC_01.wem",
                "rate": 1.0,
                "avatarName": "",
                "emotion": ""
            }
        ]
    },
    "718cbf6c-426d-470c-8bf9-d890236dbe86": {
        "Guid": "718cbf6c-426d-470c-8bf9-d890236dbe86",
        "playRate": 1.0,
        "GameTrigger": "Dialog",
        "gameTriggerArgs": 130190838,
        "personalConfig": 2,
        "ParentID": "a04329cf-95a3-433a-a257-bcc54f1ddb8b",
        "SourceNames": [
            {
                "sourceFileName": "VO_LQ\\VO_nahida\\vo_NHDLQ101_10_nahida_17.wem",
                "rate": 1.0,
                "avatarName": "",
                "emotion": ""
            }
        ]
    },
    "738d4087-1945-47a3-9646-61618b54063d": {
        "Guid": "738d4087-1945-47a3-9646-61618b54063d",
        "playRate": 1.0,
        "GameTrigger": "Dialog",
        "gameTriggerArgs": 130190711,
        "personalConfig": 2,
        "ParentID": "a04329cf-95a3-433a-a257-bcc54f1ddb8b",
        "SourceNames": [
            {
                "sourceFileName": "VO_LQ\\VO_npc\\vo_NHDLQ101_10_wingedDendroshroomb_03.wem",
                "rate": 1.0,
                "avatarName": "",
                "emotion": ""
            }
        ]
    },
    "73dfb016-1e38-41a6-91b5-966ed7489027": {
        "Guid": "73dfb016-1e38-41a6-91b5-966ed7489027",
        "playRate": 1.0,
        "GameTrigger": "Dialog",
        "gameTriggerArgs": 130190822,
        "personalConfig": 2,
        "ParentID": "a04329cf-95a3-433a-a257-bcc54f1ddb8b",
        "SourceNames": [
            {
                "sourceFileName": "VO_LQ\\VO_npc\\vo_NHDLQ101_10_hydroFungusLifeform_06.wem",
                "rate": 1.0,
                "avatarName": "",
                "emotion": ""
            }
        ]
    },
    "74e5287a-8462-49df-ae36-56c24ef3786c": {
        "Guid": "74e5287a-8462-49df-ae36-56c24ef3786c",
        "playRate": 1.0,
        "GameTrigger": "Dialog",
        "gameTriggerArgs": 130190706,
        "personalConfig": 2,
        "ParentID": "a04329cf-95a3-433a-a257-bcc54f1ddb8b",
        "SourceNames": [
            {
                "sourceFileName": "VO_LQ\\VO_nahida\\vo_NHDLQ101_10_nahida_04.wem",
                "rate": 1.0,
                "avatarName": "",
                "emotion": ""
            }
        ]
    },
    "78797782-3b23-48c6-8da6-a468787573bb": {
        "Guid": "78797782-3b23-48c6-8da6-a468787573bb",
        "playRate": 1.0,
        "GameTrigger": "Dialog",
        "gameTriggerArgs": 130190871,
        "personalConfig": 2,
        "ParentID": "a04329cf-95a3-433a-a257-bcc54f1ddb8b",
        "SourceNames": [
            {
                "sourceFileName": "VO_LQ\\VO_npc\\vo_NHDLQ101_10_anemoFungusLifeform_12.wem",
                "rate": 1.0,
                "avatarName": "",
                "emotion": ""
            }
        ]
    },
    "7df85c06-83ac-4e1c-ac46-1970db96b032": {
        "Guid": "7df85c06-83ac-4e1c-ac46-1970db96b032",
        "playRate": 1.0,
        "GameTrigger": "Dialog",
        "gameTriggerArgs": 130190713,
        "personalConfig": 2,
        "GIFECDGOOPJ": 1,
        "ParentID": "a04329cf-95a3-433a-a257-bcc54f1ddb8b",
        "SourceNames": [
            {
                "sourceFileName": "VO_LQ\\VO_nahida\\vo_NHDLQ101_10_nahida_06.wem",
                "rate": 1.0,
                "avatarName": "",
                "emotion": ""
            }
        ]
    },
    "850039f8-a948-4ed2-94af-2e4115e4ba8b": {
        "Guid": "850039f8-a948-4ed2-94af-2e4115e4ba8b",
        "playRate": 1.0,
        "GameTrigger": "Dialog",
        "gameTriggerArgs": 130190825,
        "personalConfig": 2,
        "ParentID": "a04329cf-95a3-433a-a257-bcc54f1ddb8b",
        "SourceNames": [
            {
                "sourceFileName": "VO_LQ\\VO_nahida\\vo_NHDLQ101_10_nahida_15.wem",
                "rate": 1.0,
                "avatarName": "",
                "emotion": ""
            }
        ]
    },
    "858aef25-f16e-434c-8501-1e4816c8f49a": {
        "Guid": "858aef25-f16e-434c-8501-1e4816c8f49a",
        "playRate": 1.0,
        "GameTrigger": "Dialog",
        "gameTriggerArgs": 130190829,
        "personalConfig": 2,
        "ParentID": "a04329cf-95a3-433a-a257-bcc54f1ddb8b",
        "SourceNames": [
            {
                "sourceFileName": "VO_LQ\\VO_npc\\vo_NHDLQ101_10_hydroFungusLifeform_08.wem",
                "rate": 1.0,
                "avatarName": "",
                "emotion": ""
            }
        ]
    },
    "860d1a5a-b508-4710-8039-0d3597dc5a0e": {
        "Guid": "860d1a5a-b508-4710-8039-0d3597dc5a0e",
        "playRate": 1.0,
        "GameTrigger": "Dialog",
        "gameTriggerArgs": 130190876,
        "personalConfig": 2,
        "ParentID": "a04329cf-95a3-433a-a257-bcc54f1ddb8b",
        "SourceNames": [
            {
                "sourceFileName": "VO_LQ\\VO_paimon\\vo_NHDLQ101_10_paimon_09.wem",
                "rate": 1.0,
                "avatarName": "",
                "emotion": ""
            }
        ]
    },
    "87a9e505-e669-4232-a99d-27a0add57a9a": {
        "Guid": "87a9e505-e669-4232-a99d-27a0add57a9a",
        "playRate": 1.0,
        "GameTrigger": "Dialog",
        "gameTriggerArgs": 130190845,
        "personalConfig": 2,
        "ParentID": "a04329cf-95a3-433a-a257-bcc54f1ddb8b",
        "SourceNames": [
            {
                "sourceFileName": "VO_LQ\\VO_nahida\\vo_NHDLQ101_10_nahida_22.wem",
                "rate": 1.0,
                "avatarName": "",
                "emotion": ""
            }
        ]
    },
    "89599e1c-7396-4aeb-b57e-0b16f67dd949": {
        "Guid": "89599e1c-7396-4aeb-b57e-0b16f67dd949",
        "playRate": 1.0,
        "GameTrigger": "Dialog",
        "gameTriggerArgs": 130190846,
        "personalConfig": 2,
        "ParentID": "a04329cf-95a3-433a-a257-bcc54f1ddb8b",
        "SourceNames": [
            {
                "sourceFileName": "VO_LQ\\VO_nahida\\vo_NHDLQ101_10_nahida_23.wem",
                "rate": 1.0,
                "avatarName": "",
                "emotion": ""
            }
        ]
    },
    "8b657b35-5597-4aa5-9218-6a827b751032": {
        "Guid": "8b657b35-5597-4aa5-9218-6a827b751032",
        "playRate": 1.0,
        "GameTrigger": "Dialog",
        "gameTriggerArgs": 130190862,
        "personalConfig": 2,
        "ParentID": "a04329cf-95a3-433a-a257-bcc54f1ddb8b",
        "SourceNames": [
            {
                "sourceFileName": "VO_LQ\\VO_npc\\vo_NHDLQ101_10_hydroFungusLifeform_16.wem",
                "rate": 1.0,
                "avatarName": "",
                "emotion": ""
            }
        ]
    },
    "9383caf1-1244-404a-adbc-a1666fd673b3": {
        "Guid": "9383caf1-1244-404a-adbc-a1666fd673b3",
        "playRate": 1.0,
        "GameTrigger": "Dialog",
        "gameTriggerArgs": 130190836,
        "personalConfig": 2,
        "ParentID": "a04329cf-95a3-433a-a257-bcc54f1ddb8b",
        "SourceNames": [
            {
                "sourceFileName": "VO_LQ\\VO_npc\\vo_NHDLQ101_10_hydroFungusLifeform_12.wem",
                "rate": 1.0,
                "avatarName": "",
                "emotion": ""
            }
        ]
    },
    "95a8027a-bbac-4de0-8d0b-d912be4945c0": {
        "Guid": "95a8027a-bbac-4de0-8d0b-d912be4945c0",
        "playRate": 1.0,
        "GameTrigger": "Dialog",
        "gameTriggerArgs": 130190869,
        "personalConfig": 2,
        "ParentID": "a04329cf-95a3-433a-a257-bcc54f1ddb8b",
        "SourceNames": [
            {
                "sourceFileName": "VO_LQ\\VO_nahida\\vo_NHDLQ101_10_nahida_31.wem",
                "rate": 1.0,
                "avatarName": "",
                "emotion": ""
            }
        ]
    },
    "9ea23202-b292-4109-ae50-47fcf6db0c9b": {
        "Guid": "9ea23202-b292-4109-ae50-47fcf6db0c9b",
        "playRate": 1.0,
        "GameTrigger": "Dialog",
        "gameTriggerArgs": 130190834,
        "personalConfig": 2,
        "ParentID": "a04329cf-95a3-433a-a257-bcc54f1ddb8b",
        "SourceNames": [
            {
                "sourceFileName": "VO_LQ\\VO_npc\\vo_NHDLQ101_10_hydroFungusLifeform_11.wem",
                "rate": 1.0,
                "avatarName": "",
                "emotion": ""
            }
        ]
    },
    "a30ddf58-19b9-4df9-bf1d-1fef3ca0828d": {
        "Guid": "a30ddf58-19b9-4df9-bf1d-1fef3ca0828d",
        "playRate": 1.0,
        "GameTrigger": "Dialog",
        "gameTriggerArgs": 130190709,
        "personalConfig": 2,
        "ParentID": "a04329cf-95a3-433a-a257-bcc54f1ddb8b",
        "SourceNames": [
            {
                "sourceFileName": "VO_LQ\\VO_nahida\\vo_NHDLQ101_10_nahida_05.wem",
                "rate": 1.0,
                "avatarName": "",
                "emotion": ""
            }
        ]
    },
    "a619bb82-fa86-4bcd-9492-aaa67e02cf46": {
        "Guid": "a619bb82-fa86-4bcd-9492-aaa67e02cf46",
        "playRate": 1.0,
        "GameTrigger": "Dialog",
        "gameTriggerArgs": 130190848,
        "personalConfig": 2,
        "ParentID": "a04329cf-95a3-433a-a257-bcc54f1ddb8b",
        "SourceNames": [
            {
                "sourceFileName": "VO_LQ\\VO_nahida\\vo_NHDLQ101_10_nahida_25.wem",
                "rate": 1.0,
                "avatarName": "",
                "emotion": ""
            }
        ]
    },
    "a8b1f8ad-1cfb-4dac-a676-ccbadb9d6f6f": {
        "Guid": "a8b1f8ad-1cfb-4dac-a676-ccbadb9d6f6f",
        "playRate": 1.0,
        "GameTrigger": "Dialog",
        "gameTriggerArgs": 130190851,
        "personalConfig": 2,
        "ParentID": "a04329cf-95a3-433a-a257-bcc54f1ddb8b",
        "SourceNames": [
            {
                "sourceFileName": "VO_LQ\\VO_nahida\\vo_NHDLQ101_10_nahida_26.wem",
                "rate": 1.0,
                "avatarName": "",
                "emotion": ""
            }
        ]
    },
    "aa4c0402-26f1-4a46-a875-18ceda052918": {
        "Guid": "aa4c0402-26f1-4a46-a875-18ceda052918",
        "playRate": 1.0,
        "GameTrigger": "Dialog",
        "gameTriggerArgs": 130190866,
        "personalConfig": 2,
        "ParentID": "a04329cf-95a3-433a-a257-bcc54f1ddb8b",
        "SourceNames": [
            {
                "sourceFileName": "VO_LQ\\VO_npc\\vo_NHDLQ101_10_hydroFungusLifeform_17.wem",
                "rate": 1.0,
                "avatarName": "",
                "emotion": ""
            }
        ]
    },
    "aa685837-934d-4a7c-a9ad-e2b091a5100b": {
        "Guid": "aa685837-934d-4a7c-a9ad-e2b091a5100b",
        "playRate": 1.0,
        "GameTrigger": "Dialog",
        "gameTriggerArgs": 130190859,
        "personalConfig": 2,
        "ParentID": "a04329cf-95a3-433a-a257-bcc54f1ddb8b",
        "SourceNames": [
            {
                "sourceFileName": "VO_LQ\\VO_npc\\vo_NHDLQ101_10_anemoFungusA_01.wem",
                "rate": 1.0,
                "avatarName": "",
                "emotion": ""
            }
        ]
    },
    "ab729528-f569-4692-9871-cbc2e4beaee4": {
        "Guid": "ab729528-f569-4692-9871-cbc2e4beaee4",
        "playRate": 1.0,
        "GameTrigger": "Dialog",
        "gameTriggerArgs": 130190837,
        "personalConfig": 2,
        "ParentID": "a04329cf-95a3-433a-a257-bcc54f1ddb8b",
        "SourceNames": [
            {
                "sourceFileName": "VO_LQ\\VO_npc\\vo_NHDLQ101_10_hydroFungusLifeform_13.wem",
                "rate": 1.0,
                "avatarName": "",
                "emotion": ""
            }
        ]
    },
    "abd640d3-c086-4dd5-b0b5-fd82005c189e": {
        "Guid": "abd640d3-c086-4dd5-b0b5-fd82005c189e",
        "playRate": 1.0,
        "GameTrigger": "Dialog",
        "gameTriggerArgs": 130190856,
        "personalConfig": 2,
        "ParentID": "a04329cf-95a3-433a-a257-bcc54f1ddb8b",
        "SourceNames": [
            {
                "sourceFileName": "VO_LQ\\VO_nahida\\vo_NHDLQ101_10_nahida_28.wem",
                "rate": 1.0,
                "avatarName": "",
                "emotion": ""
            }
        ]
    },
    "ada60c06-4c1d-41ef-8864-f9b0e7a3109b": {
        "Guid": "ada60c06-4c1d-41ef-8864-f9b0e7a3109b",
        "playRate": 1.0,
        "GameTrigger": "Dialog",
        "gameTriggerArgs": 130190863,
        "personalConfig": 2,
        "ParentID": "a04329cf-95a3-433a-a257-bcc54f1ddb8b",
        "SourceNames": [
            {
                "sourceFileName": "VO_LQ\\VO_npc\\vo_NHDLQ101_10_anemoFungusLifeform_09.wem",
                "rate": 1.0,
                "avatarName": "",
                "emotion": ""
            }
        ]
    },
    "b30a9c3c-08ab-432a-b51d-b7086cdad171": {
        "Guid": "b30a9c3c-08ab-432a-b51d-b7086cdad171",
        "playRate": 1.0,
        "GameTrigger": "Dialog",
        "gameTriggerArgs": 130190853,
        "personalConfig": 2,
        "ParentID": "a04329cf-95a3-433a-a257-bcc54f1ddb8b",
        "SourceNames": [
            {
                "sourceFileName": "VO_LQ\\VO_npc\\vo_NHDLQ101_10_anemoFungusLifeform_07.wem",
                "rate": 1.0,
                "avatarName": "",
                "emotion": ""
            }
        ]
    },
    "b4a4612c-b95b-4490-9fa0-ad8966b1472a": {
        "Guid": "b4a4612c-b95b-4490-9fa0-ad8966b1472a",
        "playRate": 1.0,
        "GameTrigger": "Dialog",
        "gameTriggerArgs": 130190809,
        "personalConfig": 2,
        "ParentID": "a04329cf-95a3-433a-a257-bcc54f1ddb8b",
        "SourceNames": [
            {
                "sourceFileName": "VO_LQ\\VO_npc\\vo_NHDLQ101_10_hydroFungusLifeform_01.wem",
                "rate": 1.0,
                "avatarName": "",
                "emotion": ""
            }
        ]
    },
    "b8827b71-82bf-4e74-b0cd-f5a4be06700f": {
        "Guid": "b8827b71-82bf-4e74-b0cd-f5a4be06700f",
        "playRate": 1.0,
        "GameTrigger": "Dialog",
        "gameTriggerArgs": 130190832,
        "personalConfig": 2,
        "ParentID": "a04329cf-95a3-433a-a257-bcc54f1ddb8b",
        "SourceNames": [
            {
                "sourceFileName": "VO_LQ\\VO_paimon\\vo_NHDLQ101_10_paimon_06.wem",
                "rate": 1.0,
                "avatarName": "",
                "emotion": ""
            }
        ]
    },
    "b93bb1f4-fcec-42bf-8c74-5afcf68fc745": {
        "Guid": "b93bb1f4-fcec-42bf-8c74-5afcf68fc745",
        "playRate": 1.0,
        "GameTrigger": "Dialog",
        "gameTriggerArgs": 130190874,
        "personalConfig": 2,
        "ParentID": "a04329cf-95a3-433a-a257-bcc54f1ddb8b",
        "SourceNames": [
            {
                "sourceFileName": "VO_LQ\\VO_npc\\vo_NHDLQ101_10_hydroFungusLifeform_20.wem",
                "rate": 1.0,
                "avatarName": "",
                "emotion": ""
            }
        ]
    },
    "b948d13e-979c-4514-8e05-3f0665a77c27": {
        "Guid": "b948d13e-979c-4514-8e05-3f0665a77c27",
        "playRate": 1.0,
        "GameTrigger": "Dialog",
        "gameTriggerArgs": 130190819,
        "personalConfig": 2,
        "ParentID": "a04329cf-95a3-433a-a257-bcc54f1ddb8b",
        "SourceNames": [
            {
                "sourceFileName": "VO_LQ\\VO_npc\\vo_NHDLQ101_10_anemoFungusLifeform_05.wem",
                "rate": 1.0,
                "avatarName": "",
                "emotion": ""
            }
        ]
    },
    "be0ce56c-dbea-4d6e-9deb-51afd214ae7b": {
        "Guid": "be0ce56c-dbea-4d6e-9deb-51afd214ae7b",
        "playRate": 1.0,
        "GameTrigger": "Dialog",
        "gameTriggerArgs": 130190872,
        "personalConfig": 2,
        "ParentID": "a04329cf-95a3-433a-a257-bcc54f1ddb8b",
        "SourceNames": [
            {
                "sourceFileName": "VO_LQ\\VO_npc\\vo_NHDLQ101_10_anemoFungusLifeform_13.wem",
                "rate": 1.0,
                "avatarName": "",
                "emotion": ""
            }
        ]
    },
    "bfb21937-3279-40c3-9d7e-401318531d81": {
        "Guid": "bfb21937-3279-40c3-9d7e-401318531d81",
        "playRate": 1.0,
        "GameTrigger": "Dialog",
        "gameTriggerArgs": 130190839,
        "personalConfig": 2,
        "ParentID": "a04329cf-95a3-433a-a257-bcc54f1ddb8b",
        "SourceNames": [
            {
                "sourceFileName": "VO_LQ\\VO_nahida\\vo_NHDLQ101_10_nahida_18.wem",
                "rate": 1.0,
                "avatarName": "",
                "emotion": ""
            }
        ]
    },
    "c3170c1c-aec9-4035-8946-06146044a798": {
        "Guid": "c3170c1c-aec9-4035-8946-06146044a798",
        "playRate": 1.0,
        "GameTrigger": "Dialog",
        "gameTriggerArgs": 130190843,
        "personalConfig": 2,
        "ParentID": "a04329cf-95a3-433a-a257-bcc54f1ddb8b",
        "SourceNames": [
            {
                "sourceFileName": "VO_LQ\\VO_nahida\\vo_NHDLQ101_10_nahida_21.wem",
                "rate": 1.0,
                "avatarName": "",
                "emotion": ""
            }
        ]
    },
    "c9ac2aa5-eb4f-4411-b8b1-a93f72e87bbd": {
        "Guid": "c9ac2aa5-eb4f-4411-b8b1-a93f72e87bbd",
        "playRate": 1.0,
        "GameTrigger": "Dialog",
        "gameTriggerArgs": 130190712,
        "personalConfig": 2,
        "ParentID": "a04329cf-95a3-433a-a257-bcc54f1ddb8b",
        "SourceNames": [
            {
                "sourceFileName": "VO_LQ\\VO_npc\\vo_NHDLQ101_10_wingedDendroshroomb_04.wem",
                "rate": 1.0,
                "avatarName": "",
                "emotion": ""
            }
        ]
    },
    "cc810b41-cad1-4ac4-b10d-1ec76202b0ab": {
        "Guid": "cc810b41-cad1-4ac4-b10d-1ec76202b0ab",
        "playRate": 1.0,
        "GameTrigger": "Dialog",
        "gameTriggerArgs": 130190875,
        "personalConfig": 2,
        "ParentID": "a04329cf-95a3-433a-a257-bcc54f1ddb8b",
        "SourceNames": [
            {
                "sourceFileName": "VO_LQ\\VO_npc\\vo_NHDLQ101_10_anemoFungusLifeform_15.wem",
                "rate": 1.0,
                "avatarName": "",
                "emotion": ""
            }
        ]
    },
    "d2645e89-a59b-4a34-b880-4417e8dd6e91": {
        "Guid": "d2645e89-a59b-4a34-b880-4417e8dd6e91",
        "playRate": 1.0,
        "GameTrigger": "Dialog",
        "gameTriggerArgs": 130190867,
        "personalConfig": 2,
        "ParentID": "a04329cf-95a3-433a-a257-bcc54f1ddb8b",
        "SourceNames": [
            {
                "sourceFileName": "VO_LQ\\VO_npc\\vo_NHDLQ101_10_hydroFungusLifeform_18.wem",
                "rate": 1.0,
                "avatarName": "",
                "emotion": ""
            }
        ]
    },
    "d33a0b95-d2bb-4625-9524-be401572b719": {
        "Guid": "d33a0b95-d2bb-4625-9524-be401572b719",
        "playRate": 1.0,
        "GameTrigger": "Dialog",
        "gameTriggerArgs": 130190861,
        "personalConfig": 2,
        "ParentID": "a04329cf-95a3-433a-a257-bcc54f1ddb8b",
        "SourceNames": [
            {
                "sourceFileName": "VO_LQ\\VO_npc\\vo_NHDLQ101_10_anemoFungusLifeform_08.wem",
                "rate": 1.0,
                "avatarName": "",
                "emotion": ""
            }
        ]
    },
    "d5d9d825-c244-44f7-9f32-a6393a0b68f9": {
        "Guid": "d5d9d825-c244-44f7-9f32-a6393a0b68f9",
        "playRate": 1.0,
        "GameTrigger": "Dialog",
        "gameTriggerArgs": 130199926,
        "personalConfig": 2,
        "GIFECDGOOPJ": 1,
        "IsPlayOnTeam": true,
        "ParentID": "a04329cf-95a3-433a-a257-bcc54f1ddb8b",
        "SourceNames": [
            {
                "sourceFileName": "VO_LQ\\VO_npc\\vo_NHDLQ101_10_anemoFungusLifeform_16.wem",
                "rate": 1.0,
                "avatarName": "",
                "emotion": ""
            }
        ]
    },
    "d66368a6-f1a9-423c-8f57-bc4b67621f99": {
        "Guid": "d66368a6-f1a9-423c-8f57-bc4b67621f99",
        "playRate": 1.0,
        "GameTrigger": "Dialog",
        "gameTriggerArgs": 130190868,
        "personalConfig": 2,
        "ParentID": "a04329cf-95a3-433a-a257-bcc54f1ddb8b",
        "SourceNames": [
            {
                "sourceFileName": "VO_LQ\\VO_npc\\vo_NHDLQ101_10_hydroFungusLifeform_19.wem",
                "rate": 1.0,
                "avatarName": "",
                "emotion": ""
            }
        ]
    },
    "de3583a2-0079-4ab3-b81e-b5f0419d1b2e": {
        "Guid": "de3583a2-0079-4ab3-b81e-b5f0419d1b2e",
        "playRate": 1.0,
        "GameTrigger": "Dialog",
        "gameTriggerArgs": 130190842,
        "personalConfig": 2,
        "ParentID": "a04329cf-95a3-433a-a257-bcc54f1ddb8b",
        "SourceNames": [
            {
                "sourceFileName": "VO_LQ\\VO_nahida\\vo_NHDLQ101_10_nahida_20.wem",
                "rate": 1.0,
                "avatarName": "",
                "emotion": ""
            }
        ]
    },
    "df735d81-399e-4204-b640-c21910a1bf63": {
        "Guid": "df735d81-399e-4204-b640-c21910a1bf63",
        "playRate": 1.0,
        "GameTrigger": "Dialog",
        "gameTriggerArgs": 130190850,
        "personalConfig": 2,
        "ParentID": "a04329cf-95a3-433a-a257-bcc54f1ddb8b",
        "SourceNames": [
            {
                "sourceFileName": "VO_LQ\\VO_paimon\\vo_NHDLQ101_10_paimon_08.wem",
                "rate": 1.0,
                "avatarName": "",
                "emotion": ""
            }
        ]
    },
    "e075d932-e678-44d0-b082-553a2a2938b2": {
        "Guid": "e075d932-e678-44d0-b082-553a2a2938b2",
        "playRate": 1.0,
        "GameTrigger": "Dialog",
        "gameTriggerArgs": 130190705,
        "personalConfig": 2,
        "GIFECDGOOPJ": 1,
        "ParentID": "a04329cf-95a3-433a-a257-bcc54f1ddb8b",
        "SourceNames": [
            {
                "sourceFileName": "VO_LQ\\VO_nahida\\vo_NHDLQ101_10_nahida_03.wem",
                "rate": 1.0,
                "avatarName": "",
                "emotion": ""
            }
        ]
    },
    "e2200e76-0b1c-407b-946e-bca3a2b97e7a": {
        "Guid": "e2200e76-0b1c-407b-946e-bca3a2b97e7a",
        "playRate": 1.0,
        "GameTrigger": "Dialog",
        "gameTriggerArgs": 130190840,
        "personalConfig": 2,
        "ParentID": "a04329cf-95a3-433a-a257-bcc54f1ddb8b",
        "SourceNames": [
            {
                "sourceFileName": "VO_LQ\\VO_paimon\\vo_NHDLQ101_10_paimon_07.wem",
                "rate": 1.0,
                "avatarName": "",
                "emotion": ""
            }
        ]
    },
    "e24b20db-b2ae-4147-839f-0568de8d1d49": {
        "Guid": "e24b20db-b2ae-4147-839f-0568de8d1d49",
        "playRate": 1.0,
        "GameTrigger": "Dialog",
        "gameTriggerArgs": 130190817,
        "personalConfig": 2,
        "ParentID": "a04329cf-95a3-433a-a257-bcc54f1ddb8b",
        "SourceNames": [
            {
                "sourceFileName": "VO_LQ\\VO_npc\\vo_NHDLQ101_10_anemoFungusLifeform_04.wem",
                "rate": 1.0,
                "avatarName": "",
                "emotion": ""
            }
        ]
    },
    "e26545d2-b1f7-424f-8862-5972b7c5ef9d": {
        "Guid": "e26545d2-b1f7-424f-8862-5972b7c5ef9d",
        "playRate": 1.0,
        "GameTrigger": "Dialog",
        "gameTriggerArgs": 130190805,
        "personalConfig": 2,
        "ParentID": "a04329cf-95a3-433a-a257-bcc54f1ddb8b",
        "SourceNames": [
            {
                "sourceFileName": "VO_LQ\\VO_nahida\\vo_NHDLQ101_10_nahida_11.wem",
                "rate": 1.0,
                "avatarName": "",
                "emotion": ""
            }
        ]
    },
    "e394630d-0cb0-4ef8-8cf8-c315195790a5": {
        "Guid": "e394630d-0cb0-4ef8-8cf8-c315195790a5",
        "playRate": 1.0,
        "GameTrigger": "Dialog",
        "gameTriggerArgs": 130190714,
        "personalConfig": 2,
        "GIFECDGOOPJ": 1,
        "ParentID": "a04329cf-95a3-433a-a257-bcc54f1ddb8b",
        "SourceNames": [
            {
                "sourceFileName": "VO_LQ\\VO_nahida\\vo_NHDLQ101_10_nahida_07.wem",
                "rate": 1.0,
                "avatarName": "",
                "emotion": ""
            }
        ]
    },
    "e8526855-b2db-4c36-b81b-8936805238cb": {
        "Guid": "e8526855-b2db-4c36-b81b-8936805238cb",
        "playRate": 1.0,
        "GameTrigger": "Dialog",
        "gameTriggerArgs": 130190807,
        "personalConfig": 2,
        "ParentID": "a04329cf-95a3-433a-a257-bcc54f1ddb8b",
        "SourceNames": [
            {
                "sourceFileName": "VO_LQ\\VO_nahida\\vo_NHDLQ101_10_nahida_12.wem",
                "rate": 1.0,
                "avatarName": "",
                "emotion": ""
            }
        ]
    },
    "ea0e117e-c6f3-42e0-88d9-71095b9cf35e": {
        "Guid": "ea0e117e-c6f3-42e0-88d9-71095b9cf35e",
        "playRate": 1.0,
        "GameTrigger": "Dialog",
        "gameTriggerArgs": 130190854,
        "personalConfig": 2,
        "ParentID": "a04329cf-95a3-433a-a257-bcc54f1ddb8b",
        "SourceNames": [
            {
                "sourceFileName": "VO_LQ\\VO_npc\\vo_NHDLQ101_10_hydroFungusLifeform_14.wem",
                "rate": 1.0,
                "avatarName": "",
                "emotion": ""
            }
        ]
    },
    "f031e32e-347d-4e81-ae3a-dd52e5a9c86a": {
        "Guid": "f031e32e-347d-4e81-ae3a-dd52e5a9c86a",
        "playRate": 1.0,
        "GameTrigger": "Dialog",
        "gameTriggerArgs": 130190710,
        "personalConfig": 2,
        "ParentID": "a04329cf-95a3-433a-a257-bcc54f1ddb8b",
        "SourceNames": [
            {
                "sourceFileName": "VO_LQ\\VO_npc\\vo_NHDLQ101_10_leftFungus_02.wem",
                "rate": 1.0,
                "avatarName": "",
                "emotion": ""
            }
        ]
    },
    "f32e3b9c-65e6-46d0-abed-1aab3074e7ea": {
        "Guid": "f32e3b9c-65e6-46d0-abed-1aab3074e7ea",
        "playRate": 1.0,
        "GameTrigger": "Dialog",
        "gameTriggerArgs": 130190858,
        "personalConfig": 2,
        "ParentID": "a04329cf-95a3-433a-a257-bcc54f1ddb8b",
        "SourceNames": [
            {
                "sourceFileName": "VO_LQ\\VO_nahida\\vo_NHDLQ101_10_nahida_30.wem",
                "rate": 1.0,
                "avatarName": "",
                "emotion": ""
            }
        ]
    },
    "f5a4f6dc-33b1-4c76-8ce4-b2be14977dce": {
        "Guid": "f5a4f6dc-33b1-4c76-8ce4-b2be14977dce",
        "playRate": 1.0,
        "GameTrigger": "Dialog",
        "gameTriggerArgs": 130190857,
        "personalConfig": 2,
        "ParentID": "a04329cf-95a3-433a-a257-bcc54f1ddb8b",
        "SourceNames": [
            {
                "sourceFileName": "VO_LQ\\VO_nahida\\vo_NHDLQ101_10_nahida_29.wem",
                "rate": 1.0,
                "avatarName": "",
                "emotion": ""
            }
        ]
    },
    "f66a6ec2-e352-4320-843a-99bde4ce2515": {
        "Guid": "f66a6ec2-e352-4320-843a-99bde4ce2515",
        "playRate": 1.0,
        "GameTrigger": "Dialog",
        "gameTriggerArgs": 130190716,
        "personalConfig": 2,
        "GIFECDGOOPJ": 1,
        "ParentID": "a04329cf-95a3-433a-a257-bcc54f1ddb8b",
        "SourceNames": [
            {
                "sourceFileName": "VO_LQ\\VO_nahida\\vo_NHDLQ101_10_nahida_09.wem",
                "rate": 1.0,
                "avatarName": "",
                "emotion": ""
            }
        ]
    },
    "f7a66561-4fad-4910-9126-b9f1425dcd8a": {
        "Guid": "f7a66561-4fad-4910-9126-b9f1425dcd8a",
        "playRate": 1.0,
        "GameTrigger": "Dialog",
        "gameTriggerArgs": 130190852,
        "personalConfig": 2,
        "ParentID": "a04329cf-95a3-433a-a257-bcc54f1ddb8b",
        "SourceNames": [
            {
                "sourceFileName": "VO_LQ\\VO_nahida\\vo_NHDLQ101_10_nahida_27.wem",
                "rate": 1.0,
                "avatarName": "",
                "emotion": ""
            }
        ]
    },
    "fbf6b8be-549f-40fd-8e2c-3c75c619388c": {
        "Guid": "fbf6b8be-549f-40fd-8e2c-3c75c619388c",
        "playRate": 1.0,
        "GameTrigger": "Dialog",
        "gameTriggerArgs": 130190801,
        "personalConfig": 2,
        "GIFECDGOOPJ": 1,
        "ParentID": "a04329cf-95a3-433a-a257-bcc54f1ddb8b",
        "SourceNames": [
            {
                "sourceFileName": "VO_LQ\\VO_nahida\\vo_NHDLQ101_10_nahida_10.wem",
                "rate": 1.0,
                "avatarName": "",
                "emotion": ""
            }
        ]
    }
}