{
    "0099928d-3081-4258-a60b-dc7126611ac4": {
        "Guid": "0099928d-3081-4258-a60b-dc7126611ac4",
        "playRate": 1.0,
        "GameTrigger": "Dialog",
        "gameTriggerArgs": 190960411,
        "personalConfig": 2,
        "ParentID": "6c18424b-0e6d-4ae2-a3e9-6c3f8ce38d73",
        "SourceNames": [
            {
                "sourceFileName": "VO_COOP\\VO_kaeya\\vo_KYCOP001_1909604_kaeya_05.wem",
                "rate": 1.0,
                "avatarName": "",
                "emotion": ""
            }
        ]
    },
    "17d941bd-d40c-4369-881b-9a025f1d328a": {
        "Guid": "17d941bd-d40c-4369-881b-9a025f1d328a",
        "playRate": 1.0,
        "GameTrigger": "Dialog",
        "gameTriggerArgs": 190960441,
        "personalConfig": 2,
        "ParentID": "6c18424b-0e6d-4ae2-a3e9-6c3f8ce38d73",
        "SourceNames": [
            {
                "sourceFileName": "VO_COOP\\VO_kaeya\\vo_KYCOP001_1909604_kaeya_18.wem",
                "rate": 1.0,
                "avatarName": "",
                "emotion": ""
            }
        ]
    },
    "19ebdc26-98ba-4814-8845-32ebedf0a44f": {
        "Guid": "19ebdc26-98ba-4814-8845-32ebedf0a44f",
        "playRate": 1.0,
        "GameTrigger": "Dialog",
        "gameTriggerArgs": 190960422,
        "personalConfig": 2,
        "ParentID": "6c18424b-0e6d-4ae2-a3e9-6c3f8ce38d73",
        "SourceNames": [
            {
                "sourceFileName": "VO_COOP\\VO_npc\\vo_KYCOP001_1909604_connor_10.wem",
                "rate": 1.0,
                "avatarName": "",
                "emotion": ""
            }
        ]
    },
    "1cebe108-de2b-49c3-ab61-441276f3f0ab": {
        "Guid": "1cebe108-de2b-49c3-ab61-441276f3f0ab",
        "playRate": 1.0,
        "GameTrigger": "Dialog",
        "gameTriggerArgs": 190960407,
        "personalConfig": 2,
        "ParentID": "6c18424b-0e6d-4ae2-a3e9-6c3f8ce38d73",
        "SourceNames": [
            {
                "sourceFileName": "VO_COOP\\VO_npc\\vo_KYCOP001_1909604_elzer_04.wem",
                "rate": 1.0,
                "avatarName": "",
                "emotion": ""
            }
        ]
    },
    "270846b4-f469-47ea-808d-9c480b6d3d97": {
        "Guid": "270846b4-f469-47ea-808d-9c480b6d3d97",
        "playRate": 1.0,
        "GameTrigger": "Dialog",
        "gameTriggerArgs": 190960416,
        "personalConfig": 2,
        "ParentID": "6c18424b-0e6d-4ae2-a3e9-6c3f8ce38d73",
        "SourceNames": [
            {
                "sourceFileName": "VO_COOP\\VO_kaeya\\vo_KYCOP001_1909604_kaeya_07.wem",
                "rate": 1.0,
                "avatarName": "",
                "emotion": ""
            }
        ]
    },
    "2a280fdc-98a6-47fe-819d-e4b962c1da4a": {
        "Guid": "2a280fdc-98a6-47fe-819d-e4b962c1da4a",
        "playRate": 1.0,
        "GameTrigger": "Dialog",
        "gameTriggerArgs": 190960445,
        "personalConfig": 2,
        "ParentID": "6c18424b-0e6d-4ae2-a3e9-6c3f8ce38d73",
        "SourceNames": [
            {
                "sourceFileName": "VO_COOP\\VO_kaeya\\vo_KYCOP001_1909604_kaeya_19.wem",
                "rate": 1.0,
                "avatarName": "",
                "emotion": ""
            }
        ]
    },
    "2ec752a5-633f-4a8b-8289-dd4b55a237f3": {
        "Guid": "2ec752a5-633f-4a8b-8289-dd4b55a237f3",
        "playRate": 1.0,
        "GameTrigger": "Dialog",
        "gameTriggerArgs": 190960423,
        "personalConfig": 2,
        "ParentID": "6c18424b-0e6d-4ae2-a3e9-6c3f8ce38d73",
        "SourceNames": [
            {
                "sourceFileName": "VO_COOP\\VO_kaeya\\vo_KYCOP001_1909604_kaeya_09.wem",
                "rate": 1.0,
                "avatarName": "",
                "emotion": ""
            }
        ]
    },
    "314cf5c8-5e74-42fa-abad-352ed477ff87": {
        "Guid": "314cf5c8-5e74-42fa-abad-352ed477ff87",
        "playRate": 1.0,
        "GameTrigger": "Dialog",
        "gameTriggerArgs": 190960426,
        "personalConfig": 2,
        "ParentID": "6c18424b-0e6d-4ae2-a3e9-6c3f8ce38d73",
        "SourceNames": [
            {
                "sourceFileName": "VO_COOP\\VO_npc\\vo_KYCOP001_1909604_connor_12.wem",
                "rate": 1.0,
                "avatarName": "",
                "emotion": ""
            }
        ]
    },
    "36581704-147b-45ef-85ef-05199a1cb3c0": {
        "Guid": "36581704-147b-45ef-85ef-05199a1cb3c0",
        "playRate": 1.0,
        "GameTrigger": "Dialog",
        "gameTriggerArgs": 190960408,
        "personalConfig": 2,
        "ParentID": "6c18424b-0e6d-4ae2-a3e9-6c3f8ce38d73",
        "SourceNames": [
            {
                "sourceFileName": "VO_COOP\\VO_kaeya\\vo_KYCOP001_1909604_kaeya_04.wem",
                "rate": 1.0,
                "avatarName": "",
                "emotion": ""
            }
        ]
    },
    "37f00a65-f28c-43b3-bcb8-9f3e6e4786c4": {
        "Guid": "37f00a65-f28c-43b3-bcb8-9f3e6e4786c4",
        "playRate": 1.0,
        "GameTrigger": "Dialog",
        "gameTriggerArgs": 190960431,
        "personalConfig": 2,
        "ParentID": "6c18424b-0e6d-4ae2-a3e9-6c3f8ce38d73",
        "SourceNames": [
            {
                "sourceFileName": "VO_COOP\\VO_kaeya\\vo_KYCOP001_1909604_kaeya_13.wem",
                "rate": 1.0,
                "avatarName": "",
                "emotion": ""
            }
        ]
    },
    "38826300-b21a-49c7-a45d-674c10311bce": {
        "Guid": "38826300-b21a-49c7-a45d-674c10311bce",
        "playRate": 1.0,
        "GameTrigger": "Dialog",
        "gameTriggerArgs": 190960442,
        "personalConfig": 2,
        "ParentID": "6c18424b-0e6d-4ae2-a3e9-6c3f8ce38d73",
        "SourceNames": [
            {
                "sourceFileName": "VO_COOP\\VO_npc\\vo_KYCOP001_1909604_connor_19.wem",
                "rate": 1.0,
                "avatarName": "",
                "emotion": ""
            }
        ]
    },
    "3d559887-95ba-45c0-9573-7ec0b719856c": {
        "Guid": "3d559887-95ba-45c0-9573-7ec0b719856c",
        "playRate": 1.0,
        "GameTrigger": "Dialog",
        "gameTriggerArgs": 190960439,
        "personalConfig": 2,
        "ParentID": "6c18424b-0e6d-4ae2-a3e9-6c3f8ce38d73",
        "SourceNames": [
            {
                "sourceFileName": "VO_COOP\\VO_npc\\vo_KYCOP001_1909604_connor_17.wem",
                "rate": 1.0,
                "avatarName": "",
                "emotion": ""
            }
        ]
    },
    "3f3a31f3-0328-486f-8c44-e4eb4b8e9716": {
        "Guid": "3f3a31f3-0328-486f-8c44-e4eb4b8e9716",
        "playRate": 1.0,
        "GameTrigger": "Dialog",
        "gameTriggerArgs": 190960432,
        "personalConfig": 2,
        "ParentID": "6c18424b-0e6d-4ae2-a3e9-6c3f8ce38d73",
        "SourceNames": [
            {
                "sourceFileName": "VO_COOP\\VO_kaeya\\vo_KYCOP001_1909604_kaeya_14.wem",
                "rate": 1.0,
                "avatarName": "",
                "emotion": ""
            }
        ]
    },
    "4e320b57-24b1-4bf3-9384-c100892166a8": {
        "Guid": "4e320b57-24b1-4bf3-9384-c100892166a8",
        "playRate": 1.0,
        "GameTrigger": "Dialog",
        "gameTriggerArgs": 190960434,
        "personalConfig": 2,
        "ParentID": "6c18424b-0e6d-4ae2-a3e9-6c3f8ce38d73",
        "SourceNames": [
            {
                "sourceFileName": "VO_COOP\\VO_kaeya\\vo_KYCOP001_1909604_kaeya_16.wem",
                "rate": 1.0,
                "avatarName": "",
                "emotion": ""
            }
        ]
    },
    "522cf2e3-b5ce-4152-9e6b-23ff1991ce53": {
        "Guid": "522cf2e3-b5ce-4152-9e6b-23ff1991ce53",
        "playRate": 1.0,
        "GameTrigger": "Dialog",
        "gameTriggerArgs": 190960404,
        "personalConfig": 2,
        "ParentID": "6c18424b-0e6d-4ae2-a3e9-6c3f8ce38d73",
        "SourceNames": [
            {
                "sourceFileName": "VO_COOP\\VO_kaeya\\vo_KYCOP001_1909604_kaeya_02.wem",
                "rate": 1.0,
                "avatarName": "",
                "emotion": ""
            }
        ]
    },
    "5296606b-9cb2-44e2-b65c-7263eefd318a": {
        "Guid": "5296606b-9cb2-44e2-b65c-7263eefd318a",
        "playRate": 1.0,
        "GameTrigger": "Dialog",
        "gameTriggerArgs": 190961001,
        "personalConfig": 2,
        "ParentID": "6c18424b-0e6d-4ae2-a3e9-6c3f8ce38d73",
        "SourceNames": [
            {
                "sourceFileName": "VO_COOP\\VO_npc\\vo_KYCOP001_1909604_connor_22.wem",
                "rate": 1.0,
                "avatarName": "",
                "emotion": ""
            }
        ]
    },
    "53255b4d-8393-4faf-bfe4-aa0a406099c7": {
        "Guid": "53255b4d-8393-4faf-bfe4-aa0a406099c7",
        "playRate": 1.0,
        "GameTrigger": "Dialog",
        "gameTriggerArgs": 190960420,
        "personalConfig": 2,
        "ParentID": "6c18424b-0e6d-4ae2-a3e9-6c3f8ce38d73",
        "SourceNames": [
            {
                "sourceFileName": "VO_COOP\\VO_kaeya\\vo_KYCOP001_1909604_kaeya_08.wem",
                "rate": 1.0,
                "avatarName": "",
                "emotion": ""
            }
        ]
    },
    "5cd489f0-63bc-473e-ad38-b2deabe85296": {
        "Guid": "5cd489f0-63bc-473e-ad38-b2deabe85296",
        "playRate": 1.0,
        "GameTrigger": "Dialog",
        "gameTriggerArgs": 190960424,
        "personalConfig": 2,
        "ParentID": "6c18424b-0e6d-4ae2-a3e9-6c3f8ce38d73",
        "SourceNames": [
            {
                "sourceFileName": "VO_COOP\\VO_npc\\vo_KYCOP001_1909604_connor_11.wem",
                "rate": 1.0,
                "avatarName": "",
                "emotion": ""
            }
        ]
    },
    "646a4098-5457-4d42-b291-0f1b98ab9499": {
        "Guid": "646a4098-5457-4d42-b291-0f1b98ab9499",
        "playRate": 1.0,
        "GameTrigger": "Dialog",
        "gameTriggerArgs": 190960414,
        "personalConfig": 2,
        "ParentID": "6c18424b-0e6d-4ae2-a3e9-6c3f8ce38d73",
        "SourceNames": [
            {
                "sourceFileName": "VO_COOP\\VO_npc\\vo_KYCOP001_1909604_connor_04.wem",
                "rate": 1.0,
                "avatarName": "",
                "emotion": ""
            }
        ]
    },
    "6803cdc8-221b-4e0c-a4a9-cbde0ff1668b": {
        "Guid": "6803cdc8-221b-4e0c-a4a9-cbde0ff1668b",
        "playRate": 1.0,
        "GameTrigger": "Dialog",
        "gameTriggerArgs": 190960429,
        "personalConfig": 2,
        "ParentID": "6c18424b-0e6d-4ae2-a3e9-6c3f8ce38d73",
        "SourceNames": [
            {
                "sourceFileName": "VO_COOP\\VO_kaeya\\vo_KYCOP001_1909604_kaeya_12.wem",
                "rate": 1.0,
                "avatarName": "",
                "emotion": ""
            }
        ]
    },
    "6b5187f0-1d78-43d5-8283-eea63faba643": {
        "Guid": "6b5187f0-1d78-43d5-8283-eea63faba643",
        "playRate": 1.0,
        "GameTrigger": "Dialog",
        "gameTriggerArgs": 190960437,
        "personalConfig": 2,
        "ParentID": "6c18424b-0e6d-4ae2-a3e9-6c3f8ce38d73",
        "SourceNames": [
            {
                "sourceFileName": "VO_COOP\\VO_kaeya\\vo_KYCOP001_1909604_kaeya_17.wem",
                "rate": 1.0,
                "avatarName": "",
                "emotion": ""
            }
        ]
    },
    "6d922c77-2eca-4e6c-ace4-f2443bd27e0e": {
        "Guid": "6d922c77-2eca-4e6c-ace4-f2443bd27e0e",
        "playRate": 1.0,
        "GameTrigger": "Dialog",
        "gameTriggerArgs": 190960401,
        "personalConfig": 2,
        "ParentID": "6c18424b-0e6d-4ae2-a3e9-6c3f8ce38d73",
        "SourceNames": [
            {
                "sourceFileName": "VO_COOP\\VO_npc\\vo_KYCOP001_1909604_elzer_01.wem",
                "rate": 1.0,
                "avatarName": "",
                "emotion": ""
            }
        ]
    },
    "74a1ae3a-9037-4633-ab12-8a47802e3e5d": {
        "Guid": "74a1ae3a-9037-4633-ab12-8a47802e3e5d",
        "playRate": 1.0,
        "GameTrigger": "Dialog",
        "gameTriggerArgs": 190960444,
        "personalConfig": 2,
        "ParentID": "6c18424b-0e6d-4ae2-a3e9-6c3f8ce38d73",
        "SourceNames": [
            {
                "sourceFileName": "VO_COOP\\VO_npc\\vo_KYCOP001_1909604_connor_21.wem",
                "rate": 1.0,
                "avatarName": "",
                "emotion": ""
            }
        ]
    },
    "81daf49e-5999-44a4-aaf3-4a161708bf71": {
        "Guid": "81daf49e-5999-44a4-aaf3-4a161708bf71",
        "playRate": 1.0,
        "GameTrigger": "Dialog",
        "gameTriggerArgs": 190960428,
        "personalConfig": 2,
        "ParentID": "6c18424b-0e6d-4ae2-a3e9-6c3f8ce38d73",
        "SourceNames": [
            {
                "sourceFileName": "VO_COOP\\VO_npc\\vo_KYCOP001_1909604_connor_13.wem",
                "rate": 1.0,
                "avatarName": "",
                "emotion": ""
            }
        ]
    },
    "83cd06a4-9549-46c4-9911-d873f3f5b67b": {
        "Guid": "83cd06a4-9549-46c4-9911-d873f3f5b67b",
        "playRate": 1.0,
        "GameTrigger": "Dialog",
        "gameTriggerArgs": 190960410,
        "personalConfig": 2,
        "ParentID": "6c18424b-0e6d-4ae2-a3e9-6c3f8ce38d73",
        "SourceNames": [
            {
                "sourceFileName": "VO_COOP\\VO_npc\\vo_KYCOP001_1909604_connor_02.wem",
                "rate": 1.0,
                "avatarName": "",
                "emotion": ""
            }
        ]
    },
    "8cce43dc-8de6-4a63-b422-8c10fdbd1570": {
        "Guid": "8cce43dc-8de6-4a63-b422-8c10fdbd1570",
        "playRate": 1.0,
        "GameTrigger": "Dialog",
        "gameTriggerArgs": 190960409,
        "personalConfig": 2,
        "ParentID": "6c18424b-0e6d-4ae2-a3e9-6c3f8ce38d73",
        "SourceNames": [
            {
                "sourceFileName": "VO_COOP\\VO_npc\\vo_KYCOP001_1909604_connor_01.wem",
                "rate": 1.0,
                "avatarName": "",
                "emotion": ""
            }
        ]
    },
    "996cab12-dba4-4a21-81c2-a9af6ffbe5f1": {
        "Guid": "996cab12-dba4-4a21-81c2-a9af6ffbe5f1",
        "playRate": 1.0,
        "GameTrigger": "Dialog",
        "gameTriggerArgs": 190960430,
        "personalConfig": 2,
        "ParentID": "6c18424b-0e6d-4ae2-a3e9-6c3f8ce38d73",
        "SourceNames": [
            {
                "sourceFileName": "VO_COOP\\VO_npc\\vo_KYCOP001_1909604_connor_14.wem",
                "rate": 1.0,
                "avatarName": "",
                "emotion": ""
            }
        ]
    },
    "a0753287-607a-4f1e-b46e-d8cf460ed59f": {
        "Guid": "a0753287-607a-4f1e-b46e-d8cf460ed59f",
        "playRate": 1.0,
        "GameTrigger": "Dialog",
        "gameTriggerArgs": 190960412,
        "personalConfig": 2,
        "ParentID": "6c18424b-0e6d-4ae2-a3e9-6c3f8ce38d73",
        "SourceNames": [
            {
                "sourceFileName": "VO_COOP\\VO_npc\\vo_KYCOP001_1909604_connor_03.wem",
                "rate": 1.0,
                "avatarName": "",
                "emotion": ""
            }
        ]
    },
    "a0ccf0ce-2b68-448c-8934-56a37120c749": {
        "Guid": "a0ccf0ce-2b68-448c-8934-56a37120c749",
        "playRate": 1.0,
        "GameTrigger": "Dialog",
        "gameTriggerArgs": 190960413,
        "personalConfig": 2,
        "ParentID": "6c18424b-0e6d-4ae2-a3e9-6c3f8ce38d73",
        "SourceNames": [
            {
                "sourceFileName": "VO_COOP\\VO_kaeya\\vo_KYCOP001_1909604_kaeya_06.wem",
                "rate": 1.0,
                "avatarName": "",
                "emotion": ""
            }
        ]
    },
    "a23e07e7-6176-4e42-bcb4-b739ee4f8cef": {
        "Guid": "a23e07e7-6176-4e42-bcb4-b739ee4f8cef",
        "playRate": 1.0,
        "GameTrigger": "Dialog",
        "gameTriggerArgs": 190960435,
        "personalConfig": 2,
        "ParentID": "6c18424b-0e6d-4ae2-a3e9-6c3f8ce38d73",
        "SourceNames": [
            {
                "sourceFileName": "VO_COOP\\VO_npc\\vo_KYCOP001_1909604_connor_15.wem",
                "rate": 1.0,
                "avatarName": "",
                "emotion": ""
            }
        ]
    },
    "a430c29f-cbe3-478c-990e-47fd0839d9fe": {
        "Guid": "a430c29f-cbe3-478c-990e-47fd0839d9fe",
        "playRate": 1.0,
        "GameTrigger": "Dialog",
        "gameTriggerArgs": 190960402,
        "personalConfig": 2,
        "ParentID": "6c18424b-0e6d-4ae2-a3e9-6c3f8ce38d73",
        "SourceNames": [
            {
                "sourceFileName": "VO_COOP\\VO_kaeya\\vo_KYCOP001_1909604_kaeya_01.wem",
                "rate": 1.0,
                "avatarName": "",
                "emotion": ""
            }
        ]
    },
    "af0ac53f-b635-4b88-ab58-d41fe6009b21": {
        "Guid": "af0ac53f-b635-4b88-ab58-d41fe6009b21",
        "playRate": 1.0,
        "GameTrigger": "Dialog",
        "gameTriggerArgs": 190960443,
        "personalConfig": 2,
        "ParentID": "6c18424b-0e6d-4ae2-a3e9-6c3f8ce38d73",
        "SourceNames": [
            {
                "sourceFileName": "VO_COOP\\VO_npc\\vo_KYCOP001_1909604_connor_20.wem",
                "rate": 1.0,
                "avatarName": "",
                "emotion": ""
            }
        ]
    },
    "b140a43d-58bc-418f-a5fe-a8d28a33d169": {
        "Guid": "b140a43d-58bc-418f-a5fe-a8d28a33d169",
        "playRate": 1.0,
        "GameTrigger": "Dialog",
        "gameTriggerArgs": 190960406,
        "personalConfig": 2,
        "ParentID": "6c18424b-0e6d-4ae2-a3e9-6c3f8ce38d73",
        "SourceNames": [
            {
                "sourceFileName": "VO_COOP\\VO_kaeya\\vo_KYCOP001_1909604_kaeya_03.wem",
                "rate": 1.0,
                "avatarName": "",
                "emotion": ""
            }
        ]
    },
    "b65b507c-0d2b-4879-b30a-5d9c227a6998": {
        "Guid": "b65b507c-0d2b-4879-b30a-5d9c227a6998",
        "playRate": 1.0,
        "GameTrigger": "Dialog",
        "gameTriggerArgs": 190960425,
        "personalConfig": 2,
        "ParentID": "6c18424b-0e6d-4ae2-a3e9-6c3f8ce38d73",
        "SourceNames": [
            {
                "sourceFileName": "VO_COOP\\VO_kaeya\\vo_KYCOP001_1909604_kaeya_10.wem",
                "rate": 1.0,
                "avatarName": "",
                "emotion": ""
            }
        ]
    },
    "b96a0493-5444-4d06-8262-8e5fe9638b4a": {
        "Guid": "b96a0493-5444-4d06-8262-8e5fe9638b4a",
        "playRate": 1.0,
        "GameTrigger": "Dialog",
        "gameTriggerArgs": 190960440,
        "personalConfig": 2,
        "ParentID": "6c18424b-0e6d-4ae2-a3e9-6c3f8ce38d73",
        "SourceNames": [
            {
                "sourceFileName": "VO_COOP\\VO_npc\\vo_KYCOP001_1909604_connor_18.wem",
                "rate": 1.0,
                "avatarName": "",
                "emotion": ""
            }
        ]
    },
    "baf4ceaa-512d-43e4-9bd3-97bbb129ce8c": {
        "Guid": "baf4ceaa-512d-43e4-9bd3-97bbb129ce8c",
        "playRate": 1.0,
        "GameTrigger": "Dialog",
        "gameTriggerArgs": 190960405,
        "personalConfig": 2,
        "ParentID": "6c18424b-0e6d-4ae2-a3e9-6c3f8ce38d73",
        "SourceNames": [
            {
                "sourceFileName": "VO_COOP\\VO_npc\\vo_KYCOP001_1909604_elzer_03.wem",
                "rate": 1.0,
                "avatarName": "",
                "emotion": ""
            }
        ]
    },
    "bbe3fbf9-9b22-477f-9c5c-526711b81600": {
        "Guid": "bbe3fbf9-9b22-477f-9c5c-526711b81600",
        "playRate": 1.0,
        "GameTrigger": "Dialog",
        "gameTriggerArgs": 190960417,
        "personalConfig": 2,
        "ParentID": "6c18424b-0e6d-4ae2-a3e9-6c3f8ce38d73",
        "SourceNames": [
            {
                "sourceFileName": "VO_COOP\\VO_npc\\vo_KYCOP001_1909604_connor_06.wem",
                "rate": 1.0,
                "avatarName": "",
                "emotion": ""
            }
        ]
    },
    "cbe7d218-e433-4481-8797-1fba75ab7f39": {
        "Guid": "cbe7d218-e433-4481-8797-1fba75ab7f39",
        "playRate": 1.0,
        "GameTrigger": "Dialog",
        "gameTriggerArgs": 190960418,
        "personalConfig": 2,
        "ParentID": "6c18424b-0e6d-4ae2-a3e9-6c3f8ce38d73",
        "SourceNames": [
            {
                "sourceFileName": "VO_COOP\\VO_npc\\vo_KYCOP001_1909604_connor_07.wem",
                "rate": 1.0,
                "avatarName": "",
                "emotion": ""
            }
        ]
    },
    "cd3edf6e-3b7b-4307-aaf2-7ce443a108f0": {
        "Guid": "cd3edf6e-3b7b-4307-aaf2-7ce443a108f0",
        "playRate": 1.0,
        "GameTrigger": "Dialog",
        "gameTriggerArgs": 190960427,
        "personalConfig": 2,
        "ParentID": "6c18424b-0e6d-4ae2-a3e9-6c3f8ce38d73",
        "SourceNames": [
            {
                "sourceFileName": "VO_COOP\\VO_kaeya\\vo_KYCOP001_1909604_kaeya_11.wem",
                "rate": 1.0,
                "avatarName": "",
                "emotion": ""
            }
        ]
    },
    "ce2fd1c4-7ce8-475a-88f9-70ec60bf4a45": {
        "Guid": "ce2fd1c4-7ce8-475a-88f9-70ec60bf4a45",
        "playRate": 1.0,
        "GameTrigger": "Dialog",
        "gameTriggerArgs": 190960403,
        "personalConfig": 2,
        "ParentID": "6c18424b-0e6d-4ae2-a3e9-6c3f8ce38d73",
        "SourceNames": [
            {
                "sourceFileName": "VO_COOP\\VO_npc\\vo_KYCOP001_1909604_elzer_02.wem",
                "rate": 1.0,
                "avatarName": "",
                "emotion": ""
            }
        ]
    },
    "d132a7c7-30b5-497a-b1f8-d1fa20f5d258": {
        "Guid": "d132a7c7-30b5-497a-b1f8-d1fa20f5d258",
        "playRate": 1.0,
        "GameTrigger": "Dialog",
        "gameTriggerArgs": 190960415,
        "personalConfig": 2,
        "ParentID": "6c18424b-0e6d-4ae2-a3e9-6c3f8ce38d73",
        "SourceNames": [
            {
                "sourceFileName": "VO_COOP\\VO_npc\\vo_KYCOP001_1909604_connor_05.wem",
                "rate": 1.0,
                "avatarName": "",
                "emotion": ""
            }
        ]
    },
    "d3e15ad8-87d5-4120-91b6-27573bd9edf4": {
        "Guid": "d3e15ad8-87d5-4120-91b6-27573bd9edf4",
        "playRate": 1.0,
        "GameTrigger": "Dialog",
        "gameTriggerArgs": 190960419,
        "personalConfig": 2,
        "ParentID": "6c18424b-0e6d-4ae2-a3e9-6c3f8ce38d73",
        "SourceNames": [
            {
                "sourceFileName": "VO_COOP\\VO_npc\\vo_KYCOP001_1909604_connor_08.wem",
                "rate": 1.0,
                "avatarName": "",
                "emotion": ""
            }
        ]
    },
    "e0e8b198-4f66-4b94-a496-9f4566830100": {
        "Guid": "e0e8b198-4f66-4b94-a496-9f4566830100",
        "playRate": 1.0,
        "GameTrigger": "Dialog",
        "gameTriggerArgs": 190960433,
        "personalConfig": 2,
        "ParentID": "6c18424b-0e6d-4ae2-a3e9-6c3f8ce38d73",
        "SourceNames": [
            {
                "sourceFileName": "VO_COOP\\VO_kaeya\\vo_KYCOP001_1909604_kaeya_15.wem",
                "rate": 1.0,
                "avatarName": "",
                "emotion": ""
            }
        ]
    },
    "f963063b-532e-4013-ac71-82cb18707f1a": {
        "Guid": "f963063b-532e-4013-ac71-82cb18707f1a",
        "playRate": 1.0,
        "GameTrigger": "Dialog",
        "gameTriggerArgs": 190960421,
        "personalConfig": 2,
        "ParentID": "6c18424b-0e6d-4ae2-a3e9-6c3f8ce38d73",
        "SourceNames": [
            {
                "sourceFileName": "VO_COOP\\VO_npc\\vo_KYCOP001_1909604_connor_09.wem",
                "rate": 1.0,
                "avatarName": "",
                "emotion": ""
            }
        ]
    },
    "fb4b7558-806a-4785-8723-5c4d8a05fc39": {
        "Guid": "fb4b7558-806a-4785-8723-5c4d8a05fc39",
        "playRate": 1.0,
        "GameTrigger": "Dialog",
        "gameTriggerArgs": 190960438,
        "personalConfig": 2,
        "ParentID": "6c18424b-0e6d-4ae2-a3e9-6c3f8ce38d73",
        "SourceNames": [
            {
                "sourceFileName": "VO_COOP\\VO_npc\\vo_KYCOP001_1909604_connor_16.wem",
                "rate": 1.0,
                "avatarName": "",
                "emotion": ""
            }
        ]
    }
}