{
    "10dc846b-18ef-44b7-8495-6240777c1f41": {
        "Guid": "10dc846b-18ef-44b7-8495-6240777c1f41",
        "playRate": 1.0,
        "GameTrigger": "Dialog",
        "gameTriggerArgs": 140090809,
        "personalConfig": 2,
        "ParentID": "40b32f52-c677-42d4-9f85-eb8c1574bf0f",
        "SourceNames": [
            {
                "sourceFileName": "VO_LQ\\VO_npc\\vo_SLLQ003_13_goldet_06.wem",
                "rate": 1.0,
                "avatarName": "",
                "emotion": ""
            }
        ]
    },
    "1b50561a-b319-4d6c-b972-e7685c5729ae": {
        "Guid": "1b50561a-b319-4d6c-b972-e7685c5729ae",
        "playRate": 1.0,
        "GameTrigger": "Dialog",
        "gameTriggerArgs": 140090808,
        "personalConfig": 2,
        "ParentID": "40b32f52-c677-42d4-9f85-eb8c1574bf0f",
        "SourceNames": [
            {
                "sourceFileName": "VO_LQ\\VO_paimon\\vo_SLLQ003_13_paimon_02.wem",
                "rate": 1.0,
                "avatarName": "",
                "emotion": ""
            }
        ]
    },
    "253a543a-3085-4727-acbd-dbddfa6de996": {
        "Guid": "253a543a-3085-4727-acbd-dbddfa6de996",
        "playRate": 1.0,
        "GameTrigger": "Dialog",
        "gameTriggerArgs": 140090803,
        "personalConfig": 2,
        "ParentID": "40b32f52-c677-42d4-9f85-eb8c1574bf0f",
        "SourceNames": [
            {
                "sourceFileName": "VO_LQ\\VO_npc\\vo_SLLQ003_13_goldet_02.wem",
                "rate": 1.0,
                "avatarName": "",
                "emotion": ""
            }
        ]
    },
    "484daf15-7068-49cf-add1-ef2ef92b39a7": {
        "Guid": "484daf15-7068-49cf-add1-ef2ef92b39a7",
        "playRate": 1.0,
        "GameTrigger": "Dialog",
        "gameTriggerArgs": 140090806,
        "personalConfig": 2,
        "ParentID": "40b32f52-c677-42d4-9f85-eb8c1574bf0f",
        "SourceNames": [
            {
                "sourceFileName": "VO_LQ\\VO_npc\\vo_SLLQ003_13_goldet_04.wem",
                "rate": 1.0,
                "avatarName": "",
                "emotion": ""
            }
        ]
    },
    "78b8cda0-d961-45ff-a90d-1dc46e8293c4": {
        "Guid": "78b8cda0-d961-45ff-a90d-1dc46e8293c4",
        "playRate": 1.0,
        "GameTrigger": "Dialog",
        "gameTriggerArgs": 140090805,
        "personalConfig": 2,
        "ParentID": "40b32f52-c677-42d4-9f85-eb8c1574bf0f",
        "SourceNames": [
            {
                "sourceFileName": "VO_LQ\\VO_npc\\vo_SLLQ003_13_goldet_03.wem",
                "rate": 1.0,
                "avatarName": "",
                "emotion": ""
            }
        ]
    },
    "ac42df96-6cdc-4938-8ae2-baeea34020a6": {
        "Guid": "ac42df96-6cdc-4938-8ae2-baeea34020a6",
        "playRate": 1.0,
        "GameTrigger": "Dialog",
        "gameTriggerArgs": 140090801,
        "personalConfig": 2,
        "ParentID": "40b32f52-c677-42d4-9f85-eb8c1574bf0f",
        "SourceNames": [
            {
                "sourceFileName": "VO_LQ\\VO_npc\\vo_SLLQ003_13_goldet_01.wem",
                "rate": 1.0,
                "avatarName": "",
                "emotion": ""
            }
        ]
    },
    "b9520906-e7a8-43a9-97cf-44ac3f87b139": {
        "Guid": "b9520906-e7a8-43a9-97cf-44ac3f87b139",
        "playRate": 1.0,
        "GameTrigger": "Dialog",
        "gameTriggerArgs": 140090807,
        "personalConfig": 2,
        "ParentID": "40b32f52-c677-42d4-9f85-eb8c1574bf0f",
        "SourceNames": [
            {
                "sourceFileName": "VO_LQ\\VO_npc\\vo_SLLQ003_13_goldet_05.wem",
                "rate": 1.0,
                "avatarName": "",
                "emotion": ""
            }
        ]
    },
    "ce598f03-8bd6-44d5-94c9-c104f1581849": {
        "Guid": "ce598f03-8bd6-44d5-94c9-c104f1581849",
        "playRate": 1.0,
        "GameTrigger": "Dialog",
        "gameTriggerArgs": 140090804,
        "personalConfig": 2,
        "ParentID": "40b32f52-c677-42d4-9f85-eb8c1574bf0f",
        "SourceNames": [
            {
                "sourceFileName": "VO_LQ\\VO_paimon\\vo_SLLQ003_13_paimon_01.wem",
                "rate": 1.0,
                "avatarName": "",
                "emotion": ""
            }
        ]
    },
    "d0df2c15-94e3-45dd-b461-7875527cf50b": {
        "Guid": "d0df2c15-94e3-45dd-b461-7875527cf50b",
        "playRate": 1.0,
        "GameTrigger": "Dialog",
        "gameTriggerArgs": 140090810,
        "personalConfig": 2,
        "ParentID": "40b32f52-c677-42d4-9f85-eb8c1574bf0f",
        "SourceNames": [
            {
                "sourceFileName": "VO_LQ\\VO_npc\\vo_SLLQ003_13_goldet_07.wem",
                "rate": 1.0,
                "avatarName": "",
                "emotion": ""
            }
        ]
    }
}