{
    "7919e8ae-dbf4-4ec6-b070-070474435ce1": {
        "JFNDAOJCHPO": "7919e8ae-dbf4-4ec6-b070-070474435ce1",
        "JOEFDKMFMIA": 1.0,
        "BFKCDJLLGNJ": "Dialog",
        "FMHLBONJKPJ": 40221718,
        "JPMLINEFNCM": 2,
        "FGIMEKGHJFB": "d72c252e-a0e1-4ff3-be55-ac38b7153013",
        "OFEEIPOMNKD": [
            {
                "CBGLAJNLFCB": "VO_AQ\\VO_paimon\\vo_FDAQ308_2_paimon_02.wem",
                "HBDMHPLJGBG": 1.0,
                "GJMDHCLJGHH": "",
                "GCAGMFHFFML": ""
            }
        ]
    },
    "aec2ccc2-7465-47cf-8218-aa90022a79a2": {
        "JFNDAOJCHPO": "aec2ccc2-7465-47cf-8218-aa90022a79a2",
        "JOEFDKMFMIA": 1.0,
        "BFKCDJLLGNJ": "Dialog",
        "FMHLBONJKPJ": 40221721,
        "JPMLINEFNCM": 2,
        "FGIMEKGHJFB": "d72c252e-a0e1-4ff3-be55-ac38b7153013",
        "OFEEIPOMNKD": [
            {
                "CBGLAJNLFCB": "VO_AQ\\VO_paimon\\vo_FDAQ308_2_paimon_03.wem",
                "HBDMHPLJGBG": 1.0,
                "GJMDHCLJGHH": "",
                "GCAGMFHFFML": ""
            }
        ]
    },
    "ecbd02e7-3fc8-4c28-bc44-932c70e1d735": {
        "JFNDAOJCHPO": "ecbd02e7-3fc8-4c28-bc44-932c70e1d735",
        "JOEFDKMFMIA": 1.0,
        "BFKCDJLLGNJ": "Dialog",
        "FMHLBONJKPJ": 40221712,
        "JPMLINEFNCM": 2,
        "FGIMEKGHJFB": "d72c252e-a0e1-4ff3-be55-ac38b7153013",
        "OFEEIPOMNKD": [
            {
                "CBGLAJNLFCB": "VO_AQ\\VO_paimon\\vo_FDAQ308_2_paimon_01.wem",
                "HBDMHPLJGBG": 1.0,
                "GJMDHCLJGHH": "",
                "GCAGMFHFFML": ""
            }
        ]
    }
}