{
  "102dfdd7-90d7-4176-80d9-7d50c4f53653": {
    "HLGGFCENLPA": "102dfdd7-90d7-4176-80d9-7d50c4f53653",
    "MKHDAJHOOJF": 1.0,
    "BEHKGKMMAPD": "Dialog",
    "FFDHLEAFBLM": 140170914,
    "LFIFIPFFFKO": 2,
    "MCKHLBHHEDL": "2dad8f3c-3593-479c-9aed-62b7be668f1a",
    "EIKJKDICKMJ": [
      {
        "HLGOMILNFNK": "VO_LQ\\VO_npc\\vo_NVLQ003_6_florent_03.wem",
        "EJNOJBCBJPP": 1.0,
        "KAGFOFEDGIA": "",
        "NNBGHAJLJLA": ""
      }
    ]
  },
  "29c23c65-e11a-444e-aa0f-edcef390a281": {
    "HLGGFCENLPA": "29c23c65-e11a-444e-aa0f-edcef390a281",
    "MKHDAJHOOJF": 1.0,
    "BEHKGKMMAPD": "Dialog",
    "FFDHLEAFBLM": 140170910,
    "LFIFIPFFFKO": 2,
    "MCKHLBHHEDL": "2dad8f3c-3593-479c-9aed-62b7be668f1a",
    "EIKJKDICKMJ": [
      {
        "HLGOMILNFNK": "VO_LQ\\VO_paimon\\vo_NVLQ003_6_paimon_03a.wem",
        "EJNOJBCBJPP": 1.0,
        "KAGFOFEDGIA": "",
        "NNBGHAJLJLA": "",
        "BBKIPNLMMCL": 2
      },
      {
        "HLGOMILNFNK": "VO_LQ\\VO_paimon\\vo_NVLQ003_6_paimon_03b.wem",
        "EJNOJBCBJPP": 1.0,
        "KAGFOFEDGIA": "",
        "NNBGHAJLJLA": "",
        "BBKIPNLMMCL": 1
      }
    ]
  },
  "2e6ca581-60bb-495f-8386-37323d6fff9b": {
    "HLGGFCENLPA": "2e6ca581-60bb-495f-8386-37323d6fff9b",
    "MKHDAJHOOJF": 1.0,
    "BEHKGKMMAPD": "Dialog",
    "FFDHLEAFBLM": 140170913,
    "LFIFIPFFFKO": 2,
    "MCKHLBHHEDL": "2dad8f3c-3593-479c-9aed-62b7be668f1a",
    "EIKJKDICKMJ": [
      {
        "HLGOMILNFNK": "VO_LQ\\VO_navia\\vo_NVLQ003_6_navia_06.wem",
        "EJNOJBCBJPP": 1.0,
        "KAGFOFEDGIA": "",
        "NNBGHAJLJLA": ""
      }
    ]
  },
  "4977542f-d6d6-4977-8a5f-6146a26c535c": {
    "HLGGFCENLPA": "4977542f-d6d6-4977-8a5f-6146a26c535c",
    "MKHDAJHOOJF": 1.0,
    "BEHKGKMMAPD": "Dialog",
    "FFDHLEAFBLM": 140170903,
    "LFIFIPFFFKO": 2,
    "MCKHLBHHEDL": "2dad8f3c-3593-479c-9aed-62b7be668f1a",
    "EIKJKDICKMJ": [
      {
        "HLGOMILNFNK": "VO_LQ\\VO_navia\\vo_NVLQ003_6_navia_02.wem",
        "EJNOJBCBJPP": 1.0,
        "KAGFOFEDGIA": "",
        "NNBGHAJLJLA": ""
      }
    ]
  },
  "5863ed4c-5dd3-43ff-b982-c95038b31ee6": {
    "HLGGFCENLPA": "5863ed4c-5dd3-43ff-b982-c95038b31ee6",
    "MKHDAJHOOJF": 1.0,
    "BEHKGKMMAPD": "Dialog",
    "FFDHLEAFBLM": 140170901,
    "LFIFIPFFFKO": 2,
    "MCKHLBHHEDL": "2dad8f3c-3593-479c-9aed-62b7be668f1a",
    "EIKJKDICKMJ": [
      {
        "HLGOMILNFNK": "VO_LQ\\VO_paimon\\vo_NVLQ003_6_paimon_01.wem",
        "EJNOJBCBJPP": 1.0,
        "KAGFOFEDGIA": "",
        "NNBGHAJLJLA": ""
      }
    ]
  },
  "b4c0eac7-f046-4c9f-9f50-eae677b319ac": {
    "HLGGFCENLPA": "b4c0eac7-f046-4c9f-9f50-eae677b319ac",
    "MKHDAJHOOJF": 1.0,
    "BEHKGKMMAPD": "Dialog",
    "FFDHLEAFBLM": 140170906,
    "LFIFIPFFFKO": 2,
    "MCKHLBHHEDL": "2dad8f3c-3593-479c-9aed-62b7be668f1a",
    "EIKJKDICKMJ": [
      {
        "HLGOMILNFNK": "VO_LQ\\VO_navia\\vo_NVLQ003_6_navia_03.wem",
        "EJNOJBCBJPP": 1.0,
        "KAGFOFEDGIA": "",
        "NNBGHAJLJLA": ""
      }
    ]
  },
  "c35273d4-98b1-4059-8e59-c2cadfbc91d2": {
    "HLGGFCENLPA": "c35273d4-98b1-4059-8e59-c2cadfbc91d2",
    "MKHDAJHOOJF": 1.0,
    "BEHKGKMMAPD": "Dialog",
    "FFDHLEAFBLM": 140170912,
    "LFIFIPFFFKO": 2,
    "MCKHLBHHEDL": "2dad8f3c-3593-479c-9aed-62b7be668f1a",
    "EIKJKDICKMJ": [
      {
        "HLGOMILNFNK": "VO_LQ\\VO_npc\\vo_NVLQ003_6_florent_02.wem",
        "EJNOJBCBJPP": 1.0,
        "KAGFOFEDGIA": "",
        "NNBGHAJLJLA": ""
      }
    ]
  },
  "e935fcaf-913e-4d2f-99ce-a64520322acd": {
    "HLGGFCENLPA": "e935fcaf-913e-4d2f-99ce-a64520322acd",
    "MKHDAJHOOJF": 1.0,
    "BEHKGKMMAPD": "Dialog",
    "FFDHLEAFBLM": 140170909,
    "LFIFIPFFFKO": 2,
    "MCKHLBHHEDL": "2dad8f3c-3593-479c-9aed-62b7be668f1a",
    "EIKJKDICKMJ": [
      {
        "HLGOMILNFNK": "VO_LQ\\VO_paimon\\vo_NVLQ003_6_paimon_02.wem",
        "EJNOJBCBJPP": 1.0,
        "KAGFOFEDGIA": "",
        "NNBGHAJLJLA": ""
      }
    ]
  },
  "ec15a7c7-824d-449d-ba8b-561bed3d83e9": {
    "HLGGFCENLPA": "ec15a7c7-824d-449d-ba8b-561bed3d83e9",
    "MKHDAJHOOJF": 1.0,
    "BEHKGKMMAPD": "Dialog",
    "FFDHLEAFBLM": 140170911,
    "LFIFIPFFFKO": 2,
    "MCKHLBHHEDL": "2dad8f3c-3593-479c-9aed-62b7be668f1a",
    "EIKJKDICKMJ": [
      {
        "HLGOMILNFNK": "VO_LQ\\VO_npc\\vo_NVLQ003_6_florent_01.wem",
        "EJNOJBCBJPP": 1.0,
        "KAGFOFEDGIA": "",
        "NNBGHAJLJLA": ""
      }
    ]
  },
  "ee2bbd72-2f57-4dd7-ac94-9494396eb911": {
    "HLGGFCENLPA": "ee2bbd72-2f57-4dd7-ac94-9494396eb911",
    "MKHDAJHOOJF": 1.0,
    "BEHKGKMMAPD": "Dialog",
    "FFDHLEAFBLM": 140170902,
    "LFIFIPFFFKO": 2,
    "MCKHLBHHEDL": "2dad8f3c-3593-479c-9aed-62b7be668f1a",
    "EIKJKDICKMJ": [
      {
        "HLGOMILNFNK": "VO_LQ\\VO_navia\\vo_NVLQ003_6_navia_01.wem",
        "EJNOJBCBJPP": 1.0,
        "KAGFOFEDGIA": "",
        "NNBGHAJLJLA": ""
      }
    ]
  },
  "ef05e9bf-fdc3-4c6f-aecf-94a72273b342": {
    "HLGGFCENLPA": "ef05e9bf-fdc3-4c6f-aecf-94a72273b342",
    "MKHDAJHOOJF": 1.0,
    "BEHKGKMMAPD": "Dialog",
    "FFDHLEAFBLM": 140170907,
    "LFIFIPFFFKO": 2,
    "MCKHLBHHEDL": "2dad8f3c-3593-479c-9aed-62b7be668f1a",
    "EIKJKDICKMJ": [
      {
        "HLGOMILNFNK": "VO_LQ\\VO_navia\\vo_NVLQ003_6_navia_04.wem",
        "EJNOJBCBJPP": 1.0,
        "KAGFOFEDGIA": "",
        "NNBGHAJLJLA": ""
      }
    ]
  },
  "f1f5bde8-f2d6-4357-aab5-c23297b75ef0": {
    "HLGGFCENLPA": "f1f5bde8-f2d6-4357-aab5-c23297b75ef0",
    "MKHDAJHOOJF": 1.0,
    "BEHKGKMMAPD": "Dialog",
    "FFDHLEAFBLM": 140170908,
    "LFIFIPFFFKO": 2,
    "MCKHLBHHEDL": "2dad8f3c-3593-479c-9aed-62b7be668f1a",
    "EIKJKDICKMJ": [
      {
        "HLGOMILNFNK": "VO_LQ\\VO_navia\\vo_NVLQ003_6_navia_05.wem",
        "EJNOJBCBJPP": 1.0,
        "KAGFOFEDGIA": "",
        "NNBGHAJLJLA": ""
      }
    ]
  }
}