{
    "18306038-8b6c-48ea-8ade-ad908f7a3e01": {
        "HLGGFCENLPA": "18306038-8b6c-48ea-8ade-ad908f7a3e01",
        "MKHDAJHOOJF": 1.0,
        "BEHKGKMMAPD": "Dialog",
        "FFDHLEAFBLM": 401349905,
        "LFIFIPFFFKO": 2,
        "IKIJBIOJKDE": true,
        "MCKHLBHHEDL": "c0f9a3fb-07a4-4f65-bf99-e2f915b750ea",
        "EIKJKDICKMJ": [
            {
                "HLGOMILNFNK": "VO_EQ\\VO_ayaka\\vo_DYJEQ003_3_ayaka_01.wem",
                "EJNOJBCBJPP": 1.0,
                "KAGFOFEDGIA": "",
                "NNBGHAJLJLA": ""
            }
        ]
    },
    "327d6e64-991b-44af-8ed1-c6633485031f": {
        "HLGGFCENLPA": "327d6e64-991b-44af-8ed1-c6633485031f",
        "MKHDAJHOOJF": 1.0,
        "BEHKGKMMAPD": "Dialog",
        "FFDHLEAFBLM": 401349906,
        "LFIFIPFFFKO": 2,
        "IKIJBIOJKDE": true,
        "MCKHLBHHEDL": "c0f9a3fb-07a4-4f65-bf99-e2f915b750ea",
        "EIKJKDICKMJ": [
            {
                "HLGOMILNFNK": "VO_EQ\\VO_chevreuse\\vo_DYJEQ003_3_chevreuse_01.wem",
                "EJNOJBCBJPP": 1.0,
                "KAGFOFEDGIA": "",
                "NNBGHAJLJLA": ""
            }
        ]
    },
    "7bbb1768-c518-4e81-90ec-4043aa70bdbf": {
        "HLGGFCENLPA": "7bbb1768-c518-4e81-90ec-4043aa70bdbf",
        "MKHDAJHOOJF": 1.0,
        "BEHKGKMMAPD": "Dialog",
        "FFDHLEAFBLM": 401349904,
        "LFIFIPFFFKO": 2,
        "IKIJBIOJKDE": true,
        "MCKHLBHHEDL": "c0f9a3fb-07a4-4f65-bf99-e2f915b750ea",
        "EIKJKDICKMJ": [
            {
                "HLGOMILNFNK": "VO_EQ\\VO_NPC\\vo_DYJEQ003_3_buraud_01.wem",
                "EJNOJBCBJPP": 1.0,
                "KAGFOFEDGIA": "",
                "NNBGHAJLJLA": ""
            }
        ]
    },
    "951b014b-6785-424b-b61a-0177ff054628": {
        "HLGGFCENLPA": "951b014b-6785-424b-b61a-0177ff054628",
        "MKHDAJHOOJF": 1.0,
        "BEHKGKMMAPD": "Dialog",
        "FFDHLEAFBLM": 401349907,
        "LFIFIPFFFKO": 2,
        "IKIJBIOJKDE": true,
        "MCKHLBHHEDL": "c0f9a3fb-07a4-4f65-bf99-e2f915b750ea",
        "EIKJKDICKMJ": [
            {
                "HLGOMILNFNK": "VO_EQ\\VO_chevreuse\\vo_DYJEQ003_3_chevreuse_02.wem",
                "EJNOJBCBJPP": 1.0,
                "KAGFOFEDGIA": "",
                "NNBGHAJLJLA": ""
            }
        ]
    }
}