{
    "00585c0b-5e89-4587-95d3-4a1e22a05287": {
        "Guid": "00585c0b-5e89-4587-95d3-4a1e22a05287",
        "playRate": 1.0,
        "GameTrigger": "Dialog",
        "gameTriggerArgs": 191580320,
        "personalConfig": 2,
        "ParentID": "9568ed0a-3b4b-4c7f-8279-e0cacc9186d3",
        "SourceNames": [
            {
                "sourceFileName": "VO_COOP\\VO_layla\\vo_LYLCOP001_1915802_layla_18.wem",
                "rate": 1.0,
                "avatarName": "",
                "emotion": ""
            }
        ]
    },
    "014cca28-6a88-4537-b19b-6e8dca6e6fe7": {
        "Guid": "014cca28-6a88-4537-b19b-6e8dca6e6fe7",
        "playRate": 1.0,
        "GameTrigger": "Dialog",
        "gameTriggerArgs": 191580621,
        "personalConfig": 2,
        "ParentID": "9568ed0a-3b4b-4c7f-8279-e0cacc9186d3",
        "SourceNames": [
            {
                "sourceFileName": "VO_COOP\\VO_layla\\vo_LYLCOP001_1915802_layla_38.wem",
                "rate": 1.0,
                "avatarName": "",
                "emotion": ""
            }
        ]
    },
    "0f787ecf-303e-4480-ae4d-c34dd23aa325": {
        "Guid": "0f787ecf-303e-4480-ae4d-c34dd23aa325",
        "playRate": 1.0,
        "GameTrigger": "Dialog",
        "gameTriggerArgs": 191580623,
        "personalConfig": 2,
        "ParentID": "9568ed0a-3b4b-4c7f-8279-e0cacc9186d3",
        "SourceNames": [
            {
                "sourceFileName": "VO_COOP\\VO_npc\\vo_LYLCOP001_1915802_azzam_26.wem",
                "rate": 1.0,
                "avatarName": "",
                "emotion": ""
            }
        ]
    },
    "19700fcd-4314-4192-a435-70ff219ef5a7": {
        "Guid": "19700fcd-4314-4192-a435-70ff219ef5a7",
        "playRate": 1.0,
        "GameTrigger": "Dialog",
        "gameTriggerArgs": 191580640,
        "personalConfig": 2,
        "ParentID": "9568ed0a-3b4b-4c7f-8279-e0cacc9186d3",
        "SourceNames": [
            {
                "sourceFileName": "VO_COOP\\VO_layla\\vo_LYLCOP001_1915802_layla_50.wem",
                "rate": 1.0,
                "avatarName": "",
                "emotion": ""
            }
        ]
    },
    "198464bd-41e8-4c52-b95f-d6f309dcdfe9": {
        "Guid": "198464bd-41e8-4c52-b95f-d6f309dcdfe9",
        "playRate": 1.0,
        "GameTrigger": "Dialog",
        "gameTriggerArgs": 191580609,
        "personalConfig": 2,
        "GIFECDGOOPJ": 1,
        "ParentID": "9568ed0a-3b4b-4c7f-8279-e0cacc9186d3",
        "SourceNames": [
            {
                "sourceFileName": "VO_COOP\\VO_npc\\vo_LYLCOP001_1915802_azzam_20.wem",
                "rate": 1.0,
                "avatarName": "",
                "emotion": ""
            }
        ]
    },
    "19d76310-bf3c-4f6a-a4ac-869234bb0332": {
        "Guid": "19d76310-bf3c-4f6a-a4ac-869234bb0332",
        "playRate": 1.0,
        "GameTrigger": "Dialog",
        "gameTriggerArgs": 191580324,
        "personalConfig": 2,
        "ParentID": "9568ed0a-3b4b-4c7f-8279-e0cacc9186d3",
        "SourceNames": [
            {
                "sourceFileName": "VO_COOP\\VO_layla\\vo_LYLCOP001_1915802_layla_19.wem",
                "rate": 1.0,
                "avatarName": "",
                "emotion": ""
            }
        ]
    },
    "19fe2a47-662b-4a8b-b4de-c203472c2f05": {
        "Guid": "19fe2a47-662b-4a8b-b4de-c203472c2f05",
        "playRate": 1.0,
        "GameTrigger": "Dialog",
        "gameTriggerArgs": 191589901,
        "personalConfig": 2,
        "GIFECDGOOPJ": 1,
        "IsPlayOnTeam": true,
        "ParentID": "9568ed0a-3b4b-4c7f-8279-e0cacc9186d3",
        "SourceNames": [
            {
                "sourceFileName": "VO_COOP\\VO_npc\\vo_LYLCOP001_1915802_azzam_28.wem",
                "rate": 1.0,
                "avatarName": "",
                "emotion": ""
            }
        ]
    },
    "1f07555a-1f57-4de9-9504-8f4b91dc59e2": {
        "Guid": "1f07555a-1f57-4de9-9504-8f4b91dc59e2",
        "playRate": 1.0,
        "GameTrigger": "Dialog",
        "gameTriggerArgs": 191580323,
        "personalConfig": 2,
        "ParentID": "9568ed0a-3b4b-4c7f-8279-e0cacc9186d3",
        "SourceNames": [
            {
                "sourceFileName": "VO_COOP\\VO_npc\\vo_LYLCOP001_1915802_azzam_18.wem",
                "rate": 1.0,
                "avatarName": "",
                "emotion": ""
            }
        ]
    },
    "1f482eb8-545e-4fe4-933d-2effbef6cbe3": {
        "Guid": "1f482eb8-545e-4fe4-933d-2effbef6cbe3",
        "playRate": 1.0,
        "GameTrigger": "Dialog",
        "gameTriggerArgs": 191589902,
        "personalConfig": 2,
        "GIFECDGOOPJ": 1,
        "IsPlayOnTeam": true,
        "ParentID": "9568ed0a-3b4b-4c7f-8279-e0cacc9186d3",
        "SourceNames": [
            {
                "sourceFileName": "VO_COOP\\VO_npc\\vo_LYLCOP001_1915802_azzam_29.wem",
                "rate": 1.0,
                "avatarName": "",
                "emotion": ""
            }
        ]
    },
    "20f848b9-ce78-4624-b1a5-52dc1c364031": {
        "Guid": "20f848b9-ce78-4624-b1a5-52dc1c364031",
        "playRate": 1.0,
        "GameTrigger": "Dialog",
        "gameTriggerArgs": 191580616,
        "personalConfig": 2,
        "ParentID": "9568ed0a-3b4b-4c7f-8279-e0cacc9186d3",
        "SourceNames": [
            {
                "sourceFileName": "VO_COOP\\VO_npc\\vo_LYLCOP001_1915802_azzam_23.wem",
                "rate": 1.0,
                "avatarName": "",
                "emotion": ""
            }
        ]
    },
    "2b15221b-b1ba-4d6c-8b49-8d1471892528": {
        "Guid": "2b15221b-b1ba-4d6c-8b49-8d1471892528",
        "playRate": 1.0,
        "GameTrigger": "Dialog",
        "gameTriggerArgs": 191580327,
        "personalConfig": 2,
        "ParentID": "9568ed0a-3b4b-4c7f-8279-e0cacc9186d3",
        "SourceNames": [
            {
                "sourceFileName": "VO_COOP\\VO_layla\\vo_LYLCOP001_1915802_layla_21.wem",
                "rate": 1.0,
                "avatarName": "",
                "emotion": ""
            }
        ]
    },
    "2ca4c82b-59ae-4a8e-ae4c-90b658cdbd84": {
        "Guid": "2ca4c82b-59ae-4a8e-ae4c-90b658cdbd84",
        "playRate": 1.0,
        "GameTrigger": "Dialog",
        "gameTriggerArgs": 191580645,
        "personalConfig": 2,
        "ParentID": "9568ed0a-3b4b-4c7f-8279-e0cacc9186d3",
        "SourceNames": [
            {
                "sourceFileName": "VO_COOP\\VO_layla\\vo_LYLCOP001_1915802_layla_54.wem",
                "rate": 1.0,
                "avatarName": "",
                "emotion": ""
            }
        ]
    },
    "2ec17cd1-9333-4cb4-bfa3-dba248ab4352": {
        "Guid": "2ec17cd1-9333-4cb4-bfa3-dba248ab4352",
        "playRate": 1.0,
        "GameTrigger": "Dialog",
        "gameTriggerArgs": 191590801,
        "personalConfig": 2,
        "ParentID": "9568ed0a-3b4b-4c7f-8279-e0cacc9186d3",
        "SourceNames": [
            {
                "sourceFileName": "VO_COOP\\VO_npc\\vo_LYLCOP001_1915802_azzam_27.wem",
                "rate": 1.0,
                "avatarName": "",
                "emotion": ""
            }
        ]
    },
    "30e10f45-6711-4182-9a95-aa360be5c984": {
        "Guid": "30e10f45-6711-4182-9a95-aa360be5c984",
        "playRate": 1.0,
        "GameTrigger": "Dialog",
        "gameTriggerArgs": 191580628,
        "personalConfig": 2,
        "ParentID": "9568ed0a-3b4b-4c7f-8279-e0cacc9186d3",
        "SourceNames": [
            {
                "sourceFileName": "VO_COOP\\VO_layla\\vo_LYLCOP001_1915802_layla_42.wem",
                "rate": 1.0,
                "avatarName": "",
                "emotion": ""
            }
        ]
    },
    "33296be3-847b-4cd6-a9bc-61315971d15b": {
        "Guid": "33296be3-847b-4cd6-a9bc-61315971d15b",
        "playRate": 1.0,
        "GameTrigger": "Dialog",
        "gameTriggerArgs": 191580615,
        "personalConfig": 2,
        "ParentID": "9568ed0a-3b4b-4c7f-8279-e0cacc9186d3",
        "SourceNames": [
            {
                "sourceFileName": "VO_COOP\\VO_layla\\vo_LYLCOP001_1915802_layla_34.wem",
                "rate": 1.0,
                "avatarName": "",
                "emotion": ""
            }
        ]
    },
    "36b326ef-69e1-46be-ac22-fbf9950b8d6e": {
        "Guid": "36b326ef-69e1-46be-ac22-fbf9950b8d6e",
        "playRate": 1.0,
        "GameTrigger": "Dialog",
        "gameTriggerArgs": 191580634,
        "personalConfig": 2,
        "ParentID": "9568ed0a-3b4b-4c7f-8279-e0cacc9186d3",
        "SourceNames": [
            {
                "sourceFileName": "VO_COOP\\VO_layla\\vo_LYLCOP001_1915802_layla_45.wem",
                "rate": 1.0,
                "avatarName": "",
                "emotion": ""
            }
        ]
    },
    "3812a195-7214-4276-b879-deaedf89c089": {
        "Guid": "3812a195-7214-4276-b879-deaedf89c089",
        "playRate": 1.0,
        "GameTrigger": "Dialog",
        "gameTriggerArgs": 191580212,
        "personalConfig": 2,
        "ParentID": "9568ed0a-3b4b-4c7f-8279-e0cacc9186d3",
        "SourceNames": [
            {
                "sourceFileName": "VO_COOP\\VO_npc\\vo_LYLCOP001_1915802_azzam_06.wem",
                "rate": 1.0,
                "avatarName": "",
                "emotion": ""
            }
        ]
    },
    "3af5a00b-70d0-4599-8657-d1e946ab21a6": {
        "Guid": "3af5a00b-70d0-4599-8657-d1e946ab21a6",
        "playRate": 1.0,
        "GameTrigger": "Dialog",
        "gameTriggerArgs": 191580321,
        "personalConfig": 2,
        "ParentID": "9568ed0a-3b4b-4c7f-8279-e0cacc9186d3",
        "SourceNames": [
            {
                "sourceFileName": "VO_COOP\\VO_npc\\vo_LYLCOP001_1915802_azzam_16.wem",
                "rate": 1.0,
                "avatarName": "",
                "emotion": ""
            }
        ]
    },
    "3cb9188c-7f91-400b-9e04-6075cf5fa47d": {
        "Guid": "3cb9188c-7f91-400b-9e04-6075cf5fa47d",
        "playRate": 1.0,
        "GameTrigger": "Dialog",
        "gameTriggerArgs": 191580637,
        "personalConfig": 2,
        "ParentID": "9568ed0a-3b4b-4c7f-8279-e0cacc9186d3",
        "SourceNames": [
            {
                "sourceFileName": "VO_COOP\\VO_layla\\vo_LYLCOP001_1915802_layla_48.wem",
                "rate": 1.0,
                "avatarName": "",
                "emotion": ""
            }
        ]
    },
    "3e85733d-301b-4267-9aa2-9843cc05dc25": {
        "Guid": "3e85733d-301b-4267-9aa2-9843cc05dc25",
        "playRate": 1.0,
        "GameTrigger": "Dialog",
        "gameTriggerArgs": 191580625,
        "personalConfig": 2,
        "ParentID": "9568ed0a-3b4b-4c7f-8279-e0cacc9186d3",
        "SourceNames": [
            {
                "sourceFileName": "VO_COOP\\VO_layla\\vo_LYLCOP001_1915802_layla_40.wem",
                "rate": 1.0,
                "avatarName": "",
                "emotion": ""
            }
        ]
    },
    "3fc347e2-f04e-418f-9dfc-930a492e6ed7": {
        "Guid": "3fc347e2-f04e-418f-9dfc-930a492e6ed7",
        "playRate": 1.0,
        "GameTrigger": "Dialog",
        "gameTriggerArgs": 191580331,
        "personalConfig": 2,
        "ParentID": "9568ed0a-3b4b-4c7f-8279-e0cacc9186d3",
        "SourceNames": [
            {
                "sourceFileName": "VO_COOP\\VO_layla\\vo_LYLCOP001_1915802_layla_24.wem",
                "rate": 1.0,
                "avatarName": "",
                "emotion": ""
            }
        ]
    },
    "419cc072-4f87-4145-ac4a-0e7d538d3ef5": {
        "Guid": "419cc072-4f87-4145-ac4a-0e7d538d3ef5",
        "playRate": 1.0,
        "GameTrigger": "Dialog",
        "gameTriggerArgs": 191580319,
        "personalConfig": 2,
        "ParentID": "9568ed0a-3b4b-4c7f-8279-e0cacc9186d3",
        "SourceNames": [
            {
                "sourceFileName": "VO_COOP\\VO_npc\\vo_LYLCOP001_1915802_azzam_15.wem",
                "rate": 1.0,
                "avatarName": "",
                "emotion": ""
            }
        ]
    },
    "4700774c-1615-4536-9f0b-21c513e9bae9": {
        "Guid": "4700774c-1615-4536-9f0b-21c513e9bae9",
        "playRate": 1.0,
        "GameTrigger": "Dialog",
        "gameTriggerArgs": 191580315,
        "personalConfig": 2,
        "ParentID": "9568ed0a-3b4b-4c7f-8279-e0cacc9186d3",
        "SourceNames": [
            {
                "sourceFileName": "VO_COOP\\VO_npc\\vo_LYLCOP001_1915802_azzam_13.wem",
                "rate": 1.0,
                "avatarName": "",
                "emotion": ""
            }
        ]
    },
    "4a223790-e2d9-479a-aa1e-f162e82d6edd": {
        "Guid": "4a223790-e2d9-479a-aa1e-f162e82d6edd",
        "playRate": 1.0,
        "GameTrigger": "Dialog",
        "gameTriggerArgs": 191580639,
        "personalConfig": 2,
        "ParentID": "9568ed0a-3b4b-4c7f-8279-e0cacc9186d3",
        "SourceNames": [
            {
                "sourceFileName": "VO_COOP\\VO_layla\\vo_LYLCOP001_1915802_layla_49.wem",
                "rate": 1.0,
                "avatarName": "",
                "emotion": ""
            }
        ]
    },
    "4b668261-516a-4b65-bb44-6425dfd81677": {
        "Guid": "4b668261-516a-4b65-bb44-6425dfd81677",
        "playRate": 1.0,
        "GameTrigger": "Dialog",
        "gameTriggerArgs": 191580322,
        "personalConfig": 2,
        "ParentID": "9568ed0a-3b4b-4c7f-8279-e0cacc9186d3",
        "SourceNames": [
            {
                "sourceFileName": "VO_COOP\\VO_npc\\vo_LYLCOP001_1915802_azzam_17.wem",
                "rate": 1.0,
                "avatarName": "",
                "emotion": ""
            }
        ]
    },
    "4d215ea3-a9ab-4700-87ff-74da3bbe15dc": {
        "Guid": "4d215ea3-a9ab-4700-87ff-74da3bbe15dc",
        "playRate": 1.0,
        "GameTrigger": "Dialog",
        "gameTriggerArgs": 191580214,
        "personalConfig": 2,
        "ParentID": "9568ed0a-3b4b-4c7f-8279-e0cacc9186d3",
        "SourceNames": [
            {
                "sourceFileName": "VO_COOP\\VO_layla\\vo_LYLCOP001_1915802_layla_06.wem",
                "rate": 1.0,
                "avatarName": "",
                "emotion": ""
            }
        ]
    },
    "4d9b97a6-4b98-4a4c-af22-50c3a3bb3372": {
        "Guid": "4d9b97a6-4b98-4a4c-af22-50c3a3bb3372",
        "playRate": 1.0,
        "GameTrigger": "Dialog",
        "gameTriggerArgs": 191580311,
        "personalConfig": 2,
        "ParentID": "9568ed0a-3b4b-4c7f-8279-e0cacc9186d3",
        "SourceNames": [
            {
                "sourceFileName": "VO_COOP\\VO_layla\\vo_LYLCOP001_1915802_layla_13.wem",
                "rate": 1.0,
                "avatarName": "",
                "emotion": ""
            }
        ]
    },
    "4e639a56-160e-4f61-95a9-c09521c2592e": {
        "Guid": "4e639a56-160e-4f61-95a9-c09521c2592e",
        "playRate": 1.0,
        "GameTrigger": "Dialog",
        "gameTriggerArgs": 191580622,
        "personalConfig": 2,
        "ParentID": "9568ed0a-3b4b-4c7f-8279-e0cacc9186d3",
        "SourceNames": [
            {
                "sourceFileName": "VO_COOP\\VO_npc\\vo_LYLCOP001_1915802_azzam_25.wem",
                "rate": 1.0,
                "avatarName": "",
                "emotion": ""
            }
        ]
    },
    "5157a473-a40c-4acf-adb3-756ea3bb6fb1": {
        "Guid": "5157a473-a40c-4acf-adb3-756ea3bb6fb1",
        "playRate": 1.0,
        "GameTrigger": "Dialog",
        "gameTriggerArgs": 191580318,
        "personalConfig": 2,
        "ParentID": "9568ed0a-3b4b-4c7f-8279-e0cacc9186d3",
        "SourceNames": [
            {
                "sourceFileName": "VO_COOP\\VO_npc\\vo_LYLCOP001_1915802_azzam_14.wem",
                "rate": 1.0,
                "avatarName": "",
                "emotion": ""
            }
        ]
    },
    "5f8fda73-19f0-449f-bb17-60d87b7c0336": {
        "Guid": "5f8fda73-19f0-449f-bb17-60d87b7c0336",
        "playRate": 1.0,
        "GameTrigger": "Dialog",
        "gameTriggerArgs": 191580602,
        "personalConfig": 2,
        "ParentID": "9568ed0a-3b4b-4c7f-8279-e0cacc9186d3",
        "SourceNames": [
            {
                "sourceFileName": "VO_COOP\\VO_layla\\vo_LYLCOP001_1915802_layla_27.wem",
                "rate": 1.0,
                "avatarName": "",
                "emotion": ""
            }
        ]
    },
    "6723fc83-6487-4994-a6d5-735b931e20d4": {
        "Guid": "6723fc83-6487-4994-a6d5-735b931e20d4",
        "playRate": 1.0,
        "GameTrigger": "Dialog",
        "gameTriggerArgs": 191580618,
        "personalConfig": 2,
        "ParentID": "9568ed0a-3b4b-4c7f-8279-e0cacc9186d3",
        "SourceNames": [
            {
                "sourceFileName": "VO_COOP\\VO_layla\\vo_LYLCOP001_1915802_layla_36.wem",
                "rate": 1.0,
                "avatarName": "",
                "emotion": ""
            }
        ]
    },
    "674853b4-1f8c-4e05-992f-0a5c967eeea7": {
        "Guid": "674853b4-1f8c-4e05-992f-0a5c967eeea7",
        "playRate": 1.0,
        "GameTrigger": "Dialog",
        "gameTriggerArgs": 191580626,
        "personalConfig": 2,
        "ParentID": "9568ed0a-3b4b-4c7f-8279-e0cacc9186d3",
        "SourceNames": [
            {
                "sourceFileName": "VO_COOP\\VO_layla\\vo_LYLCOP001_1915802_layla_41.wem",
                "rate": 1.0,
                "avatarName": "",
                "emotion": ""
            }
        ]
    },
    "6b722205-862e-46ed-b24b-cc49d9d6d52c": {
        "Guid": "6b722205-862e-46ed-b24b-cc49d9d6d52c",
        "playRate": 1.0,
        "GameTrigger": "Dialog",
        "gameTriggerArgs": 191580617,
        "personalConfig": 2,
        "ParentID": "9568ed0a-3b4b-4c7f-8279-e0cacc9186d3",
        "SourceNames": [
            {
                "sourceFileName": "VO_COOP\\VO_layla\\vo_LYLCOP001_1915802_layla_35.wem",
                "rate": 1.0,
                "avatarName": "",
                "emotion": ""
            }
        ]
    },
    "6e8e7c8a-fffb-42f5-8bb4-d5e3122d031b": {
        "Guid": "6e8e7c8a-fffb-42f5-8bb4-d5e3122d031b",
        "playRate": 1.0,
        "GameTrigger": "Dialog",
        "gameTriggerArgs": 191580604,
        "personalConfig": 2,
        "ParentID": "9568ed0a-3b4b-4c7f-8279-e0cacc9186d3",
        "SourceNames": [
            {
                "sourceFileName": "VO_COOP\\VO_layla\\vo_LYLCOP001_1915802_layla_28.wem",
                "rate": 1.0,
                "avatarName": "",
                "emotion": ""
            }
        ]
    },
    "786fbf23-7ef7-4bfd-b472-95990e9b5a75": {
        "Guid": "786fbf23-7ef7-4bfd-b472-95990e9b5a75",
        "playRate": 1.0,
        "GameTrigger": "Dialog",
        "gameTriggerArgs": 191580633,
        "personalConfig": 2,
        "ParentID": "9568ed0a-3b4b-4c7f-8279-e0cacc9186d3",
        "SourceNames": [
            {
                "sourceFileName": "VO_COOP\\VO_layla\\vo_LYLCOP001_1915802_layla_44.wem",
                "rate": 1.0,
                "avatarName": "",
                "emotion": ""
            }
        ]
    },
    "78d56c0a-417f-4fc3-aa2c-69fef7828556": {
        "Guid": "78d56c0a-417f-4fc3-aa2c-69fef7828556",
        "playRate": 1.0,
        "GameTrigger": "Dialog",
        "gameTriggerArgs": 191580301,
        "personalConfig": 2,
        "ParentID": "9568ed0a-3b4b-4c7f-8279-e0cacc9186d3",
        "SourceNames": [
            {
                "sourceFileName": "VO_COOP\\VO_layla\\vo_LYLCOP001_1915802_layla_07.wem",
                "rate": 1.0,
                "avatarName": "",
                "emotion": ""
            }
        ]
    },
    "79e5f16c-c89c-4d39-ab18-e22b59c7306b": {
        "Guid": "79e5f16c-c89c-4d39-ab18-e22b59c7306b",
        "playRate": 1.0,
        "GameTrigger": "Dialog",
        "gameTriggerArgs": 191580620,
        "personalConfig": 2,
        "ParentID": "9568ed0a-3b4b-4c7f-8279-e0cacc9186d3",
        "SourceNames": [
            {
                "sourceFileName": "VO_COOP\\VO_layla\\vo_LYLCOP001_1915802_layla_37.wem",
                "rate": 1.0,
                "avatarName": "",
                "emotion": ""
            }
        ]
    },
    "8948c121-0e58-4f60-bb80-b6be6fe7906e": {
        "Guid": "8948c121-0e58-4f60-bb80-b6be6fe7906e",
        "playRate": 1.0,
        "GameTrigger": "Dialog",
        "gameTriggerArgs": 191580313,
        "personalConfig": 2,
        "ParentID": "9568ed0a-3b4b-4c7f-8279-e0cacc9186d3",
        "SourceNames": [
            {
                "sourceFileName": "VO_COOP\\VO_npc\\vo_LYLCOP001_1915802_azzam_12.wem",
                "rate": 1.0,
                "avatarName": "",
                "emotion": ""
            }
        ]
    },
    "8a641dd5-904a-48b7-9072-6eb36b28a009": {
        "Guid": "8a641dd5-904a-48b7-9072-6eb36b28a009",
        "playRate": 1.0,
        "GameTrigger": "Dialog",
        "gameTriggerArgs": 191580624,
        "personalConfig": 2,
        "ParentID": "9568ed0a-3b4b-4c7f-8279-e0cacc9186d3",
        "SourceNames": [
            {
                "sourceFileName": "VO_COOP\\VO_layla\\vo_LYLCOP001_1915802_layla_39.wem",
                "rate": 1.0,
                "avatarName": "",
                "emotion": ""
            }
        ]
    },
    "8aeab9d0-b5a8-4581-85a3-8bdb7d9e2bc4": {
        "Guid": "8aeab9d0-b5a8-4581-85a3-8bdb7d9e2bc4",
        "playRate": 1.0,
        "GameTrigger": "Dialog",
        "gameTriggerArgs": 191589903,
        "personalConfig": 2,
        "GIFECDGOOPJ": 1,
        "IsPlayOnTeam": true,
        "ParentID": "9568ed0a-3b4b-4c7f-8279-e0cacc9186d3",
        "SourceNames": [
            {
                "sourceFileName": "VO_COOP\\VO_npc\\vo_LYLCOP001_1915802_azzam_30.wem",
                "rate": 1.0,
                "avatarName": "",
                "emotion": ""
            }
        ]
    },
    "8bf51da2-a5b1-4f0f-b96b-aa98cdd86c74": {
        "Guid": "8bf51da2-a5b1-4f0f-b96b-aa98cdd86c74",
        "playRate": 1.0,
        "GameTrigger": "Dialog",
        "gameTriggerArgs": 191580611,
        "personalConfig": 2,
        "ParentID": "9568ed0a-3b4b-4c7f-8279-e0cacc9186d3",
        "SourceNames": [
            {
                "sourceFileName": "VO_COOP\\VO_layla\\vo_LYLCOP001_1915802_layla_31.wem",
                "rate": 1.0,
                "avatarName": "",
                "emotion": ""
            }
        ]
    },
    "8e20b331-6058-4f84-9b20-1582d8ff3ccb": {
        "Guid": "8e20b331-6058-4f84-9b20-1582d8ff3ccb",
        "playRate": 1.0,
        "GameTrigger": "Dialog",
        "gameTriggerArgs": 191580312,
        "personalConfig": 2,
        "ParentID": "9568ed0a-3b4b-4c7f-8279-e0cacc9186d3",
        "SourceNames": [
            {
                "sourceFileName": "VO_COOP\\VO_layla\\vo_LYLCOP001_1915802_layla_14.wem",
                "rate": 1.0,
                "avatarName": "",
                "emotion": ""
            }
        ]
    },
    "8e589b03-f166-4e57-90e6-68040935777d": {
        "Guid": "8e589b03-f166-4e57-90e6-68040935777d",
        "playRate": 1.0,
        "GameTrigger": "Dialog",
        "gameTriggerArgs": 191580607,
        "personalConfig": 2,
        "ParentID": "9568ed0a-3b4b-4c7f-8279-e0cacc9186d3",
        "SourceNames": [
            {
                "sourceFileName": "VO_COOP\\VO_npc\\vo_LYLCOP001_1915802_azzam_19.wem",
                "rate": 1.0,
                "avatarName": "",
                "emotion": ""
            }
        ]
    },
    "94ce9d93-ebcf-4b45-9f01-70acea7b4e9e": {
        "Guid": "94ce9d93-ebcf-4b45-9f01-70acea7b4e9e",
        "playRate": 1.0,
        "GameTrigger": "Dialog",
        "gameTriggerArgs": 191580310,
        "personalConfig": 2,
        "ParentID": "9568ed0a-3b4b-4c7f-8279-e0cacc9186d3",
        "SourceNames": [
            {
                "sourceFileName": "VO_COOP\\VO_layla\\vo_LYLCOP001_1915802_layla_12.wem",
                "rate": 1.0,
                "avatarName": "",
                "emotion": ""
            }
        ]
    },
    "9e763741-adff-4838-8cff-f470ffef9cba": {
        "Guid": "9e763741-adff-4838-8cff-f470ffef9cba",
        "playRate": 1.0,
        "GameTrigger": "Dialog",
        "gameTriggerArgs": 191580201,
        "personalConfig": 2,
        "ParentID": "9568ed0a-3b4b-4c7f-8279-e0cacc9186d3",
        "SourceNames": [
            {
                "sourceFileName": "VO_COOP\\VO_layla\\vo_LYLCOP001_1915802_layla_01.wem",
                "rate": 1.0,
                "avatarName": "",
                "emotion": ""
            }
        ]
    },
    "a4957000-1a87-48dd-a2be-55367a02a093": {
        "Guid": "a4957000-1a87-48dd-a2be-55367a02a093",
        "playRate": 1.0,
        "GameTrigger": "Dialog",
        "gameTriggerArgs": 191580306,
        "personalConfig": 2,
        "ParentID": "9568ed0a-3b4b-4c7f-8279-e0cacc9186d3",
        "SourceNames": [
            {
                "sourceFileName": "VO_COOP\\VO_npc\\vo_LYLCOP001_1915802_azzam_10.wem",
                "rate": 1.0,
                "avatarName": "",
                "emotion": ""
            }
        ]
    },
    "a6741282-d723-47b0-987f-3f608871562f": {
        "Guid": "a6741282-d723-47b0-987f-3f608871562f",
        "playRate": 1.0,
        "GameTrigger": "Dialog",
        "gameTriggerArgs": 191580329,
        "personalConfig": 2,
        "ParentID": "9568ed0a-3b4b-4c7f-8279-e0cacc9186d3",
        "SourceNames": [
            {
                "sourceFileName": "VO_COOP\\VO_layla\\vo_LYLCOP001_1915802_layla_22.wem",
                "rate": 1.0,
                "avatarName": "",
                "emotion": ""
            }
        ]
    },
    "a8499224-4e3e-4f3c-8116-10030ff8263b": {
        "Guid": "a8499224-4e3e-4f3c-8116-10030ff8263b",
        "playRate": 1.0,
        "GameTrigger": "Dialog",
        "gameTriggerArgs": 191580605,
        "personalConfig": 2,
        "ParentID": "9568ed0a-3b4b-4c7f-8279-e0cacc9186d3",
        "SourceNames": [
            {
                "sourceFileName": "VO_COOP\\VO_layla\\vo_LYLCOP001_1915802_layla_29.wem",
                "rate": 1.0,
                "avatarName": "",
                "emotion": ""
            }
        ]
    },
    "a91573ad-ab76-479e-b3b9-ffe9adc61c74": {
        "Guid": "a91573ad-ab76-479e-b3b9-ffe9adc61c74",
        "playRate": 1.0,
        "GameTrigger": "Dialog",
        "gameTriggerArgs": 191580211,
        "personalConfig": 2,
        "ParentID": "9568ed0a-3b4b-4c7f-8279-e0cacc9186d3",
        "SourceNames": [
            {
                "sourceFileName": "VO_COOP\\VO_layla\\vo_LYLCOP001_1915802_layla_05.wem",
                "rate": 1.0,
                "avatarName": "",
                "emotion": ""
            }
        ]
    },
    "a9988c08-ad7f-4802-9600-f027c0154ad3": {
        "Guid": "a9988c08-ad7f-4802-9600-f027c0154ad3",
        "playRate": 1.0,
        "GameTrigger": "Dialog",
        "gameTriggerArgs": 191580204,
        "personalConfig": 2,
        "ParentID": "9568ed0a-3b4b-4c7f-8279-e0cacc9186d3",
        "SourceNames": [
            {
                "sourceFileName": "VO_COOP\\VO_npc\\vo_LYLCOP001_1915802_azzam_02.wem",
                "rate": 1.0,
                "avatarName": "",
                "emotion": ""
            }
        ]
    },
    "b0e9c061-6a0c-4f6a-a0f8-1952c06328f2": {
        "Guid": "b0e9c061-6a0c-4f6a-a0f8-1952c06328f2",
        "playRate": 1.0,
        "GameTrigger": "Dialog",
        "gameTriggerArgs": 191580316,
        "personalConfig": 2,
        "ParentID": "9568ed0a-3b4b-4c7f-8279-e0cacc9186d3",
        "SourceNames": [
            {
                "sourceFileName": "VO_COOP\\VO_layla\\vo_LYLCOP001_1915802_layla_16.wem",
                "rate": 1.0,
                "avatarName": "",
                "emotion": ""
            }
        ]
    },
    "b277116c-b7ee-4462-8b29-56090ec559ea": {
        "Guid": "b277116c-b7ee-4462-8b29-56090ec559ea",
        "playRate": 1.0,
        "GameTrigger": "Dialog",
        "gameTriggerArgs": 191580317,
        "personalConfig": 2,
        "ParentID": "9568ed0a-3b4b-4c7f-8279-e0cacc9186d3",
        "SourceNames": [
            {
                "sourceFileName": "VO_COOP\\VO_layla\\vo_LYLCOP001_1915802_layla_17.wem",
                "rate": 1.0,
                "avatarName": "",
                "emotion": ""
            }
        ]
    },
    "b315a078-6946-48a2-b0c4-b5421af0a19b": {
        "Guid": "b315a078-6946-48a2-b0c4-b5421af0a19b",
        "playRate": 1.0,
        "GameTrigger": "Dialog",
        "gameTriggerArgs": 191580207,
        "personalConfig": 2,
        "ParentID": "9568ed0a-3b4b-4c7f-8279-e0cacc9186d3",
        "SourceNames": [
            {
                "sourceFileName": "VO_COOP\\VO_npc\\vo_LYLCOP001_1915802_azzam_03.wem",
                "rate": 1.0,
                "avatarName": "",
                "emotion": ""
            }
        ]
    },
    "b5f70fa8-936f-46b7-966a-2a5105de1b49": {
        "Guid": "b5f70fa8-936f-46b7-966a-2a5105de1b49",
        "playRate": 1.0,
        "GameTrigger": "Dialog",
        "gameTriggerArgs": 191580612,
        "personalConfig": 2,
        "ParentID": "9568ed0a-3b4b-4c7f-8279-e0cacc9186d3",
        "SourceNames": [
            {
                "sourceFileName": "VO_COOP\\VO_layla\\vo_LYLCOP001_1915802_layla_32.wem",
                "rate": 1.0,
                "avatarName": "",
                "emotion": ""
            }
        ]
    },
    "b73fb575-53e1-4ad9-b6e2-6b55263645a8": {
        "Guid": "b73fb575-53e1-4ad9-b6e2-6b55263645a8",
        "playRate": 1.0,
        "GameTrigger": "Dialog",
        "gameTriggerArgs": 191580642,
        "personalConfig": 2,
        "ParentID": "9568ed0a-3b4b-4c7f-8279-e0cacc9186d3",
        "SourceNames": [
            {
                "sourceFileName": "VO_COOP\\VO_layla\\vo_LYLCOP001_1915802_layla_52.wem",
                "rate": 1.0,
                "avatarName": "",
                "emotion": ""
            }
        ]
    },
    "b87af321-873c-431e-b4ce-1824fe073590": {
        "Guid": "b87af321-873c-431e-b4ce-1824fe073590",
        "playRate": 1.0,
        "GameTrigger": "Dialog",
        "gameTriggerArgs": 191580635,
        "personalConfig": 2,
        "ParentID": "9568ed0a-3b4b-4c7f-8279-e0cacc9186d3",
        "SourceNames": [
            {
                "sourceFileName": "VO_COOP\\VO_layla\\vo_LYLCOP001_1915802_layla_46.wem",
                "rate": 1.0,
                "avatarName": "",
                "emotion": ""
            }
        ]
    },
    "bf0089cb-7be7-4550-a16b-b5142ce45a58": {
        "Guid": "bf0089cb-7be7-4550-a16b-b5142ce45a58",
        "playRate": 1.0,
        "GameTrigger": "Dialog",
        "gameTriggerArgs": 191580644,
        "personalConfig": 2,
        "ParentID": "9568ed0a-3b4b-4c7f-8279-e0cacc9186d3",
        "SourceNames": [
            {
                "sourceFileName": "VO_COOP\\VO_layla\\vo_LYLCOP001_1915802_layla_53.wem",
                "rate": 1.0,
                "avatarName": "",
                "emotion": ""
            }
        ]
    },
    "c2b465a5-0311-4f28-99dc-2ed9e93abd8f": {
        "Guid": "c2b465a5-0311-4f28-99dc-2ed9e93abd8f",
        "playRate": 1.0,
        "GameTrigger": "Dialog",
        "gameTriggerArgs": 191580303,
        "personalConfig": 2,
        "ParentID": "9568ed0a-3b4b-4c7f-8279-e0cacc9186d3",
        "SourceNames": [
            {
                "sourceFileName": "VO_COOP\\VO_layla\\vo_LYLCOP001_1915802_layla_08.wem",
                "rate": 1.0,
                "avatarName": "",
                "emotion": ""
            }
        ]
    },
    "c55e0b1e-ad45-455c-a250-3c4210a8e361": {
        "Guid": "c55e0b1e-ad45-455c-a250-3c4210a8e361",
        "playRate": 1.0,
        "GameTrigger": "Dialog",
        "gameTriggerArgs": 191580304,
        "personalConfig": 2,
        "ParentID": "9568ed0a-3b4b-4c7f-8279-e0cacc9186d3",
        "SourceNames": [
            {
                "sourceFileName": "VO_COOP\\VO_npc\\vo_LYLCOP001_1915802_azzam_09.wem",
                "rate": 1.0,
                "avatarName": "",
                "emotion": ""
            }
        ]
    },
    "c69f79af-9cd2-4db8-a603-ad36c6710987": {
        "Guid": "c69f79af-9cd2-4db8-a603-ad36c6710987",
        "playRate": 1.0,
        "GameTrigger": "Dialog",
        "gameTriggerArgs": 191580614,
        "personalConfig": 2,
        "ParentID": "9568ed0a-3b4b-4c7f-8279-e0cacc9186d3",
        "SourceNames": [
            {
                "sourceFileName": "VO_COOP\\VO_npc\\vo_LYLCOP001_1915802_azzam_22.wem",
                "rate": 1.0,
                "avatarName": "",
                "emotion": ""
            }
        ]
    },
    "ca846a2a-8c98-46c2-b801-327f1cfa21fb": {
        "Guid": "ca846a2a-8c98-46c2-b801-327f1cfa21fb",
        "playRate": 1.0,
        "GameTrigger": "Dialog",
        "gameTriggerArgs": 191580307,
        "personalConfig": 2,
        "ParentID": "9568ed0a-3b4b-4c7f-8279-e0cacc9186d3",
        "SourceNames": [
            {
                "sourceFileName": "VO_COOP\\VO_layla\\vo_LYLCOP001_1915802_layla_10.wem",
                "rate": 1.0,
                "avatarName": "",
                "emotion": ""
            }
        ]
    },
    "ca9cf5ed-e11d-48cf-a79f-ed09263b276c": {
        "Guid": "ca9cf5ed-e11d-48cf-a79f-ed09263b276c",
        "playRate": 1.0,
        "GameTrigger": "Dialog",
        "gameTriggerArgs": 191580641,
        "personalConfig": 2,
        "ParentID": "9568ed0a-3b4b-4c7f-8279-e0cacc9186d3",
        "SourceNames": [
            {
                "sourceFileName": "VO_COOP\\VO_layla\\vo_LYLCOP001_1915802_layla_51.wem",
                "rate": 1.0,
                "avatarName": "",
                "emotion": ""
            }
        ]
    },
    "d308a16b-c5a4-4388-9cbb-32ea3b2cd349": {
        "Guid": "d308a16b-c5a4-4388-9cbb-32ea3b2cd349",
        "playRate": 1.0,
        "GameTrigger": "Dialog",
        "gameTriggerArgs": 191580302,
        "personalConfig": 2,
        "ParentID": "9568ed0a-3b4b-4c7f-8279-e0cacc9186d3",
        "SourceNames": [
            {
                "sourceFileName": "VO_COOP\\VO_npc\\vo_LYLCOP001_1915802_azzam_08.wem",
                "rate": 1.0,
                "avatarName": "",
                "emotion": ""
            }
        ]
    },
    "d5269c26-9d66-4517-b7ef-b89209510769": {
        "Guid": "d5269c26-9d66-4517-b7ef-b89209510769",
        "playRate": 1.0,
        "GameTrigger": "Dialog",
        "gameTriggerArgs": 191580305,
        "personalConfig": 2,
        "ParentID": "9568ed0a-3b4b-4c7f-8279-e0cacc9186d3",
        "SourceNames": [
            {
                "sourceFileName": "VO_COOP\\VO_layla\\vo_LYLCOP001_1915802_layla_09.wem",
                "rate": 1.0,
                "avatarName": "",
                "emotion": ""
            }
        ]
    },
    "d6a6e8ed-44b7-47c4-83fc-db3b21624864": {
        "Guid": "d6a6e8ed-44b7-47c4-83fc-db3b21624864",
        "playRate": 1.0,
        "GameTrigger": "Dialog",
        "gameTriggerArgs": 191580314,
        "personalConfig": 2,
        "ParentID": "9568ed0a-3b4b-4c7f-8279-e0cacc9186d3",
        "SourceNames": [
            {
                "sourceFileName": "VO_COOP\\VO_layla\\vo_LYLCOP001_1915802_layla_15.wem",
                "rate": 1.0,
                "avatarName": "",
                "emotion": ""
            }
        ]
    },
    "d6b1879e-011f-4740-bdec-f22a28d377a8": {
        "Guid": "d6b1879e-011f-4740-bdec-f22a28d377a8",
        "playRate": 1.0,
        "GameTrigger": "Dialog",
        "gameTriggerArgs": 191580631,
        "personalConfig": 2,
        "ParentID": "9568ed0a-3b4b-4c7f-8279-e0cacc9186d3",
        "SourceNames": [
            {
                "sourceFileName": "VO_COOP\\VO_layla\\vo_LYLCOP001_1915802_layla_43.wem",
                "rate": 1.0,
                "avatarName": "",
                "emotion": ""
            }
        ]
    },
    "d82cbfa3-91c5-45da-a84d-c9308a6fe416": {
        "Guid": "d82cbfa3-91c5-45da-a84d-c9308a6fe416",
        "playRate": 1.0,
        "GameTrigger": "Dialog",
        "gameTriggerArgs": 191580610,
        "personalConfig": 2,
        "ParentID": "9568ed0a-3b4b-4c7f-8279-e0cacc9186d3",
        "SourceNames": [
            {
                "sourceFileName": "VO_COOP\\VO_npc\\vo_LYLCOP001_1915802_azzam_21.wem",
                "rate": 1.0,
                "avatarName": "",
                "emotion": ""
            }
        ]
    },
    "db4defd7-df20-4b77-97de-4e195f1357d4": {
        "Guid": "db4defd7-df20-4b77-97de-4e195f1357d4",
        "playRate": 1.0,
        "GameTrigger": "Dialog",
        "gameTriggerArgs": 191580325,
        "personalConfig": 2,
        "ParentID": "9568ed0a-3b4b-4c7f-8279-e0cacc9186d3",
        "SourceNames": [
            {
                "sourceFileName": "VO_COOP\\VO_layla\\vo_LYLCOP001_1915802_layla_20.wem",
                "rate": 1.0,
                "avatarName": "",
                "emotion": ""
            }
        ]
    },
    "db56f6a4-7d75-44f5-a789-fb1e1830e8b8": {
        "Guid": "db56f6a4-7d75-44f5-a789-fb1e1830e8b8",
        "playRate": 1.0,
        "GameTrigger": "Dialog",
        "gameTriggerArgs": 191580208,
        "personalConfig": 2,
        "ParentID": "9568ed0a-3b4b-4c7f-8279-e0cacc9186d3",
        "SourceNames": [
            {
                "sourceFileName": "VO_COOP\\VO_layla\\vo_LYLCOP001_1915802_layla_04.wem",
                "rate": 1.0,
                "avatarName": "",
                "emotion": ""
            }
        ]
    },
    "dd3452a7-5c15-476f-b5fd-bd120a92ec4c": {
        "Guid": "dd3452a7-5c15-476f-b5fd-bd120a92ec4c",
        "playRate": 1.0,
        "GameTrigger": "Dialog",
        "gameTriggerArgs": 191580332,
        "personalConfig": 2,
        "ParentID": "9568ed0a-3b4b-4c7f-8279-e0cacc9186d3",
        "SourceNames": [
            {
                "sourceFileName": "VO_COOP\\VO_layla\\vo_LYLCOP001_1915802_layla_25.wem",
                "rate": 1.0,
                "avatarName": "",
                "emotion": ""
            }
        ]
    },
    "e04c624b-b2d6-4ccf-99ab-20c2f7373e1e": {
        "Guid": "e04c624b-b2d6-4ccf-99ab-20c2f7373e1e",
        "playRate": 1.0,
        "GameTrigger": "Dialog",
        "gameTriggerArgs": 191580601,
        "personalConfig": 2,
        "ParentID": "9568ed0a-3b4b-4c7f-8279-e0cacc9186d3",
        "SourceNames": [
            {
                "sourceFileName": "VO_COOP\\VO_layla\\vo_LYLCOP001_1915802_layla_26.wem",
                "rate": 1.0,
                "avatarName": "",
                "emotion": ""
            }
        ]
    },
    "e11ef1ac-1013-44b8-84d4-c034ba910550": {
        "Guid": "e11ef1ac-1013-44b8-84d4-c034ba910550",
        "playRate": 1.0,
        "GameTrigger": "Dialog",
        "gameTriggerArgs": 191580619,
        "personalConfig": 2,
        "ParentID": "9568ed0a-3b4b-4c7f-8279-e0cacc9186d3",
        "SourceNames": [
            {
                "sourceFileName": "VO_COOP\\VO_npc\\vo_LYLCOP001_1915802_azzam_24.wem",
                "rate": 1.0,
                "avatarName": "",
                "emotion": ""
            }
        ]
    },
    "e5da6abf-4f8a-4f11-b7bb-31b0a95605fe": {
        "Guid": "e5da6abf-4f8a-4f11-b7bb-31b0a95605fe",
        "playRate": 1.0,
        "GameTrigger": "Dialog",
        "gameTriggerArgs": 191580308,
        "personalConfig": 2,
        "ParentID": "9568ed0a-3b4b-4c7f-8279-e0cacc9186d3",
        "SourceNames": [
            {
                "sourceFileName": "VO_COOP\\VO_layla\\vo_LYLCOP001_1915802_layla_11.wem",
                "rate": 1.0,
                "avatarName": "",
                "emotion": ""
            }
        ]
    },
    "e70695c4-bdab-4a85-aeec-82c7ffb0a9a8": {
        "Guid": "e70695c4-bdab-4a85-aeec-82c7ffb0a9a8",
        "playRate": 1.0,
        "GameTrigger": "Dialog",
        "gameTriggerArgs": 191580309,
        "personalConfig": 2,
        "ParentID": "9568ed0a-3b4b-4c7f-8279-e0cacc9186d3",
        "SourceNames": [
            {
                "sourceFileName": "VO_COOP\\VO_npc\\vo_LYLCOP001_1915802_azzam_11.wem",
                "rate": 1.0,
                "avatarName": "",
                "emotion": ""
            }
        ]
    },
    "e8e42d54-0f6e-42dd-ad40-8b86099803a9": {
        "Guid": "e8e42d54-0f6e-42dd-ad40-8b86099803a9",
        "playRate": 1.0,
        "GameTrigger": "Dialog",
        "gameTriggerArgs": 191580210,
        "personalConfig": 2,
        "ParentID": "9568ed0a-3b4b-4c7f-8279-e0cacc9186d3",
        "SourceNames": [
            {
                "sourceFileName": "VO_COOP\\VO_npc\\vo_LYLCOP001_1915802_azzam_05.wem",
                "rate": 1.0,
                "avatarName": "",
                "emotion": ""
            }
        ]
    },
    "ea431778-94f6-49c1-8082-4de77bc730d0": {
        "Guid": "ea431778-94f6-49c1-8082-4de77bc730d0",
        "playRate": 1.0,
        "GameTrigger": "Dialog",
        "gameTriggerArgs": 191580608,
        "personalConfig": 2,
        "ParentID": "9568ed0a-3b4b-4c7f-8279-e0cacc9186d3",
        "SourceNames": [
            {
                "sourceFileName": "VO_COOP\\VO_layla\\vo_LYLCOP001_1915802_layla_30.wem",
                "rate": 1.0,
                "avatarName": "",
                "emotion": ""
            }
        ]
    },
    "ed553576-bb9f-4e74-bf0b-780a61a27b4f": {
        "Guid": "ed553576-bb9f-4e74-bf0b-780a61a27b4f",
        "playRate": 1.0,
        "GameTrigger": "Dialog",
        "gameTriggerArgs": 191580636,
        "personalConfig": 2,
        "ParentID": "9568ed0a-3b4b-4c7f-8279-e0cacc9186d3",
        "SourceNames": [
            {
                "sourceFileName": "VO_COOP\\VO_layla\\vo_LYLCOP001_1915802_layla_47.wem",
                "rate": 1.0,
                "avatarName": "",
                "emotion": ""
            }
        ]
    },
    "ed951dcf-2009-475d-9d16-65df60e80d6f": {
        "Guid": "ed951dcf-2009-475d-9d16-65df60e80d6f",
        "playRate": 1.0,
        "GameTrigger": "Dialog",
        "gameTriggerArgs": 191580330,
        "personalConfig": 2,
        "ParentID": "9568ed0a-3b4b-4c7f-8279-e0cacc9186d3",
        "SourceNames": [
            {
                "sourceFileName": "VO_COOP\\VO_layla\\vo_LYLCOP001_1915802_layla_23.wem",
                "rate": 1.0,
                "avatarName": "",
                "emotion": ""
            }
        ]
    },
    "f172e582-a51b-4e1d-b6da-0c49fbfe11e8": {
        "Guid": "f172e582-a51b-4e1d-b6da-0c49fbfe11e8",
        "playRate": 1.0,
        "GameTrigger": "Dialog",
        "gameTriggerArgs": 191580213,
        "personalConfig": 2,
        "ParentID": "9568ed0a-3b4b-4c7f-8279-e0cacc9186d3",
        "SourceNames": [
            {
                "sourceFileName": "VO_COOP\\VO_npc\\vo_LYLCOP001_1915802_azzam_07.wem",
                "rate": 1.0,
                "avatarName": "",
                "emotion": ""
            }
        ]
    },
    "f7db2ac5-fd20-49eb-aea4-b12937a1bf1c": {
        "Guid": "f7db2ac5-fd20-49eb-aea4-b12937a1bf1c",
        "playRate": 1.0,
        "GameTrigger": "Dialog",
        "gameTriggerArgs": 191580209,
        "personalConfig": 2,
        "ParentID": "9568ed0a-3b4b-4c7f-8279-e0cacc9186d3",
        "SourceNames": [
            {
                "sourceFileName": "VO_COOP\\VO_npc\\vo_LYLCOP001_1915802_azzam_04.wem",
                "rate": 1.0,
                "avatarName": "",
                "emotion": ""
            }
        ]
    },
    "fb1cc9ac-6c95-468e-a962-0b35d91dae5b": {
        "Guid": "fb1cc9ac-6c95-468e-a962-0b35d91dae5b",
        "playRate": 1.0,
        "GameTrigger": "Dialog",
        "gameTriggerArgs": 191580205,
        "personalConfig": 2,
        "ParentID": "9568ed0a-3b4b-4c7f-8279-e0cacc9186d3",
        "SourceNames": [
            {
                "sourceFileName": "VO_COOP\\VO_layla\\vo_LYLCOP001_1915802_layla_02.wem",
                "rate": 1.0,
                "avatarName": "",
                "emotion": ""
            }
        ]
    },
    "fdc7b8df-7d64-4e87-bdf7-4c76ca36c3d0": {
        "Guid": "fdc7b8df-7d64-4e87-bdf7-4c76ca36c3d0",
        "playRate": 1.0,
        "GameTrigger": "Dialog",
        "gameTriggerArgs": 191580202,
        "personalConfig": 2,
        "ParentID": "9568ed0a-3b4b-4c7f-8279-e0cacc9186d3",
        "SourceNames": [
            {
                "sourceFileName": "VO_COOP\\VO_npc\\vo_LYLCOP001_1915802_azzam_01.wem",
                "rate": 1.0,
                "avatarName": "",
                "emotion": ""
            }
        ]
    },
    "fee6ddfe-6242-4473-9ebb-84cb08ecbb3a": {
        "Guid": "fee6ddfe-6242-4473-9ebb-84cb08ecbb3a",
        "playRate": 1.0,
        "GameTrigger": "Dialog",
        "gameTriggerArgs": 191580206,
        "personalConfig": 2,
        "ParentID": "9568ed0a-3b4b-4c7f-8279-e0cacc9186d3",
        "SourceNames": [
            {
                "sourceFileName": "VO_COOP\\VO_layla\\vo_LYLCOP001_1915802_layla_03.wem",
                "rate": 1.0,
                "avatarName": "",
                "emotion": ""
            }
        ]
    },
    "ff905fb1-c43b-4a41-9846-c3df4b3cde87": {
        "Guid": "ff905fb1-c43b-4a41-9846-c3df4b3cde87",
        "playRate": 1.0,
        "GameTrigger": "Dialog",
        "gameTriggerArgs": 191580613,
        "personalConfig": 2,
        "ParentID": "9568ed0a-3b4b-4c7f-8279-e0cacc9186d3",
        "SourceNames": [
            {
                "sourceFileName": "VO_COOP\\VO_layla\\vo_LYLCOP001_1915802_layla_33.wem",
                "rate": 1.0,
                "avatarName": "",
                "emotion": ""
            }
        ]
    }
}