{
  "0100268e-7bfe-4110-bf60-03cf752ed199": {
    "JFNDAOJCHPO": "0100268e-7bfe-4110-bf60-03cf752ed199",
    "JOEFDKMFMIA": 1.0,
    "BFKCDJLLGNJ": "Dialog",
    "FMHLBONJKPJ": 401280609,
    "JPMLINEFNCM": 2,
    "FGIMEKGHJFB": "be10475c-bb2b-46d6-a2ea-e0820aff5d6e",
    "OFEEIPOMNKD": [
      {
        "CBGLAJNLFCB": "VO_EQ\\VO_paimon\\vo_RPEQ001_7_paimon_03.wem",
        "HBDMHPLJGBG": 1.0,
        "GJMDHCLJGHH": "",
        "GCAGMFHFFML": ""
      }
    ]
  },
  "026fd4fc-a384-44a0-bba5-55c5e5383148": {
    "JFNDAOJCHPO": "026fd4fc-a384-44a0-bba5-55c5e5383148",
    "JOEFDKMFMIA": 1.0,
    "BFKCDJLLGNJ": "Dialog",
    "FMHLBONJKPJ": 401280644,
    "JPMLINEFNCM": 2,
    "FGIMEKGHJFB": "be10475c-bb2b-46d6-a2ea-e0820aff5d6e",
    "OFEEIPOMNKD": [
      {
        "CBGLAJNLFCB": "VO_EQ\\VO_paimon\\vo_RPEQ001_7_paimon_15.wem",
        "HBDMHPLJGBG": 1.0,
        "GJMDHCLJGHH": "",
        "GCAGMFHFFML": ""
      }
    ]
  },
  "0cfbba9e-45a3-4974-8447-c800656f61c8": {
    "JFNDAOJCHPO": "0cfbba9e-45a3-4974-8447-c800656f61c8",
    "JOEFDKMFMIA": 1.0,
    "BFKCDJLLGNJ": "Dialog",
    "FMHLBONJKPJ": 401280607,
    "JPMLINEFNCM": 2,
    "FGIMEKGHJFB": "be10475c-bb2b-46d6-a2ea-e0820aff5d6e",
    "OFEEIPOMNKD": [
      {
        "CBGLAJNLFCB": "VO_EQ\\VO_freminet\\vo_RPEQ001_7_freminet_04.wem",
        "HBDMHPLJGBG": 1.0,
        "GJMDHCLJGHH": "",
        "GCAGMFHFFML": ""
      }
    ]
  },
  "0faee951-a04d-406d-9bfe-858b2d70e1f7": {
    "JFNDAOJCHPO": "0faee951-a04d-406d-9bfe-858b2d70e1f7",
    "JOEFDKMFMIA": 1.0,
    "BFKCDJLLGNJ": "Dialog",
    "FMHLBONJKPJ": 401280634,
    "JPMLINEFNCM": 2,
    "FGIMEKGHJFB": "be10475c-bb2b-46d6-a2ea-e0820aff5d6e",
    "OFEEIPOMNKD": [
      {
        "CBGLAJNLFCB": "VO_EQ\\VO_paimon\\vo_RPEQ001_7_paimon_11.wem",
        "HBDMHPLJGBG": 1.0,
        "GJMDHCLJGHH": "",
        "GCAGMFHFFML": ""
      }
    ]
  },
  "16b11999-3245-4304-bb35-16d61be8ee0e": {
    "JFNDAOJCHPO": "16b11999-3245-4304-bb35-16d61be8ee0e",
    "JOEFDKMFMIA": 1.0,
    "BFKCDJLLGNJ": "Dialog",
    "FMHLBONJKPJ": 401280605,
    "JPMLINEFNCM": 2,
    "FGIMEKGHJFB": "be10475c-bb2b-46d6-a2ea-e0820aff5d6e",
    "OFEEIPOMNKD": [
      {
        "CBGLAJNLFCB": "VO_EQ\\VO_freminet\\vo_RPEQ001_7_freminet_03.wem",
        "HBDMHPLJGBG": 1.0,
        "GJMDHCLJGHH": "",
        "GCAGMFHFFML": ""
      }
    ]
  },
  "1a2f7e8f-15f3-4dd6-a416-91c167d0176d": {
    "JFNDAOJCHPO": "1a2f7e8f-15f3-4dd6-a416-91c167d0176d",
    "JOEFDKMFMIA": 1.0,
    "BFKCDJLLGNJ": "Dialog",
    "FMHLBONJKPJ": 401280623,
    "JPMLINEFNCM": 2,
    "FGIMEKGHJFB": "be10475c-bb2b-46d6-a2ea-e0820aff5d6e",
    "OFEEIPOMNKD": [
      {
        "CBGLAJNLFCB": "VO_EQ\\VO_freminet\\vo_RPEQ001_7_freminet_11.wem",
        "HBDMHPLJGBG": 1.0,
        "GJMDHCLJGHH": "",
        "GCAGMFHFFML": ""
      }
    ]
  },
  "339282d1-e01b-48dc-a1d6-1e11fbcc6bc3": {
    "JFNDAOJCHPO": "339282d1-e01b-48dc-a1d6-1e11fbcc6bc3",
    "JOEFDKMFMIA": 1.0,
    "BFKCDJLLGNJ": "Dialog",
    "FMHLBONJKPJ": 401280618,
    "JPMLINEFNCM": 2,
    "FGIMEKGHJFB": "be10475c-bb2b-46d6-a2ea-e0820aff5d6e",
    "OFEEIPOMNKD": [
      {
        "CBGLAJNLFCB": "VO_EQ\\VO_paimon\\vo_RPEQ001_7_paimon_05b_1a.wem",
        "HBDMHPLJGBG": 1.0,
        "GJMDHCLJGHH": "",
        "GCAGMFHFFML": "",
        "HCAIPGAELFP": 2
      },
      {
        "CBGLAJNLFCB": "VO_EQ\\VO_paimon\\vo_RPEQ001_7_paimon_05b_1b.wem",
        "HBDMHPLJGBG": 1.0,
        "GJMDHCLJGHH": "",
        "GCAGMFHFFML": "",
        "HCAIPGAELFP": 1
      }
    ]
  },
  "3c7659aa-a5eb-4d62-955d-51ff3d2a9c09": {
    "JFNDAOJCHPO": "3c7659aa-a5eb-4d62-955d-51ff3d2a9c09",
    "JOEFDKMFMIA": 1.0,
    "BFKCDJLLGNJ": "Dialog",
    "FMHLBONJKPJ": 401280646,
    "JPMLINEFNCM": 2,
    "PCPJHAEEABC": 3,
    "FGIMEKGHJFB": "be10475c-bb2b-46d6-a2ea-e0820aff5d6e",
    "OFEEIPOMNKD": [
      {
        "CBGLAJNLFCB": "VO_EQ\\VO_freminet\\vo_RPEQ001_7_freminet_23.wem",
        "HBDMHPLJGBG": 1.0,
        "GJMDHCLJGHH": "",
        "GCAGMFHFFML": ""
      }
    ]
  },
  "3d561c55-7c77-45d0-a584-bade08b34ce6": {
    "JFNDAOJCHPO": "3d561c55-7c77-45d0-a584-bade08b34ce6",
    "JOEFDKMFMIA": 1.0,
    "BFKCDJLLGNJ": "Dialog",
    "FMHLBONJKPJ": 401280604,
    "JPMLINEFNCM": 2,
    "FGIMEKGHJFB": "be10475c-bb2b-46d6-a2ea-e0820aff5d6e",
    "OFEEIPOMNKD": [
      {
        "CBGLAJNLFCB": "VO_EQ\\VO_freminet\\vo_RPEQ001_7_freminet_02.wem",
        "HBDMHPLJGBG": 1.0,
        "GJMDHCLJGHH": "",
        "GCAGMFHFFML": ""
      }
    ]
  },
  "514243ba-8967-4a9e-9198-2cb0e919f846": {
    "JFNDAOJCHPO": "514243ba-8967-4a9e-9198-2cb0e919f846",
    "JOEFDKMFMIA": 1.0,
    "BFKCDJLLGNJ": "Dialog",
    "FMHLBONJKPJ": 401280641,
    "JPMLINEFNCM": 2,
    "FGIMEKGHJFB": "be10475c-bb2b-46d6-a2ea-e0820aff5d6e",
    "OFEEIPOMNKD": [
      {
        "CBGLAJNLFCB": "VO_EQ\\VO_paimon\\vo_RPEQ001_7_paimon_14.wem",
        "HBDMHPLJGBG": 1.0,
        "GJMDHCLJGHH": "",
        "GCAGMFHFFML": ""
      }
    ]
  },
  "51b88b57-1121-4299-af38-2830dc8900dc": {
    "JFNDAOJCHPO": "51b88b57-1121-4299-af38-2830dc8900dc",
    "JOEFDKMFMIA": 1.0,
    "BFKCDJLLGNJ": "Dialog",
    "FMHLBONJKPJ": 401280638,
    "JPMLINEFNCM": 2,
    "PCPJHAEEABC": 3,
    "FGIMEKGHJFB": "be10475c-bb2b-46d6-a2ea-e0820aff5d6e",
    "OFEEIPOMNKD": [
      {
        "CBGLAJNLFCB": "VO_EQ\\VO_freminet\\vo_RPEQ001_7_freminet_19.wem",
        "HBDMHPLJGBG": 1.0,
        "GJMDHCLJGHH": "",
        "GCAGMFHFFML": ""
      }
    ]
  },
  "52a75c35-f3c0-4029-a38d-577e0494ca7f": {
    "JFNDAOJCHPO": "52a75c35-f3c0-4029-a38d-577e0494ca7f",
    "JOEFDKMFMIA": 1.0,
    "BFKCDJLLGNJ": "Dialog",
    "FMHLBONJKPJ": 401280639,
    "JPMLINEFNCM": 2,
    "FGIMEKGHJFB": "be10475c-bb2b-46d6-a2ea-e0820aff5d6e",
    "OFEEIPOMNKD": [
      {
        "CBGLAJNLFCB": "VO_EQ\\VO_paimon\\vo_RPEQ001_7_paimon_13.wem",
        "HBDMHPLJGBG": 1.0,
        "GJMDHCLJGHH": "",
        "GCAGMFHFFML": ""
      }
    ]
  },
  "53cefd88-15d9-4212-b7d0-f28792d07616": {
    "JFNDAOJCHPO": "53cefd88-15d9-4212-b7d0-f28792d07616",
    "JOEFDKMFMIA": 1.0,
    "BFKCDJLLGNJ": "Dialog",
    "FMHLBONJKPJ": 401280614,
    "JPMLINEFNCM": 2,
    "FGIMEKGHJFB": "be10475c-bb2b-46d6-a2ea-e0820aff5d6e",
    "OFEEIPOMNKD": [
      {
        "CBGLAJNLFCB": "VO_EQ\\VO_freminet\\vo_RPEQ001_7_freminet_08.wem",
        "HBDMHPLJGBG": 1.0,
        "GJMDHCLJGHH": "",
        "GCAGMFHFFML": ""
      }
    ]
  },
  "56c95cdf-1307-489e-b245-086fc970d793": {
    "JFNDAOJCHPO": "56c95cdf-1307-489e-b245-086fc970d793",
    "JOEFDKMFMIA": 1.0,
    "BFKCDJLLGNJ": "Dialog",
    "FMHLBONJKPJ": 401280616,
    "JPMLINEFNCM": 2,
    "FGIMEKGHJFB": "be10475c-bb2b-46d6-a2ea-e0820aff5d6e",
    "OFEEIPOMNKD": [
      {
        "CBGLAJNLFCB": "VO_EQ\\VO_paimon\\vo_RPEQ001_7_paimon_05a_1.wem",
        "HBDMHPLJGBG": 1.0,
        "GJMDHCLJGHH": "",
        "GCAGMFHFFML": ""
      }
    ]
  },
  "5be44837-ceab-45fb-b336-6e5996955c56": {
    "JFNDAOJCHPO": "5be44837-ceab-45fb-b336-6e5996955c56",
    "JOEFDKMFMIA": 1.0,
    "BFKCDJLLGNJ": "Dialog",
    "FMHLBONJKPJ": 401280643,
    "JPMLINEFNCM": 2,
    "PCPJHAEEABC": 3,
    "FGIMEKGHJFB": "be10475c-bb2b-46d6-a2ea-e0820aff5d6e",
    "OFEEIPOMNKD": [
      {
        "CBGLAJNLFCB": "VO_EQ\\VO_freminet\\vo_RPEQ001_7_freminet_22.wem",
        "HBDMHPLJGBG": 1.0,
        "GJMDHCLJGHH": "",
        "GCAGMFHFFML": ""
      }
    ]
  },
  "66e3d4a2-fa09-437f-90e0-24256d00d258": {
    "JFNDAOJCHPO": "66e3d4a2-fa09-437f-90e0-24256d00d258",
    "JOEFDKMFMIA": 1.0,
    "BFKCDJLLGNJ": "Dialog",
    "FMHLBONJKPJ": 401280625,
    "JPMLINEFNCM": 2,
    "FGIMEKGHJFB": "be10475c-bb2b-46d6-a2ea-e0820aff5d6e",
    "OFEEIPOMNKD": [
      {
        "CBGLAJNLFCB": "VO_EQ\\VO_freminet\\vo_RPEQ001_7_freminet_12.wem",
        "HBDMHPLJGBG": 1.0,
        "GJMDHCLJGHH": "",
        "GCAGMFHFFML": ""
      }
    ]
  },
  "68134467-c0e7-4888-91b5-9fd7eb8c8272": {
    "JFNDAOJCHPO": "68134467-c0e7-4888-91b5-9fd7eb8c8272",
    "JOEFDKMFMIA": 1.0,
    "BFKCDJLLGNJ": "Dialog",
    "FMHLBONJKPJ": 401280620,
    "JPMLINEFNCM": 2,
    "FGIMEKGHJFB": "be10475c-bb2b-46d6-a2ea-e0820aff5d6e",
    "OFEEIPOMNKD": [
      {
        "CBGLAJNLFCB": "VO_EQ\\VO_paimon\\vo_RPEQ001_7_paimon_06.wem",
        "HBDMHPLJGBG": 1.0,
        "GJMDHCLJGHH": "",
        "GCAGMFHFFML": ""
      }
    ]
  },
  "689f73fe-98a2-445e-b37b-67e696c31d0a": {
    "JFNDAOJCHPO": "689f73fe-98a2-445e-b37b-67e696c31d0a",
    "JOEFDKMFMIA": 1.0,
    "BFKCDJLLGNJ": "Dialog",
    "FMHLBONJKPJ": 401280631,
    "JPMLINEFNCM": 2,
    "PCPJHAEEABC": 3,
    "FGIMEKGHJFB": "be10475c-bb2b-46d6-a2ea-e0820aff5d6e",
    "OFEEIPOMNKD": [
      {
        "CBGLAJNLFCB": "VO_EQ\\VO_freminet\\vo_RPEQ001_7_freminet_14.wem",
        "HBDMHPLJGBG": 1.0,
        "GJMDHCLJGHH": "",
        "GCAGMFHFFML": ""
      }
    ]
  },
  "7560420b-639f-4a5e-b862-0125df094d62": {
    "JFNDAOJCHPO": "7560420b-639f-4a5e-b862-0125df094d62",
    "JOEFDKMFMIA": 1.0,
    "BFKCDJLLGNJ": "Dialog",
    "FMHLBONJKPJ": 401280622,
    "JPMLINEFNCM": 2,
    "FGIMEKGHJFB": "be10475c-bb2b-46d6-a2ea-e0820aff5d6e",
    "OFEEIPOMNKD": [
      {
        "CBGLAJNLFCB": "VO_EQ\\VO_freminet\\vo_RPEQ001_7_freminet_10.wem",
        "HBDMHPLJGBG": 1.0,
        "GJMDHCLJGHH": "",
        "GCAGMFHFFML": ""
      }
    ]
  },
  "782b5a9c-8231-4e8c-be5c-fde8ef39895b": {
    "JFNDAOJCHPO": "782b5a9c-8231-4e8c-be5c-fde8ef39895b",
    "JOEFDKMFMIA": 1.0,
    "BFKCDJLLGNJ": "Dialog",
    "FMHLBONJKPJ": 401280602,
    "JPMLINEFNCM": 2,
    "FGIMEKGHJFB": "be10475c-bb2b-46d6-a2ea-e0820aff5d6e",
    "OFEEIPOMNKD": [
      {
        "CBGLAJNLFCB": "VO_EQ\\VO_freminet\\vo_RPEQ001_7_freminet_01.wem",
        "HBDMHPLJGBG": 1.0,
        "GJMDHCLJGHH": "",
        "GCAGMFHFFML": ""
      }
    ]
  },
  "7eacda93-3195-4de2-90eb-2ac15d511073": {
    "JFNDAOJCHPO": "7eacda93-3195-4de2-90eb-2ac15d511073",
    "JOEFDKMFMIA": 1.0,
    "BFKCDJLLGNJ": "Dialog",
    "FMHLBONJKPJ": 401280624,
    "JPMLINEFNCM": 2,
    "FGIMEKGHJFB": "be10475c-bb2b-46d6-a2ea-e0820aff5d6e",
    "OFEEIPOMNKD": [
      {
        "CBGLAJNLFCB": "VO_EQ\\VO_paimon\\vo_RPEQ001_7_paimon_08.wem",
        "HBDMHPLJGBG": 1.0,
        "GJMDHCLJGHH": "",
        "GCAGMFHFFML": ""
      }
    ]
  },
  "7facb963-5ee6-4a45-8e32-91c6bfe25dce": {
    "JFNDAOJCHPO": "7facb963-5ee6-4a45-8e32-91c6bfe25dce",
    "JOEFDKMFMIA": 1.0,
    "BFKCDJLLGNJ": "Dialog",
    "FMHLBONJKPJ": 401280621,
    "JPMLINEFNCM": 2,
    "FGIMEKGHJFB": "be10475c-bb2b-46d6-a2ea-e0820aff5d6e",
    "OFEEIPOMNKD": [
      {
        "CBGLAJNLFCB": "VO_EQ\\VO_paimon\\vo_RPEQ001_7_paimon_07.wem",
        "HBDMHPLJGBG": 1.0,
        "GJMDHCLJGHH": "",
        "GCAGMFHFFML": ""
      }
    ]
  },
  "893de238-4ca7-478b-ae67-b7f325011985": {
    "JFNDAOJCHPO": "893de238-4ca7-478b-ae67-b7f325011985",
    "JOEFDKMFMIA": 1.0,
    "BFKCDJLLGNJ": "Dialog",
    "FMHLBONJKPJ": 401280619,
    "JPMLINEFNCM": 2,
    "FGIMEKGHJFB": "be10475c-bb2b-46d6-a2ea-e0820aff5d6e",
    "OFEEIPOMNKD": [
      {
        "CBGLAJNLFCB": "VO_EQ\\VO_freminet\\vo_RPEQ001_7_freminet_09.wem",
        "HBDMHPLJGBG": 1.0,
        "GJMDHCLJGHH": "",
        "GCAGMFHFFML": ""
      }
    ]
  },
  "8962d7c7-7159-402b-abcd-0e0fcb710055": {
    "JFNDAOJCHPO": "8962d7c7-7159-402b-abcd-0e0fcb710055",
    "JOEFDKMFMIA": 1.0,
    "BFKCDJLLGNJ": "Dialog",
    "FMHLBONJKPJ": 401280652,
    "JPMLINEFNCM": 2,
    "PCPJHAEEABC": 3,
    "FGIMEKGHJFB": "be10475c-bb2b-46d6-a2ea-e0820aff5d6e",
    "OFEEIPOMNKD": [
      {
        "CBGLAJNLFCB": "VO_EQ\\VO_freminet\\vo_RPEQ001_7_freminet_25.wem",
        "HBDMHPLJGBG": 1.0,
        "GJMDHCLJGHH": "",
        "GCAGMFHFFML": ""
      }
    ]
  },
  "8f3c6f4e-dddd-4f16-bd18-26172aadee60": {
    "JFNDAOJCHPO": "8f3c6f4e-dddd-4f16-bd18-26172aadee60",
    "JOEFDKMFMIA": 1.0,
    "BFKCDJLLGNJ": "Dialog",
    "FMHLBONJKPJ": 401280612,
    "JPMLINEFNCM": 2,
    "FGIMEKGHJFB": "be10475c-bb2b-46d6-a2ea-e0820aff5d6e",
    "OFEEIPOMNKD": [
      {
        "CBGLAJNLFCB": "VO_EQ\\VO_freminet\\vo_RPEQ001_7_freminet_07.wem",
        "HBDMHPLJGBG": 1.0,
        "GJMDHCLJGHH": "",
        "GCAGMFHFFML": ""
      }
    ]
  },
  "97b317a1-7adb-4a89-b982-90964011d253": {
    "JFNDAOJCHPO": "97b317a1-7adb-4a89-b982-90964011d253",
    "JOEFDKMFMIA": 1.0,
    "BFKCDJLLGNJ": "Dialog",
    "FMHLBONJKPJ": 401280648,
    "JPMLINEFNCM": 2,
    "FGIMEKGHJFB": "be10475c-bb2b-46d6-a2ea-e0820aff5d6e",
    "OFEEIPOMNKD": [
      {
        "CBGLAJNLFCB": "VO_EQ\\VO_paimon\\vo_RPEQ001_7_paimon_16a_1.wem",
        "HBDMHPLJGBG": 1.0,
        "GJMDHCLJGHH": "",
        "GCAGMFHFFML": ""
      }
    ]
  },
  "9c29298d-6d06-4247-86e9-7fe2992ba70d": {
    "JFNDAOJCHPO": "9c29298d-6d06-4247-86e9-7fe2992ba70d",
    "JOEFDKMFMIA": 1.0,
    "BFKCDJLLGNJ": "Dialog",
    "FMHLBONJKPJ": 401280640,
    "JPMLINEFNCM": 2,
    "PCPJHAEEABC": 3,
    "FGIMEKGHJFB": "be10475c-bb2b-46d6-a2ea-e0820aff5d6e",
    "OFEEIPOMNKD": [
      {
        "CBGLAJNLFCB": "VO_EQ\\VO_freminet\\vo_RPEQ001_7_freminet_20.wem",
        "HBDMHPLJGBG": 1.0,
        "GJMDHCLJGHH": "",
        "GCAGMFHFFML": ""
      }
    ]
  },
  "a3e9106d-6679-45fc-8532-b5b547e88258": {
    "JFNDAOJCHPO": "a3e9106d-6679-45fc-8532-b5b547e88258",
    "JOEFDKMFMIA": 1.0,
    "BFKCDJLLGNJ": "Dialog",
    "FMHLBONJKPJ": 401280610,
    "JPMLINEFNCM": 2,
    "FGIMEKGHJFB": "be10475c-bb2b-46d6-a2ea-e0820aff5d6e",
    "OFEEIPOMNKD": [
      {
        "CBGLAJNLFCB": "VO_EQ\\VO_freminet\\vo_RPEQ001_7_freminet_05.wem",
        "HBDMHPLJGBG": 1.0,
        "GJMDHCLJGHH": "",
        "GCAGMFHFFML": ""
      }
    ]
  },
  "a9ae4aeb-306d-4ceb-bc52-a8d78d836239": {
    "JFNDAOJCHPO": "a9ae4aeb-306d-4ceb-bc52-a8d78d836239",
    "JOEFDKMFMIA": 1.0,
    "BFKCDJLLGNJ": "Dialog",
    "FMHLBONJKPJ": 401280650,
    "JPMLINEFNCM": 2,
    "FGIMEKGHJFB": "be10475c-bb2b-46d6-a2ea-e0820aff5d6e",
    "OFEEIPOMNKD": [
      {
        "CBGLAJNLFCB": "VO_EQ\\VO_paimon\\vo_RPEQ001_7_paimon_17.wem",
        "HBDMHPLJGBG": 1.0,
        "GJMDHCLJGHH": "",
        "GCAGMFHFFML": ""
      }
    ]
  },
  "b031fdf7-d2f8-452c-8936-bbae3b489f13": {
    "JFNDAOJCHPO": "b031fdf7-d2f8-452c-8936-bbae3b489f13",
    "JOEFDKMFMIA": 1.0,
    "BFKCDJLLGNJ": "Dialog",
    "FMHLBONJKPJ": 401280630,
    "JPMLINEFNCM": 2,
    "FGIMEKGHJFB": "be10475c-bb2b-46d6-a2ea-e0820aff5d6e",
    "OFEEIPOMNKD": [
      {
        "CBGLAJNLFCB": "VO_EQ\\VO_paimon\\vo_RPEQ001_7_paimon_10.wem",
        "HBDMHPLJGBG": 1.0,
        "GJMDHCLJGHH": "",
        "GCAGMFHFFML": ""
      }
    ]
  },
  "b3a914a7-46e1-46c2-abf5-4075254708f6": {
    "JFNDAOJCHPO": "b3a914a7-46e1-46c2-abf5-4075254708f6",
    "JOEFDKMFMIA": 1.0,
    "BFKCDJLLGNJ": "Dialog",
    "FMHLBONJKPJ": 401280611,
    "JPMLINEFNCM": 2,
    "FGIMEKGHJFB": "be10475c-bb2b-46d6-a2ea-e0820aff5d6e",
    "OFEEIPOMNKD": [
      {
        "CBGLAJNLFCB": "VO_EQ\\VO_freminet\\vo_RPEQ001_7_freminet_06.wem",
        "HBDMHPLJGBG": 1.0,
        "GJMDHCLJGHH": "",
        "GCAGMFHFFML": ""
      }
    ]
  },
  "b87c617c-639d-4d87-9807-91952d7134c4": {
    "JFNDAOJCHPO": "b87c617c-639d-4d87-9807-91952d7134c4",
    "JOEFDKMFMIA": 1.0,
    "BFKCDJLLGNJ": "Dialog",
    "FMHLBONJKPJ": 401280632,
    "JPMLINEFNCM": 2,
    "PCPJHAEEABC": 3,
    "FGIMEKGHJFB": "be10475c-bb2b-46d6-a2ea-e0820aff5d6e",
    "OFEEIPOMNKD": [
      {
        "CBGLAJNLFCB": "VO_EQ\\VO_freminet\\vo_RPEQ001_7_freminet_15.wem",
        "HBDMHPLJGBG": 1.0,
        "GJMDHCLJGHH": "",
        "GCAGMFHFFML": ""
      }
    ]
  },
  "b952091b-6527-4cb7-93ca-0aabdbba7fad": {
    "JFNDAOJCHPO": "b952091b-6527-4cb7-93ca-0aabdbba7fad",
    "JOEFDKMFMIA": 1.0,
    "BFKCDJLLGNJ": "Dialog",
    "FMHLBONJKPJ": 401280636,
    "JPMLINEFNCM": 2,
    "FGIMEKGHJFB": "be10475c-bb2b-46d6-a2ea-e0820aff5d6e",
    "OFEEIPOMNKD": [
      {
        "CBGLAJNLFCB": "VO_EQ\\VO_paimon\\vo_RPEQ001_7_paimon_12.wem",
        "HBDMHPLJGBG": 1.0,
        "GJMDHCLJGHH": "",
        "GCAGMFHFFML": ""
      }
    ]
  },
  "c290a66b-b74e-47b7-8944-9dcb1ba135ad": {
    "JFNDAOJCHPO": "c290a66b-b74e-47b7-8944-9dcb1ba135ad",
    "JOEFDKMFMIA": 1.0,
    "BFKCDJLLGNJ": "Dialog",
    "FMHLBONJKPJ": 401280633,
    "JPMLINEFNCM": 2,
    "PCPJHAEEABC": 3,
    "FGIMEKGHJFB": "be10475c-bb2b-46d6-a2ea-e0820aff5d6e",
    "OFEEIPOMNKD": [
      {
        "CBGLAJNLFCB": "VO_EQ\\VO_freminet\\vo_RPEQ001_7_freminet_16.wem",
        "HBDMHPLJGBG": 1.0,
        "GJMDHCLJGHH": "",
        "GCAGMFHFFML": ""
      }
    ]
  },
  "c83a85d1-d430-486b-82ef-51856bfcaff3": {
    "JFNDAOJCHPO": "c83a85d1-d430-486b-82ef-51856bfcaff3",
    "JOEFDKMFMIA": 1.0,
    "BFKCDJLLGNJ": "Dialog",
    "FMHLBONJKPJ": 401280628,
    "JPMLINEFNCM": 2,
    "FGIMEKGHJFB": "be10475c-bb2b-46d6-a2ea-e0820aff5d6e",
    "OFEEIPOMNKD": [
      {
        "CBGLAJNLFCB": "VO_EQ\\VO_paimon\\vo_RPEQ001_7_paimon_09.wem",
        "HBDMHPLJGBG": 1.0,
        "GJMDHCLJGHH": "",
        "GCAGMFHFFML": ""
      }
    ]
  },
  "caea3a11-965d-48b6-9356-5a107ad93a32": {
    "JFNDAOJCHPO": "caea3a11-965d-48b6-9356-5a107ad93a32",
    "JOEFDKMFMIA": 1.0,
    "BFKCDJLLGNJ": "Dialog",
    "FMHLBONJKPJ": 401280627,
    "JPMLINEFNCM": 2,
    "FGIMEKGHJFB": "be10475c-bb2b-46d6-a2ea-e0820aff5d6e",
    "OFEEIPOMNKD": [
      {
        "CBGLAJNLFCB": "VO_EQ\\VO_freminet\\vo_RPEQ001_7_freminet_13.wem",
        "HBDMHPLJGBG": 1.0,
        "GJMDHCLJGHH": "",
        "GCAGMFHFFML": ""
      }
    ]
  },
  "cc88048c-119c-47a7-a2ae-634a49318213": {
    "JFNDAOJCHPO": "cc88048c-119c-47a7-a2ae-634a49318213",
    "JOEFDKMFMIA": 1.0,
    "BFKCDJLLGNJ": "Dialog",
    "FMHLBONJKPJ": 401280606,
    "JPMLINEFNCM": 2,
    "FGIMEKGHJFB": "be10475c-bb2b-46d6-a2ea-e0820aff5d6e",
    "OFEEIPOMNKD": [
      {
        "CBGLAJNLFCB": "VO_EQ\\VO_paimon\\vo_RPEQ001_7_paimon_02.wem",
        "HBDMHPLJGBG": 1.0,
        "GJMDHCLJGHH": "",
        "GCAGMFHFFML": ""
      }
    ]
  },
  "ce53d339-b987-4ec1-9b38-9f71f4f2533f": {
    "JFNDAOJCHPO": "ce53d339-b987-4ec1-9b38-9f71f4f2533f",
    "JOEFDKMFMIA": 1.0,
    "BFKCDJLLGNJ": "Dialog",
    "FMHLBONJKPJ": 401280642,
    "JPMLINEFNCM": 2,
    "PCPJHAEEABC": 3,
    "FGIMEKGHJFB": "be10475c-bb2b-46d6-a2ea-e0820aff5d6e",
    "OFEEIPOMNKD": [
      {
        "CBGLAJNLFCB": "VO_EQ\\VO_freminet\\vo_RPEQ001_7_freminet_21.wem",
        "HBDMHPLJGBG": 1.0,
        "GJMDHCLJGHH": "",
        "GCAGMFHFFML": ""
      }
    ]
  },
  "d17768ff-96ae-44a2-9cce-9214c3639946": {
    "JFNDAOJCHPO": "d17768ff-96ae-44a2-9cce-9214c3639946",
    "JOEFDKMFMIA": 1.0,
    "BFKCDJLLGNJ": "Dialog",
    "FMHLBONJKPJ": 401280601,
    "JPMLINEFNCM": 2,
    "FGIMEKGHJFB": "be10475c-bb2b-46d6-a2ea-e0820aff5d6e",
    "OFEEIPOMNKD": [
      {
        "CBGLAJNLFCB": "VO_EQ\\VO_paimon\\vo_RPEQ001_7_paimon_01.wem",
        "HBDMHPLJGBG": 1.0,
        "GJMDHCLJGHH": "",
        "GCAGMFHFFML": ""
      }
    ]
  },
  "e3038f33-2c1e-4928-a64d-f5fe2affb0fd": {
    "JFNDAOJCHPO": "e3038f33-2c1e-4928-a64d-f5fe2affb0fd",
    "JOEFDKMFMIA": 1.0,
    "BFKCDJLLGNJ": "Dialog",
    "FMHLBONJKPJ": 401280635,
    "JPMLINEFNCM": 2,
    "PCPJHAEEABC": 3,
    "FGIMEKGHJFB": "be10475c-bb2b-46d6-a2ea-e0820aff5d6e",
    "OFEEIPOMNKD": [
      {
        "CBGLAJNLFCB": "VO_EQ\\VO_freminet\\vo_RPEQ001_7_freminet_17.wem",
        "HBDMHPLJGBG": 1.0,
        "GJMDHCLJGHH": "",
        "GCAGMFHFFML": ""
      }
    ]
  },
  "e429150c-236b-4787-917b-3148facfe3e2": {
    "JFNDAOJCHPO": "e429150c-236b-4787-917b-3148facfe3e2",
    "JOEFDKMFMIA": 1.0,
    "BFKCDJLLGNJ": "Dialog",
    "FMHLBONJKPJ": 401280613,
    "JPMLINEFNCM": 2,
    "FGIMEKGHJFB": "be10475c-bb2b-46d6-a2ea-e0820aff5d6e",
    "OFEEIPOMNKD": [
      {
        "CBGLAJNLFCB": "VO_EQ\\VO_paimon\\vo_RPEQ001_7_paimon_04.wem",
        "HBDMHPLJGBG": 1.0,
        "GJMDHCLJGHH": "",
        "GCAGMFHFFML": ""
      }
    ]
  },
  "e6d4f7ae-ad18-4dda-8b4f-722cf7504638": {
    "JFNDAOJCHPO": "e6d4f7ae-ad18-4dda-8b4f-722cf7504638",
    "JOEFDKMFMIA": 1.0,
    "BFKCDJLLGNJ": "Dialog",
    "FMHLBONJKPJ": 401280651,
    "JPMLINEFNCM": 2,
    "PCPJHAEEABC": 3,
    "FGIMEKGHJFB": "be10475c-bb2b-46d6-a2ea-e0820aff5d6e",
    "OFEEIPOMNKD": [
      {
        "CBGLAJNLFCB": "VO_EQ\\VO_freminet\\vo_RPEQ001_7_freminet_24.wem",
        "HBDMHPLJGBG": 1.0,
        "GJMDHCLJGHH": "",
        "GCAGMFHFFML": ""
      }
    ]
  },
  "f448c226-a1f0-47cb-8d0e-68279e74a3d3": {
    "JFNDAOJCHPO": "f448c226-a1f0-47cb-8d0e-68279e74a3d3",
    "JOEFDKMFMIA": 1.0,
    "BFKCDJLLGNJ": "Dialog",
    "FMHLBONJKPJ": 401280637,
    "JPMLINEFNCM": 2,
    "PCPJHAEEABC": 3,
    "FGIMEKGHJFB": "be10475c-bb2b-46d6-a2ea-e0820aff5d6e",
    "OFEEIPOMNKD": [
      {
        "CBGLAJNLFCB": "VO_EQ\\VO_freminet\\vo_RPEQ001_7_freminet_18.wem",
        "HBDMHPLJGBG": 1.0,
        "GJMDHCLJGHH": "",
        "GCAGMFHFFML": ""
      }
    ]
  }
}