{
  "1915f1c7-e932-4e8e-b93f-093534a5795b": {
    "JFNDAOJCHPO": "1915f1c7-e932-4e8e-b93f-093534a5795b",
    "JOEFDKMFMIA": 1.0,
    "BFKCDJLLGNJ": "Dialog",
    "FMHLBONJKPJ": 401289907,
    "JPMLINEFNCM": 2,
    "PCPJHAEEABC": 2,
    "HLMABEGLNKK": true,
    "FGIMEKGHJFB": "a31d1b90-062d-4898-ae9d-eddf5155ac99",
    "OFEEIPOMNKD": [
      {
        "CBGLAJNLFCB": "VO_EQ\\VO_freminet\\vo_RPEQ001_5_freminet_04.wem",
        "HBDMHPLJGBG": 1.0,
        "GJMDHCLJGHH": "",
        "GCAGMFHFFML": ""
      }
    ]
  },
  "6a9dd26b-69ab-4ca7-8a95-db7c7a3de6f6": {
    "JFNDAOJCHPO": "6a9dd26b-69ab-4ca7-8a95-db7c7a3de6f6",
    "JOEFDKMFMIA": 1.0,
    "BFKCDJLLGNJ": "DungeonReminder",
    "FMHLBONJKPJ": 60010454,
    "JPMLINEFNCM": 2,
    "PCPJHAEEABC": 2,
    "FGIMEKGHJFB": "a31d1b90-062d-4898-ae9d-eddf5155ac99",
    "OFEEIPOMNKD": [
      {
        "CBGLAJNLFCB": "VO_EQ\\VO_freminet\\vo_RPEQ001_5_freminet_02.wem",
        "HBDMHPLJGBG": 1.0,
        "GJMDHCLJGHH": "",
        "GCAGMFHFFML": ""
      }
    ]
  },
  "7ec3ac6b-1130-40e6-b4f6-b85a7e31f394": {
    "JFNDAOJCHPO": "7ec3ac6b-1130-40e6-b4f6-b85a7e31f394",
    "JOEFDKMFMIA": 1.0,
    "BFKCDJLLGNJ": "DungeonReminder",
    "FMHLBONJKPJ": 60010455,
    "JPMLINEFNCM": 2,
    "PCPJHAEEABC": 2,
    "FGIMEKGHJFB": "a31d1b90-062d-4898-ae9d-eddf5155ac99",
    "OFEEIPOMNKD": [
      {
        "CBGLAJNLFCB": "VO_EQ\\VO_freminet\\vo_RPEQ001_5_freminet_03.wem",
        "HBDMHPLJGBG": 1.0,
        "GJMDHCLJGHH": "",
        "GCAGMFHFFML": ""
      }
    ]
  },
  "8bb761ec-b8f5-4fc9-b26f-a805600469f6": {
    "JFNDAOJCHPO": "8bb761ec-b8f5-4fc9-b26f-a805600469f6",
    "JOEFDKMFMIA": 1.0,
    "BFKCDJLLGNJ": "Dialog",
    "FMHLBONJKPJ": 401289904,
    "JPMLINEFNCM": 2,
    "PCPJHAEEABC": 2,
    "HLMABEGLNKK": true,
    "FGIMEKGHJFB": "a31d1b90-062d-4898-ae9d-eddf5155ac99",
    "OFEEIPOMNKD": [
      {
        "CBGLAJNLFCB": "VO_EQ\\VO_freminet\\vo_RPEQ001_5_freminet_01.wem",
        "HBDMHPLJGBG": 1.0,
        "GJMDHCLJGHH": "",
        "GCAGMFHFFML": ""
      }
    ]
  }
}