[
    {
        "Default": {
            "$type": "ConfigAbility",
            "abilityName": "Thoarder_MuscleMan_NoWeapon_Zeppeli_PoseManager",
            "abilityMixins": [
                {
                    "$type": "AttachModifierToHPPercentMixin",
                    "valueSteps": [
                        0.800000011920929,
                        0.4000000059604645
                    ],
                    "modifierNameSteps": [
                        "HP_Stage1",
                        "HP_Stage2",
                        "HP_Stage3"
                    ]
                },
                {
                    "$type": "SteerAttackMixin",
                    "steerStateIDs": [
                        "Turn"
                    ],
                    "angularSpeed": 360.0,
                    "attackTrigger": ""
                },
                {
                    "$type": "SteerAttackMixin",
                    "steerStateIDs": [
                        "Disappear_Trans_ToPowerStrike"
                    ],
                    "angularSpeed": 700.0,
                    "attackTrigger": ""
                },
                {
                    "$type": "SteerAttackMixin",
                    "steerStateIDs": [
                        "NormalAtk_P1"
                    ],
                    "endNormalizedTime": 0.5600000023841858,
                    "angularSpeed": 360.0,
                    "attackTrigger": ""
                },
                {
                    "$type": "SteerAttackMixin",
                    "steerStateIDs": [
                        "PowerStrike_AS"
                    ],
                    "endNormalizedTime": 0.10499999672174454,
                    "angularSpeed": 600.0,
                    "attackTrigger": ""
                },
                {
                    "$type": "SteerAttackMixin",
                    "steerStateIDs": [
                        "PowerStrike_AS"
                    ],
                    "startNormalizedTime": 0.6370000243186951,
                    "endNormalizedTime": 0.7900000214576721,
                    "angularSpeed": 400.0,
                    "attackTrigger": "",
                    "AAMHJECOJHL": "Right"
                },
                {
                    "$type": "SteerAttackMixin",
                    "steerStateIDs": [
                        "LandStrike_BreakStone"
                    ],
                    "startNormalizedTime": 0.5019999742507935,
                    "endNormalizedTime": 0.7099999785423279,
                    "angularSpeed": 600.0,
                    "attackTrigger": ""
                }
            ],
            "modifiers": {
                "Property_Control": {
                    "modifierName": "",
                    "bonusCriticalHurt": 100.0,
                    "properties": {
                        "Actor_EndureDelta": 0.75
                    },
                    "onAdded": [
                        {
                            "$type": "AttachAbilityStateResistance",
                            "resistanceBuffDebuffs": [
                                "ElementFreeze"
                            ],
                            "durationRatio": 0.8999999761581421
                        }
                    ]
                },
                "HP_Stage1": {
                    "modifierName": "",
                    "bonusCriticalHurt": 100.0,
                    "onAdded": [
                        {
                            "$type": "SetPoseBool",
                            "boolID": "Enhanced"
                        },
                        {
                            "$type": "SetAnimatorInt",
                            "intID": "Stage",
                            "ratio": 1.0
                        }
                    ]
                },
                "HP_Stage2": {
                    "modifierName": "",
                    "bonusCriticalHurt": 100.0,
                    "onAdded": [
                        {
                            "$type": "SetPoseBool",
                            "boolID": "Enhanced",
                            "ratio": true
                        },
                        {
                            "$type": "SetAnimatorInt",
                            "intID": "Stage",
                            "ratio": 2.0
                        }
                    ]
                },
                "HP_Stage3": {
                    "modifierName": "",
                    "bonusCriticalHurt": 100.0,
                    "properties": {
                        "Actor_AttackRatio": 0.4000000059604645
                    },
                    "state": "AttackUp",
                    "onAdded": [
                        {
                            "$type": "SetPoseBool",
                            "boolID": "Enhanced",
                            "ratio": true
                        },
                        {
                            "$type": "SetAnimatorInt",
                            "intID": "Stage",
                            "ratio": 3.0
                        }
                    ],
                    "onKill": [
                        {
                            "$type": "RemoveModifier",
                            "modifierName": "HP_Stage3"
                        }
                    ]
                }
            },
            "onAdded": [
                {
                    "$type": "ApplyModifier",
                    "modifierName": "Property_Control"
                }
            ]
        }
    },
    {
        "Default": {
            "$type": "ConfigAbility",
            "abilityName": "Thoarder_MuscleMan_NoWeapon_Zeppeli_LandStrike_Disappear_Manager",
            "abilityMixins": [
                {
                    "$type": "AttachToStateIDMixin",
                    "stateIDs": [
                        "LandStrike_JusticeCrash_Disappear",
                        "Disappear_Trans"
                    ],
                    "modifierName": "Disappear_Logic"
                },
                {
                    "$type": "AttachToAnimatorStateIDMixin",
                    "stateIDs": [
                        "LandStrike_JusticeCrash_Disappear",
                        "LandStrike_JusticeCrash_NoPush",
                        "Disappear_Trans",
                        "Disappear_Trans_ToPowerStrike"
                    ],
                    "modifierName": "Disappear_Push_Logic"
                },
                {
                    "$type": "DoActionByAnimatorStateIDMixin",
                    "stateIDs": [
                        "Disappear_Trans_ToPowerStrike"
                    ],
                    "exitActions": [
                        {
                            "$type": "TryFindBlinkPointByBorn",
                            "born": {
                                "$type": "AJCFIBNMGKO",
                                "OCACHEEBJCE": {
                                    "$type": "EOKEDICAOIL",
                                    "PBLLHJAOIIG": 2.5,
                                    "KMBNDMHDCJG": 4.5
                                },
                                "NLBFCDKCPAH": true
                            },
                            "hitSceneType": "BlinkHitSceneTestByThreeSegments",
                            "limitY": 2.5
                        },
                        {
                            "$type": "FireEffect",
                            "shieldHP": "Eff_Monster_Thoarder_Common_Die_01",
                            "born": {
                                "$type": "BODKFDFKKEJ"
                            },
                            "effectTempleteID": -1.0
                        },
                        {
                            "$type": "DoBlink"
                        }
                    ]
                },
                {
                    "$type": "DoActionByAnimatorStateIDMixin",
                    "stateIDs": [
                        "Disappear_Trans"
                    ],
                    "enterActions": [
                        {
                            "$type": "SetAnimatorFloat",
                            "floatID": "RandomValue",
                            "useRandomValue": true,
                            "randomValueMin": 0.0,
                            "randomValueMax": 1.0
                        }
                    ]
                },
                {
                    "$type": "AttachModifierToSelfGlobalValueMixin",
                    "globalValueKey": "_COUNTER_COOLDOWN",
                    "GVInTalk": 0.0,
                    "valueSteps": [
                        -0.5,
                        0.5,
                        1.5
                    ],
                    "modifierNameSteps": [
                        "Counter_Able",
                        "Counter_Cooldown"
                    ]
                }
            ],
            "modifiers": {
                "Counter_Able": {
                    "modifierName": "",
                    "bonusCriticalHurt": 100.0,
                    "modifierMixins": [
                        {
                            "$type": "DoActionByAnimatorStateIDMixin",
                            "stateIDs": [
                                "Hit_H",
                                "HitThrowToGround"
                            ],
                            "exitActions": [
                                {
                                    "$type": "SetGlobalValue",
                                    "ratio": 1.0,
                                    "key": "_COUNTER_COOLDOWN",
                                    "maxValue": 0.0,
                                    "minValue": 0.0
                                }
                            ]
                        }
                    ],
                    "onAdded": [
                        {
                            "$type": "SetAnimatorBool",
                            "boolID": "Counter_Able",
                            "ratio": true
                        }
                    ]
                },
                "Counter_Cooldown": {
                    "modifierName": "",
                    "bonusCriticalHurt": 100.0,
                    "thinkInterval": 5.0,
                    "onAdded": [
                        {
                            "$type": "SetAnimatorBool",
                            "boolID": "Counter_Able"
                        }
                    ],
                    "onThinkInterval": [
                        {
                            "$type": "SetGlobalValue",
                            "ratio": 0.0,
                            "key": "_COUNTER_COOLDOWN",
                            "maxValue": 0.0,
                            "minValue": 0.0
                        }
                    ]
                },
                "Disappear_Push_Logic": {
                    "modifierName": "",
                    "bonusCriticalHurt": 100.0,
                    "modifierMixins": [
                        {
                            "$type": "AttachActionToModifierMixin",
                            "onAdded": [
                                {
                                    "$type": "EnablePushColliderName",
                                    "pushColliderNames": [
                                        "PushCollider"
                                    ]
                                }
                            ],
                            "onRemoved": [
                                {
                                    "$type": "EnablePushColliderName",
                                    "pushColliderNames": [
                                        "PushCollider"
                                    ],
                                    "setEnable": true
                                }
                            ]
                        }
                    ]
                },
                "Disappear_Logic": {
                    "modifierName": "",
                    "bonusCriticalHurt": 100.0,
                    "modifierMixins": [
                        {
                            "$type": "ChangeLockTypeMixin",
                            "lockType": "Default",
                            "overrideRange": 0.009999999776482582,
                            "overrideCombatPri": 0.20000000298023224
                        },
                        {
                            "$type": "AttachActionToModifierMixin",
                            "onAdded": [
                                {
                                    "$type": "EnableHitBoxByName",
                                    "hitBoxNames": [
                                        "HitBox",
                                        "HeadBox"
                                    ]
                                },
                                {
                                    "$type": "HideUIBillBoard",
                                    "hide": true
                                }
                            ],
                            "onRemoved": [
                                {
                                    "$type": "EnableHitBoxByName",
                                    "hitBoxNames": [
                                        "HitBox",
                                        "HeadBox"
                                    ],
                                    "setEnable": true
                                },
                                {
                                    "$type": "HideUIBillBoard"
                                }
                            ]
                        },
                        {
                            "$type": "EntityInVisibleMixin",
                            "reason": "SelfAbility"
                        }
                    ],
                    "state": "DenyLockOn",
                    "onAdded": [
                        {
                            "$type": "AttachModifier",
                            "modifierName": "GhostState"
                        },
                        {
                            "$type": "FireEffect",
                            "shieldHP": "Eff_Monster_Thoarder_Common_Die_01",
                            "effectTempleteID": -1.0
                        }
                    ]
                },
                "GhostState": {
                    "modifierName": "",
                    "bonusCriticalHurt": 100.0,
                    "state": "IsGhostToEnemy"
                }
            }
        }
    },
    {
        "Default": {
            "$type": "ConfigAbility",
            "abilityName": "Thoarder_MuscleMan_NoWeapon_Zeppeli_LandStrike_JusticeCrash_Manager",
            "abilityMixins": [
                {
                    "$type": "AttachToStateIDMixin",
                    "stateIDs": [
                        "LandStrike_JusticeCrash_Disappear"
                    ],
                    "modifierName": "JusticeCrash_Logic"
                },
                {
                    "$type": "DoActionByAnimatorStateIDMixin",
                    "stateIDs": [
                        "LandStrike_JusticeCrash"
                    ],
                    "enterActions": [
                        {
                            "$type": "TriggerAttackEvent",
                            "attackEvent": {
                                "attackPattern": {
                                    "$type": "FPJICLLGBLO",
                                    "triggerType": "TriggerNoRepeat",
                                    "born": {
                                        "$type": "AJCFIBNMGKO",
                                        "offset": {
                                            "NABPJFNICAE": -2.0
                                        },
                                        "CMLNNDEJCEF": true,
                                        "NLBFCDKCPAH": true
                                    },
                                    "height": 3.549999952316284,
                                    "DLFACKMBPCH": 4.860000133514404
                                },
                                "attackInfo": {
                                    "attackTag": "",
                                    "attenuationTag": "",
                                    "attenuationGroup": "default",
                                    "attackProperty": {
                                        "ACKCDHKEGCK": 1.0,
                                        "JIICGJODDDM": 0.0,
                                        "bonusCriticalHurt": 100.0,
                                        "strikeType": "Blunt",
                                        "enBreak": 250.0,
                                        "attackType": "Range",
                                        "damagePercentage": 0.0
                                    },
                                    "hitPattern": {
                                        "onHitEffectName": "default",
                                        "hitImpulseType": "",
                                        "overrideHitImpulse": {
                                            "hitLevel": "Air",
                                            "LPIJAJONFHC": 150.0,
                                            "hitImpulseY": 1030.0
                                        }
                                    },
                                    "forceCameraShake": true,
                                    "cameraShake": {
                                        "shakeType": "CustomVector",
                                        "shakeRange": 1.600000023841858,
                                        "shakeTime": 0.15000000596046448,
                                        "shakeDistance": 25.0,
                                        "shakeDir": {
                                            "y": -1.0
                                        },
                                        "extension": {
                                            "baseCycle": 0.30000001192092896,
                                            "cycleDamping": 0.25
                                        }
                                    }
                                }
                            },
                            "targetType": "Enemy"
                        }
                    ]
                }
            ],
            "modifiers": {
                "JusticeCrash_Logic": {
                    "modifierName": "",
                    "bonusCriticalHurt": 100.0,
                    "modifierMixins": [
                        {
                            "$type": "ChangeLockTypeMixin",
                            "lockType": "Default",
                            "overrideRange": 0.009999999776482582,
                            "overrideCombatPri": 0.20000000298023224
                        },
                        {
                            "$type": "AttachActionToModifierMixin",
                            "onAdded": [
                                {
                                    "$type": "EnableHitBoxByName",
                                    "hitBoxNames": [
                                        "HitBox",
                                        "HeadBox"
                                    ]
                                },
                                {
                                    "$type": "HideUIBillBoard",
                                    "hide": true
                                }
                            ],
                            "onRemoved": [
                                {
                                    "$type": "EnableHitBoxByName",
                                    "hitBoxNames": [
                                        "HitBox",
                                        "HeadBox"
                                    ],
                                    "setEnable": true
                                },
                                {
                                    "$type": "HideUIBillBoard"
                                }
                            ]
                        },
                        {
                            "$type": "EntityInVisibleMixin",
                            "reason": "SelfAbility"
                        }
                    ],
                    "state": "DenyLockOn",
                    "onAdded": [
                        {
                            "$type": "SetGlobalPos",
                            "target": "SelfAttackActiveTarget",
                            "key": "_CRASH_POINT",
                            "born": {
                                "$type": "MIBALMLLMOK",
                                "CMLNNDEJCEF": true,
                                "NLBFCDKCPAH": true,
                                "PCBHMKPEMJK": 0.30000001192092896,
                                "CJKBIMINLCI": true
                            },
                            "setTarget": false
                        },
                        {
                            "$type": "FireEffect",
                            "shieldHP": "Eff_Monster_Thoarder_MuscleMan_NoWeapon_Zeppeli_LandStrike_WarningCircle",
                            "born": {
                                "$type": "NNOMECHMEBA",
                                "positionKey": "_CRASH_POINT",
                                "directionKey": ""
                            },
                            "effectTempleteID": -1.0
                        },
                        {
                            "$type": "AttachModifier",
                            "modifierName": "GhostState"
                        }
                    ],
                    "onRemoved": [
                        {
                            "$type": "DoBlinkByGlobalPos",
                            "positionKey": "_CRASH_POINT",
                            "directionKey": "",
                            "useGlobalUp": true
                        }
                    ]
                },
                "GhostState": {
                    "modifierName": "",
                    "bonusCriticalHurt": 100.0,
                    "state": "IsGhostToEnemy"
                }
            },
            "onAdded": [
                {
                    "$type": "SetGlobalPos",
                    "key": "_CRASH_POINT",
                    "born": {
                        "$type": "AJCFIBNMGKO",
                        "CMLNNDEJCEF": true,
                        "NLBFCDKCPAH": true
                    }
                }
            ]
        }
    },
    {
        "Default": {
            "$type": "ConfigAbility",
            "abilityName": "Thoarder_MuscleMan_NoWeapon_Zeppeli_RushMove",
            "onAbilityStart": [
                {
                    "$type": "RushMove",
                    "toPos": {
                        "$type": "AJCFIBNMGKO",
                        "offset": {
                            "MLOLIKEJCKB": 1.2000000476837158
                        },
                        "CMLNNDEJCEF": true,
                        "NLBFCDKCPAH": true
                    },
                    "maxRange": 1.2000000476837158,
                    "timeRange": 0.07999999821186066
                }
            ]
        }
    },
    {
        "Default": {
            "$type": "ConfigAbility",
            "abilityName": "Thoarder_MuscleMan_NoWeapon_Zeppeli_LandStrike_BreakStone_CreateBullet_TypeI",
            "onAbilityStart": [
                {
                    "$type": "TriggerBullet",
                    "bulletID": 42506021,
                    "born": {
                        "$type": "AJCFIBNMGKO",
                        "offset": {
                            "EMBMLEBGFOI": 0.0,
                            "NABPJFNICAE": 0.0,
                            "MLOLIKEJCKB": 2.4000000953674316
                        },
                        "CMLNNDEJCEF": true,
                        "NLICIODEGDO": {
                            "$type": "BMAMOFPPNBD",
                            "JOEDEGAHBHC": {
                                "EMBMLEBGFOI": 0.0,
                                "NABPJFNICAE": 0.0,
                                "MLOLIKEJCKB": 0.0
                            }
                        },
                        "PDCEFGKJHIH": true,
                        "NLBFCDKCPAH": true
                    }
                }
            ]
        }
    },
    {
        "Default": {
            "$type": "ConfigAbility",
            "abilityName": "Thoarder_MuscleMan_NoWeapon_Zeppeli_LandStrike_BreakStone_CreateBullet_TypeV",
            "onAbilityStart": [
                {
                    "$type": "TriggerBullet",
                    "bulletID": 42506021,
                    "born": {
                        "$type": "AJCFIBNMGKO",
                        "offset": {
                            "EMBMLEBGFOI": -1.5,
                            "NABPJFNICAE": 0.0,
                            "MLOLIKEJCKB": 2.0
                        },
                        "CMLNNDEJCEF": true,
                        "NLICIODEGDO": {
                            "$type": "BMAMOFPPNBD",
                            "JOEDEGAHBHC": {
                                "EMBMLEBGFOI": 0.0,
                                "NABPJFNICAE": -15.0,
                                "MLOLIKEJCKB": 0.0
                            }
                        },
                        "PDCEFGKJHIH": true,
                        "NLBFCDKCPAH": true
                    }
                },
                {
                    "$type": "TriggerBullet",
                    "bulletID": 42506021,
                    "born": {
                        "$type": "AJCFIBNMGKO",
                        "offset": {
                            "EMBMLEBGFOI": 1.5,
                            "NABPJFNICAE": 0.0,
                            "MLOLIKEJCKB": 2.0
                        },
                        "CMLNNDEJCEF": true,
                        "NLICIODEGDO": {
                            "$type": "BMAMOFPPNBD",
                            "JOEDEGAHBHC": {
                                "EMBMLEBGFOI": 0.0,
                                "NABPJFNICAE": 15.0,
                                "MLOLIKEJCKB": 0.0
                            }
                        },
                        "PDCEFGKJHIH": true,
                        "NLBFCDKCPAH": true
                    }
                }
            ]
        }
    },
    {
        "Default": {
            "$type": "ConfigAbility",
            "abilityName": "Thoarder_MuscleMan_NoWeapon_Zeppeli_LandStrike_BreakStone_CreateBullet_TypeX",
            "onAbilityStart": [
                {
                    "$type": "TriggerBullet",
                    "bulletID": 42506021,
                    "born": {
                        "$type": "AJCFIBNMGKO",
                        "offset": {
                            "EMBMLEBGFOI": 1.600000023841858,
                            "NABPJFNICAE": 0.0,
                            "MLOLIKEJCKB": -1.600000023841858
                        },
                        "CMLNNDEJCEF": true,
                        "NLICIODEGDO": {
                            "$type": "BMAMOFPPNBD",
                            "JOEDEGAHBHC": {
                                "EMBMLEBGFOI": 0.0,
                                "NABPJFNICAE": 135.0,
                                "MLOLIKEJCKB": 0.0
                            }
                        },
                        "PDCEFGKJHIH": true,
                        "NLBFCDKCPAH": true
                    },
                    "trackTarget": "SelfAttackActiveTarget"
                },
                {
                    "$type": "TriggerBullet",
                    "bulletID": 42506021,
                    "born": {
                        "$type": "AJCFIBNMGKO",
                        "offset": {
                            "EMBMLEBGFOI": -1.600000023841858,
                            "NABPJFNICAE": 0.0,
                            "MLOLIKEJCKB": -1.600000023841858
                        },
                        "CMLNNDEJCEF": true,
                        "NLICIODEGDO": {
                            "$type": "BMAMOFPPNBD",
                            "JOEDEGAHBHC": {
                                "EMBMLEBGFOI": 0.0,
                                "NABPJFNICAE": -135.0,
                                "MLOLIKEJCKB": 0.0
                            }
                        },
                        "PDCEFGKJHIH": true,
                        "NLBFCDKCPAH": true
                    },
                    "trackTarget": "SelfAttackActiveTarget"
                },
                {
                    "$type": "TriggerBullet",
                    "bulletID": 42506021,
                    "born": {
                        "$type": "AJCFIBNMGKO",
                        "offset": {
                            "EMBMLEBGFOI": 1.600000023841858,
                            "NABPJFNICAE": 0.0,
                            "MLOLIKEJCKB": 1.600000023841858
                        },
                        "CMLNNDEJCEF": true,
                        "NLICIODEGDO": {
                            "$type": "BMAMOFPPNBD",
                            "JOEDEGAHBHC": {
                                "EMBMLEBGFOI": 0.0,
                                "NABPJFNICAE": 45.0,
                                "MLOLIKEJCKB": 0.0
                            }
                        },
                        "PDCEFGKJHIH": true,
                        "NLBFCDKCPAH": true
                    },
                    "trackTarget": "SelfAttackActiveTarget"
                },
                {
                    "$type": "TriggerBullet",
                    "bulletID": 42506021,
                    "born": {
                        "$type": "AJCFIBNMGKO",
                        "offset": {
                            "EMBMLEBGFOI": -1.600000023841858,
                            "NABPJFNICAE": 0.0,
                            "MLOLIKEJCKB": 1.600000023841858
                        },
                        "CMLNNDEJCEF": true,
                        "NLICIODEGDO": {
                            "$type": "BMAMOFPPNBD",
                            "JOEDEGAHBHC": {
                                "EMBMLEBGFOI": 0.0,
                                "NABPJFNICAE": -45.0,
                                "MLOLIKEJCKB": 0.0
                            }
                        },
                        "PDCEFGKJHIH": true,
                        "NLBFCDKCPAH": true
                    },
                    "trackTarget": "SelfAttackActiveTarget"
                }
            ]
        }
    },
    {
        "Default": {
            "$type": "ConfigAbility",
            "abilityName": "Thoarder_MuscleMan_NoWeapon_Zeppeli_LandStrike_BreakStone_BulletLogic",
            "modifiers": {
                "Bullet_TriggerDamage": {
                    "modifierName": "",
                    "duration": 0.8100000023841858,
                    "bonusCriticalHurt": 100.0,
                    "thinkInterval": 0.20000000298023224,
                    "onAdded": [
                        {
                            "$type": "FireEffect",
                            "shieldHP": "Eff_Monster_Thoarder_MuscleMan_NoWeapon_Zeppeli_LandStrike_Rock",
                            "born": {
                                "$type": "AJCFIBNMGKO",
                                "NLBFCDKCPAH": true
                            },
                            "effectTempleteID": -1.0
                        },
                        {
                            "$type": "TriggerAttackEvent",
                            "attackEvent": {
                                "attackPattern": {
                                    "$type": "FPJICLLGBLO",
                                    "triggerType": "TriggerNoRepeat",
                                    "born": {
                                        "$type": "AJCFIBNMGKO",
                                        "offset": {
                                            "EMBMLEBGFOI": 0.0,
                                            "NABPJFNICAE": -0.5,
                                            "MLOLIKEJCKB": 0.0
                                        },
                                        "NLBFCDKCPAH": true
                                    },
                                    "height": 2.0,
                                    "DLFACKMBPCH": 1.5
                                },
                                "attackInfo": {
                                    "attackTag": "",
                                    "attenuationTag": "BreakStone_Damage",
                                    "attenuationGroup": "Universal_RushAttack",
                                    "attackProperty": {
                                        "ACKCDHKEGCK": 0.6000000238418579,
                                        "JIICGJODDDM": 0.0,
                                        "bonusCriticalHurt": 100.0,
                                        "strikeType": "Default",
                                        "enBreak": 101.0,
                                        "attackType": "Range",
                                        "damagePercentage": 0.0
                                    },
                                    "hitPattern": {
                                        "onHitEffectName": "default",
                                        "hitImpulseType": "LV5",
                                        "retreatType": "ByOriginOwner"
                                    },
                                    "canBeModifiedBy": "OriginOwner"
                                }
                            },
                            "targetType": "Enemy"
                        }
                    ],
                    "onThinkInterval": [
                        {
                            "$type": "FireEffect",
                            "shieldHP": "Eff_Monster_Thoarder_MuscleMan_NoWeapon_Zeppeli_LandStrike_Rock",
                            "born": {
                                "$type": "AJCFIBNMGKO",
                                "PDCEFGKJHIH": true,
                                "NLBFCDKCPAH": true
                            },
                            "effectTempleteID": -1.0
                        },
                        {
                            "$type": "TriggerAttackEvent",
                            "attackEvent": {
                                "attackPattern": {
                                    "$type": "FPJICLLGBLO",
                                    "triggerType": "TriggerNoRepeat",
                                    "born": {
                                        "$type": "AJCFIBNMGKO",
                                        "offset": {
                                            "EMBMLEBGFOI": 0.0,
                                            "NABPJFNICAE": -0.5,
                                            "MLOLIKEJCKB": 0.0
                                        },
                                        "NLBFCDKCPAH": true
                                    },
                                    "height": 2.0,
                                    "DLFACKMBPCH": 1.5
                                },
                                "attackInfo": {
                                    "attackTag": "",
                                    "attenuationTag": "BreakStone_Damage",
                                    "attenuationGroup": "Universal_RushAttack",
                                    "attackProperty": {
                                        "ACKCDHKEGCK": 0.6000000238418579,
                                        "JIICGJODDDM": 0.0,
                                        "bonusCriticalHurt": 100.0,
                                        "strikeType": "Default",
                                        "enBreak": 101.0,
                                        "attackType": "Range",
                                        "damagePercentage": 0.0
                                    },
                                    "hitPattern": {
                                        "onHitEffectName": "default",
                                        "hitImpulseType": "LV5",
                                        "retreatType": "ByOriginOwner"
                                    },
                                    "canBeModifiedBy": "OriginOwner"
                                }
                            },
                            "targetType": "Enemy"
                        }
                    ]
                }
            },
            "onAdded": [
                {
                    "$type": "ApplyModifier",
                    "modifierName": "Bullet_TriggerDamage"
                }
            ]
        }
    },
    {
        "Default": {
            "$type": "ConfigAbility",
            "abilityName": "Thoarder_MuscleMan_NoWeapon_Zeppeli_HitH_BreakFall",
            "onAbilityStart": [
                {
                    "$type": "Predicated",
                    "targetPredicates": [
                        {
                            "$type": "BMLGBKCIOIN",
                            "target": "Self",
                            "key": "_COUNTER_COOLDOWN",
                            "ratio": 0.0
                        }
                    ],
                    "successActions": [
                        {
                            "$type": "Predicated",
                            "targetPredicates": [
                                {
                                    "$type": "BNBCAPKFNNP",
                                    "target": "Self",
                                    "ratio": 1,
                                    "parameter": "Stage"
                                }
                            ],
                            "successActions": [
                                {
                                    "$type": "Randomed",
                                    "chance": 0.4000000059604645,
                                    "successActions": [
                                        {
                                            "$type": "SetAnimatorTrigger",
                                            "triggerID": "BreakFall_H_LandStrike",
                                            "MPTriggerOnRemote": true
                                        }
                                    ],
                                    "failActions": [
                                        {
                                            "$type": "SetAnimatorTrigger",
                                            "triggerID": "BreakFall_H_PowerStrike",
                                            "MPTriggerOnRemote": true
                                        }
                                    ]
                                }
                            ],
                            "failActions": [
                                {
                                    "$type": "SetAnimatorTrigger",
                                    "triggerID": "BreakFall_H_PowerStrike",
                                    "MPTriggerOnRemote": true
                                }
                            ]
                        }
                    ]
                }
            ]
        }
    }
]