[
    {
        "Default": {
            "$type": "ConfigAbility",
            "abilityName": "Eremite_Crossbow_AnimatorSteer",
            "abilityMixins": [
                {
                    "$type": "SteerAttackMixin",
                    "steerStateIDs": [
                        "SingleShoot_Aim",
                        "RapidShoot_BS",
                        "ProjectileShoot_Aim01",
                        "ProjectileShoot_Aim02"
                    ],
                    "startNormalizedTime": 0.06700000166893005,
                    "endNormalizedTime": 0.12999999523162842,
                    "angularSpeed": 10.0,
                    "attackTrigger": ""
                },
                {
                    "$type": "SteerAttackMixin",
                    "steerStateIDs": [
                        "SingleShoot_Fire",
                        "RapidShoot_AS",
                        "ProjectileShoot_Fire01",
                        "ProjectileShoot_Fire02"
                    ],
                    "startNormalizedTime": 0.7250000238418579,
                    "endNormalizedTime": 0.800000011920929,
                    "angularSpeed": 180.0,
                    "attackTrigger": ""
                },
                {
                    "$type": "SteerAttackMixin",
                    "steerStateIDs": [
                        "SingleShoot_Exit",
                        "RapidShoot_AS_Loaded"
                    ],
                    "endNormalizedTime": 0.9700000286102295,
                    "angularSpeed": 160.0,
                    "attackTrigger": ""
                },
                {
                    "$type": "SteerAttackMixin",
                    "steerStateIDs": [
                        "Alert"
                    ],
                    "angularSpeed": 270.0,
                    "attackTrigger": ""
                },
                {
                    "$type": "SteerAttackMixin",
                    "steerStateIDs": [
                        "Crossleg_Alert"
                    ],
                    "startNormalizedTime": 0.11100000143051147,
                    "endNormalizedTime": 0.800000011920929,
                    "angularSpeed": 250.0,
                    "attackTrigger": ""
                }
            ]
        }
    },
    {
        "Default": {
            "$type": "ConfigAbility",
            "abilityName": "Eremite_Crossbow_ProjectileShoot_Load",
            "onAbilityStart": [
                {
                    "$type": "FireEffect",
                    "shieldHP": "Eff_Monster_Eremite_ProjectileShoot_WarningLight",
                    "born": {
                        "$type": "ILHMMCNMNEG",
                        "attachPointName": "WeaponR"
                    },
                    "effectTempleteID": -1.0
                },
                {
                    "$type": "Predicated",
                    "predicates": [
                        {
                            "$type": "GANAKOPLMGI",
                            "predicates": [
                                {
                                    "$type": "LAEHCOBNNDC",
                                    "target": "SelfAttackTarget",
                                    "ratio": 11.0
                                },
                                {
                                    "$type": "LAEHCOBNNDC",
                                    "target": "SelfAttackTarget",
                                    "PODFMDAEAGL": "Y",
                                    "ratio": 1.2000000476837158
                                }
                            ]
                        }
                    ],
                    "successActions": [
                        {
                            "$type": "SetAnimatorTrigger",
                            "triggerID": "ProjectileTrigger"
                        }
                    ]
                }
            ]
        }
    },
    {
        "Default": {
            "$type": "ConfigAbility",
            "abilityName": "Eremite_Crossbow_Fire_Dendro_Bomb",
            "onAbilityStart": [
                {
                    "$type": "FireEffect",
                    "shieldHP": "Eff_Monster_Eremite_ProjectileShoot_Fire",
                    "effectTempleteID": -1.0
                },
                {
                    "$type": "TriggerBullet",
                    "bulletID": 42520003,
                    "born": {
                        "$type": "ILHMMCNMNEG",
                        "offset": {
                            "EMBMLEBGFOI": 0.0,
                            "NABPJFNICAE": 0.0,
                            "MLOLIKEJCKB": 0.0
                        },
                        "NLICIODEGDO": {
                            "$type": "LMJLBCAMMCF",
                            "GLHCPJCOJHC": "Horizontal",
                            "maxAngle": 12.0,
                            "LFBEIDHIMIL": ""
                        },
                        "attachPointName": "WeaponR"
                    }
                }
            ]
        }
    },
    {
        "Default": {
            "$type": "ConfigAbility",
            "abilityName": "Eremite_Crossbow_Fire_Dendro_Bomb_Hov",
            "onAbilityStart": [
                {
                    "$type": "FireEffect",
                    "shieldHP": "Eff_Monster_Eremite_ProjectileShoot_Fire",
                    "effectTempleteID": -1.0
                },
                {
                    "$type": "TriggerBullet",
                    "bulletID": 42520004,
                    "born": {
                        "$type": "ILHMMCNMNEG",
                        "offset": {
                            "EMBMLEBGFOI": 0.0,
                            "NABPJFNICAE": 0.0,
                            "MLOLIKEJCKB": 0.0
                        },
                        "NLICIODEGDO": {
                            "$type": "LMJLBCAMMCF",
                            "GLHCPJCOJHC": "Horizontal",
                            "maxAngle": 12.0,
                            "LFBEIDHIMIL": ""
                        },
                        "attachPointName": "WeaponR"
                    }
                }
            ]
        }
    },
    {
        "Default": {
            "$type": "ConfigAbility",
            "abilityName": "Eremite_Crossbow_SingleShoot_Fire",
            "onAbilityStart": [
                {
                    "$type": "TriggerBullet",
                    "bulletID": 42520001,
                    "born": {
                        "$type": "ILHMMCNMNEG",
                        "offset": {
                            "EMBMLEBGFOI": 0.20000000298023224,
                            "NABPJFNICAE": 0.0,
                            "MLOLIKEJCKB": 0.10000000149011612
                        },
                        "NLICIODEGDO": {
                            "$type": "LMJLBCAMMCF",
                            "LEKMGEAEPLG": 0.20000000298023224,
                            "NGCHIBLALBI": 0.4000000059604645,
                            "maxAngle": 40.0,
                            "LFBEIDHIMIL": ""
                        },
                        "attachPointName": "WeaponR"
                    }
                },
                {
                    "$type": "FireEffect",
                    "shieldHP": "Eff_Monster_Eremite_Crossbow_Shoot_01",
                    "effectTempleteID": -1.0
                }
            ]
        }
    },
    {
        "Default": {
            "$type": "ConfigAbility",
            "abilityName": "Eremite_Crossbow_RapidShoot_Fire",
            "abilitySpecials": {
                "shootingDuration": 4.0
            },
            "modifiers": {
                "In_RapidShooting": {
                    "stacking": "Unique",
                    "modifierName": "",
                    "duration": "shootingDuration",
                    "bonusCriticalHurt": 100.0,
                    "onRemoved": [
                        {
                            "$type": "SetAnimatorTrigger",
                            "triggerID": "RapidShootEndTrigger"
                        }
                    ],
                    "onReconnect": [
                        {
                            "$type": "SetAnimatorTrigger",
                            "triggerID": "RapidShootEndTrigger"
                        }
                    ]
                }
            },
            "onAbilityStart": [
                {
                    "$type": "TriggerBullet",
                    "bulletID": 42520002,
                    "born": {
                        "$type": "ILHMMCNMNEG",
                        "offset": {
                            "EMBMLEBGFOI": 0.20000000298023224,
                            "NABPJFNICAE": 0.0,
                            "MLOLIKEJCKB": 0.10000000149011612
                        },
                        "NLICIODEGDO": {
                            "$type": "LMJLBCAMMCF",
                            "LEKMGEAEPLG": 1.399999976158142,
                            "NGCHIBLALBI": 0.8999999761581421,
                            "maxAngle": 30.0,
                            "LFBEIDHIMIL": ""
                        },
                        "attachPointName": "WeaponR"
                    }
                },
                {
                    "$type": "FireEffect",
                    "shieldHP": "Eff_Monster_Eremite_Crossbow_Shoot_01",
                    "effectTempleteID": -1.0
                },
                {
                    "$type": "SetRandomOverrideMapValue",
                    "valueRangeMax": 5.0,
                    "valueRangeMin": 2.0,
                    "overrideMapKey": "shootingDuration"
                },
                {
                    "$type": "ApplyModifier",
                    "modifierName": "In_RapidShooting"
                }
            ]
        }
    },
    {
        "Default": {
            "$type": "ConfigAbility",
            "abilityName": "Eremit_Crossbow_Arrow_Damage",
            "onAdded": [
                {
                    "$type": "AttachEffect",
                    "shieldHP": "Eff_Monster_Hili_None_CrossBow_Arrow",
                    "effectTempleteID": -1.0
                }
            ],
            "onAbilityStart": [
                {
                    "$type": "TriggerAttackEvent",
                    "attackEvent": {
                        "attackPattern": {
                            "$type": "BOIOFIPLBNK",
                            "triggerType": "TriggerNoRepeat",
                            "born": {
                                "$type": "MNJLPLGJGLI",
                                "offset": {
                                    "EMBMLEBGFOI": 0.0,
                                    "NABPJFNICAE": 0.0,
                                    "MLOLIKEJCKB": -0.5
                                }
                            },
                            "size": {
                                "EMBMLEBGFOI": 0.10000000149011612,
                                "NABPJFNICAE": 0.10000000149011612,
                                "MLOLIKEJCKB": 1.0
                            }
                        },
                        "attackInfo": {
                            "attackTag": "",
                            "attenuationTag": "",
                            "attenuationGroup": "default",
                            "attackProperty": {
                                "ACKCDHKEGCK": 1.0,
                                "JIICGJODDDM": 0.0,
                                "bonusCriticalHurt": 100.0,
                                "strikeType": "Pierce",
                                "enBreak": 50.0,
                                "damagePercentage": 0.0
                            },
                            "hitPattern": {
                                "onHitEffectName": "default",
                                "hitImpulseType": "LV2",
                                "hitHaltTimeScale": 0.009999999776482582
                            },
                            "cameraShake": {
                                "shakeRange": 0.05999999865889549,
                                "shakeTime": 0.09000000357627869
                            },
                            "canBeModifiedBy": "OriginOwner"
                        }
                    },
                    "targetType": "Enemy"
                }
            ]
        }
    },
    {
        "Default": {
            "$type": "ConfigAbility",
            "abilityName": "Eremit_Crossbow_Arrow_Damage_Weak",
            "onAdded": [
                {
                    "$type": "AttachEffect",
                    "shieldHP": "Eff_Monster_Hili_None_CrossBow_Arrow",
                    "effectTempleteID": -1.0
                }
            ],
            "onAbilityStart": [
                {
                    "$type": "TriggerAttackEvent",
                    "attackEvent": {
                        "attackPattern": {
                            "$type": "BOIOFIPLBNK",
                            "triggerType": "TriggerNoRepeat",
                            "born": {
                                "$type": "MNJLPLGJGLI",
                                "offset": {
                                    "EMBMLEBGFOI": 0.0,
                                    "NABPJFNICAE": 0.0,
                                    "MLOLIKEJCKB": -0.5
                                }
                            },
                            "size": {
                                "EMBMLEBGFOI": 0.10000000149011612,
                                "NABPJFNICAE": 0.10000000149011612,
                                "MLOLIKEJCKB": 1.0
                            }
                        },
                        "attackInfo": {
                            "attackTag": "",
                            "attenuationTag": "",
                            "attenuationGroup": "default",
                            "attackProperty": {
                                "ACKCDHKEGCK": 0.6499999761581421,
                                "JIICGJODDDM": 0.0,
                                "bonusCriticalHurt": 100.0,
                                "strikeType": "Pierce",
                                "enBreak": 50.0,
                                "damagePercentage": 0.0
                            },
                            "hitPattern": {
                                "onHitEffectName": "default",
                                "hitImpulseType": "LV2",
                                "hitHaltTimeScale": 0.009999999776482582
                            },
                            "cameraShake": {
                                "shakeRange": 0.05999999865889549,
                                "shakeTime": 0.09000000357627869
                            },
                            "canBeModifiedBy": "OriginOwner"
                        }
                    },
                    "targetType": "Enemy"
                }
            ]
        }
    },
    {
        "Default": {
            "$type": "ConfigAbility",
            "abilityName": "Eremit_Crossbow_Dendro_Bomb_Display",
            "modifiers": {
                "UNIQUE_Dendro_Bomb_Display": {
                    "modifierName": "",
                    "isUnique": true,
                    "elementType": "Grass",
                    "bonusCriticalHurt": 50.0,
                    "onAdded": [
                        {
                            "$type": "AttachEffect",
                            "shieldHP": "Eff_Monster_Eremite_DendroBomb",
                            "effectTempleteID": -1.0
                        }
                    ],
                    "onRemoved": [
                        {
                            "$type": "KillSelf"
                        }
                    ]
                }
            },
            "onAdded": [
                {
                    "$type": "AttachModifier",
                    "modifierName": "UNIQUE_Dendro_Bomb_Display"
                },
                {
                    "$type": "AttachEffect",
                    "shieldHP": "Eff_Monster_Eremite_DendroBomb_Trail",
                    "effectTempleteID": -1.0
                }
            ]
        }
    },
    {
        "Default": {
            "$type": "ConfigAbility",
            "abilityName": "Eremit_Crossbow_Dendro_Bomb_Explosion",
            "onAbilityStart": [
                {
                    "$type": "RemoveUniqueModifier",
                    "modifierName": "UNIQUE_Dendro_Bomb_Display"
                },
                {
                    "$type": "FireEffect",
                    "shieldHP": "Eff_Monster_Eremite_DendroBomb_Explosion",
                    "born": {
                        "$type": "AJCFIBNMGKO",
                        "offset": {
                            "EMBMLEBGFOI": 0.0,
                            "NABPJFNICAE": 0.0,
                            "MLOLIKEJCKB": 0.0
                        },
                        "CMLNNDEJCEF": true,
                        "PDCEFGKJHIH": true
                    },
                    "effectTempleteID": -1.0
                },
                {
                    "$type": "TriggerAttackEvent",
                    "attackEvent": {
                        "attackPattern": {
                            "$type": "AHDHJOAODLF",
                            "triggerType": "TriggerNoRepeat",
                            "born": {
                                "$type": "AJCFIBNMGKO",
                                "offset": {
                                    "EMBMLEBGFOI": 0.0,
                                    "NABPJFNICAE": 0.25,
                                    "MLOLIKEJCKB": 0.0
                                },
                                "CMLNNDEJCEF": true,
                                "PDCEFGKJHIH": true
                            },
                            "DLFACKMBPCH": 2.0
                        },
                        "attackInfo": {
                            "attackTag": "",
                            "attenuationTag": "",
                            "attenuationGroup": "default",
                            "attackProperty": {
                                "ACKCDHKEGCK": 0.699999988079071,
                                "JIICGJODDDM": 0.0,
                                "elementType": "Grass",
                                "bonusCriticalHurt": 50.0,
                                "strikeType": "Default",
                                "enBreak": 50.0,
                                "damagePercentage": 0.0
                            },
                            "hitPattern": {
                                "onHitEffectName": "default",
                                "hitImpulseType": "LV3"
                            },
                            "cameraShake": {
                                "shakeRange": 0.05999999865889549,
                                "shakeTime": 0.09000000357627869
                            },
                            "canBeModifiedBy": "OriginOwner"
                        }
                    },
                    "targetType": "Enemy"
                },
                {
                    "$type": "CreateGadget",
                    "born": {
                        "$type": "AJCFIBNMGKO",
                        "offset": {
                            "EMBMLEBGFOI": 0.0,
                            "NABPJFNICAE": 0.0,
                            "MLOLIKEJCKB": 0.0
                        },
                        "CMLNNDEJCEF": true,
                        "PDCEFGKJHIH": true
                    },
                    "gadgetID": 42520005
                }
            ]
        }
    },
    {
        "Default": {
            "$type": "ConfigAbility",
            "abilityName": "Eremite_Crossbow_Dendro_Bomb_Infection",
            "modifiers": {
                "Dendro_Bomb_Infection": {
                    "modifierName": "",
                    "bonusCriticalHurt": 100.0,
                    "thinkInterval": 0.5,
                    "onAdded": [
                        {
                            "$type": "AttachEffect",
                            "shieldHP": "Eff_Monster_Eremite_DendroBomb_Remains_Loop",
                            "effectTempleteID": -1.0
                        }
                    ],
                    "onThinkInterval": [
                        {
                            "$type": "TriggerAttackEvent",
                            "attackEvent": {
                                "attackPattern": {
                                    "$type": "FPJICLLGBLO",
                                    "triggerType": "TriggerNoRepeat",
                                    "DLFACKMBPCH": 2.0
                                },
                                "attackInfo": {
                                    "attackTag": "",
                                    "attenuationTag": "Group1",
                                    "attenuationGroup": "default",
                                    "attackProperty": {
                                        "ACKCDHKEGCK": 0.20000000298023224,
                                        "JIICGJODDDM": 0.0,
                                        "elementType": "Grass",
                                        "bonusCriticalHurt": 25.0,
                                        "enBreak": 0.0,
                                        "damagePercentage": 0.0
                                    },
                                    "hitPattern": {
                                        "onHitEffectName": "default",
                                        "hitImpulseType": "LV1"
                                    },
                                    "canBeModifiedBy": "OriginOwner"
                                }
                            },
                            "targetType": "Enemy"
                        }
                    ]
                }
            },
            "onAdded": [
                {
                    "$type": "ApplyModifier",
                    "modifierName": "Dendro_Bomb_Infection"
                }
            ]
        }
    }
]