[
    {
        "Default": {
            "$type": "ConfigAbility",
            "abilityName": "Monster_Hilistray_Water_Steer",
            "abilityMixins": [
                {
                    "$type": "SteerAttackMixin",
                    "steerStateIDs": [
                        "Turn"
                    ],
                    "endNormalizedTime": 999.0,
                    "angularSpeed": 120.0,
                    "attackTrigger": ""
                },
                {
                    "$type": "SteerAttackMixin",
                    "steerStateIDs": [
                        "SickleAtk01"
                    ],
                    "startNormalizedTime": 0.14100000262260437,
                    "endNormalizedTime": 0.1889999955892563,
                    "angularSpeed": 120.0,
                    "attackTrigger": ""
                },
                {
                    "$type": "SteerAttackMixin",
                    "steerStateIDs": [
                        "SickleAtk02"
                    ],
                    "startNormalizedTime": 0.1679999977350235,
                    "endNormalizedTime": 0.20800000429153442,
                    "angularSpeed": 90.0,
                    "attackTrigger": ""
                },
                {
                    "$type": "SteerAttackMixin",
                    "steerStateIDs": [
                        "SickleAtk02"
                    ],
                    "startNormalizedTime": 0.34599998593330383,
                    "endNormalizedTime": 0.40299999713897705,
                    "angularSpeed": 120.0,
                    "attackTrigger": ""
                },
                {
                    "$type": "SteerAttackMixin",
                    "steerStateIDs": [
                        "SpearAtk"
                    ],
                    "startNormalizedTime": 0.06599999964237213,
                    "endNormalizedTime": 0.10300000011920929,
                    "angularSpeed": 180.0,
                    "attackTrigger": ""
                },
                {
                    "$type": "SteerAttackMixin",
                    "steerStateIDs": [
                        "RushAtk_BS"
                    ],
                    "startNormalizedTime": 0.25,
                    "endNormalizedTime": 0.3709999918937683,
                    "angularSpeed": 180.0,
                    "attackTrigger": ""
                },
                {
                    "$type": "SteerAttackMixin",
                    "steerStateIDs": [
                        "RushAtk_Loop"
                    ],
                    "endNormalizedTime": 999.0,
                    "angularSpeed": 30.0,
                    "attackTrigger": ""
                },
                {
                    "$type": "SteerAttackMixin",
                    "steerStateIDs": [
                        "RushAtk_AS"
                    ],
                    "endNormalizedTime": 0.0560000017285347,
                    "angularSpeed": 180.0,
                    "attackTrigger": ""
                },
                {
                    "$type": "SteerAttackMixin",
                    "steerStateIDs": [
                        "SlimeAtk"
                    ],
                    "startNormalizedTime": 0.16200000047683716,
                    "endNormalizedTime": 0.25200000405311584,
                    "angularSpeed": 180.0,
                    "attackTrigger": ""
                },
                {
                    "$type": "SteerAttackMixin",
                    "steerStateIDs": [
                        "SpecialAtk_BS"
                    ],
                    "startNormalizedTime": 0.2029999941587448,
                    "endNormalizedTime": 0.35899999737739563,
                    "angularSpeed": 270.0,
                    "attackTrigger": ""
                }
            ]
        }
    },
    {
        "Default": {
            "$type": "ConfigAbility",
            "abilityName": "Monster_Hilistray_Water_ExitBattle",
            "abilityMixins": [
                {
                    "$type": "AttachToAIAlertnessMixin",
                    "alertness": [
                        2
                    ],
                    "modifierName": "ExitBattle"
                },
                {
                    "$type": "AttachToPoseIDMixin",
                    "poseIDs": [
                        905
                    ],
                    "modifierName": "ExitBattle_AnimatorHandler"
                }
            ],
            "modifiers": {
                "ExitBattle": {
                    "modifierName": "",
                    "bonusCriticalHurt": 100.0,
                    "onAdded": [
                        {
                            "$type": "SetGlobalValue",
                            "ratio": 0.0,
                            "key": "_HILISTRAY_WATER_SLIMETAG_",
                            "maxValue": 0.0,
                            "minValue": 0.0
                        }
                    ]
                },
                "ExitBattle_AnimatorHandler": {
                    "modifierName": "",
                    "bonusCriticalHurt": 100.0,
                    "onAdded": [
                        {
                            "$type": "SetAnimatorTrigger",
                            "canBeHandledOnRecover": true,
                            "triggerID": "ReturnToBornTrigger"
                        }
                    ],
                    "onRemoved": [
                        {
                            "$type": "ResetAnimatorTrigger",
                            "canBeHandledOnRecover": true,
                            "triggerID": "ReturnToBornTrigger"
                        }
                    ]
                }
            }
        }
    },
    {
        "Default": {
            "$type": "ConfigAbility",
            "abilityName": "Monster_Hilistray_Water_Alert",
            "onAbilityStart": [
                {
                    "$type": "SetPoseBool",
                    "boolID": "Box"
                },
                {
                    "$type": "SetPoseBool",
                    "boolID": "Sit"
                },
                {
                    "$type": "SetPoseBool",
                    "boolID": "Teach"
                }
            ]
        }
    },
    {
        "Default": {
            "$type": "ConfigAbility",
            "abilityName": "Monster_Hilistray_Water_SickleAtk01",
            "abilityMixins": [
                {
                    "$type": "AttachToStateIDMixin",
                    "stateIDs": [
                        "SickleAtk01"
                    ],
                    "modifierName": "Hilistray_Water_SickleAtk01_TriggerHandler"
                }
            ],
            "modifiers": {
                "Hilistray_Water_SickleAtk01_ComboDetect": {
                    "modifierName": "",
                    "duration": 0.20000000298023224,
                    "bonusCriticalHurt": 100.0,
                    "onAdded": [
                        {
                            "$type": "Predicated",
                            "target": "SelfAttackTarget",
                            "targetPredicates": [
                                {
                                    "$type": "LAEHCOBNNDC",
                                    "logic": "Lesser",
                                    "ratio": 10.0
                                },
                                {
                                    "$type": "JEDOOFEJFMO",
                                    "logic": "Lesser",
                                    "ratio": 110.0,
                                    "AFJBANBMPOP": ""
                                }
                            ],
                            "successActions": [
                                {
                                    "$type": "SetAnimatorTrigger",
                                    "triggerID": "SickleAtkCombo"
                                }
                            ]
                        }
                    ]
                },
                "Hilistray_Water_SickleAtk01_TriggerHandler": {
                    "modifierName": "",
                    "bonusCriticalHurt": 100.0,
                    "onAdded": [
                        {
                            "$type": "ResetAnimatorTrigger",
                            "triggerID": "SickleAtkCombo"
                        }
                    ]
                }
            },
            "onAbilityStart": [
                {
                    "$type": "ApplyModifier",
                    "modifierName": "Hilistray_Water_SickleAtk01_ComboDetect"
                }
            ]
        }
    },
    {
        "Default": {
            "$type": "ConfigAbility",
            "abilityName": "Monster_Hilistray_Water_SickleAtk02_RushMove",
            "abilityMixins": [
                {
                    "$type": "AttachToStateIDMixin",
                    "stateIDs": [
                        "SickleAtk02"
                    ],
                    "modifierName": "Hilistray_Water_SickleAtk02_RushMove_Handler"
                }
            ],
            "modifiers": {
                "Hilistray_Water_SickleAtk02_RushMove": {
                    "modifierName": "",
                    "bonusCriticalHurt": 100.0,
                    "onAdded": [
                        {
                            "$type": "FixedMonsterRushMove",
                            "toPos": {
                                "$type": "AJCFIBNMGKO",
                                "offset": {
                                    "EMBMLEBGFOI": 0.0,
                                    "NABPJFNICAE": 0.0,
                                    "MLOLIKEJCKB": 2.4000000953674316
                                },
                                "CMLNNDEJCEF": true,
                                "NLBFCDKCPAH": true
                            },
                            "timeRange": 0.30000001192092896,
                            "animatorStateIDs": [
                                "SickleAtk02"
                            ],
                            "overrideMoveCollider": ""
                        }
                    ]
                },
                "Hilistray_Water_SickleAtk02_RushMove_Handler": {
                    "modifierName": "",
                    "bonusCriticalHurt": 100.0,
                    "onRemoved": [
                        {
                            "$type": "RemoveModifier",
                            "modifierName": "Hilistray_Water_SickleAtk02_RushMove"
                        }
                    ]
                }
            },
            "onAbilityStart": [
                {
                    "$type": "ApplyModifier",
                    "modifierName": "Hilistray_Water_SickleAtk02_RushMove"
                }
            ]
        }
    },
    {
        "Default": {
            "$type": "ConfigAbility",
            "abilityName": "Monster_Hilistray_Water_RushAtk",
            "abilityMixins": [
                {
                    "$type": "AttachToStateIDMixin",
                    "stateIDs": [
                        "RushAtk_BS",
                        "RushAtk_Loop"
                    ],
                    "modifierName": "Hilistray_Water_RushAtk_KillBullet"
                }
            ],
            "modifiers": {
                "Hilistray_Water_RushAtk_KillBullet": {
                    "modifierName": "",
                    "bonusCriticalHurt": 100.0,
                    "onAdded": [
                        {
                            "$type": "SetGlobalValue",
                            "ratio": 0.0,
                            "key": "_HILISTRAY_WATER_RUSHATK_FOLLOWBULLET_",
                            "maxValue": 0.0,
                            "minValue": 0.0
                        }
                    ],
                    "onRemoved": [
                        {
                            "$type": "SetGlobalValue",
                            "ratio": 1.0,
                            "key": "_HILISTRAY_WATER_RUSHATK_FOLLOWBULLET_",
                            "maxValue": 0.0,
                            "minValue": 0.0
                        },
                        {
                            "$type": "RemoveUniqueModifier",
                            "modifierName": "UNIQUE_Hilistray_Water_RushAtk_FollowEffect"
                        }
                    ]
                }
            },
            "onAdded": [
                {
                    "$type": "SetGlobalValue",
                    "ratio": 0.0,
                    "key": "_HILISTRAY_WATER_RUSHATK_FOLLOWBULLET_",
                    "maxValue": 0.0,
                    "minValue": 0.0
                }
            ],
            "onAbilityStart": [
                {
                    "$type": "SetGlobalValue",
                    "ratio": 1.0,
                    "key": "_HILISTRAY_WATER_RUSHATK_FOLLOWBULLET_",
                    "maxValue": 0.0,
                    "minValue": 0.0
                }
            ]
        }
    },
    {
        "Default": {
            "$type": "ConfigAbility",
            "abilityName": "Monster_Hilistray_Water_RushAtk_FollowEffect",
            "modifiers": {
                "UNIQUE_Hilistray_Water_RushAtk_FollowEffect": {
                    "modifierName": "",
                    "isUnique": true,
                    "bonusCriticalHurt": 100.0,
                    "onAdded": [
                        {
                            "$type": "AttachEffect",
                            "shieldHP": "Eff_Monster_Hilistray_Water_RushAtk_Loop",
                            "effectTempleteID": -1.0
                        }
                    ]
                }
            },
            "onAbilityStart": [
                {
                    "$type": "ApplyModifier",
                    "modifierName": "UNIQUE_Hilistray_Water_RushAtk_FollowEffect"
                }
            ]
        }
    },
    {
        "Default": {
            "$type": "ConfigAbility",
            "abilityName": "Monster_Hilistray_Water_RushAtk_FollowBullet",
            "onAbilityStart": [
                {
                    "$type": "TriggerBullet",
                    "bulletID": 42104015,
                    "born": {
                        "$type": "AJCFIBNMGKO",
                        "offset": {
                            "EMBMLEBGFOI": 0.0,
                            "NABPJFNICAE": 0.0,
                            "MLOLIKEJCKB": 0.0
                        },
                        "NLBFCDKCPAH": true
                    },
                    "trackTarget": "Self",
                    "lifeByOwnerV2": true
                }
            ]
        }
    },
    {
        "Default": {
            "$type": "ConfigAbility",
            "abilityName": "Hilistray_Water_RushAtk_FollowBullet",
            "abilityMixins": [
                {
                    "$type": "AttachModifierToGlobalValueMixin",
                    "globalValueTarget": "Owner",
                    "globalValueKey": "_HILISTRAY_WATER_RUSHATK_FOLLOWBULLET_",
                    "valueSteps": [
                        -0.5,
                        0.5,
                        1.5
                    ],
                    "modifierNameSteps": [
                        "Blank",
                        "Hilistray_Water_RushAtk_FollowBullet_Kill"
                    ]
                }
            ],
            "modifiers": {
                "Hilistray_Water_RushAtk_FollowBullet_Kill": {
                    "modifierName": "",
                    "bonusCriticalHurt": 100.0,
                    "onAdded": [
                        {
                            "$type": "KillSelf"
                        }
                    ]
                },
                "Blank": {
                    "modifierName": "",
                    "bonusCriticalHurt": 100.0
                }
            },
            "onAbilityStart": [
                {
                    "$type": "SetAnimatorTrigger",
                    "target": "OriginOwner",
                    "triggerID": "RushAtkEnd"
                }
            ]
        }
    },
    {
        "Default": {
            "$type": "ConfigAbility",
            "abilityName": "Monster_Hilistray_Water_SlimeAtk_Bullet",
            "onAbilityStart": [
                {
                    "$type": "TriggerBullet",
                    "bulletID": 42104016,
                    "born": {
                        "$type": "ILHMMCNMNEG",
                        "offset": {
                            "EMBMLEBGFOI": 0.0,
                            "NABPJFNICAE": 0.0,
                            "MLOLIKEJCKB": 0.0
                        },
                        "NLICIODEGDO": {
                            "$type": "AFMBBEHONJE",
                            "JOEDEGAHBHC": {
                                "EMBMLEBGFOI": 0.0,
                                "NABPJFNICAE": 0.0,
                                "MLOLIKEJCKB": 0.0
                            },
                            "attachPointName": "SlimeAtkPoint1",
                            "HLNCPLHDEND": "Self"
                        },
                        "NLBFCDKCPAH": true,
                        "attachPointName": "SlimeAtkPoint1"
                    },
                    "lifeByOwnerV2": true
                },
                {
                    "$type": "TriggerBullet",
                    "bulletID": 42104016,
                    "born": {
                        "$type": "ILHMMCNMNEG",
                        "offset": {
                            "EMBMLEBGFOI": 0.0,
                            "NABPJFNICAE": 0.0,
                            "MLOLIKEJCKB": 0.0
                        },
                        "NLICIODEGDO": {
                            "$type": "AFMBBEHONJE",
                            "JOEDEGAHBHC": {
                                "EMBMLEBGFOI": 0.0,
                                "NABPJFNICAE": 0.0,
                                "MLOLIKEJCKB": 0.0
                            },
                            "attachPointName": "SlimeAtkPoint2",
                            "HLNCPLHDEND": "Self"
                        },
                        "NLBFCDKCPAH": true,
                        "attachPointName": "SlimeAtkPoint2"
                    },
                    "lifeByOwnerV2": true
                },
                {
                    "$type": "TriggerBullet",
                    "bulletID": 42104016,
                    "born": {
                        "$type": "ILHMMCNMNEG",
                        "offset": {
                            "EMBMLEBGFOI": 0.0,
                            "NABPJFNICAE": 0.0,
                            "MLOLIKEJCKB": 0.0
                        },
                        "NLICIODEGDO": {
                            "$type": "AFMBBEHONJE",
                            "JOEDEGAHBHC": {
                                "EMBMLEBGFOI": 0.0,
                                "NABPJFNICAE": 0.0,
                                "MLOLIKEJCKB": 0.0
                            },
                            "attachPointName": "SlimeAtkPoint3",
                            "HLNCPLHDEND": "Self"
                        },
                        "NLBFCDKCPAH": true,
                        "attachPointName": "SlimeAtkPoint3"
                    },
                    "lifeByOwnerV2": true
                }
            ]
        }
    },
    {
        "Default": {
            "$type": "ConfigAbility",
            "abilityName": "Hilistray_Water_SlimeAtk_Bullet",
            "modifiers": {
                "SlimeBullet_Effect": {
                    "modifierName": "",
                    "bonusCriticalHurt": 100.0,
                    "onAdded": [
                        {
                            "$type": "AttachEffect",
                            "shieldHP": "Eff_Monster_Hilistray_Water_SlimeAtk_SlimeBullet",
                            "effectTempleteID": -1.0
                        }
                    ]
                }
            },
            "onAdded": [
                {
                    "$type": "ApplyModifier",
                    "modifierName": "SlimeBullet_Effect"
                }
            ],
            "onAbilityStart": [
                {
                    "$type": "TriggerAttackEvent",
                    "attackEvent": {
                        "attackPattern": {
                            "$type": "AHDHJOAODLF",
                            "triggerType": "TriggerNoRepeat",
                            "born": {
                                "$type": "AJCFIBNMGKO",
                                "NLBFCDKCPAH": true
                            },
                            "DLFACKMBPCH": 1.350000023841858
                        },
                        "attackInfo": {
                            "attackTag": "",
                            "attenuationTag": "Hilistray_Water_SlimeAtk",
                            "attenuationGroup": "Hilistray_Water_SlimeAtk",
                            "attackProperty": {
                                "ACKCDHKEGCK": 0.800000011920929,
                                "JIICGJODDDM": 0.0,
                                "elementType": "Water",
                                "bonusCriticalHurt": 25.0,
                                "strikeType": "Default",
                                "enBreak": 50.0,
                                "attackType": "Range",
                                "damagePercentage": 0.0
                            },
                            "hitPattern": {
                                "onHitEffectName": "default",
                                "hitImpulseType": "LV3",
                                "retreatType": "ByHitDirection",
                                "hitHaltTimeScale": 0.05000000074505806
                            },
                            "canBeModifiedBy": "OriginOwner"
                        }
                    },
                    "targetType": "Enemy"
                },
                {
                    "$type": "FireEffect",
                    "shieldHP": "Eff_Monster_Hilistray_Water_SlimeAtk_SlimeBullet_AS",
                    "born": {
                        "$type": "AJCFIBNMGKO",
                        "offset": {
                            "EMBMLEBGFOI": 0.0,
                            "NABPJFNICAE": 0.0,
                            "MLOLIKEJCKB": 0.0
                        },
                        "PDCEFGKJHIH": true,
                        "NLBFCDKCPAH": true
                    },
                    "effectTempleteID": -1.0
                },
                {
                    "$type": "RemoveModifier",
                    "modifierName": "SlimeBullet_Effect"
                },
                {
                    "$type": "KillSelf"
                }
            ]
        }
    },
    {
        "Default": {
            "$type": "ConfigAbility",
            "abilityName": "Monster_Hilistray_Water_SpecialAtk_CreateSlime",
            "abilityMixins": [
                {
                    "$type": "AttachToAbilityStateMixin",
                    "abilityStates": [
                        "ElementFreeze"
                    ],
                    "modifierName": "Hilistray_Water_SpecialAtk_HilistrayFreezeHandler"
                },
                {
                    "$type": "AttachToAbilityStateMixin",
                    "abilityStates": [
                        "ElementPetrifaction"
                    ],
                    "modifierName": "Hilistray_Water_SpecialAtk_HilistrayPetrifactionHandler"
                }
            ],
            "modifiers": {
                "Hilistray_Water_SpecialAtk_HilistrayFreezeHandler": {
                    "modifierName": "",
                    "bonusCriticalHurt": 100.0,
                    "onAdded": [
                        {
                            "$type": "SetGlobalValue",
                            "ratio": 1.0,
                            "key": "_HILISTRAY_WATER_SELF_FREEZE_",
                            "maxValue": 0.0,
                            "minValue": 0.0
                        },
                        {
                            "$type": "AttachModifier",
                            "otherTargets": {
                                "$type": "LHDLMLKCBME",
                                "MFHFKEPJJOD": [
                                    "equip01",
                                    "equip02"
                                ]
                            },
                            "predicates": [
                                {
                                    "$type": "BMLGBKCIOIN",
                                    "key": "_HILISTRAY_WATER_SLIME_FREEZE_",
                                    "ratio": 0.0,
                                    "PODFMDAEAGL": "NoneOrEqual"
                                }
                            ],
                            "modifierName": "Hilistray_Water_SpecialAtk_HilistrayFreeze"
                        }
                    ],
                    "onRemoved": [
                        {
                            "$type": "SetGlobalValue",
                            "ratio": 0.0,
                            "key": "_HILISTRAY_WATER_SELF_FREEZE_",
                            "maxValue": 0.0,
                            "minValue": 0.0
                        }
                    ]
                },
                "Hilistray_Water_SpecialAtk_HilistrayFreeze": {
                    "modifierName": "",
                    "bonusCriticalHurt": 100.0,
                    "state": "ElementFreeze"
                },
                "Hilistray_Water_SpecialAtk_HilistrayPetrifactionHandler": {
                    "modifierName": "",
                    "bonusCriticalHurt": 100.0,
                    "onAdded": [
                        {
                            "$type": "AttachModifier",
                            "otherTargets": {
                                "$type": "LHDLMLKCBME",
                                "MFHFKEPJJOD": [
                                    "equip01",
                                    "equip02"
                                ]
                            },
                            "modifierName": "Hilistray_Water_SpecialAtk_HilistrayPetrifaction"
                        }
                    ]
                },
                "Hilistray_Water_SpecialAtk_HilistrayPetrifaction": {
                    "modifierName": "",
                    "bonusCriticalHurt": 100.0,
                    "state": "ElementPetrifaction"
                }
            },
            "onAbilityStart": [
                {
                    "$type": "TriggerCreateGadgetToEquipPart",
                    "gadgetID": 42104011,
                    "equipPart": "equip01"
                },
                {
                    "$type": "EnablePushColliderName",
                    "canBeHandledOnRecover": true,
                    "pushColliderNames": [
                        "PushCollider_Slime"
                    ],
                    "setEnable": true
                }
            ]
        }
    },
    {
        "Default": {
            "$type": "ConfigAbility",
            "abilityName": "Monster_Hilistray_Water_SpecialAtk_RemoveSlime",
            "abilityMixins": [
                {
                    "$type": "AttachToStateIDMixin",
                    "stateIDs": [
                        "SpecialAtk"
                    ],
                    "modifierName": "Hilistray_Water_SpecialAtk_SlimeNormalState"
                },
                {
                    "$type": "AttachToAnimatorStateIDMixin",
                    "stateIDs": [
                        "SpecialAtk_Loop"
                    ],
                    "modifierName": "Hilistray_Water_SpecialAtk_SlimeHitState"
                }
            ],
            "modifiers": {
                "Hilistray_Water_SpecialAtk_SlimeNormalState": {
                    "modifierName": "",
                    "bonusCriticalHurt": 100.0,
                    "properties": {
                        "Actor_EndureDelta": 0.009999999776482582
                    },
                    "onAdded": [
                        {
                            "$type": "ServerMonsterLog",
                            "paramList": [
                                0,
                                0
                            ]
                        },
                        {
                            "$type": "ResetAnimatorTrigger",
                            "triggerID": "SpecialAtkEnd"
                        },
                        {
                            "$type": "SetGlobalValue",
                            "ratio": 0.0,
                            "key": "_HILISTRAY_WATER_SLIMETAG_",
                            "maxValue": 0.0,
                            "minValue": 0.0
                        }
                    ],
                    "onRemoved": [
                        {
                            "$type": "EnablePushColliderName",
                            "canBeHandledOnRecover": true,
                            "pushColliderNames": [
                                "PushCollider_Slime"
                            ]
                        },
                        {
                            "$type": "SetGlobalValue",
                            "ratio": 3.0,
                            "key": "_HILISTRAY_WATER_SLIMETAG_",
                            "maxValue": 0.0,
                            "minValue": 0.0
                        }
                    ]
                },
                "Hilistray_Water_SpecialAtk_SlimeHitState": {
                    "modifierName": "",
                    "bonusCriticalHurt": 100.0,
                    "onAdded": [
                        {
                            "$type": "SetGlobalValue",
                            "ratio": 1.0,
                            "key": "_HILISTRAY_WATER_SLIMETAG_",
                            "maxValue": 0.0,
                            "minValue": 0.0
                        }
                    ]
                }
            }
        }
    },
    {
        "Default": {
            "$type": "ConfigAbility",
            "abilityName": "Monster_Hilistray_Water_SpecialAtk_SlimeShake",
            "onAbilityStart": [
                {
                    "$type": "TriggerAbility",
                    "otherTargets": {
                        "$type": "BMGGFEAPNEB",
                        "topLimit": 1,
                        "configID": 42104011
                    },
                    "abilityName": "Hilistray_Water_SpecialAtk_Slime_SlimeShake"
                }
            ]
        }
    },
    {
        "Default": {
            "$type": "ConfigAbility",
            "abilityName": "Monster_Hilistray_Water_SpecialAtk_Bubble",
            "onAbilityStart": [
                {
                    "$type": "TriggerAbility",
                    "otherTargets": {
                        "$type": "BMGGFEAPNEB",
                        "topLimit": 1,
                        "configID": 42104011
                    },
                    "abilityName": "Hilistray_Water_SpecialAtk_Slime_FireBubble"
                }
            ]
        }
    },
    {
        "Default": {
            "$type": "ConfigAbility",
            "abilityName": "Monster_Hilistray_Water_SpecialAtk_SlimeShrink",
            "onAbilityStart": [
                {
                    "$type": "TriggerAbility",
                    "otherTargets": {
                        "$type": "BMGGFEAPNEB",
                        "topLimit": 1,
                        "configID": 42104011
                    },
                    "abilityName": "Hilistray_Water_SpecialAtk_Slime_Shrink"
                }
            ]
        }
    },
    {
        "Default": {
            "$type": "ConfigAbility",
            "abilityName": "Monster_Hilistray_Water_SpecialAtk_SmallSpray",
            "onAbilityStart": [
                {
                    "$type": "TriggerAbility",
                    "otherTargets": {
                        "$type": "BMGGFEAPNEB",
                        "topLimit": 1,
                        "configID": 42104011
                    },
                    "abilityName": "Hilistray_Water_SpecialAtk_Slime_SmallSpray"
                }
            ]
        }
    },
    {
        "Default": {
            "$type": "ConfigAbility",
            "abilityName": "Monster_Hilistray_Water_SpecialAtk_KickSlime",
            "onAbilityStart": [
                {
                    "$type": "SetGlobalValue",
                    "ratio": 2.0,
                    "key": "_HILISTRAY_WATER_SLIMETAG_",
                    "maxValue": 0.0,
                    "minValue": 0.0
                },
                {
                    "$type": "TriggerThrowEquipPart",
                    "equipPart": "equip01",
                    "born": {
                        "$type": "ALJGHOOKOAP",
                        "NLICIODEGDO": {
                            "$type": "LMJLBCAMMCF",
                            "GLHCPJCOJHC": "Horizontal",
                            "maxAngle": 10.0,
                            "LFBEIDHIMIL": ""
                        }
                    }
                },
                {
                    "$type": "EnablePushColliderName",
                    "canBeHandledOnRecover": true,
                    "pushColliderNames": [
                        "PushCollider_Slime"
                    ]
                }
            ]
        }
    },
    {
        "Default": {
            "$type": "ConfigAbility",
            "abilityName": "Hilistray_Water_SpecialAtk_Slime",
            "abilityMixins": [
                {
                    "$type": "AttachModifierToGlobalValueMixin",
                    "globalValueTarget": "Owner",
                    "globalValueKey": "_HILISTRAY_WATER_SLIMETAG_",
                    "valueSteps": [
                        -0.5,
                        0.5,
                        1.5,
                        2.5,
                        3.5
                    ],
                    "modifierNameSteps": [
                        "Hilistray_Water_SpecialAtk_Slime_Normal",
                        "Hilistray_Water_SpecialAtk_Slime_Expand",
                        "Hilistray_Water_SpecialAtk_Slime_Throw",
                        "Hilistray_Water_SpecialAtk_Slime_Kill"
                    ]
                },
                {
                    "$type": "AttachToStateIDMixin",
                    "stateIDs": [
                        "Shrink",
                        "ShrinkStandby"
                    ],
                    "modifierName": "Hilistray_Water_SpecialAtk_Slime_ShrinkFace"
                },
                {
                    "$type": "AttachToAbilityStateMixin",
                    "abilityStates": [
                        "ElementFreeze"
                    ],
                    "modifierName": "Hilistray_Water_SpecialAtk_SlimeFreezeHandler"
                },
                {
                    "$type": "AttachToAbilityStateMixin",
                    "abilityStates": [
                        "ElementPetrifaction"
                    ],
                    "modifierName": "Hilistray_Water_SpecialAtk_SlimePetrifactionHandler"
                }
            ],
            "modifiers": {
                "Hilistray_Water_SpecialAtk_Slime_Normal": {
                    "modifierName": "",
                    "bonusCriticalHurt": 100.0,
                    "onAdded": [
                        {
                            "$type": "EnableHitBoxByName",
                            "hitBoxNames": [
                                "HitBox"
                            ]
                        },
                        {
                            "$type": "EnableBulletCollisionPluginTrigger"
                        }
                    ]
                },
                "Hilistray_Water_SpecialAtk_Slime_Expand": {
                    "modifierName": "",
                    "bonusCriticalHurt": 100.0,
                    "modifierMixins": [
                        {
                            "$type": "AttachActionToModifierMixin",
                            "onAdded": [
                                {
                                    "$type": "EnableHitBoxByName",
                                    "canBeHandledOnRecover": true,
                                    "hitBoxNames": [
                                        "HitBox"
                                    ],
                                    "setEnable": true
                                },
                                {
                                    "$type": "EnablePushColliderName",
                                    "canBeHandledOnRecover": true,
                                    "pushColliderNames": [
                                        "PushCollider"
                                    ],
                                    "setEnable": true
                                }
                            ],
                            "onRemoved": [
                                {
                                    "$type": "EnableHitBoxByName",
                                    "canBeHandledOnRecover": true,
                                    "hitBoxNames": [
                                        "HitBox"
                                    ]
                                },
                                {
                                    "$type": "EnablePushColliderName",
                                    "canBeHandledOnRecover": true,
                                    "pushColliderNames": [
                                        "PushCollider"
                                    ]
                                }
                            ]
                        }
                    ],
                    "onAdded": [
                        {
                            "$type": "AttachEffect",
                            "shieldHP": "Eff_Monster_Hilistray_Water_SpecialAtk_SlimeBase",
                            "effectTempleteID": -1.0
                        },
                        {
                            "$type": "AttachModifier",
                            "modifierName": "Hilistray_Water_SpecialAtk_Slime_Expand_Shield"
                        }
                    ]
                },
                "Hilistray_Water_SpecialAtk_Slime_Expand_Shield": {
                    "modifierName": "",
                    "elementType": "Water",
                    "bonusCriticalHurt": 50.0,
                    "modifierMixins": [
                        {
                            "$type": "ShieldBarMixin",
                            "onShieldBroken": [
                                {
                                    "$type": "ApplyModifier",
                                    "target": "Owner",
                                    "modifierName": "Hilistray_Water_SpecialAtk_Log"
                                },
                                {
                                    "$type": "SetAnimatorTrigger",
                                    "target": "Owner",
                                    "triggerID": "SpecialAtkEnd"
                                },
                                {
                                    "$type": "ApplyModifier",
                                    "otherTargets": {
                                        "$type": "DBCDEKOJIJJ",
                                        "shapeName": "CircleR2H4",
                                        "campTargetType": "AllExceptSelf",
                                        "BGEBJHNLDLA": 1.0
                                    },
                                    "predicates": [
                                        {
                                            "$type": "CACJBJLHLDL",
                                            "entityTypes": [
                                                "Equip"
                                            ],
                                            "reject": true
                                        }
                                    ],
                                    "modifierName": "Hilistray_Water_SpecialAtk_Slime_Wet_Dead"
                                },
                                {
                                    "$type": "ApplyModifier",
                                    "target": "Caster",
                                    "modifierName": "Hilistray_Water_SpecialAtk_Slime_Kill"
                                }
                            ],
                            "showDamageText": ""
                        }
                    ],
                    "properties": {
                        "Actor_EndureDelta": 0.0
                    },
                    "onBeingHit": [
                        {
                            "$type": "Predicated",
                            "targetPredicates": [
                                {
                                    "$type": "LLOPNFJPJDN",
                                    "abilityState": "ElementFreeze"
                                }
                            ],
                            "failActions": [
                                {
                                    "$type": "ApplyModifier",
                                    "otherTargets": {
                                        "$type": "DBCDEKOJIJJ",
                                        "shapeName": "CircleR2H4",
                                        "campTargetType": "AllExceptSelf",
                                        "BGEBJHNLDLA": 1.0
                                    },
                                    "predicates": [
                                        {
                                            "$type": "CACJBJLHLDL",
                                            "entityTypes": [
                                                "Equip"
                                            ],
                                            "reject": true
                                        }
                                    ],
                                    "modifierName": "Hilistray_Water_SpecialAtk_Slime_Wet_BeHit"
                                },
                                {
                                    "$type": "FireEffect",
                                    "shieldHP": "Eff_Monster_Slime_Water_Pressed",
                                    "born": {
                                        "$type": "AKFBENAJCLO",
                                        "NLICIODEGDO": {
                                            "$type": "PMJPHHPHCJG"
                                        }
                                    },
                                    "effectTempleteID": -1.0
                                }
                            ]
                        }
                    ]
                },
                "Hilistray_Water_SpecialAtk_Log": {
                    "modifierName": "",
                    "duration": 0.10000000149011612,
                    "bonusCriticalHurt": 100.0,
                    "onAdded": [
                        {
                            "$type": "ServerMonsterLog",
                            "paramList": [
                                0,
                                1
                            ]
                        }
                    ]
                },
                "Hilistray_Water_SpecialAtk_Slime_Wet_BeHit": {
                    "modifierName": "",
                    "duration": 10.0,
                    "elementType": "Water",
                    "bonusCriticalHurt": 50.0
                },
                "Hilistray_Water_SpecialAtk_Slime_Wet_Dead": {
                    "modifierName": "",
                    "duration": 15.0,
                    "elementType": "Water",
                    "bonusCriticalHurt": 100.0
                },
                "Hilistray_Water_SpecialAtk_Slime_Kill": {
                    "modifierName": "",
                    "bonusCriticalHurt": 100.0,
                    "onAdded": [
                        {
                            "$type": "FireEffect",
                            "shieldHP": "Eff_Monster_Hilistray_Water_SpecialAtk_Slime_HitDie",
                            "born": {
                                "$type": "AJCFIBNMGKO",
                                "NLBFCDKCPAH": true
                            },
                            "effectTempleteID": -1.0
                        },
                        {
                            "$type": "KillSelf"
                        }
                    ]
                },
                "Hilistray_Water_SpecialAtk_Slime_Throw": {
                    "modifierName": "",
                    "bonusCriticalHurt": 100.0,
                    "onAdded": [
                        {
                            "$type": "EnableHitBoxByName",
                            "hitBoxNames": [
                                "HitBox"
                            ]
                        },
                        {
                            "$type": "EnablePushColliderName",
                            "pushColliderNames": [
                                "PushCollider"
                            ]
                        },
                        {
                            "$type": "ApplyModifier",
                            "modifierName": "Hilistray_Water_SpecialAtk_Slime_BulletTrigger"
                        },
                        {
                            "$type": "AttachModifier",
                            "modifierName": "State_DenyLockOn"
                        },
                        {
                            "$type": "AttachModifier",
                            "modifierName": "UNIQUE_Hilistray_Water_Slime_Trail"
                        }
                    ]
                },
                "Hilistray_Water_SpecialAtk_Slime_BulletTrigger": {
                    "modifierName": "",
                    "duration": 0.10000000149011612,
                    "bonusCriticalHurt": 100.0,
                    "onRemoved": [
                        {
                            "$type": "EnableBulletCollisionPluginTrigger",
                            "setEnable": true
                        }
                    ]
                },
                "State_DenyLockOn": {
                    "modifierName": "",
                    "bonusCriticalHurt": 100.0,
                    "state": "DenyLockOn"
                },
                "UNIQUE_Hilistray_Water_Slime_Trail": {
                    "modifierName": "",
                    "isUnique": true,
                    "bonusCriticalHurt": 100.0,
                    "onAdded": [
                        {
                            "$type": "AttachEffect",
                            "shieldHP": "Eff_Monster_Hilistray_Water_SpecialAtk_SlimeTrail",
                            "effectTempleteID": -1.0
                        }
                    ]
                },
                "Hilistray_Water_SpecialAtk_Slime_ShrinkFace": {
                    "modifierName": "",
                    "bonusCriticalHurt": 100.0,
                    "modifierMixins": [
                        {
                            "$type": "ReplaceFaceAnimationMixin",
                            "oldFaceAnimations": [
                                "Default"
                            ],
                            "newFaceAnimations": [
                                "Water_Shrink"
                            ]
                        }
                    ]
                },
                "Hilistray_Water_SpecialAtk_SlimeFreezeHandler": {
                    "modifierName": "",
                    "bonusCriticalHurt": 100.0,
                    "onAdded": [
                        {
                            "$type": "SetGlobalValue",
                            "ratio": 1.0,
                            "key": "_HILISTRAY_WATER_SLIME_FREEZE_",
                            "maxValue": 0.0,
                            "minValue": 0.0
                        },
                        {
                            "$type": "AttachModifier",
                            "target": "Owner",
                            "predicates": [
                                {
                                    "$type": "BMLGBKCIOIN",
                                    "key": "_HILISTRAY_WATER_SELF_FREEZE_",
                                    "ratio": 0.0,
                                    "PODFMDAEAGL": "NoneOrEqual"
                                }
                            ],
                            "modifierName": "Hilistray_Water_SpecialAtk_SlimeFreeze"
                        }
                    ],
                    "onRemoved": [
                        {
                            "$type": "SetGlobalValue",
                            "ratio": 0.0,
                            "key": "_HILISTRAY_WATER_SLIME_FREEZE_",
                            "maxValue": 0.0,
                            "minValue": 0.0
                        }
                    ]
                },
                "Hilistray_Water_SpecialAtk_SlimeFreeze": {
                    "modifierName": "",
                    "bonusCriticalHurt": 100.0,
                    "state": "ElementFreeze"
                },
                "Hilistray_Water_SpecialAtk_SlimePetrifactionHandler": {
                    "modifierName": "",
                    "bonusCriticalHurt": 100.0,
                    "onAdded": [
                        {
                            "$type": "AttachModifier",
                            "target": "Owner",
                            "modifierName": "Hilistray_Water_SpecialAtk_SlimePetrifaction"
                        }
                    ]
                },
                "Hilistray_Water_SpecialAtk_SlimePetrifaction": {
                    "modifierName": "",
                    "bonusCriticalHurt": 100.0,
                    "state": "ElementPetrifaction"
                }
            }
        }
    },
    {
        "Default": {
            "$type": "ConfigAbility",
            "abilityName": "Hilistray_Water_SpecialAtk_Slime_SlimeShake",
            "onAbilityStart": [
                {
                    "$type": "SetAnimatorTrigger",
                    "triggerID": "SlimeBubbleTrigger",
                    "MPTriggerOnRemote": true
                }
            ]
        }
    },
    {
        "Default": {
            "$type": "ConfigAbility",
            "abilityName": "Hilistray_Water_SpecialAtk_Slime_FireBubble",
            "onAbilityStart": [
                {
                    "$type": "TriggerBullet",
                    "bulletID": 42104012,
                    "born": {
                        "$type": "ILHMMCNMNEG",
                        "offset": {
                            "EMBMLEBGFOI": 0.0,
                            "NABPJFNICAE": 0.0,
                            "MLOLIKEJCKB": 0.0
                        },
                        "NLICIODEGDO": {
                            "$type": "JEMIKCPCEHA",
                            "LEKMGEAEPLG": 25.0,
                            "NGCHIBLALBI": 15.0
                        },
                        "NLBFCDKCPAH": true,
                        "attachPointName": "BubbleAttachPoint"
                    }
                },
                {
                    "$type": "TriggerFaceAnimation",
                    "faceAnimation": "Water_Bubble"
                }
            ]
        }
    },
    {
        "Default": {
            "$type": "ConfigAbility",
            "abilityName": "Hilistray_Water_SpecialAtk_Slime_Shrink",
            "abilityMixins": [
                {
                    "$type": "AttachToStateIDMixin",
                    "stateIDs": [
                        "Shrink",
                        "ShrinkStandby"
                    ],
                    "modifierName": "Hilistray_Water_SpecialAtk_Slime_ShrinkHandler"
                }
            ],
            "modifiers": {
                "Hilistray_Water_SpecialAtk_Slime_ShrinkHandler": {
                    "modifierName": "",
                    "bonusCriticalHurt": 100.0,
                    "onRemoved": [
                        {
                            "$type": "SetAnimatorBool",
                            "boolID": "ShrinkTag"
                        }
                    ]
                }
            },
            "onAbilityStart": [
                {
                    "$type": "SetAnimatorBool",
                    "boolID": "ShrinkTag",
                    "ratio": true
                }
            ]
        }
    },
    {
        "Default": {
            "$type": "ConfigAbility",
            "abilityName": "Hilistray_Water_SpecialAtk_Slime_SmallSpray",
            "onAbilityStart": [
                {
                    "$type": "FireEffect",
                    "shieldHP": "Eff_Monster_Hilistray_Water_SpecialAtk_SlimeSpray",
                    "born": {
                        "$type": "ILHMMCNMNEG",
                        "NLBFCDKCPAH": true,
                        "attachPointName": "SprayPoint",
                        "HLNCPLHDEND": "Self"
                    },
                    "effectTempleteID": -1.0
                }
            ]
        }
    },
    {
        "Default": {
            "$type": "ConfigAbility",
            "abilityName": "Hilistray_Water_SpecialAtk_Slime_Explode",
            "modifiers": {
                "Hilistray_Water_SpecialAtk_Slime_Wet_Dead": {
                    "modifierName": "",
                    "duration": 15.0,
                    "elementType": "Water",
                    "bonusCriticalHurt": 100.0
                }
            },
            "onAbilityStart": [
                {
                    "$type": "RemoveUniqueModifier",
                    "modifierName": "UNIQUE_Hilistray_Water_Slime_Trail"
                },
                {
                    "$type": "ApplyModifier",
                    "otherTargets": {
                        "$type": "DBCDEKOJIJJ",
                        "shapeName": "CircleR2H4",
                        "campTargetType": "AllExceptSelf",
                        "BGEBJHNLDLA": 1.0
                    },
                    "predicates": [
                        {
                            "$type": "CACJBJLHLDL",
                            "entityTypes": [
                                "Equip"
                            ],
                            "reject": true
                        }
                    ],
                    "modifierName": "Hilistray_Water_SpecialAtk_Slime_Wet_Dead"
                },
                {
                    "$type": "TriggerAttackEvent",
                    "attackEvent": {
                        "attackPattern": {
                            "$type": "AHDHJOAODLF",
                            "born": {
                                "$type": "ALJGHOOKOAP"
                            },
                            "DLFACKMBPCH": 1.0
                        },
                        "attackInfo": {
                            "attackTag": "",
                            "attenuationTag": "",
                            "attenuationGroup": "default",
                            "attackProperty": {
                                "ACKCDHKEGCK": 1.0,
                                "JIICGJODDDM": 0.0,
                                "elementType": "Water",
                                "bonusCriticalHurt": 25.0,
                                "strikeType": "Blunt",
                                "enBreak": 100.0,
                                "attackType": "Range",
                                "damagePercentage": 0.0
                            },
                            "hitPattern": {
                                "onHitEffectName": "default",
                                "hitImpulseType": "LV4"
                            },
                            "cameraShake": {
                                "shakeRange": 0.5,
                                "shakeTime": 0.10000000149011612
                            },
                            "canBeModifiedBy": "OriginOwner"
                        }
                    },
                    "targetType": "Enemy"
                },
                {
                    "$type": "TriggerSetVisible"
                },
                {
                    "$type": "FireEffect",
                    "shieldHP": "Eff_Monster_Hilistray_Water_SpecialAtk_Slime_Die",
                    "born": {
                        "$type": "AJCFIBNMGKO",
                        "CMLNNDEJCEF": true,
                        "NLBFCDKCPAH": true
                    },
                    "effectTempleteID": -1.0
                },
                {
                    "$type": "KillSelf",
                    "banDrop": true,
                    "banExp": true
                }
            ]
        }
    },
    {
        "Default": {
            "$type": "ConfigAbility",
            "abilityName": "Hilistray_Water_SpecialAtk_Slime_BubbleBullet_Loop",
            "modifiers": {
                "UNIQUE_Hilistray_Water_SpecialAtk_Bubble_Loop": {
                    "modifierName": "",
                    "isUnique": true,
                    "elementType": "Water",
                    "bonusCriticalHurt": 50.0,
                    "onAdded": [
                        {
                            "$type": "AttachEffect",
                            "shieldHP": "Eff_Monster_Hilistray_Water_SpecialAtk_Bubble_Missle",
                            "effectTempleteID": -1.0
                        }
                    ],
                    "onRemoved": [
                        {
                            "$type": "KillSelf"
                        }
                    ],
                    "onBeingHit": [
                        {
                            "$type": "TriggerAbility",
                            "predicates": [
                                {
                                    "$type": "LCAPCPJBEEM",
                                    "HMOECNACFAF": 0.0
                                }
                            ],
                            "abilityName": "Hilistray_Water_SpecialAtk_Slime_BubbleBullet_Explode"
                        }
                    ]
                }
            },
            "onAdded": [
                {
                    "$type": "AttachModifier",
                    "modifierName": "UNIQUE_Hilistray_Water_SpecialAtk_Bubble_Loop"
                },
                {
                    "$type": "AddGlobalValue",
                    "ratio": 1.0,
                    "key": "_SLIME_WATER_BUBBLE",
                    "useLimitRange": true,
                    "maxValue": 1.0,
                    "minValue": 0.0
                }
            ]
        }
    },
    {
        "Default": {
            "$type": "ConfigAbility",
            "abilityName": "Hilistray_Water_SpecialAtk_Slime_BubbleBullet_Bounce_Loop",
            "modifiers": {
                "UNIQUE_Hilistray_Water_SpecialAtk_Bubble_Bounce_Loop": {
                    "modifierName": "",
                    "isUnique": true,
                    "elementType": "Water",
                    "bonusCriticalHurt": 50.0,
                    "onAdded": [
                        {
                            "$type": "AttachEffect",
                            "shieldHP": "Eff_Monster_Hilistray_Water_SpecialAtk_Bubble_Missle",
                            "effectTempleteID": -1.0
                        }
                    ],
                    "onRemoved": [
                        {
                            "$type": "KillSelf"
                        }
                    ],
                    "onBeingHit": [
                        {
                            "$type": "TriggerAbility",
                            "predicates": [
                                {
                                    "$type": "LCAPCPJBEEM",
                                    "HMOECNACFAF": 0.0
                                }
                            ],
                            "abilityName": "Hilistray_Water_SpecialAtk_Slime_BubbleBullet_Explode"
                        }
                    ]
                }
            },
            "onAdded": [
                {
                    "$type": "AttachModifier",
                    "modifierName": "UNIQUE_Hilistray_Water_SpecialAtk_Bubble_Bounce_Loop"
                },
                {
                    "$type": "AddGlobalValue",
                    "ratio": 1.0,
                    "key": "_SLIME_WATER_BUBBLE_BOUNCE",
                    "useLimitRange": true,
                    "maxValue": 1.0,
                    "minValue": 0.0
                }
            ]
        }
    },
    {
        "Default": {
            "$type": "ConfigAbility",
            "abilityName": "Hilistray_Water_SpecialAtk_Slime_BubbleBullet_Float_Loop",
            "modifiers": {
                "UNIQUE_Hilistray_Water_SpecialAtk_Bubble_Float_Loop": {
                    "modifierName": "",
                    "isUnique": true,
                    "elementType": "Water",
                    "bonusCriticalHurt": 50.0,
                    "onAdded": [
                        {
                            "$type": "AttachEffect",
                            "shieldHP": "Eff_Monster_Hilistray_Water_SpecialAtk_Bubble_Missle",
                            "effectTempleteID": -1.0
                        }
                    ],
                    "onRemoved": [
                        {
                            "$type": "KillSelf"
                        }
                    ],
                    "onBeingHit": [
                        {
                            "$type": "TriggerAbility",
                            "predicates": [
                                {
                                    "$type": "LCAPCPJBEEM",
                                    "HMOECNACFAF": 0.0
                                }
                            ],
                            "abilityName": "Hilistray_Water_SpecialAtk_Slime_BubbleBullet_Explode"
                        }
                    ]
                }
            },
            "onAdded": [
                {
                    "$type": "AttachModifier",
                    "modifierName": "UNIQUE_Hilistray_Water_SpecialAtk_Bubble_Float_Loop"
                }
            ]
        }
    },
    {
        "Default": {
            "$type": "ConfigAbility",
            "abilityName": "Hilistray_Water_SpecialAtk_Slime_BubbleBullet_Explode",
            "onAbilityStart": [
                {
                    "$type": "RemoveUniqueModifier",
                    "modifierName": "UNIQUE_Hilistray_Water_SpecialAtk_Bubble_Loop"
                },
                {
                    "$type": "RemoveUniqueModifier",
                    "modifierName": "UNIQUE_Hilistray_Water_SpecialAtk_Bubble_Bounce_Loop"
                },
                {
                    "$type": "RemoveUniqueModifier",
                    "modifierName": "UNIQUE_Hilistray_Water_SpecialAtk_Bubble_Float_Loop"
                },
                {
                    "$type": "FireEffect",
                    "shieldHP": "Eff_Monster_Hilistray_Water_SpecialAtk_Bubble_Missle_AS",
                    "born": {
                        "$type": "ILHMMCNMNEG",
                        "NLBFCDKCPAH": true,
                        "attachPointName": "RootNode"
                    },
                    "effectTempleteID": -1.0
                },
                {
                    "$type": "Predicated",
                    "targetPredicates": [
                        {
                            "$type": "BMLGBKCIOIN",
                            "key": "_BUBBLE_EXPLODE_BEINGHIT_",
                            "ratio": 0.0,
                            "PODFMDAEAGL": "NoneOrEqual"
                        }
                    ],
                    "successActions": [
                        {
                            "$type": "SetGlobalValue",
                            "ratio": 1.0,
                            "key": "_BUBBLE_EXPLODE_BEINGHIT_",
                            "maxValue": 0.0,
                            "minValue": 0.0
                        },
                        {
                            "$type": "TriggerAttackEvent",
                            "attackEvent": {
                                "attackPattern": {
                                    "$type": "AHDHJOAODLF",
                                    "triggerType": "TriggerNoRepeat",
                                    "born": {
                                        "$type": "AJCFIBNMGKO",
                                        "offset": {
                                            "EMBMLEBGFOI": 0.0,
                                            "NABPJFNICAE": 0.0,
                                            "MLOLIKEJCKB": 0.0
                                        },
                                        "NLBFCDKCPAH": true
                                    },
                                    "DLFACKMBPCH": 1.5
                                },
                                "attackInfo": {
                                    "attackTag": "",
                                    "attenuationTag": "Hilistray_Water_SpecialAtk_Bubble",
                                    "attenuationGroup": "Hilistray_Water_SpecialAtk_Bubble",
                                    "attackProperty": {
                                        "ACKCDHKEGCK": 0.5,
                                        "JIICGJODDDM": 0.0,
                                        "elementType": "Water",
                                        "bonusCriticalHurt": 50.0,
                                        "strikeType": "Default",
                                        "enBreak": 100.0,
                                        "damagePercentage": 0.0
                                    },
                                    "hitPattern": {
                                        "onHitEffectName": "default",
                                        "hitImpulseType": "LV2",
                                        "hitHaltTimeScale": 0.05000000074505806
                                    },
                                    "canBeModifiedBy": "OriginOwner"
                                }
                            },
                            "targetType": "Enemy"
                        }
                    ]
                }
            ]
        }
    },
    {
        "Default": {
            "$type": "ConfigAbility",
            "abilityName": "Hilistray_Water_SpecialAtk_Slime_BubbleBullet_Surround",
            "modifiers": {
                "Bubble_Surround_Reject": {
                    "modifierName": "",
                    "duration": 0.10000000149011612,
                    "bonusCriticalHurt": 100.0,
                    "onAdded": [
                        {
                            "$type": "ApplyModifier",
                            "target": "Owner",
                            "modifierName": "Bubble_Surround"
                        }
                    ]
                },
                "Bubble_AntiGravity": {
                    "modifierName": "",
                    "duration": 0.30000001192092896,
                    "bonusCriticalHurt": 100.0,
                    "properties": {
                        "Actor_AddGravityScale": -7.5
                    }
                },
                "Bubble_Surround": {
                    "modifierName": "",
                    "duration": 5.0,
                    "elementType": "Water",
                    "bonusCriticalHurt": 50.0,
                    "properties": {
                        "Actor_AddGravityScale": -2.0
                    },
                    "state": "Struggle",
                    "onAdded": [
                        {
                            "$type": "AttachModifier",
                            "modifierName": "Bubble_AntiGravity"
                        },
                        {
                            "$type": "AttachEffect",
                            "PositionDampTime": true,
                            "shieldHP": "Eff_Monster_Slime_Water_Bubble",
                            "effectTempleteID": -1.0
                        }
                    ],
                    "onRemoved": [
                        {
                            "$type": "FireEffect",
                            "shieldHP": "Eff_Monster_Slime_Water_Bubble_AS",
                            "born": {
                                "$type": "ILHMMCNMNEG",
                                "NLBFCDKCPAH": true,
                                "attachPointName": "RootNode"
                            },
                            "effectTempleteID": -1.0
                        }
                    ],
                    "onBeingHit": [
                        {
                            "$type": "Predicated",
                            "target": "Target",
                            "targetPredicates": [
                                {
                                    "$type": "PNPCJGKLJAO",
                                    "isTarget": false,
                                    "NBAMHPCMOGN": ""
                                },
                                {
                                    "$type": "LCAPCPJBEEM",
                                    "HMOECNACFAF": 0.0
                                }
                            ],
                            "successActions": [
                                {
                                    "$type": "RemoveModifier",
                                    "modifierName": "Bubble_Surround"
                                }
                            ]
                        }
                    ],
                    "onKill": [
                        {
                            "$type": "RemoveModifier",
                            "modifierName": "Bubble_Surround"
                        }
                    ]
                }
            },
            "onAbilityStart": [
                {
                    "$type": "Predicated",
                    "target": "Target",
                    "targetPredicates": [
                        {
                            "$type": "GANAKOPLMGI",
                            "predicates": [
                                {
                                    "$type": "CACJBJLHLDL",
                                    "entityTypes": [
                                        "Gadget"
                                    ]
                                },
                                {
                                    "$type": "JCBJKKBKHJL",
                                    "IMIKGMEFBBC": 100.0
                                }
                            ]
                        }
                    ],
                    "successActions": [
                        {
                            "$type": "TriggerAbility",
                            "abilityName": "Hilistray_Water_SpecialAtk_Slime_BubbleBullet_Explode"
                        },
                        {
                            "$type": "DebugLog",
                            "content": "yly.....Hilistray_Water_SpecialAtk_Slime_BubbleBullet_Surround.....successActions"
                        }
                    ],
                    "failActions": [
                        {
                            "$type": "DebugLog",
                            "content": "yly.....Hilistray_Water_SpecialAtk_Slime_BubbleBullet_Surround.....failActions"
                        },
                        {
                            "$type": "TriggerAbility",
                            "abilityName": "Hilistray_Water_SpecialAtk_Slime_BubbleBullet_Explode"
                        },
                        {
                            "$type": "ApplyModifier",
                            "target": "Target",
                            "predicates": [
                                {
                                    "$type": "CACJBJLHLDL",
                                    "entityTypes": [
                                        "Equip",
                                        "MonsterEquip"
                                    ]
                                }
                            ],
                            "modifierName": "Bubble_Surround_Reject"
                        },
                        {
                            "$type": "ApplyModifier",
                            "target": "Target",
                            "predicates": [
                                {
                                    "$type": "CACJBJLHLDL",
                                    "entityTypes": [
                                        "Avatar",
                                        "Monster"
                                    ]
                                }
                            ],
                            "modifierName": "Bubble_Surround"
                        },
                        {
                            "$type": "Predicated",
                            "target": "Target",
                            "targetPredicates": [
                                {
                                    "$type": "CACJBJLHLDL",
                                    "entityTypes": [
                                        "Level"
                                    ]
                                }
                            ],
                            "successActions": [
                                {
                                    "$type": "TriggerBullet",
                                    "predicates": [
                                        {
                                            "$type": "BMLGBKCIOIN",
                                            "key": "_SLIME_WATER_BUBBLE",
                                            "ratio": 1.0
                                        }
                                    ],
                                    "bulletID": 42104013,
                                    "born": {
                                        "$type": "MNJLPLGJGLI",
                                        "offset": {
                                            "EMBMLEBGFOI": 0.0,
                                            "NABPJFNICAE": 0.4000000059604645,
                                            "MLOLIKEJCKB": -0.800000011920929
                                        },
                                        "PDCEFGKJHIH": true
                                    }
                                },
                                {
                                    "$type": "FireEffect",
                                    "predicates": [
                                        {
                                            "$type": "BMLGBKCIOIN",
                                            "key": "_SLIME_WATER_BUBBLE",
                                            "ratio": 1.0
                                        }
                                    ],
                                    "shieldHP": "Eff_Monster_Slime_Water_Bubble_Location_01",
                                    "born": {
                                        "$type": "MNJLPLGJGLI",
                                        "CMLNNDEJCEF": true,
                                        "PDCEFGKJHIH": true
                                    },
                                    "effectTempleteID": -1.0
                                },
                                {
                                    "$type": "TriggerBullet",
                                    "predicates": [
                                        {
                                            "$type": "BMLGBKCIOIN",
                                            "key": "_SLIME_WATER_BUBBLE_BOUNCE",
                                            "ratio": 1.0
                                        }
                                    ],
                                    "bulletID": 42104014,
                                    "born": {
                                        "$type": "MNJLPLGJGLI",
                                        "offset": {
                                            "EMBMLEBGFOI": 0.0,
                                            "NABPJFNICAE": 0.550000011920929,
                                            "MLOLIKEJCKB": -0.4000000059604645
                                        },
                                        "PDCEFGKJHIH": true
                                    }
                                },
                                {
                                    "$type": "FireEffect",
                                    "predicates": [
                                        {
                                            "$type": "BMLGBKCIOIN",
                                            "key": "_SLIME_WATER_BUBBLE_BOUNCE",
                                            "ratio": 1.0
                                        }
                                    ],
                                    "shieldHP": "Eff_Monster_Slime_Water_Bubble_Location_02",
                                    "born": {
                                        "$type": "MNJLPLGJGLI",
                                        "CMLNNDEJCEF": true,
                                        "PDCEFGKJHIH": true
                                    },
                                    "effectTempleteID": -1.0
                                }
                            ]
                        }
                    ]
                }
            ]
        }
    }
]