[
    {
        "Default": {
            "$type": "ConfigAbility",
            "abilityName": "FauneAbyssale_SeaHorse_Primo_PearlStateManager",
            "abilityMixins": [
                {
                    "$type": "AttachModifierToSelfGlobalValueMixin",
                    "globalValueKey": "_SEA_DRAGON_STAGE_",
                    "GVInTalk": 0.0,
                    "valueSteps": [
                        -0.5,
                        0.5,
                        2.5,
                        4.5
                    ],
                    "modifierNameSteps": [
                        "SeaDragon_BeforeBattle",
                        "SeaDragon_PearlState",
                        "SeaDragon_Broken"
                    ]
                }
            ],
            "abilitySpecials": {
                "sub_hurt_delta_positive": 0.0,
                "sub_hurt_delta_positive_before_battle": 2.0
            },
            "modifiers": {
                "SeaDragon_BeforeBattle": {
                    "modifierName": "",
                    "bonusCriticalHurt": 100.0,
                    "properties": {
                        "Actor_EndureDelta": 0.0010000000474974513,
                        "Actor_PhysicalSubHurtDelta": "sub_hurt_delta_positive_before_battle",
                        "Actor_FireSubHurtDelta": "sub_hurt_delta_positive_before_battle",
                        "Actor_ElecSubHurtDelta": "sub_hurt_delta_positive_before_battle",
                        "Actor_IceSubHurtDelta": "sub_hurt_delta_positive_before_battle",
                        "Actor_WaterSubHurtDelta": "sub_hurt_delta_positive_before_battle",
                        "Actor_GrassSubHurtDelta": "sub_hurt_delta_positive_before_battle",
                        "Actor_WindSubHurtDelta": "sub_hurt_delta_positive_before_battle",
                        "Actor_RockSubHurtDelta": "sub_hurt_delta_positive_before_battle"
                    },
                    "onAdded": [
                        {
                            "$type": "TriggerSetRenderersEnable",
                            "canBeHandledOnRecover": true,
                            "renderNames": [
                                "Chest",
                                "Horn",
                                "Shell",
                                "Pearl"
                            ],
                            "setEnable": true
                        }
                    ]
                },
                "SeaDragon_PearlState": {
                    "modifierName": "",
                    "bonusCriticalHurt": 100.0,
                    "properties": {
                        "Actor_EndureDelta": 0.0010000000474974513,
                        "Actor_PhysicalSubHurtDelta": "sub_hurt_delta_positive",
                        "Actor_FireSubHurtDelta": "sub_hurt_delta_positive",
                        "Actor_ElecSubHurtDelta": "sub_hurt_delta_positive",
                        "Actor_IceSubHurtDelta": "sub_hurt_delta_positive",
                        "Actor_WaterSubHurtDelta": "sub_hurt_delta_positive",
                        "Actor_GrassSubHurtDelta": "sub_hurt_delta_positive",
                        "Actor_WindSubHurtDelta": "sub_hurt_delta_positive",
                        "Actor_RockSubHurtDelta": "sub_hurt_delta_positive"
                    },
                    "onAdded": [
                        {
                            "$type": "TriggerSetRenderersEnable",
                            "canBeHandledOnRecover": true,
                            "renderNames": [
                                "Chest",
                                "Horn",
                                "Shell",
                                "Pearl"
                            ],
                            "setEnable": true
                        },
                        {
                            "$type": "AttachEffect",
                            "shieldHP": "Eff_Monster_FauneAbyssale_SeaHorse_Primo_Common_Pearl",
                            "effectTempleteID": -1.0
                        },
                        {
                            "$type": "AttachEffect",
                            "shieldHP": "Eff_Monster_FauneAbyssale_SeaHorse_Primo_Common_TrailWeak",
                            "effectTempleteID": -1.0
                        }
                    ],
                    "onReconnect": [
                        {
                            "$type": "SetGlobalValue",
                            "ratio": 0.0,
                            "key": "ACHIEVEMENT_82185_MARK",
                            "maxValue": 0.0,
                            "minValue": 0.0
                        },
                        {
                            "$type": "KillMultiBullet",
                            "gadgetInfo": {
                                "configID": 42601119
                            }
                        },
                        {
                            "$type": "SetGlobalValue",
                            "predicates": [
                                {
                                    "$type": "BMLGBKCIOIN",
                                    "key": "_CORAL_GADGET_NOT_EXIST_",
                                    "ratio": 0.0
                                }
                            ],
                            "ratio": 1.0,
                            "key": "_CORAL_GADGET_NOT_EXIST_",
                            "maxValue": 0.0,
                            "minValue": 0.0
                        },
                        {
                            "$type": "SetLockingV3Config",
                            "enable": true,
                            "specialCameraName": "default",
                            "LOPECHKGIPD": ""
                        }
                    ]
                },
                "SeaDragon_Broken": {
                    "modifierName": "",
                    "bonusCriticalHurt": 100.0,
                    "modifierMixins": [
                        {
                            "$type": "ReplaceEventPatternMixin",
                            "oldPatterns": [
                                "FauneAbyssale_SeaHorse_Primo_TailWhip01",
                                "FauneAbyssale_SeaHorse_Primo_TailWhip02"
                            ],
                            "newPatterns": [
                                "FauneAbyssale_SeaHorse_Primo_TailWhip01_NoElement",
                                "FauneAbyssale_SeaHorse_Primo_TailWhip02_NoElement"
                            ]
                        }
                    ],
                    "onAdded": [
                        {
                            "$type": "TriggerSetRenderersEnable",
                            "canBeHandledOnRecover": true,
                            "renderNames": [
                                "Chest",
                                "Horn",
                                "Shell",
                                "Pearl"
                            ]
                        }
                    ]
                }
            },
            "onAdded": [
                {
                    "$type": "SetGlobalValue",
                    "ratio": 0.0,
                    "key": "_SHIELD_RECOVERED_",
                    "maxValue": 0.0,
                    "minValue": 0.0
                },
                {
                    "$type": "SetGlobalValue",
                    "ratio": 0.0,
                    "key": "_DISABLE_ANNIHILATION_",
                    "maxValue": 0.0,
                    "minValue": 0.0
                },
                {
                    "$type": "SetGlobalValue",
                    "ratio": 0.0,
                    "key": "ACHIEVEMENT_82185_MARK",
                    "maxValue": 0.0,
                    "minValue": 0.0
                },
                {
                    "$type": "CreateGadget",
                    "sightGroupWithOwner": true,
                    "lifeByOwnerV2": true,
                    "gadgetID": 42601115,
                    "byServer": true
                },
                {
                    "$type": "Predicated",
                    "targetPredicates": [
                        {
                            "$type": "BMLGBKCIOIN",
                            "target": "Self",
                            "key": "_IS_IN_ABYSS",
                            "ratio": 1.0
                        }
                    ],
                    "successActions": [
                        {
                            "$type": "SetOverrideMapValue",
                            "ratio": 0.800000011920929,
                            "overrideMapKey": "sub_hurt_delta_positive",
                            "maxValue": 0.0,
                            "minValue": 0.0
                        }
                    ],
                    "failActions": [
                        {
                            "$type": "SetOverrideMapValue",
                            "ratio": 0.6000000238418579,
                            "overrideMapKey": "sub_hurt_delta_positive",
                            "maxValue": 0.0,
                            "minValue": 0.0
                        }
                    ]
                }
            ],
            "onAbilityStart": [
                {
                    "$type": "ServerMonsterLog",
                    "paramList": [
                        0,
                        0,
                        1
                    ]
                },
                {
                    "$type": "SetGlobalValue",
                    "ratio": 3.0,
                    "key": "_SEA_DRAGON_STAGE_",
                    "maxValue": 0.0,
                    "minValue": 0.0
                },
                {
                    "$type": "SetAnimatorTrigger",
                    "triggerID": "BreakingTrigger"
                },
                {
                    "$type": "FireEffect",
                    "shieldHP": "Eff_Monster_FauneAbyssale_SeaHorse_Primo_Shield_Break",
                    "effectTempleteID": -1.0
                },
                {
                    "$type": "DamageByAttackValue",
                    "attackInfo": {
                        "attackTag": "",
                        "attenuationTag": "",
                        "attenuationGroup": "default",
                        "hitPattern": {
                            "onHitEffectName": "default",
                            "hitImpulseType": "LV0",
                            "hitHaltTime": 0.10000000149011612,
                            "hitHaltTimeScale": 0.05000000074505806
                        }
                    }
                },
                {
                    "$type": "DoWatcherSystemAction",
                    "predicates": [
                        {
                            "$type": "BMLGBKCIOIN",
                            "target": "Self",
                            "key": "ACHIEVEMENT_82185_MARK",
                            "ratio": 1.0
                        }
                    ],
                    "watcherId": 82185,
                    "inThreatListOnly": true
                }
            ]
        }
    },
    {
        "Default": {
            "$type": "ConfigAbility",
            "abilityName": "FauneAbyssale_SeaHorse_Primo_PearlGadget",
            "abilityMixins": [
                {
                    "$type": "AttachModifierToGlobalValueMixin",
                    "globalValueTarget": "Owner",
                    "globalValueKey": "_SEA_DRAGON_STAGE_",
                    "valueSteps": [
                        -0.5,
                        0.5,
                        2.5,
                        4.5
                    ],
                    "modifierNameSteps": [
                        "PearlGadget_Broken",
                        "UNIQUE_PearlGadget_Handler",
                        "PearlGadget_Broken"
                    ],
                    "removeAppliedModifierTargetDisappear": false
                },
                {
                    "$type": "AttachModifierToGlobalValueMixin",
                    "globalValueTarget": "Owner",
                    "globalValueKey": "_SHIELD_RECOVERED_",
                    "valueSteps": [
                        -0.5,
                        0.5,
                        1.5
                    ],
                    "modifierNameSteps": [
                        "Shield_Recovered_False",
                        "Shield_Recovered_True"
                    ]
                }
            ],
            "abilitySpecials": {
                "element_durability_max": 475.0,
                "element_durability_threshold": 175.0,
                "element_durability_weaken_ratio": 1.0
            },
            "modifiers": {
                "UNIQUE_PearlGadget_Handler": {
                    "stacking": "Unique",
                    "modifierName": "",
                    "isUnique": true,
                    "elementType": "Electric",
                    "bonusCriticalHurt": [
                        "element_durability_max",
                        "element_durability_weaken_ratio",
                        "MUL"
                    ],
                    "modifierMixins": [
                        {
                            "$type": "ShieldBarMixin",
                            "onShieldBroken": [
                                {
                                    "$type": "TriggerAbility",
                                    "target": "Owner",
                                    "abilityName": "FauneAbyssale_SeaHorse_Primo_PearlStateManager"
                                }
                            ],
                            "showDamageText": "",
                            "OFHNLJLIHAN": "Electric"
                        },
                        {
                            "$type": "AttachModifierToElementDurabilityMixin",
                            "valueSteps": [
                                0.10000000149011612,
                                [
                                    "element_durability_threshold",
                                    "element_durability_weaken_ratio",
                                    "MUL"
                                ],
                                [
                                    "element_durability_max",
                                    1.0,
                                    "ADD"
                                ]
                            ],
                            "modifierNameSteps": [
                                "Elem_LowDuration",
                                "Elem_Dummy"
                            ]
                        },
                        {
                            "$type": "RejectAttackMixinV2",
                            "attackTags": [
                                "Swirl_ElectricDamage",
                                "Swirl_WaterDamage",
                                "Swirl_IceDamage",
                                "Swirl_FireDamage"
                            ]
                        }
                    ],
                    "onAdded": [
                        {
                            "$type": "EnableHitBoxByName",
                            "hitBoxNames": [
                                "HitBox"
                            ],
                            "setEnable": true
                        },
                        {
                            "$type": "HideUIBillBoard"
                        },
                        {
                            "$type": "RemoveModifier",
                            "target": "Owner",
                            "modifierName": "SeaDragon_ToStage2"
                        }
                    ],
                    "onBeingHit": [
                        {
                            "$type": "Predicated",
                            "target": "Target",
                            "targetPredicates": [
                                {
                                    "$type": "GANAKOPLMGI",
                                    "predicates": [
                                        {
                                            "$type": "EBFGFMPDFLE",
                                            "target": "Self",
                                            "element": "Ice"
                                        },
                                        {
                                            "$type": "EBFGFMPDFLE",
                                            "target": "Self",
                                            "element": "Grass"
                                        },
                                        {
                                            "$type": "EBFGFMPDFLE",
                                            "target": "Self",
                                            "element": "Fire"
                                        }
                                    ]
                                }
                            ],
                            "successActions": [
                                {
                                    "$type": "ActCameraShake",
                                    "cameraShake": {
                                        "shakeRange": 0.3499999940395355,
                                        "shakeTime": 0.20000000298023224,
                                        "shakeDistance": 10.0
                                    }
                                },
                                {
                                    "$type": "FireEffect",
                                    "shieldHP": "Eff_Monster_FauneAbyssale_SeaHorse_Primo_Shield_CorrectElementHit",
                                    "born": {
                                        "$type": "ILHMMCNMNEG",
                                        "NLBFCDKCPAH": true,
                                        "attachPointName": "RootNode"
                                    },
                                    "effectTempleteID": -1.0
                                }
                            ]
                        }
                    ],
                    "forceSyncToRemote": true
                },
                "PearlGadget_Broken": {
                    "modifierName": "",
                    "bonusCriticalHurt": 100.0,
                    "state": "IsGhostToEnemy",
                    "onAdded": [
                        {
                            "$type": "EnableHitBoxByName",
                            "hitBoxNames": [
                                "HitBox"
                            ]
                        },
                        {
                            "$type": "HideUIBillBoard",
                            "hide": true
                        }
                    ]
                },
                "Shield_Recovered_False": {
                    "modifierName": "",
                    "bonusCriticalHurt": 100.0,
                    "onAdded": [
                        {
                            "$type": "SetOverrideMapValue",
                            "ratio": 1.0,
                            "overrideMapKey": "element_durability_weaken_ratio",
                            "maxValue": 0.0,
                            "minValue": 0.0
                        }
                    ]
                },
                "Shield_Recovered_True": {
                    "modifierName": "",
                    "bonusCriticalHurt": 100.0,
                    "onAdded": [
                        {
                            "$type": "SetOverrideMapValue",
                            "ratio": 0.6000000238418579,
                            "overrideMapKey": "element_durability_weaken_ratio",
                            "maxValue": 0.0,
                            "minValue": 0.0
                        }
                    ]
                },
                "Elem_Dummy": {
                    "modifierName": "",
                    "bonusCriticalHurt": 100.0
                },
                "Elem_LowDuration": {
                    "modifierName": "",
                    "bonusCriticalHurt": 100.0,
                    "onAdded": [
                        {
                            "$type": "ApplyModifier",
                            "target": "Owner",
                            "modifierName": "SeaDragon_ToStage2"
                        }
                    ]
                },
                "SeaDragon_ToStage2": {
                    "stacking": "Unique",
                    "modifierName": "",
                    "bonusCriticalHurt": 100.0,
                    "onAdded": [
                        {
                            "$type": "Predicated",
                            "targetPredicates": [
                                {
                                    "$type": "BMLGBKCIOIN",
                                    "key": "_DISABLE_ANNIHILATION_",
                                    "ratio": 1.0
                                }
                            ],
                            "successActions": [
                                {
                                    "$type": "SetGlobalValue",
                                    "ratio": 0.0,
                                    "key": "_DISABLE_ANNIHILATION_",
                                    "maxValue": 0.0,
                                    "minValue": 0.0
                                }
                            ],
                            "failActions": [
                                {
                                    "$type": "SetGlobalValue",
                                    "ratio": 2.0,
                                    "key": "_SEA_DRAGON_STAGE_",
                                    "maxValue": 0.0,
                                    "minValue": 0.0
                                }
                            ]
                        }
                    ]
                }
            },
            "onAdded": [
                {
                    "$type": "SetGlobalValue",
                    "ratio": 0.0,
                    "key": "_CURRENT_SHIELD_DURABILITY_",
                    "maxValue": 0.0,
                    "minValue": 0.0
                }
            ],
            "onAbilityStart": [
                {
                    "$type": "SetElementDurabilityToGlobalValue",
                    "globalValueKey": "_CURRENT_SHIELD_DURABILITY_",
                    "maxValue": 0.0,
                    "minValue": 0.0,
                    "modifierName": "UNIQUE_PearlGadget_Handler"
                }
            ]
        }
    },
    {
        "Default": {
            "$type": "ConfigAbility",
            "abilityName": "FauneAbyssale_SeaHorse_Primo_PearlGadget_PlusElement",
            "abilitySpecials": {
                "current_shield_durability": 0.0,
                "element_durability_weaken_ratio": 1.0
            },
            "onAbilityStart": [
                {
                    "$type": "SetGlobalValueToOverrideMap",
                    "globalValueKey": "_CURRENT_SHIELD_DURABILITY_",
                    "overrideMapKey": "current_shield_durability"
                },
                {
                    "$type": "Predicated",
                    "target": "Owner",
                    "targetPredicates": [
                        {
                            "$type": "BMLGBKCIOIN",
                            "target": "Owner",
                            "key": "_SHIELD_RECOVERED_",
                            "ratio": 1.0
                        }
                    ],
                    "successActions": [
                        {
                            "$type": "SetOverrideMapValue",
                            "ratio": 0.6000000238418579,
                            "overrideMapKey": "element_durability_weaken_ratio",
                            "maxValue": 0.0,
                            "minValue": 0.0
                        }
                    ],
                    "failActions": [
                        {
                            "$type": "SetOverrideMapValue",
                            "ratio": 1.0,
                            "overrideMapKey": "element_durability_weaken_ratio",
                            "maxValue": 0.0,
                            "minValue": 0.0
                        }
                    ]
                },
                {
                    "$type": "AddElementDurability",
                    "ratio": [
                        "current_shield_durability",
                        3.0,
                        "DIV",
                        50.0,
                        "ADD"
                    ],
                    "modifierName": "UNIQUE_PearlGadget_Handler",
                    "useLimitRange": true,
                    "maxValue": [
                        475.0,
                        "element_durability_weaken_ratio",
                        "MUL"
                    ],
                    "minValue": 0.0
                }
            ]
        }
    },
    {
        "Default": {
            "$type": "ConfigAbility",
            "abilityName": "FauneAbyssale_SeaHorse_Primo_PearlGadget_MinusElement",
            "abilitySpecials": {
                "current_shield_durability": 0.0
            },
            "onAbilityStart": [
                {
                    "$type": "SetGlobalValueToOverrideMap",
                    "globalValueKey": "_CURRENT_SHIELD_DURABILITY_",
                    "overrideMapKey": "current_shield_durability"
                },
                {
                    "$type": "AddElementDurability",
                    "ratio": [
                        0.0,
                        1.0,
                        "current_shield_durability",
                        "MUL",
                        3.0,
                        "DIV",
                        "SUB",
                        0.009999999776482582,
                        "SUB"
                    ],
                    "modifierName": "UNIQUE_PearlGadget_Handler",
                    "useLimitRange": true,
                    "maxValue": 475.0,
                    "minValue": 0.0
                }
            ]
        }
    },
    {
        "Default": {
            "$type": "ConfigAbility",
            "abilityName": "FauneAbyssale_SeaHorse_Primo_Annihilation",
            "abilityMixins": [
                {
                    "$type": "AttachToStateIDMixin",
                    "stateIDs": [
                        "Annihilation_Loop"
                    ],
                    "modifierName": "Annihilation_Thunder_Handler"
                },
                {
                    "$type": "AttachToStateIDMixin",
                    "stateIDs": [
                        "Annihilation_Cast",
                        "Annihilation_Loop"
                    ],
                    "modifierName": "Annihilation_Handler"
                }
            ],
            "abilitySpecials": {
                "coral_gadget_radius": 11.0
            },
            "modifiers": {
                "Annihilation_Thunder_Handler": {
                    "modifierName": "",
                    "bonusCriticalHurt": 100.0,
                    "thinkInterval": 15.5,
                    "onAdded": [
                        {
                            "$type": "AttachModifier",
                            "modifierName": "Annihilation_Thunder"
                        }
                    ],
                    "onThinkInterval": [
                        {
                            "$type": "ServerMonsterLog",
                            "paramList": [
                                0,
                                1,
                                3
                            ]
                        },
                        {
                            "$type": "SetAnimatorTrigger",
                            "triggerID": "EndAnnihilation",
                            "MPTriggerOnRemote": true
                        },
                        {
                            "$type": "Predicated",
                            "otherTargets": {
                                "$type": "BMGGFEAPNEB",
                                "configID": 42601116
                            },
                            "predicatesForeach": [
                                {
                                    "$type": "CACJBJLHLDL",
                                    "entityTypes": [
                                        "Gadget"
                                    ]
                                }
                            ],
                            "successActions": [
                                {
                                    "$type": "TriggerAbility",
                                    "otherTargets": {
                                        "$type": "BMGGFEAPNEB",
                                        "topLimit": 1,
                                        "sortType": "Nearest",
                                        "configID": 42601115
                                    },
                                    "abilityName": "FauneAbyssale_SeaHorse_Primo_PearlGadget_PlusElement"
                                }
                            ]
                        },
                        {
                            "$type": "SetGlobalValue",
                            "ratio": 0.0,
                            "key": "ACHIEVEMENT_82185_MARK",
                            "maxValue": 0.0,
                            "minValue": 0.0
                        },
                        {
                            "$type": "SetGlobalValue",
                            "ratio": 1.0,
                            "key": "_SEA_DRAGON_STAGE_",
                            "maxValue": 0.0,
                            "minValue": 0.0
                        }
                    ]
                },
                "Annihilation_Thunder": {
                    "modifierName": "",
                    "bonusCriticalHurt": 100.0,
                    "thinkInterval": 4.0,
                    "onAdded": [
                        {
                            "$type": "Predicated",
                            "otherTargets": {
                                "$type": "DBCDEKOJIJJ",
                                "topLimit": 2,
                                "entityTypePriority": [
                                    "Avatar"
                                ],
                                "sortType": "Random",
                                "shapeName": "CircleR28H15C",
                                "campTargetType": "Enemy",
                                "BGEBJHNLDLA": 1.0
                            },
                            "predicatesForeach": [
                                {
                                    "$type": "CACJBJLHLDL",
                                    "entityTypes": [
                                        "Avatar"
                                    ]
                                }
                            ],
                            "successActions": [
                                {
                                    "$type": "CreateGadget",
                                    "target": "Target",
                                    "born": {
                                        "$type": "MIBALMLLMOK",
                                        "CMLNNDEJCEF": true,
                                        "PCBHMKPEMJK": 0.30000001192092896
                                    },
                                    "gadgetID": 42601118
                                }
                            ]
                        }
                    ],
                    "onThinkInterval": [
                        {
                            "$type": "Predicated",
                            "otherTargets": {
                                "$type": "DBCDEKOJIJJ",
                                "topLimit": 2,
                                "entityTypePriority": [
                                    "Avatar"
                                ],
                                "sortType": "Random",
                                "shapeName": "CircleR28H15C",
                                "campTargetType": "Enemy",
                                "BGEBJHNLDLA": 1.0
                            },
                            "predicatesForeach": [
                                {
                                    "$type": "CACJBJLHLDL",
                                    "entityTypes": [
                                        "Avatar"
                                    ]
                                }
                            ],
                            "successActions": [
                                {
                                    "$type": "CreateGadget",
                                    "target": "Target",
                                    "born": {
                                        "$type": "MIBALMLLMOK",
                                        "CMLNNDEJCEF": true,
                                        "PCBHMKPEMJK": 0.30000001192092896
                                    },
                                    "gadgetID": 42601118
                                }
                            ]
                        }
                    ]
                },
                "Annihilation_Handler": {
                    "modifierName": "",
                    "bonusCriticalHurt": 100.0,
                    "modifierMixins": [
                        {
                            "$type": "ChangeLockTypeMixin",
                            "lockType": "Default",
                            "overrideRange": 0.009999999776482582,
                            "overrideCombatPri": 0.20000000298023224
                        },
                        {
                            "$type": "AttachActionToModifierMixin",
                            "onAdded": [
                                {
                                    "$type": "EnablePushColliderName",
                                    "pushColliderNames": [
                                        "FlyPushCollider"
                                    ],
                                    "setEnable": true
                                }
                            ],
                            "onRemoved": [
                                {
                                    "$type": "EnablePushColliderName",
                                    "pushColliderNames": [
                                        "FlyPushCollider"
                                    ]
                                }
                            ]
                        }
                    ],
                    "onAdded": [
                        {
                            "$type": "SetGlobalValue",
                            "ratio": 1.0,
                            "key": "_DISABLE_ANNIHILATION_",
                            "maxValue": 0.0,
                            "minValue": 0.0
                        },
                        {
                            "$type": "SetGlobalValue",
                            "ratio": 0.0,
                            "key": "_CORAL_GADGET_NOT_EXIST_",
                            "maxValue": 0.0,
                            "minValue": 0.0
                        },
                        {
                            "$type": "SetGlobalValue",
                            "ratio": 1.0,
                            "key": "ACHIEVEMENT_82185_MARK",
                            "maxValue": 0.0,
                            "minValue": 0.0
                        },
                        {
                            "$type": "TriggerAbility",
                            "otherTargets": {
                                "$type": "BMGGFEAPNEB",
                                "topLimit": 1,
                                "sortType": "Nearest",
                                "configID": 42601115
                            },
                            "abilityName": "FauneAbyssale_SeaHorse_Primo_PearlGadget"
                        },
                        {
                            "$type": "CreateGadget",
                            "born": {
                                "$type": "AJCFIBNMGKO",
                                "offset": {
                                    "EMBMLEBGFOI": [
                                        0.0,
                                        0.8659999966621399,
                                        "coral_gadget_radius",
                                        "MUL",
                                        "SUB"
                                    ],
                                    "NABPJFNICAE": 0.0,
                                    "MLOLIKEJCKB": [
                                        0.0,
                                        0.5,
                                        "coral_gadget_radius",
                                        "MUL",
                                        "SUB"
                                    ]
                                },
                                "CMLNNDEJCEF": true,
                                "NLICIODEGDO": {
                                    "$type": "ONLPIECIHGI",
                                    "GLHCPJCOJHC": "Horizontal"
                                },
                                "NLBFCDKCPAH": true
                            },
                            "sightGroupWithOwner": true,
                            "lifeByOwnerV2": true,
                            "gadgetID": 42601116,
                            "byServer": true
                        },
                        {
                            "$type": "CreateGadget",
                            "born": {
                                "$type": "AJCFIBNMGKO",
                                "offset": {
                                    "EMBMLEBGFOI": [
                                        0.8659999966621399,
                                        "coral_gadget_radius",
                                        "MUL"
                                    ],
                                    "NABPJFNICAE": 0.0,
                                    "MLOLIKEJCKB": [
                                        0.0,
                                        0.5,
                                        "coral_gadget_radius",
                                        "MUL",
                                        "SUB"
                                    ]
                                },
                                "CMLNNDEJCEF": true,
                                "NLICIODEGDO": {
                                    "$type": "ONLPIECIHGI"
                                },
                                "NLBFCDKCPAH": true
                            },
                            "sightGroupWithOwner": true,
                            "lifeByOwnerV2": true,
                            "gadgetID": 42601116,
                            "byServer": true
                        },
                        {
                            "$type": "CreateGadget",
                            "born": {
                                "$type": "AJCFIBNMGKO",
                                "offset": {
                                    "EMBMLEBGFOI": 0.0,
                                    "NABPJFNICAE": 0.0,
                                    "MLOLIKEJCKB": "coral_gadget_radius"
                                },
                                "CMLNNDEJCEF": true,
                                "NLICIODEGDO": {
                                    "$type": "ONLPIECIHGI",
                                    "GLHCPJCOJHC": "Horizontal"
                                },
                                "NLBFCDKCPAH": true
                            },
                            "sightGroupWithOwner": true,
                            "lifeByOwnerV2": true,
                            "gadgetID": 42601116,
                            "byServer": true
                        },
                        {
                            "$type": "ActCameraRadialBlur",
                            "cameraRadialBlur": {
                                "power": 1.2000000476837158,
                                "blurTime": 0.11999999731779099,
                                "fadeTime": 0.5
                            }
                        },
                        {
                            "$type": "AttachEffect",
                            "shieldHP": "Eff_Monster_FauneAbyssale_SeaHorse_Primo_Annihilation_TeslaCoil",
                            "born": {
                                "$type": "ILHMMCNMNEG",
                                "NLICIODEGDO": {
                                    "$type": "BMAMOFPPNBD"
                                },
                                "PDCEFGKJHIH": true,
                                "NLBFCDKCPAH": true,
                                "attachPointName": "TeslaCoil"
                            },
                            "effectTempleteID": -1.0
                        },
                        {
                            "$type": "AttachEffect",
                            "shieldHP": "Eff_Monster_FauneAbyssale_SeaHorse_Primo_Annihilation_Ripple_LoopB",
                            "effectTempleteID": -1.0
                        },
                        {
                            "$type": "TriggerBullet",
                            "bulletID": 42601119,
                            "born": {
                                "$type": "ILHMMCNMNEG",
                                "CMLNNDEJCEF": true,
                                "PDCEFGKJHIH": true,
                                "NLBFCDKCPAH": true,
                                "attachPointName": "Motion_Root"
                            }
                        },
                        {
                            "$type": "ServerMonsterLog",
                            "paramList": [
                                0,
                                1,
                                1
                            ]
                        }
                    ],
                    "onRemoved": [
                        {
                            "$type": "ServerMonsterLog",
                            "paramList": [
                                0,
                                1,
                                2
                            ]
                        },
                        {
                            "$type": "KillMultiBullet",
                            "gadgetInfo": {
                                "configID": 42601119
                            }
                        },
                        {
                            "$type": "SetGlobalValue",
                            "predicates": [
                                {
                                    "$type": "BMLGBKCIOIN",
                                    "key": "_CORAL_GADGET_NOT_EXIST_",
                                    "ratio": 0.0
                                }
                            ],
                            "ratio": 1.0,
                            "key": "_CORAL_GADGET_NOT_EXIST_",
                            "maxValue": 0.0,
                            "minValue": 0.0
                        },
                        {
                            "$type": "SetLockingV3Config",
                            "enable": true,
                            "specialCameraName": "default",
                            "LOPECHKGIPD": ""
                        },
                        {
                            "$type": "SetLockingV3Config",
                            "predicates": [
                                {
                                    "$type": "BMLGBKCIOIN",
                                    "key": "_SEA_DRAGON_STAGE_",
                                    "ratio": 3.0
                                }
                            ],
                            "enable": true,
                            "specialCameraName": "StunFocus",
                            "MOENBNPPMKN": 1,
                            "LOPECHKGIPD": ""
                        }
                    ]
                }
            }
        }
    }
]