{
    "luaDataPath": "",
    "isSimpleTalk": true,
    "entityBan": "",
    "startFade": {
        "startFadeOutDuration": 0.0
    },
    "endFade": {
        "startFadeOutDuration": 0.0
    },
    "actors": [
        {
            "alias": "Avatar",
            "visible": true,
            "bornPointName": "",
            "relativePosNpcAlias": "",
            "bindMovingTargetKey": ""
        },
        {
            "configID": 1001,
            "alias": "1001",
            "visible": true,
            "bornPointName": "",
            "relativePosNpcAlias": "",
            "bindMovingTargetKey": ""
        }
    ],
    "group": [
        [
            {
                "$type": "MOOOKOKLLEI",
                "type": "CAMERA_FOCUS",
                "OMCCMPHDLOO": "",
                "OCFGGGHIKOO": "",
                "LJFHGGJDPHH": "",
                "LPKDFKLNEHL": ""
            },
            {
                "$type": "MoleMole.Config.ConfigTimeProtectAction",
                "type": "TIME_PROTECT",
                "duration": 1.100000023841858
            },
            {
                "$type": "DLPFECMKEKH",
                "type": "DIALOG",
                "delayTime": 1.0,
                "aliasList": [
                    "1001"
                ],
                "NMKEDPFEKBH": 3740301
            },
            {
                "$type": "OOMFCPJAJGL",
                "type": "STEER_TO",
                "duration": 1.0,
                "aliasList": [
                    "1001"
                ],
                "DMGIIHNDNLC": "TO_LOCAL_AVATAR",
                "HCMINPNPFDF": true,
                "OMCCMPHDLOO": "",
                "DBLNLMOPEBP": ""
            },
            {
                "$type": "ILCGAGEGDJI",
                "type": "BODY_LANG",
                "delayTime": 1.0,
                "aliasList": [
                    "1001"
                ],
                "FLBOOPHHFJP": 1110,
                "FNDLJGEAMGI": ""
            },
            {
                "$type": "OPCCDGPJCJI",
                "type": "EMO_SYNC",
                "delayTime": 1.0,
                "aliasList": [
                    "1001"
                ],
                "IONNJBCBACJ": "Cs_Emo_Avatar_Simple_Common_Set/Cs_Emo_Avatar_Talk/Cs_Emo_Avatar_MainLine/Cs_Emo_Avatar_MengDe/Cs_Emo_3740301",
                "HLEJKBCMNNJ": "",
                "JGHLJJLNGPP": "",
                "MANNKIIBOFM": "",
                "COMNAAFDEDH": "",
                "CPGCCLNOCDK": "",
                "IGEFGCJKCPM": [
                    6871289167798257387,
                    17655258720642433575,
                    10348894479895941528,
                    12715706238979538070
                ]
            }
        ],
        [
            {
                "$type": "DLPFECMKEKH",
                "type": "DIALOG",
                "aliasList": [
                    "1001"
                ],
                "NMKEDPFEKBH": 3740302
            },
            {
                "$type": "ILCGAGEGDJI",
                "type": "BODY_LANG",
                "aliasList": [
                    "1001"
                ],
                "JLABKFNJCNP": true,
                "FLBOOPHHFJP": 1110,
                "FNDLJGEAMGI": ""
            },
            {
                "$type": "OPCCDGPJCJI",
                "type": "EMO_SYNC",
                "aliasList": [
                    "1001"
                ],
                "IONNJBCBACJ": "Cs_Emo_Avatar_Simple_Common_Set/Cs_Emo_Avatar_Talk/Cs_Emo_Avatar_MainLine/Cs_Emo_Avatar_MengDe/Cs_Emo_3740302",
                "HLEJKBCMNNJ": "",
                "JGHLJJLNGPP": "",
                "MANNKIIBOFM": "",
                "COMNAAFDEDH": "",
                "CPGCCLNOCDK": "",
                "IGEFGCJKCPM": [
                    6902102963294164410,
                    14607182186986510930,
                    15894422606670079745,
                    8782445505883944933
                ]
            }
        ],
        [
            {
                "$type": "DLPFECMKEKH",
                "type": "DIALOG",
                "aliasList": [
                    "1001"
                ],
                "NMKEDPFEKBH": 3740303
            },
            {
                "$type": "OPCCDGPJCJI",
                "type": "EMO_SYNC",
                "aliasList": [
                    "1001"
                ],
                "IONNJBCBACJ": "Cs_Emo_Avatar_Simple_Common_Set/Cs_Emo_Avatar_Talk/Cs_Emo_Avatar_MainLine/Cs_Emo_Avatar_MengDe/Cs_Emo_3740303",
                "HLEJKBCMNNJ": "",
                "JGHLJJLNGPP": "",
                "MANNKIIBOFM": "",
                "COMNAAFDEDH": "",
                "CPGCCLNOCDK": "",
                "IGEFGCJKCPM": [
                    9337784699821925199,
                    14517572542341184242,
                    2030912377572801834,
                    2486613329077848516
                ]
            }
        ],
        [
            {
                "$type": "DLPFECMKEKH",
                "type": "DIALOG",
                "aliasList": [
                    "1001"
                ],
                "NMKEDPFEKBH": 3740304
            },
            {
                "$type": "ILCGAGEGDJI",
                "type": "BODY_LANG",
                "aliasList": [
                    "1001"
                ],
                "FLBOOPHHFJP": 1030,
                "FNDLJGEAMGI": ""
            },
            {
                "$type": "OPCCDGPJCJI",
                "type": "EMO_SYNC",
                "aliasList": [
                    "1001"
                ],
                "IONNJBCBACJ": "Cs_Emo_Avatar_Simple_Common_Set/Cs_Emo_Avatar_Talk/Cs_Emo_Avatar_MainLine/Cs_Emo_Avatar_MengDe/Cs_Emo_3740304",
                "HLEJKBCMNNJ": "",
                "JGHLJJLNGPP": "",
                "MANNKIIBOFM": "",
                "COMNAAFDEDH": "",
                "CPGCCLNOCDK": "",
                "IGEFGCJKCPM": [
                    13357057342686266924,
                    17578968809102608316,
                    6423270058059922104,
                    4459973262589425146
                ]
            }
        ],
        [
            {
                "$type": "DLPFECMKEKH",
                "type": "DIALOG",
                "aliasList": [
                    "1001"
                ],
                "NMKEDPFEKBH": 3740305,
                "JLCHMAJCAPA": 2.0
            },
            {
                "$type": "ILCGAGEGDJI",
                "type": "BODY_LANG",
                "delayTime": 1.899999976158142,
                "aliasList": [
                    "1001"
                ],
                "JLABKFNJCNP": true,
                "FNDLJGEAMGI": ""
            },
            {
                "$type": "OPCCDGPJCJI",
                "type": "EMO_SYNC",
                "aliasList": [
                    "1001"
                ],
                "IONNJBCBACJ": "Cs_Emo_Avatar_Simple_Common_Set/Cs_Emo_Avatar_Talk/Cs_Emo_Avatar_MainLine/Cs_Emo_Avatar_MengDe/Cs_Emo_3740305",
                "HLEJKBCMNNJ": "",
                "JGHLJJLNGPP": "",
                "MANNKIIBOFM": "",
                "COMNAAFDEDH": "",
                "CPGCCLNOCDK": "",
                "IGEFGCJKCPM": [
                    2709639282783065720,
                    9438016430088066217,
                    6076698238580025796,
                    7792728482982411170
                ]
            }
        ]
    ],
    "groupId": [
        {
            "grpId": 2714026633,
            "nextGrpId": 2714026634
        },
        {
            "index": 1,
            "grpId": 2714026634,
            "nextGrpId": 2714026635
        },
        {
            "index": 2,
            "grpId": 2714026635,
            "nextGrpId": 2714026636
        },
        {
            "index": 3,
            "grpId": 2714026636,
            "nextGrpId": 2714026637
        },
        {
            "index": 4,
            "grpId": 2714026637,
            "nextGrpId": 2714026638
        }
    ],
    "freeStyleDic": {
        "1001": [
            1110,
            1030
        ]
    }
}