{
    "luaDataPath": "",
    "dontUseDefaultFinish": true,
    "startBlackKeepTime": 1.0,
    "entityBan": "",
    "disableNpcLod": true,
    "startFade": {
        "startFadeInDuration": 0.30000001192092896,
        "startFadeOutDuration": 0.5
    },
    "endFade": {
        "startFadeOutDuration": 0.0
    },
    "actors": [
        {
            "alias": "Avatar",
            "visible": true,
            "bornPointName": "Q19045Player6",
            "relativePosNpcAlias": "",
            "bindMovingTargetKey": ""
        },
        {
            "configID": 1024,
            "alias": "1024",
            "visible": true,
            "bornPointName": "Q19045Bennett6",
            "useRelativePos": true,
            "relativeRot": {
                "y": 180.0
            },
            "relativePosNpcAlias": "",
            "bindMovingTargetKey": ""
        }
    ],
    "group": [
        [
            {
                "$type": "MoleMole.Config.ConfigEmotionTemplateAction",
                "type": "EMOTION_TEMPLATE",
                "aliasList": [
                    "1024"
                ],
                "emoTemplateID": 10100
            },
            {
                "$type": "EAMBKPBOPIC",
                "type": "LOOK_AT",
                "aliasList": [
                    "1024"
                ],
                "OMCCMPHDLOO": "",
                "CEBMBGKJACI": "CAMERA",
                "KPCALFDIHMC": "",
                "DBLNLMOPEBP": ""
            },
            {
                "$type": "MoleMole.Config.ConfigTimeProtectAction",
                "type": "TIME_PROTECT",
                "duration": 0.30000001192092896
            },
            {
                "$type": "MoleMole.Config.ConfigSimpleBlackScreenAction",
                "type": "SIMPLE_BLACK_SCREEN",
                "duration": 1.2000000476837158,
                "durationToBlack": 0.30000001192092896,
                "durationKeepBlack": 0.5,
                "durationFromBlack": 0.30000001192092896,
                "textMapID": ""
            },
            {
                "$type": "DLPFECMKEKH",
                "type": "DIALOG_CLEAR",
                "delayTime": 0.30000001192092896
            },
            {
                "$type": "MOOOKOKLLEI",
                "type": "CAMERA_MOVE",
                "delayTime": 0.30000001192092896,
                "IPHEFBOANAL": "RELATIVE_TO_TARGET_ENTITY",
                "DGGAJKMNNKE": "RELATIVE_TO_TARGET_ENTITY",
                "AFODHELHCGB": 30.0,
                "MGMFMGNANHH": 6,
                "NDFGFJFGHKL": "EaseInOutCubic",
                "JLKNHDKGCLJ": true,
                "IBCBGNHCICN": {},
                "OMCCMPHDLOO": "1024",
                "OCFGGGHIKOO": "",
                "LJFHGGJDPHH": "",
                "LPKDFKLNEHL": ""
            },
            {
                "$type": "MoleMole.Config.ConfigVisibleInterAction",
                "type": "VISIBLE",
                "delayTime": 0.5,
                "aliasList": [
                    "Avatar"
                ],
                "extraParam": ""
            }
        ],
        [
            {
                "$type": "MoleMole.Config.ConfigEmotionTemplateAction",
                "type": "EMOTION_TEMPLATE",
                "aliasList": [
                    "1024"
                ],
                "emoTemplateID": 10301
            },
            {
                "$type": "OPCCDGPJCJI",
                "type": "EMO_SYNC",
                "aliasList": [
                    "1024"
                ],
                "IONNJBCBACJ": "Cs_Emo_Avatar_Simple_Common_Set/Cs_Emo_Avatar_Talk/Cs_Emo_Coop_Common/Cs_Emo_Coop_Bennett_01/Cs_Emo_1904505101",
                "HLEJKBCMNNJ": "",
                "JGHLJJLNGPP": "",
                "MANNKIIBOFM": "",
                "COMNAAFDEDH": "",
                "CPGCCLNOCDK": "",
                "IGEFGCJKCPM": [
                    1362783368179383686,
                    4491001990918072929,
                    3731373286731073443,
                    17297080444911214000
                ]
            },
            {
                "$type": "MOOOKOKLLEI",
                "type": "CAMERA_MOVE",
                "duration": 1.0,
                "IPHEFBOANAL": "RELATIVE_TO_TARGET_ENTITY",
                "DGGAJKMNNKE": "RELATIVE_TO_TARGET_ENTITY",
                "AFODHELHCGB": 30.0,
                "MGMFMGNANHH": 6,
                "NDFGFJFGHKL": "EaseInOutCubic",
                "IBCBGNHCICN": {},
                "OMCCMPHDLOO": "1024",
                "OCFGGGHIKOO": "",
                "LJFHGGJDPHH": "",
                "LPKDFKLNEHL": ""
            },
            {
                "$type": "DLPFECMKEKH",
                "type": "DIALOG",
                "aliasList": [
                    "1024"
                ],
                "NMKEDPFEKBH": 1904505101
            }
        ],
        [
            {
                "$type": "OPCCDGPJCJI",
                "type": "EMO_SYNC",
                "aliasList": [
                    "1024"
                ],
                "IONNJBCBACJ": "Cs_Emo_Avatar_Simple_Common_Set/Cs_Emo_Avatar_Talk/Cs_Emo_Coop_Common/Cs_Emo_Coop_Bennett_01/Cs_Emo_1904505102",
                "HLEJKBCMNNJ": "",
                "JGHLJJLNGPP": "",
                "MANNKIIBOFM": "",
                "COMNAAFDEDH": "",
                "CPGCCLNOCDK": "",
                "IGEFGCJKCPM": [
                    17406148393698071550,
                    17434616251609620769,
                    5790043442566365535,
                    8278245529994703590
                ]
            },
            {
                "$type": "MoleMole.Config.ConfigEmotionTemplateAction",
                "type": "EMOTION_TEMPLATE",
                "aliasList": [
                    "1024"
                ],
                "emoTemplateID": 10301
            },
            {
                "$type": "DLPFECMKEKH",
                "type": "DIALOG",
                "aliasList": [
                    "1024"
                ],
                "NMKEDPFEKBH": 1904505102
            }
        ]
    ],
    "groupId": [
        {
            "grpId": 886680381,
            "nextGrpId": 886680382
        },
        {
            "index": 1,
            "grpId": 886680382,
            "nextGrpId": 886680383
        },
        {
            "index": 2,
            "grpId": 886680383,
            "nextGrpId": 886680384
        }
    ],
    "freeStyleDic": {
        "1024": [
            10100,
            10301
        ]
    }
}