{
    "luaDataPath": "",
    "dontUseDefaultFinish": true,
    "startBlackKeepTime": 0.5,
    "entityBan": "",
    "disableNpcLod": true,
    "isAutoBanNpc": true,
    "isBanWidgetPet": true,
    "protectNpcMobileLod": true,
    "LIICEPFFGMH": 7,
    "startFade": {
        "startFadeInDuration": 0.5,
        "startFadeOutDuration": 0.5
    },
    "endFade": {
        "startFadeOutDuration": 0.0
    },
    "actors": [
        {
            "alias": "Avatar",
            "visible": true,
            "bornPointName": "[3_310100247:1565.445,176.293,1792.852,0.000,188.609,0.000]",
            "relativePosType": "AVATAR_NEW",
            "relativePosNpcAlias": "",
            "notDestroyInTalk": true,
            "bindMovingTargetKey": ""
        },
        {
            "alias": "AvatarNpc",
            "visible": true,
            "bornPointName": "[3_310100247:1565.445,176.293,1792.852,0.000,188.609,0.000]",
            "removeActorType": "NEW_REMOVE",
            "relativePosType": "AVATAR_NEW",
            "relativePosNpcAlias": "",
            "notDestroyInTalk": true,
            "bindMovingTargetKey": ""
        },
        {
            "configID": 21344,
            "alias": "21344",
            "visible": true,
            "bornPointName": "[3_310100215:1564.785,176.775,1791.793]",
            "relativePosType": "AVATAR_NEW",
            "relativePosNpcAlias": "",
            "notDestroyInTalk": true,
            "bindMovingTargetKey": ""
        },
        {
            "configID": 1005,
            "alias": "1005",
            "visible": true,
            "bornPointName": "[3_310100246:1566.438,176.485,1792.493,1.755,233.597,359.729]",
            "removeActorType": "NEW_REMOVE_WITH_DISAPPEAR",
            "relativePosType": "AVATAR_NEW",
            "relativePosNpcAlias": "",
            "notDestroyInTalk": true,
            "bindMovingTargetKey": ""
        }
    ],
    "group": [
        [
            {
                "$type": "MoleMole.Config.ConfigTimeProtectAction",
                "type": "TIME_PROTECT",
                "duration": 1.0,
                "actionId": 104
            },
            {
                "$type": "MoleMole.Config.ConfigBlackScreenAction",
                "type": "BLACK_SCREEN",
                "duration": 1.0,
                "actionId": 140,
                "flag": 2048,
                "blackScreenType": "KEEP_BLACK",
                "durationToBlack": 0.5,
                "durationKeepBlack": 1.0,
                "durationFromBlack": 0.5,
                "inteePos": "",
                "textMapID": "",
                "useTextFade": true,
                "changeAudioState": true
            },
            {
                "$type": "MoleMole.Config.ConfigSitOrStandAction",
                "type": "SIT_OR_STAND",
                "aliasList": [
                    "Avatar"
                ],
                "actionId": 145,
                "flag": 8192,
                "banResetFreestyle": true
            },
            {
                "$type": "MoleMole.Config.ConfigVisibleInterAction",
                "type": "VISIBLE",
                "aliasList": [
                    "Avatar"
                ],
                "actionId": 151,
                "extraParam": ""
            },
            {
                "$type": "MoleMole.Config.ConfigPlayerNPCEnergyTypeAction",
                "type": "SET_PLAYER_NPC_ENERGY_TYPE",
                "aliasList": [
                    "AvatarNpc"
                ],
                "actionId": 146,
                "setHeroEngergyType": true
            },
            {
                "$type": "ILCGAGEGDJI",
                "type": "BODY_LANG",
                "aliasList": [
                    "AvatarNpc"
                ],
                "actionId": 149,
                "JLABKFNJCNP": true,
                "PMJAMGLAJGK": true,
                "LIMPPBIAKGL": false,
                "FNDLJGEAMGI": ""
            },
            {
                "$type": "ILCGAGEGDJI",
                "type": "BODY_LANG",
                "aliasList": [
                    "1005"
                ],
                "actionId": 138,
                "JLABKFNJCNP": true,
                "PMJAMGLAJGK": true,
                "LIMPPBIAKGL": false,
                "FNDLJGEAMGI": ""
            }
        ],
        [
            {
                "$type": "MoleMole.Config.ConfigBlackScreenAction",
                "type": "BLACK_SCREEN",
                "duration": 0.5,
                "actionId": 141,
                "flag": 2048,
                "blackScreenType": "FROM_BLACK",
                "durationToBlack": 0.5,
                "durationKeepBlack": 0.5,
                "durationFromBlack": 0.5,
                "inteePos": "",
                "textMapID": "",
                "useTextFade": true,
                "changeAudioState": true
            },
            {
                "$type": "DLPFECMKEKH",
                "type": "DIALOG",
                "aliasList": [
                    "21344"
                ],
                "actionId": 107,
                "NMKEDPFEKBH": 711150601,
                "JLCHMAJCAPA": 0.5
            }
        ],
        [
            {
                "$type": "DLPFECMKEKH",
                "type": "DIALOG",
                "aliasList": [
                    "21344"
                ],
                "actionId": 109,
                "NMKEDPFEKBH": 711150602,
                "JLCHMAJCAPA": 0.5
            }
        ],
        [
            {
                "$type": "DLPFECMKEKH",
                "type": "DIALOG",
                "aliasList": [
                    "1005"
                ],
                "actionId": 111,
                "NMKEDPFEKBH": 711150603,
                "JLCHMAJCAPA": 0.5
            }
        ],
        [
            {
                "$type": "DLPFECMKEKH",
                "type": "DIALOG",
                "aliasList": [
                    "21344"
                ],
                "actionId": 113,
                "NMKEDPFEKBH": 711150604,
                "JLCHMAJCAPA": 0.5
            }
        ],
        [
            {
                "$type": "DLPFECMKEKH",
                "type": "DIALOG",
                "aliasList": [
                    "21344"
                ],
                "actionId": 115,
                "NMKEDPFEKBH": 711150605,
                "JLCHMAJCAPA": 0.5
            }
        ],
        [
            {
                "$type": "DLPFECMKEKH",
                "type": "DIALOG",
                "aliasList": [
                    "21344"
                ],
                "actionId": 117,
                "NMKEDPFEKBH": 711150606,
                "JLCHMAJCAPA": 0.5
            },
            {
                "$type": "ECLBLHOENAG",
                "type": "DIALOG_SELECT",
                "delayTime": 0.4000000059604645,
                "aliasList": [
                    "AvatarNpc"
                ],
                "actionId": 143,
                "NDMMOPDPKNF": [
                    711150607
                ],
                "FPDBIEGHMCD": [
                    2476943613
                ],
                "PKBOIGBGDEG": true,
                "GOJJPCDMMLN": 2476943605
            }
        ],
        [
            {
                "$type": "DLPFECMKEKH",
                "type": "DIALOG",
                "aliasList": [
                    "21344"
                ],
                "actionId": 120,
                "NMKEDPFEKBH": 711150608,
                "JLCHMAJCAPA": 0.5
            }
        ],
        [
            {
                "$type": "DLPFECMKEKH",
                "type": "DIALOG",
                "aliasList": [
                    "21344"
                ],
                "actionId": 122,
                "NMKEDPFEKBH": 711150609,
                "JLCHMAJCAPA": 0.5
            }
        ],
        [
            {
                "$type": "DLPFECMKEKH",
                "type": "DIALOG",
                "aliasList": [
                    "21344"
                ],
                "actionId": 124,
                "NMKEDPFEKBH": 711150610,
                "JLCHMAJCAPA": 0.5
            },
            {
                "$type": "ECLBLHOENAG",
                "type": "DIALOG_SELECT",
                "delayTime": 0.4000000059604645,
                "aliasList": [
                    "AvatarNpc"
                ],
                "actionId": 144,
                "NDMMOPDPKNF": [
                    711150611,
                    711150613
                ],
                "FPDBIEGHMCD": [
                    3770807803,
                    3770807804
                ],
                "PKBOIGBGDEG": true,
                "GOJJPCDMMLN": 2476943605
            }
        ],
        [
            {
                "$type": "DLPFECMKEKH",
                "type": "DIALOG",
                "aliasList": [
                    "21344"
                ],
                "actionId": 127,
                "NMKEDPFEKBH": 711150612,
                "JLCHMAJCAPA": 0.5
            }
        ],
        [
            {
                "$type": "DLPFECMKEKH",
                "type": "DIALOG",
                "aliasList": [
                    "21344"
                ],
                "actionId": 129,
                "NMKEDPFEKBH": 711150614,
                "JLCHMAJCAPA": 0.5
            }
        ],
        [
            {
                "$type": "DLPFECMKEKH",
                "type": "DIALOG",
                "aliasList": [
                    "21344"
                ],
                "actionId": 131,
                "NMKEDPFEKBH": 711150615,
                "JLCHMAJCAPA": 0.5
            }
        ],
        [
            {
                "$type": "MoleMole.Config.ConfigTimeProtectAction",
                "type": "TIME_PROTECT",
                "duration": 0.10000000149011612,
                "actionId": 133
            }
        ],
        [
            {
                "$type": "MoleMole.Config.ConfigTimeProtectAction",
                "type": "TIME_PROTECT",
                "duration": 0.10000000149011612,
                "actionId": 105
            },
            {
                "$type": "MoleMole.Config.ConfigSimpleBlackScreenAction",
                "type": "SIMPLE_BLACK_SCREEN",
                "actionId": 134,
                "durationToBlack": 0.5,
                "durationKeepBlack": 1.5,
                "durationFromBlack": 0.5,
                "textMapID": ""
            },
            {
                "$type": "MoleMole.Config.ConfigTimeProtectAction",
                "type": "TIME_PROTECT",
                "duration": 0.699999988079071,
                "actionId": 135
            },
            {
                "$type": "MOOOKOKLLEI",
                "type": "CAMERA_MOVE",
                "delayTime": 0.5,
                "duration": 0.10000000149011612,
                "actionId": 142,
                "IPHEFBOANAL": "EXIT",
                "HGKCPMDICGG": {
                    "z": 1.0
                },
                "AFODHELHCGB": 30.0,
                "MGMFMGNANHH": 5,
                "NDFGFJFGHKL": "EaseInOutCubic",
                "IBCBGNHCICN": {},
                "HCPFCAHMGMO": false,
                "OMCCMPHDLOO": "",
                "FEFNBKOHPOG": true,
                "OCFGGGHIKOO": "",
                "LJFHGGJDPHH": "",
                "LPKDFKLNEHL": ""
            },
            {
                "$type": "MoleMole.Config.ConfigVisibleInterAction",
                "type": "VISIBLE",
                "delayTime": 0.6000000238418579,
                "aliasList": [
                    "Avatar"
                ],
                "actionId": 148,
                "isVisible": true,
                "extraParam": ""
            },
            {
                "$type": "MoleMole.Config.ConfigVisibleInterAction",
                "type": "VISIBLE",
                "delayTime": 0.6000000238418579,
                "aliasList": [
                    "AvatarNpc"
                ],
                "actionId": 147,
                "extraParam": ""
            },
            {
                "$type": "ILCGAGEGDJI",
                "type": "BODY_LANG",
                "delayTime": 0.6000000238418579,
                "aliasList": [
                    "AvatarNpc"
                ],
                "actionId": 150,
                "JLABKFNJCNP": true,
                "PMJAMGLAJGK": true,
                "LIMPPBIAKGL": false,
                "FNDLJGEAMGI": ""
            },
            {
                "$type": "ILCGAGEGDJI",
                "type": "BODY_LANG",
                "delayTime": 0.6000000238418579,
                "aliasList": [
                    "1005"
                ],
                "actionId": 139,
                "JLABKFNJCNP": true,
                "PMJAMGLAJGK": true,
                "LIMPPBIAKGL": false,
                "FNDLJGEAMGI": ""
            }
        ]
    ],
    "groupId": [
        {
            "grpId": 2476943606,
            "nextGrpId": 2476943607
        },
        {
            "index": 1,
            "grpId": 2476943607,
            "nextGrpId": 2476943608
        },
        {
            "index": 2,
            "grpId": 2476943608,
            "nextGrpId": 2476943609
        },
        {
            "index": 3,
            "grpId": 2476943609,
            "nextGrpId": 2476943610
        },
        {
            "index": 4,
            "grpId": 2476943610,
            "nextGrpId": 2476943611
        },
        {
            "index": 5,
            "grpId": 2476943611,
            "nextGrpId": 2476943612
        },
        {
            "index": 6,
            "grpId": 2476943612,
            "nextGrpId": 2476943613
        },
        {
            "index": 7,
            "grpId": 2476943613,
            "nextGrpId": 2476943614
        },
        {
            "index": 8,
            "grpId": 2476943614,
            "nextGrpId": 3770807802
        },
        {
            "index": 9,
            "grpId": 3770807802,
            "nextGrpId": 3770807803
        },
        {
            "index": 10,
            "grpId": 3770807803,
            "nextGrpId": 3770807806
        },
        {
            "index": 11,
            "grpId": 3770807804,
            "nextGrpId": 3770807805
        },
        {
            "index": 12,
            "grpId": 3770807805,
            "nextGrpId": 3770807806
        },
        {
            "index": 13,
            "grpId": 3770807806,
            "nextGrpId": 3770807807
        },
        {
            "index": 14,
            "grpId": 3770807807,
            "nextGrpId": 3770807808
        }
    ],
    "freeStyleDic": {
        "1025": [],
        "1026": []
    },
    "EEPECPFCFCB": {
        "NBMCAFGDPDO": "",
        "GLCHGCDCFFF": ""
    }
}