{
    "luaDataPath": "",
    "dontUseDefaultFinish": true,
    "entityBan": "",
    "disableNpcLod": true,
    "isAutoBanNpc": true,
    "isBanWidgetPet": true,
    "protectNpcMobileLod": true,
    "LIICEPFFGMH": 5,
    "startFade": {
        "startFadeOutDuration": 0.0
    },
    "endFade": {
        "startFadeOutDuration": 0.0
    },
    "actors": [
        {
            "alias": "Avatar",
            "visible": true,
            "bornPointName": "[3_3829:-2595.995,217.736,-3844.755,0.000,212.400,0.000]",
            "relativePosType": "AVATAR_NEW",
            "relativePosNpcAlias": "",
            "bindMovingTargetKey": ""
        },
        {
            "alias": "AvatarNpc",
            "visible": true,
            "bornPointName": "",
            "removeActorType": "NEW_REMOVE",
            "relativePosType": "AVATAR_NEW",
            "relativePosNpcAlias": "",
            "bindMovingTargetKey": ""
        },
        {
            "configID": 1044,
            "alias": "1044",
            "visible": true,
            "bornPointName": "",
            "relativePosType": "AVATAR_NEW",
            "relativePosNpcAlias": "",
            "bindMovingTargetKey": ""
        },
        {
            "configID": 1049,
            "alias": "1049",
            "visible": true,
            "bornPointName": "",
            "relativePosType": "AVATAR_NEW",
            "relativePosNpcAlias": "",
            "bindMovingTargetKey": ""
        },
        {
            "configID": 1005,
            "alias": "1005",
            "visible": true,
            "bornPointName": "",
            "relativePos": {
                "x": -1.0,
                "z": 0.5
            },
            "removeActorType": "NEW_REMOVE_WITH_DISAPPEAR",
            "relativePosType": "AVATAR_NEW",
            "relativePosNpcAlias": "",
            "bindMovingTargetKey": ""
        }
    ],
    "group": [
        [
            {
                "$type": "MoleMole.Config.ConfigTimeProtectAction",
                "type": "TIME_PROTECT",
                "duration": 0.10000000149011612,
                "actionId": 104
            },
            {
                "$type": "MoleMole.Config.ConfigSitOrStandAction",
                "type": "SIT_OR_STAND",
                "aliasList": [
                    "Avatar"
                ],
                "actionId": 119,
                "banResetFreestyle": true
            },
            {
                "$type": "MoleMole.Config.ConfigVisibleInterAction",
                "type": "VISIBLE",
                "aliasList": [
                    "Avatar"
                ],
                "actionId": 130,
                "extraParam": ""
            },
            {
                "$type": "MoleMole.Config.ConfigPlayerNPCEnergyTypeAction",
                "type": "SET_PLAYER_NPC_ENERGY_TYPE",
                "aliasList": [
                    "AvatarNpc"
                ],
                "actionId": 120,
                "setHeroEngergyType": true
            },
            {
                "$type": "EAMBKPBOPIC",
                "type": "LOOK_AT",
                "aliasList": [
                    "1049"
                ],
                "actionId": 155,
                "FIDJDPAIFDN": true,
                "useTargetPos": true,
                "GFKIMGBGADJ": true,
                "GMKIJKADNHN": {
                    "x": -2597.080078125,
                    "y": 219.1719970703125,
                    "z": -3846.152099609375
                },
                "BCHGCKLKNEH": 0.5,
                "OMCCMPHDLOO": "1044",
                "CEBMBGKJACI": "NONE",
                "FJAPKBGLNLC": {
                    "x": 3.8499999046325684,
                    "y": 353.2850036621094
                },
                "EOHIIHMKDJC": true,
                "NALDAIJKCML": 60.0,
                "KPCALFDIHMC": "",
                "DBLNLMOPEBP": ""
            }
        ],
        [
            {
                "$type": "MOOOKOKLLEI",
                "type": "CAMERA_MOVE",
                "duration": 0.5,
                "actionId": 143,
                "DOKGBCKOLJK": {
                    "x": -2598.694091796875,
                    "y": 220.39100646972656,
                    "z": -3843.927001953125
                },
                "HGKCPMDICGG": {
                    "x": -2598.01611328125,
                    "y": 219.9290008544922,
                    "z": -3844.498046875
                },
                "AFODHELHCGB": 23.763999938964844,
                "MGMFMGNANHH": 6,
                "NDFGFJFGHKL": "EaseInOutCubic",
                "IBCBGNHCICN": {},
                "BNBBLLBEIDL": true,
                "NHNPMMBMCFC": 0.35899999737739563,
                "HCPFCAHMGMO": false,
                "OMCCMPHDLOO": "",
                "FEFNBKOHPOG": true,
                "OCFGGGHIKOO": "",
                "LJFHGGJDPHH": "",
                "LPKDFKLNEHL": ""
            },
            {
                "$type": "MoleMole.Config.ConfigTeleportToAction",
                "type": "TELEPORT_TO",
                "aliasList": [
                    "1005"
                ],
                "actionId": 177,
                "position": {
                    "x": -2596.070068359375,
                    "y": 217.73599243164062,
                    "z": -3845.5390625
                },
                "forward": {
                    "x": -0.875,
                    "y": 0.004999999888241291,
                    "z": -0.48500001430511475
                },
                "openLongDisTeleport": true,
                "posBindMovingTargetKey": "",
                "forwardBindMovingTargetKey": ""
            },
            {
                "$type": "ILCGAGEGDJI",
                "type": "BODY_LANG",
                "aliasList": [
                    "1049"
                ],
                "actionId": 263,
                "JLABKFNJCNP": true,
                "LIMPPBIAKGL": false,
                "FNEGLPPEBBF": true,
                "FNDLJGEAMGI": ""
            },
            {
                "$type": "MoleMole.Config.ConfigTeleportToAction",
                "type": "TELEPORT_TO",
                "aliasList": [
                    "1049"
                ],
                "actionId": 260,
                "position": {
                    "x": -2597.06689453125,
                    "y": 217.73599243164062,
                    "z": -3846.4580078125
                },
                "forward": {
                    "x": 0.47099998593330383,
                    "z": 0.8820000290870667
                },
                "openLongDisTeleport": true,
                "posBindMovingTargetKey": "",
                "forwardBindMovingTargetKey": ""
            },
            {
                "$type": "OPCCDGPJCJI",
                "type": "EMO_SYNC",
                "aliasList": [
                    "1049"
                ],
                "actionId": 257,
                "IONNJBCBACJ": "",
                "HLEJKBCMNNJ": "Cs_Emo_Avatar_Common/Cs_Emo_Avatar_Default01",
                "JGHLJJLNGPP": "Cs_Emo_Avatar_Common/Cs_Emo_Avatar_Default01",
                "MANNKIIBOFM": "",
                "COMNAAFDEDH": "",
                "CPGCCLNOCDK": "",
                "MFABDGAFKII": [
                    1010565500959774114,
                    17914558573000180712,
                    14498871351621154070,
                    14348654671849899985
                ],
                "IPAGHAALIII": [
                    17551147554270584215,
                    11567349927864383394,
                    11535483659151300012,
                    3124390413002392171
                ]
            },
            {
                "$type": "EAMBKPBOPIC",
                "type": "LOOK_AT",
                "aliasList": [
                    "1049"
                ],
                "actionId": 166,
                "FIDJDPAIFDN": true,
                "useTargetPos": true,
                "GFKIMGBGADJ": true,
                "GMKIJKADNHN": {
                    "x": -2596.73291015625,
                    "y": 219.09800720214844,
                    "z": -3845.364990234375
                },
                "BCHGCKLKNEH": 0.5,
                "OMCCMPHDLOO": "",
                "CEBMBGKJACI": "NONE",
                "EOHIIHMKDJC": true,
                "NALDAIJKCML": 60.0,
                "KPCALFDIHMC": "",
                "DBLNLMOPEBP": ""
            },
            {
                "$type": "EAMBKPBOPIC",
                "type": "LOOK_AT",
                "aliasList": [
                    "1044"
                ],
                "actionId": 160,
                "FIDJDPAIFDN": true,
                "useTargetPos": true,
                "GFKIMGBGADJ": true,
                "GMKIJKADNHN": {
                    "x": -2596.5380859375,
                    "y": 219.28599548339844,
                    "z": -3844.952880859375
                },
                "BCHGCKLKNEH": 0.5,
                "OMCCMPHDLOO": "",
                "CEBMBGKJACI": "NONE",
                "EOHIIHMKDJC": true,
                "NALDAIJKCML": 60.0,
                "KPCALFDIHMC": "",
                "DBLNLMOPEBP": ""
            },
            {
                "$type": "ILCGAGEGDJI",
                "type": "BODY_LANG",
                "aliasList": [
                    "1005"
                ],
                "actionId": 234,
                "JLABKFNJCNP": true,
                "LIMPPBIAKGL": false,
                "FNEGLPPEBBF": true,
                "FNDLJGEAMGI": ""
            },
            {
                "$type": "MoleMole.Config.ConfigTeleportToAction",
                "type": "TELEPORT_TO",
                "aliasList": [
                    "1044"
                ],
                "actionId": 153,
                "position": {
                    "x": -2597.10595703125,
                    "y": 217.73599243164062,
                    "z": -3845.26611328125
                },
                "forward": {
                    "x": 1.1410000324249268,
                    "z": 0.6370000243186951
                },
                "openLongDisTeleport": true,
                "posBindMovingTargetKey": "",
                "forwardBindMovingTargetKey": ""
            },
            {
                "$type": "ILCGAGEGDJI",
                "type": "BODY_LANG",
                "aliasList": [
                    "1044"
                ],
                "actionId": 152,
                "JLABKFNJCNP": true,
                "LIMPPBIAKGL": false,
                "FNEGLPPEBBF": true,
                "FNDLJGEAMGI": ""
            },
            {
                "$type": "EAMBKPBOPIC",
                "type": "LOOK_AT",
                "aliasList": [
                    "1005"
                ],
                "actionId": 255,
                "FIDJDPAIFDN": true,
                "BCHGCKLKNEH": 0.5,
                "OMCCMPHDLOO": "1044",
                "EOHIIHMKDJC": true,
                "NALDAIJKCML": 60.0,
                "KPCALFDIHMC": "",
                "DBLNLMOPEBP": ""
            },
            {
                "$type": "DLPFECMKEKH",
                "type": "DIALOG",
                "aliasList": [
                    "1044"
                ],
                "actionId": 107,
                "NMKEDPFEKBH": 401092102,
                "JLCHMAJCAPA": 3.0
            },
            {
                "$type": "EAMBKPBOPIC",
                "type": "LOOK_AT",
                "aliasList": [
                    "AvatarNpc"
                ],
                "actionId": 266,
                "FIDJDPAIFDN": true,
                "BCHGCKLKNEH": 0.5,
                "OMCCMPHDLOO": "1044",
                "FJAPKBGLNLC": {
                    "x": 0.22599999606609344,
                    "y": 350.1210021972656
                },
                "EOHIIHMKDJC": true,
                "NALDAIJKCML": 60.0,
                "KPCALFDIHMC": "",
                "DBLNLMOPEBP": ""
            },
            {
                "$type": "ILCGAGEGDJI",
                "type": "BODY_LANG",
                "aliasList": [
                    "AvatarNpc"
                ],
                "actionId": 150,
                "JLABKFNJCNP": true,
                "LIMPPBIAKGL": false,
                "FNEGLPPEBBF": true,
                "FNDLJGEAMGI": ""
            },
            {
                "$type": "OPCCDGPJCJI",
                "type": "EMO_SYNC",
                "aliasList": [
                    "1044"
                ],
                "actionId": 138,
                "IONNJBCBACJ": "Cs_Emo_Avatar_Simple_Common_Set/Cs_Emo_Avatar_Talk/Cs_Emo_Avatar_Event/Cs_Emo_KaPaiXunYou/Cs_Emo_401092102",
                "HLEJKBCMNNJ": "",
                "JGHLJJLNGPP": "",
                "MANNKIIBOFM": "",
                "COMNAAFDEDH": "",
                "CPGCCLNOCDK": "",
                "HINHCFHAMDI": false,
                "IGEFGCJKCPM": [
                    15710148533225022597,
                    2332149348938150822,
                    13597252639960978066,
                    174178716436973253
                ]
            },
            {
                "$type": "MOOOKOKLLEI",
                "type": "CAMERA_MOVE",
                "delayTime": 0.10000000149011612,
                "duration": 2.700000047683716,
                "actionId": 158,
                "DOKGBCKOLJK": {
                    "x": -2599.01611328125,
                    "y": 220.61000061035156,
                    "z": -3843.656982421875
                },
                "HGKCPMDICGG": {
                    "x": -2598.337890625,
                    "y": 220.1479949951172,
                    "z": -3844.22802734375
                },
                "AFODHELHCGB": 23.763999938964844,
                "NDFGFJFGHKL": "Linear",
                "IBCBGNHCICN": {},
                "BNBBLLBEIDL": true,
                "NHNPMMBMCFC": 0.35899999737739563,
                "HCPFCAHMGMO": false,
                "OMCCMPHDLOO": "",
                "FEFNBKOHPOG": true,
                "OCFGGGHIKOO": "",
                "LJFHGGJDPHH": "",
                "LPKDFKLNEHL": ""
            },
            {
                "$type": "ILCGAGEGDJI",
                "type": "BODY_LANG",
                "delayTime": 0.875,
                "aliasList": [
                    "1044"
                ],
                "actionId": 157,
                "FLBOOPHHFJP": 1130,
                "LIMPPBIAKGL": false,
                "FNEGLPPEBBF": true,
                "FNDLJGEAMGI": ""
            },
            {
                "$type": "MoleMole.Config.ConfigTeleportToAction",
                "type": "TELEPORT_TO",
                "delayTime": 2.799999952316284,
                "aliasList": [
                    "AvatarNpc"
                ],
                "actionId": 265,
                "position": {
                    "x": -2596.382080078125,
                    "y": 217.73599243164062,
                    "z": -3844.970947265625
                },
                "forward": {
                    "x": -0.7670000195503235,
                    "z": -0.6420000195503235
                },
                "openLongDisTeleport": true,
                "posBindMovingTargetKey": "",
                "forwardBindMovingTargetKey": ""
            },
            {
                "$type": "ILCGAGEGDJI",
                "type": "BODY_LANG",
                "delayTime": 2.799999952316284,
                "aliasList": [
                    "1044"
                ],
                "actionId": 162,
                "JLABKFNJCNP": true,
                "LIMPPBIAKGL": false,
                "FNEGLPPEBBF": true,
                "FNDLJGEAMGI": ""
            },
            {
                "$type": "MoleMole.Config.ConfigTeleportToAction",
                "type": "TELEPORT_TO",
                "delayTime": 2.799999952316284,
                "aliasList": [
                    "Avatar"
                ],
                "actionId": 267,
                "position": {
                    "x": -2596.382080078125,
                    "y": 217.73599243164062,
                    "z": -3844.970947265625
                },
                "forward": {
                    "x": -0.7670000195503235,
                    "z": -0.6420000195503235
                },
                "openLongDisTeleport": true,
                "posBindMovingTargetKey": "",
                "forwardBindMovingTargetKey": ""
            },
            {
                "$type": "MOOOKOKLLEI",
                "type": "CAMERA_MOVE",
                "delayTime": 2.799999952316284,
                "duration": 0.5,
                "actionId": 159,
                "DOKGBCKOLJK": {
                    "x": -2596.654052734375,
                    "y": 219.0679931640625,
                    "z": -3844.52294921875
                },
                "HGKCPMDICGG": {
                    "x": -2597.156982421875,
                    "y": 219.47799682617188,
                    "z": -3845.283935546875
                },
                "AFODHELHCGB": 23.763999938964844,
                "MGMFMGNANHH": 6,
                "NDFGFJFGHKL": "EaseInOutCubic",
                "IBCBGNHCICN": {},
                "BNBBLLBEIDL": true,
                "NHNPMMBMCFC": 0.3490000069141388,
                "HCPFCAHMGMO": false,
                "OMCCMPHDLOO": "",
                "FEFNBKOHPOG": true,
                "OCFGGGHIKOO": "",
                "LJFHGGJDPHH": "",
                "LPKDFKLNEHL": ""
            },
            {
                "$type": "MOOOKOKLLEI",
                "type": "CAMERA_MOVE",
                "delayTime": 2.9000000953674316,
                "duration": 3.9579999446868896,
                "actionId": 161,
                "DOKGBCKOLJK": {
                    "x": -2596.529052734375,
                    "y": 218.9669952392578,
                    "z": -3844.3349609375
                },
                "HGKCPMDICGG": {
                    "x": -2597.031982421875,
                    "y": 219.3769989013672,
                    "z": -3845.095947265625
                },
                "AFODHELHCGB": 23.763999938964844,
                "NDFGFJFGHKL": "EaseOutQuad",
                "IBCBGNHCICN": {},
                "BNBBLLBEIDL": true,
                "NHNPMMBMCFC": 0.3490000069141388,
                "HCPFCAHMGMO": false,
                "OMCCMPHDLOO": "",
                "FEFNBKOHPOG": true,
                "OCFGGGHIKOO": "",
                "LJFHGGJDPHH": "",
                "LPKDFKLNEHL": ""
            },
            {
                "$type": "EAMBKPBOPIC",
                "type": "LOOK_AT",
                "delayTime": 3.8919999599456787,
                "aliasList": [
                    "1044"
                ],
                "actionId": 168,
                "FIDJDPAIFDN": true,
                "useTargetPos": true,
                "GFKIMGBGADJ": true,
                "GMKIJKADNHN": {
                    "x": -2596.5380859375,
                    "y": 219.6820068359375,
                    "z": -3844.952880859375
                },
                "BCHGCKLKNEH": 0.5,
                "OMCCMPHDLOO": "",
                "CEBMBGKJACI": "NONE",
                "EOHIIHMKDJC": true,
                "NALDAIJKCML": 60.0,
                "KPCALFDIHMC": "",
                "DBLNLMOPEBP": ""
            },
            {
                "$type": "ILCGAGEGDJI",
                "type": "BODY_LANG",
                "delayTime": 3.9079999923706055,
                "aliasList": [
                    "1044"
                ],
                "actionId": 167,
                "FLBOOPHHFJP": 1230,
                "LIMPPBIAKGL": false,
                "FNEGLPPEBBF": true,
                "FNDLJGEAMGI": ""
            },
            {
                "$type": "EAMBKPBOPIC",
                "type": "LOOK_AT",
                "delayTime": 5.583000183105469,
                "aliasList": [
                    "1044"
                ],
                "actionId": 169,
                "FIDJDPAIFDN": true,
                "useTargetPos": true,
                "GFKIMGBGADJ": true,
                "GMKIJKADNHN": {
                    "x": -2596.5380859375,
                    "y": 219.28599548339844,
                    "z": -3844.952880859375
                },
                "BCHGCKLKNEH": 0.5,
                "OMCCMPHDLOO": "",
                "CEBMBGKJACI": "NONE",
                "EOHIIHMKDJC": true,
                "NALDAIJKCML": 60.0,
                "KPCALFDIHMC": "",
                "DBLNLMOPEBP": ""
            }
        ],
        [
            {
                "$type": "MOOOKOKLLEI",
                "type": "CAMERA_MOVE",
                "duration": 0.5,
                "actionId": 164,
                "DOKGBCKOLJK": {
                    "x": -2597.287109375,
                    "y": 219.12899780273438,
                    "z": -3845.841064453125
                },
                "HGKCPMDICGG": {
                    "x": -2596.8779296875,
                    "y": 219.11900329589844,
                    "z": -3846.75390625
                },
                "AFODHELHCGB": 23.0,
                "MGMFMGNANHH": 6,
                "NDFGFJFGHKL": "EaseInOutCubic",
                "IBCBGNHCICN": {},
                "BNBBLLBEIDL": true,
                "NHNPMMBMCFC": 0.3179999887943268,
                "HCPFCAHMGMO": false,
                "OMCCMPHDLOO": "",
                "FEFNBKOHPOG": true,
                "OCFGGGHIKOO": "",
                "LJFHGGJDPHH": "",
                "LPKDFKLNEHL": ""
            },
            {
                "$type": "EAMBKPBOPIC",
                "type": "LOOK_AT",
                "aliasList": [
                    "1044"
                ],
                "actionId": 170,
                "FIDJDPAIFDN": true,
                "useTargetPos": true,
                "GFKIMGBGADJ": true,
                "GMKIJKADNHN": {
                    "x": -2596.5380859375,
                    "y": 219.17300415039062,
                    "z": -3844.952880859375
                },
                "BCHGCKLKNEH": 0.5,
                "OMCCMPHDLOO": "",
                "CEBMBGKJACI": "NONE",
                "EOHIIHMKDJC": true,
                "NALDAIJKCML": 60.0,
                "KPCALFDIHMC": "",
                "DBLNLMOPEBP": ""
            },
            {
                "$type": "OPCCDGPJCJI",
                "type": "EMO_SYNC",
                "aliasList": [
                    "1044"
                ],
                "actionId": 236,
                "IONNJBCBACJ": "",
                "HLEJKBCMNNJ": "Cs_Emo_Avatar_Common/Cs_Emo_Avatar_Smile01",
                "JGHLJJLNGPP": "Cs_Emo_Avatar_Common/Cs_Emo_Avatar_Normal01_B",
                "MANNKIIBOFM": "",
                "COMNAAFDEDH": "",
                "CPGCCLNOCDK": "",
                "MFABDGAFKII": [
                    10690861126541730163,
                    10307265193832958374,
                    9401534900849971975,
                    18440618347769519338
                ],
                "IPAGHAALIII": [
                    12958401574658666588,
                    15474241282904027449,
                    9323653209111416134,
                    8508374650737503979
                ]
            },
            {
                "$type": "DLPFECMKEKH",
                "type": "DIALOG",
                "aliasList": [
                    "1049"
                ],
                "actionId": 109,
                "NMKEDPFEKBH": 401092103,
                "JLCHMAJCAPA": 3.0
            },
            {
                "$type": "OPCCDGPJCJI",
                "type": "EMO_SYNC",
                "aliasList": [
                    "1049"
                ],
                "actionId": 140,
                "IONNJBCBACJ": "Cs_Emo_Avatar_Simple_Common_Set/Cs_Emo_Avatar_Talk/Cs_Emo_Avatar_Event/Cs_Emo_KaPaiXunYou/Cs_Emo_401092103",
                "HLEJKBCMNNJ": "",
                "JGHLJJLNGPP": "",
                "MANNKIIBOFM": "",
                "COMNAAFDEDH": "",
                "CPGCCLNOCDK": "",
                "IGEFGCJKCPM": [
                    17241775255494994902,
                    14472855177881991096,
                    17553057123909211698,
                    8416989921548195895
                ]
            },
            {
                "$type": "EAMBKPBOPIC",
                "type": "LOOK_AT",
                "aliasList": [
                    "1049"
                ],
                "actionId": 165,
                "FIDJDPAIFDN": true,
                "useTargetPos": true,
                "GFKIMGBGADJ": true,
                "GMKIJKADNHN": {
                    "x": -2596.73291015625,
                    "y": 219.09800720214844,
                    "z": -3845.364990234375
                },
                "BCHGCKLKNEH": 0.5,
                "OMCCMPHDLOO": "",
                "CEBMBGKJACI": "NONE",
                "EOHIIHMKDJC": true,
                "NALDAIJKCML": 60.0,
                "KPCALFDIHMC": "",
                "DBLNLMOPEBP": ""
            },
            {
                "$type": "MoleMole.Config.ConfigTeleportToAction",
                "type": "TELEPORT_TO",
                "aliasList": [
                    "1005"
                ],
                "actionId": 189,
                "position": {
                    "x": -2595.85302734375,
                    "y": 217.73599243164062,
                    "z": -3845.287109375
                },
                "forward": {
                    "x": -0.875,
                    "z": -0.48500001430511475
                },
                "openLongDisTeleport": true,
                "posBindMovingTargetKey": "",
                "forwardBindMovingTargetKey": ""
            },
            {
                "$type": "EAMBKPBOPIC",
                "type": "LOOK_AT",
                "aliasList": [
                    "1005"
                ],
                "actionId": 190,
                "FIDJDPAIFDN": true,
                "BCHGCKLKNEH": 0.5,
                "OMCCMPHDLOO": "1049",
                "EOHIIHMKDJC": true,
                "NALDAIJKCML": 60.0,
                "KPCALFDIHMC": "",
                "DBLNLMOPEBP": ""
            },
            {
                "$type": "MoleMole.Config.ConfigMoveToAction",
                "type": "MOVE_TO",
                "delayTime": 0.5080000162124634,
                "aliasList": [
                    "1049"
                ],
                "actionId": 173,
                "moveType": "WALK",
                "routeList": [
                    {
                        "x": -2596.43603515625,
                        "y": 217.73599243164062,
                        "z": -3846.110107421875
                    }
                ],
                "exactlyMove": true,
                "closeNavMesh": true,
                "openSetPos": true,
                "bindMovingTargetKey": ""
            },
            {
                "$type": "MOOOKOKLLEI",
                "type": "CAMERA_MOVE",
                "delayTime": 1.5920000076293945,
                "duration": 0.5,
                "actionId": 175,
                "DOKGBCKOLJK": {
                    "x": -2597.708984375,
                    "y": 219.0540008544922,
                    "z": -3842.60107421875
                },
                "HGKCPMDICGG": {
                    "x": -2597.3701171875,
                    "y": 219.10400390625,
                    "z": -3843.541015625
                },
                "AFODHELHCGB": 23.763999938964844,
                "MGMFMGNANHH": 6,
                "NDFGFJFGHKL": "EaseInOutCubic",
                "IBCBGNHCICN": {},
                "BNBBLLBEIDL": true,
                "NHNPMMBMCFC": 0.3190000057220459,
                "HCPFCAHMGMO": false,
                "OMCCMPHDLOO": "",
                "FEFNBKOHPOG": true,
                "OCFGGGHIKOO": "",
                "LJFHGGJDPHH": "",
                "LPKDFKLNEHL": ""
            },
            {
                "$type": "MOOOKOKLLEI",
                "type": "CAMERA_MOVE",
                "delayTime": 1.6920000314712524,
                "duration": 10.0,
                "actionId": 178,
                "DOKGBCKOLJK": {
                    "x": -2597.98291015625,
                    "y": 219.01400756835938,
                    "z": -3841.840087890625
                },
                "HGKCPMDICGG": {
                    "x": -2597.64404296875,
                    "y": 219.06399536132812,
                    "z": -3842.780029296875
                },
                "AFODHELHCGB": 23.763999938964844,
                "NDFGFJFGHKL": "EaseOutQuad",
                "IBCBGNHCICN": {},
                "BNBBLLBEIDL": true,
                "NHNPMMBMCFC": 0.3190000057220459,
                "HCPFCAHMGMO": false,
                "OMCCMPHDLOO": "",
                "FEFNBKOHPOG": true,
                "OCFGGGHIKOO": "",
                "LJFHGGJDPHH": "",
                "LPKDFKLNEHL": ""
            },
            {
                "$type": "OOMFCPJAJGL",
                "type": "STEER_TO",
                "delayTime": 1.8170000314712524,
                "duration": 1.0,
                "aliasList": [
                    "1049"
                ],
                "actionId": 174,
                "flag": 32,
                "DMGIIHNDNLC": "ABSOLUTE",
                "PLAPKCOMAKJ": {
                    "x": -2596.7529296875,
                    "y": 217.73599243164062,
                    "z": -3844.822998046875
                },
                "HCMINPNPFDF": true,
                "PENAEBFAHCH": true,
                "CKOEAJFMDON": true,
                "OMCCMPHDLOO": "",
                "AKKPIOCLGOP": true,
                "PPGPCHDAOJG": true,
                "DBLNLMOPEBP": ""
            },
            {
                "$type": "EAMBKPBOPIC",
                "type": "LOOK_AT",
                "delayTime": 2.183000087738037,
                "aliasList": [
                    "1049"
                ],
                "actionId": 188,
                "FIDJDPAIFDN": true,
                "useTargetPos": true,
                "GFKIMGBGADJ": true,
                "GMKIJKADNHN": {
                    "x": -2596.447021484375,
                    "y": 219.13999938964844,
                    "z": -3845.60009765625
                },
                "BCHGCKLKNEH": 0.5,
                "OMCCMPHDLOO": "",
                "CEBMBGKJACI": "NONE",
                "EOHIIHMKDJC": true,
                "NALDAIJKCML": 60.0,
                "KPCALFDIHMC": "",
                "DBLNLMOPEBP": ""
            },
            {
                "$type": "ILCGAGEGDJI",
                "type": "BODY_LANG",
                "delayTime": 2.2330000400543213,
                "aliasList": [
                    "AvatarNpc"
                ],
                "actionId": 187,
                "FLBOOPHHFJP": 1230,
                "LIMPPBIAKGL": false,
                "FNEGLPPEBBF": true,
                "FNDLJGEAMGI": ""
            }
        ],
        [
            {
                "$type": "DLPFECMKEKH",
                "type": "DIALOG",
                "aliasList": [
                    "1049"
                ],
                "actionId": 111,
                "NMKEDPFEKBH": 401092104,
                "JLCHMAJCAPA": 0.5
            },
            {
                "$type": "OPCCDGPJCJI",
                "type": "EMO_SYNC",
                "aliasList": [
                    "1049"
                ],
                "actionId": 141,
                "IONNJBCBACJ": "Cs_Emo_Avatar_Simple_Common_Set/Cs_Emo_Avatar_Talk/Cs_Emo_Avatar_Event/Cs_Emo_KaPaiXunYou/Cs_Emo_401092104",
                "HLEJKBCMNNJ": "",
                "JGHLJJLNGPP": "",
                "MANNKIIBOFM": "",
                "COMNAAFDEDH": "",
                "CPGCCLNOCDK": "",
                "IGEFGCJKCPM": [
                    7058810378855571516,
                    9658562852340212522,
                    1383311507624860599,
                    13447446023105540074
                ]
            },
            {
                "$type": "ILCGAGEGDJI",
                "type": "BODY_LANG",
                "aliasList": [
                    "1049"
                ],
                "actionId": 179,
                "FLBOOPHHFJP": 1173,
                "LIMPPBIAKGL": false,
                "FNEGLPPEBBF": true,
                "FNDLJGEAMGI": ""
            },
            {
                "$type": "EAMBKPBOPIC",
                "type": "LOOK_AT",
                "aliasList": [
                    "1049"
                ],
                "actionId": 180,
                "FIDJDPAIFDN": true,
                "useTargetPos": true,
                "GFKIMGBGADJ": true,
                "GMKIJKADNHN": {
                    "x": -2596.612060546875,
                    "y": 219.18899536132812,
                    "z": -3845.866943359375
                },
                "BCHGCKLKNEH": 0.5,
                "OMCCMPHDLOO": "",
                "CEBMBGKJACI": "NONE",
                "EOHIIHMKDJC": true,
                "NALDAIJKCML": 60.0,
                "KPCALFDIHMC": "",
                "DBLNLMOPEBP": ""
            },
            {
                "$type": "EAMBKPBOPIC",
                "type": "LOOK_AT",
                "delayTime": 0.5920000076293945,
                "aliasList": [
                    "1044"
                ],
                "actionId": 183,
                "FIDJDPAIFDN": true,
                "useTargetPos": true,
                "GFKIMGBGADJ": true,
                "GMKIJKADNHN": {
                    "x": -2596.884033203125,
                    "y": 219.31100463867188,
                    "z": -3845.56591796875
                },
                "BCHGCKLKNEH": 0.5,
                "OMCCMPHDLOO": "",
                "CEBMBGKJACI": "NONE",
                "EOHIIHMKDJC": true,
                "NALDAIJKCML": 60.0,
                "KPCALFDIHMC": "",
                "DBLNLMOPEBP": ""
            },
            {
                "$type": "ILCGAGEGDJI",
                "type": "BODY_LANG",
                "delayTime": 0.6079999804496765,
                "aliasList": [
                    "1044"
                ],
                "actionId": 184,
                "JLABKFNJCNP": true,
                "LIMPPBIAKGL": false,
                "FNEGLPPEBBF": true,
                "FNDLJGEAMGI": ""
            },
            {
                "$type": "EAMBKPBOPIC",
                "type": "LOOK_AT",
                "delayTime": 1.149999976158142,
                "aliasList": [
                    "1049"
                ],
                "actionId": 181,
                "FIDJDPAIFDN": true,
                "useTargetPos": true,
                "GFKIMGBGADJ": true,
                "GMKIJKADNHN": {
                    "x": -2596.447021484375,
                    "y": 219.13999938964844,
                    "z": -3845.60009765625
                },
                "BCHGCKLKNEH": 0.5,
                "OMCCMPHDLOO": "",
                "CEBMBGKJACI": "NONE",
                "EOHIIHMKDJC": true,
                "NALDAIJKCML": 60.0,
                "KPCALFDIHMC": "",
                "DBLNLMOPEBP": ""
            },
            {
                "$type": "EAMBKPBOPIC",
                "type": "LOOK_AT",
                "delayTime": 1.6749999523162842,
                "aliasList": [
                    "AvatarNpc"
                ],
                "actionId": 185,
                "FIDJDPAIFDN": true,
                "useTargetPos": true,
                "GFKIMGBGADJ": true,
                "GMKIJKADNHN": {
                    "x": -2596.43310546875,
                    "y": 219.12100219726562,
                    "z": -3845.220947265625
                },
                "BCHGCKLKNEH": 0.5,
                "OMCCMPHDLOO": "",
                "CEBMBGKJACI": "NONE",
                "EOHIIHMKDJC": true,
                "NALDAIJKCML": 60.0,
                "KPCALFDIHMC": "",
                "DBLNLMOPEBP": ""
            },
            {
                "$type": "ILCGAGEGDJI",
                "type": "BODY_LANG",
                "delayTime": 1.6749999523162842,
                "aliasList": [
                    "AvatarNpc"
                ],
                "actionId": 186,
                "LIMPPBIAKGL": false,
                "FNEGLPPEBBF": true,
                "FNDLJGEAMGI": ""
            }
        ],
        [
            {
                "$type": "MOOOKOKLLEI",
                "type": "CAMERA_MOVE",
                "duration": 0.5,
                "actionId": 191,
                "DOKGBCKOLJK": {
                    "x": -2596.303955078125,
                    "y": 219.5970001220703,
                    "z": -3845.446044921875
                },
                "HGKCPMDICGG": {
                    "x": -2597.261962890625,
                    "y": 219.39999389648438,
                    "z": -3845.237060546875
                },
                "AFODHELHCGB": 15.0,
                "MGMFMGNANHH": 6,
                "NDFGFJFGHKL": "EaseInOutCubic",
                "IBCBGNHCICN": {},
                "BNBBLLBEIDL": true,
                "NHNPMMBMCFC": 0.32499998807907104,
                "HCPFCAHMGMO": false,
                "OMCCMPHDLOO": "",
                "FEFNBKOHPOG": true,
                "OCFGGGHIKOO": "",
                "LJFHGGJDPHH": "",
                "LPKDFKLNEHL": ""
            },
            {
                "$type": "DLPFECMKEKH",
                "type": "DIALOG",
                "aliasList": [
                    "1044"
                ],
                "actionId": 113,
                "NMKEDPFEKBH": 401092105,
                "JLCHMAJCAPA": 0.5
            },
            {
                "$type": "OPCCDGPJCJI",
                "type": "EMO_SYNC",
                "aliasList": [
                    "1044"
                ],
                "actionId": 139,
                "IONNJBCBACJ": "Cs_Emo_Avatar_Simple_Common_Set/Cs_Emo_Avatar_Talk/Cs_Emo_Avatar_Event/Cs_Emo_KaPaiXunYou/Cs_Emo_401092105",
                "HLEJKBCMNNJ": "",
                "JGHLJJLNGPP": "",
                "MANNKIIBOFM": "",
                "COMNAAFDEDH": "",
                "CPGCCLNOCDK": "",
                "IGEFGCJKCPM": [
                    11077917531602780522,
                    3159201289753842118,
                    975321827832788835,
                    9549640765725360492
                ]
            },
            {
                "$type": "EAMBKPBOPIC",
                "type": "LOOK_AT",
                "aliasList": [
                    "1044"
                ],
                "actionId": 192,
                "BCHGCKLKNEH": 0.5,
                "OMCCMPHDLOO": "",
                "EOHIIHMKDJC": true,
                "NALDAIJKCML": 60.0,
                "KPCALFDIHMC": "",
                "DBLNLMOPEBP": ""
            },
            {
                "$type": "ILCGAGEGDJI",
                "type": "BODY_LANG",
                "aliasList": [
                    "1044"
                ],
                "actionId": 198,
                "FLBOOPHHFJP": 1240,
                "LIMPPBIAKGL": false,
                "FNEGLPPEBBF": true,
                "FNDLJGEAMGI": ""
            },
            {
                "$type": "EAMBKPBOPIC",
                "type": "LOOK_AT",
                "aliasList": [
                    "1049"
                ],
                "actionId": 212,
                "FIDJDPAIFDN": true,
                "GMKIJKADNHN": {
                    "x": -2596.51708984375,
                    "y": 219.0780029296875,
                    "z": -3845.993896484375
                },
                "BCHGCKLKNEH": 0.5,
                "OMCCMPHDLOO": "1044",
                "FJAPKBGLNLC": {
                    "x": 4.190999984741211,
                    "y": 352.2070007324219
                },
                "EOHIIHMKDJC": true,
                "NALDAIJKCML": 60.0,
                "KPCALFDIHMC": "",
                "DBLNLMOPEBP": ""
            },
            {
                "$type": "MOOOKOKLLEI",
                "type": "CAMERA_MOVE",
                "delayTime": 0.10000000149011612,
                "duration": 3.812999963760376,
                "actionId": 226,
                "DOKGBCKOLJK": {
                    "x": -2596.305908203125,
                    "y": 219.5590057373047,
                    "z": -3845.052001953125
                },
                "HGKCPMDICGG": {
                    "x": -2597.257080078125,
                    "y": 219.35299682617188,
                    "z": -3845.282958984375
                },
                "AFODHELHCGB": 15.0,
                "NDFGFJFGHKL": "Linear",
                "IBCBGNHCICN": {},
                "BNBBLLBEIDL": true,
                "NHNPMMBMCFC": 0.32499998807907104,
                "HCPFCAHMGMO": false,
                "OMCCMPHDLOO": "",
                "FEFNBKOHPOG": true,
                "OCFGGGHIKOO": "",
                "LJFHGGJDPHH": "",
                "LPKDFKLNEHL": ""
            },
            {
                "$type": "MOOOKOKLLEI",
                "type": "CAMERA_MOVE",
                "delayTime": 3.875999927520752,
                "duration": 0.5,
                "actionId": 229,
                "DOKGBCKOLJK": {
                    "x": -2596.73095703125,
                    "y": 219.64300537109375,
                    "z": -3845.032958984375
                },
                "HGKCPMDICGG": {
                    "x": -2597.236083984375,
                    "y": 218.968994140625,
                    "z": -3845.572021484375
                },
                "AFODHELHCGB": 25.0,
                "MGMFMGNANHH": 6,
                "NDFGFJFGHKL": "EaseInOutCubic",
                "IBCBGNHCICN": {},
                "BNBBLLBEIDL": true,
                "NHNPMMBMCFC": 12.645999908447266,
                "HCPFCAHMGMO": false,
                "OMCCMPHDLOO": "",
                "FEFNBKOHPOG": true,
                "OCFGGGHIKOO": "",
                "LJFHGGJDPHH": "",
                "LPKDFKLNEHL": ""
            },
            {
                "$type": "MoleMole.Config.ConfigTeleportToAction",
                "type": "TELEPORT_TO",
                "delayTime": 3.875999927520752,
                "aliasList": [
                    "1049"
                ],
                "actionId": 231,
                "position": {
                    "x": -2596.91796875,
                    "y": 217.73599243164062,
                    "z": -3846.051025390625
                },
                "forward": {
                    "x": 0.07800000160932541,
                    "z": 0.996999979019165
                },
                "openLongDisTeleport": true,
                "posBindMovingTargetKey": "",
                "forwardBindMovingTargetKey": ""
            },
            {
                "$type": "ILCGAGEGDJI",
                "type": "BODY_LANG",
                "delayTime": 3.878999948501587,
                "aliasList": [
                    "1044"
                ],
                "actionId": 228,
                "FLBOOPHHFJP": 1300,
                "LIMPPBIAKGL": false,
                "FNEGLPPEBBF": true,
                "FNDLJGEAMGI": ""
            },
            {
                "$type": "MOOOKOKLLEI",
                "type": "CAMERA_MOVE",
                "delayTime": 3.946000099182129,
                "duration": 1.0,
                "actionId": 230,
                "DOKGBCKOLJK": {
                    "x": -2596.47998046875,
                    "y": 219.97799682617188,
                    "z": -3844.764892578125
                },
                "HGKCPMDICGG": {
                    "x": -2596.985107421875,
                    "y": 219.3040008544922,
                    "z": -3845.303955078125
                },
                "AFODHELHCGB": 40.0,
                "NDFGFJFGHKL": "EaseOutCirc",
                "IBCBGNHCICN": {},
                "BNBBLLBEIDL": true,
                "NHNPMMBMCFC": 12.645999908447266,
                "HCPFCAHMGMO": false,
                "OMCCMPHDLOO": "",
                "FEFNBKOHPOG": true,
                "OCFGGGHIKOO": "",
                "LJFHGGJDPHH": "",
                "LPKDFKLNEHL": ""
            }
        ],
        [
            {
                "$type": "MOOOKOKLLEI",
                "type": "CAMERA_MOVE",
                "duration": 0.5,
                "actionId": 208,
                "DOKGBCKOLJK": {
                    "x": -2596.51611328125,
                    "y": 219.16400146484375,
                    "z": -3845.343994140625
                },
                "HGKCPMDICGG": {
                    "x": -2596.39990234375,
                    "y": 219.06399536132812,
                    "z": -3846.33203125
                },
                "AFODHELHCGB": 18.0,
                "MGMFMGNANHH": 6,
                "NDFGFJFGHKL": "EaseInOutCubic",
                "IBCBGNHCICN": {},
                "BNBBLLBEIDL": true,
                "NHNPMMBMCFC": 0.3199999928474426,
                "HCPFCAHMGMO": false,
                "OMCCMPHDLOO": "",
                "FEFNBKOHPOG": true,
                "OCFGGGHIKOO": "",
                "LJFHGGJDPHH": "",
                "LPKDFKLNEHL": ""
            },
            {
                "$type": "DLPFECMKEKH",
                "type": "DIALOG",
                "aliasList": [
                    "1049"
                ],
                "actionId": 115,
                "NMKEDPFEKBH": 401092106,
                "JLCHMAJCAPA": 0.5
            },
            {
                "$type": "OPCCDGPJCJI",
                "type": "EMO_SYNC",
                "aliasList": [
                    "1049"
                ],
                "actionId": 142,
                "IONNJBCBACJ": "Cs_Emo_Avatar_Simple_Common_Set/Cs_Emo_Avatar_Talk/Cs_Emo_Avatar_Event/Cs_Emo_KaPaiXunYou/Cs_Emo_401092106",
                "HLEJKBCMNNJ": "",
                "JGHLJJLNGPP": "",
                "MANNKIIBOFM": "",
                "COMNAAFDEDH": "",
                "CPGCCLNOCDK": "",
                "IGEFGCJKCPM": [
                    16303254723555539246,
                    14120065540324728766,
                    2657260253939518480,
                    15345623678923379368
                ]
            },
            {
                "$type": "ILCGAGEGDJI",
                "type": "BODY_LANG",
                "aliasList": [
                    "1049"
                ],
                "actionId": 213,
                "FLBOOPHHFJP": 1240,
                "LIMPPBIAKGL": false,
                "FNEGLPPEBBF": true,
                "FNDLJGEAMGI": ""
            },
            {
                "$type": "EAMBKPBOPIC",
                "type": "LOOK_AT",
                "aliasList": [
                    "1049"
                ],
                "actionId": 214,
                "FIDJDPAIFDN": true,
                "useTargetPos": true,
                "GFKIMGBGADJ": true,
                "GMKIJKADNHN": {
                    "x": -2596.452880859375,
                    "y": 219.07699584960938,
                    "z": -3845.993896484375
                },
                "BCHGCKLKNEH": 0.5,
                "OMCCMPHDLOO": "",
                "CEBMBGKJACI": "NONE",
                "EOHIIHMKDJC": true,
                "NALDAIJKCML": 60.0,
                "KPCALFDIHMC": "",
                "DBLNLMOPEBP": ""
            },
            {
                "$type": "MoleMole.Config.ConfigTeleportToAction",
                "type": "TELEPORT_TO",
                "aliasList": [
                    "1049"
                ],
                "actionId": 241,
                "position": {
                    "x": -2596.43603515625,
                    "y": 217.73599243164062,
                    "z": -3846.110107421875
                },
                "forward": {
                    "x": -0.23899999260902405,
                    "z": 0.9710000157356262
                },
                "openLongDisTeleport": true,
                "posBindMovingTargetKey": "",
                "forwardBindMovingTargetKey": ""
            },
            {
                "$type": "MOOOKOKLLEI",
                "type": "CAMERA_MOVE",
                "delayTime": 0.10000000149011612,
                "duration": 2.3559999465942383,
                "actionId": 207,
                "DOKGBCKOLJK": {
                    "x": -2596.511962890625,
                    "y": 219.16000366210938,
                    "z": -3845.3779296875
                },
                "HGKCPMDICGG": {
                    "x": -2596.39599609375,
                    "y": 219.05999755859375,
                    "z": -3846.365966796875
                },
                "AFODHELHCGB": 18.0,
                "NDFGFJFGHKL": "EaseOutQuad",
                "IBCBGNHCICN": {},
                "BNBBLLBEIDL": true,
                "NHNPMMBMCFC": 0.3199999928474426,
                "HCPFCAHMGMO": false,
                "OMCCMPHDLOO": "",
                "FEFNBKOHPOG": true,
                "OCFGGGHIKOO": "",
                "LJFHGGJDPHH": "",
                "LPKDFKLNEHL": ""
            }
        ],
        [
            {
                "$type": "MoleMole.Config.ConfigLuaAction",
                "type": "LUA_ACTION",
                "duration": 0.5,
                "actionId": 135,
                "invoke": true,
                "invokeAlias": "40109",
                "invokeParam": 401090501
            },
            {
                "$type": "MoleMole.Config.ConfigUITriggerInterAction",
                "type": "UI_TRIGGER",
                "actionId": 136,
                "contextName": "GcgLevelPage",
                "param": ""
            }
        ],
        [
            {
                "$type": "MoleMole.Config.ConfigTimeProtectAction",
                "type": "TIME_PROTECT",
                "duration": 0.10000000149011612,
                "actionId": 105
            },
            {
                "$type": "MoleMole.Config.ConfigSimpleBlackScreenAction",
                "type": "SIMPLE_BLACK_SCREEN",
                "actionId": 116,
                "durationToBlack": 0.5,
                "durationKeepBlack": 1.5,
                "durationFromBlack": 0.5,
                "textMapID": ""
            },
            {
                "$type": "MoleMole.Config.ConfigTimeProtectAction",
                "type": "TIME_PROTECT",
                "duration": 0.699999988079071,
                "actionId": 117
            },
            {
                "$type": "MOOOKOKLLEI",
                "type": "CAMERA_MOVE",
                "delayTime": 0.5,
                "duration": 0.10000000149011612,
                "actionId": 118,
                "IPHEFBOANAL": "EXIT",
                "HGKCPMDICGG": {
                    "z": 1.0
                },
                "AFODHELHCGB": 30.0,
                "MGMFMGNANHH": 5,
                "NDFGFJFGHKL": "EaseInOutCubic",
                "IBCBGNHCICN": {},
                "HCPFCAHMGMO": false,
                "OMCCMPHDLOO": "",
                "FEFNBKOHPOG": true,
                "OCFGGGHIKOO": "",
                "LJFHGGJDPHH": "",
                "LPKDFKLNEHL": ""
            },
            {
                "$type": "ILCGAGEGDJI",
                "type": "BODY_LANG",
                "delayTime": 0.6000000238418579,
                "aliasList": [
                    "1044"
                ],
                "actionId": 244,
                "JLABKFNJCNP": true,
                "LIMPPBIAKGL": false,
                "FNEGLPPEBBF": true,
                "FNDLJGEAMGI": ""
            },
            {
                "$type": "OOMFCPJAJGL",
                "type": "STEER_TO",
                "delayTime": 0.6000000238418579,
                "duration": 1.0,
                "aliasList": [
                    "1044"
                ],
                "actionId": 247,
                "flag": 32,
                "DMGIIHNDNLC": "TO_TARGET",
                "PLAPKCOMAKJ": {
                    "x": -2596.23291015625,
                    "y": 217.73599243164062,
                    "z": -3844.779052734375
                },
                "HCMINPNPFDF": true,
                "PENAEBFAHCH": true,
                "CKOEAJFMDON": true,
                "OMCCMPHDLOO": "1049",
                "AKKPIOCLGOP": true,
                "PPGPCHDAOJG": true,
                "DBLNLMOPEBP": ""
            },
            {
                "$type": "ILCGAGEGDJI",
                "type": "BODY_LANG",
                "delayTime": 0.6000000238418579,
                "aliasList": [
                    "1049"
                ],
                "actionId": 243,
                "JLABKFNJCNP": true,
                "LIMPPBIAKGL": false,
                "FNEGLPPEBBF": true,
                "FNDLJGEAMGI": ""
            },
            {
                "$type": "OOMFCPJAJGL",
                "type": "STEER_TO",
                "delayTime": 0.6000000238418579,
                "duration": 1.0,
                "aliasList": [
                    "1049"
                ],
                "actionId": 249,
                "flag": 32,
                "DMGIIHNDNLC": "TO_TARGET",
                "PLAPKCOMAKJ": {
                    "x": -2596.675048828125,
                    "y": 217.73599243164062,
                    "z": -3845.138916015625
                },
                "HCMINPNPFDF": true,
                "PENAEBFAHCH": true,
                "CKOEAJFMDON": true,
                "OMCCMPHDLOO": "1044",
                "AKKPIOCLGOP": true,
                "PPGPCHDAOJG": true,
                "DBLNLMOPEBP": ""
            }
        ]
    ],
    "groupId": [
        {
            "grpId": 856842559,
            "nextGrpId": 856842560
        },
        {
            "index": 1,
            "grpId": 856842560,
            "nextGrpId": 856842561
        },
        {
            "index": 2,
            "grpId": 856842561,
            "nextGrpId": 856842562
        },
        {
            "index": 3,
            "grpId": 856842562,
            "nextGrpId": 856842563
        },
        {
            "index": 4,
            "grpId": 856842563,
            "nextGrpId": 856842564
        },
        {
            "index": 5,
            "grpId": 856842564,
            "nextGrpId": 856842565
        },
        {
            "index": 6,
            "grpId": 856842565,
            "nextGrpId": 856842566
        },
        {
            "index": 7,
            "grpId": 856842566,
            "nextGrpId": 856842567
        }
    ],
    "freeStyleDic": {
        "1025": [
            1230
        ],
        "1026": [
            1230
        ],
        "1044": [
            1130,
            1230,
            1240,
            1300
        ],
        "1049": [
            1173,
            1240
        ]
    },
    "NKMHEOFLONH": {
        "AvatarNpc": [
            "SitChat01AS",
            "SitHoldArm01AS",
            "SitShrug01AS",
            "SitThink01AS"
        ],
        "1044": [
            "SitChat01AS",
            "SitHoldArm01AS",
            "SitShrug01AS",
            "SitThink01AS"
        ],
        "1049": [
            "SitChat01AS",
            "SitHoldArm01AS",
            "SitPutArm01AS",
            "SitShrug01AS",
            "SitThink01AS"
        ]
    }
}