{
    "luaDataPath": "",
    "dontUseDefaultFinish": true,
    "startBlackKeepTime": 0.5,
    "entityBan": "",
    "disableNpcLod": true,
    "isAutoBanNpc": true,
    "isBanWidgetPet": true,
    "protectNpcMobileLod": true,
    "LIICEPFFGMH": 7,
    "startFade": {
        "startFadeInDuration": 0.5,
        "startFadeOutDuration": 0.5
    },
    "endFade": {
        "startFadeOutDuration": 0.0
    },
    "actors": [
        {
            "alias": "Avatar",
            "visible": true,
            "bornPointName": "[3_6245:2542.294,202.400,-472.537,0.000,212.645,0.000]",
            "relativePosType": "AVATAR_NEW",
            "relativePosNpcAlias": "",
            "notDestroyInTalk": true,
            "bindMovingTargetKey": ""
        },
        {
            "alias": "AvatarNpc",
            "visible": true,
            "bornPointName": "[3_6245:2542.294,202.400,-472.537,0.000,212.645,0.000]",
            "removeActorType": "NEW_REMOVE",
            "relativePosType": "AVATAR_NEW",
            "relativePosNpcAlias": "",
            "notDestroyInTalk": true,
            "bindMovingTargetKey": ""
        },
        {
            "configID": 30414,
            "alias": "30414",
            "visible": true,
            "bornPointName": "[3_6245:2542.294,202.400,-472.537,0.000,212.645,0.000]",
            "forceCreateDaily": true,
            "relativePosType": "AVATAR_NEW",
            "relativePosNpcAlias": "",
            "notDestroyInTalk": true,
            "bindMovingTargetKey": ""
        },
        {
            "configID": 1005,
            "alias": "1005",
            "visible": true,
            "bornPointName": "",
            "useRelativePos": true,
            "relativePos": {
                "x": 0.5,
                "z": 0.5
            },
            "removeActorType": "NEW_REMOVE_WITH_DISAPPEAR",
            "relativePosType": "AVATAR_NEW",
            "relativePosNpcAlias": "",
            "notDestroyInTalk": true,
            "bindMovingTargetKey": ""
        }
    ],
    "group": [
        [
            {
                "$type": "MoleMole.Config.ConfigTimeProtectAction",
                "type": "TIME_PROTECT",
                "duration": 1.0,
                "actionId": 104
            },
            {
                "$type": "MoleMole.Config.ConfigBlackScreenAction",
                "type": "BLACK_SCREEN",
                "duration": 1.0,
                "actionId": 117,
                "flag": 2048,
                "blackScreenType": "KEEP_BLACK",
                "durationToBlack": 0.5,
                "durationKeepBlack": 1.0,
                "durationFromBlack": 0.5,
                "inteePos": "",
                "textMapID": "",
                "useTextFade": true,
                "changeAudioState": true
            },
            {
                "$type": "MOOOKOKLLEI",
                "type": "CAMERA_FOCUS",
                "duration": 1.0,
                "actionId": 126,
                "OMCCMPHDLOO": "",
                "OCFGGGHIKOO": "",
                "LJFHGGJDPHH": "",
                "LPKDFKLNEHL": ""
            },
            {
                "$type": "MoleMole.Config.ConfigSitOrStandAction",
                "type": "SIT_OR_STAND",
                "aliasList": [
                    "Avatar"
                ],
                "actionId": 120,
                "banResetFreestyle": true
            },
            {
                "$type": "MoleMole.Config.ConfigVisibleInterAction",
                "type": "VISIBLE",
                "aliasList": [
                    "Avatar"
                ],
                "actionId": 125,
                "extraParam": ""
            },
            {
                "$type": "MoleMole.Config.ConfigTeleportToAction",
                "type": "TELEPORT_TO",
                "aliasList": [
                    "Avatar"
                ],
                "actionId": 129,
                "position": {
                    "x": 2543.485107421875,
                    "y": 202.86000061035156,
                    "z": -473.28399658203125
                },
                "forward": {
                    "x": -1.409000039100647,
                    "y": 0.08100000023841858,
                    "z": 0.796999990940094
                },
                "openLongDisTeleport": true,
                "syncForward": true,
                "posBindMovingTargetKey": "",
                "forwardBindMovingTargetKey": ""
            },
            {
                "$type": "MoleMole.Config.ConfigTeleportToAction",
                "type": "TELEPORT_TO",
                "aliasList": [
                    "AvatarNpc"
                ],
                "actionId": 119,
                "position": {
                    "x": 2543.485107421875,
                    "y": 202.86000061035156,
                    "z": -473.28399658203125
                },
                "forward": {
                    "x": -1.409000039100647,
                    "y": 0.08100000023841858,
                    "z": 0.796999990940094
                },
                "openLongDisTeleport": true,
                "syncForward": true,
                "posBindMovingTargetKey": "",
                "forwardBindMovingTargetKey": ""
            },
            {
                "$type": "MoleMole.Config.ConfigPlayerNPCEnergyTypeAction",
                "type": "SET_PLAYER_NPC_ENERGY_TYPE",
                "aliasList": [
                    "AvatarNpc"
                ],
                "actionId": 121,
                "setHeroEngergyType": true
            },
            {
                "$type": "ILCGAGEGDJI",
                "type": "BODY_LANG",
                "aliasList": [
                    "AvatarNpc"
                ],
                "actionId": 122,
                "JLABKFNJCNP": true,
                "PMJAMGLAJGK": true,
                "LIMPPBIAKGL": false,
                "FNDLJGEAMGI": ""
            },
            {
                "$type": "ILCGAGEGDJI",
                "type": "BODY_LANG",
                "aliasList": [
                    "30414"
                ],
                "actionId": 110,
                "JLABKFNJCNP": true,
                "PMJAMGLAJGK": true,
                "LIMPPBIAKGL": false,
                "FNDLJGEAMGI": ""
            },
            {
                "$type": "ILCGAGEGDJI",
                "type": "BODY_LANG",
                "aliasList": [
                    "1005"
                ],
                "actionId": 112,
                "JLABKFNJCNP": true,
                "PMJAMGLAJGK": true,
                "LIMPPBIAKGL": false,
                "FNDLJGEAMGI": ""
            },
            {
                "$type": "MoleMole.Config.ConfigTeleportToAction",
                "type": "TELEPORT_TO",
                "aliasList": [
                    "1005"
                ],
                "actionId": 116,
                "position": {
                    "x": 2543.69091796875,
                    "y": 202.95700073242188,
                    "z": -472.2449951171875
                },
                "forward": {
                    "x": -2.2190001010894775,
                    "y": -0.3970000147819519,
                    "z": -0.22300000488758087
                },
                "openLongDisTeleport": true,
                "syncForward": true,
                "posBindMovingTargetKey": "",
                "forwardBindMovingTargetKey": ""
            }
        ],
        [
            {
                "$type": "MoleMole.Config.ConfigBlackScreenAction",
                "type": "BLACK_SCREEN",
                "duration": 0.5,
                "actionId": 118,
                "flag": 2048,
                "blackScreenType": "FROM_BLACK",
                "durationToBlack": 0.5,
                "durationKeepBlack": 0.5,
                "durationFromBlack": 0.5,
                "inteePos": "",
                "textMapID": "",
                "useTextFade": true,
                "changeAudioState": true
            },
            {
                "$type": "DLPFECMKEKH",
                "type": "DIALOG",
                "aliasList": [
                    "30414"
                ],
                "actionId": 107,
                "NMKEDPFEKBH": 705380101,
                "JLCHMAJCAPA": 0.5
            },
            {
                "$type": "ILCGAGEGDJI",
                "type": "BODY_LANG",
                "aliasList": [
                    "30414"
                ],
                "actionId": 127,
                "FLBOOPHHFJP": 1230,
                "PMJAMGLAJGK": true,
                "LIMPPBIAKGL": false,
                "FNEGLPPEBBF": true,
                "FNDLJGEAMGI": ""
            }
        ],
        [
            {
                "$type": "DLPFECMKEKH",
                "type": "DIALOG",
                "aliasList": [
                    "30414"
                ],
                "actionId": 109,
                "NMKEDPFEKBH": 705380102,
                "JLCHMAJCAPA": 0.5
            },
            {
                "$type": "ILCGAGEGDJI",
                "type": "BODY_LANG",
                "aliasList": [
                    "30414"
                ],
                "actionId": 128,
                "FLBOOPHHFJP": 4030,
                "PMJAMGLAJGK": true,
                "LIMPPBIAKGL": false,
                "FNEGLPPEBBF": true,
                "FNDLJGEAMGI": ""
            }
        ],
        [
            {
                "$type": "MoleMole.Config.ConfigTimeProtectAction",
                "type": "TIME_PROTECT",
                "duration": 0.10000000149011612,
                "actionId": 105
            }
        ]
    ],
    "groupId": [
        {
            "grpId": 3762305712,
            "nextGrpId": 3762305713
        },
        {
            "index": 1,
            "grpId": 3762305713,
            "nextGrpId": 3762305714
        },
        {
            "index": 2,
            "grpId": 3762305714,
            "nextGrpId": 3762305715
        },
        {
            "index": 3,
            "grpId": 3762305715,
            "nextGrpId": 3762305716
        }
    ],
    "freeStyleDic": {
        "1025": [],
        "1026": [],
        "30414": [
            1230,
            4030
        ]
    },
    "NKMHEOFLONH": {
        "30414": [
            "SitHoldArm01AS",
            "SitPutArm01AS",
            "SitRaiseHand01AS"
        ]
    }
}