{
    "common": {
        "effectAttachShape": {
            "$type": "BNMOHLDPIIH",
            "CDOIALFJGFK": "EffectMesh"
        },
        "mass": 10.0
    },
    "headControl": {
        "$type": "CKJGDIDMJPB",
        "useHeadControl": true,
        "ECCDPGBOCPD": false
    },
    "equipController": {
        "sheathPoint": "WeaponBackPut",
        "dissolveSheathFadeTime": 0.30000001192092896,
        "attachPoints": {
            "equip01": "WeaponR",
            "equip02": "CatalystR"
        }
    },
    "stateLayers": {
        "defaultLayer": {
            "$type": "GMHKGJPLHFD",
            "DLEKAADOFBI": "",
            "stateIDs": {
                "TeamConfig_BS": {
                    "$type": "IBEIHDAMPHM",
                    "DNPOFANDHPP": {
                        "TeamConfig_BS": [
                            "TeamConfig_BS_Male_Bow_Tartaglia",
                            "Emo_Avatar_Tartaglia_TeamConfig_01BS",
                            "Audio_Male_Bow_Tartaglia_TeamConfig_BS_UI"
                        ]
                    },
                    "FKPEAEBOFKK": "",
                    "JECOEDGONHH": true
                },
                "TeamConfig": {
                    "$type": "IBEIHDAMPHM",
                    "DNPOFANDHPP": {
                        "TeamConfig_Loop": [
                            "TeamConfig_Male_Bow_Tartaglia",
                            "Emo_Avatar_Tartaglia_TeamConfig_01Loop"
                        ]
                    },
                    "FKPEAEBOFKK": "",
                    "JECOEDGONHH": true
                },
                "TeamConfig_AS": {
                    "$type": "IBEIHDAMPHM",
                    "DNPOFANDHPP": {
                        "TeamConfig_AS": [
                            "TeamConfig_AS_Male_Bow_Tartaglia",
                            "Emo_Avatar_Xinyan_TeamConfig_01AS",
                            "Audio_Male_Bow_Tartaglia_TeamConfig_AS_UI"
                        ]
                    },
                    "GODMEFDMELB": [
                        {
                            "name": "&GotoAnyState"
                        }
                    ],
                    "FKPEAEBOFKK": "",
                    "JECOEDGONHH": true
                },
                "ShowWeapon_BS": {
                    "$type": "IBEIHDAMPHM",
                    "DNPOFANDHPP": {
                        "ShowWeapon_BS": [
                            "Male_Bow_ShowWeapon_BS",
                            "Emo_Avatar_Common_Male_Bow_UI_ShowWeaponBS"
                        ]
                    },
                    "GODMEFDMELB": [
                        {
                            "name": "&GotoAnyState"
                        }
                    ],
                    "FKPEAEBOFKK": "",
                    "JECOEDGONHH": true
                },
                "ShowRelic_BS": {
                    "$type": "IBEIHDAMPHM",
                    "DNPOFANDHPP": {
                        "ShowRelic_BS": [
                            "Emo_Avatar_Common_Manekin_RelicShowBS"
                        ]
                    },
                    "GODMEFDMELB": [
                        {
                            "name": "&GotoAnyState"
                        }
                    ],
                    "FKPEAEBOFKK": "",
                    "JECOEDGONHH": true
                },
                "ShowWeapon": {
                    "$type": "IBEIHDAMPHM",
                    "DNPOFANDHPP": {
                        "ShowWeapon": [],
                        "ShowWeapon_AS": [
                            "Male_Bow_ShowWeapon_AS",
                            "Emo_Avatar_Common_Male_Bow_UI_ShowWeaponAS"
                        ]
                    },
                    "FKPEAEBOFKK": "",
                    "BNGHGCBBOHM": true
                },
                "ShowRelic": {
                    "$type": "IBEIHDAMPHM",
                    "DNPOFANDHPP": {
                        "ShowRelic": [
                            "Emo_Avatar_Common_Manekin_RelicShowLoop"
                        ],
                        "ShowRelic_AS": [
                            "Emo_Avatar_Common_Manekin_RelicShowAS"
                        ]
                    },
                    "FKPEAEBOFKK": "",
                    "JECOEDGONHH": true
                },
                "ShowCharacter": {
                    "$type": "IBEIHDAMPHM",
                    "DNPOFANDHPP": {
                        "ShowCharacter": [],
                        "Show01": [
                            "Audio_Boy_StandbyShow_01_Tartaglia_UI"
                        ],
                        "Show02": [
                            "Manekin_Tartaglia_Show02",
                            "Audio_Boy_StandbyShow_02_Tartaglia_UI"
                        ]
                    },
                    "GODMEFDMELB": [
                        {
                            "name": "&GotoAnyState"
                        }
                    ],
                    "FKPEAEBOFKK": "",
                    "JECOEDGONHH": true
                },
                "Skill_BS": {
                    "$type": "IBEIHDAMPHM",
                    "DNPOFANDHPP": {
                        "Skill_BS": [
                            "Emo_Avatar_Tartaglia_UI_Talent_HoldArm01_BS"
                        ]
                    },
                    "GODMEFDMELB": [
                        {
                            "name": "&GotoAnyState"
                        }
                    ],
                    "FKPEAEBOFKK": "",
                    "JECOEDGONHH": true
                },
                "Skill": {
                    "$type": "IBEIHDAMPHM",
                    "DNPOFANDHPP": {
                        "Skill": [
                            "Emo_Avatar_Tartaglia_UI_Talent_HoldArm01_Loop"
                        ]
                    },
                    "FKPEAEBOFKK": ""
                },
                "Skill_AS": {
                    "$type": "IBEIHDAMPHM",
                    "DNPOFANDHPP": {
                        "Skill_AS": [
                            "Emo_Avatar_Tartaglia_UI_Talent_HoldArm01_AS"
                        ]
                    },
                    "FKPEAEBOFKK": ""
                },
                "Story": {
                    "$type": "IBEIHDAMPHM",
                    "DNPOFANDHPP": {
                        "Story": []
                    },
                    "GODMEFDMELB": [
                        {
                            "name": "&GotoAnyState"
                        }
                    ],
                    "FKPEAEBOFKK": "",
                    "JECOEDGONHH": true
                },
                "ShowFlycloak": {
                    "$type": "IBEIHDAMPHM",
                    "DNPOFANDHPP": {
                        "ShowFlycloak": []
                    },
                    "FKPEAEBOFKK": "",
                    "JECOEDGONHH": true
                }
            }
        }
    },
    "audio": {
        "CDPGEDJOKEB": "",
        "animAudio": {
            "onTransitionIn": [
                {
                    "currentStateName": "ShowWeapon_BS",
                    "audioEvent": {
                        "text": "Play_ui_menu_weapon_show_tartaglia"
                    }
                },
                {
                    "currentStateName": "ShowRelic_BS",
                    "audioEvent": {
                        "text": "Play_ui_menu_relic_show"
                    }
                }
            ],
            "onTransitionOut": [
                {
                    "currentStateName": "ShowWeapon_BS",
                    "audioEvent": {
                        "text": "Stop_ui_menu_weapon_show_putAway_appear_short"
                    }
                },
                {
                    "currentStateName": "Show01",
                    "audioEvent": {
                        "text": "Stop_ui_standbyShow_tartaglia_flap"
                    }
                },
                {
                    "currentStateName": "StandbyShow_02",
                    "audioEvent": {
                        "text": "Stop_ui_standbyShow_tartaglia_bow"
                    }
                },
                {
                    "currentStateName": "StandbyShow_02",
                    "audioEvent": {
                        "text": "Stop_ui_standbyShow_tartaglia_callup"
                    }
                },
                {
                    "currentStateName": "StandbyShow_02",
                    "audioEvent": {
                        "text": "Stop_ui_standbyShow_tartaglia_disappear"
                    }
                },
                {
                    "currentStateName": "TeamConfig_BS",
                    "audioEvent": {
                        "text": "Stop_ui_menu_char_teamConfig_show"
                    },
                    "otherStateNames": [
                        "TeamConfig_Loop"
                    ],
                    "usage": "Except"
                },
                {
                    "currentStateName": "TeamConfig_Loop",
                    "audioEvent": {
                        "text": "Stop_ui_menu_char_teamConfig_show"
                    }
                }
            ]
        },
        "listenerLiftup": 1.5,
        "surfaceProberLiftup": 1.5
    }
}