{
    "LevelEntity_DungeonDive": {
        "avatarAbilities": [
            {
                "abilityID": "",
                "abilityName": "ActivityAbility_Absorb_Shoot",
                "abilityOverride": ""
            },
            {
                "abilityID": "",
                "abilityName": "Avatar_Absorb_SwordFishSlash",
                "abilityOverride": ""
            },
            {
                "abilityID": "",
                "abilityName": "Ability_Avatar_Dive_CrabShield",
                "abilityOverride": ""
            },
            {
                "abilityID": "",
                "abilityName": "Ability_Avatar_Dive_SealEcho",
                "abilityOverride": ""
            },
            {
                "abilityID": "",
                "abilityName": "Avatar_Absorb_TrackingMissile",
                "abilityOverride": ""
            },
            {
                "abilityID": "",
                "abilityName": "Ability_Avatar_Dive_JellyfishBomb",
                "abilityOverride": ""
            },
            {
                "abilityID": "",
                "abilityName": "Ability_Avatar_Dive_JellyfishBomb_Trigger",
                "abilityOverride": ""
            }
        ],
        "teamAbilities": [
            {
                "abilityID": "",
                "abilityName": "Ability_Avatar_Dive_Team",
                "abilityOverride": ""
            }
        ]
    }
}