{
    "sceneId": 40015,
    "gadgets": [
        {
            "groupId": 240015004,
            "mapInstId": 4013,
            "followMoveAttachPoint": "",
            "uiIndicator": {
                "templateName": "ChestUnlock_Icon"
            },
            "rotateCoreCityName": ""
        },
        {
            "groupId": 240015008,
            "mapInstId": 8007,
            "followMoveAttachPoint": "",
            "uiIndicator": {
                "templateName": "ChestUnlock_Icon"
            },
            "rotateCoreCityName": ""
        }
    ]
}