{
    "luaDataPath": "",
    "entityBan": "",
    "startFade": {
        "startFadeOutDuration": 0.0
    },
    "endFade": {
        "startFadeOutDuration": 0.0
    },
    "actors": [
        {
            "alias": "Avatar",
            "visible": true,
            "bornPointName": "Q35703Player",
            "relativePosNpcAlias": "",
            "bindMovingTargetKey": ""
        },
        {
            "configID": 1002,
            "alias": "1002",
            "visible": true,
            "bornPointName": "Q35702Ambor",
            "relativePosNpcAlias": "",
            "bindMovingTargetKey": ""
        },
        {
            "configID": 1005,
            "alias": "1005",
            "visible": true,
            "bornPointName": "Q35702Paimon",
            "relativePosNpcAlias": "",
            "bindMovingTargetKey": ""
        }
    ],
    "group": [
        [
            {
                "$type": "EAMBKPBOPIC",
                "type": "LOOK_AT",
                "aliasList": [
                    "Avatar"
                ],
                "FIDJDPAIFDN": true,
                "PBEEIPKGGKJ": true,
                "OMCCMPHDLOO": "",
                "KPCALFDIHMC": "",
                "DBLNLMOPEBP": ""
            },
            {
                "$type": "DLPFECMKEKH",
                "type": "DIALOG",
                "aliasList": [
                    "1002"
                ],
                "NMKEDPFEKBH": 3570201
            },
            {
                "$type": "MOOOKOKLLEI",
                "type": "CAMERA_MOVE",
                "duration": 1.0,
                "aliasList": [
                    "1002"
                ],
                "DOKGBCKOLJK": {
                    "x": 2262.511474609375,
                    "y": 217.54612731933594,
                    "z": -877.2994384765625
                },
                "HGKCPMDICGG": {
                    "x": 2262.683349609375,
                    "y": 217.2584686279297,
                    "z": -876.3572387695312
                },
                "OMPKKAFEHPN": 6.0,
                "MGMFMGNANHH": 6,
                "IBCBGNHCICN": {},
                "OMCCMPHDLOO": "",
                "OCFGGGHIKOO": "",
                "LJFHGGJDPHH": "",
                "LPKDFKLNEHL": ""
            },
            {
                "$type": "ILCGAGEGDJI",
                "type": "BODY_LANG",
                "aliasList": [
                    "1002"
                ],
                "FLBOOPHHFJP": 1230,
                "FNDLJGEAMGI": ""
            },
            {
                "$type": "OPCCDGPJCJI",
                "type": "EMO_SYNC",
                "aliasList": [
                    "1002"
                ],
                "IONNJBCBACJ": "Cs_Emo_Avatar_Simple_Common_Set/Cs_Emo_Avatar_Ambor_VO_MDAQ020_Ambor_02",
                "HLEJKBCMNNJ": "",
                "JGHLJJLNGPP": "",
                "MANNKIIBOFM": "",
                "COMNAAFDEDH": "",
                "CPGCCLNOCDK": "",
                "IGEFGCJKCPM": [
                    2646905793146643056,
                    10563455783725229593,
                    10068230566277250266,
                    15119952536162068290
                ]
            },
            {
                "$type": "EAMBKPBOPIC",
                "type": "LOOK_AT",
                "aliasList": [
                    "1002"
                ],
                "FIDJDPAIFDN": true,
                "PBEEIPKGGKJ": true,
                "OMCCMPHDLOO": "",
                "KPCALFDIHMC": "",
                "DBLNLMOPEBP": ""
            },
            {
                "$type": "ILCGAGEGDJI",
                "type": "BODY_LANG",
                "aliasList": [
                    "1005"
                ],
                "FLBOOPHHFJP": 1120,
                "FNDLJGEAMGI": ""
            }
        ],
        [
            {
                "$type": "ECLBLHOENAG",
                "type": "DIALOG_SELECT",
                "delayTime": 0.4000000059604645,
                "aliasList": [
                    "Avatar"
                ],
                "NDMMOPDPKNF": [
                    3570203
                ],
                "FPDBIEGHMCD": [
                    1874491467
                ],
                "PKBOIGBGDEG": true
            },
            {
                "$type": "DLPFECMKEKH",
                "type": "DIALOG",
                "duration": 1.0,
                "aliasList": [
                    "1002"
                ],
                "NMKEDPFEKBH": 3570202
            },
            {
                "$type": "MOOOKOKLLEI",
                "type": "CAMERA_MOVE",
                "duration": 1.0,
                "aliasList": [
                    "1005"
                ],
                "DOKGBCKOLJK": {
                    "x": 2263.339111328125,
                    "y": 217.28518676757812,
                    "z": -874.7318725585938
                },
                "HGKCPMDICGG": {
                    "x": 2263.981201171875,
                    "y": 217.2245330810547,
                    "z": -873.9677124023438
                },
                "OMPKKAFEHPN": 6.0,
                "MGMFMGNANHH": 6,
                "IBCBGNHCICN": {},
                "OMCCMPHDLOO": "",
                "OCFGGGHIKOO": "",
                "LJFHGGJDPHH": "",
                "LPKDFKLNEHL": ""
            }
        ],
        [
            {
                "$type": "DLPFECMKEKH",
                "type": "DIALOG",
                "delayTime": 1.0,
                "aliasList": [
                    "1002"
                ],
                "NMKEDPFEKBH": 3570204
            },
            {
                "$type": "ILCGAGEGDJI",
                "type": "BODY_LANG",
                "delayTime": 1.0,
                "duration": 1.0,
                "aliasList": [
                    "1002"
                ],
                "JLABKFNJCNP": true,
                "FLBOOPHHFJP": 1230,
                "FNDLJGEAMGI": ""
            }
        ],
        [
            {
                "$type": "DLPFECMKEKH",
                "type": "DIALOG",
                "aliasList": [
                    "1002"
                ],
                "NMKEDPFEKBH": 3570205
            },
            {
                "$type": "MOOOKOKLLEI",
                "type": "CAMERA_MOVE",
                "duration": 1.0,
                "aliasList": [
                    "1002"
                ],
                "DOKGBCKOLJK": {
                    "x": 2262.511474609375,
                    "y": 217.54612731933594,
                    "z": -877.2994384765625
                },
                "HGKCPMDICGG": {
                    "x": 2262.683349609375,
                    "y": 217.2584686279297,
                    "z": -876.3572387695312
                },
                "OMPKKAFEHPN": 6.0,
                "MGMFMGNANHH": 6,
                "IBCBGNHCICN": {},
                "OMCCMPHDLOO": "",
                "OCFGGGHIKOO": "",
                "LJFHGGJDPHH": "",
                "LPKDFKLNEHL": ""
            },
            {
                "$type": "ILCGAGEGDJI",
                "type": "BODY_LANG",
                "aliasList": [
                    "1002"
                ],
                "FLBOOPHHFJP": 1180,
                "FNDLJGEAMGI": ""
            },
            {
                "$type": "OPCCDGPJCJI",
                "type": "EMO_SYNC",
                "aliasList": [
                    "1002"
                ],
                "IONNJBCBACJ": "Cs_Emo_Avatar_Simple_Common_Set/Cs_Emo_Avatar_Ambor_VO_Emotion_Ambor_Satisfaction_02",
                "HLEJKBCMNNJ": "",
                "JGHLJJLNGPP": "",
                "MANNKIIBOFM": "",
                "COMNAAFDEDH": "",
                "CPGCCLNOCDK": "",
                "IGEFGCJKCPM": [
                    17206793768640711624,
                    11451263639079826057,
                    2101665377461348024,
                    2152264137034603816
                ]
            }
        ],
        [
            {
                "$type": "DLPFECMKEKH",
                "type": "DIALOG",
                "aliasList": [
                    "1002"
                ],
                "NMKEDPFEKBH": 3570206
            },
            {
                "$type": "OPCCDGPJCJI",
                "type": "EMO_SYNC",
                "aliasList": [
                    "1002"
                ],
                "IONNJBCBACJ": "Cs_Emo_Avatar_Simple_Common_Set/Cs_Emo_Avatar_Ambor_Normal",
                "HLEJKBCMNNJ": "",
                "JGHLJJLNGPP": "",
                "MANNKIIBOFM": "",
                "COMNAAFDEDH": "",
                "CPGCCLNOCDK": "",
                "IGEFGCJKCPM": [
                    12590835201171132134,
                    9271149312012379093,
                    1038900549674361874,
                    12527579070519322032
                ]
            },
            {
                "$type": "ILCGAGEGDJI",
                "type": "BODY_LANG",
                "aliasList": [
                    "1005"
                ],
                "JLABKFNJCNP": true,
                "FLBOOPHHFJP": 1120,
                "FNDLJGEAMGI": ""
            }
        ],
        [
            {
                "$type": "MoleMole.Config.ConfigLuaAction",
                "type": "LUA_ACTION",
                "duration": 2.0,
                "invokeAlias": ""
            },
            {
                "$type": "DLPFECMKEKH",
                "type": "DIALOG",
                "aliasList": [
                    "1002"
                ],
                "NMKEDPFEKBH": 3570207
            },
            {
                "$type": "MOOOKOKLLEI",
                "type": "CAMERA_MOVE",
                "duration": 2.0,
                "aliasList": [
                    "1002"
                ],
                "DOKGBCKOLJK": {
                    "x": 2263.862548828125,
                    "y": 216.99615478515625,
                    "z": -875.93701171875
                },
                "HGKCPMDICGG": {
                    "x": 2264.295654296875,
                    "y": 217.55442810058594,
                    "z": -875.2294311523438
                },
                "OMPKKAFEHPN": 3.0,
                "IBCBGNHCICN": {},
                "OMCCMPHDLOO": "",
                "OCFGGGHIKOO": "",
                "LJFHGGJDPHH": "",
                "LPKDFKLNEHL": ""
            },
            {
                "$type": "OOMFCPJAJGL",
                "type": "STEER_TO",
                "duration": 1.5,
                "aliasList": [
                    "1002"
                ],
                "ECOLMDAPKKN": true,
                "PLAPKCOMAKJ": {
                    "x": -300.0
                },
                "GDDCAKPOIAD": 125.0,
                "HCMINPNPFDF": true,
                "OMCCMPHDLOO": "",
                "DBLNLMOPEBP": ""
            },
            {
                "$type": "EAMBKPBOPIC",
                "type": "LOOK_AT",
                "delayTime": 1.0,
                "duration": 1.0,
                "aliasList": [
                    "1002"
                ],
                "FIDJDPAIFDN": true,
                "EFHJCGEOHAF": {
                    "x": 40.0,
                    "y": -30.0
                },
                "PBEEIPKGGKJ": true,
                "EJJGMGKOEKN": 20.0,
                "BCHGCKLKNEH": 0.20000000298023224,
                "MIMBENELNHD": 0.30000001192092896,
                "OMCCMPHDLOO": "",
                "KPCALFDIHMC": "",
                "DBLNLMOPEBP": ""
            },
            {
                "$type": "ILCGAGEGDJI",
                "type": "BODY_LANG",
                "aliasList": [
                    "1002"
                ],
                "JLABKFNJCNP": true,
                "FLBOOPHHFJP": 1180,
                "FNDLJGEAMGI": ""
            }
        ],
        [
            {
                "$type": "MoleMole.Config.ConfigLuaAction",
                "type": "LUA_ACTION",
                "duration": 1.0,
                "aliasList": [
                    "Avatar"
                ],
                "invoke": true,
                "invokeAlias": "357",
                "invokeParam": 3
            },
            {
                "$type": "DLPFECMKEKH",
                "type": "DIALOG_CLEAR",
                "aliasList": [
                    "Avatar"
                ],
                "NMKEDPFEKBH": 3570207
            },
            {
                "$type": "OOMFCPJAJGL",
                "type": "STEER_TO",
                "duration": 1.5,
                "aliasList": [
                    "1002"
                ],
                "ECOLMDAPKKN": true,
                "GDDCAKPOIAD": -125.0,
                "HCMINPNPFDF": true,
                "OMCCMPHDLOO": "",
                "DBLNLMOPEBP": ""
            },
            {
                "$type": "EAMBKPBOPIC",
                "type": "LOOK_AT",
                "delayTime": 1.0,
                "duration": 1.0,
                "aliasList": [
                    "1002"
                ],
                "FIDJDPAIFDN": true,
                "PBEEIPKGGKJ": true,
                "BCHGCKLKNEH": 0.20000000298023224,
                "MIMBENELNHD": 0.4000000059604645,
                "OMCCMPHDLOO": "",
                "KPCALFDIHMC": "",
                "DBLNLMOPEBP": ""
            }
        ]
    ],
    "groupId": [
        {
            "grpId": 1874491465,
            "nextGrpId": 1874491466
        },
        {
            "index": 1,
            "grpId": 1874491466,
            "nextGrpId": 1874491467
        },
        {
            "index": 2,
            "grpId": 1874491467,
            "nextGrpId": 1874491468
        },
        {
            "index": 3,
            "grpId": 1874491468,
            "nextGrpId": 1874491469
        },
        {
            "index": 4,
            "grpId": 1874491469,
            "nextGrpId": 1874491470
        },
        {
            "index": 5,
            "grpId": 1874491470,
            "nextGrpId": 1874491471
        },
        {
            "index": 6,
            "grpId": 1874491471,
            "nextGrpId": 1874491472
        },
        {
            "index": 7,
            "grpId": 1874491472,
            "nextGrpId": 1874491473
        }
    ]
}