{
    "mainQuestId": 1018,
    "mainQuestTitle": {
        "textId": 3873565161,
        "textType": "MainQuestTitle"
    },
    "mainQuestDesp": {
        "textId": 2544792311,
        "textType": "MainQuestDesp"
    },
    "chapterTitle": {
        "textId": 67026961,
        "textType": "ChapterTitle"
    },
    "chapterNum": {
        "textId": 3223313530,
        "textType": "ChapterNum"
    },
    "subQuests": [
        {
            "subQuestTitle": {
                "textId": 276085838,
                "textType": "SubQuestTitle"
            },
            "items": [
                {
                    "GCOJFIFNBGB": 2,
                    "itemType": "SingleDialog",
                    "nextItemId": 3,
                    "speakerText": {
                        "textId": 1431754669,
                        "textType": "SpeakerKnown"
                    },
                    "dialogs": [
                        {
                            "text": {
                                "textId": 1482614153,
                                "textType": "DialogNormal"
                            },
                            "soundId": 10031801,
                            "nextItemId": 3
                        }
                    ]
                },
                {
                    "GCOJFIFNBGB": 3,
                    "itemType": "SingleDialog",
                    "nextItemId": 4,
                    "speakerText": {
                        "textId": 1431754669,
                        "textType": "SpeakerKnown"
                    },
                    "dialogs": [
                        {
                            "text": {
                                "textId": 3113963737,
                                "textType": "DialogNormal"
                            },
                            "soundId": 10031802,
                            "nextItemId": 4
                        }
                    ]
                },
                {
                    "GCOJFIFNBGB": 4,
                    "itemType": "SingleDialog",
                    "nextItemId": 5,
                    "speakerText": {
                        "textId": 1431754669,
                        "textType": "SpeakerKnown"
                    },
                    "dialogs": [
                        {
                            "text": {
                                "textId": 842460017,
                                "textType": "DialogNormal"
                            },
                            "soundId": 10031803,
                            "nextItemId": 5
                        }
                    ]
                },
                {
                    "GCOJFIFNBGB": 5,
                    "itemType": "SingleDialog",
                    "nextItemId": 6,
                    "speakerText": {
                        "textId": 1431754669,
                        "textType": "SpeakerKnown"
                    },
                    "dialogs": [
                        {
                            "text": {
                                "textId": 1986325985,
                                "textType": "DialogNormal"
                            },
                            "soundId": 10031804,
                            "nextItemId": 6
                        }
                    ]
                },
                {
                    "GCOJFIFNBGB": 6,
                    "itemType": "SingleDialog",
                    "nextItemId": 7,
                    "speakerText": {
                        "textId": 1431754669,
                        "textType": "SpeakerKnown"
                    },
                    "dialogs": [
                        {
                            "text": {
                                "textId": 3656478145,
                                "textType": "DialogNormal"
                            },
                            "soundId": 10031805,
                            "nextItemId": 7
                        }
                    ]
                },
                {
                    "GCOJFIFNBGB": 7,
                    "itemType": "SingleDialog",
                    "nextItemId": 8,
                    "speakerText": {
                        "textId": 1431754669,
                        "textType": "SpeakerKnown"
                    },
                    "dialogs": [
                        {
                            "text": {
                                "textId": 1020370953,
                                "textType": "DialogNormal"
                            },
                            "soundId": 10031809,
                            "nextItemId": 8
                        }
                    ]
                },
                {
                    "GCOJFIFNBGB": 8,
                    "itemType": "SingleDialog",
                    "nextItemId": 9,
                    "speakerText": {
                        "textId": 1431754669,
                        "textType": "SpeakerKnown"
                    },
                    "dialogs": [
                        {
                            "text": {
                                "textId": 3037589409,
                                "textType": "DialogNormal"
                            },
                            "soundId": 10031810,
                            "nextItemId": 9
                        }
                    ]
                },
                {
                    "GCOJFIFNBGB": 9,
                    "itemType": "SingleDialog",
                    "nextItemId": 10,
                    "speakerText": {
                        "textId": 1431754669,
                        "textType": "SpeakerKnown"
                    },
                    "dialogs": [
                        {
                            "text": {
                                "textId": 3417603945,
                                "textType": "DialogNormal"
                            },
                            "soundId": 10031811,
                            "nextItemId": 10
                        }
                    ]
                },
                {
                    "GCOJFIFNBGB": 10,
                    "itemType": "SingleDialog",
                    "nextItemId": 11,
                    "speakerText": {
                        "textId": 1356475093,
                        "textType": "SpeakerKnown"
                    },
                    "dialogs": [
                        {
                            "text": {
                                "textId": 1685336473,
                                "textType": "DialogNormal"
                            },
                            "soundId": 10031812,
                            "nextItemId": 11
                        }
                    ]
                },
                {
                    "GCOJFIFNBGB": 11,
                    "itemType": "SingleDialog",
                    "nextItemId": 12,
                    "speakerText": {
                        "textId": 1431754669,
                        "textType": "SpeakerKnown"
                    },
                    "dialogs": [
                        {
                            "text": {
                                "textId": 41767649,
                                "textType": "DialogNormal"
                            },
                            "soundId": 10031813,
                            "nextItemId": 12
                        }
                    ]
                },
                {
                    "GCOJFIFNBGB": 12,
                    "itemType": "SingleDialog",
                    "nextItemId": 13,
                    "speakerText": {
                        "textId": 1431754669,
                        "textType": "SpeakerKnown"
                    },
                    "dialogs": [
                        {
                            "text": {
                                "textId": 723278161,
                                "textType": "DialogNormal"
                            },
                            "soundId": 10031814,
                            "nextItemId": 13
                        }
                    ]
                },
                {
                    "GCOJFIFNBGB": 13,
                    "itemType": "SingleDialog",
                    "nextItemId": 14,
                    "speakerText": {
                        "textId": 1431754669,
                        "textType": "SpeakerKnown"
                    },
                    "dialogs": [
                        {
                            "text": {
                                "textId": 2743583657,
                                "textType": "DialogNormal"
                            },
                            "soundId": 10031815,
                            "nextItemId": 14
                        }
                    ]
                },
                {
                    "GCOJFIFNBGB": 14,
                    "itemType": "SingleDialog",
                    "nextItemId": 15,
                    "speakerText": {
                        "textId": 1356475093,
                        "textType": "SpeakerKnown"
                    },
                    "dialogs": [
                        {
                            "text": {
                                "textId": 3821870617,
                                "textType": "DialogNormal"
                            },
                            "soundId": 10031816,
                            "nextItemId": 15
                        }
                    ]
                },
                {
                    "GCOJFIFNBGB": 15,
                    "itemType": "SingleDialog",
                    "nextItemId": 16,
                    "speakerText": {
                        "textId": 1431754669,
                        "textType": "SpeakerKnown"
                    },
                    "dialogs": [
                        {
                            "text": {
                                "textId": 593784641,
                                "textType": "DialogNormal"
                            },
                            "soundId": 10031817,
                            "nextItemId": 16
                        }
                    ]
                },
                {
                    "GCOJFIFNBGB": 16,
                    "itemType": "SingleDialog",
                    "nextItemId": 17,
                    "speakerText": {
                        "textId": 1431754669,
                        "textType": "SpeakerKnown"
                    },
                    "dialogs": [
                        {
                            "text": {
                                "textId": 3257669969,
                                "textType": "DialogNormal"
                            },
                            "soundId": 10031818,
                            "nextItemId": 17
                        }
                    ]
                },
                {
                    "GCOJFIFNBGB": 17,
                    "itemType": "SingleDialog",
                    "nextItemId": 18,
                    "speakerText": {
                        "textId": 1431754669,
                        "textType": "SpeakerKnown"
                    },
                    "dialogs": [
                        {
                            "text": {
                                "textId": 3977923161,
                                "textType": "DialogNormal"
                            },
                            "soundId": 10031819,
                            "nextItemId": 18
                        }
                    ]
                },
                {
                    "GCOJFIFNBGB": 18,
                    "itemType": "MultiDialog",
                    "speakerText": {
                        "textId": 1329777769,
                        "textType": "SpeakerPlayer"
                    },
                    "dialogs": [
                        {
                            "text": {
                                "textId": 2198281505,
                                "textType": "DialogNormal"
                            },
                            "soundId": 10031820,
                            "nextItemId": 20
                        },
                        {
                            "text": {
                                "textId": 2588936033,
                                "textType": "DialogNormal"
                            },
                            "soundId": 10031821,
                            "nextItemId": 20
                        }
                    ]
                },
                {
                    "GCOJFIFNBGB": 20,
                    "itemType": "SingleDialog",
                    "nextItemId": 21,
                    "speakerText": {
                        "textId": 1356475093,
                        "textType": "SpeakerKnown"
                    },
                    "dialogs": [
                        {
                            "text": {
                                "textId": 1999560681,
                                "textType": "DialogNormal"
                            },
                            "soundId": 10031822,
                            "nextItemId": 21
                        }
                    ]
                },
                {
                    "GCOJFIFNBGB": 21,
                    "itemType": "SingleDialog",
                    "nextItemId": 22,
                    "speakerText": {
                        "textId": 1356475093,
                        "textType": "SpeakerKnown"
                    },
                    "dialogs": [
                        {
                            "text": {
                                "textId": 3225940577,
                                "textType": "DialogNormal"
                            },
                            "soundId": 10031823,
                            "nextItemId": 22
                        }
                    ]
                },
                {
                    "GCOJFIFNBGB": 22,
                    "itemType": "SingleDialog",
                    "nextItemId": 23,
                    "speakerText": {
                        "textId": 1356475093,
                        "textType": "SpeakerKnown"
                    },
                    "dialogs": [
                        {
                            "text": {
                                "textId": 3303942057,
                                "textType": "DialogNormal"
                            },
                            "soundId": 10031824,
                            "nextItemId": 23
                        }
                    ]
                },
                {
                    "GCOJFIFNBGB": 23,
                    "itemType": "SingleDialog",
                    "nextItemId": 24,
                    "speakerText": {
                        "textId": 1431754669,
                        "textType": "SpeakerKnown"
                    },
                    "dialogs": [
                        {
                            "text": {
                                "textId": 2614927329,
                                "textType": "DialogNormal"
                            },
                            "soundId": 10031825,
                            "nextItemId": 24
                        }
                    ]
                },
                {
                    "GCOJFIFNBGB": 24,
                    "itemType": "MultiDialog",
                    "speakerText": {
                        "textId": 1329777769,
                        "textType": "SpeakerPlayer"
                    },
                    "dialogs": [
                        {
                            "text": {
                                "textId": 3063903993,
                                "textType": "DialogNormal"
                            },
                            "soundId": 10031826,
                            "nextItemId": 26
                        },
                        {
                            "text": {
                                "textId": 251457617,
                                "textType": "DialogNormal"
                            },
                            "soundId": 10031827,
                            "nextItemId": 26
                        }
                    ]
                },
                {
                    "GCOJFIFNBGB": 26,
                    "itemType": "SingleDialog",
                    "nextItemId": 27,
                    "speakerText": {
                        "textId": 1431754669,
                        "textType": "SpeakerKnown"
                    },
                    "dialogs": [
                        {
                            "text": {
                                "textId": 3677177913,
                                "textType": "DialogNormal"
                            },
                            "soundId": 10031828,
                            "nextItemId": 27
                        }
                    ]
                },
                {
                    "GCOJFIFNBGB": 27,
                    "itemType": "SingleDialog",
                    "nextItemId": 28,
                    "speakerText": {
                        "textId": 1431754669,
                        "textType": "SpeakerKnown"
                    },
                    "dialogs": [
                        {
                            "text": {
                                "textId": 2230005609,
                                "textType": "DialogNormal"
                            },
                            "soundId": 10031829,
                            "nextItemId": 28
                        }
                    ]
                },
                {
                    "GCOJFIFNBGB": 28,
                    "itemType": "SingleDialog",
                    "nextItemId": 29,
                    "speakerText": {
                        "textId": 1431754669,
                        "textType": "SpeakerKnown"
                    },
                    "dialogs": [
                        {
                            "text": {
                                "textId": 3739075585,
                                "textType": "DialogNormal"
                            },
                            "soundId": 10031830,
                            "nextItemId": 29
                        }
                    ]
                },
                {
                    "GCOJFIFNBGB": 29,
                    "itemType": "SingleDialog",
                    "nextItemId": 30,
                    "speakerText": {
                        "textId": 1356475093,
                        "textType": "SpeakerKnown"
                    },
                    "dialogs": [
                        {
                            "text": {
                                "textId": 2894123297,
                                "textType": "DialogNormal"
                            },
                            "soundId": 10031831,
                            "nextItemId": 30
                        }
                    ]
                },
                {
                    "GCOJFIFNBGB": 30,
                    "itemType": "SingleDialog",
                    "nextItemId": 31,
                    "speakerText": {
                        "textId": 1431754669,
                        "textType": "SpeakerKnown"
                    },
                    "dialogs": [
                        {
                            "text": {
                                "textId": 2692718721,
                                "textType": "DialogNormal"
                            },
                            "soundId": 10031832,
                            "nextItemId": 31
                        }
                    ]
                },
                {
                    "GCOJFIFNBGB": 31,
                    "itemType": "SingleDialog",
                    "nextItemId": 32,
                    "speakerText": {
                        "textId": 1431754669,
                        "textType": "SpeakerKnown"
                    },
                    "dialogs": [
                        {
                            "text": {
                                "textId": 2798587681,
                                "textType": "DialogNormal"
                            },
                            "soundId": 10031833,
                            "nextItemId": 32
                        }
                    ]
                },
                {
                    "GCOJFIFNBGB": 32,
                    "itemType": "SingleDialog",
                    "nextItemId": 33,
                    "speakerText": {
                        "textId": 1431754669,
                        "textType": "SpeakerKnown"
                    },
                    "dialogs": [
                        {
                            "text": {
                                "textId": 2441440073,
                                "textType": "DialogNormal"
                            },
                            "soundId": 10031834,
                            "nextItemId": 33
                        }
                    ]
                },
                {
                    "GCOJFIFNBGB": 33,
                    "itemType": "SingleDialog",
                    "nextItemId": 34,
                    "speakerText": {
                        "textId": 1431754669,
                        "textType": "SpeakerKnown"
                    },
                    "dialogs": [
                        {
                            "text": {
                                "textId": 3327131145,
                                "textType": "DialogNormal"
                            },
                            "soundId": 10031835,
                            "nextItemId": 34
                        }
                    ]
                },
                {
                    "GCOJFIFNBGB": 34,
                    "itemType": "SingleDialog",
                    "speakerText": {
                        "textId": 1431754669,
                        "textType": "SpeakerKnown"
                    },
                    "dialogs": [
                        {
                            "text": {
                                "textId": 2798969745,
                                "textType": "DialogNormal"
                            },
                            "soundId": 10031836
                        }
                    ]
                }
            ]
        }
    ]
}