{
    "mainQuestId": 10200,
    "questType": "LQ",
    "mainQuestTitle": {
        "textId": 1139279577,
        "textType": "MainQuestTitle"
    },
    "mainQuestDesp": {
        "textId": 1204798183,
        "textType": "MainQuestDesp"
    },
    "chapterTitle": {
        "textId": 179483225,
        "textType": "ChapterTitle"
    },
    "chapterNum": {
        "textId": 2625440658,
        "textType": "ChapterNum"
    },
    "subQuests": [
        {
            "subQuestTitle": {
                "textId": 2485833398,
                "textType": "SubQuestTitle"
            }
        },
        {
            "subQuestTitle": {
                "textId": 1317245846,
                "textType": "SubQuestTitle"
            },
            "items": [
                {
                    "GCOJFIFNBGB": 3,
                    "itemType": "SingleDialog",
                    "nextItemId": 4,
                    "speakerText": {
                        "textId": 3070678429,
                        "textType": "SpeakerKnown"
                    },
                    "dialogs": [
                        {
                            "text": {
                                "textId": 3887938821,
                                "textType": "DialogNormal"
                            },
                            "soundId": 102000201,
                            "nextItemId": 4
                        }
                    ]
                },
                {
                    "GCOJFIFNBGB": 4,
                    "itemType": "SingleDialog",
                    "nextItemId": 5,
                    "speakerText": {
                        "textId": 1356475093,
                        "textType": "SpeakerKnown"
                    },
                    "dialogs": [
                        {
                            "text": {
                                "textId": 2371829573,
                                "textType": "DialogNormal"
                            },
                            "soundId": 102000202,
                            "nextItemId": 5
                        }
                    ]
                },
                {
                    "GCOJFIFNBGB": 5,
                    "itemType": "SingleDialog",
                    "nextItemId": 6,
                    "speakerText": {
                        "textId": 3070678429,
                        "textType": "SpeakerKnown"
                    },
                    "dialogs": [
                        {
                            "text": {
                                "textId": 2778916773,
                                "textType": "DialogNormal"
                            },
                            "soundId": 102000203,
                            "nextItemId": 6
                        }
                    ]
                },
                {
                    "GCOJFIFNBGB": 6,
                    "itemType": "SingleDialog",
                    "nextItemId": 7,
                    "speakerText": {
                        "textId": 1356475093,
                        "textType": "SpeakerKnown"
                    },
                    "dialogs": [
                        {
                            "text": {
                                "textId": 2191861421,
                                "textType": "DialogNormal"
                            },
                            "soundId": 102000204,
                            "nextItemId": 7
                        }
                    ]
                },
                {
                    "GCOJFIFNBGB": 7,
                    "itemType": "SingleDialog",
                    "nextItemId": 8,
                    "speakerText": {
                        "textId": 1356475093,
                        "textType": "SpeakerKnown"
                    },
                    "dialogs": [
                        {
                            "text": {
                                "textId": 43955885,
                                "textType": "DialogNormal"
                            },
                            "soundId": 102000205,
                            "nextItemId": 8
                        }
                    ]
                },
                {
                    "GCOJFIFNBGB": 8,
                    "itemType": "MultiDialog",
                    "speakerText": {
                        "textId": 1329777769,
                        "textType": "SpeakerPlayer"
                    },
                    "dialogs": [
                        {
                            "text": {
                                "textId": 1697856589,
                                "textType": "DialogNormal"
                            },
                            "soundId": 102000206,
                            "nextItemId": 9
                        },
                        {
                            "text": {
                                "textId": 1336388949,
                                "textType": "DialogNormal"
                            },
                            "soundId": 102000208,
                            "nextItemId": 11
                        }
                    ]
                },
                {
                    "GCOJFIFNBGB": 9,
                    "itemType": "SingleDialog",
                    "nextItemId": 12,
                    "speakerText": {
                        "textId": 1356475093,
                        "textType": "SpeakerKnown"
                    },
                    "dialogs": [
                        {
                            "text": {
                                "textId": 2352278717,
                                "textType": "DialogNormal"
                            },
                            "soundId": 102000207,
                            "nextItemId": 12
                        }
                    ]
                },
                {
                    "GCOJFIFNBGB": 11,
                    "itemType": "SingleDialog",
                    "nextItemId": 12,
                    "speakerText": {
                        "textId": 1356475093,
                        "textType": "SpeakerKnown"
                    },
                    "dialogs": [
                        {
                            "text": {
                                "textId": 832855149,
                                "textType": "DialogNormal"
                            },
                            "soundId": 102000209,
                            "nextItemId": 12
                        }
                    ]
                },
                {
                    "GCOJFIFNBGB": 12,
                    "itemType": "SingleDialog",
                    "nextItemId": 13,
                    "speakerText": {
                        "textId": 1356475093,
                        "textType": "SpeakerKnown"
                    },
                    "dialogs": [
                        {
                            "text": {
                                "textId": 2536410869,
                                "textType": "DialogNormal"
                            },
                            "soundId": 102000210,
                            "nextItemId": 13
                        }
                    ]
                },
                {
                    "GCOJFIFNBGB": 13,
                    "itemType": "SingleDialog",
                    "nextItemId": 14,
                    "speakerText": {
                        "textId": 3070678429,
                        "textType": "SpeakerKnown"
                    },
                    "dialogs": [
                        {
                            "text": {
                                "textId": 3570112837,
                                "textType": "DialogNormal"
                            },
                            "soundId": 102000211,
                            "nextItemId": 14
                        }
                    ]
                },
                {
                    "GCOJFIFNBGB": 14,
                    "itemType": "SingleDialog",
                    "nextItemId": 15,
                    "speakerText": {
                        "textId": 3070678429,
                        "textType": "SpeakerKnown"
                    },
                    "dialogs": [
                        {
                            "text": {
                                "textId": 102293029,
                                "textType": "DialogNormal"
                            },
                            "soundId": 102000212,
                            "nextItemId": 15
                        }
                    ]
                },
                {
                    "GCOJFIFNBGB": 15,
                    "itemType": "SingleDialog",
                    "nextItemId": 16,
                    "speakerText": {
                        "textId": 3070678429,
                        "textType": "SpeakerKnown"
                    },
                    "dialogs": [
                        {
                            "text": {
                                "textId": 356299981,
                                "textType": "DialogNormal"
                            },
                            "soundId": 102000213,
                            "nextItemId": 16
                        }
                    ]
                },
                {
                    "GCOJFIFNBGB": 16,
                    "itemType": "SingleDialog",
                    "nextItemId": 17,
                    "speakerText": {
                        "textId": 3070678429,
                        "textType": "SpeakerKnown"
                    },
                    "dialogs": [
                        {
                            "text": {
                                "textId": 2730071925,
                                "textType": "DialogNormal"
                            },
                            "soundId": 102000214,
                            "nextItemId": 17
                        }
                    ]
                },
                {
                    "GCOJFIFNBGB": 17,
                    "itemType": "MultiDialog",
                    "speakerText": {
                        "textId": 1329777769,
                        "textType": "SpeakerPlayer"
                    },
                    "dialogs": [
                        {
                            "text": {
                                "textId": 3683484205,
                                "textType": "DialogNormal"
                            },
                            "soundId": 102000215,
                            "nextItemId": 19
                        },
                        {
                            "text": {
                                "textId": 2774875141,
                                "textType": "DialogNormal"
                            },
                            "soundId": 102000216,
                            "nextItemId": 19
                        }
                    ]
                },
                {
                    "GCOJFIFNBGB": 19,
                    "itemType": "SingleDialog",
                    "nextItemId": 20,
                    "speakerText": {
                        "textId": 1356475093,
                        "textType": "SpeakerKnown"
                    },
                    "dialogs": [
                        {
                            "text": {
                                "textId": 1935435477,
                                "textType": "DialogNormal"
                            },
                            "soundId": 102000217,
                            "nextItemId": 20
                        }
                    ]
                },
                {
                    "GCOJFIFNBGB": 20,
                    "itemType": "SingleDialog",
                    "nextItemId": 21,
                    "speakerText": {
                        "textId": 1356475093,
                        "textType": "SpeakerKnown"
                    },
                    "dialogs": [
                        {
                            "text": {
                                "textId": 3954137829,
                                "textType": "DialogNormal"
                            },
                            "soundId": 102000218,
                            "nextItemId": 21
                        }
                    ]
                },
                {
                    "GCOJFIFNBGB": 21,
                    "itemType": "SingleDialog",
                    "nextItemId": 22,
                    "speakerText": {
                        "textId": 3070678429,
                        "textType": "SpeakerKnown"
                    },
                    "dialogs": [
                        {
                            "text": {
                                "textId": 2053102477,
                                "textType": "DialogNormal"
                            },
                            "soundId": 102000219,
                            "nextItemId": 22
                        }
                    ]
                },
                {
                    "GCOJFIFNBGB": 22,
                    "itemType": "SingleDialog",
                    "speakerText": {
                        "textId": 3070678429,
                        "textType": "SpeakerKnown"
                    },
                    "dialogs": [
                        {
                            "text": {
                                "textId": 497377453,
                                "textType": "DialogNormal"
                            },
                            "soundId": 102000220
                        }
                    ]
                }
            ]
        },
        {
            "subQuestTitle": {
                "textId": 3381617374,
                "textType": "SubQuestTitle"
            }
        },
        {
            "subQuestTitle": {
                "textId": 21437686,
                "textType": "SubQuestTitle"
            },
            "items": [
                {
                    "GCOJFIFNBGB": 25,
                    "itemType": "SingleDialog",
                    "nextItemId": 26,
                    "speakerText": {
                        "textId": 2523034077,
                        "textType": "SpeakerPlayer"
                    },
                    "dialogs": [
                        {
                            "text": {
                                "textId": 2242266925,
                                "textType": "DialogNormal"
                            },
                            "soundId": 102000701,
                            "nextItemId": 26
                        }
                    ]
                },
                {
                    "GCOJFIFNBGB": 26,
                    "itemType": "SingleDialog",
                    "nextItemId": 27,
                    "speakerText": {
                        "textId": 2523034077,
                        "textType": "SpeakerKnown"
                    },
                    "dialogs": [
                        {
                            "text": {
                                "textId": 4181660429,
                                "textType": "DialogNormal"
                            },
                            "soundId": 102000702,
                            "nextItemId": 27
                        }
                    ]
                },
                {
                    "GCOJFIFNBGB": 27,
                    "itemType": "SingleDialog",
                    "nextItemId": 28,
                    "speakerText": {
                        "textId": 2523034077,
                        "textType": "SpeakerKnown"
                    },
                    "dialogs": [
                        {
                            "text": {
                                "textId": 2144420661,
                                "textType": "DialogNormal"
                            },
                            "soundId": 102000703,
                            "nextItemId": 28
                        }
                    ]
                },
                {
                    "GCOJFIFNBGB": 28,
                    "itemType": "SingleDialog",
                    "nextItemId": 29,
                    "speakerText": {
                        "textId": 2523034077,
                        "textType": "SpeakerKnown"
                    },
                    "dialogs": [
                        {
                            "text": {
                                "textId": 3180331845,
                                "textType": "DialogNormal"
                            },
                            "soundId": 102000704,
                            "nextItemId": 29
                        }
                    ]
                },
                {
                    "GCOJFIFNBGB": 29,
                    "itemType": "SingleDialog",
                    "nextItemId": 30,
                    "speakerText": {
                        "textId": 1356475093,
                        "textType": "SpeakerKnown"
                    },
                    "dialogs": [
                        {
                            "text": {
                                "textId": 384889445,
                                "textType": "DialogNormal"
                            },
                            "soundId": 102000705,
                            "nextItemId": 30
                        }
                    ]
                },
                {
                    "GCOJFIFNBGB": 30,
                    "itemType": "SingleDialog",
                    "nextItemId": 31,
                    "speakerText": {
                        "textId": 1356475093,
                        "textType": "SpeakerKnown"
                    },
                    "dialogs": [
                        {
                            "text": {
                                "textId": 1958422533,
                                "textType": "DialogNormal"
                            },
                            "soundId": 102000706,
                            "nextItemId": 31
                        }
                    ]
                },
                {
                    "GCOJFIFNBGB": 31,
                    "itemType": "MultiDialog",
                    "speakerText": {
                        "textId": 1329777769,
                        "textType": "SpeakerPlayer"
                    },
                    "dialogs": [
                        {
                            "text": {
                                "textId": 1778681541,
                                "textType": "DialogNormal"
                            },
                            "soundId": 102000707,
                            "nextItemId": 32
                        },
                        {
                            "text": {
                                "textId": 1267496757,
                                "textType": "DialogNormal"
                            },
                            "soundId": 102000709,
                            "nextItemId": 34
                        }
                    ]
                },
                {
                    "GCOJFIFNBGB": 32,
                    "itemType": "SingleDialog",
                    "speakerText": {
                        "textId": 1356475093,
                        "textType": "SpeakerKnown"
                    },
                    "dialogs": [
                        {
                            "text": {
                                "textId": 942629349,
                                "textType": "DialogNormal"
                            },
                            "soundId": 102000708
                        }
                    ]
                },
                {
                    "GCOJFIFNBGB": 34,
                    "itemType": "SingleDialog",
                    "speakerText": {
                        "textId": 1356475093,
                        "textType": "SpeakerKnown"
                    },
                    "dialogs": [
                        {
                            "text": {
                                "textId": 605744069,
                                "textType": "DialogNormal"
                            },
                            "soundId": 102000710
                        }
                    ]
                }
            ]
        },
        {
            "subQuestTitle": {
                "textId": 99389742,
                "textType": "SubQuestTitle"
            },
            "items": [
                {
                    "GCOJFIFNBGB": 36,
                    "itemType": "SingleDialog",
                    "nextItemId": 37,
                    "speakerText": {
                        "textId": 156962173,
                        "textType": "SpeakerPlayer"
                    },
                    "dialogs": [
                        {
                            "text": {
                                "textId": 3696055773,
                                "textType": "DialogNormal"
                            },
                            "soundId": 102000801,
                            "nextItemId": 37
                        }
                    ]
                },
                {
                    "GCOJFIFNBGB": 37,
                    "itemType": "SingleDialog",
                    "nextItemId": 38,
                    "speakerText": {
                        "textId": 156962173,
                        "textType": "SpeakerKnown"
                    },
                    "dialogs": [
                        {
                            "text": {
                                "textId": 2210474869,
                                "textType": "DialogNormal"
                            },
                            "soundId": 102000802,
                            "nextItemId": 38
                        }
                    ]
                },
                {
                    "GCOJFIFNBGB": 38,
                    "itemType": "SingleDialog",
                    "nextItemId": 39,
                    "speakerText": {
                        "textId": 156962173,
                        "textType": "SpeakerKnown"
                    },
                    "dialogs": [
                        {
                            "text": {
                                "textId": 2445218933,
                                "textType": "DialogNormal"
                            },
                            "soundId": 102000803,
                            "nextItemId": 39
                        }
                    ]
                },
                {
                    "GCOJFIFNBGB": 39,
                    "itemType": "SingleDialog",
                    "nextItemId": 40,
                    "speakerText": {
                        "textId": 156962173,
                        "textType": "SpeakerKnown"
                    },
                    "dialogs": [
                        {
                            "text": {
                                "textId": 3916371309,
                                "textType": "DialogNormal"
                            },
                            "soundId": 102000804,
                            "nextItemId": 40
                        }
                    ]
                },
                {
                    "GCOJFIFNBGB": 40,
                    "itemType": "SingleDialog",
                    "nextItemId": 41,
                    "speakerText": {
                        "textId": 156962173,
                        "textType": "SpeakerKnown"
                    },
                    "dialogs": [
                        {
                            "text": {
                                "textId": 3114676989,
                                "textType": "DialogNormal"
                            },
                            "soundId": 102000805,
                            "nextItemId": 41
                        }
                    ]
                },
                {
                    "GCOJFIFNBGB": 41,
                    "itemType": "SingleDialog",
                    "nextItemId": 42,
                    "speakerText": {
                        "textId": 156962173,
                        "textType": "SpeakerKnown"
                    },
                    "dialogs": [
                        {
                            "text": {
                                "textId": 3415856949,
                                "textType": "DialogNormal"
                            },
                            "soundId": 102000806,
                            "nextItemId": 42
                        }
                    ]
                },
                {
                    "GCOJFIFNBGB": 42,
                    "itemType": "SingleDialog",
                    "nextItemId": 43,
                    "speakerText": {
                        "textId": 1356475093,
                        "textType": "SpeakerKnown"
                    },
                    "dialogs": [
                        {
                            "text": {
                                "textId": 32502861,
                                "textType": "DialogNormal"
                            },
                            "soundId": 102000807,
                            "nextItemId": 43
                        }
                    ]
                },
                {
                    "GCOJFIFNBGB": 43,
                    "itemType": "SingleDialog",
                    "speakerText": {
                        "textId": 1356475093,
                        "textType": "SpeakerKnown"
                    },
                    "dialogs": [
                        {
                            "text": {
                                "textId": 398597709,
                                "textType": "DialogNormal"
                            },
                            "soundId": 102000808
                        }
                    ]
                }
            ]
        },
        {
            "subQuestTitle": {
                "textId": 3760646782,
                "textType": "SubQuestTitle"
            },
            "items": [
                {
                    "GCOJFIFNBGB": 45,
                    "itemType": "SingleDialog",
                    "nextItemId": 46,
                    "speakerText": {
                        "textId": 1805372053,
                        "textType": "SpeakerPlayer"
                    },
                    "dialogs": [
                        {
                            "text": {
                                "textId": 173905485,
                                "textType": "DialogNormal"
                            },
                            "soundId": 102000901,
                            "nextItemId": 46
                        }
                    ]
                },
                {
                    "GCOJFIFNBGB": 46,
                    "itemType": "SingleDialog",
                    "nextItemId": 47,
                    "speakerText": {
                        "textId": 1805372053,
                        "textType": "SpeakerKnown"
                    },
                    "dialogs": [
                        {
                            "text": {
                                "textId": 3738230125,
                                "textType": "DialogNormal"
                            },
                            "soundId": 102000902,
                            "nextItemId": 47
                        }
                    ]
                },
                {
                    "GCOJFIFNBGB": 47,
                    "itemType": "SingleDialog",
                    "nextItemId": 48,
                    "speakerText": {
                        "textId": 1356475093,
                        "textType": "SpeakerKnown"
                    },
                    "dialogs": [
                        {
                            "text": {
                                "textId": 3760571533,
                                "textType": "DialogNormal"
                            },
                            "soundId": 102000903,
                            "nextItemId": 48
                        }
                    ]
                },
                {
                    "GCOJFIFNBGB": 48,
                    "itemType": "SingleDialog",
                    "nextItemId": 49,
                    "speakerText": {
                        "textId": 1329777769,
                        "textType": "SpeakerPlayer"
                    },
                    "dialogs": [
                        {
                            "text": {
                                "textId": 919333781,
                                "textType": "DialogNormal"
                            },
                            "soundId": 102000904,
                            "nextItemId": 49
                        }
                    ]
                },
                {
                    "GCOJFIFNBGB": 49,
                    "itemType": "SingleDialog",
                    "nextItemId": 50,
                    "speakerText": {
                        "textId": 1356475093,
                        "textType": "SpeakerKnown"
                    },
                    "dialogs": [
                        {
                            "text": {
                                "textId": 488283117,
                                "textType": "DialogNormal"
                            },
                            "soundId": 102000905,
                            "nextItemId": 50
                        }
                    ]
                },
                {
                    "GCOJFIFNBGB": 50,
                    "itemType": "SingleDialog",
                    "nextItemId": 51,
                    "speakerText": {
                        "textId": 1805372053,
                        "textType": "SpeakerKnown"
                    },
                    "dialogs": [
                        {
                            "text": {
                                "textId": 1883936253,
                                "textType": "DialogNormal"
                            },
                            "soundId": 102000906,
                            "nextItemId": 51
                        }
                    ]
                },
                {
                    "GCOJFIFNBGB": 51,
                    "itemType": "SingleDialog",
                    "nextItemId": 52,
                    "speakerText": {
                        "textId": 1805372053,
                        "textType": "SpeakerKnown"
                    },
                    "dialogs": [
                        {
                            "text": {
                                "textId": 1369217517,
                                "textType": "DialogNormal"
                            },
                            "soundId": 102000907,
                            "nextItemId": 52
                        }
                    ]
                },
                {
                    "GCOJFIFNBGB": 52,
                    "itemType": "SingleDialog",
                    "nextItemId": 53,
                    "speakerText": {
                        "textId": 1805372053,
                        "textType": "SpeakerKnown"
                    },
                    "dialogs": [
                        {
                            "text": {
                                "textId": 3602187989,
                                "textType": "DialogNormal"
                            },
                            "soundId": 102000908,
                            "nextItemId": 53
                        }
                    ]
                },
                {
                    "GCOJFIFNBGB": 53,
                    "itemType": "SingleDialog",
                    "nextItemId": 54,
                    "speakerText": {
                        "textId": 1356475093,
                        "textType": "SpeakerKnown"
                    },
                    "dialogs": [
                        {
                            "text": {
                                "textId": 1102107997,
                                "textType": "DialogNormal"
                            },
                            "soundId": 102000909,
                            "nextItemId": 54
                        }
                    ]
                },
                {
                    "GCOJFIFNBGB": 54,
                    "itemType": "SingleDialog",
                    "speakerText": {
                        "textId": 1356475093,
                        "textType": "SpeakerKnown"
                    },
                    "dialogs": [
                        {
                            "text": {
                                "textId": 3762173957,
                                "textType": "DialogNormal"
                            },
                            "soundId": 102000910
                        }
                    ]
                }
            ]
        },
        {
            "subQuestTitle": {
                "textId": 3670176366,
                "textType": "SubQuestTitle"
            },
            "items": [
                {
                    "GCOJFIFNBGB": 56,
                    "itemType": "SingleDialog",
                    "nextItemId": 57,
                    "speakerText": {
                        "textId": 1560569197,
                        "textType": "SpeakerPlayer"
                    },
                    "dialogs": [
                        {
                            "text": {
                                "textId": 2056360581,
                                "textType": "DialogNormal"
                            },
                            "soundId": 102001001,
                            "nextItemId": 57
                        }
                    ]
                },
                {
                    "GCOJFIFNBGB": 57,
                    "itemType": "SingleDialog",
                    "nextItemId": 58,
                    "speakerText": {
                        "textId": 1560569197,
                        "textType": "SpeakerKnown"
                    },
                    "dialogs": [
                        {
                            "text": {
                                "textId": 1708824949,
                                "textType": "DialogNormal"
                            },
                            "soundId": 102001002,
                            "nextItemId": 58
                        }
                    ]
                },
                {
                    "GCOJFIFNBGB": 58,
                    "itemType": "SingleDialog",
                    "nextItemId": 59,
                    "speakerText": {
                        "textId": 1560569197,
                        "textType": "SpeakerKnown"
                    },
                    "dialogs": [
                        {
                            "text": {
                                "textId": 996897221,
                                "textType": "DialogNormal"
                            },
                            "soundId": 102001003,
                            "nextItemId": 59
                        }
                    ]
                },
                {
                    "GCOJFIFNBGB": 59,
                    "itemType": "SingleDialog",
                    "nextItemId": 60,
                    "speakerText": {
                        "textId": 1329777769,
                        "textType": "SpeakerPlayer"
                    },
                    "dialogs": [
                        {
                            "text": {
                                "textId": 534523989,
                                "textType": "DialogNormal"
                            },
                            "soundId": 102001004,
                            "nextItemId": 60
                        }
                    ]
                },
                {
                    "GCOJFIFNBGB": 60,
                    "itemType": "SingleDialog",
                    "nextItemId": 61,
                    "speakerText": {
                        "textId": 1560569197,
                        "textType": "SpeakerKnown"
                    },
                    "dialogs": [
                        {
                            "text": {
                                "textId": 3442836453,
                                "textType": "DialogNormal"
                            },
                            "soundId": 102001005,
                            "nextItemId": 61
                        }
                    ]
                },
                {
                    "GCOJFIFNBGB": 61,
                    "itemType": "SingleDialog",
                    "nextItemId": 62,
                    "speakerText": {
                        "textId": 1560569197,
                        "textType": "SpeakerKnown"
                    },
                    "dialogs": [
                        {
                            "text": {
                                "textId": 3715438821,
                                "textType": "DialogNormal"
                            },
                            "soundId": 102001006,
                            "nextItemId": 62
                        }
                    ]
                },
                {
                    "GCOJFIFNBGB": 62,
                    "itemType": "SingleDialog",
                    "nextItemId": 63,
                    "speakerText": {
                        "textId": 1356475093,
                        "textType": "SpeakerKnown"
                    },
                    "dialogs": [
                        {
                            "text": {
                                "textId": 4193079533,
                                "textType": "DialogNormal"
                            },
                            "soundId": 102001007,
                            "nextItemId": 63
                        }
                    ]
                },
                {
                    "GCOJFIFNBGB": 63,
                    "itemType": "SingleDialog",
                    "nextItemId": 64,
                    "speakerText": {
                        "textId": 1560569197,
                        "textType": "SpeakerKnown"
                    },
                    "dialogs": [
                        {
                            "text": {
                                "textId": 2465691317,
                                "textType": "DialogNormal"
                            },
                            "soundId": 102001008,
                            "nextItemId": 64
                        }
                    ]
                },
                {
                    "GCOJFIFNBGB": 64,
                    "itemType": "SingleDialog",
                    "nextItemId": 65,
                    "speakerText": {
                        "textId": 1560569197,
                        "textType": "SpeakerKnown"
                    },
                    "dialogs": [
                        {
                            "text": {
                                "textId": 1020444949,
                                "textType": "DialogNormal"
                            },
                            "soundId": 102001009,
                            "nextItemId": 65
                        }
                    ]
                },
                {
                    "GCOJFIFNBGB": 65,
                    "itemType": "SingleDialog",
                    "nextItemId": 66,
                    "speakerText": {
                        "textId": 1356475093,
                        "textType": "SpeakerKnown"
                    },
                    "dialogs": [
                        {
                            "text": {
                                "textId": 1949069189,
                                "textType": "DialogNormal"
                            },
                            "soundId": 102001010,
                            "nextItemId": 66
                        }
                    ]
                },
                {
                    "GCOJFIFNBGB": 66,
                    "itemType": "SingleDialog",
                    "nextItemId": 67,
                    "speakerText": {
                        "textId": 1560569197,
                        "textType": "SpeakerKnown"
                    },
                    "dialogs": [
                        {
                            "text": {
                                "textId": 2368145269,
                                "textType": "DialogNormal"
                            },
                            "soundId": 102001011,
                            "nextItemId": 67
                        }
                    ]
                },
                {
                    "GCOJFIFNBGB": 67,
                    "itemType": "SingleDialog",
                    "nextItemId": 68,
                    "speakerText": {
                        "textId": 1560569197,
                        "textType": "SpeakerKnown"
                    },
                    "dialogs": [
                        {
                            "text": {
                                "textId": 1234377245,
                                "textType": "DialogNormal"
                            },
                            "soundId": 102001012,
                            "nextItemId": 68
                        }
                    ]
                },
                {
                    "GCOJFIFNBGB": 68,
                    "itemType": "SingleDialog",
                    "nextItemId": 69,
                    "speakerText": {
                        "textId": 1356475093,
                        "textType": "SpeakerKnown"
                    },
                    "dialogs": [
                        {
                            "text": {
                                "textId": 1786144965,
                                "textType": "DialogNormal"
                            },
                            "soundId": 102001013,
                            "nextItemId": 69
                        }
                    ]
                },
                {
                    "GCOJFIFNBGB": 69,
                    "itemType": "SingleDialog",
                    "nextItemId": 70,
                    "speakerText": {
                        "textId": 1560569197,
                        "textType": "SpeakerKnown"
                    },
                    "dialogs": [
                        {
                            "text": {
                                "textId": 2681383933,
                                "textType": "DialogNormal"
                            },
                            "soundId": 102001014,
                            "nextItemId": 70
                        }
                    ]
                },
                {
                    "GCOJFIFNBGB": 70,
                    "itemType": "SingleDialog",
                    "nextItemId": 71,
                    "speakerText": {
                        "textId": 1560569197,
                        "textType": "SpeakerKnown"
                    },
                    "dialogs": [
                        {
                            "text": {
                                "textId": 1141297973,
                                "textType": "DialogNormal"
                            },
                            "soundId": 102001015,
                            "nextItemId": 71
                        }
                    ]
                },
                {
                    "GCOJFIFNBGB": 71,
                    "itemType": "SingleDialog",
                    "nextItemId": 72,
                    "speakerText": {
                        "textId": 1356475093,
                        "textType": "SpeakerKnown"
                    },
                    "dialogs": [
                        {
                            "text": {
                                "textId": 1514223221,
                                "textType": "DialogNormal"
                            },
                            "soundId": 102001016,
                            "nextItemId": 72
                        }
                    ]
                },
                {
                    "GCOJFIFNBGB": 72,
                    "itemType": "SingleDialog",
                    "nextItemId": 73,
                    "speakerText": {
                        "textId": 1356475093,
                        "textType": "SpeakerKnown"
                    },
                    "dialogs": [
                        {
                            "text": {
                                "textId": 3263079917,
                                "textType": "DialogNormal"
                            },
                            "soundId": 102001017,
                            "nextItemId": 73
                        }
                    ]
                },
                {
                    "GCOJFIFNBGB": 73,
                    "itemType": "SingleDialog",
                    "nextItemId": 74,
                    "speakerText": {
                        "textId": 1560569197,
                        "textType": "SpeakerKnown"
                    },
                    "dialogs": [
                        {
                            "text": {
                                "textId": 31377765,
                                "textType": "DialogNormal"
                            },
                            "soundId": 102001018,
                            "nextItemId": 74
                        }
                    ]
                },
                {
                    "GCOJFIFNBGB": 74,
                    "itemType": "MultiDialog",
                    "speakerText": {
                        "textId": 1329777769,
                        "textType": "SpeakerPlayer"
                    },
                    "dialogs": [
                        {
                            "text": {
                                "textId": 4190975093,
                                "textType": "DialogNormal"
                            },
                            "soundId": 102001019,
                            "nextItemId": 75
                        },
                        {
                            "text": {
                                "textId": 3406285213,
                                "textType": "DialogNormal"
                            },
                            "soundId": 102001021,
                            "nextItemId": 77
                        }
                    ]
                },
                {
                    "GCOJFIFNBGB": 75,
                    "itemType": "SingleDialog",
                    "nextItemId": 78,
                    "speakerText": {
                        "textId": 1560569197,
                        "textType": "SpeakerKnown"
                    },
                    "dialogs": [
                        {
                            "text": {
                                "textId": 3059654445,
                                "textType": "DialogNormal"
                            },
                            "soundId": 102001020,
                            "nextItemId": 78
                        }
                    ]
                },
                {
                    "GCOJFIFNBGB": 77,
                    "itemType": "SingleDialog",
                    "nextItemId": 78,
                    "speakerText": {
                        "textId": 1560569197,
                        "textType": "SpeakerKnown"
                    },
                    "dialogs": [
                        {
                            "text": {
                                "textId": 2162881237,
                                "textType": "DialogNormal"
                            },
                            "soundId": 102001022,
                            "nextItemId": 78
                        }
                    ]
                },
                {
                    "GCOJFIFNBGB": 78,
                    "itemType": "SingleDialog",
                    "nextItemId": 79,
                    "speakerText": {
                        "textId": 1356475093,
                        "textType": "SpeakerKnown"
                    },
                    "dialogs": [
                        {
                            "text": {
                                "textId": 960392125,
                                "textType": "DialogNormal"
                            },
                            "soundId": 102001023,
                            "nextItemId": 79
                        }
                    ]
                },
                {
                    "GCOJFIFNBGB": 79,
                    "itemType": "SingleDialog",
                    "nextItemId": 80,
                    "speakerText": {
                        "textId": 1560569197,
                        "textType": "SpeakerKnown"
                    },
                    "dialogs": [
                        {
                            "text": {
                                "textId": 3268071181,
                                "textType": "DialogNormal"
                            },
                            "soundId": 102001024,
                            "nextItemId": 80
                        }
                    ]
                },
                {
                    "GCOJFIFNBGB": 80,
                    "itemType": "SingleDialog",
                    "nextItemId": 81,
                    "speakerText": {
                        "textId": 1560569197,
                        "textType": "SpeakerKnown"
                    },
                    "dialogs": [
                        {
                            "text": {
                                "textId": 737512813,
                                "textType": "DialogNormal"
                            },
                            "soundId": 102001025,
                            "nextItemId": 81
                        }
                    ]
                },
                {
                    "GCOJFIFNBGB": 81,
                    "itemType": "SingleDialog",
                    "nextItemId": 82,
                    "speakerText": {
                        "textId": 1356475093,
                        "textType": "SpeakerKnown"
                    },
                    "dialogs": [
                        {
                            "text": {
                                "textId": 3189200133,
                                "textType": "DialogNormal"
                            },
                            "soundId": 102001026,
                            "nextItemId": 82
                        }
                    ]
                },
                {
                    "GCOJFIFNBGB": 82,
                    "itemType": "SingleDialog",
                    "speakerText": {
                        "textId": 1356475093,
                        "textType": "SpeakerKnown"
                    },
                    "dialogs": [
                        {
                            "text": {
                                "textId": 2798130293,
                                "textType": "DialogNormal"
                            },
                            "soundId": 102001027
                        }
                    ]
                }
            ]
        },
        {
            "subQuestTitle": {
                "textId": 735929926,
                "textType": "SubQuestTitle"
            },
            "items": [
                {
                    "GCOJFIFNBGB": 84,
                    "itemType": "SingleDialog",
                    "nextItemId": 85,
                    "speakerText": {
                        "textId": 1356475093,
                        "textType": "SpeakerKnown"
                    },
                    "dialogs": [
                        {
                            "text": {
                                "textId": 2287676237,
                                "textType": "DialogNormal"
                            },
                            "soundId": 102000301,
                            "nextItemId": 85
                        }
                    ]
                },
                {
                    "GCOJFIFNBGB": 85,
                    "itemType": "MultiDialog",
                    "speakerText": {
                        "textId": 1329777769,
                        "textType": "SpeakerPlayer"
                    },
                    "dialogs": [
                        {
                            "text": {
                                "textId": 3862706853,
                                "textType": "DialogNormal"
                            },
                            "soundId": 102000302,
                            "nextItemId": 87
                        },
                        {
                            "text": {
                                "textId": 1574157773,
                                "textType": "DialogNormal"
                            },
                            "soundId": 102000303,
                            "nextItemId": 87
                        }
                    ]
                },
                {
                    "GCOJFIFNBGB": 87,
                    "itemType": "SingleDialog",
                    "nextItemId": 88,
                    "speakerText": {
                        "textId": 1356475093,
                        "textType": "SpeakerKnown"
                    },
                    "dialogs": [
                        {
                            "text": {
                                "textId": 1752184773,
                                "textType": "DialogNormal"
                            },
                            "soundId": 102000304,
                            "nextItemId": 88
                        }
                    ]
                },
                {
                    "GCOJFIFNBGB": 88,
                    "itemType": "SingleDialog",
                    "nextItemId": 89,
                    "speakerText": {
                        "textId": 1356475093,
                        "textType": "SpeakerKnown"
                    },
                    "dialogs": [
                        {
                            "text": {
                                "textId": 1367512669,
                                "textType": "DialogNormal"
                            },
                            "soundId": 102000305,
                            "nextItemId": 89
                        }
                    ]
                },
                {
                    "GCOJFIFNBGB": 89,
                    "itemType": "SingleDialog",
                    "nextItemId": 90,
                    "speakerText": {
                        "textId": 1356475093,
                        "textType": "SpeakerKnown"
                    },
                    "dialogs": [
                        {
                            "text": {
                                "textId": 3650433069,
                                "textType": "DialogNormal"
                            },
                            "soundId": 102000306,
                            "nextItemId": 90
                        }
                    ]
                },
                {
                    "GCOJFIFNBGB": 90,
                    "itemType": "SingleDialog",
                    "nextItemId": 91,
                    "speakerText": {
                        "textId": 1356475093,
                        "textType": "SpeakerKnown"
                    },
                    "dialogs": [
                        {
                            "text": {
                                "textId": 2929903693,
                                "textType": "DialogNormal"
                            },
                            "soundId": 102000307,
                            "nextItemId": 91
                        }
                    ]
                },
                {
                    "GCOJFIFNBGB": 91,
                    "itemType": "SingleDialog",
                    "nextItemId": 92,
                    "speakerText": {
                        "textId": 1356475093,
                        "textType": "SpeakerKnown"
                    },
                    "dialogs": [
                        {
                            "text": {
                                "textId": 1657405381,
                                "textType": "DialogNormal"
                            },
                            "soundId": 102000308,
                            "nextItemId": 92
                        }
                    ]
                },
                {
                    "GCOJFIFNBGB": 92,
                    "itemType": "MultiDialog",
                    "speakerText": {
                        "textId": 1329777769,
                        "textType": "SpeakerPlayer"
                    },
                    "dialogs": [
                        {
                            "text": {
                                "textId": 3505807213,
                                "textType": "DialogNormal"
                            },
                            "soundId": 102000309,
                            "nextItemId": 93
                        },
                        {
                            "text": {
                                "textId": 3871706925,
                                "textType": "DialogNormal"
                            },
                            "soundId": 102000311,
                            "nextItemId": 95
                        }
                    ]
                },
                {
                    "GCOJFIFNBGB": 93,
                    "itemType": "SingleDialog",
                    "speakerText": {
                        "textId": 1356475093,
                        "textType": "SpeakerKnown"
                    },
                    "dialogs": [
                        {
                            "text": {
                                "textId": 2831381149,
                                "textType": "DialogNormal"
                            },
                            "soundId": 102000310
                        }
                    ]
                },
                {
                    "GCOJFIFNBGB": 95,
                    "itemType": "SingleDialog",
                    "nextItemId": 96,
                    "speakerText": {
                        "textId": 1356475093,
                        "textType": "SpeakerKnown"
                    },
                    "dialogs": [
                        {
                            "text": {
                                "textId": 2492717485,
                                "textType": "DialogNormal"
                            },
                            "soundId": 102000312,
                            "nextItemId": 96
                        }
                    ]
                },
                {
                    "GCOJFIFNBGB": 96,
                    "itemType": "SingleDialog",
                    "speakerText": {
                        "textId": 1356475093,
                        "textType": "SpeakerKnown"
                    },
                    "dialogs": [
                        {
                            "text": {
                                "textId": 600397125,
                                "textType": "DialogNormal"
                            },
                            "soundId": 102000313
                        }
                    ]
                }
            ]
        },
        {
            "subQuestTitle": {
                "textId": 3077923526,
                "textType": "SubQuestTitle"
            }
        },
        {
            "subQuestTitle": {
                "textId": 4230565822,
                "textType": "SubQuestTitle"
            },
            "items": [
                {
                    "GCOJFIFNBGB": 99,
                    "itemType": "SingleDialog",
                    "nextItemId": 100,
                    "speakerText": {
                        "textId": 1356475093,
                        "textType": "SpeakerKnown"
                    },
                    "dialogs": [
                        {
                            "text": {
                                "textId": 2101494117,
                                "textType": "DialogNormal"
                            },
                            "soundId": 102000401,
                            "nextItemId": 100
                        }
                    ]
                },
                {
                    "GCOJFIFNBGB": 100,
                    "itemType": "SingleDialog",
                    "nextItemId": 101,
                    "speakerText": {
                        "textId": 1356475093,
                        "textType": "SpeakerKnown"
                    },
                    "dialogs": [
                        {
                            "text": {
                                "textId": 3612566469,
                                "textType": "DialogNormal"
                            },
                            "soundId": 102000402,
                            "nextItemId": 101
                        }
                    ]
                },
                {
                    "GCOJFIFNBGB": 101,
                    "itemType": "SingleDialog",
                    "nextItemId": 102,
                    "speakerText": {
                        "textId": 4031412021,
                        "textType": "SpeakerKnown"
                    },
                    "dialogs": [
                        {
                            "text": {
                                "textId": 543308869,
                                "textType": "DialogNormal"
                            },
                            "soundId": 102000403,
                            "nextItemId": 102
                        }
                    ]
                },
                {
                    "GCOJFIFNBGB": 102,
                    "itemType": "SingleDialog",
                    "nextItemId": 103,
                    "speakerText": {
                        "textId": 4031412021,
                        "textType": "SpeakerKnown"
                    },
                    "dialogs": [
                        {
                            "text": {
                                "textId": 1121135181,
                                "textType": "DialogNormal"
                            },
                            "soundId": 102000404,
                            "nextItemId": 103
                        }
                    ]
                },
                {
                    "GCOJFIFNBGB": 103,
                    "itemType": "SingleDialog",
                    "nextItemId": 104,
                    "speakerText": {
                        "textId": 1356475093,
                        "textType": "SpeakerKnown"
                    },
                    "dialogs": [
                        {
                            "text": {
                                "textId": 123030901,
                                "textType": "DialogNormal"
                            },
                            "soundId": 102000405,
                            "nextItemId": 104
                        }
                    ]
                },
                {
                    "GCOJFIFNBGB": 104,
                    "itemType": "SingleDialog",
                    "nextItemId": 105,
                    "speakerText": {
                        "textId": 1356475093,
                        "textType": "SpeakerKnown"
                    },
                    "dialogs": [
                        {
                            "text": {
                                "textId": 2957380021,
                                "textType": "DialogNormal"
                            },
                            "soundId": 102000406,
                            "nextItemId": 105
                        }
                    ]
                },
                {
                    "GCOJFIFNBGB": 105,
                    "itemType": "SingleDialog",
                    "nextItemId": 106,
                    "speakerText": {
                        "textId": 4031412021,
                        "textType": "SpeakerKnown"
                    },
                    "dialogs": [
                        {
                            "text": {
                                "textId": 1995621269,
                                "textType": "DialogNormal"
                            },
                            "soundId": 102000407,
                            "nextItemId": 106
                        }
                    ]
                },
                {
                    "GCOJFIFNBGB": 106,
                    "itemType": "SingleDialog",
                    "nextItemId": 107,
                    "speakerText": {
                        "textId": 4031412021,
                        "textType": "SpeakerKnown"
                    },
                    "dialogs": [
                        {
                            "text": {
                                "textId": 3723879061,
                                "textType": "DialogNormal"
                            },
                            "soundId": 102000408,
                            "nextItemId": 107
                        }
                    ]
                },
                {
                    "GCOJFIFNBGB": 107,
                    "itemType": "SingleDialog",
                    "nextItemId": 108,
                    "speakerText": {
                        "textId": 4031412021,
                        "textType": "SpeakerKnown"
                    },
                    "dialogs": [
                        {
                            "text": {
                                "textId": 254505637,
                                "textType": "DialogNormal"
                            },
                            "soundId": 102000409,
                            "nextItemId": 108
                        }
                    ]
                },
                {
                    "GCOJFIFNBGB": 108,
                    "itemType": "SingleDialog",
                    "nextItemId": 109,
                    "speakerText": {
                        "textId": 4031412021,
                        "textType": "SpeakerKnown"
                    },
                    "dialogs": [
                        {
                            "text": {
                                "textId": 1250334637,
                                "textType": "DialogNormal"
                            },
                            "soundId": 102000410,
                            "nextItemId": 109
                        }
                    ]
                },
                {
                    "GCOJFIFNBGB": 109,
                    "itemType": "SingleDialog",
                    "nextItemId": 110,
                    "speakerText": {
                        "textId": 4031412021,
                        "textType": "SpeakerKnown"
                    },
                    "dialogs": [
                        {
                            "text": {
                                "textId": 3064201909,
                                "textType": "DialogNormal"
                            },
                            "soundId": 102000411,
                            "nextItemId": 110
                        }
                    ]
                },
                {
                    "GCOJFIFNBGB": 110,
                    "itemType": "SingleDialog",
                    "nextItemId": 111,
                    "speakerText": {
                        "textId": 1356475093,
                        "textType": "SpeakerKnown"
                    },
                    "dialogs": [
                        {
                            "text": {
                                "textId": 4029634485,
                                "textType": "DialogNormal"
                            },
                            "soundId": 102000412,
                            "nextItemId": 111
                        }
                    ]
                },
                {
                    "GCOJFIFNBGB": 111,
                    "itemType": "MultiDialog",
                    "speakerText": {
                        "textId": 1329777769,
                        "textType": "SpeakerPlayer"
                    },
                    "dialogs": [
                        {
                            "text": {
                                "textId": 1405388877,
                                "textType": "DialogNormal"
                            },
                            "soundId": 102000413,
                            "nextItemId": 113
                        },
                        {
                            "text": {
                                "textId": 2563975813,
                                "textType": "DialogNormal"
                            },
                            "soundId": 102000414,
                            "nextItemId": 113
                        }
                    ]
                },
                {
                    "GCOJFIFNBGB": 113,
                    "itemType": "SingleDialog",
                    "nextItemId": 114,
                    "speakerText": {
                        "textId": 1356475093,
                        "textType": "SpeakerKnown"
                    },
                    "dialogs": [
                        {
                            "text": {
                                "textId": 2006377237,
                                "textType": "DialogNormal"
                            },
                            "soundId": 102000415,
                            "nextItemId": 114
                        }
                    ]
                },
                {
                    "GCOJFIFNBGB": 114,
                    "itemType": "SingleDialog",
                    "nextItemId": 115,
                    "speakerText": {
                        "textId": 4031412021,
                        "textType": "SpeakerKnown"
                    },
                    "dialogs": [
                        {
                            "text": {
                                "textId": 1730071781,
                                "textType": "DialogNormal"
                            },
                            "soundId": 102000416,
                            "nextItemId": 115
                        }
                    ]
                },
                {
                    "GCOJFIFNBGB": 115,
                    "itemType": "SingleDialog",
                    "speakerText": {
                        "textId": 4031412021,
                        "textType": "SpeakerKnown"
                    },
                    "dialogs": [
                        {
                            "text": {
                                "textId": 3484271413,
                                "textType": "DialogNormal"
                            },
                            "soundId": 102000417
                        }
                    ]
                }
            ]
        },
        {
            "subQuestTitle": {
                "textId": 2995575702,
                "textType": "SubQuestTitle"
            },
            "items": [
                {
                    "GCOJFIFNBGB": 117,
                    "itemType": "TextLeft",
                    "texts": [
                        {
                            "textId": 3562687221,
                            "textType": "Narratage"
                        }
                    ]
                }
            ]
        },
        {
            "subQuestTitle": {
                "textId": 2269223142,
                "textType": "SubQuestTitle"
            },
            "items": [
                {
                    "GCOJFIFNBGB": 119,
                    "itemType": "SingleDialog",
                    "nextItemId": 120,
                    "speakerText": {
                        "textId": 3666435869,
                        "textType": "SpeakerKnown"
                    },
                    "dialogs": [
                        {
                            "text": {
                                "textId": 2512762045,
                                "textType": "DialogNormal"
                            },
                            "soundId": 102000601,
                            "nextItemId": 120
                        }
                    ]
                },
                {
                    "GCOJFIFNBGB": 120,
                    "itemType": "SingleDialog",
                    "nextItemId": 121,
                    "speakerText": {
                        "textId": 1329777769,
                        "textType": "SpeakerPlayer"
                    },
                    "dialogs": [
                        {
                            "text": {
                                "textId": 2225116437,
                                "textType": "DialogNormal"
                            },
                            "soundId": 102000602,
                            "nextItemId": 121
                        }
                    ]
                },
                {
                    "GCOJFIFNBGB": 121,
                    "itemType": "SingleDialog",
                    "nextItemId": 122,
                    "speakerText": {
                        "textId": 1356475093,
                        "textType": "SpeakerKnown"
                    },
                    "dialogs": [
                        {
                            "text": {
                                "textId": 2341409421,
                                "textType": "DialogNormal"
                            },
                            "soundId": 102000603,
                            "nextItemId": 122
                        }
                    ]
                },
                {
                    "GCOJFIFNBGB": 122,
                    "itemType": "SingleDialog",
                    "nextItemId": 123,
                    "speakerText": {
                        "textId": 1356475093,
                        "textType": "SpeakerKnown"
                    },
                    "dialogs": [
                        {
                            "text": {
                                "textId": 2081805813,
                                "textType": "DialogNormal"
                            },
                            "soundId": 102000604,
                            "nextItemId": 123
                        }
                    ]
                },
                {
                    "GCOJFIFNBGB": 123,
                    "itemType": "SingleDialog",
                    "nextItemId": 124,
                    "speakerText": {
                        "textId": 3037780997,
                        "textType": "SpeakerKnown"
                    },
                    "dialogs": [
                        {
                            "text": {
                                "textId": 3633694813,
                                "textType": "DialogNormal"
                            },
                            "soundId": 102000605,
                            "nextItemId": 124
                        }
                    ]
                },
                {
                    "GCOJFIFNBGB": 124,
                    "itemType": "SingleDialog",
                    "nextItemId": 125,
                    "speakerText": {
                        "textId": 868813413,
                        "textType": "SpeakerKnown"
                    },
                    "dialogs": [
                        {
                            "text": {
                                "textId": 1022127325,
                                "textType": "DialogNormal"
                            },
                            "soundId": 102000606,
                            "nextItemId": 125
                        }
                    ]
                },
                {
                    "GCOJFIFNBGB": 125,
                    "itemType": "SingleDialog",
                    "nextItemId": 126,
                    "speakerText": {
                        "textId": 1356475093,
                        "textType": "SpeakerKnown"
                    },
                    "dialogs": [
                        {
                            "text": {
                                "textId": 3855121685,
                                "textType": "DialogNormal"
                            },
                            "soundId": 102000607,
                            "nextItemId": 126
                        }
                    ]
                },
                {
                    "GCOJFIFNBGB": 126,
                    "itemType": "SingleDialog",
                    "nextItemId": 127,
                    "speakerText": {
                        "textId": 1656021821,
                        "textType": "SpeakerKnown"
                    },
                    "dialogs": [
                        {
                            "text": {
                                "textId": 3552409205,
                                "textType": "DialogNormal"
                            },
                            "soundId": 102000608,
                            "nextItemId": 127
                        }
                    ]
                },
                {
                    "GCOJFIFNBGB": 127,
                    "itemType": "SingleDialog",
                    "nextItemId": 128,
                    "speakerText": {
                        "textId": 2677836901,
                        "textType": "SpeakerKnown"
                    },
                    "dialogs": [
                        {
                            "text": {
                                "textId": 2427039029,
                                "textType": "DialogNormal"
                            },
                            "soundId": 102000609,
                            "nextItemId": 128
                        }
                    ]
                },
                {
                    "GCOJFIFNBGB": 128,
                    "itemType": "MultiDialog",
                    "speakerText": {
                        "textId": 1329777769,
                        "textType": "SpeakerPlayer"
                    },
                    "dialogs": [
                        {
                            "text": {
                                "textId": 716115701,
                                "textType": "DialogNormal"
                            },
                            "soundId": 102000610,
                            "nextItemId": 130
                        },
                        {
                            "text": {
                                "textId": 3231699413,
                                "textType": "DialogNormal"
                            },
                            "soundId": 102000611,
                            "nextItemId": 130
                        }
                    ]
                },
                {
                    "GCOJFIFNBGB": 130,
                    "itemType": "SingleDialog",
                    "nextItemId": 131,
                    "speakerText": {
                        "textId": 763258717,
                        "textType": "SpeakerKnown"
                    },
                    "dialogs": [
                        {
                            "text": {
                                "textId": 369930117,
                                "textType": "DialogNormal"
                            },
                            "soundId": 102000612,
                            "nextItemId": 131
                        }
                    ]
                },
                {
                    "GCOJFIFNBGB": 131,
                    "itemType": "SingleDialog",
                    "nextItemId": 132,
                    "speakerText": {
                        "textId": 2574574469,
                        "textType": "SpeakerKnown"
                    },
                    "dialogs": [
                        {
                            "text": {
                                "textId": 2535573709,
                                "textType": "DialogNormal"
                            },
                            "soundId": 102000613,
                            "nextItemId": 132
                        }
                    ]
                },
                {
                    "GCOJFIFNBGB": 132,
                    "itemType": "SingleDialog",
                    "nextItemId": 133,
                    "speakerText": {
                        "textId": 1648156229,
                        "textType": "SpeakerKnown"
                    },
                    "dialogs": [
                        {
                            "text": {
                                "textId": 1478050565,
                                "textType": "DialogNormal"
                            },
                            "soundId": 102000614,
                            "nextItemId": 133
                        }
                    ]
                },
                {
                    "GCOJFIFNBGB": 133,
                    "itemType": "MultiDialog",
                    "speakerText": {
                        "textId": 1329777769,
                        "textType": "SpeakerPlayer"
                    },
                    "dialogs": [
                        {
                            "text": {
                                "textId": 4191410189,
                                "textType": "DialogNormal"
                            },
                            "soundId": 102000615,
                            "nextItemId": 136
                        },
                        {
                            "text": {
                                "textId": 2244229365,
                                "textType": "DialogNormal"
                            },
                            "soundId": 102000616,
                            "nextItemId": 135
                        }
                    ]
                },
                {
                    "GCOJFIFNBGB": 135,
                    "itemType": "SingleDialog",
                    "nextItemId": 136,
                    "speakerText": {
                        "textId": 1356475093,
                        "textType": "SpeakerKnown"
                    },
                    "dialogs": [
                        {
                            "text": {
                                "textId": 2796014733,
                                "textType": "DialogNormal"
                            },
                            "soundId": 102000617,
                            "nextItemId": 136
                        }
                    ]
                },
                {
                    "GCOJFIFNBGB": 136,
                    "itemType": "SingleDialog",
                    "nextItemId": 137,
                    "speakerText": {
                        "textId": 1648156229,
                        "textType": "SpeakerKnown"
                    },
                    "dialogs": [
                        {
                            "text": {
                                "textId": 3384785285,
                                "textType": "DialogNormal"
                            },
                            "soundId": 102000618,
                            "nextItemId": 137
                        }
                    ]
                },
                {
                    "GCOJFIFNBGB": 137,
                    "itemType": "SingleDialog",
                    "nextItemId": 138,
                    "speakerText": {
                        "textId": 1356475093,
                        "textType": "SpeakerKnown"
                    },
                    "dialogs": [
                        {
                            "text": {
                                "textId": 1015395269,
                                "textType": "DialogNormal"
                            },
                            "soundId": 102000619,
                            "nextItemId": 138
                        }
                    ]
                },
                {
                    "GCOJFIFNBGB": 138,
                    "itemType": "SingleDialog",
                    "nextItemId": 139,
                    "speakerText": {
                        "textId": 1356475093,
                        "textType": "SpeakerKnown"
                    },
                    "dialogs": [
                        {
                            "text": {
                                "textId": 3014967789,
                                "textType": "DialogNormal"
                            },
                            "soundId": 102000620,
                            "nextItemId": 139
                        }
                    ]
                },
                {
                    "GCOJFIFNBGB": 139,
                    "itemType": "SingleDialog",
                    "nextItemId": 140,
                    "speakerText": {
                        "textId": 1648156229,
                        "textType": "SpeakerKnown"
                    },
                    "dialogs": [
                        {
                            "text": {
                                "textId": 1527339901,
                                "textType": "DialogNormal"
                            },
                            "soundId": 102000621,
                            "nextItemId": 140
                        }
                    ]
                },
                {
                    "GCOJFIFNBGB": 140,
                    "itemType": "SingleDialog",
                    "nextItemId": 141,
                    "speakerText": {
                        "textId": 1648156229,
                        "textType": "SpeakerKnown"
                    },
                    "dialogs": [
                        {
                            "text": {
                                "textId": 1565679709,
                                "textType": "DialogNormal"
                            },
                            "soundId": 102000622,
                            "nextItemId": 141
                        }
                    ]
                },
                {
                    "GCOJFIFNBGB": 141,
                    "itemType": "SingleDialog",
                    "nextItemId": 142,
                    "speakerText": {
                        "textId": 1329777769,
                        "textType": "SpeakerPlayer"
                    },
                    "dialogs": [
                        {
                            "text": {
                                "textId": 2102113805,
                                "textType": "DialogNormal"
                            },
                            "soundId": 102000623,
                            "nextItemId": 142
                        }
                    ]
                },
                {
                    "GCOJFIFNBGB": 142,
                    "itemType": "SingleDialog",
                    "nextItemId": 143,
                    "speakerText": {
                        "textId": 1648156229,
                        "textType": "SpeakerKnown"
                    },
                    "dialogs": [
                        {
                            "text": {
                                "textId": 2406726613,
                                "textType": "DialogNormal"
                            },
                            "soundId": 102000624,
                            "nextItemId": 143
                        }
                    ]
                },
                {
                    "GCOJFIFNBGB": 143,
                    "itemType": "SingleDialog",
                    "nextItemId": 144,
                    "speakerText": {
                        "textId": 1356475093,
                        "textType": "SpeakerKnown"
                    },
                    "dialogs": [
                        {
                            "text": {
                                "textId": 2794197013,
                                "textType": "DialogNormal"
                            },
                            "soundId": 102000625,
                            "nextItemId": 144
                        }
                    ]
                },
                {
                    "GCOJFIFNBGB": 144,
                    "itemType": "MultiDialog",
                    "speakerText": {
                        "textId": 1329777769,
                        "textType": "SpeakerPlayer"
                    },
                    "dialogs": [
                        {
                            "text": {
                                "textId": 2698031173,
                                "textType": "DialogNormal"
                            },
                            "soundId": 102000626,
                            "nextItemId": 145
                        },
                        {
                            "text": {
                                "textId": 3238812637,
                                "textType": "DialogNormal"
                            },
                            "soundId": 102000628,
                            "nextItemId": 147
                        }
                    ]
                },
                {
                    "GCOJFIFNBGB": 145,
                    "itemType": "SingleDialog",
                    "nextItemId": 149,
                    "speakerText": {
                        "textId": 1356475093,
                        "textType": "SpeakerKnown"
                    },
                    "dialogs": [
                        {
                            "text": {
                                "textId": 44709709,
                                "textType": "DialogNormal"
                            },
                            "soundId": 102000627,
                            "nextItemId": 149
                        }
                    ]
                },
                {
                    "GCOJFIFNBGB": 147,
                    "itemType": "SingleDialog",
                    "nextItemId": 148,
                    "speakerText": {
                        "textId": 1356475093,
                        "textType": "SpeakerKnown"
                    },
                    "dialogs": [
                        {
                            "text": {
                                "textId": 111490053,
                                "textType": "DialogNormal"
                            },
                            "soundId": 102000629,
                            "nextItemId": 148
                        }
                    ]
                },
                {
                    "GCOJFIFNBGB": 148,
                    "itemType": "SingleDialog",
                    "nextItemId": 149,
                    "speakerText": {
                        "textId": 1356475093,
                        "textType": "SpeakerKnown"
                    },
                    "dialogs": [
                        {
                            "text": {
                                "textId": 3807991661,
                                "textType": "DialogNormal"
                            },
                            "soundId": 102000630,
                            "nextItemId": 149
                        }
                    ]
                },
                {
                    "GCOJFIFNBGB": 149,
                    "itemType": "SingleDialog",
                    "nextItemId": 150,
                    "speakerText": {
                        "textId": 1356475093,
                        "textType": "SpeakerKnown"
                    },
                    "dialogs": [
                        {
                            "text": {
                                "textId": 3832372429,
                                "textType": "DialogNormal"
                            },
                            "soundId": 102000631,
                            "nextItemId": 150
                        }
                    ]
                },
                {
                    "GCOJFIFNBGB": 150,
                    "itemType": "SingleDialog",
                    "nextItemId": 151,
                    "speakerText": {
                        "textId": 1648156229,
                        "textType": "SpeakerKnown"
                    },
                    "dialogs": [
                        {
                            "text": {
                                "textId": 2815862581,
                                "textType": "DialogNormal"
                            },
                            "soundId": 102000632,
                            "nextItemId": 151
                        }
                    ]
                },
                {
                    "GCOJFIFNBGB": 151,
                    "itemType": "SingleDialog",
                    "nextItemId": 152,
                    "speakerText": {
                        "textId": 1648156229,
                        "textType": "SpeakerKnown"
                    },
                    "dialogs": [
                        {
                            "text": {
                                "textId": 2436834237,
                                "textType": "DialogNormal"
                            },
                            "soundId": 102000633,
                            "nextItemId": 152
                        }
                    ]
                },
                {
                    "GCOJFIFNBGB": 152,
                    "itemType": "SingleDialog",
                    "nextItemId": 153,
                    "speakerText": {
                        "textId": 1648156229,
                        "textType": "SpeakerKnown"
                    },
                    "dialogs": [
                        {
                            "text": {
                                "textId": 3288245189,
                                "textType": "DialogNormal"
                            },
                            "soundId": 102000634,
                            "nextItemId": 153
                        }
                    ]
                },
                {
                    "GCOJFIFNBGB": 153,
                    "itemType": "SingleDialog",
                    "nextItemId": 154,
                    "speakerText": {
                        "textId": 1356475093,
                        "textType": "SpeakerKnown"
                    },
                    "dialogs": [
                        {
                            "text": {
                                "textId": 4239153589,
                                "textType": "DialogNormal"
                            },
                            "soundId": 102000635,
                            "nextItemId": 154
                        }
                    ]
                },
                {
                    "GCOJFIFNBGB": 154,
                    "itemType": "SingleDialog",
                    "speakerText": {
                        "textId": 1648156229,
                        "textType": "SpeakerKnown"
                    },
                    "dialogs": [
                        {
                            "text": {
                                "textId": 470281653,
                                "textType": "DialogNormal"
                            },
                            "soundId": 102000636
                        }
                    ]
                }
            ]
        }
    ]
}