{
    "mainQuestId": 11024,
    "questType": "LQ",
    "mainQuestTitle": {
        "textId": 2976371791,
        "textType": "MainQuestTitle"
    },
    "mainQuestDesp": {
        "textId": 2761580102,
        "textType": "MainQuestDesp"
    },
    "chapterTitle": {
        "textId": 3812225521,
        "textType": "ChapterTitle"
    },
    "chapterNum": {
        "textId": 1378897258,
        "textType": "ChapterNum"
    },
    "subQuests": [
        {
            "subQuestTitle": {
                "textId": 302663364,
                "textType": "SubQuestTitle"
            },
            "items": [
                {
                    "GCOJFIFNBGB": 2,
                    "itemType": "SingleDialog",
                    "nextItemId": 3,
                    "speakerText": {
                        "textId": 3122432413,
                        "textType": "SpeakerKnown"
                    },
                    "dialogs": [
                        {
                            "text": {
                                "textId": 1034761882,
                                "textType": "DialogNormal"
                            },
                            "soundId": 110240101,
                            "nextItemId": 3
                        }
                    ]
                },
                {
                    "GCOJFIFNBGB": 3,
                    "itemType": "SingleDialog",
                    "nextItemId": 4,
                    "speakerText": {
                        "textId": 3122432413,
                        "textType": "SpeakerKnown"
                    },
                    "dialogs": [
                        {
                            "text": {
                                "textId": 914339978,
                                "textType": "DialogNormal"
                            },
                            "soundId": 110240102,
                            "nextItemId": 4
                        }
                    ]
                },
                {
                    "GCOJFIFNBGB": 4,
                    "itemType": "SingleDialog",
                    "nextItemId": 5,
                    "speakerText": {
                        "textId": 3122432413,
                        "textType": "SpeakerKnown"
                    },
                    "dialogs": [
                        {
                            "text": {
                                "textId": 3899053650,
                                "textType": "DialogNormal"
                            },
                            "soundId": 110240103,
                            "nextItemId": 5
                        }
                    ]
                },
                {
                    "GCOJFIFNBGB": 5,
                    "itemType": "SingleDialog",
                    "nextItemId": 6,
                    "speakerText": {
                        "textId": 1329777769,
                        "textType": "SpeakerPlayer"
                    },
                    "dialogs": [
                        {
                            "text": {
                                "textId": 1574744794,
                                "textType": "DialogNormal"
                            },
                            "soundId": 110240104,
                            "nextItemId": 6
                        }
                    ]
                },
                {
                    "GCOJFIFNBGB": 6,
                    "itemType": "SingleDialog",
                    "nextItemId": 7,
                    "speakerText": {
                        "textId": 3122432413,
                        "textType": "SpeakerKnown"
                    },
                    "dialogs": [
                        {
                            "text": {
                                "textId": 3862523506,
                                "textType": "DialogNormal"
                            },
                            "soundId": 110240105,
                            "nextItemId": 7
                        }
                    ]
                },
                {
                    "GCOJFIFNBGB": 7,
                    "itemType": "SingleDialog",
                    "nextItemId": 8,
                    "speakerText": {
                        "textId": 3122432413,
                        "textType": "SpeakerKnown"
                    },
                    "dialogs": [
                        {
                            "text": {
                                "textId": 64591138,
                                "textType": "DialogNormal"
                            },
                            "soundId": 110240106,
                            "nextItemId": 8
                        }
                    ]
                },
                {
                    "GCOJFIFNBGB": 8,
                    "itemType": "SingleDialog",
                    "nextItemId": 9,
                    "speakerText": {
                        "textId": 3122432413,
                        "textType": "SpeakerKnown"
                    },
                    "dialogs": [
                        {
                            "text": {
                                "textId": 1897993906,
                                "textType": "DialogNormal"
                            },
                            "soundId": 110240107,
                            "nextItemId": 9
                        }
                    ]
                },
                {
                    "GCOJFIFNBGB": 9,
                    "itemType": "SingleDialog",
                    "nextItemId": 10,
                    "speakerText": {
                        "textId": 3122432413,
                        "textType": "SpeakerKnown"
                    },
                    "dialogs": [
                        {
                            "text": {
                                "textId": 1363487946,
                                "textType": "DialogNormal"
                            },
                            "soundId": 110240108,
                            "nextItemId": 10
                        }
                    ]
                },
                {
                    "GCOJFIFNBGB": 10,
                    "itemType": "SingleDialog",
                    "nextItemId": 11,
                    "speakerText": {
                        "textId": 1356475093,
                        "textType": "SpeakerKnown"
                    },
                    "dialogs": [
                        {
                            "text": {
                                "textId": 2321849850,
                                "textType": "DialogNormal"
                            },
                            "soundId": 110240109,
                            "nextItemId": 11
                        }
                    ]
                },
                {
                    "GCOJFIFNBGB": 11,
                    "itemType": "SingleDialog",
                    "nextItemId": 12,
                    "speakerText": {
                        "textId": 3122432413,
                        "textType": "SpeakerKnown"
                    },
                    "dialogs": [
                        {
                            "text": {
                                "textId": 1898121354,
                                "textType": "DialogNormal"
                            },
                            "soundId": 110240110,
                            "nextItemId": 12
                        }
                    ]
                },
                {
                    "GCOJFIFNBGB": 12,
                    "itemType": "SingleDialog",
                    "nextItemId": 13,
                    "speakerText": {
                        "textId": 3122432413,
                        "textType": "SpeakerKnown"
                    },
                    "dialogs": [
                        {
                            "text": {
                                "textId": 1259469146,
                                "textType": "DialogNormal"
                            },
                            "soundId": 110240111,
                            "nextItemId": 13
                        }
                    ]
                },
                {
                    "GCOJFIFNBGB": 13,
                    "itemType": "SingleDialog",
                    "nextItemId": 14,
                    "speakerText": {
                        "textId": 3122432413,
                        "textType": "SpeakerKnown"
                    },
                    "dialogs": [
                        {
                            "text": {
                                "textId": 731468634,
                                "textType": "DialogNormal"
                            },
                            "soundId": 110240112,
                            "nextItemId": 14
                        }
                    ]
                },
                {
                    "GCOJFIFNBGB": 14,
                    "itemType": "MultiDialog",
                    "speakerText": {
                        "textId": 1329777769,
                        "textType": "SpeakerPlayer"
                    },
                    "dialogs": [
                        {
                            "text": {
                                "textId": 1068905594,
                                "textType": "DialogNormal"
                            },
                            "soundId": 110240113,
                            "nextItemId": 15
                        },
                        {
                            "text": {
                                "textId": 3002406162,
                                "textType": "DialogNormal"
                            },
                            "soundId": 110240115,
                            "nextItemId": 17
                        }
                    ]
                },
                {
                    "GCOJFIFNBGB": 15,
                    "itemType": "SingleDialog",
                    "nextItemId": 19,
                    "speakerText": {
                        "textId": 1356475093,
                        "textType": "SpeakerKnown"
                    },
                    "dialogs": [
                        {
                            "text": {
                                "textId": 1485868050,
                                "textType": "DialogNormal"
                            },
                            "soundId": 110240114,
                            "nextItemId": 19
                        }
                    ]
                },
                {
                    "GCOJFIFNBGB": 17,
                    "itemType": "SingleDialog",
                    "nextItemId": 18,
                    "speakerText": {
                        "textId": 3122432413,
                        "textType": "SpeakerKnown"
                    },
                    "dialogs": [
                        {
                            "text": {
                                "textId": 3814986626,
                                "textType": "DialogNormal"
                            },
                            "soundId": 110240116,
                            "nextItemId": 18
                        }
                    ]
                },
                {
                    "GCOJFIFNBGB": 18,
                    "itemType": "SingleDialog",
                    "nextItemId": 19,
                    "speakerText": {
                        "textId": 3122432413,
                        "textType": "SpeakerKnown"
                    },
                    "dialogs": [
                        {
                            "text": {
                                "textId": 1581743354,
                                "textType": "DialogNormal"
                            },
                            "soundId": 110240117,
                            "nextItemId": 19
                        }
                    ]
                },
                {
                    "GCOJFIFNBGB": 19,
                    "itemType": "SingleDialog",
                    "nextItemId": 20,
                    "speakerText": {
                        "textId": 3122432413,
                        "textType": "SpeakerKnown"
                    },
                    "dialogs": [
                        {
                            "text": {
                                "textId": 1929396530,
                                "textType": "DialogNormal"
                            },
                            "soundId": 110240118,
                            "nextItemId": 20
                        }
                    ]
                },
                {
                    "GCOJFIFNBGB": 20,
                    "itemType": "SingleDialog",
                    "nextItemId": 21,
                    "speakerText": {
                        "textId": 1356475093,
                        "textType": "SpeakerKnown"
                    },
                    "dialogs": [
                        {
                            "text": {
                                "textId": 1182784538,
                                "textType": "DialogNormal"
                            },
                            "soundId": 110240119,
                            "nextItemId": 21
                        }
                    ]
                },
                {
                    "GCOJFIFNBGB": 21,
                    "itemType": "SingleDialog",
                    "nextItemId": 22,
                    "speakerText": {
                        "textId": 3122432413,
                        "textType": "SpeakerKnown"
                    },
                    "dialogs": [
                        {
                            "text": {
                                "textId": 3994337258,
                                "textType": "DialogNormal"
                            },
                            "soundId": 110240120,
                            "nextItemId": 22
                        }
                    ]
                },
                {
                    "GCOJFIFNBGB": 22,
                    "itemType": "SingleDialog",
                    "nextItemId": 23,
                    "speakerText": {
                        "textId": 3122432413,
                        "textType": "SpeakerKnown"
                    },
                    "dialogs": [
                        {
                            "text": {
                                "textId": 1328490978,
                                "textType": "DialogNormal"
                            },
                            "soundId": 110240121,
                            "nextItemId": 23
                        }
                    ]
                },
                {
                    "GCOJFIFNBGB": 23,
                    "itemType": "TextLeft",
                    "texts": [
                        {
                            "textId": 2142142597,
                            "textType": "Narratage"
                        }
                    ]
                }
            ]
        }
    ]
}