{
    "mainQuestId": 12030,
    "questType": "LQ",
    "mainQuestTitle": {
        "textId": 3321282527,
        "textType": "MainQuestTitle"
    },
    "mainQuestDesp": {
        "textId": 4247140958,
        "textType": "MainQuestDesp"
    },
    "chapterTitle": {
        "textId": 3761612697,
        "textType": "ChapterTitle"
    },
    "chapterNum": {
        "textId": 2058610194,
        "textType": "ChapterNum"
    },
    "subQuests": [
        {
            "subQuestTitle": {
                "textId": 1463349100,
                "textType": "SubQuestTitle"
            },
            "items": [
                {
                    "GCOJFIFNBGB": 2,
                    "itemType": "SingleDialog",
                    "nextItemId": 3,
                    "speakerText": {
                        "textId": 1356475093,
                        "textType": "SpeakerKnown"
                    },
                    "dialogs": [
                        {
                            "text": {
                                "textId": 1629719058,
                                "textType": "DialogNormal"
                            },
                            "soundId": 120300101,
                            "nextItemId": 3
                        }
                    ]
                },
                {
                    "GCOJFIFNBGB": 3,
                    "itemType": "SingleDialog",
                    "nextItemId": 4,
                    "speakerText": {
                        "textId": 594877709,
                        "textType": "SpeakerKnown"
                    },
                    "dialogs": [
                        {
                            "text": {
                                "textId": 1555422226,
                                "textType": "DialogNormal"
                            },
                            "soundId": 120300102,
                            "nextItemId": 4
                        }
                    ]
                },
                {
                    "GCOJFIFNBGB": 4,
                    "itemType": "SingleDialog",
                    "nextItemId": 5,
                    "speakerText": {
                        "textId": 1356475093,
                        "textType": "SpeakerKnown"
                    },
                    "dialogs": [
                        {
                            "text": {
                                "textId": 675714930,
                                "textType": "DialogNormal"
                            },
                            "soundId": 120300103,
                            "nextItemId": 5
                        }
                    ]
                },
                {
                    "GCOJFIFNBGB": 5,
                    "itemType": "SingleDialog",
                    "nextItemId": 6,
                    "speakerText": {
                        "textId": 594877709,
                        "textType": "SpeakerKnown"
                    },
                    "dialogs": [
                        {
                            "text": {
                                "textId": 4159702314,
                                "textType": "DialogNormal"
                            },
                            "soundId": 120300104,
                            "nextItemId": 6
                        }
                    ]
                },
                {
                    "GCOJFIFNBGB": 6,
                    "itemType": "SingleDialog",
                    "nextItemId": 7,
                    "speakerText": {
                        "textId": 594877709,
                        "textType": "SpeakerKnown"
                    },
                    "dialogs": [
                        {
                            "text": {
                                "textId": 625154434,
                                "textType": "DialogNormal"
                            },
                            "soundId": 120300105,
                            "nextItemId": 7
                        }
                    ]
                },
                {
                    "GCOJFIFNBGB": 7,
                    "itemType": "SingleDialog",
                    "nextItemId": 8,
                    "speakerText": {
                        "textId": 1356475093,
                        "textType": "SpeakerKnown"
                    },
                    "dialogs": [
                        {
                            "text": {
                                "textId": 2948735986,
                                "textType": "DialogNormal"
                            },
                            "soundId": 120300106,
                            "nextItemId": 8
                        }
                    ]
                },
                {
                    "GCOJFIFNBGB": 8,
                    "itemType": "SingleDialog",
                    "nextItemId": 9,
                    "speakerText": {
                        "textId": 594877709,
                        "textType": "SpeakerKnown"
                    },
                    "dialogs": [
                        {
                            "text": {
                                "textId": 245794834,
                                "textType": "DialogNormal"
                            },
                            "soundId": 120300107,
                            "nextItemId": 9
                        }
                    ]
                },
                {
                    "GCOJFIFNBGB": 9,
                    "itemType": "SingleDialog",
                    "nextItemId": 10,
                    "speakerText": {
                        "textId": 1356475093,
                        "textType": "SpeakerKnown"
                    },
                    "dialogs": [
                        {
                            "text": {
                                "textId": 172286842,
                                "textType": "DialogNormal"
                            },
                            "soundId": 120300108,
                            "nextItemId": 10
                        }
                    ]
                },
                {
                    "GCOJFIFNBGB": 10,
                    "itemType": "SingleDialog",
                    "speakerText": {
                        "textId": 1356475093,
                        "textType": "SpeakerKnown"
                    },
                    "dialogs": [
                        {
                            "text": {
                                "textId": 1414961786,
                                "textType": "DialogNormal"
                            },
                            "soundId": 120300109
                        }
                    ]
                }
            ]
        },
        {
            "subQuestTitle": {
                "textId": 1961748092,
                "textType": "SubQuestTitle"
            },
            "items": [
                {
                    "GCOJFIFNBGB": 12,
                    "itemType": "SingleDialog",
                    "nextItemId": 13,
                    "speakerText": {
                        "textId": 1356475093,
                        "textType": "SpeakerKnown"
                    },
                    "dialogs": [
                        {
                            "text": {
                                "textId": 2954422338,
                                "textType": "DialogNormal"
                            },
                            "soundId": 120300201,
                            "nextItemId": 13
                        }
                    ]
                },
                {
                    "GCOJFIFNBGB": 13,
                    "itemType": "SingleDialog",
                    "nextItemId": 14,
                    "speakerText": {
                        "textId": 594877709,
                        "textType": "SpeakerKnown"
                    },
                    "dialogs": [
                        {
                            "text": {
                                "textId": 146437410,
                                "textType": "DialogNormal"
                            },
                            "soundId": 120300202,
                            "nextItemId": 14
                        }
                    ]
                },
                {
                    "GCOJFIFNBGB": 14,
                    "itemType": "SingleDialog",
                    "nextItemId": 15,
                    "speakerText": {
                        "textId": 1356475093,
                        "textType": "SpeakerKnown"
                    },
                    "dialogs": [
                        {
                            "text": {
                                "textId": 3184219706,
                                "textType": "DialogNormal"
                            },
                            "soundId": 120300203,
                            "nextItemId": 15
                        }
                    ]
                },
                {
                    "GCOJFIFNBGB": 15,
                    "itemType": "SingleDialog",
                    "nextItemId": 16,
                    "speakerText": {
                        "textId": 1356475093,
                        "textType": "SpeakerKnown"
                    },
                    "dialogs": [
                        {
                            "text": {
                                "textId": 2265952322,
                                "textType": "DialogNormal"
                            },
                            "soundId": 120300204,
                            "nextItemId": 16
                        }
                    ]
                },
                {
                    "GCOJFIFNBGB": 16,
                    "itemType": "SingleDialog",
                    "speakerText": {
                        "textId": 594877709,
                        "textType": "SpeakerKnown"
                    },
                    "dialogs": [
                        {
                            "text": {
                                "textId": 1059621674,
                                "textType": "DialogNormal"
                            },
                            "soundId": 120300205
                        }
                    ]
                }
            ]
        },
        {
            "subQuestTitle": {
                "textId": 2957630300,
                "textType": "SubQuestTitle"
            },
            "items": [
                {
                    "GCOJFIFNBGB": 18,
                    "itemType": "SingleDialog",
                    "nextItemId": 19,
                    "speakerText": {
                        "textId": 1356475093,
                        "textType": "SpeakerKnown"
                    },
                    "dialogs": [
                        {
                            "text": {
                                "textId": 1279895682,
                                "textType": "DialogNormal"
                            },
                            "soundId": 120300301,
                            "nextItemId": 19
                        }
                    ]
                },
                {
                    "GCOJFIFNBGB": 19,
                    "itemType": "SingleDialog",
                    "nextItemId": 20,
                    "speakerText": {
                        "textId": 1356475093,
                        "textType": "SpeakerKnown"
                    },
                    "dialogs": [
                        {
                            "text": {
                                "textId": 194116818,
                                "textType": "DialogNormal"
                            },
                            "soundId": 120300302,
                            "nextItemId": 20
                        }
                    ]
                },
                {
                    "GCOJFIFNBGB": 20,
                    "itemType": "SingleDialog",
                    "nextItemId": 21,
                    "speakerText": {
                        "textId": 594877709,
                        "textType": "SpeakerKnown"
                    },
                    "dialogs": [
                        {
                            "text": {
                                "textId": 306691810,
                                "textType": "DialogNormal"
                            },
                            "soundId": 120300303,
                            "nextItemId": 21
                        }
                    ]
                },
                {
                    "GCOJFIFNBGB": 21,
                    "itemType": "SingleDialog",
                    "nextItemId": 22,
                    "speakerText": {
                        "textId": 594877709,
                        "textType": "SpeakerKnown"
                    },
                    "dialogs": [
                        {
                            "text": {
                                "textId": 801094978,
                                "textType": "DialogNormal"
                            },
                            "soundId": 120300304,
                            "nextItemId": 22
                        }
                    ]
                },
                {
                    "GCOJFIFNBGB": 22,
                    "itemType": "SingleDialog",
                    "nextItemId": 23,
                    "speakerText": {
                        "textId": 594877709,
                        "textType": "SpeakerKnown"
                    },
                    "dialogs": [
                        {
                            "text": {
                                "textId": 2041048346,
                                "textType": "DialogNormal"
                            },
                            "soundId": 120300305,
                            "nextItemId": 23
                        }
                    ]
                },
                {
                    "GCOJFIFNBGB": 23,
                    "itemType": "MultiDialog",
                    "speakerText": {
                        "textId": 1329777769,
                        "textType": "SpeakerPlayer"
                    },
                    "dialogs": [
                        {
                            "text": {
                                "textId": 1889217034,
                                "textType": "DialogNormal"
                            },
                            "soundId": 120300306,
                            "nextItemId": 25
                        },
                        {
                            "text": {
                                "textId": 470162938,
                                "textType": "DialogNormal"
                            },
                            "soundId": 120300307,
                            "nextItemId": 25
                        }
                    ]
                },
                {
                    "GCOJFIFNBGB": 25,
                    "itemType": "SingleDialog",
                    "nextItemId": 26,
                    "speakerText": {
                        "textId": 594877709,
                        "textType": "SpeakerKnown"
                    },
                    "dialogs": [
                        {
                            "text": {
                                "textId": 1981285866,
                                "textType": "DialogNormal"
                            },
                            "soundId": 120300308,
                            "nextItemId": 26
                        }
                    ]
                },
                {
                    "GCOJFIFNBGB": 26,
                    "itemType": "SingleDialog",
                    "nextItemId": 27,
                    "speakerText": {
                        "textId": 594877709,
                        "textType": "SpeakerKnown"
                    },
                    "dialogs": [
                        {
                            "text": {
                                "textId": 1047297298,
                                "textType": "DialogNormal"
                            },
                            "soundId": 120300309,
                            "nextItemId": 27
                        }
                    ]
                },
                {
                    "GCOJFIFNBGB": 27,
                    "itemType": "SingleDialog",
                    "nextItemId": 28,
                    "speakerText": {
                        "textId": 1356475093,
                        "textType": "SpeakerKnown"
                    },
                    "dialogs": [
                        {
                            "text": {
                                "textId": 1610855434,
                                "textType": "DialogNormal"
                            },
                            "soundId": 120300310,
                            "nextItemId": 28
                        }
                    ]
                },
                {
                    "GCOJFIFNBGB": 28,
                    "itemType": "SingleDialog",
                    "nextItemId": 29,
                    "speakerText": {
                        "textId": 594877709,
                        "textType": "SpeakerKnown"
                    },
                    "dialogs": [
                        {
                            "text": {
                                "textId": 1536297426,
                                "textType": "DialogNormal"
                            },
                            "soundId": 120300311,
                            "nextItemId": 29
                        }
                    ]
                },
                {
                    "GCOJFIFNBGB": 29,
                    "itemType": "SingleDialog",
                    "nextItemId": 30,
                    "speakerText": {
                        "textId": 594877709,
                        "textType": "SpeakerKnown"
                    },
                    "dialogs": [
                        {
                            "text": {
                                "textId": 2074473346,
                                "textType": "DialogNormal"
                            },
                            "soundId": 120300312,
                            "nextItemId": 30
                        }
                    ]
                },
                {
                    "GCOJFIFNBGB": 30,
                    "itemType": "SingleDialog",
                    "nextItemId": 31,
                    "speakerText": {
                        "textId": 1329777769,
                        "textType": "SpeakerPlayer"
                    },
                    "dialogs": [
                        {
                            "text": {
                                "textId": 4102528834,
                                "textType": "DialogNormal"
                            },
                            "soundId": 120300313,
                            "nextItemId": 31
                        }
                    ]
                },
                {
                    "GCOJFIFNBGB": 31,
                    "itemType": "SingleDialog",
                    "nextItemId": 32,
                    "speakerText": {
                        "textId": 594877709,
                        "textType": "SpeakerKnown"
                    },
                    "dialogs": [
                        {
                            "text": {
                                "textId": 1786838722,
                                "textType": "DialogNormal"
                            },
                            "soundId": 120300314,
                            "nextItemId": 32
                        }
                    ]
                },
                {
                    "GCOJFIFNBGB": 32,
                    "itemType": "SingleDialog",
                    "nextItemId": 33,
                    "speakerText": {
                        "textId": 1356475093,
                        "textType": "SpeakerKnown"
                    },
                    "dialogs": [
                        {
                            "text": {
                                "textId": 2379684114,
                                "textType": "DialogNormal"
                            },
                            "soundId": 120300315,
                            "nextItemId": 33
                        }
                    ]
                },
                {
                    "GCOJFIFNBGB": 33,
                    "itemType": "SingleDialog",
                    "nextItemId": 34,
                    "speakerText": {
                        "textId": 1356475093,
                        "textType": "SpeakerKnown"
                    },
                    "dialogs": [
                        {
                            "text": {
                                "textId": 1512921506,
                                "textType": "DialogNormal"
                            },
                            "soundId": 120300316,
                            "nextItemId": 34
                        }
                    ]
                },
                {
                    "GCOJFIFNBGB": 34,
                    "itemType": "SingleDialog",
                    "nextItemId": 35,
                    "speakerText": {
                        "textId": 594877709,
                        "textType": "SpeakerKnown"
                    },
                    "dialogs": [
                        {
                            "text": {
                                "textId": 4287150098,
                                "textType": "DialogNormal"
                            },
                            "soundId": 120300317,
                            "nextItemId": 35
                        }
                    ]
                },
                {
                    "GCOJFIFNBGB": 35,
                    "itemType": "SingleDialog",
                    "nextItemId": 36,
                    "speakerText": {
                        "textId": 594877709,
                        "textType": "SpeakerKnown"
                    },
                    "dialogs": [
                        {
                            "text": {
                                "textId": 1995695386,
                                "textType": "DialogNormal"
                            },
                            "soundId": 120300318,
                            "nextItemId": 36
                        }
                    ]
                },
                {
                    "GCOJFIFNBGB": 36,
                    "itemType": "SingleDialog",
                    "nextItemId": 37,
                    "speakerText": {
                        "textId": 1356475093,
                        "textType": "SpeakerKnown"
                    },
                    "dialogs": [
                        {
                            "text": {
                                "textId": 3219560178,
                                "textType": "DialogNormal"
                            },
                            "soundId": 120300319,
                            "nextItemId": 37
                        }
                    ]
                },
                {
                    "GCOJFIFNBGB": 37,
                    "itemType": "SingleDialog",
                    "nextItemId": 38,
                    "speakerText": {
                        "textId": 594877709,
                        "textType": "SpeakerKnown"
                    },
                    "dialogs": [
                        {
                            "text": {
                                "textId": 2459512738,
                                "textType": "DialogNormal"
                            },
                            "soundId": 120300320,
                            "nextItemId": 38
                        }
                    ]
                },
                {
                    "GCOJFIFNBGB": 38,
                    "itemType": "SingleDialog",
                    "nextItemId": 39,
                    "speakerText": {
                        "textId": 594877709,
                        "textType": "SpeakerKnown"
                    },
                    "dialogs": [
                        {
                            "text": {
                                "textId": 1130716338,
                                "textType": "DialogNormal"
                            },
                            "soundId": 120300321,
                            "nextItemId": 39
                        }
                    ]
                },
                {
                    "GCOJFIFNBGB": 39,
                    "itemType": "MultiDialog",
                    "speakerText": {
                        "textId": 1329777769,
                        "textType": "SpeakerPlayer"
                    },
                    "dialogs": [
                        {
                            "text": {
                                "textId": 3318969826,
                                "textType": "DialogNormal"
                            },
                            "soundId": 120300322,
                            "nextItemId": 41
                        },
                        {
                            "text": {
                                "textId": 1198223738,
                                "textType": "DialogNormal"
                            },
                            "soundId": 120300323,
                            "nextItemId": 41
                        }
                    ]
                },
                {
                    "GCOJFIFNBGB": 41,
                    "itemType": "SingleDialog",
                    "nextItemId": 42,
                    "speakerText": {
                        "textId": 1356475093,
                        "textType": "SpeakerKnown"
                    },
                    "dialogs": [
                        {
                            "text": {
                                "textId": 2139239618,
                                "textType": "DialogNormal"
                            },
                            "soundId": 120300324,
                            "nextItemId": 42
                        }
                    ]
                },
                {
                    "GCOJFIFNBGB": 42,
                    "itemType": "TextLeft",
                    "nextItemId": 43,
                    "texts": [
                        {
                            "textId": 3657081541,
                            "textType": "Narratage"
                        }
                    ]
                },
                {
                    "GCOJFIFNBGB": 43,
                    "itemType": "SingleDialog",
                    "nextItemId": 44,
                    "speakerText": {
                        "textId": 1329777769,
                        "textType": "SpeakerPlayer"
                    },
                    "dialogs": [
                        {
                            "text": {
                                "textId": 2062936898,
                                "textType": "DialogNormal"
                            },
                            "soundId": 120300325,
                            "nextItemId": 44
                        }
                    ]
                },
                {
                    "GCOJFIFNBGB": 44,
                    "itemType": "SingleDialog",
                    "nextItemId": 45,
                    "speakerText": {
                        "textId": 1329777769,
                        "textType": "SpeakerPlayer"
                    },
                    "dialogs": [
                        {
                            "text": {
                                "textId": 2815814946,
                                "textType": "DialogNormal"
                            },
                            "soundId": 120300326,
                            "nextItemId": 45
                        }
                    ]
                },
                {
                    "GCOJFIFNBGB": 45,
                    "itemType": "SingleDialog",
                    "nextItemId": 46,
                    "speakerText": {
                        "textId": 1329777769,
                        "textType": "SpeakerPlayer"
                    },
                    "dialogs": [
                        {
                            "text": {
                                "textId": 1373743586,
                                "textType": "DialogNormal"
                            },
                            "soundId": 120300327,
                            "nextItemId": 46
                        }
                    ]
                },
                {
                    "GCOJFIFNBGB": 46,
                    "itemType": "SingleDialog",
                    "nextItemId": 47,
                    "speakerText": {
                        "textId": 1356475093,
                        "textType": "SpeakerKnown"
                    },
                    "dialogs": [
                        {
                            "text": {
                                "textId": 936520938,
                                "textType": "DialogNormal"
                            },
                            "soundId": 120300328,
                            "nextItemId": 47
                        }
                    ]
                },
                {
                    "GCOJFIFNBGB": 47,
                    "itemType": "SingleDialog",
                    "nextItemId": 48,
                    "speakerText": {
                        "textId": 1356475093,
                        "textType": "SpeakerKnown"
                    },
                    "dialogs": [
                        {
                            "text": {
                                "textId": 1011911642,
                                "textType": "DialogNormal"
                            },
                            "soundId": 120300329,
                            "nextItemId": 48
                        }
                    ]
                },
                {
                    "GCOJFIFNBGB": 48,
                    "itemType": "SingleDialog",
                    "nextItemId": 49,
                    "speakerText": {
                        "textId": 1329777769,
                        "textType": "SpeakerPlayer"
                    },
                    "dialogs": [
                        {
                            "text": {
                                "textId": 3368114762,
                                "textType": "DialogNormal"
                            },
                            "soundId": 120300330,
                            "nextItemId": 49
                        }
                    ]
                },
                {
                    "GCOJFIFNBGB": 49,
                    "itemType": "SingleDialog",
                    "nextItemId": 50,
                    "speakerText": {
                        "textId": 1329777769,
                        "textType": "SpeakerPlayer"
                    },
                    "dialogs": [
                        {
                            "text": {
                                "textId": 3365302210,
                                "textType": "DialogNormal"
                            },
                            "soundId": 120300331,
                            "nextItemId": 50
                        }
                    ]
                },
                {
                    "GCOJFIFNBGB": 50,
                    "itemType": "SingleDialog",
                    "nextItemId": 51,
                    "speakerText": {
                        "textId": 1329777769,
                        "textType": "SpeakerPlayer"
                    },
                    "dialogs": [
                        {
                            "text": {
                                "textId": 979868250,
                                "textType": "DialogNormal"
                            },
                            "soundId": 120300332,
                            "nextItemId": 51
                        }
                    ]
                },
                {
                    "GCOJFIFNBGB": 51,
                    "itemType": "SingleDialog",
                    "nextItemId": 52,
                    "speakerText": {
                        "textId": 1356475093,
                        "textType": "SpeakerKnown"
                    },
                    "dialogs": [
                        {
                            "text": {
                                "textId": 3748236778,
                                "textType": "DialogNormal"
                            },
                            "soundId": 120300333,
                            "nextItemId": 52
                        }
                    ]
                },
                {
                    "GCOJFIFNBGB": 52,
                    "itemType": "SingleDialog",
                    "nextItemId": 53,
                    "speakerText": {
                        "textId": 1329777769,
                        "textType": "SpeakerPlayer"
                    },
                    "dialogs": [
                        {
                            "text": {
                                "textId": 321193058,
                                "textType": "DialogNormal"
                            },
                            "soundId": 120300334,
                            "nextItemId": 53
                        }
                    ]
                },
                {
                    "GCOJFIFNBGB": 53,
                    "itemType": "SingleDialog",
                    "nextItemId": 54,
                    "speakerText": {
                        "textId": 1329777769,
                        "textType": "SpeakerPlayer"
                    },
                    "dialogs": [
                        {
                            "text": {
                                "textId": 1190823930,
                                "textType": "DialogNormal"
                            },
                            "soundId": 120300335,
                            "nextItemId": 54
                        }
                    ]
                },
                {
                    "GCOJFIFNBGB": 54,
                    "itemType": "SingleDialog",
                    "nextItemId": 55,
                    "speakerText": {
                        "textId": 1329777769,
                        "textType": "SpeakerPlayer"
                    },
                    "dialogs": [
                        {
                            "text": {
                                "textId": 2369723778,
                                "textType": "DialogNormal"
                            },
                            "soundId": 120300336,
                            "nextItemId": 55
                        }
                    ]
                },
                {
                    "GCOJFIFNBGB": 55,
                    "itemType": "SingleDialog",
                    "nextItemId": 56,
                    "speakerText": {
                        "textId": 1329777769,
                        "textType": "SpeakerPlayer"
                    },
                    "dialogs": [
                        {
                            "text": {
                                "textId": 323466362,
                                "textType": "DialogNormal"
                            },
                            "soundId": 120300337,
                            "nextItemId": 56
                        }
                    ]
                },
                {
                    "GCOJFIFNBGB": 56,
                    "itemType": "SingleDialog",
                    "nextItemId": 57,
                    "speakerText": {
                        "textId": 1356475093,
                        "textType": "SpeakerKnown"
                    },
                    "dialogs": [
                        {
                            "text": {
                                "textId": 499440882,
                                "textType": "DialogNormal"
                            },
                            "soundId": 120300338,
                            "nextItemId": 57
                        }
                    ]
                },
                {
                    "GCOJFIFNBGB": 57,
                    "itemType": "SingleDialog",
                    "nextItemId": 58,
                    "speakerText": {
                        "textId": 1329777769,
                        "textType": "SpeakerPlayer"
                    },
                    "dialogs": [
                        {
                            "text": {
                                "textId": 4063426578,
                                "textType": "DialogNormal"
                            },
                            "soundId": 120300339,
                            "nextItemId": 58
                        }
                    ]
                },
                {
                    "GCOJFIFNBGB": 58,
                    "itemType": "SingleDialog",
                    "nextItemId": 59,
                    "speakerText": {
                        "textId": 1356475093,
                        "textType": "SpeakerKnown"
                    },
                    "dialogs": [
                        {
                            "text": {
                                "textId": 756665026,
                                "textType": "DialogNormal"
                            },
                            "soundId": 120300340,
                            "nextItemId": 59
                        }
                    ]
                },
                {
                    "GCOJFIFNBGB": 59,
                    "itemType": "SingleDialog",
                    "nextItemId": 60,
                    "speakerText": {
                        "textId": 1356475093,
                        "textType": "SpeakerKnown"
                    },
                    "dialogs": [
                        {
                            "text": {
                                "textId": 2869895922,
                                "textType": "DialogNormal"
                            },
                            "soundId": 120300341,
                            "nextItemId": 60
                        }
                    ]
                },
                {
                    "GCOJFIFNBGB": 60,
                    "itemType": "SingleDialog",
                    "nextItemId": 61,
                    "speakerText": {
                        "textId": 594877709,
                        "textType": "SpeakerKnown"
                    },
                    "dialogs": [
                        {
                            "text": {
                                "textId": 3336262586,
                                "textType": "DialogNormal"
                            },
                            "soundId": 120300342,
                            "nextItemId": 61
                        }
                    ]
                },
                {
                    "GCOJFIFNBGB": 61,
                    "itemType": "SingleDialog",
                    "nextItemId": 62,
                    "speakerText": {
                        "textId": 594877709,
                        "textType": "SpeakerKnown"
                    },
                    "dialogs": [
                        {
                            "text": {
                                "textId": 136552922,
                                "textType": "DialogNormal"
                            },
                            "soundId": 120300343,
                            "nextItemId": 62
                        }
                    ]
                },
                {
                    "GCOJFIFNBGB": 62,
                    "itemType": "SingleDialog",
                    "nextItemId": 63,
                    "speakerText": {
                        "textId": 594877709,
                        "textType": "SpeakerKnown"
                    },
                    "dialogs": [
                        {
                            "text": {
                                "textId": 275365370,
                                "textType": "DialogNormal"
                            },
                            "soundId": 120300344,
                            "nextItemId": 63
                        }
                    ]
                },
                {
                    "GCOJFIFNBGB": 63,
                    "itemType": "SingleDialog",
                    "nextItemId": 64,
                    "speakerText": {
                        "textId": 1329777769,
                        "textType": "SpeakerPlayer"
                    },
                    "dialogs": [
                        {
                            "text": {
                                "textId": 3204719602,
                                "textType": "DialogNormal"
                            },
                            "soundId": 120300345,
                            "nextItemId": 64
                        }
                    ]
                },
                {
                    "GCOJFIFNBGB": 64,
                    "itemType": "SingleDialog",
                    "nextItemId": 65,
                    "speakerText": {
                        "textId": 1356475093,
                        "textType": "SpeakerKnown"
                    },
                    "dialogs": [
                        {
                            "text": {
                                "textId": 2865938890,
                                "textType": "DialogNormal"
                            },
                            "soundId": 120300346,
                            "nextItemId": 65
                        }
                    ]
                },
                {
                    "GCOJFIFNBGB": 65,
                    "itemType": "SingleDialog",
                    "nextItemId": 66,
                    "speakerText": {
                        "textId": 1356475093,
                        "textType": "SpeakerKnown"
                    },
                    "dialogs": [
                        {
                            "text": {
                                "textId": 4293953962,
                                "textType": "DialogNormal"
                            },
                            "soundId": 120300347,
                            "nextItemId": 66
                        }
                    ]
                },
                {
                    "GCOJFIFNBGB": 66,
                    "itemType": "SingleDialog",
                    "nextItemId": 67,
                    "speakerText": {
                        "textId": 594877709,
                        "textType": "SpeakerKnown"
                    },
                    "dialogs": [
                        {
                            "text": {
                                "textId": 641955186,
                                "textType": "DialogNormal"
                            },
                            "soundId": 120300348,
                            "nextItemId": 67
                        }
                    ]
                },
                {
                    "GCOJFIFNBGB": 67,
                    "itemType": "SingleDialog",
                    "nextItemId": 68,
                    "speakerText": {
                        "textId": 1329777769,
                        "textType": "SpeakerPlayer"
                    },
                    "dialogs": [
                        {
                            "text": {
                                "textId": 3321621626,
                                "textType": "DialogNormal"
                            },
                            "soundId": 120300349,
                            "nextItemId": 68
                        }
                    ]
                },
                {
                    "GCOJFIFNBGB": 68,
                    "itemType": "SingleDialog",
                    "nextItemId": 69,
                    "speakerText": {
                        "textId": 1329777769,
                        "textType": "SpeakerPlayer"
                    },
                    "dialogs": [
                        {
                            "text": {
                                "textId": 33823466,
                                "textType": "DialogNormal"
                            },
                            "soundId": 120300350,
                            "nextItemId": 69
                        }
                    ]
                },
                {
                    "GCOJFIFNBGB": 69,
                    "itemType": "SingleDialog",
                    "nextItemId": 70,
                    "speakerText": {
                        "textId": 594877709,
                        "textType": "SpeakerKnown"
                    },
                    "dialogs": [
                        {
                            "text": {
                                "textId": 432207138,
                                "textType": "DialogNormal"
                            },
                            "soundId": 120300351,
                            "nextItemId": 70
                        }
                    ]
                },
                {
                    "GCOJFIFNBGB": 70,
                    "itemType": "SingleDialog",
                    "nextItemId": 71,
                    "speakerText": {
                        "textId": 1356475093,
                        "textType": "SpeakerKnown"
                    },
                    "dialogs": [
                        {
                            "text": {
                                "textId": 3458087274,
                                "textType": "DialogNormal"
                            },
                            "soundId": 120300352,
                            "nextItemId": 71
                        }
                    ]
                },
                {
                    "GCOJFIFNBGB": 71,
                    "itemType": "SingleDialog",
                    "nextItemId": 72,
                    "speakerText": {
                        "textId": 1329777769,
                        "textType": "SpeakerPlayer"
                    },
                    "dialogs": [
                        {
                            "text": {
                                "textId": 452071730,
                                "textType": "DialogNormal"
                            },
                            "soundId": 120300353,
                            "nextItemId": 72
                        }
                    ]
                },
                {
                    "GCOJFIFNBGB": 72,
                    "itemType": "SingleDialog",
                    "nextItemId": 73,
                    "speakerText": {
                        "textId": 594877709,
                        "textType": "SpeakerKnown"
                    },
                    "dialogs": [
                        {
                            "text": {
                                "textId": 3975105738,
                                "textType": "DialogNormal"
                            },
                            "soundId": 120300354,
                            "nextItemId": 73
                        }
                    ]
                },
                {
                    "GCOJFIFNBGB": 73,
                    "itemType": "SingleDialog",
                    "nextItemId": 74,
                    "speakerText": {
                        "textId": 594877709,
                        "textType": "SpeakerKnown"
                    },
                    "dialogs": [
                        {
                            "text": {
                                "textId": 49347466,
                                "textType": "DialogNormal"
                            },
                            "soundId": 120300355,
                            "nextItemId": 74
                        }
                    ]
                },
                {
                    "GCOJFIFNBGB": 74,
                    "itemType": "SingleDialog",
                    "nextItemId": 75,
                    "speakerText": {
                        "textId": 1356475093,
                        "textType": "SpeakerKnown"
                    },
                    "dialogs": [
                        {
                            "text": {
                                "textId": 3342136634,
                                "textType": "DialogNormal"
                            },
                            "soundId": 120300356,
                            "nextItemId": 75
                        }
                    ]
                },
                {
                    "GCOJFIFNBGB": 75,
                    "itemType": "SingleDialog",
                    "nextItemId": 76,
                    "speakerText": {
                        "textId": 1329777769,
                        "textType": "SpeakerPlayer"
                    },
                    "dialogs": [
                        {
                            "text": {
                                "textId": 1340047066,
                                "textType": "DialogNormal"
                            },
                            "soundId": 120300357,
                            "nextItemId": 76
                        }
                    ]
                },
                {
                    "GCOJFIFNBGB": 76,
                    "itemType": "SingleDialog",
                    "nextItemId": 77,
                    "speakerText": {
                        "textId": 594877709,
                        "textType": "SpeakerKnown"
                    },
                    "dialogs": [
                        {
                            "text": {
                                "textId": 941973770,
                                "textType": "DialogNormal"
                            },
                            "soundId": 120300358,
                            "nextItemId": 77
                        }
                    ]
                },
                {
                    "GCOJFIFNBGB": 77,
                    "itemType": "SingleDialog",
                    "nextItemId": 78,
                    "speakerText": {
                        "textId": 594877709,
                        "textType": "SpeakerKnown"
                    },
                    "dialogs": [
                        {
                            "text": {
                                "textId": 423897194,
                                "textType": "DialogNormal"
                            },
                            "soundId": 120300359,
                            "nextItemId": 78
                        }
                    ]
                },
                {
                    "GCOJFIFNBGB": 78,
                    "itemType": "SingleDialog",
                    "nextItemId": 79,
                    "speakerText": {
                        "textId": 594877709,
                        "textType": "SpeakerKnown"
                    },
                    "dialogs": [
                        {
                            "text": {
                                "textId": 1350966874,
                                "textType": "DialogNormal"
                            },
                            "soundId": 120300360,
                            "nextItemId": 79
                        }
                    ]
                },
                {
                    "GCOJFIFNBGB": 79,
                    "itemType": "SingleDialog",
                    "nextItemId": 80,
                    "speakerText": {
                        "textId": 594877709,
                        "textType": "SpeakerKnown"
                    },
                    "dialogs": [
                        {
                            "text": {
                                "textId": 2949836954,
                                "textType": "DialogNormal"
                            },
                            "soundId": 120300361,
                            "nextItemId": 80
                        }
                    ]
                },
                {
                    "GCOJFIFNBGB": 80,
                    "itemType": "SingleDialog",
                    "nextItemId": 81,
                    "speakerText": {
                        "textId": 1329777769,
                        "textType": "SpeakerPlayer"
                    },
                    "dialogs": [
                        {
                            "text": {
                                "textId": 156729186,
                                "textType": "DialogNormal"
                            },
                            "soundId": 120300362,
                            "nextItemId": 81
                        }
                    ]
                },
                {
                    "GCOJFIFNBGB": 81,
                    "itemType": "SingleDialog",
                    "nextItemId": 82,
                    "speakerText": {
                        "textId": 1329777769,
                        "textType": "SpeakerPlayer"
                    },
                    "dialogs": [
                        {
                            "text": {
                                "textId": 4110703938,
                                "textType": "DialogNormal"
                            },
                            "soundId": 120300363,
                            "nextItemId": 82
                        }
                    ]
                },
                {
                    "GCOJFIFNBGB": 82,
                    "itemType": "SingleDialog",
                    "nextItemId": 83,
                    "speakerText": {
                        "textId": 1356475093,
                        "textType": "SpeakerKnown"
                    },
                    "dialogs": [
                        {
                            "text": {
                                "textId": 4170387802,
                                "textType": "DialogNormal"
                            },
                            "soundId": 120300364,
                            "nextItemId": 83
                        }
                    ]
                },
                {
                    "GCOJFIFNBGB": 83,
                    "itemType": "SingleDialog",
                    "nextItemId": 84,
                    "speakerText": {
                        "textId": 1329777769,
                        "textType": "SpeakerPlayer"
                    },
                    "dialogs": [
                        {
                            "text": {
                                "textId": 1213294130,
                                "textType": "DialogNormal"
                            },
                            "soundId": 120300365,
                            "nextItemId": 84
                        }
                    ]
                },
                {
                    "GCOJFIFNBGB": 84,
                    "itemType": "SingleDialog",
                    "nextItemId": 85,
                    "speakerText": {
                        "textId": 1329777769,
                        "textType": "SpeakerPlayer"
                    },
                    "dialogs": [
                        {
                            "text": {
                                "textId": 1468500010,
                                "textType": "DialogNormal"
                            },
                            "soundId": 120300366,
                            "nextItemId": 85
                        }
                    ]
                },
                {
                    "GCOJFIFNBGB": 85,
                    "itemType": "SingleDialog",
                    "nextItemId": 86,
                    "speakerText": {
                        "textId": 1356475093,
                        "textType": "SpeakerKnown"
                    },
                    "dialogs": [
                        {
                            "text": {
                                "textId": 2887990842,
                                "textType": "DialogNormal"
                            },
                            "soundId": 120300367,
                            "nextItemId": 86
                        }
                    ]
                },
                {
                    "GCOJFIFNBGB": 86,
                    "itemType": "SingleDialog",
                    "nextItemId": 87,
                    "speakerText": {
                        "textId": 594877709,
                        "textType": "SpeakerKnown"
                    },
                    "dialogs": [
                        {
                            "text": {
                                "textId": 2801684594,
                                "textType": "DialogNormal"
                            },
                            "soundId": 120300368,
                            "nextItemId": 87
                        }
                    ]
                },
                {
                    "GCOJFIFNBGB": 87,
                    "itemType": "SingleDialog",
                    "nextItemId": 88,
                    "speakerText": {
                        "textId": 1329777769,
                        "textType": "SpeakerPlayer"
                    },
                    "dialogs": [
                        {
                            "text": {
                                "textId": 745548290,
                                "textType": "DialogNormal"
                            },
                            "soundId": 120300369,
                            "nextItemId": 88
                        }
                    ]
                },
                {
                    "GCOJFIFNBGB": 88,
                    "itemType": "SingleDialog",
                    "nextItemId": 89,
                    "speakerText": {
                        "textId": 1329777769,
                        "textType": "SpeakerPlayer"
                    },
                    "dialogs": [
                        {
                            "text": {
                                "textId": 3241303258,
                                "textType": "DialogNormal"
                            },
                            "soundId": 120300370,
                            "nextItemId": 89
                        }
                    ]
                },
                {
                    "GCOJFIFNBGB": 89,
                    "itemType": "SingleDialog",
                    "nextItemId": 90,
                    "speakerText": {
                        "textId": 1329777769,
                        "textType": "SpeakerPlayer"
                    },
                    "dialogs": [
                        {
                            "text": {
                                "textId": 2846248562,
                                "textType": "DialogNormal"
                            },
                            "soundId": 120300371,
                            "nextItemId": 90
                        }
                    ]
                },
                {
                    "GCOJFIFNBGB": 90,
                    "itemType": "SingleDialog",
                    "nextItemId": 91,
                    "speakerText": {
                        "textId": 1329777769,
                        "textType": "SpeakerPlayer"
                    },
                    "dialogs": [
                        {
                            "text": {
                                "textId": 1110805394,
                                "textType": "DialogNormal"
                            },
                            "soundId": 120300372,
                            "nextItemId": 91
                        }
                    ]
                },
                {
                    "GCOJFIFNBGB": 91,
                    "itemType": "SingleDialog",
                    "nextItemId": 92,
                    "speakerText": {
                        "textId": 594877709,
                        "textType": "SpeakerKnown"
                    },
                    "dialogs": [
                        {
                            "text": {
                                "textId": 2198724250,
                                "textType": "DialogNormal"
                            },
                            "soundId": 120300373,
                            "nextItemId": 92
                        }
                    ]
                },
                {
                    "GCOJFIFNBGB": 92,
                    "itemType": "SingleDialog",
                    "nextItemId": 93,
                    "speakerText": {
                        "textId": 1356475093,
                        "textType": "SpeakerKnown"
                    },
                    "dialogs": [
                        {
                            "text": {
                                "textId": 3633646530,
                                "textType": "DialogNormal"
                            },
                            "soundId": 120300374,
                            "nextItemId": 93
                        }
                    ]
                },
                {
                    "GCOJFIFNBGB": 93,
                    "itemType": "SingleDialog",
                    "nextItemId": 94,
                    "speakerText": {
                        "textId": 1329777769,
                        "textType": "SpeakerPlayer"
                    },
                    "dialogs": [
                        {
                            "text": {
                                "textId": 3540015186,
                                "textType": "DialogNormal"
                            },
                            "soundId": 120300375,
                            "nextItemId": 94
                        }
                    ]
                },
                {
                    "GCOJFIFNBGB": 94,
                    "itemType": "SingleDialog",
                    "nextItemId": 95,
                    "speakerText": {
                        "textId": 594877709,
                        "textType": "SpeakerKnown"
                    },
                    "dialogs": [
                        {
                            "text": {
                                "textId": 3056259082,
                                "textType": "DialogNormal"
                            },
                            "soundId": 120300376,
                            "nextItemId": 95
                        }
                    ]
                },
                {
                    "GCOJFIFNBGB": 95,
                    "itemType": "SingleDialog",
                    "nextItemId": 96,
                    "speakerText": {
                        "textId": 1329777769,
                        "textType": "SpeakerPlayer"
                    },
                    "dialogs": [
                        {
                            "text": {
                                "textId": 2163213370,
                                "textType": "DialogNormal"
                            },
                            "soundId": 120300377,
                            "nextItemId": 96
                        }
                    ]
                },
                {
                    "GCOJFIFNBGB": 96,
                    "itemType": "SingleDialog",
                    "nextItemId": 97,
                    "speakerText": {
                        "textId": 1329777769,
                        "textType": "SpeakerPlayer"
                    },
                    "dialogs": [
                        {
                            "text": {
                                "textId": 128499890,
                                "textType": "DialogNormal"
                            },
                            "soundId": 120300378,
                            "nextItemId": 97
                        }
                    ]
                },
                {
                    "GCOJFIFNBGB": 97,
                    "itemType": "SingleDialog",
                    "nextItemId": 98,
                    "speakerText": {
                        "textId": 1329777769,
                        "textType": "SpeakerPlayer"
                    },
                    "dialogs": [
                        {
                            "text": {
                                "textId": 4255789770,
                                "textType": "DialogNormal"
                            },
                            "soundId": 120300379,
                            "nextItemId": 98
                        }
                    ]
                },
                {
                    "GCOJFIFNBGB": 98,
                    "itemType": "SingleDialog",
                    "nextItemId": 99,
                    "speakerText": {
                        "textId": 594877709,
                        "textType": "SpeakerKnown"
                    },
                    "dialogs": [
                        {
                            "text": {
                                "textId": 181958754,
                                "textType": "DialogNormal"
                            },
                            "soundId": 120300380,
                            "nextItemId": 99
                        }
                    ]
                },
                {
                    "GCOJFIFNBGB": 99,
                    "itemType": "SingleDialog",
                    "nextItemId": 100,
                    "speakerText": {
                        "textId": 1329777769,
                        "textType": "SpeakerPlayer"
                    },
                    "dialogs": [
                        {
                            "text": {
                                "textId": 1828891922,
                                "textType": "DialogNormal"
                            },
                            "soundId": 120300381,
                            "nextItemId": 100
                        }
                    ]
                },
                {
                    "GCOJFIFNBGB": 100,
                    "itemType": "SingleDialog",
                    "nextItemId": 101,
                    "speakerText": {
                        "textId": 594877709,
                        "textType": "SpeakerKnown"
                    },
                    "dialogs": [
                        {
                            "text": {
                                "textId": 459142010,
                                "textType": "DialogNormal"
                            },
                            "soundId": 120300382,
                            "nextItemId": 101
                        }
                    ]
                },
                {
                    "GCOJFIFNBGB": 101,
                    "itemType": "SingleDialog",
                    "nextItemId": 102,
                    "speakerText": {
                        "textId": 1329777769,
                        "textType": "SpeakerPlayer"
                    },
                    "dialogs": [
                        {
                            "text": {
                                "textId": 2126445474,
                                "textType": "DialogNormal"
                            },
                            "soundId": 120300383,
                            "nextItemId": 102
                        }
                    ]
                },
                {
                    "GCOJFIFNBGB": 102,
                    "itemType": "SingleDialog",
                    "nextItemId": 103,
                    "speakerText": {
                        "textId": 1329777769,
                        "textType": "SpeakerPlayer"
                    },
                    "dialogs": [
                        {
                            "text": {
                                "textId": 2668245018,
                                "textType": "DialogNormal"
                            },
                            "soundId": 120300384,
                            "nextItemId": 103
                        }
                    ]
                },
                {
                    "GCOJFIFNBGB": 103,
                    "itemType": "SingleDialog",
                    "nextItemId": 104,
                    "speakerText": {
                        "textId": 594877709,
                        "textType": "SpeakerKnown"
                    },
                    "dialogs": [
                        {
                            "text": {
                                "textId": 4197742386,
                                "textType": "DialogNormal"
                            },
                            "soundId": 120300385,
                            "nextItemId": 104
                        }
                    ]
                },
                {
                    "GCOJFIFNBGB": 104,
                    "itemType": "SingleDialog",
                    "nextItemId": 105,
                    "speakerText": {
                        "textId": 594877709,
                        "textType": "SpeakerKnown"
                    },
                    "dialogs": [
                        {
                            "text": {
                                "textId": 1074061090,
                                "textType": "DialogNormal"
                            },
                            "soundId": 120300386,
                            "nextItemId": 105
                        }
                    ]
                },
                {
                    "GCOJFIFNBGB": 105,
                    "itemType": "SingleDialog",
                    "nextItemId": 106,
                    "speakerText": {
                        "textId": 1329777769,
                        "textType": "SpeakerPlayer"
                    },
                    "dialogs": [
                        {
                            "text": {
                                "textId": 2864976562,
                                "textType": "DialogNormal"
                            },
                            "soundId": 120300387,
                            "nextItemId": 106
                        }
                    ]
                },
                {
                    "GCOJFIFNBGB": 106,
                    "itemType": "SingleDialog",
                    "nextItemId": 107,
                    "speakerText": {
                        "textId": 1329777769,
                        "textType": "SpeakerPlayer"
                    },
                    "dialogs": [
                        {
                            "text": {
                                "textId": 273231954,
                                "textType": "DialogNormal"
                            },
                            "soundId": 120300388,
                            "nextItemId": 107
                        }
                    ]
                },
                {
                    "GCOJFIFNBGB": 107,
                    "itemType": "SingleDialog",
                    "nextItemId": 108,
                    "speakerText": {
                        "textId": 594877709,
                        "textType": "SpeakerKnown"
                    },
                    "dialogs": [
                        {
                            "text": {
                                "textId": 1532383106,
                                "textType": "DialogNormal"
                            },
                            "soundId": 120300389,
                            "nextItemId": 108
                        }
                    ]
                },
                {
                    "GCOJFIFNBGB": 108,
                    "itemType": "SingleDialog",
                    "nextItemId": 109,
                    "speakerText": {
                        "textId": 1329777769,
                        "textType": "SpeakerPlayer"
                    },
                    "dialogs": [
                        {
                            "text": {
                                "textId": 1263401330,
                                "textType": "DialogNormal"
                            },
                            "soundId": 120300390,
                            "nextItemId": 109
                        }
                    ]
                },
                {
                    "GCOJFIFNBGB": 109,
                    "itemType": "SingleDialog",
                    "nextItemId": 110,
                    "speakerText": {
                        "textId": 594877709,
                        "textType": "SpeakerKnown"
                    },
                    "dialogs": [
                        {
                            "text": {
                                "textId": 4144695954,
                                "textType": "DialogNormal"
                            },
                            "soundId": 120300391,
                            "nextItemId": 110
                        }
                    ]
                },
                {
                    "GCOJFIFNBGB": 110,
                    "itemType": "SingleDialog",
                    "nextItemId": 111,
                    "speakerText": {
                        "textId": 594877709,
                        "textType": "SpeakerKnown"
                    },
                    "dialogs": [
                        {
                            "text": {
                                "textId": 2636115114,
                                "textType": "DialogNormal"
                            },
                            "soundId": 120300392,
                            "nextItemId": 111
                        }
                    ]
                },
                {
                    "GCOJFIFNBGB": 111,
                    "itemType": "SingleDialog",
                    "nextItemId": 112,
                    "speakerText": {
                        "textId": 594877709,
                        "textType": "SpeakerKnown"
                    },
                    "dialogs": [
                        {
                            "text": {
                                "textId": 59032714,
                                "textType": "DialogNormal"
                            },
                            "soundId": 120300393,
                            "nextItemId": 112
                        }
                    ]
                },
                {
                    "GCOJFIFNBGB": 112,
                    "itemType": "SingleDialog",
                    "nextItemId": 113,
                    "speakerText": {
                        "textId": 1329777769,
                        "textType": "SpeakerPlayer"
                    },
                    "dialogs": [
                        {
                            "text": {
                                "textId": 3141437994,
                                "textType": "DialogNormal"
                            },
                            "soundId": 120300394,
                            "nextItemId": 113
                        }
                    ]
                },
                {
                    "GCOJFIFNBGB": 113,
                    "itemType": "SingleDialog",
                    "nextItemId": 114,
                    "speakerText": {
                        "textId": 594877709,
                        "textType": "SpeakerKnown"
                    },
                    "dialogs": [
                        {
                            "text": {
                                "textId": 1487028986,
                                "textType": "DialogNormal"
                            },
                            "soundId": 120300395,
                            "nextItemId": 114
                        }
                    ]
                },
                {
                    "GCOJFIFNBGB": 114,
                    "itemType": "SingleDialog",
                    "nextItemId": 115,
                    "speakerText": {
                        "textId": 594877709,
                        "textType": "SpeakerKnown"
                    },
                    "dialogs": [
                        {
                            "text": {
                                "textId": 3457444474,
                                "textType": "DialogNormal"
                            },
                            "soundId": 120300396,
                            "nextItemId": 115
                        }
                    ]
                },
                {
                    "GCOJFIFNBGB": 115,
                    "itemType": "SingleDialog",
                    "nextItemId": 116,
                    "speakerText": {
                        "textId": 1329777769,
                        "textType": "SpeakerPlayer"
                    },
                    "dialogs": [
                        {
                            "text": {
                                "textId": 2993232842,
                                "textType": "DialogNormal"
                            },
                            "soundId": 120300397,
                            "nextItemId": 116
                        }
                    ]
                },
                {
                    "GCOJFIFNBGB": 116,
                    "itemType": "SingleDialog",
                    "nextItemId": 117,
                    "speakerText": {
                        "textId": 1356475093,
                        "textType": "SpeakerKnown"
                    },
                    "dialogs": [
                        {
                            "text": {
                                "textId": 3119940546,
                                "textType": "DialogNormal"
                            },
                            "soundId": 120300398,
                            "nextItemId": 117
                        }
                    ]
                },
                {
                    "GCOJFIFNBGB": 117,
                    "itemType": "SingleDialog",
                    "nextItemId": 118,
                    "speakerText": {
                        "textId": 1356475093,
                        "textType": "SpeakerKnown"
                    },
                    "dialogs": [
                        {
                            "text": {
                                "textId": 3839612170,
                                "textType": "DialogNormal"
                            },
                            "soundId": 120300399,
                            "nextItemId": 118
                        }
                    ]
                },
                {
                    "GCOJFIFNBGB": 118,
                    "itemType": "SingleDialog",
                    "nextItemId": 119,
                    "speakerText": {
                        "textId": 594877709,
                        "textType": "SpeakerKnown"
                    },
                    "dialogs": [
                        {
                            "text": {
                                "textId": 1047263554,
                                "textType": "DialogNormal"
                            },
                            "soundId": 120300400,
                            "nextItemId": 119
                        }
                    ]
                },
                {
                    "GCOJFIFNBGB": 119,
                    "itemType": "MultiDialog",
                    "speakerText": {
                        "textId": 1329777769,
                        "textType": "SpeakerPlayer"
                    },
                    "dialogs": [
                        {
                            "text": {
                                "textId": 1675960858,
                                "textType": "DialogNormal"
                            },
                            "soundId": 120300401,
                            "nextItemId": 121
                        },
                        {
                            "text": {
                                "textId": 488210146,
                                "textType": "DialogNormal"
                            },
                            "soundId": 120300402,
                            "nextItemId": 121
                        }
                    ]
                },
                {
                    "GCOJFIFNBGB": 121,
                    "itemType": "SingleDialog",
                    "nextItemId": 122,
                    "speakerText": {
                        "textId": 594877709,
                        "textType": "SpeakerKnown"
                    },
                    "dialogs": [
                        {
                            "text": {
                                "textId": 3032969146,
                                "textType": "DialogNormal"
                            },
                            "soundId": 120300403,
                            "nextItemId": 122
                        }
                    ]
                },
                {
                    "GCOJFIFNBGB": 122,
                    "itemType": "SingleDialog",
                    "nextItemId": 123,
                    "speakerText": {
                        "textId": 594877709,
                        "textType": "SpeakerKnown"
                    },
                    "dialogs": [
                        {
                            "text": {
                                "textId": 490032418,
                                "textType": "DialogNormal"
                            },
                            "soundId": 120300404,
                            "nextItemId": 123
                        }
                    ]
                },
                {
                    "GCOJFIFNBGB": 123,
                    "itemType": "MultiDialog",
                    "speakerText": {
                        "textId": 1329777769,
                        "textType": "SpeakerPlayer"
                    },
                    "dialogs": [
                        {
                            "text": {
                                "textId": 3622025146,
                                "textType": "DialogNormal"
                            },
                            "soundId": 120300405,
                            "nextItemId": 125
                        },
                        {
                            "text": {
                                "textId": 801807882,
                                "textType": "DialogNormal"
                            },
                            "soundId": 120300406,
                            "nextItemId": 125
                        }
                    ]
                },
                {
                    "GCOJFIFNBGB": 125,
                    "itemType": "SingleDialog",
                    "nextItemId": 126,
                    "speakerText": {
                        "textId": 594877709,
                        "textType": "SpeakerKnown"
                    },
                    "dialogs": [
                        {
                            "text": {
                                "textId": 3690886818,
                                "textType": "DialogNormal"
                            },
                            "soundId": 120300407,
                            "nextItemId": 126
                        }
                    ]
                },
                {
                    "GCOJFIFNBGB": 126,
                    "itemType": "SingleDialog",
                    "nextItemId": 127,
                    "speakerText": {
                        "textId": 594877709,
                        "textType": "SpeakerKnown"
                    },
                    "dialogs": [
                        {
                            "text": {
                                "textId": 3726913114,
                                "textType": "DialogNormal"
                            },
                            "soundId": 120300408,
                            "nextItemId": 127
                        }
                    ]
                },
                {
                    "GCOJFIFNBGB": 127,
                    "itemType": "MultiDialog",
                    "speakerText": {
                        "textId": 1329777769,
                        "textType": "SpeakerPlayer"
                    },
                    "dialogs": [
                        {
                            "text": {
                                "textId": 485027642,
                                "textType": "DialogNormal"
                            },
                            "soundId": 120300409,
                            "nextItemId": 129
                        },
                        {
                            "text": {
                                "textId": 2401801290,
                                "textType": "DialogNormal"
                            },
                            "soundId": 120300410,
                            "nextItemId": 129
                        }
                    ]
                },
                {
                    "GCOJFIFNBGB": 129,
                    "itemType": "SingleDialog",
                    "nextItemId": 130,
                    "speakerText": {
                        "textId": 594877709,
                        "textType": "SpeakerKnown"
                    },
                    "dialogs": [
                        {
                            "text": {
                                "textId": 29327962,
                                "textType": "DialogNormal"
                            },
                            "soundId": 120300411,
                            "nextItemId": 130
                        }
                    ]
                },
                {
                    "GCOJFIFNBGB": 130,
                    "itemType": "SingleDialog",
                    "nextItemId": 131,
                    "speakerText": {
                        "textId": 594877709,
                        "textType": "SpeakerKnown"
                    },
                    "dialogs": [
                        {
                            "text": {
                                "textId": 3992747906,
                                "textType": "DialogNormal"
                            },
                            "soundId": 120300412,
                            "nextItemId": 131
                        }
                    ]
                },
                {
                    "GCOJFIFNBGB": 131,
                    "itemType": "SingleDialog",
                    "nextItemId": 132,
                    "speakerText": {
                        "textId": 1356475093,
                        "textType": "SpeakerKnown"
                    },
                    "dialogs": [
                        {
                            "text": {
                                "textId": 3202947082,
                                "textType": "DialogNormal"
                            },
                            "soundId": 120300413,
                            "nextItemId": 132
                        }
                    ]
                },
                {
                    "GCOJFIFNBGB": 132,
                    "itemType": "SingleDialog",
                    "nextItemId": 133,
                    "speakerText": {
                        "textId": 1356475093,
                        "textType": "SpeakerKnown"
                    },
                    "dialogs": [
                        {
                            "text": {
                                "textId": 1165443050,
                                "textType": "DialogNormal"
                            },
                            "soundId": 120300414,
                            "nextItemId": 133
                        }
                    ]
                },
                {
                    "GCOJFIFNBGB": 133,
                    "itemType": "SingleDialog",
                    "nextItemId": 134,
                    "speakerText": {
                        "textId": 594877709,
                        "textType": "SpeakerKnown"
                    },
                    "dialogs": [
                        {
                            "text": {
                                "textId": 2838628722,
                                "textType": "DialogNormal"
                            },
                            "soundId": 120300415,
                            "nextItemId": 134
                        }
                    ]
                },
                {
                    "GCOJFIFNBGB": 134,
                    "itemType": "SingleDialog",
                    "nextItemId": 135,
                    "speakerText": {
                        "textId": 1356475093,
                        "textType": "SpeakerKnown"
                    },
                    "dialogs": [
                        {
                            "text": {
                                "textId": 2304613786,
                                "textType": "DialogNormal"
                            },
                            "soundId": 120300416,
                            "nextItemId": 135
                        }
                    ]
                },
                {
                    "GCOJFIFNBGB": 135,
                    "itemType": "SingleDialog",
                    "nextItemId": 136,
                    "speakerText": {
                        "textId": 1329777769,
                        "textType": "SpeakerPlayer"
                    },
                    "dialogs": [
                        {
                            "text": {
                                "textId": 503406474,
                                "textType": "DialogNormal"
                            },
                            "soundId": 120300417,
                            "nextItemId": 136
                        }
                    ]
                },
                {
                    "GCOJFIFNBGB": 136,
                    "itemType": "SingleDialog",
                    "speakerText": {
                        "textId": 1356475093,
                        "textType": "SpeakerKnown"
                    },
                    "dialogs": [
                        {
                            "text": {
                                "textId": 2485838882,
                                "textType": "DialogNormal"
                            },
                            "soundId": 120300418
                        }
                    ]
                }
            ]
        }
    ]
}