{
    "mainQuestId": 485,
    "questType": "LQ",
    "mainQuestTitle": {
        "textId": 3974969649,
        "textType": "MainQuestTitle"
    },
    "mainQuestDesp": {
        "textId": 3761520255,
        "textType": "MainQuestDesp"
    },
    "chapterTitle": {
        "textId": 236638609,
        "textType": "ChapterTitle"
    },
    "chapterNum": {
        "textId": 2549585010,
        "textType": "ChapterNum"
    },
    "subQuests": [
        {
            "subQuestTitle": {
                "textId": 2153296127,
                "textType": "SubQuestTitle"
            }
        },
        {
            "subQuestTitle": {
                "textId": 298165063,
                "textType": "SubQuestTitle"
            },
            "items": [
                {
                    "GCOJFIFNBGB": 3,
                    "itemType": "SingleDialog",
                    "nextItemId": 4,
                    "speakerText": {
                        "textId": 2219684877,
                        "textType": "SpeakerKnown"
                    },
                    "dialogs": [
                        {
                            "text": {
                                "textId": 2101566827,
                                "textType": "DialogNormal"
                            },
                            "soundId": 4851101,
                            "nextItemId": 4
                        }
                    ]
                },
                {
                    "GCOJFIFNBGB": 4,
                    "itemType": "SingleDialog",
                    "nextItemId": 5,
                    "speakerText": {
                        "textId": 2219684877,
                        "textType": "SpeakerKnown"
                    },
                    "dialogs": [
                        {
                            "text": {
                                "textId": 3913340843,
                                "textType": "DialogNormal"
                            },
                            "soundId": 4851102,
                            "nextItemId": 5
                        }
                    ]
                },
                {
                    "GCOJFIFNBGB": 5,
                    "itemType": "SingleDialog",
                    "nextItemId": 6,
                    "speakerText": {
                        "textId": 1356475093,
                        "textType": "SpeakerKnown"
                    },
                    "dialogs": [
                        {
                            "text": {
                                "textId": 1295628923,
                                "textType": "DialogNormal"
                            },
                            "soundId": 4851103,
                            "nextItemId": 6
                        }
                    ]
                },
                {
                    "GCOJFIFNBGB": 6,
                    "itemType": "SingleDialog",
                    "nextItemId": 7,
                    "speakerText": {
                        "textId": 2219684877,
                        "textType": "SpeakerKnown"
                    },
                    "dialogs": [
                        {
                            "text": {
                                "textId": 3814811987,
                                "textType": "DialogNormal"
                            },
                            "soundId": 4851104,
                            "nextItemId": 7
                        }
                    ]
                },
                {
                    "GCOJFIFNBGB": 7,
                    "itemType": "SingleDialog",
                    "nextItemId": 8,
                    "speakerText": {
                        "textId": 2219684877,
                        "textType": "SpeakerKnown"
                    },
                    "dialogs": [
                        {
                            "text": {
                                "textId": 753202259,
                                "textType": "DialogNormal"
                            },
                            "soundId": 4851105,
                            "nextItemId": 8
                        }
                    ]
                },
                {
                    "GCOJFIFNBGB": 8,
                    "itemType": "SingleDialog",
                    "nextItemId": 9,
                    "speakerText": {
                        "textId": 1356475093,
                        "textType": "SpeakerKnown"
                    },
                    "dialogs": [
                        {
                            "text": {
                                "textId": 1615563907,
                                "textType": "DialogNormal"
                            },
                            "soundId": 4851106,
                            "nextItemId": 9
                        }
                    ]
                },
                {
                    "GCOJFIFNBGB": 9,
                    "itemType": "SingleDialog",
                    "nextItemId": 10,
                    "speakerText": {
                        "textId": 2219684877,
                        "textType": "SpeakerKnown"
                    },
                    "dialogs": [
                        {
                            "text": {
                                "textId": 315829531,
                                "textType": "DialogNormal"
                            },
                            "soundId": 4851107,
                            "nextItemId": 10
                        }
                    ]
                },
                {
                    "GCOJFIFNBGB": 10,
                    "itemType": "SingleDialog",
                    "nextItemId": 11,
                    "speakerText": {
                        "textId": 1356475093,
                        "textType": "SpeakerKnown"
                    },
                    "dialogs": [
                        {
                            "text": {
                                "textId": 3023836403,
                                "textType": "DialogNormal"
                            },
                            "soundId": 4851108,
                            "nextItemId": 11
                        }
                    ]
                },
                {
                    "GCOJFIFNBGB": 11,
                    "itemType": "SingleDialog",
                    "nextItemId": 12,
                    "speakerText": {
                        "textId": 2219684877,
                        "textType": "SpeakerKnown"
                    },
                    "dialogs": [
                        {
                            "text": {
                                "textId": 2421846155,
                                "textType": "DialogNormal"
                            },
                            "soundId": 4851109,
                            "nextItemId": 12
                        }
                    ]
                },
                {
                    "GCOJFIFNBGB": 12,
                    "itemType": "SingleDialog",
                    "nextItemId": 13,
                    "speakerText": {
                        "textId": 2219684877,
                        "textType": "SpeakerKnown"
                    },
                    "dialogs": [
                        {
                            "text": {
                                "textId": 1801361987,
                                "textType": "DialogNormal"
                            },
                            "soundId": 4851110,
                            "nextItemId": 13
                        }
                    ]
                },
                {
                    "GCOJFIFNBGB": 13,
                    "itemType": "SingleDialog",
                    "nextItemId": 14,
                    "speakerText": {
                        "textId": 2219684877,
                        "textType": "SpeakerKnown"
                    },
                    "dialogs": [
                        {
                            "text": {
                                "textId": 1448268267,
                                "textType": "DialogNormal"
                            },
                            "soundId": 4851111,
                            "nextItemId": 14
                        }
                    ]
                },
                {
                    "GCOJFIFNBGB": 14,
                    "itemType": "MultiDialog",
                    "speakerText": {
                        "textId": 1329777769,
                        "textType": "SpeakerPlayer"
                    },
                    "dialogs": [
                        {
                            "text": {
                                "textId": 4200891923,
                                "textType": "DialogNormal"
                            },
                            "soundId": 4851112,
                            "nextItemId": 16
                        },
                        {
                            "text": {
                                "textId": 2536726707,
                                "textType": "DialogNormal"
                            },
                            "soundId": 4851113,
                            "nextItemId": 16
                        }
                    ]
                },
                {
                    "GCOJFIFNBGB": 16,
                    "itemType": "SingleDialog",
                    "nextItemId": 17,
                    "speakerText": {
                        "textId": 2219684877,
                        "textType": "SpeakerKnown"
                    },
                    "dialogs": [
                        {
                            "text": {
                                "textId": 3953949435,
                                "textType": "DialogNormal"
                            },
                            "soundId": 4851114,
                            "nextItemId": 17
                        }
                    ]
                },
                {
                    "GCOJFIFNBGB": 17,
                    "itemType": "SingleDialog",
                    "speakerText": {
                        "textId": 2219684877,
                        "textType": "SpeakerKnown"
                    },
                    "dialogs": [
                        {
                            "text": {
                                "textId": 1216460603,
                                "textType": "DialogNormal"
                            },
                            "soundId": 4851115
                        }
                    ]
                }
            ]
        },
        {
            "subQuestTitle": {
                "textId": 1880841991,
                "textType": "SubQuestTitle"
            }
        },
        {
            "subQuestTitle": {
                "textId": 3541451551,
                "textType": "SubQuestTitle"
            },
            "items": [
                {
                    "GCOJFIFNBGB": 20,
                    "itemType": "SingleDialog",
                    "nextItemId": 21,
                    "speakerText": {
                        "textId": 2219684877,
                        "textType": "SpeakerKnown"
                    },
                    "dialogs": [
                        {
                            "text": {
                                "textId": 882440827,
                                "textType": "DialogNormal"
                            },
                            "soundId": 4850301,
                            "nextItemId": 21
                        }
                    ]
                },
                {
                    "GCOJFIFNBGB": 21,
                    "itemType": "SingleDialog",
                    "nextItemId": 22,
                    "speakerText": {
                        "textId": 1356475093,
                        "textType": "SpeakerKnown"
                    },
                    "dialogs": [
                        {
                            "text": {
                                "textId": 2878885419,
                                "textType": "DialogNormal"
                            },
                            "soundId": 4850302,
                            "nextItemId": 22
                        }
                    ]
                },
                {
                    "GCOJFIFNBGB": 22,
                    "itemType": "SingleDialog",
                    "nextItemId": 23,
                    "speakerText": {
                        "textId": 4222815749,
                        "textType": "SpeakerKnown"
                    },
                    "dialogs": [
                        {
                            "text": {
                                "textId": 1388192707,
                                "textType": "DialogNormal"
                            },
                            "soundId": 4850303,
                            "nextItemId": 23
                        }
                    ]
                },
                {
                    "GCOJFIFNBGB": 23,
                    "itemType": "SingleDialog",
                    "nextItemId": 24,
                    "speakerText": {
                        "textId": 2219684877,
                        "textType": "SpeakerKnown"
                    },
                    "dialogs": [
                        {
                            "text": {
                                "textId": 4163727747,
                                "textType": "DialogNormal"
                            },
                            "soundId": 4850304,
                            "nextItemId": 24
                        }
                    ]
                },
                {
                    "GCOJFIFNBGB": 24,
                    "itemType": "SingleDialog",
                    "nextItemId": 25,
                    "speakerText": {
                        "textId": 4222815749,
                        "textType": "SpeakerKnown"
                    },
                    "dialogs": [
                        {
                            "text": {
                                "textId": 4191065275,
                                "textType": "DialogNormal"
                            },
                            "soundId": 4850305,
                            "nextItemId": 25
                        }
                    ]
                },
                {
                    "GCOJFIFNBGB": 25,
                    "itemType": "SingleDialog",
                    "nextItemId": 26,
                    "speakerText": {
                        "textId": 2219684877,
                        "textType": "SpeakerKnown"
                    },
                    "dialogs": [
                        {
                            "text": {
                                "textId": 3978098747,
                                "textType": "DialogNormal"
                            },
                            "soundId": 4850306,
                            "nextItemId": 26
                        }
                    ]
                },
                {
                    "GCOJFIFNBGB": 26,
                    "itemType": "SingleDialog",
                    "nextItemId": 27,
                    "speakerText": {
                        "textId": 4222815749,
                        "textType": "SpeakerKnown"
                    },
                    "dialogs": [
                        {
                            "text": {
                                "textId": 4198035155,
                                "textType": "DialogNormal"
                            },
                            "soundId": 4850307,
                            "nextItemId": 27
                        }
                    ]
                },
                {
                    "GCOJFIFNBGB": 27,
                    "itemType": "SingleDialog",
                    "nextItemId": 28,
                    "speakerText": {
                        "textId": 2219684877,
                        "textType": "SpeakerKnown"
                    },
                    "dialogs": [
                        {
                            "text": {
                                "textId": 959806043,
                                "textType": "DialogNormal"
                            },
                            "soundId": 4850308,
                            "nextItemId": 28
                        }
                    ]
                },
                {
                    "GCOJFIFNBGB": 28,
                    "itemType": "MultiDialog",
                    "speakerText": {
                        "textId": 1329777769,
                        "textType": "SpeakerPlayer"
                    },
                    "dialogs": [
                        {
                            "text": {
                                "textId": 2822681963,
                                "textType": "DialogNormal"
                            },
                            "soundId": 4850309,
                            "nextItemId": 30
                        },
                        {
                            "text": {
                                "textId": 3163494147,
                                "textType": "DialogNormal"
                            },
                            "soundId": 4850310,
                            "nextItemId": 30
                        }
                    ]
                },
                {
                    "GCOJFIFNBGB": 30,
                    "itemType": "SingleDialog",
                    "nextItemId": 31,
                    "speakerText": {
                        "textId": 2219684877,
                        "textType": "SpeakerKnown"
                    },
                    "dialogs": [
                        {
                            "text": {
                                "textId": 413243315,
                                "textType": "DialogNormal"
                            },
                            "soundId": 4850311,
                            "nextItemId": 31
                        }
                    ]
                },
                {
                    "GCOJFIFNBGB": 31,
                    "itemType": "SingleDialog",
                    "nextItemId": 32,
                    "speakerText": {
                        "textId": 2219684877,
                        "textType": "SpeakerKnown"
                    },
                    "dialogs": [
                        {
                            "text": {
                                "textId": 3415267723,
                                "textType": "DialogNormal"
                            },
                            "soundId": 4850312,
                            "nextItemId": 32
                        }
                    ]
                },
                {
                    "GCOJFIFNBGB": 32,
                    "itemType": "SingleDialog",
                    "nextItemId": 33,
                    "speakerText": {
                        "textId": 1356475093,
                        "textType": "SpeakerKnown"
                    },
                    "dialogs": [
                        {
                            "text": {
                                "textId": 3760908427,
                                "textType": "DialogNormal"
                            },
                            "soundId": 4850313,
                            "nextItemId": 33
                        }
                    ]
                },
                {
                    "GCOJFIFNBGB": 33,
                    "itemType": "MultiDialog",
                    "speakerText": {
                        "textId": 1329777769,
                        "textType": "SpeakerPlayer"
                    },
                    "dialogs": [
                        {
                            "text": {
                                "textId": 3662261291,
                                "textType": "DialogNormal"
                            },
                            "soundId": 4850314,
                            "nextItemId": 34
                        },
                        {
                            "text": {
                                "textId": 1459782459,
                                "textType": "DialogNormal"
                            },
                            "soundId": 4850317,
                            "nextItemId": 37
                        },
                        {
                            "text": {
                                "textId": 2877683715,
                                "textType": "DialogNormal"
                            },
                            "soundId": 4850319,
                            "nextItemId": 39
                        }
                    ]
                },
                {
                    "GCOJFIFNBGB": 34,
                    "itemType": "SingleDialog",
                    "nextItemId": 35,
                    "speakerText": {
                        "textId": 2219684877,
                        "textType": "SpeakerKnown"
                    },
                    "dialogs": [
                        {
                            "text": {
                                "textId": 1565725235,
                                "textType": "DialogNormal"
                            },
                            "soundId": 4850315,
                            "nextItemId": 35
                        }
                    ]
                },
                {
                    "GCOJFIFNBGB": 35,
                    "itemType": "SingleDialog",
                    "nextItemId": 41,
                    "speakerText": {
                        "textId": 2219684877,
                        "textType": "SpeakerKnown"
                    },
                    "dialogs": [
                        {
                            "text": {
                                "textId": 1988000531,
                                "textType": "DialogNormal"
                            },
                            "soundId": 4850316,
                            "nextItemId": 41
                        }
                    ]
                },
                {
                    "GCOJFIFNBGB": 37,
                    "itemType": "SingleDialog",
                    "nextItemId": 41,
                    "speakerText": {
                        "textId": 1356475093,
                        "textType": "SpeakerKnown"
                    },
                    "dialogs": [
                        {
                            "text": {
                                "textId": 1185984995,
                                "textType": "DialogNormal"
                            },
                            "soundId": 4850318,
                            "nextItemId": 41
                        }
                    ]
                },
                {
                    "GCOJFIFNBGB": 39,
                    "itemType": "SingleDialog",
                    "nextItemId": 40,
                    "speakerText": {
                        "textId": 1356475093,
                        "textType": "SpeakerKnown"
                    },
                    "dialogs": [
                        {
                            "text": {
                                "textId": 4264186731,
                                "textType": "DialogNormal"
                            },
                            "soundId": 4850320,
                            "nextItemId": 40
                        }
                    ]
                },
                {
                    "GCOJFIFNBGB": 40,
                    "itemType": "SingleDialog",
                    "nextItemId": 41,
                    "speakerText": {
                        "textId": 2219684877,
                        "textType": "SpeakerKnown"
                    },
                    "dialogs": [
                        {
                            "text": {
                                "textId": 3963595059,
                                "textType": "DialogNormal"
                            },
                            "soundId": 4850321,
                            "nextItemId": 41
                        }
                    ]
                },
                {
                    "GCOJFIFNBGB": 41,
                    "itemType": "SingleDialog",
                    "nextItemId": 42,
                    "speakerText": {
                        "textId": 4222815749,
                        "textType": "SpeakerKnown"
                    },
                    "dialogs": [
                        {
                            "text": {
                                "textId": 4043506483,
                                "textType": "DialogNormal"
                            },
                            "soundId": 4850322,
                            "nextItemId": 42
                        }
                    ]
                },
                {
                    "GCOJFIFNBGB": 42,
                    "itemType": "SingleDialog",
                    "nextItemId": 43,
                    "speakerText": {
                        "textId": 1356475093,
                        "textType": "SpeakerKnown"
                    },
                    "dialogs": [
                        {
                            "text": {
                                "textId": 680176323,
                                "textType": "DialogNormal"
                            },
                            "soundId": 4850323,
                            "nextItemId": 43
                        }
                    ]
                },
                {
                    "GCOJFIFNBGB": 43,
                    "itemType": "SingleDialog",
                    "nextItemId": 44,
                    "speakerText": {
                        "textId": 2219684877,
                        "textType": "SpeakerKnown"
                    },
                    "dialogs": [
                        {
                            "text": {
                                "textId": 1734873315,
                                "textType": "DialogNormal"
                            },
                            "soundId": 4850324,
                            "nextItemId": 44
                        }
                    ]
                },
                {
                    "GCOJFIFNBGB": 44,
                    "itemType": "SingleDialog",
                    "nextItemId": 45,
                    "speakerText": {
                        "textId": 1356475093,
                        "textType": "SpeakerKnown"
                    },
                    "dialogs": [
                        {
                            "text": {
                                "textId": 4163970291,
                                "textType": "DialogNormal"
                            },
                            "soundId": 4850325,
                            "nextItemId": 45
                        }
                    ]
                },
                {
                    "GCOJFIFNBGB": 45,
                    "itemType": "SingleDialog",
                    "nextItemId": 46,
                    "speakerText": {
                        "textId": 2219684877,
                        "textType": "SpeakerKnown"
                    },
                    "dialogs": [
                        {
                            "text": {
                                "textId": 1198028739,
                                "textType": "DialogNormal"
                            },
                            "soundId": 4850326,
                            "nextItemId": 46
                        }
                    ]
                },
                {
                    "GCOJFIFNBGB": 46,
                    "itemType": "SingleDialog",
                    "nextItemId": 47,
                    "speakerText": {
                        "textId": 4222815749,
                        "textType": "SpeakerKnown"
                    },
                    "dialogs": [
                        {
                            "text": {
                                "textId": 83760747,
                                "textType": "DialogNormal"
                            },
                            "soundId": 4850327,
                            "nextItemId": 47
                        }
                    ]
                },
                {
                    "GCOJFIFNBGB": 47,
                    "itemType": "MultiDialog",
                    "speakerText": {
                        "textId": 1329777769,
                        "textType": "SpeakerPlayer"
                    },
                    "dialogs": [
                        {
                            "text": {
                                "textId": 1154703643,
                                "textType": "DialogNormal"
                            },
                            "soundId": 4850328,
                            "nextItemId": 49
                        },
                        {
                            "text": {
                                "textId": 1242248883,
                                "textType": "DialogNormal"
                            },
                            "soundId": 4850329,
                            "nextItemId": 49
                        }
                    ]
                },
                {
                    "GCOJFIFNBGB": 49,
                    "itemType": "SingleDialog",
                    "nextItemId": 50,
                    "speakerText": {
                        "textId": 1356475093,
                        "textType": "SpeakerKnown"
                    },
                    "dialogs": [
                        {
                            "text": {
                                "textId": 1254176859,
                                "textType": "DialogNormal"
                            },
                            "soundId": 4850330,
                            "nextItemId": 50
                        }
                    ]
                },
                {
                    "GCOJFIFNBGB": 50,
                    "itemType": "SingleDialog",
                    "nextItemId": 51,
                    "speakerText": {
                        "textId": 2219684877,
                        "textType": "SpeakerKnown"
                    },
                    "dialogs": [
                        {
                            "text": {
                                "textId": 1148509731,
                                "textType": "DialogNormal"
                            },
                            "soundId": 4850331,
                            "nextItemId": 51
                        }
                    ]
                },
                {
                    "GCOJFIFNBGB": 51,
                    "itemType": "SingleDialog",
                    "nextItemId": 52,
                    "speakerText": {
                        "textId": 2219684877,
                        "textType": "SpeakerKnown"
                    },
                    "dialogs": [
                        {
                            "text": {
                                "textId": 3394737611,
                                "textType": "DialogNormal"
                            },
                            "soundId": 4850332,
                            "nextItemId": 52
                        }
                    ]
                },
                {
                    "GCOJFIFNBGB": 52,
                    "itemType": "SingleDialog",
                    "nextItemId": 53,
                    "speakerText": {
                        "textId": 2219684877,
                        "textType": "SpeakerKnown"
                    },
                    "dialogs": [
                        {
                            "text": {
                                "textId": 3469580691,
                                "textType": "DialogNormal"
                            },
                            "soundId": 4850333,
                            "nextItemId": 53
                        }
                    ]
                },
                {
                    "GCOJFIFNBGB": 53,
                    "itemType": "SingleDialog",
                    "nextItemId": 54,
                    "speakerText": {
                        "textId": 1329777769,
                        "textType": "SpeakerPlayer"
                    },
                    "dialogs": [
                        {
                            "text": {
                                "textId": 3062577627,
                                "textType": "DialogNormal"
                            },
                            "soundId": 4850334,
                            "nextItemId": 54
                        }
                    ]
                },
                {
                    "GCOJFIFNBGB": 54,
                    "itemType": "SingleDialog",
                    "nextItemId": 55,
                    "speakerText": {
                        "textId": 2219684877,
                        "textType": "SpeakerKnown"
                    },
                    "dialogs": [
                        {
                            "text": {
                                "textId": 4049923011,
                                "textType": "DialogNormal"
                            },
                            "soundId": 4850335,
                            "nextItemId": 55
                        }
                    ]
                },
                {
                    "GCOJFIFNBGB": 55,
                    "itemType": "SingleDialog",
                    "nextItemId": 56,
                    "speakerText": {
                        "textId": 4222815749,
                        "textType": "SpeakerKnown"
                    },
                    "dialogs": [
                        {
                            "text": {
                                "textId": 684377971,
                                "textType": "DialogNormal"
                            },
                            "soundId": 4850336,
                            "nextItemId": 56
                        }
                    ]
                },
                {
                    "GCOJFIFNBGB": 56,
                    "itemType": "SingleDialog",
                    "nextItemId": 57,
                    "speakerText": {
                        "textId": 2219684877,
                        "textType": "SpeakerKnown"
                    },
                    "dialogs": [
                        {
                            "text": {
                                "textId": 3207406139,
                                "textType": "DialogNormal"
                            },
                            "soundId": 4850337,
                            "nextItemId": 57
                        }
                    ]
                },
                {
                    "GCOJFIFNBGB": 57,
                    "itemType": "SingleDialog",
                    "speakerText": {
                        "textId": 2219684877,
                        "textType": "SpeakerKnown"
                    },
                    "dialogs": [
                        {
                            "text": {
                                "textId": 1799475803,
                                "textType": "DialogNormal"
                            },
                            "soundId": 4850338
                        }
                    ]
                }
            ]
        },
        {
            "subQuestTitle": {
                "textId": 1176404559,
                "textType": "SubQuestTitle"
            },
            "items": [
                {
                    "GCOJFIFNBGB": 59,
                    "itemType": "SingleDialog",
                    "nextItemId": 60,
                    "speakerText": {
                        "textId": 1356475093,
                        "textType": "SpeakerKnown"
                    },
                    "dialogs": [
                        {
                            "text": {
                                "textId": 67729403,
                                "textType": "DialogNormal"
                            },
                            "soundId": 4850401,
                            "nextItemId": 60
                        }
                    ]
                },
                {
                    "GCOJFIFNBGB": 60,
                    "itemType": "SingleDialog",
                    "nextItemId": 61,
                    "speakerText": {
                        "textId": 1356475093,
                        "textType": "SpeakerKnown"
                    },
                    "dialogs": [
                        {
                            "text": {
                                "textId": 796792283,
                                "textType": "DialogNormal"
                            },
                            "soundId": 4850402,
                            "nextItemId": 61
                        }
                    ]
                },
                {
                    "GCOJFIFNBGB": 61,
                    "itemType": "SingleDialog",
                    "nextItemId": 62,
                    "speakerText": {
                        "textId": 4222815749,
                        "textType": "SpeakerKnown"
                    },
                    "dialogs": [
                        {
                            "text": {
                                "textId": 1841099083,
                                "textType": "DialogNormal"
                            },
                            "soundId": 4850403,
                            "nextItemId": 62
                        }
                    ]
                },
                {
                    "GCOJFIFNBGB": 62,
                    "itemType": "SingleDialog",
                    "speakerText": {
                        "textId": 2219684877,
                        "textType": "SpeakerKnown"
                    },
                    "dialogs": [
                        {
                            "text": {
                                "textId": 531728299,
                                "textType": "DialogNormal"
                            },
                            "soundId": 4850404
                        }
                    ]
                }
            ]
        },
        {
            "subQuestTitle": {
                "textId": 1928452183,
                "textType": "SubQuestTitle"
            }
        },
        {
            "subQuestTitle": {
                "textId": 1628924447,
                "textType": "SubQuestTitle"
            },
            "items": [
                {
                    "GCOJFIFNBGB": 65,
                    "itemType": "SingleDialog",
                    "nextItemId": 66,
                    "speakerText": {
                        "textId": 2219684877,
                        "textType": "SpeakerKnown"
                    },
                    "dialogs": [
                        {
                            "text": {
                                "textId": 2217594011,
                                "textType": "DialogNormal"
                            },
                            "soundId": 4850601,
                            "nextItemId": 66
                        }
                    ]
                },
                {
                    "GCOJFIFNBGB": 66,
                    "itemType": "SingleDialog",
                    "nextItemId": 67,
                    "speakerText": {
                        "textId": 2219684877,
                        "textType": "SpeakerKnown"
                    },
                    "dialogs": [
                        {
                            "text": {
                                "textId": 4034951267,
                                "textType": "DialogNormal"
                            },
                            "soundId": 4850602,
                            "nextItemId": 67
                        }
                    ]
                },
                {
                    "GCOJFIFNBGB": 67,
                    "itemType": "SingleDialog",
                    "nextItemId": 68,
                    "speakerText": {
                        "textId": 2219684877,
                        "textType": "SpeakerKnown"
                    },
                    "dialogs": [
                        {
                            "text": {
                                "textId": 3289420827,
                                "textType": "DialogNormal"
                            },
                            "soundId": 4850603,
                            "nextItemId": 68
                        }
                    ]
                },
                {
                    "GCOJFIFNBGB": 68,
                    "itemType": "SingleDialog",
                    "nextItemId": 69,
                    "speakerText": {
                        "textId": 2219684877,
                        "textType": "SpeakerKnown"
                    },
                    "dialogs": [
                        {
                            "text": {
                                "textId": 792851,
                                "textType": "DialogNormal"
                            },
                            "soundId": 4850604,
                            "nextItemId": 69
                        }
                    ]
                },
                {
                    "GCOJFIFNBGB": 69,
                    "itemType": "SingleDialog",
                    "nextItemId": 70,
                    "speakerText": {
                        "textId": 1356475093,
                        "textType": "SpeakerKnown"
                    },
                    "dialogs": [
                        {
                            "text": {
                                "textId": 2286032915,
                                "textType": "DialogNormal"
                            },
                            "soundId": 4850605,
                            "nextItemId": 70
                        }
                    ]
                },
                {
                    "GCOJFIFNBGB": 70,
                    "itemType": "SingleDialog",
                    "nextItemId": 71,
                    "speakerText": {
                        "textId": 1356475093,
                        "textType": "SpeakerKnown"
                    },
                    "dialogs": [
                        {
                            "text": {
                                "textId": 3819203387,
                                "textType": "DialogNormal"
                            },
                            "soundId": 4850606,
                            "nextItemId": 71
                        }
                    ]
                },
                {
                    "GCOJFIFNBGB": 71,
                    "itemType": "SingleDialog",
                    "nextItemId": 72,
                    "speakerText": {
                        "textId": 2219684877,
                        "textType": "SpeakerKnown"
                    },
                    "dialogs": [
                        {
                            "text": {
                                "textId": 2747625851,
                                "textType": "DialogNormal"
                            },
                            "soundId": 4850607,
                            "nextItemId": 72
                        }
                    ]
                },
                {
                    "GCOJFIFNBGB": 72,
                    "itemType": "SingleDialog",
                    "nextItemId": 73,
                    "speakerText": {
                        "textId": 2219684877,
                        "textType": "SpeakerKnown"
                    },
                    "dialogs": [
                        {
                            "text": {
                                "textId": 1927380739,
                                "textType": "DialogNormal"
                            },
                            "soundId": 4850608,
                            "nextItemId": 73
                        }
                    ]
                },
                {
                    "GCOJFIFNBGB": 73,
                    "itemType": "SingleDialog",
                    "nextItemId": 74,
                    "speakerText": {
                        "textId": 1356475093,
                        "textType": "SpeakerKnown"
                    },
                    "dialogs": [
                        {
                            "text": {
                                "textId": 2741415091,
                                "textType": "DialogNormal"
                            },
                            "soundId": 4850609,
                            "nextItemId": 74
                        }
                    ]
                },
                {
                    "GCOJFIFNBGB": 74,
                    "itemType": "SingleDialog",
                    "nextItemId": 75,
                    "speakerText": {
                        "textId": 2219684877,
                        "textType": "SpeakerKnown"
                    },
                    "dialogs": [
                        {
                            "text": {
                                "textId": 1292635659,
                                "textType": "DialogNormal"
                            },
                            "soundId": 4850610,
                            "nextItemId": 75
                        }
                    ]
                },
                {
                    "GCOJFIFNBGB": 75,
                    "itemType": "SingleDialog",
                    "nextItemId": 76,
                    "speakerText": {
                        "textId": 2219684877,
                        "textType": "SpeakerKnown"
                    },
                    "dialogs": [
                        {
                            "text": {
                                "textId": 3302034187,
                                "textType": "DialogNormal"
                            },
                            "soundId": 4850611,
                            "nextItemId": 76
                        }
                    ]
                },
                {
                    "GCOJFIFNBGB": 76,
                    "itemType": "SingleDialog",
                    "nextItemId": 77,
                    "speakerText": {
                        "textId": 1356475093,
                        "textType": "SpeakerKnown"
                    },
                    "dialogs": [
                        {
                            "text": {
                                "textId": 3259846971,
                                "textType": "DialogNormal"
                            },
                            "soundId": 4850612,
                            "nextItemId": 77
                        }
                    ]
                },
                {
                    "GCOJFIFNBGB": 77,
                    "itemType": "SingleDialog",
                    "nextItemId": 78,
                    "speakerText": {
                        "textId": 2219684877,
                        "textType": "SpeakerKnown"
                    },
                    "dialogs": [
                        {
                            "text": {
                                "textId": 3217184019,
                                "textType": "DialogNormal"
                            },
                            "soundId": 4850613,
                            "nextItemId": 78
                        }
                    ]
                },
                {
                    "GCOJFIFNBGB": 78,
                    "itemType": "SingleDialog",
                    "nextItemId": 79,
                    "speakerText": {
                        "textId": 2219684877,
                        "textType": "SpeakerKnown"
                    },
                    "dialogs": [
                        {
                            "text": {
                                "textId": 1116756955,
                                "textType": "DialogNormal"
                            },
                            "soundId": 4850614,
                            "nextItemId": 79
                        }
                    ]
                },
                {
                    "GCOJFIFNBGB": 79,
                    "itemType": "SingleDialog",
                    "nextItemId": 80,
                    "speakerText": {
                        "textId": 2219684877,
                        "textType": "SpeakerKnown"
                    },
                    "dialogs": [
                        {
                            "text": {
                                "textId": 195758339,
                                "textType": "DialogNormal"
                            },
                            "soundId": 4850615,
                            "nextItemId": 80
                        }
                    ]
                },
                {
                    "GCOJFIFNBGB": 80,
                    "itemType": "SingleDialog",
                    "nextItemId": 81,
                    "speakerText": {
                        "textId": 1356475093,
                        "textType": "SpeakerKnown"
                    },
                    "dialogs": [
                        {
                            "text": {
                                "textId": 2544879027,
                                "textType": "DialogNormal"
                            },
                            "soundId": 4850616,
                            "nextItemId": 81
                        }
                    ]
                },
                {
                    "GCOJFIFNBGB": 81,
                    "itemType": "MultiDialog",
                    "speakerText": {
                        "textId": 1329777769,
                        "textType": "SpeakerPlayer"
                    },
                    "dialogs": [
                        {
                            "text": {
                                "textId": 2017698195,
                                "textType": "DialogNormal"
                            },
                            "soundId": 4850617,
                            "nextItemId": 83
                        },
                        {
                            "text": {
                                "textId": 2642272939,
                                "textType": "DialogNormal"
                            },
                            "soundId": 4850618,
                            "nextItemId": 83
                        }
                    ]
                },
                {
                    "GCOJFIFNBGB": 83,
                    "itemType": "SingleDialog",
                    "nextItemId": 84,
                    "speakerText": {
                        "textId": 2219684877,
                        "textType": "SpeakerKnown"
                    },
                    "dialogs": [
                        {
                            "text": {
                                "textId": 213094587,
                                "textType": "DialogNormal"
                            },
                            "soundId": 4850619,
                            "nextItemId": 84
                        }
                    ]
                },
                {
                    "GCOJFIFNBGB": 84,
                    "itemType": "SingleDialog",
                    "nextItemId": 85,
                    "speakerText": {
                        "textId": 2219684877,
                        "textType": "SpeakerKnown"
                    },
                    "dialogs": [
                        {
                            "text": {
                                "textId": 622235779,
                                "textType": "DialogNormal"
                            },
                            "soundId": 4850620,
                            "nextItemId": 85
                        }
                    ]
                },
                {
                    "GCOJFIFNBGB": 85,
                    "itemType": "TextLeft",
                    "nextItemId": 86,
                    "texts": [
                        {
                            "textId": 1713782629,
                            "textType": "Narratage"
                        }
                    ]
                },
                {
                    "GCOJFIFNBGB": 86,
                    "itemType": "SingleDialog",
                    "nextItemId": 87,
                    "speakerText": {
                        "textId": 1356475093,
                        "textType": "SpeakerKnown"
                    },
                    "dialogs": [
                        {
                            "text": {
                                "textId": 4111146059,
                                "textType": "DialogNormal"
                            },
                            "soundId": 4850621,
                            "nextItemId": 87
                        }
                    ]
                },
                {
                    "GCOJFIFNBGB": 87,
                    "itemType": "SingleDialog",
                    "nextItemId": 88,
                    "speakerText": {
                        "textId": 1356475093,
                        "textType": "SpeakerKnown"
                    },
                    "dialogs": [
                        {
                            "text": {
                                "textId": 571580195,
                                "textType": "DialogNormal"
                            },
                            "soundId": 4850622,
                            "nextItemId": 88
                        }
                    ]
                },
                {
                    "GCOJFIFNBGB": 88,
                    "itemType": "SingleDialog",
                    "speakerText": {
                        "textId": 1356475093,
                        "textType": "SpeakerKnown"
                    },
                    "dialogs": [
                        {
                            "text": {
                                "textId": 4127535387,
                                "textType": "DialogNormal"
                            },
                            "soundId": 4850623
                        }
                    ]
                }
            ]
        },
        {
            "subQuestTitle": {
                "textId": 2553494855,
                "textType": "SubQuestTitle"
            }
        },
        {
            "subQuestTitle": {
                "textId": 2429682903,
                "textType": "SubQuestTitle"
            },
            "items": [
                {
                    "GCOJFIFNBGB": 91,
                    "itemType": "SingleDialog",
                    "nextItemId": 92,
                    "speakerText": {
                        "textId": 2219684877,
                        "textType": "SpeakerKnown"
                    },
                    "dialogs": [
                        {
                            "text": {
                                "textId": 4185965283,
                                "textType": "DialogNormal"
                            },
                            "soundId": 4850801,
                            "nextItemId": 92
                        }
                    ]
                },
                {
                    "GCOJFIFNBGB": 92,
                    "itemType": "SingleDialog",
                    "nextItemId": 93,
                    "speakerText": {
                        "textId": 2219684877,
                        "textType": "SpeakerKnown"
                    },
                    "dialogs": [
                        {
                            "text": {
                                "textId": 2768598139,
                                "textType": "DialogNormal"
                            },
                            "soundId": 4850802,
                            "nextItemId": 93
                        }
                    ]
                },
                {
                    "GCOJFIFNBGB": 93,
                    "itemType": "MultiDialog",
                    "speakerText": {
                        "textId": 1329777769,
                        "textType": "SpeakerPlayer"
                    },
                    "dialogs": [
                        {
                            "text": {
                                "textId": 106345139,
                                "textType": "DialogNormal"
                            },
                            "soundId": 4850803,
                            "nextItemId": 95
                        },
                        {
                            "text": {
                                "textId": 3046808243,
                                "textType": "DialogNormal"
                            },
                            "soundId": 4850804,
                            "nextItemId": 95
                        }
                    ]
                },
                {
                    "GCOJFIFNBGB": 95,
                    "itemType": "SingleDialog",
                    "nextItemId": 96,
                    "speakerText": {
                        "textId": 2219684877,
                        "textType": "SpeakerKnown"
                    },
                    "dialogs": [
                        {
                            "text": {
                                "textId": 1945384371,
                                "textType": "DialogNormal"
                            },
                            "soundId": 4850805,
                            "nextItemId": 96
                        }
                    ]
                },
                {
                    "GCOJFIFNBGB": 96,
                    "itemType": "SingleDialog",
                    "nextItemId": 97,
                    "speakerText": {
                        "textId": 2219684877,
                        "textType": "SpeakerKnown"
                    },
                    "dialogs": [
                        {
                            "text": {
                                "textId": 831778611,
                                "textType": "DialogNormal"
                            },
                            "soundId": 4850806,
                            "nextItemId": 97
                        }
                    ]
                },
                {
                    "GCOJFIFNBGB": 97,
                    "itemType": "MultiDialog",
                    "speakerText": {
                        "textId": 1329777769,
                        "textType": "SpeakerPlayer"
                    },
                    "dialogs": [
                        {
                            "text": {
                                "textId": 624163427,
                                "textType": "DialogNormal"
                            },
                            "soundId": 4850807,
                            "nextItemId": 99
                        },
                        {
                            "text": {
                                "textId": 2044987291,
                                "textType": "DialogNormal"
                            },
                            "soundId": 4850808,
                            "nextItemId": 99
                        }
                    ]
                },
                {
                    "GCOJFIFNBGB": 99,
                    "itemType": "SingleDialog",
                    "nextItemId": 100,
                    "speakerText": {
                        "textId": 2219684877,
                        "textType": "SpeakerKnown"
                    },
                    "dialogs": [
                        {
                            "text": {
                                "textId": 1197151779,
                                "textType": "DialogNormal"
                            },
                            "soundId": 4850809,
                            "nextItemId": 100
                        }
                    ]
                },
                {
                    "GCOJFIFNBGB": 100,
                    "itemType": "SingleDialog",
                    "nextItemId": 101,
                    "speakerText": {
                        "textId": 2219684877,
                        "textType": "SpeakerKnown"
                    },
                    "dialogs": [
                        {
                            "text": {
                                "textId": 2717529499,
                                "textType": "DialogNormal"
                            },
                            "soundId": 4850810,
                            "nextItemId": 101
                        }
                    ]
                },
                {
                    "GCOJFIFNBGB": 101,
                    "itemType": "SingleDialog",
                    "nextItemId": 102,
                    "speakerText": {
                        "textId": 2219684877,
                        "textType": "SpeakerKnown"
                    },
                    "dialogs": [
                        {
                            "text": {
                                "textId": 2632811003,
                                "textType": "DialogNormal"
                            },
                            "soundId": 4850811,
                            "nextItemId": 102
                        }
                    ]
                },
                {
                    "GCOJFIFNBGB": 102,
                    "itemType": "SingleDialog",
                    "speakerText": {
                        "textId": 1356475093,
                        "textType": "SpeakerKnown"
                    },
                    "dialogs": [
                        {
                            "text": {
                                "textId": 434200459,
                                "textType": "DialogNormal"
                            },
                            "soundId": 4850812
                        }
                    ]
                }
            ]
        }
    ]
}