{
    "mainQuestId": 8000,
    "mainQuestTitle": {
        "textId": 1568618263,
        "textType": "MainQuestTitle"
    },
    "mainQuestDesp": {
        "textId": 4075679494,
        "textType": "MainQuestDesp"
    },
    "chapterTitle": {
        "textId": 376022177,
        "textType": "ChapterTitle"
    },
    "chapterNum": {
        "textId": 2982267634,
        "textType": "ChapterNum"
    },
    "subQuests": [
        {
            "subQuestTitle": {
                "textId": 3121911476,
                "textType": "SubQuestTitle"
            },
            "items": [
                {
                    "GCOJFIFNBGB": 2,
                    "itemType": "SingleDialog",
                    "nextItemId": 3,
                    "speakerText": {
                        "textId": 3782843565,
                        "textType": "SpeakerKnown"
                    },
                    "dialogs": [
                        {
                            "text": {
                                "textId": 2646212546,
                                "textType": "DialogNormal"
                            },
                            "soundId": 80000101,
                            "nextItemId": 3
                        }
                    ]
                },
                {
                    "GCOJFIFNBGB": 3,
                    "itemType": "SingleDialog",
                    "nextItemId": 4,
                    "speakerText": {
                        "textId": 3782843565,
                        "textType": "SpeakerKnown"
                    },
                    "dialogs": [
                        {
                            "text": {
                                "textId": 2014825258,
                                "textType": "DialogNormal"
                            },
                            "soundId": 80000102,
                            "nextItemId": 4
                        }
                    ]
                },
                {
                    "GCOJFIFNBGB": 4,
                    "itemType": "SingleDialog",
                    "nextItemId": 5,
                    "speakerText": {
                        "textId": 3782843565,
                        "textType": "SpeakerKnown"
                    },
                    "dialogs": [
                        {
                            "text": {
                                "textId": 3987260530,
                                "textType": "DialogNormal"
                            },
                            "soundId": 80000103,
                            "nextItemId": 5
                        }
                    ]
                },
                {
                    "GCOJFIFNBGB": 5,
                    "itemType": "SingleDialog",
                    "nextItemId": 6,
                    "speakerText": {
                        "textId": 3782843565,
                        "textType": "SpeakerKnown"
                    },
                    "dialogs": [
                        {
                            "text": {
                                "textId": 197043122,
                                "textType": "DialogNormal"
                            },
                            "soundId": 80000104,
                            "nextItemId": 6
                        }
                    ]
                },
                {
                    "GCOJFIFNBGB": 6,
                    "itemType": "SingleDialog",
                    "nextItemId": 7,
                    "speakerText": {
                        "textId": 1356475093,
                        "textType": "SpeakerKnown"
                    },
                    "dialogs": [
                        {
                            "text": {
                                "textId": 3936079186,
                                "textType": "DialogNormal"
                            },
                            "soundId": 80000105,
                            "nextItemId": 7
                        }
                    ]
                },
                {
                    "GCOJFIFNBGB": 7,
                    "itemType": "SingleDialog",
                    "nextItemId": 8,
                    "speakerText": {
                        "textId": 738812965,
                        "textType": "SpeakerKnown"
                    },
                    "dialogs": [
                        {
                            "text": {
                                "textId": 793534730,
                                "textType": "DialogNormal"
                            },
                            "soundId": 80000106,
                            "nextItemId": 8
                        }
                    ]
                },
                {
                    "GCOJFIFNBGB": 8,
                    "itemType": "SingleDialog",
                    "nextItemId": 9,
                    "speakerText": {
                        "textId": 738812965,
                        "textType": "SpeakerKnown"
                    },
                    "dialogs": [
                        {
                            "text": {
                                "textId": 1110351530,
                                "textType": "DialogNormal"
                            },
                            "soundId": 80000107,
                            "nextItemId": 9
                        }
                    ]
                },
                {
                    "GCOJFIFNBGB": 9,
                    "itemType": "SingleDialog",
                    "nextItemId": 10,
                    "speakerText": {
                        "textId": 3782843565,
                        "textType": "SpeakerKnown"
                    },
                    "dialogs": [
                        {
                            "text": {
                                "textId": 1212185138,
                                "textType": "DialogNormal"
                            },
                            "soundId": 80000108,
                            "nextItemId": 10
                        }
                    ]
                },
                {
                    "GCOJFIFNBGB": 10,
                    "itemType": "SingleDialog",
                    "nextItemId": 11,
                    "speakerText": {
                        "textId": 738812965,
                        "textType": "SpeakerKnown"
                    },
                    "dialogs": [
                        {
                            "text": {
                                "textId": 2557201458,
                                "textType": "DialogNormal"
                            },
                            "soundId": 80000109,
                            "nextItemId": 11
                        }
                    ]
                },
                {
                    "GCOJFIFNBGB": 11,
                    "itemType": "SingleDialog",
                    "nextItemId": 12,
                    "speakerText": {
                        "textId": 1356475093,
                        "textType": "SpeakerKnown"
                    },
                    "dialogs": [
                        {
                            "text": {
                                "textId": 391240338,
                                "textType": "DialogNormal"
                            },
                            "soundId": 80000110,
                            "nextItemId": 12
                        }
                    ]
                },
                {
                    "GCOJFIFNBGB": 12,
                    "itemType": "SingleDialog",
                    "nextItemId": 13,
                    "speakerText": {
                        "textId": 3782843565,
                        "textType": "SpeakerKnown"
                    },
                    "dialogs": [
                        {
                            "text": {
                                "textId": 2124930298,
                                "textType": "DialogNormal"
                            },
                            "soundId": 80000111,
                            "nextItemId": 13
                        }
                    ]
                },
                {
                    "GCOJFIFNBGB": 13,
                    "itemType": "SingleDialog",
                    "nextItemId": 14,
                    "speakerText": {
                        "textId": 1356475093,
                        "textType": "SpeakerKnown"
                    },
                    "dialogs": [
                        {
                            "text": {
                                "textId": 573909378,
                                "textType": "DialogNormal"
                            },
                            "soundId": 80000112,
                            "nextItemId": 14
                        }
                    ]
                },
                {
                    "GCOJFIFNBGB": 14,
                    "itemType": "MultiDialog",
                    "speakerText": {
                        "textId": 1329777769,
                        "textType": "SpeakerPlayer"
                    },
                    "dialogs": [
                        {
                            "text": {
                                "textId": 2230719050,
                                "textType": "DialogNormal"
                            },
                            "soundId": 80000113,
                            "nextItemId": 17
                        },
                        {
                            "text": {
                                "textId": 3219691706,
                                "textType": "DialogNormal"
                            },
                            "soundId": 80000114,
                            "nextItemId": 16
                        }
                    ]
                },
                {
                    "GCOJFIFNBGB": 16,
                    "itemType": "SingleDialog",
                    "nextItemId": 17,
                    "speakerText": {
                        "textId": 3782843565,
                        "textType": "SpeakerKnown"
                    },
                    "dialogs": [
                        {
                            "text": {
                                "textId": 3820845434,
                                "textType": "DialogNormal"
                            },
                            "soundId": 80000115,
                            "nextItemId": 17
                        }
                    ]
                },
                {
                    "GCOJFIFNBGB": 17,
                    "itemType": "SingleDialog",
                    "nextItemId": 18,
                    "speakerText": {
                        "textId": 3782843565,
                        "textType": "SpeakerKnown"
                    },
                    "dialogs": [
                        {
                            "text": {
                                "textId": 3895599402,
                                "textType": "DialogNormal"
                            },
                            "soundId": 80000116,
                            "nextItemId": 18
                        }
                    ]
                },
                {
                    "GCOJFIFNBGB": 18,
                    "itemType": "SingleDialog",
                    "nextItemId": 19,
                    "speakerText": {
                        "textId": 3782843565,
                        "textType": "SpeakerKnown"
                    },
                    "dialogs": [
                        {
                            "text": {
                                "textId": 2333702122,
                                "textType": "DialogNormal"
                            },
                            "soundId": 80000117,
                            "nextItemId": 19
                        }
                    ]
                },
                {
                    "GCOJFIFNBGB": 19,
                    "itemType": "SingleDialog",
                    "nextItemId": 20,
                    "speakerText": {
                        "textId": 738812965,
                        "textType": "SpeakerKnown"
                    },
                    "dialogs": [
                        {
                            "text": {
                                "textId": 3945182906,
                                "textType": "DialogNormal"
                            },
                            "soundId": 80000118,
                            "nextItemId": 20
                        }
                    ]
                },
                {
                    "GCOJFIFNBGB": 20,
                    "itemType": "SingleDialog",
                    "nextItemId": 21,
                    "speakerText": {
                        "textId": 738812965,
                        "textType": "SpeakerKnown"
                    },
                    "dialogs": [
                        {
                            "text": {
                                "textId": 2307046178,
                                "textType": "DialogNormal"
                            },
                            "soundId": 80000119,
                            "nextItemId": 21
                        }
                    ]
                },
                {
                    "GCOJFIFNBGB": 21,
                    "itemType": "SingleDialog",
                    "nextItemId": 22,
                    "speakerText": {
                        "textId": 738812965,
                        "textType": "SpeakerKnown"
                    },
                    "dialogs": [
                        {
                            "text": {
                                "textId": 412658786,
                                "textType": "DialogNormal"
                            },
                            "soundId": 80000120,
                            "nextItemId": 22
                        }
                    ]
                },
                {
                    "GCOJFIFNBGB": 22,
                    "itemType": "SingleDialog",
                    "nextItemId": 23,
                    "speakerText": {
                        "textId": 3782843565,
                        "textType": "SpeakerKnown"
                    },
                    "dialogs": [
                        {
                            "text": {
                                "textId": 3833865746,
                                "textType": "DialogNormal"
                            },
                            "soundId": 80000121,
                            "nextItemId": 23
                        }
                    ]
                },
                {
                    "GCOJFIFNBGB": 23,
                    "itemType": "SingleDialog",
                    "nextItemId": 24,
                    "speakerText": {
                        "textId": 1356475093,
                        "textType": "SpeakerKnown"
                    },
                    "dialogs": [
                        {
                            "text": {
                                "textId": 2705801794,
                                "textType": "DialogNormal"
                            },
                            "soundId": 80000122,
                            "nextItemId": 24
                        }
                    ]
                },
                {
                    "GCOJFIFNBGB": 24,
                    "itemType": "SingleDialog",
                    "nextItemId": 25,
                    "speakerText": {
                        "textId": 3782843565,
                        "textType": "SpeakerKnown"
                    },
                    "dialogs": [
                        {
                            "text": {
                                "textId": 258971434,
                                "textType": "DialogNormal"
                            },
                            "soundId": 80000123,
                            "nextItemId": 25
                        }
                    ]
                },
                {
                    "GCOJFIFNBGB": 25,
                    "itemType": "SingleDialog",
                    "nextItemId": 26,
                    "speakerText": {
                        "textId": 3782843565,
                        "textType": "SpeakerKnown"
                    },
                    "dialogs": [
                        {
                            "text": {
                                "textId": 968375562,
                                "textType": "DialogNormal"
                            },
                            "soundId": 80000124,
                            "nextItemId": 26
                        }
                    ]
                },
                {
                    "GCOJFIFNBGB": 26,
                    "itemType": "MultiDialog",
                    "speakerText": {
                        "textId": 1329777769,
                        "textType": "SpeakerPlayer"
                    },
                    "dialogs": [
                        {
                            "text": {
                                "textId": 1360704098,
                                "textType": "DialogNormal"
                            },
                            "soundId": 80000125,
                            "nextItemId": 27
                        },
                        {
                            "text": {
                                "textId": 2632901202,
                                "textType": "DialogNormal"
                            },
                            "soundId": 80000127,
                            "nextItemId": 29
                        }
                    ]
                },
                {
                    "GCOJFIFNBGB": 27,
                    "itemType": "SingleDialog",
                    "nextItemId": 30,
                    "speakerText": {
                        "textId": 3782843565,
                        "textType": "SpeakerKnown"
                    },
                    "dialogs": [
                        {
                            "text": {
                                "textId": 298773098,
                                "textType": "DialogNormal"
                            },
                            "soundId": 80000126,
                            "nextItemId": 30
                        }
                    ]
                },
                {
                    "GCOJFIFNBGB": 29,
                    "itemType": "SingleDialog",
                    "nextItemId": 30,
                    "speakerText": {
                        "textId": 3782843565,
                        "textType": "SpeakerKnown"
                    },
                    "dialogs": [
                        {
                            "text": {
                                "textId": 1847975298,
                                "textType": "DialogNormal"
                            },
                            "soundId": 80000128,
                            "nextItemId": 30
                        }
                    ]
                },
                {
                    "GCOJFIFNBGB": 30,
                    "itemType": "SingleDialog",
                    "nextItemId": 31,
                    "speakerText": {
                        "textId": 3782843565,
                        "textType": "SpeakerKnown"
                    },
                    "dialogs": [
                        {
                            "text": {
                                "textId": 3563371986,
                                "textType": "DialogNormal"
                            },
                            "soundId": 80000129,
                            "nextItemId": 31
                        }
                    ]
                },
                {
                    "GCOJFIFNBGB": 31,
                    "itemType": "SingleDialog",
                    "nextItemId": 32,
                    "speakerText": {
                        "textId": 738812965,
                        "textType": "SpeakerKnown"
                    },
                    "dialogs": [
                        {
                            "text": {
                                "textId": 213248050,
                                "textType": "DialogNormal"
                            },
                            "soundId": 80000130,
                            "nextItemId": 32
                        }
                    ]
                },
                {
                    "GCOJFIFNBGB": 32,
                    "itemType": "SingleDialog",
                    "nextItemId": 33,
                    "speakerText": {
                        "textId": 738812965,
                        "textType": "SpeakerKnown"
                    },
                    "dialogs": [
                        {
                            "text": {
                                "textId": 766065994,
                                "textType": "DialogNormal"
                            },
                            "soundId": 80000131,
                            "nextItemId": 33
                        }
                    ]
                },
                {
                    "GCOJFIFNBGB": 33,
                    "itemType": "SingleDialog",
                    "nextItemId": 34,
                    "speakerText": {
                        "textId": 738812965,
                        "textType": "SpeakerKnown"
                    },
                    "dialogs": [
                        {
                            "text": {
                                "textId": 2348949994,
                                "textType": "DialogNormal"
                            },
                            "soundId": 80000132,
                            "nextItemId": 34
                        }
                    ]
                },
                {
                    "GCOJFIFNBGB": 34,
                    "itemType": "MultiDialog",
                    "speakerText": {
                        "textId": 1329777769,
                        "textType": "SpeakerPlayer"
                    },
                    "dialogs": [
                        {
                            "text": {
                                "textId": 2038458914,
                                "textType": "DialogNormal"
                            },
                            "soundId": 80000133,
                            "nextItemId": 36
                        },
                        {
                            "text": {
                                "textId": 4243845330,
                                "textType": "DialogNormal"
                            },
                            "soundId": 80000134,
                            "nextItemId": 36
                        }
                    ]
                },
                {
                    "GCOJFIFNBGB": 36,
                    "itemType": "SingleDialog",
                    "nextItemId": 37,
                    "speakerText": {
                        "textId": 1356475093,
                        "textType": "SpeakerKnown"
                    },
                    "dialogs": [
                        {
                            "text": {
                                "textId": 1604223146,
                                "textType": "DialogNormal"
                            },
                            "soundId": 80000135,
                            "nextItemId": 37
                        }
                    ]
                },
                {
                    "GCOJFIFNBGB": 37,
                    "itemType": "SingleDialog",
                    "nextItemId": 38,
                    "speakerText": {
                        "textId": 738812965,
                        "textType": "SpeakerKnown"
                    },
                    "dialogs": [
                        {
                            "text": {
                                "textId": 247240714,
                                "textType": "DialogNormal"
                            },
                            "soundId": 80000136,
                            "nextItemId": 38
                        }
                    ]
                },
                {
                    "GCOJFIFNBGB": 38,
                    "itemType": "SingleDialog",
                    "speakerText": {
                        "textId": 3782843565,
                        "textType": "SpeakerKnown"
                    },
                    "dialogs": [
                        {
                            "text": {
                                "textId": 1267695890,
                                "textType": "DialogNormal"
                            },
                            "soundId": 80000137
                        }
                    ]
                }
            ]
        },
        {
            "subQuestTitle": {
                "textId": 641250884,
                "textType": "SubQuestTitle"
            }
        },
        {
            "subQuestTitle": {
                "textId": 259876956,
                "textType": "SubQuestTitle"
            },
            "items": [
                {
                    "GCOJFIFNBGB": 41,
                    "itemType": "TextLeft",
                    "nextItemId": 42,
                    "texts": [
                        {
                            "textId": 1425361677,
                            "textType": "Narratage"
                        }
                    ]
                },
                {
                    "GCOJFIFNBGB": 42,
                    "itemType": "SingleDialog",
                    "nextItemId": 43,
                    "speakerText": {
                        "textId": 3979827917,
                        "textType": "SpeakerKnown"
                    },
                    "dialogs": [
                        {
                            "text": {
                                "textId": 3608725300,
                                "textType": "Aside"
                            },
                            "KDHLJJEAGHJ": "Reminder",
                            "soundId": 201040101,
                            "nextItemId": 43
                        }
                    ]
                },
                {
                    "GCOJFIFNBGB": 43,
                    "itemType": "SingleDialog",
                    "nextItemId": 44,
                    "speakerText": {
                        "textId": 4146627229,
                        "textType": "SpeakerKnown"
                    },
                    "dialogs": [
                        {
                            "text": {
                                "textId": 805157172,
                                "textType": "Aside"
                            },
                            "KDHLJJEAGHJ": "Reminder",
                            "soundId": 201040102,
                            "nextItemId": 44
                        }
                    ]
                },
                {
                    "GCOJFIFNBGB": 44,
                    "itemType": "TextLeft",
                    "nextItemId": 45,
                    "texts": [
                        {
                            "textId": 4009633597,
                            "textType": "Narratage"
                        }
                    ]
                },
                {
                    "GCOJFIFNBGB": 45,
                    "itemType": "SingleDialog",
                    "nextItemId": 46,
                    "speakerText": {
                        "textId": 819800637,
                        "textType": "SpeakerKnown"
                    },
                    "dialogs": [
                        {
                            "text": {
                                "textId": 3262824588,
                                "textType": "Aside"
                            },
                            "KDHLJJEAGHJ": "Reminder",
                            "soundId": 201040103,
                            "nextItemId": 46
                        }
                    ]
                },
                {
                    "GCOJFIFNBGB": 46,
                    "itemType": "SingleDialog",
                    "nextItemId": 47,
                    "speakerText": {
                        "textId": 2708059389,
                        "textType": "SpeakerKnown"
                    },
                    "dialogs": [
                        {
                            "text": {
                                "textId": 1031456268,
                                "textType": "Aside"
                            },
                            "KDHLJJEAGHJ": "Reminder",
                            "soundId": 201040104,
                            "nextItemId": 47
                        }
                    ]
                },
                {
                    "GCOJFIFNBGB": 47,
                    "itemType": "TextLeft",
                    "nextItemId": 48,
                    "texts": [
                        {
                            "textId": 1534128989,
                            "textType": "Narratage"
                        }
                    ]
                },
                {
                    "GCOJFIFNBGB": 48,
                    "itemType": "SingleDialog",
                    "nextItemId": 49,
                    "speakerText": {
                        "textId": 3033604493,
                        "textType": "SpeakerKnown"
                    },
                    "dialogs": [
                        {
                            "text": {
                                "textId": 695317916,
                                "textType": "Aside"
                            },
                            "KDHLJJEAGHJ": "Reminder",
                            "soundId": 201040105,
                            "nextItemId": 49
                        }
                    ]
                },
                {
                    "GCOJFIFNBGB": 49,
                    "itemType": "SingleDialog",
                    "nextItemId": 50,
                    "speakerText": {
                        "textId": 3299421933,
                        "textType": "SpeakerKnown"
                    },
                    "dialogs": [
                        {
                            "text": {
                                "textId": 48779772,
                                "textType": "Aside"
                            },
                            "KDHLJJEAGHJ": "Reminder",
                            "soundId": 201040106,
                            "nextItemId": 50
                        }
                    ]
                },
                {
                    "GCOJFIFNBGB": 50,
                    "itemType": "SingleDialog",
                    "speakerText": {
                        "textId": 38841301,
                        "textType": "SpeakerKnown"
                    },
                    "dialogs": [
                        {
                            "text": {
                                "textId": 2474303236,
                                "textType": "Aside"
                            },
                            "KDHLJJEAGHJ": "Reminder",
                            "soundId": 201040107
                        }
                    ]
                }
            ]
        },
        {
            "subQuestTitle": {
                "textId": 2918034276,
                "textType": "SubQuestTitle"
            },
            "items": [
                {
                    "GCOJFIFNBGB": 52,
                    "itemType": "SingleDialog",
                    "nextItemId": 53,
                    "speakerText": {
                        "textId": 1356475093,
                        "textType": "SpeakerKnown"
                    },
                    "dialogs": [
                        {
                            "text": {
                                "textId": 2925695226,
                                "textType": "DialogNormal"
                            },
                            "soundId": 80000201,
                            "nextItemId": 53
                        }
                    ]
                },
                {
                    "GCOJFIFNBGB": 53,
                    "itemType": "SingleDialog",
                    "nextItemId": 54,
                    "speakerText": {
                        "textId": 1356475093,
                        "textType": "SpeakerKnown"
                    },
                    "dialogs": [
                        {
                            "text": {
                                "textId": 2880174426,
                                "textType": "DialogNormal"
                            },
                            "soundId": 80000202,
                            "nextItemId": 54
                        }
                    ]
                },
                {
                    "GCOJFIFNBGB": 54,
                    "itemType": "SingleDialog",
                    "nextItemId": 55,
                    "speakerText": {
                        "textId": 1356475093,
                        "textType": "SpeakerKnown"
                    },
                    "dialogs": [
                        {
                            "text": {
                                "textId": 2999307986,
                                "textType": "DialogNormal"
                            },
                            "soundId": 80000203,
                            "nextItemId": 55
                        }
                    ]
                },
                {
                    "GCOJFIFNBGB": 55,
                    "itemType": "SingleDialog",
                    "nextItemId": 56,
                    "speakerText": {
                        "textId": 1356475093,
                        "textType": "SpeakerKnown"
                    },
                    "dialogs": [
                        {
                            "text": {
                                "textId": 2760352986,
                                "textType": "DialogNormal"
                            },
                            "soundId": 80000204,
                            "nextItemId": 56
                        }
                    ]
                },
                {
                    "GCOJFIFNBGB": 56,
                    "itemType": "SingleDialog",
                    "nextItemId": 57,
                    "speakerText": {
                        "textId": 1356475093,
                        "textType": "SpeakerKnown"
                    },
                    "dialogs": [
                        {
                            "text": {
                                "textId": 3531518914,
                                "textType": "DialogNormal"
                            },
                            "soundId": 80000205,
                            "nextItemId": 57
                        }
                    ]
                },
                {
                    "GCOJFIFNBGB": 57,
                    "itemType": "MultiDialog",
                    "speakerText": {
                        "textId": 1329777769,
                        "textType": "SpeakerPlayer"
                    },
                    "dialogs": [
                        {
                            "text": {
                                "textId": 4118180818,
                                "textType": "DialogNormal"
                            },
                            "soundId": 80000206,
                            "nextItemId": 59
                        },
                        {
                            "text": {
                                "textId": 2035109618,
                                "textType": "DialogNormal"
                            },
                            "soundId": 80000207,
                            "nextItemId": 59
                        }
                    ]
                },
                {
                    "GCOJFIFNBGB": 59,
                    "itemType": "SingleDialog",
                    "nextItemId": 60,
                    "speakerText": {
                        "textId": 1356475093,
                        "textType": "SpeakerKnown"
                    },
                    "dialogs": [
                        {
                            "text": {
                                "textId": 1912998458,
                                "textType": "DialogNormal"
                            },
                            "soundId": 80000208,
                            "nextItemId": 60
                        }
                    ]
                },
                {
                    "GCOJFIFNBGB": 60,
                    "itemType": "SingleDialog",
                    "nextItemId": 61,
                    "speakerText": {
                        "textId": 1356475093,
                        "textType": "SpeakerKnown"
                    },
                    "dialogs": [
                        {
                            "text": {
                                "textId": 2915033586,
                                "textType": "DialogNormal"
                            },
                            "soundId": 80000209,
                            "nextItemId": 61
                        }
                    ]
                },
                {
                    "GCOJFIFNBGB": 61,
                    "itemType": "SingleDialog",
                    "nextItemId": 62,
                    "speakerText": {
                        "textId": 1356475093,
                        "textType": "SpeakerKnown"
                    },
                    "dialogs": [
                        {
                            "text": {
                                "textId": 664191866,
                                "textType": "DialogNormal"
                            },
                            "soundId": 80000210,
                            "nextItemId": 62
                        }
                    ]
                },
                {
                    "GCOJFIFNBGB": 62,
                    "itemType": "SingleDialog",
                    "nextItemId": 63,
                    "speakerText": {
                        "textId": 1356475093,
                        "textType": "SpeakerKnown"
                    },
                    "dialogs": [
                        {
                            "text": {
                                "textId": 203775634,
                                "textType": "DialogNormal"
                            },
                            "soundId": 80000211,
                            "nextItemId": 63
                        }
                    ]
                },
                {
                    "GCOJFIFNBGB": 63,
                    "itemType": "SingleDialog",
                    "nextItemId": 64,
                    "speakerText": {
                        "textId": 1356475093,
                        "textType": "SpeakerKnown"
                    },
                    "dialogs": [
                        {
                            "text": {
                                "textId": 3971105818,
                                "textType": "DialogNormal"
                            },
                            "soundId": 80000212,
                            "nextItemId": 64
                        }
                    ]
                },
                {
                    "GCOJFIFNBGB": 64,
                    "itemType": "SingleDialog",
                    "nextItemId": 65,
                    "speakerText": {
                        "textId": 1356475093,
                        "textType": "SpeakerKnown"
                    },
                    "dialogs": [
                        {
                            "text": {
                                "textId": 2583118698,
                                "textType": "DialogNormal"
                            },
                            "soundId": 80000213,
                            "nextItemId": 65
                        }
                    ]
                },
                {
                    "GCOJFIFNBGB": 65,
                    "itemType": "SingleDialog",
                    "nextItemId": 66,
                    "speakerText": {
                        "textId": 196962251,
                        "textType": "SpeakerKnown"
                    },
                    "dialogs": [
                        {
                            "text": {
                                "textId": 840241514,
                                "textType": "DialogNormal"
                            },
                            "soundId": 80000214,
                            "nextItemId": 66
                        }
                    ]
                },
                {
                    "GCOJFIFNBGB": 66,
                    "itemType": "SingleDialog",
                    "nextItemId": 67,
                    "speakerText": {
                        "textId": 1356475093,
                        "textType": "SpeakerKnown"
                    },
                    "dialogs": [
                        {
                            "text": {
                                "textId": 2958516338,
                                "textType": "DialogNormal"
                            },
                            "soundId": 80000215,
                            "nextItemId": 67
                        }
                    ]
                },
                {
                    "GCOJFIFNBGB": 67,
                    "itemType": "SingleDialog",
                    "nextItemId": 68,
                    "speakerText": {
                        "textId": 1356475093,
                        "textType": "SpeakerKnown"
                    },
                    "dialogs": [
                        {
                            "text": {
                                "textId": 2021043194,
                                "textType": "DialogNormal"
                            },
                            "soundId": 80000216,
                            "nextItemId": 68
                        }
                    ]
                },
                {
                    "GCOJFIFNBGB": 68,
                    "itemType": "MultiDialog",
                    "speakerText": {
                        "textId": 1329777769,
                        "textType": "SpeakerPlayer"
                    },
                    "dialogs": [
                        {
                            "text": {
                                "textId": 2989968658,
                                "textType": "DialogNormal"
                            },
                            "soundId": 80000217,
                            "nextItemId": 70
                        },
                        {
                            "text": {
                                "textId": 1338448770,
                                "textType": "DialogNormal"
                            },
                            "soundId": 80000218,
                            "nextItemId": 70
                        }
                    ]
                },
                {
                    "GCOJFIFNBGB": 70,
                    "itemType": "SingleDialog",
                    "nextItemId": 71,
                    "speakerText": {
                        "textId": 1356475093,
                        "textType": "SpeakerKnown"
                    },
                    "dialogs": [
                        {
                            "text": {
                                "textId": 2317319586,
                                "textType": "DialogNormal"
                            },
                            "soundId": 80000219,
                            "nextItemId": 71
                        }
                    ]
                },
                {
                    "GCOJFIFNBGB": 71,
                    "itemType": "SingleDialog",
                    "speakerText": {
                        "textId": 1356475093,
                        "textType": "SpeakerKnown"
                    },
                    "dialogs": [
                        {
                            "text": {
                                "textId": 2229504082,
                                "textType": "DialogNormal"
                            },
                            "soundId": 80000220
                        }
                    ]
                }
            ]
        },
        {
            "subQuestTitle": {
                "textId": 122254988,
                "textType": "SubQuestTitle"
            },
            "items": [
                {
                    "GCOJFIFNBGB": 73,
                    "itemType": "SingleDialog",
                    "speakerText": {
                        "textId": 3774751437,
                        "textType": "SpeakerKnown"
                    },
                    "dialogs": [
                        {
                            "text": {
                                "textId": 4013210532,
                                "textType": "Aside"
                            },
                            "KDHLJJEAGHJ": "Reminder",
                            "soundId": 201040108
                        }
                    ]
                }
            ]
        },
        {
            "subQuestTitle": {
                "textId": 2507660860,
                "textType": "SubQuestTitle"
            },
            "items": [
                {
                    "GCOJFIFNBGB": 75,
                    "itemType": "SingleDialog",
                    "nextItemId": 76,
                    "speakerText": {
                        "textId": 3920402317,
                        "textType": "SpeakerKnown"
                    },
                    "dialogs": [
                        {
                            "text": {
                                "textId": 249352026,
                                "textType": "DialogNormal"
                            },
                            "soundId": 80000401,
                            "nextItemId": 76
                        }
                    ]
                },
                {
                    "GCOJFIFNBGB": 76,
                    "itemType": "SingleDialog",
                    "nextItemId": 77,
                    "speakerText": {
                        "textId": 3920402317,
                        "textType": "SpeakerKnown"
                    },
                    "dialogs": [
                        {
                            "text": {
                                "textId": 952444618,
                                "textType": "DialogNormal"
                            },
                            "soundId": 80000402,
                            "nextItemId": 77
                        }
                    ]
                },
                {
                    "GCOJFIFNBGB": 77,
                    "itemType": "SingleDialog",
                    "nextItemId": 78,
                    "speakerText": {
                        "textId": 3920402317,
                        "textType": "SpeakerKnown"
                    },
                    "dialogs": [
                        {
                            "text": {
                                "textId": 3260494098,
                                "textType": "DialogNormal"
                            },
                            "soundId": 80000403,
                            "nextItemId": 78
                        }
                    ]
                },
                {
                    "GCOJFIFNBGB": 78,
                    "itemType": "SingleDialog",
                    "nextItemId": 79,
                    "speakerText": {
                        "textId": 1356475093,
                        "textType": "SpeakerKnown"
                    },
                    "dialogs": [
                        {
                            "text": {
                                "textId": 350393522,
                                "textType": "DialogNormal"
                            },
                            "soundId": 80000404,
                            "nextItemId": 79
                        }
                    ]
                },
                {
                    "GCOJFIFNBGB": 79,
                    "itemType": "MultiDialog",
                    "speakerText": {
                        "textId": 1329777769,
                        "textType": "SpeakerPlayer"
                    },
                    "dialogs": [
                        {
                            "text": {
                                "textId": 1972605002,
                                "textType": "DialogNormal"
                            },
                            "soundId": 80000405,
                            "nextItemId": 81
                        },
                        {
                            "text": {
                                "textId": 992511914,
                                "textType": "DialogNormal"
                            },
                            "soundId": 80000406,
                            "nextItemId": 81
                        }
                    ]
                },
                {
                    "GCOJFIFNBGB": 81,
                    "itemType": "SingleDialog",
                    "nextItemId": 82,
                    "speakerText": {
                        "textId": 3920402317,
                        "textType": "SpeakerKnown"
                    },
                    "dialogs": [
                        {
                            "text": {
                                "textId": 1572204194,
                                "textType": "DialogNormal"
                            },
                            "soundId": 80000407,
                            "nextItemId": 82
                        }
                    ]
                },
                {
                    "GCOJFIFNBGB": 82,
                    "itemType": "SingleDialog",
                    "nextItemId": 83,
                    "speakerText": {
                        "textId": 3920402317,
                        "textType": "SpeakerKnown"
                    },
                    "dialogs": [
                        {
                            "text": {
                                "textId": 1295221938,
                                "textType": "DialogNormal"
                            },
                            "soundId": 80000408,
                            "nextItemId": 83
                        }
                    ]
                },
                {
                    "GCOJFIFNBGB": 83,
                    "itemType": "SingleDialog",
                    "speakerText": {
                        "textId": 3920402317,
                        "textType": "SpeakerKnown"
                    },
                    "dialogs": [
                        {
                            "text": {
                                "textId": 2938915962,
                                "textType": "DialogNormal"
                            },
                            "soundId": 80000409
                        }
                    ]
                }
            ]
        },
        {
            "subQuestTitle": {
                "textId": 2632875212,
                "textType": "SubQuestTitle"
            },
            "items": [
                {
                    "GCOJFIFNBGB": 85,
                    "itemType": "SingleDialog",
                    "nextItemId": 86,
                    "speakerText": {
                        "textId": 2219069781,
                        "textType": "SpeakerKnown"
                    },
                    "dialogs": [
                        {
                            "text": {
                                "textId": 688645948,
                                "textType": "Aside"
                            },
                            "KDHLJJEAGHJ": "Reminder",
                            "soundId": 201040109,
                            "nextItemId": 86
                        }
                    ]
                },
                {
                    "GCOJFIFNBGB": 86,
                    "itemType": "SingleDialog",
                    "speakerText": {
                        "textId": 2925865173,
                        "textType": "SpeakerKnown"
                    },
                    "dialogs": [
                        {
                            "text": {
                                "textId": 2233275988,
                                "textType": "Aside"
                            },
                            "KDHLJJEAGHJ": "Reminder",
                            "soundId": 201040110
                        }
                    ]
                }
            ]
        },
        {
            "subQuestTitle": {
                "textId": 2202146084,
                "textType": "SubQuestTitle"
            },
            "items": [
                {
                    "GCOJFIFNBGB": 88,
                    "itemType": "SingleDialog",
                    "nextItemId": 89,
                    "speakerText": {
                        "textId": 3920402317,
                        "textType": "SpeakerKnown"
                    },
                    "dialogs": [
                        {
                            "text": {
                                "textId": 3442350338,
                                "textType": "DialogNormal"
                            },
                            "soundId": 80000301,
                            "nextItemId": 89
                        }
                    ]
                },
                {
                    "GCOJFIFNBGB": 89,
                    "itemType": "SingleDialog",
                    "nextItemId": 90,
                    "speakerText": {
                        "textId": 3920402317,
                        "textType": "SpeakerKnown"
                    },
                    "dialogs": [
                        {
                            "text": {
                                "textId": 966566514,
                                "textType": "DialogNormal"
                            },
                            "soundId": 80000302,
                            "nextItemId": 90
                        }
                    ]
                },
                {
                    "GCOJFIFNBGB": 90,
                    "itemType": "SingleDialog",
                    "nextItemId": 91,
                    "speakerText": {
                        "textId": 3920402317,
                        "textType": "SpeakerKnown"
                    },
                    "dialogs": [
                        {
                            "text": {
                                "textId": 1712266698,
                                "textType": "DialogNormal"
                            },
                            "soundId": 80000303,
                            "nextItemId": 91
                        }
                    ]
                },
                {
                    "GCOJFIFNBGB": 91,
                    "itemType": "SingleDialog",
                    "nextItemId": 92,
                    "speakerText": {
                        "textId": 3920402317,
                        "textType": "SpeakerKnown"
                    },
                    "dialogs": [
                        {
                            "text": {
                                "textId": 3581079546,
                                "textType": "DialogNormal"
                            },
                            "soundId": 80000304,
                            "nextItemId": 92
                        }
                    ]
                },
                {
                    "GCOJFIFNBGB": 92,
                    "itemType": "TextLeft",
                    "nextItemId": 93,
                    "texts": [
                        {
                            "textId": 101447429,
                            "textType": "Narratage"
                        }
                    ]
                },
                {
                    "GCOJFIFNBGB": 93,
                    "itemType": "SingleDialog",
                    "nextItemId": 94,
                    "speakerText": {
                        "textId": 1356475093,
                        "textType": "SpeakerKnown"
                    },
                    "dialogs": [
                        {
                            "text": {
                                "textId": 2505435738,
                                "textType": "DialogNormal"
                            },
                            "soundId": 80000305,
                            "nextItemId": 94
                        }
                    ]
                },
                {
                    "GCOJFIFNBGB": 94,
                    "itemType": "SingleDialog",
                    "nextItemId": 95,
                    "speakerText": {
                        "textId": 1356475093,
                        "textType": "SpeakerKnown"
                    },
                    "dialogs": [
                        {
                            "text": {
                                "textId": 2128849298,
                                "textType": "DialogNormal"
                            },
                            "soundId": 80000306,
                            "nextItemId": 95
                        }
                    ]
                },
                {
                    "GCOJFIFNBGB": 95,
                    "itemType": "SingleDialog",
                    "nextItemId": 96,
                    "speakerText": {
                        "textId": 1329777769,
                        "textType": "SpeakerPlayer"
                    },
                    "dialogs": [
                        {
                            "text": {
                                "textId": 2495825218,
                                "textType": "DialogNormal"
                            },
                            "soundId": 80000307,
                            "nextItemId": 96
                        }
                    ]
                },
                {
                    "GCOJFIFNBGB": 96,
                    "itemType": "SingleDialog",
                    "nextItemId": 97,
                    "speakerText": {
                        "textId": 1356475093,
                        "textType": "SpeakerKnown"
                    },
                    "dialogs": [
                        {
                            "text": {
                                "textId": 91030698,
                                "textType": "DialogNormal"
                            },
                            "soundId": 80000308,
                            "nextItemId": 97
                        }
                    ]
                },
                {
                    "GCOJFIFNBGB": 97,
                    "itemType": "SingleDialog",
                    "nextItemId": 98,
                    "speakerText": {
                        "textId": 1329777769,
                        "textType": "SpeakerPlayer"
                    },
                    "dialogs": [
                        {
                            "text": {
                                "textId": 3417125290,
                                "textType": "DialogNormal"
                            },
                            "soundId": 80000309,
                            "nextItemId": 98
                        }
                    ]
                },
                {
                    "GCOJFIFNBGB": 98,
                    "itemType": "SingleDialog",
                    "speakerText": {
                        "textId": 1356475093,
                        "textType": "SpeakerKnown"
                    },
                    "dialogs": [
                        {
                            "text": {
                                "textId": 1075567498,
                                "textType": "DialogNormal"
                            },
                            "soundId": 80000310
                        }
                    ]
                }
            ]
        },
        {
            "subQuestTitle": {
                "textId": 3943814084,
                "textType": "SubQuestTitle"
            }
        }
    ]
}