{
    "sceneId": 20157,
    "ABHGBDGFJJB": [
        {
            "name": "room_global",
            "IIJNAIIBNHE": {
                "text": "aux_scene_dungeon_close_small"
            },
            "BPMALONJLHD": true
        }
    ],
    "JJPHDDNMPCN": "room_global"
}