{
    "sceneId": 32103,
    "ABHGBDGFJJB": [
        {
            "name": "room_global",
            "IIJNAIIBNHE": {
                "text": "aux_scene_tower_default"
            },
            "BPMALONJLHD": true
        },
        {
            "name": "room_tower_huge_close_room",
            "IIJNAIIBNHE": {
                "text": "aux_scene_tower_close_huge"
            },
            "BPMALONJLHD": true,
            "NEOPAGFDPNP": [
                {
                    "position": {
                        "y": 10.0
                    },
                    "size": {
                        "x": 55.0,
                        "y": 40.0,
                        "z": 50.0
                    }
                }
            ]
        }
    ],
    "FOKHCDAFJJC": [
        {
            "name": "portal_tower_huge_close_room_to_outdoor_f",
            "position": {
                "y": 10.0,
                "z": 25.0
            },
            "size": {
                "x": 20.0,
                "y": 40.0,
                "z": 10.0
            },
            "JAJCKHLNDKG": "room_global",
            "MLODNBGCEMN": "room_tower_huge_close_room"
        },
        {
            "name": "portal_tower_huge_close_room_to_outdoor_b",
            "position": {
                "y": 10.0,
                "z": -25.0
            },
            "size": {
                "x": 20.0,
                "y": 40.0,
                "z": 10.0
            },
            "JAJCKHLNDKG": "room_tower_huge_close_room",
            "MLODNBGCEMN": "room_global"
        }
    ],
    "JJPHDDNMPCN": "room_global"
}