{
    "sceneId": 40300,
    "ABHGBDGFJJB": [
        {
            "name": "room_global",
            "IIJNAIIBNHE": {
                "text": "aux_scene_dungeon_default"
            },
            "BPMALONJLHD": true
        }
    ],
    "JJPHDDNMPCN": "room_global"
}