{
    "luaDataPath": "",
    "startBlackKeepTime": 0.5,
    "entityBan": "",
    "disableNpcLod": true,
    "startFade": {
        "startFadeInDuration": 0.5,
        "startFadeOutDuration": 0.5
    },
    "endFade": {
        "startFadeOutDuration": 0.0
    },
    "actors": [
        {
            "alias": "Avatar",
            "visible": true,
            "bornPointName": "Q_7216636_Player_Point",
            "relativePosNpcAlias": "",
            "bindMovingTargetKey": ""
        },
        {
            "configID": 20444,
            "alias": "20444",
            "visible": true,
            "bornPointName": "72166_AFu_Huanying",
            "relativePosNpcAlias": "",
            "bindMovingTargetKey": ""
        },
        {
            "configID": 20320,
            "alias": "20320",
            "visible": true,
            "bornPointName": "Q_7216636_ALiu_Point",
            "relativePosNpcAlias": "",
            "bindMovingTargetKey": ""
        },
        {
            "configID": 1005,
            "alias": "1005",
            "visible": true,
            "bornPointName": "Q_7216636_Paimon_Point",
            "relativePosNpcAlias": "",
            "bindMovingTargetKey": ""
        }
    ],
    "group": [
        [
            {
                "$type": "MoleMole.Config.ConfigTimeProtectAction",
                "type": "TIME_PROTECT",
                "duration": 1.0
            },
            {
                "$type": "MoleMole.Config.ConfigSimpleBlackScreenAction",
                "type": "SIMPLE_BLACK_SCREEN",
                "duration": 1.0,
                "durationToBlack": 0.5,
                "durationKeepBlack": 0.699999988079071,
                "durationFromBlack": 0.5,
                "textMapID": ""
            },
            {
                "$type": "ILCGAGEGDJI",
                "type": "BODY_LANG",
                "delayTime": 0.5830000042915344,
                "aliasList": [
                    "20444"
                ],
                "FLBOOPHHFJP": 1280,
                "PMJAMGLAJGK": true,
                "LIMPPBIAKGL": false,
                "FNDLJGEAMGI": ""
            },
            {
                "$type": "EAMBKPBOPIC",
                "type": "LOOK_AT",
                "delayTime": 0.8500000238418579,
                "aliasList": [
                    "Avatar"
                ],
                "FIDJDPAIFDN": true,
                "BCHGCKLKNEH": 0.5,
                "OMCCMPHDLOO": "20444",
                "KPCALFDIHMC": "",
                "DBLNLMOPEBP": ""
            },
            {
                "$type": "MOOOKOKLLEI",
                "type": "CAMERA_MOVE",
                "delayTime": 0.8920000195503235,
                "duration": 0.09200000017881393,
                "DOKGBCKOLJK": {
                    "x": -6284.1240234375,
                    "y": 212.06300354003906,
                    "z": -2996.842041015625
                },
                "HGKCPMDICGG": {
                    "x": -6284.2490234375,
                    "y": 211.93099975585938,
                    "z": -2997.824951171875
                },
                "AFODHELHCGB": 49.72200012207031,
                "MGMFMGNANHH": 6,
                "NDFGFJFGHKL": "EaseInOutCubic",
                "IBCBGNHCICN": {},
                "HCPFCAHMGMO": false,
                "OMCCMPHDLOO": "",
                "FEFNBKOHPOG": true,
                "OCFGGGHIKOO": "",
                "LJFHGGJDPHH": "",
                "LPKDFKLNEHL": ""
            },
            {
                "$type": "EAMBKPBOPIC",
                "type": "LOOK_AT",
                "delayTime": 1.25,
                "aliasList": [
                    "1005"
                ],
                "FIDJDPAIFDN": true,
                "BCHGCKLKNEH": 0.5,
                "OMCCMPHDLOO": "20444",
                "KPCALFDIHMC": "",
                "DBLNLMOPEBP": ""
            },
            {
                "$type": "EAMBKPBOPIC",
                "type": "LOOK_AT",
                "delayTime": 1.2580000162124634,
                "aliasList": [
                    "20320"
                ],
                "FIDJDPAIFDN": true,
                "BCHGCKLKNEH": 0.5,
                "OMCCMPHDLOO": "20444",
                "KPCALFDIHMC": "",
                "DBLNLMOPEBP": ""
            }
        ],
        [
            {
                "$type": "DLPFECMKEKH",
                "type": "DIALOG",
                "aliasList": [
                    "20444"
                ],
                "NMKEDPFEKBH": 721662001,
                "JLCHMAJCAPA": 0.5
            }
        ],
        [
            {
                "$type": "DLPFECMKEKH",
                "type": "DIALOG",
                "aliasList": [
                    "20444"
                ],
                "NMKEDPFEKBH": 721662002,
                "JLCHMAJCAPA": 0.5
            },
            {
                "$type": "MOOOKOKLLEI",
                "type": "CAMERA_MOVE",
                "duration": 6.050000190734863,
                "DOKGBCKOLJK": {
                    "x": -6284.1240234375,
                    "y": 212.06300354003906,
                    "z": -2996.842041015625
                },
                "HGKCPMDICGG": {
                    "x": -6284.35595703125,
                    "y": 211.9250030517578,
                    "z": -2997.804931640625
                },
                "AFODHELHCGB": 49.72200012207031,
                "NDFGFJFGHKL": "Linear",
                "IBCBGNHCICN": {},
                "HCPFCAHMGMO": false,
                "OMCCMPHDLOO": "",
                "FEFNBKOHPOG": true,
                "OCFGGGHIKOO": "",
                "LJFHGGJDPHH": "",
                "LPKDFKLNEHL": ""
            }
        ],
        [
            {
                "$type": "DLPFECMKEKH",
                "type": "DIALOG",
                "aliasList": [
                    "20444"
                ],
                "NMKEDPFEKBH": 721662003,
                "JLCHMAJCAPA": 1.0
            }
        ],
        [
            {
                "$type": "DLPFECMKEKH",
                "type": "DIALOG_CLEAR",
                "duration": 2.0,
                "aliasList": [
                    "20444"
                ]
            },
            {
                "$type": "EAMBKPBOPIC",
                "type": "LOOK_AT",
                "aliasList": [
                    "20320"
                ],
                "FIDJDPAIFDN": true,
                "BCHGCKLKNEH": 0.5,
                "OMCCMPHDLOO": "Avatar",
                "KPCALFDIHMC": "",
                "DBLNLMOPEBP": ""
            },
            {
                "$type": "MoleMole.Config.ConfigVisibleInterAction",
                "type": "VISIBLE",
                "aliasList": [
                    "20444"
                ],
                "extraParam": ""
            },
            {
                "$type": "MOOOKOKLLEI",
                "type": "CAMERA_MOVE",
                "DOKGBCKOLJK": {
                    "x": -6285.9921875,
                    "y": 211.968994140625,
                    "z": -2997.737060546875
                },
                "HGKCPMDICGG": {
                    "x": -6285.240234375,
                    "y": 211.89999389648438,
                    "z": -2998.39306640625
                },
                "AFODHELHCGB": 49.72200012207031,
                "MGMFMGNANHH": 6,
                "NDFGFJFGHKL": "EaseInOutCubic",
                "IBCBGNHCICN": {},
                "HCPFCAHMGMO": false,
                "OMCCMPHDLOO": "",
                "FEFNBKOHPOG": true,
                "OCFGGGHIKOO": "",
                "LJFHGGJDPHH": "",
                "LPKDFKLNEHL": ""
            },
            {
                "$type": "OOMFCPJAJGL",
                "type": "STEER_TO",
                "duration": 0.800000011920929,
                "aliasList": [
                    "20320"
                ],
                "DMGIIHNDNLC": "TO_TARGET",
                "PLAPKCOMAKJ": {
                    "x": -6284.43212890625,
                    "y": 210.93299865722656,
                    "z": -2998.51904296875
                },
                "HCMINPNPFDF": true,
                "OMCCMPHDLOO": "Avatar",
                "DBLNLMOPEBP": ""
            },
            {
                "$type": "ILCGAGEGDJI",
                "type": "BODY_LANG",
                "delayTime": 0.8169999718666077,
                "aliasList": [
                    "20320"
                ],
                "FLBOOPHHFJP": 1050,
                "PMJAMGLAJGK": true,
                "LIMPPBIAKGL": false,
                "FNDLJGEAMGI": ""
            },
            {
                "$type": "DLPFECMKEKH",
                "type": "DIALOG",
                "delayTime": 0.824999988079071,
                "aliasList": [
                    "20320"
                ],
                "NMKEDPFEKBH": 721662004,
                "JLCHMAJCAPA": 0.5
            },
            {
                "$type": "EAMBKPBOPIC",
                "type": "LOOK_AT",
                "delayTime": 1.1369999647140503,
                "aliasList": [
                    "Avatar"
                ],
                "FIDJDPAIFDN": true,
                "BCHGCKLKNEH": 0.5,
                "OMCCMPHDLOO": "20320",
                "KPCALFDIHMC": "",
                "DBLNLMOPEBP": ""
            },
            {
                "$type": "EAMBKPBOPIC",
                "type": "LOOK_AT",
                "delayTime": 1.2120000123977661,
                "aliasList": [
                    "1005"
                ],
                "FIDJDPAIFDN": true,
                "BCHGCKLKNEH": 0.5,
                "OMCCMPHDLOO": "20320",
                "KPCALFDIHMC": "",
                "DBLNLMOPEBP": ""
            },
            {
                "$type": "ILCGAGEGDJI",
                "type": "BODY_LANG",
                "delayTime": 2.1419999599456787,
                "aliasList": [
                    "20320"
                ],
                "JLABKFNJCNP": true,
                "PMJAMGLAJGK": true,
                "LIMPPBIAKGL": false,
                "FNDLJGEAMGI": ""
            }
        ],
        [
            {
                "$type": "ILCGAGEGDJI",
                "type": "BODY_LANG",
                "aliasList": [
                    "20320"
                ],
                "FLBOOPHHFJP": 1030,
                "PMJAMGLAJGK": true,
                "LIMPPBIAKGL": false,
                "FNDLJGEAMGI": ""
            },
            {
                "$type": "DLPFECMKEKH",
                "type": "DIALOG",
                "aliasList": [
                    "20320"
                ],
                "NMKEDPFEKBH": 721662005,
                "JLCHMAJCAPA": 0.5
            },
            {
                "$type": "ILCGAGEGDJI",
                "type": "BODY_LANG",
                "delayTime": 1.6670000553131104,
                "aliasList": [
                    "20320"
                ],
                "JLABKFNJCNP": true,
                "PMJAMGLAJGK": true,
                "LIMPPBIAKGL": false,
                "FNDLJGEAMGI": ""
            }
        ],
        [
            {
                "$type": "DLPFECMKEKH",
                "type": "DIALOG",
                "aliasList": [
                    "20320"
                ],
                "NMKEDPFEKBH": 721662006,
                "JLCHMAJCAPA": 0.5
            }
        ],
        [
            {
                "$type": "DLPFECMKEKH",
                "type": "DIALOG",
                "aliasList": [
                    "20320"
                ],
                "NMKEDPFEKBH": 721662007,
                "JLCHMAJCAPA": 0.5
            },
            {
                "$type": "MOOOKOKLLEI",
                "type": "CAMERA_MOVE",
                "duration": 6.0,
                "DOKGBCKOLJK": {
                    "x": -6285.9921875,
                    "y": 211.968994140625,
                    "z": -2997.737060546875
                },
                "HGKCPMDICGG": {
                    "x": -6285.19677734375,
                    "y": 211.9029998779297,
                    "z": -2998.339111328125
                },
                "AFODHELHCGB": 49.72200012207031,
                "NDFGFJFGHKL": "EaseInOutQuad",
                "IBCBGNHCICN": {},
                "HCPFCAHMGMO": false,
                "OMCCMPHDLOO": "",
                "FEFNBKOHPOG": true,
                "OCFGGGHIKOO": "",
                "LJFHGGJDPHH": "",
                "LPKDFKLNEHL": ""
            },
            {
                "$type": "ILCGAGEGDJI",
                "type": "BODY_LANG",
                "delayTime": 0.017000000923871994,
                "aliasList": [
                    "20320"
                ],
                "FLBOOPHHFJP": 4030,
                "PMJAMGLAJGK": true,
                "LIMPPBIAKGL": false,
                "FNDLJGEAMGI": ""
            },
            {
                "$type": "ILCGAGEGDJI",
                "type": "BODY_LANG",
                "delayTime": 1.5750000476837158,
                "aliasList": [
                    "20320"
                ],
                "JLABKFNJCNP": true,
                "PMJAMGLAJGK": true,
                "LIMPPBIAKGL": false,
                "FNDLJGEAMGI": ""
            }
        ],
        [
            {
                "$type": "ILCGAGEGDJI",
                "type": "BODY_LANG",
                "aliasList": [
                    "20320"
                ],
                "FLBOOPHHFJP": 1050,
                "PMJAMGLAJGK": true,
                "LIMPPBIAKGL": false,
                "FNDLJGEAMGI": ""
            },
            {
                "$type": "DLPFECMKEKH",
                "type": "DIALOG",
                "aliasList": [
                    "20320"
                ],
                "NMKEDPFEKBH": 721662008,
                "JLCHMAJCAPA": 0.5
            },
            {
                "$type": "ILCGAGEGDJI",
                "type": "BODY_LANG",
                "delayTime": 1.399999976158142,
                "aliasList": [
                    "20320"
                ],
                "JLABKFNJCNP": true,
                "PMJAMGLAJGK": true,
                "LIMPPBIAKGL": false,
                "FNDLJGEAMGI": ""
            }
        ],
        [
            {
                "$type": "ILCGAGEGDJI",
                "type": "BODY_LANG",
                "aliasList": [
                    "20320"
                ],
                "FLBOOPHHFJP": 4030,
                "PMJAMGLAJGK": true,
                "LIMPPBIAKGL": false,
                "FNDLJGEAMGI": ""
            },
            {
                "$type": "EAMBKPBOPIC",
                "type": "LOOK_AT",
                "aliasList": [
                    "20320"
                ],
                "FIDJDPAIFDN": true,
                "BCHGCKLKNEH": 0.5,
                "OMCCMPHDLOO": "Avatar",
                "KPCALFDIHMC": "",
                "DBLNLMOPEBP": ""
            },
            {
                "$type": "DLPFECMKEKH",
                "type": "DIALOG",
                "aliasList": [
                    "20320"
                ],
                "NMKEDPFEKBH": 721662009,
                "JLCHMAJCAPA": 0.5
            },
            {
                "$type": "ILCGAGEGDJI",
                "type": "BODY_LANG",
                "delayTime": 1.440000057220459,
                "aliasList": [
                    "20320"
                ],
                "JLABKFNJCNP": true,
                "PMJAMGLAJGK": true,
                "LIMPPBIAKGL": false,
                "FNDLJGEAMGI": ""
            },
            {
                "$type": "ILCGAGEGDJI",
                "type": "BODY_LANG",
                "delayTime": 1.781999945640564,
                "aliasList": [
                    "20320"
                ],
                "FLBOOPHHFJP": 1171,
                "PMJAMGLAJGK": true,
                "LIMPPBIAKGL": false,
                "FNDLJGEAMGI": ""
            },
            {
                "$type": "ILCGAGEGDJI",
                "type": "BODY_LANG",
                "delayTime": 5.514999866485596,
                "aliasList": [
                    "20320"
                ],
                "JLABKFNJCNP": true,
                "PMJAMGLAJGK": true,
                "LIMPPBIAKGL": false,
                "FNDLJGEAMGI": ""
            }
        ],
        [
            {
                "$type": "DLPFECMKEKH",
                "type": "DIALOG",
                "aliasList": [
                    "1005"
                ],
                "NMKEDPFEKBH": 721662010,
                "JLCHMAJCAPA": 0.5
            },
            {
                "$type": "ILCGAGEGDJI",
                "type": "BODY_LANG",
                "aliasList": [
                    "1005"
                ],
                "FLBOOPHHFJP": 1130,
                "PMJAMGLAJGK": true,
                "LIMPPBIAKGL": false,
                "FNDLJGEAMGI": ""
            },
            {
                "$type": "ILCGAGEGDJI",
                "type": "BODY_LANG",
                "aliasList": [
                    "20320"
                ],
                "JLABKFNJCNP": true,
                "PMJAMGLAJGK": true,
                "LIMPPBIAKGL": false,
                "FNDLJGEAMGI": ""
            },
            {
                "$type": "MOOOKOKLLEI",
                "type": "CAMERA_MOVE",
                "duration": 0.0,
                "DOKGBCKOLJK": {
                    "x": -6283.81396484375,
                    "y": 212.0290069580078,
                    "z": -2997.487060546875
                },
                "HGKCPMDICGG": {
                    "x": -6283.97216796875,
                    "y": 211.8939971923828,
                    "z": -2998.465087890625
                },
                "AFODHELHCGB": 49.72200012207031,
                "MGMFMGNANHH": 6,
                "NDFGFJFGHKL": "EaseInOutCubic",
                "IBCBGNHCICN": {},
                "HCPFCAHMGMO": false,
                "OMCCMPHDLOO": "",
                "FEFNBKOHPOG": true,
                "OCFGGGHIKOO": "",
                "LJFHGGJDPHH": "",
                "LPKDFKLNEHL": ""
            },
            {
                "$type": "EAMBKPBOPIC",
                "type": "LOOK_AT",
                "aliasList": [
                    "Avatar"
                ],
                "FIDJDPAIFDN": true,
                "BCHGCKLKNEH": 0.5,
                "OMCCMPHDLOO": "1005",
                "KPCALFDIHMC": "",
                "DBLNLMOPEBP": ""
            },
            {
                "$type": "ILCGAGEGDJI",
                "type": "BODY_LANG",
                "delayTime": 1.3930000066757202,
                "aliasList": [
                    "1005"
                ],
                "JLABKFNJCNP": true,
                "PMJAMGLAJGK": true,
                "LIMPPBIAKGL": false,
                "FNDLJGEAMGI": ""
            }
        ],
        [
            {
                "$type": "ILCGAGEGDJI",
                "type": "BODY_LANG",
                "aliasList": [
                    "20320"
                ],
                "FLBOOPHHFJP": 1030,
                "PMJAMGLAJGK": true,
                "LIMPPBIAKGL": false,
                "FNDLJGEAMGI": ""
            },
            {
                "$type": "DLPFECMKEKH",
                "type": "DIALOG",
                "aliasList": [
                    "20320"
                ],
                "NMKEDPFEKBH": 721662011,
                "JLCHMAJCAPA": 0.5
            },
            {
                "$type": "EAMBKPBOPIC",
                "type": "LOOK_AT",
                "delayTime": 0.03700000047683716,
                "aliasList": [
                    "Avatar"
                ],
                "FIDJDPAIFDN": true,
                "BCHGCKLKNEH": 0.5,
                "OMCCMPHDLOO": "20320",
                "KPCALFDIHMC": "",
                "DBLNLMOPEBP": ""
            },
            {
                "$type": "ILCGAGEGDJI",
                "type": "BODY_LANG",
                "delayTime": 1.625,
                "aliasList": [
                    "20320"
                ],
                "JLABKFNJCNP": true,
                "PMJAMGLAJGK": true,
                "LIMPPBIAKGL": false,
                "FNDLJGEAMGI": ""
            }
        ],
        [
            {
                "$type": "ILCGAGEGDJI",
                "type": "BODY_LANG",
                "aliasList": [
                    "20320"
                ],
                "FLBOOPHHFJP": 4030,
                "PMJAMGLAJGK": true,
                "LIMPPBIAKGL": false,
                "FNDLJGEAMGI": ""
            },
            {
                "$type": "DLPFECMKEKH",
                "type": "DIALOG",
                "aliasList": [
                    "20320"
                ],
                "NMKEDPFEKBH": 721662012,
                "JLCHMAJCAPA": 1.5
            },
            {
                "$type": "ILCGAGEGDJI",
                "type": "BODY_LANG",
                "delayTime": 1.4919999837875366,
                "aliasList": [
                    "20320"
                ],
                "JLABKFNJCNP": true,
                "PMJAMGLAJGK": true,
                "LIMPPBIAKGL": false,
                "FNDLJGEAMGI": ""
            },
            {
                "$type": "ILCGAGEGDJI",
                "type": "BODY_LANG",
                "delayTime": 1.8919999599456787,
                "aliasList": [
                    "20320"
                ],
                "FLBOOPHHFJP": 1171,
                "PMJAMGLAJGK": true,
                "LIMPPBIAKGL": false,
                "FNDLJGEAMGI": ""
            },
            {
                "$type": "ILCGAGEGDJI",
                "type": "BODY_LANG",
                "delayTime": 5.550000190734863,
                "aliasList": [
                    "20320"
                ],
                "JLABKFNJCNP": true,
                "PMJAMGLAJGK": true,
                "LIMPPBIAKGL": false,
                "FNDLJGEAMGI": ""
            }
        ],
        [
            {
                "$type": "ILCGAGEGDJI",
                "type": "BODY_LANG",
                "aliasList": [
                    "1005"
                ],
                "FLBOOPHHFJP": 1110,
                "PMJAMGLAJGK": true,
                "LIMPPBIAKGL": false,
                "FNDLJGEAMGI": ""
            },
            {
                "$type": "DLPFECMKEKH",
                "type": "DIALOG",
                "aliasList": [
                    "1005"
                ],
                "NMKEDPFEKBH": 721662013,
                "JLCHMAJCAPA": 0.5
            },
            {
                "$type": "EAMBKPBOPIC",
                "type": "LOOK_AT",
                "delayTime": 0.21299999952316284,
                "aliasList": [
                    "Avatar"
                ],
                "FIDJDPAIFDN": true,
                "BCHGCKLKNEH": 0.5,
                "OMCCMPHDLOO": "1005",
                "KPCALFDIHMC": "",
                "DBLNLMOPEBP": ""
            },
            {
                "$type": "ILCGAGEGDJI",
                "type": "BODY_LANG",
                "delayTime": 1.6169999837875366,
                "aliasList": [
                    "1005"
                ],
                "JLABKFNJCNP": true,
                "PMJAMGLAJGK": true,
                "LIMPPBIAKGL": false,
                "FNDLJGEAMGI": ""
            }
        ],
        [
            {
                "$type": "DLPFECMKEKH",
                "type": "DIALOG",
                "aliasList": [
                    "20320"
                ],
                "NMKEDPFEKBH": 721662014,
                "JLCHMAJCAPA": 0.5
            },
            {
                "$type": "EAMBKPBOPIC",
                "type": "LOOK_AT",
                "aliasList": [
                    "Avatar"
                ],
                "FIDJDPAIFDN": true,
                "BCHGCKLKNEH": 0.5,
                "OMCCMPHDLOO": "20320",
                "KPCALFDIHMC": "",
                "DBLNLMOPEBP": ""
            },
            {
                "$type": "MOOOKOKLLEI",
                "type": "CAMERA_MOVE",
                "duration": 0.0,
                "DOKGBCKOLJK": {
                    "x": -6283.9501953125,
                    "y": 211.99600219726562,
                    "z": -2998.77294921875
                },
                "HGKCPMDICGG": {
                    "x": -6283.1337890625,
                    "y": 212.1840057373047,
                    "z": -2998.22705078125
                },
                "AFODHELHCGB": 49.72200012207031,
                "MGMFMGNANHH": 6,
                "NDFGFJFGHKL": "EaseInOutCubic",
                "IBCBGNHCICN": {},
                "HCPFCAHMGMO": false,
                "OMCCMPHDLOO": "",
                "FEFNBKOHPOG": true,
                "OCFGGGHIKOO": "",
                "LJFHGGJDPHH": "",
                "LPKDFKLNEHL": ""
            },
            {
                "$type": "ILCGAGEGDJI",
                "type": "BODY_LANG",
                "delayTime": 0.010999999940395355,
                "aliasList": [
                    "20320"
                ],
                "FLBOOPHHFJP": 4040,
                "PMJAMGLAJGK": true,
                "LIMPPBIAKGL": false,
                "FNDLJGEAMGI": ""
            }
        ],
        [
            {
                "$type": "ILCGAGEGDJI",
                "type": "BODY_LANG",
                "aliasList": [
                    "20320"
                ],
                "FLBOOPHHFJP": 1050,
                "PMJAMGLAJGK": true,
                "LIMPPBIAKGL": false,
                "FNDLJGEAMGI": ""
            },
            {
                "$type": "DLPFECMKEKH",
                "type": "DIALOG",
                "aliasList": [
                    "20320"
                ],
                "NMKEDPFEKBH": 721662015,
                "JLCHMAJCAPA": 0.5
            }
        ],
        [
            {
                "$type": "ILCGAGEGDJI",
                "type": "BODY_LANG",
                "aliasList": [
                    "20320"
                ],
                "JLABKFNJCNP": true,
                "PMJAMGLAJGK": true,
                "LIMPPBIAKGL": false,
                "FNDLJGEAMGI": ""
            },
            {
                "$type": "DLPFECMKEKH",
                "type": "DIALOG",
                "aliasList": [
                    "1005"
                ],
                "NMKEDPFEKBH": 721662016,
                "JLCHMAJCAPA": 0.5
            },
            {
                "$type": "EAMBKPBOPIC",
                "type": "LOOK_AT",
                "aliasList": [
                    "Avatar"
                ],
                "FIDJDPAIFDN": true,
                "BCHGCKLKNEH": 0.5,
                "OMCCMPHDLOO": "1005",
                "KPCALFDIHMC": "",
                "DBLNLMOPEBP": ""
            },
            {
                "$type": "MOOOKOKLLEI",
                "type": "CAMERA_MOVE",
                "duration": 1.0,
                "DOKGBCKOLJK": {
                    "x": -6286.06787109375,
                    "y": 211.92799377441406,
                    "z": -2998.9599609375
                },
                "HGKCPMDICGG": {
                    "x": -6285.0810546875,
                    "y": 211.91000366210938,
                    "z": -2999.12109375
                },
                "AFODHELHCGB": 51.59000015258789,
                "MGMFMGNANHH": 6,
                "NDFGFJFGHKL": "EaseInOutCubic",
                "IBCBGNHCICN": {},
                "HCPFCAHMGMO": false,
                "OMCCMPHDLOO": "",
                "FEFNBKOHPOG": true,
                "OCFGGGHIKOO": "",
                "LJFHGGJDPHH": "",
                "LPKDFKLNEHL": ""
            },
            {
                "$type": "ECLBLHOENAG",
                "type": "DIALOG_SELECT",
                "delayTime": 0.4000000059604645,
                "aliasList": [
                    "Avatar"
                ],
                "NDMMOPDPKNF": [
                    721662017,
                    721662018
                ],
                "FPDBIEGHMCD": [
                    4092106345,
                    4092106345
                ],
                "PKBOIGBGDEG": true
            }
        ],
        [
            {
                "$type": "ILCGAGEGDJI",
                "type": "BODY_LANG",
                "aliasList": [
                    "20320"
                ],
                "FLBOOPHHFJP": 4030,
                "PMJAMGLAJGK": true,
                "LIMPPBIAKGL": false,
                "FNDLJGEAMGI": ""
            },
            {
                "$type": "EAMBKPBOPIC",
                "type": "LOOK_AT",
                "aliasList": [
                    "20320"
                ],
                "FIDJDPAIFDN": true,
                "BCHGCKLKNEH": 0.5,
                "OMCCMPHDLOO": "Avatar",
                "KPCALFDIHMC": "",
                "DBLNLMOPEBP": ""
            },
            {
                "$type": "EAMBKPBOPIC",
                "type": "LOOK_AT",
                "aliasList": [
                    "Avatar"
                ],
                "FIDJDPAIFDN": true,
                "BCHGCKLKNEH": 0.5,
                "OMCCMPHDLOO": "20320",
                "KPCALFDIHMC": "",
                "DBLNLMOPEBP": ""
            },
            {
                "$type": "DLPFECMKEKH",
                "type": "DIALOG",
                "aliasList": [
                    "20320"
                ],
                "NMKEDPFEKBH": 721662019,
                "JLCHMAJCAPA": 0.5
            }
        ],
        [
            {
                "$type": "ILCGAGEGDJI",
                "type": "BODY_LANG",
                "aliasList": [
                    "20320"
                ],
                "FLBOOPHHFJP": 1060,
                "PMJAMGLAJGK": true,
                "LIMPPBIAKGL": false,
                "FNDLJGEAMGI": ""
            },
            {
                "$type": "DLPFECMKEKH",
                "type": "DIALOG",
                "aliasList": [
                    "20320"
                ],
                "NMKEDPFEKBH": 721662020,
                "JLCHMAJCAPA": 0.5
            },
            {
                "$type": "MOOOKOKLLEI",
                "type": "CAMERA_MOVE",
                "duration": 0.0,
                "DOKGBCKOLJK": {
                    "x": -6286.22998046875,
                    "y": 211.8470001220703,
                    "z": -2999.8779296875
                },
                "HGKCPMDICGG": {
                    "x": -6285.2470703125,
                    "y": 211.7899932861328,
                    "z": -2999.705078125
                },
                "AFODHELHCGB": 51.59000015258789,
                "MGMFMGNANHH": 6,
                "NDFGFJFGHKL": "EaseInOutCubic",
                "IBCBGNHCICN": {},
                "HCPFCAHMGMO": false,
                "OMCCMPHDLOO": "",
                "FEFNBKOHPOG": true,
                "OCFGGGHIKOO": "",
                "LJFHGGJDPHH": "",
                "LPKDFKLNEHL": ""
            }
        ],
        [
            {
                "$type": "MoleMole.Config.ConfigTimeProtectAction",
                "type": "TIME_PROTECT",
                "duration": 0.699999988079071
            },
            {
                "$type": "MoleMole.Config.ConfigSimpleBlackScreenAction",
                "type": "SIMPLE_BLACK_SCREEN",
                "durationToBlack": 0.5,
                "durationKeepBlack": 1.0,
                "durationFromBlack": 0.5,
                "textMapID": "",
                "useTextFade": true
            },
            {
                "$type": "MOOOKOKLLEI",
                "type": "CAMERA_MOVE",
                "delayTime": 0.5,
                "duration": 0.0,
                "DOKGBCKOLJK": {
                    "x": -6283.501953125,
                    "y": 213.28700256347656,
                    "z": -3002.511962890625
                },
                "HGKCPMDICGG": {
                    "x": -6283.7060546875,
                    "y": 212.82200622558594,
                    "z": -3001.64990234375
                },
                "MGMFMGNANHH": 6,
                "NDFGFJFGHKL": "EaseInOutCubic",
                "IBCBGNHCICN": {},
                "HCPFCAHMGMO": false,
                "OMCCMPHDLOO": "",
                "FEFNBKOHPOG": true,
                "OCFGGGHIKOO": "",
                "LJFHGGJDPHH": "",
                "LPKDFKLNEHL": ""
            }
        ]
    ],
    "groupId": [
        {
            "grpId": 2625855407,
            "nextGrpId": 2625855408
        },
        {
            "index": 1,
            "grpId": 2625855408,
            "nextGrpId": 2625855409
        },
        {
            "index": 2,
            "grpId": 2625855409,
            "nextGrpId": 2625855410
        },
        {
            "index": 3,
            "grpId": 2625855410,
            "nextGrpId": 2625855411
        },
        {
            "index": 4,
            "grpId": 2625855411,
            "nextGrpId": 2625855412
        },
        {
            "index": 5,
            "grpId": 2625855412,
            "nextGrpId": 2625855413
        },
        {
            "index": 6,
            "grpId": 2625855413,
            "nextGrpId": 2625855414
        },
        {
            "index": 7,
            "grpId": 2625855414,
            "nextGrpId": 2625855415
        },
        {
            "index": 8,
            "grpId": 2625855415,
            "nextGrpId": 4092106337
        },
        {
            "index": 9,
            "grpId": 4092106337,
            "nextGrpId": 4092106338
        },
        {
            "index": 10,
            "grpId": 4092106338,
            "nextGrpId": 4092106339
        },
        {
            "index": 11,
            "grpId": 4092106339,
            "nextGrpId": 4092106340
        },
        {
            "index": 12,
            "grpId": 4092106340,
            "nextGrpId": 4092106341
        },
        {
            "index": 13,
            "grpId": 4092106341,
            "nextGrpId": 4092106342
        },
        {
            "index": 14,
            "grpId": 4092106342,
            "nextGrpId": 4092106343
        },
        {
            "index": 15,
            "grpId": 4092106343,
            "nextGrpId": 4092106344
        },
        {
            "index": 16,
            "grpId": 4092106344,
            "nextGrpId": 4092106345
        },
        {
            "index": 17,
            "grpId": 4092106345,
            "nextGrpId": 4092106346
        },
        {
            "index": 18,
            "grpId": 4092106346,
            "nextGrpId": 4092106368
        },
        {
            "index": 19,
            "grpId": 4092106368,
            "nextGrpId": 4092106369
        }
    ],
    "freeStyleDic": {
        "20444": [
            1280
        ],
        "20320": [
            1050,
            1030,
            4030,
            1171,
            4040,
            1060
        ]
    }
}