{
    "NOKKDDHKGAK": "Card_Event_3032081",
    "LBJBMKBADGI": {
        "-1197212178": {
            "$type": "KHOGOPHAOEK",
            "JNMCHAGDLOL": "EffectNum",
            "CIBLLGMLODF": 1
        },
        "1765369899": {
            "$type": "KHOGOPHAOEK",
            "JNMCHAGDLOL": "EffectNum"
        }
    }
}