{
    "NOKKDDHKGAK": "Char_Skill_31014",
    "LBJBMKBADGI": {
        "-1197212178": {
            "$type": "KHOGOPHAOEK",
            "JNMCHAGDLOL": "EffectNum",
            "CIBLLGMLODF": 1
        },
        "476224977": {
            "$type": "GBMLNFDAKNE",
            "JNMCHAGDLOL": "Element",
            "EGBGLFJKMNK": "GCG_ELEMENT_CRYO"
        }
    }
}