{
    "NOKKDDHKGAK": "Char_Skill_66033",
    "LBJBMKBADGI": {
        "-2060930438": {
            "$type": "JMNPJNKIBNE",
            "CIBLLGMLODF": 3
        },
        "476224977": {
            "$type": "GBMLNFDAKNE",
            "JNMCHAGDLOL": "Element",
            "EGBGLFJKMNK": "GCG_ELEMENT_PYRO"
        }
    }
}