{
    "NOKKDDHKGAK": "Char_Skill_36065",
    "LBJBMKBADGI": {
        "-1197212178": {
            "$type": "KHOGOPHAOEK",
            "JNMCHAGDLOL": "EffectNum",
            "CIBLLGMLODF": 1
        }
    }
}