{
    "name": "Char_Skill_31073",
    "NCBLDMFKANN": {
        "-1197212178": {
            "$type": "AKKFGHFMCAN",
            "type": "EffectNum",
            "value": 1
        },
        "476224977": {
            "$type": "OFIBFDBCEPB",
            "type": "Element",
            "ratio": "GCG_ELEMENT_CRYO"
        }
    }
}