{
    "NOKKDDHKGAK": "Char_Skill_17013",
    "LBJBMKBADGI": {
        "-2060930438": {
            "$type": "JMNPJNKIBNE",
            "CIBLLGMLODF": 2
        },
        "476224977": {
            "$type": "GBMLNFDAKNE",
            "JNMCHAGDLOL": "Element",
            "EGBGLFJKMNK": "GCG_ELEMENT_DENDRO"
        }
    }
}