{
    "NOKKDDHKGAK": "Char_Skill_15061",
    "LBJBMKBADGI": {
        "-2060930438": {
            "$type": "JMNPJNKIBNE",
            "CIBLLGMLODF": 1
        },
        "476224977": {
            "$type": "GBMLNFDAKNE",
            "JNMCHAGDLOL": "Element",
            "EGBGLFJKMNK": "GCG_ELEMENT_ANEMO"
        },
        "65925363": {
            "$type": "KHOGOPHAOEK",
            "JNMCHAGDLOL": "EffectNum"
        },
        "-1197212178": {
            "$type": "KHOGOPHAOEK",
            "JNMCHAGDLOL": "EffectNum",
            "CIBLLGMLODF": 1
        }
    }
}