{
    "NOKKDDHKGAK": "Effect_Damage_Ice_4",
    "LBJBMKBADGI": {
        "-2060930438": {
            "$type": "JMNPJNKIBNE",
            "CIBLLGMLODF": 4
        },
        "476224977": {
            "$type": "GBMLNFDAKNE",
            "JNMCHAGDLOL": "Element",
            "EGBGLFJKMNK": "GCG_ELEMENT_CRYO"
        }
    }
}