{
    "id": 10120,
    "resId": 2019,
    "series": 2019,
    "type": "LQ",
    "titleTextMapHash": 1638179111,
    "descTextMapHash": 3532830574,
    "luaPath": "Actor/Quest/LQ10120",
    "suggestTrackMainQuestList": [
        10121
    ],
    "rewardIdList": [
        110120
    ],
    "chapterId": 2019,
    "showRedPoint": true,
    "subQuests": [
        {
            "subId": 1012001,
            "mainId": 10120,
            "order": 1,
            "descTextMapHash": 600512436,
            "ALGDOBKHJPL": [
                1012001
            ],
            "finishCond": [
                {
                    "type": "QUEST_CONTENT_COMPLETE_TALK",
                    "param": [
                        1012001,
                        0
                    ]
                }
            ],
            "guide": {
                "type": "QUEST_GUIDE_NPC",
                "param": [
                    "1006"
                ],
                "guideScene": 1004,
                "guideStyle": "QUEST_GUIDE_STYLE_START"
            },
            "guideHint": {
                "COLBFDGFKDJ": ""
            },
            "isRewind": true,
            "versionBegin": "",
            "versionEnd": ""
        },
        {
            "subId": 1012002,
            "mainId": 10120,
            "order": 2,
            "descTextMapHash": 3673929236,
            "stepDescTextMapHash": 3536143717,
            "ALGDOBKHJPL": [
                1012001
            ],
            "finishCond": [
                {
                    "type": "QUEST_CONTENT_LUA_NOTIFY",
                    "param": [
                        0,
                        0
                    ],
                    "count": 1
                }
            ],
            "guide": {
                "type": "QUEST_GUIDE_LOCATION",
                "param": [
                    "Q10120_FIND",
                    "30"
                ],
                "guideScene": 3,
                "guideStyle": "QUEST_GUIDE_STYLE_TARGET"
            },
            "guideHint": {
                "COLBFDGFKDJ": ""
            },
            "isRewind": true,
            "versionBegin": "",
            "versionEnd": ""
        },
        {
            "subId": 1012003,
            "mainId": 10120,
            "order": 3,
            "descTextMapHash": 3928314556,
            "finishCond": [
                {
                    "type": "QUEST_CONTENT_COMPLETE_TALK",
                    "param": [
                        1012002,
                        0
                    ]
                }
            ],
            "guide": {
                "type": "QUEST_GUIDE_NPC",
                "param": [
                    "10423"
                ],
                "guideScene": 3,
                "guideStyle": "QUEST_GUIDE_STYLE_TARGET"
            },
            "guideHint": {
                "COLBFDGFKDJ": ""
            },
            "isRewind": true,
            "versionBegin": "",
            "versionEnd": ""
        },
        {
            "subId": 1012004,
            "mainId": 10120,
            "order": 10,
            "descTextMapHash": 1220127436,
            "ALGDOBKHJPL": [
                1012003
            ],
            "finishCond": [
                {
                    "type": "QUEST_CONTENT_LUA_NOTIFY",
                    "param": [
                        0,
                        0
                    ],
                    "count": 1
                }
            ],
            "guide": {
                "type": "QUEST_GUIDE_LOCATION",
                "param": [
                    "Q10120_anbor",
                    "20"
                ],
                "guideScene": 3,
                "guideStyle": "QUEST_GUIDE_STYLE_TARGET"
            },
            "guideHint": {
                "COLBFDGFKDJ": ""
            },
            "isRewind": true,
            "versionBegin": "",
            "versionEnd": ""
        },
        {
            "subId": 1012005,
            "mainId": 10120,
            "order": 11,
            "descTextMapHash": 2849440580,
            "ALGDOBKHJPL": [
                1012003
            ],
            "finishCond": [
                {
                    "type": "QUEST_CONTENT_COMPLETE_TALK",
                    "param": [
                        1012003,
                        0
                    ]
                }
            ],
            "guide": {
                "type": "QUEST_GUIDE_NPC",
                "param": [
                    "1002"
                ],
                "guideScene": 3,
                "guideStyle": "QUEST_GUIDE_STYLE_TARGET"
            },
            "guideHint": {
                "COLBFDGFKDJ": ""
            },
            "versionBegin": "",
            "versionEnd": ""
        },
        {
            "subId": 1012006,
            "mainId": 10120,
            "order": 12,
            "descTextMapHash": 694454340,
            "stepDescTextMapHash": 1140188805,
            "finishCond": [
                {
                    "type": "QUEST_CONTENT_LUA_NOTIFY",
                    "param": [
                        0,
                        0
                    ],
                    "count": 1
                },
                {
                    "type": "QUEST_CONTENT_LUA_NOTIFY",
                    "param": [
                        0,
                        0
                    ],
                    "count": 1
                }
            ],
            "guide": {
                "type": "QUEST_GUIDE_LOCATION",
                "param": [
                    "Q10120_Battle",
                    "30"
                ],
                "guideScene": 3,
                "guideStyle": "QUEST_GUIDE_STYLE_TARGET"
            },
            "guideHint": {
                "COLBFDGFKDJ": ""
            },
            "isRewind": true,
            "versionBegin": "",
            "versionEnd": ""
        },
        {
            "subId": 1012007,
            "mainId": 10120,
            "order": 13,
            "descTextMapHash": 2858106444,
            "finishCond": [
                {
                    "type": "QUEST_CONTENT_LUA_NOTIFY",
                    "param": [
                        0,
                        0
                    ],
                    "count": 1
                }
            ],
            "guide": {
                "type": "QUEST_GUIDE_LOCATION",
                "param": [
                    "Q10120_Battle",
                    "30"
                ],
                "guideScene": 3,
                "guideStyle": "QUEST_GUIDE_STYLE_TARGET"
            },
            "guideHint": {
                "COLBFDGFKDJ": ""
            },
            "versionBegin": "",
            "versionEnd": ""
        },
        {
            "subId": 1012008,
            "mainId": 10120,
            "order": 20,
            "isMpBlock": true,
            "descTextMapHash": 840110492,
            "finishCond": [
                {
                    "type": "QUEST_CONTENT_FINISH_PLOT",
                    "param": [
                        1012008,
                        0
                    ]
                }
            ],
            "failCond": [
                {
                    "type": "QUEST_CONTENT_NOT_FINISH_PLOT",
                    "param": [
                        1012099,
                        0
                    ]
                }
            ],
            "guide": {},
            "guideHint": {
                "COLBFDGFKDJ": ""
            },
            "failExec": [
                {
                    "type": "QUEST_EXEC_ROLLBACK_QUEST",
                    "param": [
                        "1012006"
                    ]
                }
            ],
            "versionBegin": "",
            "versionEnd": ""
        },
        {
            "subId": 1012009,
            "mainId": 10120,
            "order": 21,
            "descTextMapHash": 3576947276,
            "finishCond": [
                {
                    "type": "QUEST_CONTENT_COMPLETE_TALK",
                    "param": [
                        1012004,
                        0
                    ]
                }
            ],
            "guide": {
                "type": "QUEST_GUIDE_NPC",
                "param": [
                    "1029"
                ],
                "guideScene": 3,
                "guideStyle": "QUEST_GUIDE_STYLE_TARGET"
            },
            "guideHint": {
                "COLBFDGFKDJ": ""
            },
            "finishParent": true,
            "isRewind": true,
            "finishExec": [
                {
                    "type": "QUEST_EXEC_UNREGISTER_DYNAMIC_GROUP",
                    "param": [
                        "133003790",
                        "1"
                    ]
                }
            ],
            "versionBegin": "",
            "versionEnd": ""
        }
    ],
    "talks": [
        {
            "id": 1012001,
            "beginWay": "TALK_BEGIN_AUTO",
            "beginCond": [
                {
                    "type": "QUEST_COND_STATE_EQUAL",
                    "param": [
                        "1012001",
                        "2"
                    ]
                }
            ],
            "priority": 5,
            "initDialog": 101200101,
            "npcId": [
                1006,
                1005
            ],
            "performCfg": "QuestDialogue/LQ/Eula1_10120/Q1012001",
            "heroTalk": "TALK_HERO_MAIN",
            "questId": 10120,
            "assetIndex": 13374085516315798052,
            "prePerformCfg": ""
        },
        {
            "id": 1012002,
            "beginWay": "TALK_BEGIN_MANUAL",
            "beginCond": [
                {
                    "type": "QUEST_COND_STATE_EQUAL",
                    "param": [
                        "1012003",
                        "2"
                    ]
                }
            ],
            "priority": 5,
            "initDialog": 101200201,
            "npcId": [
                10423,
                1005
            ],
            "performCfg": "QuestDialogue/LQ/Eula1_10120/Q1012002",
            "heroTalk": "TALK_HERO_MAIN",
            "questId": 10120,
            "assetIndex": 17152846871643592875,
            "prePerformCfg": ""
        },
        {
            "id": 1012003,
            "beginWay": "TALK_BEGIN_MANUAL",
            "beginCond": [
                {
                    "type": "QUEST_COND_STATE_EQUAL",
                    "param": [
                        "1012005",
                        "2"
                    ]
                }
            ],
            "priority": 5,
            "initDialog": 101200301,
            "npcId": [
                1002,
                1005
            ],
            "performCfg": "QuestDialogue/LQ/Eula1_10120/Q1012003",
            "heroTalk": "TALK_HERO_MAIN",
            "questId": 10120,
            "assetIndex": 13255786506935697317,
            "prePerformCfg": ""
        },
        {
            "id": 1012004,
            "beginWay": "TALK_BEGIN_MANUAL",
            "beginCond": [
                {
                    "type": "QUEST_COND_STATE_EQUAL",
                    "param": [
                        "1012009",
                        "2"
                    ]
                }
            ],
            "priority": 5,
            "initDialog": 101200401,
            "npcId": [
                1029,
                1005
            ],
            "performCfg": "QuestDialogue/LQ/Eula1_10120/Q1012004",
            "heroTalk": "TALK_HERO_MAIN",
            "questId": 10120,
            "assetIndex": 2385305335643855164,
            "prePerformCfg": ""
        },
        {
            "id": 1012006,
            "beginWay": "TALK_BEGIN_MANUAL",
            "beginCond": [
                {
                    "type": "QUEST_COND_STATE_EQUAL",
                    "param": [
                        "1012002",
                        "2"
                    ]
                }
            ],
            "priority": 5,
            "initDialog": 101200601,
            "npcId": [
                1006
            ],
            "performCfg": "QuestDialogue/LQ/Eula1_10120/Q1012006",
            "heroTalk": "TALK_HERO_MAIN",
            "questId": 10120,
            "assetIndex": 18288525189325918623,
            "prePerformCfg": ""
        },
        {
            "id": 1012007,
            "beginWay": "TALK_BEGIN_MANUAL",
            "beginCond": [
                {
                    "type": "QUEST_COND_STATE_EQUAL",
                    "param": [
                        "99902",
                        "2"
                    ]
                }
            ],
            "priority": 5,
            "initDialog": 101200701,
            "npcId": [
                1663
            ],
            "performCfg": "",
            "heroTalk": "TALK_HERO_MAIN",
            "questId": 10120,
            "assetIndex": 4972660014601215692,
            "prePerformCfg": ""
        },
        {
            "id": 1012008,
            "beginWay": "TALK_BEGIN_MANUAL",
            "beginCondComb": "LOGIC_OR",
            "beginCond": [
                {
                    "type": "QUEST_COND_STATE_EQUAL",
                    "param": [
                        "1012002",
                        "2"
                    ]
                },
                {
                    "type": "QUEST_COND_STATE_EQUAL",
                    "param": [
                        "1012003",
                        "2"
                    ]
                }
            ],
            "priority": 5,
            "initDialog": 101200801,
            "npcId": [
                1421
            ],
            "performCfg": "QuestDialogue/LQ/Eula1_10120/Q1012008",
            "heroTalk": "TALK_HERO_MAIN",
            "questId": 10120,
            "assetIndex": 11858120281225053936,
            "prePerformCfg": ""
        },
        {
            "id": 1012011,
            "beginWay": "TALK_BEGIN_MANUAL",
            "beginCond": [
                {
                    "type": "QUEST_COND_STATE_EQUAL",
                    "param": [
                        "99902",
                        "2"
                    ]
                }
            ],
            "priority": 5,
            "initDialog": 101201101,
            "npcId": [
                1002
            ],
            "performCfg": "",
            "heroTalk": "TALK_HERO_MAIN",
            "questId": 10120,
            "assetIndex": 13567764923670263801,
            "prePerformCfg": ""
        }
    ],
    "preloadLuaList": [
        4543246233805805157,
        5909385756826696338,
        14457059026087496718,
        6502598527400348392
    ],
    "GDLCBECFGJO": [
        17697509489700753346
    ],
    "freeStyleDic": {
        "1006": [
            1120
        ],
        "10423": [
            1120
        ]
    }
}