{
    "id": 10200,
    "resId": 2009,
    "series": 2009,
    "type": "LQ",
    "titleTextMapHash": 1139279577,
    "descTextMapHash": 1204798183,
    "luaPath": "Actor/Quest/LQ10200",
    "suggestTrackMainQuestList": [
        10201
    ],
    "rewardIdList": [
        110200
    ],
    "chapterId": 2009,
    "showRedPoint": true,
    "subQuests": [
        {
            "subId": 1020001,
            "mainId": 10200,
            "order": 1,
            "descTextMapHash": 2485833398,
            "finishCond": [
                {
                    "type": "QUEST_CONTENT_GAME_TIME_TICK",
                    "param": [
                        0,
                        0
                    ]
                }
            ],
            "guide": {},
            "guideHint": {
                "COLBFDGFKDJ": ""
            },
            "isRewind": true,
            "versionBegin": "",
            "versionEnd": ""
        },
        {
            "subId": 1020002,
            "mainId": 10200,
            "order": 2,
            "descTextMapHash": 1622301094,
            "showType": "QUEST_HIDDEN",
            "finishCond": [
                {
                    "type": "QUEST_CONTENT_LUA_NOTIFY",
                    "param": [
                        0,
                        0
                    ],
                    "count": 1
                }
            ],
            "failCond": [
                {
                    "type": "QUEST_CONTENT_GAME_TIME_TICK",
                    "param": [
                        0,
                        0
                    ]
                }
            ],
            "guide": {},
            "guideHint": {
                "COLBFDGFKDJ": ""
            },
            "failExec": [
                {
                    "type": "QUEST_EXEC_ROLLBACK_QUEST",
                    "param": [
                        "1020001"
                    ]
                }
            ],
            "versionBegin": "",
            "versionEnd": ""
        },
        {
            "subId": 1020003,
            "mainId": 10200,
            "order": 4,
            "descTextMapHash": 3381617374,
            "stepDescTextMapHash": 3268520102,
            "finishCond": [
                {
                    "type": "QUEST_CONTENT_LUA_NOTIFY",
                    "param": [
                        0,
                        0
                    ],
                    "count": 1
                }
            ],
            "guide": {
                "type": "QUEST_GUIDE_LOCATION",
                "param": [
                    "Q10200Pub"
                ],
                "guideScene": 1009,
                "guideStyle": "QUEST_GUIDE_STYLE_POINT",
                "guideLayer": "QUEST_GUIDE_LAYER_SCENE"
            },
            "guideHint": {
                "COLBFDGFKDJ": ""
            },
            "isRewind": true,
            "versionBegin": "",
            "versionEnd": ""
        },
        {
            "subId": 1020004,
            "mainId": 10200,
            "order": 5,
            "subIdSet": 1,
            "descTextMapHash": 21437686,
            "finishCond": [
                {
                    "type": "QUEST_CONTENT_COMPLETE_TALK",
                    "param": [
                        1020007,
                        0
                    ]
                }
            ],
            "guide": {
                "type": "QUEST_GUIDE_NPC",
                "param": [
                    "141401"
                ],
                "guideScene": 1009,
                "guideStyle": "QUEST_GUIDE_STYLE_TARGET",
                "guideLayer": "QUEST_GUIDE_LAYER_SCENE"
            },
            "guideHint": {
                "COLBFDGFKDJ": ""
            },
            "finishExec": [
                {
                    "type": "QUEST_EXEC_ADD_QUEST_PROGRESS",
                    "param": [
                        "1020014",
                        "1"
                    ]
                }
            ],
            "versionBegin": "",
            "versionEnd": ""
        },
        {
            "subId": 1020005,
            "mainId": 10200,
            "order": 11,
            "isMpBlock": true,
            "descTextMapHash": 735929926,
            "banType": "BAN_GROUP_TRANSPORT_ONLY",
            "finishCond": [
                {
                    "type": "QUEST_CONTENT_COMPLETE_TALK",
                    "param": [
                        1020003,
                        0
                    ]
                }
            ],
            "guide": {},
            "guideHint": {
                "COLBFDGFKDJ": ""
            },
            "isRewind": true,
            "versionBegin": "",
            "versionEnd": ""
        },
        {
            "subId": 1020006,
            "mainId": 10200,
            "order": 12,
            "descTextMapHash": 3077923526,
            "ALGDOBKHJPL": [
                1012001
            ],
            "finishCond": [
                {
                    "type": "QUEST_CONTENT_ENTER_ROOM",
                    "param": [
                        1004,
                        0
                    ]
                }
            ],
            "guide": {
                "type": "QUEST_GUIDE_LOCATION",
                "param": [
                    "QuestKnighthood"
                ],
                "guideScene": 3
            },
            "guideHint": {
                "COLBFDGFKDJ": ""
            },
            "isRewind": true,
            "versionBegin": "",
            "versionEnd": ""
        },
        {
            "subId": 1020007,
            "mainId": 10200,
            "order": 13,
            "descTextMapHash": 4230565822,
            "ALGDOBKHJPL": [
                1012001
            ],
            "finishCond": [
                {
                    "type": "QUEST_CONTENT_COMPLETE_TALK",
                    "param": [
                        1020004,
                        0
                    ]
                }
            ],
            "guide": {
                "type": "QUEST_GUIDE_NPC",
                "param": [
                    "1006"
                ],
                "guideScene": 1004,
                "guideStyle": "QUEST_GUIDE_STYLE_TARGET",
                "guideLayer": "QUEST_GUIDE_LAYER_SCENE"
            },
            "guideHint": {
                "COLBFDGFKDJ": ""
            },
            "isRewind": true,
            "versionBegin": "",
            "versionEnd": ""
        },
        {
            "subId": 1020008,
            "mainId": 10200,
            "order": 14,
            "isMpBlock": true,
            "descTextMapHash": 2995575702,
            "ALGDOBKHJPL": [
                1012001
            ],
            "banType": "BAN_GROUP_TRANSPORT_ONLY",
            "finishCond": [
                {
                    "type": "QUEST_CONTENT_FINISH_PLOT",
                    "param": [
                        1020008,
                        0
                    ]
                }
            ],
            "guide": {
                "type": "QUEST_GUIDE_LOCATION",
                "param": [
                    "Q10200KnighthoodHall"
                ],
                "guideScene": 1004,
                "guideStyle": "QUEST_GUIDE_STYLE_POINT",
                "guideLayer": "QUEST_GUIDE_LAYER_SCENE"
            },
            "guideHint": {
                "COLBFDGFKDJ": ""
            },
            "isRewind": true,
            "versionBegin": "",
            "versionEnd": ""
        },
        {
            "subId": 1020009,
            "mainId": 10200,
            "order": 15,
            "descTextMapHash": 2644101166,
            "showType": "QUEST_HIDDEN",
            "ALGDOBKHJPL": [
                1012001
            ],
            "finishCond": [
                {
                    "type": "QUEST_CONTENT_FINISH_PLOT",
                    "param": [
                        1020009,
                        0
                    ]
                }
            ],
            "guide": {
                "type": "QUEST_GUIDE_NPC",
                "param": [
                    "10090"
                ],
                "guideScene": 1004,
                "guideStyle": "QUEST_GUIDE_STYLE_TARGET",
                "guideLayer": "QUEST_GUIDE_LAYER_SCENE"
            },
            "guideHint": {
                "COLBFDGFKDJ": ""
            },
            "isRewind": true,
            "versionBegin": "",
            "versionEnd": ""
        },
        {
            "subId": 1020010,
            "mainId": 10200,
            "order": 16,
            "descTextMapHash": 2269223142,
            "ALGDOBKHJPL": [
                1012001
            ],
            "finishCond": [
                {
                    "type": "QUEST_CONTENT_COMPLETE_TALK",
                    "param": [
                        1020006,
                        0
                    ]
                }
            ],
            "guide": {
                "type": "QUEST_GUIDE_NPC",
                "param": [
                    "10090"
                ],
                "guideScene": 1004,
                "guideStyle": "QUEST_GUIDE_STYLE_FINISH",
                "guideLayer": "QUEST_GUIDE_LAYER_SCENE"
            },
            "guideHint": {
                "COLBFDGFKDJ": ""
            },
            "finishParent": true,
            "isRewind": true,
            "versionBegin": "",
            "versionEnd": ""
        },
        {
            "subId": 1020011,
            "mainId": 10200,
            "order": 6,
            "subIdSet": 1,
            "descTextMapHash": 99389742,
            "finishCond": [
                {
                    "type": "QUEST_CONTENT_COMPLETE_TALK",
                    "param": [
                        1020008,
                        0
                    ]
                }
            ],
            "guide": {
                "type": "QUEST_GUIDE_NPC",
                "param": [
                    "160301"
                ],
                "guideScene": 1009,
                "guideStyle": "QUEST_GUIDE_STYLE_TARGET",
                "guideLayer": "QUEST_GUIDE_LAYER_SCENE"
            },
            "guideHint": {
                "COLBFDGFKDJ": ""
            },
            "finishExec": [
                {
                    "type": "QUEST_EXEC_ADD_QUEST_PROGRESS",
                    "param": [
                        "1020014",
                        "1"
                    ]
                }
            ],
            "versionBegin": "",
            "versionEnd": ""
        },
        {
            "subId": 1020012,
            "mainId": 10200,
            "order": 7,
            "subIdSet": 1,
            "descTextMapHash": 3760646782,
            "finishCond": [
                {
                    "type": "QUEST_CONTENT_COMPLETE_TALK",
                    "param": [
                        1020009,
                        0
                    ]
                }
            ],
            "guide": {
                "type": "QUEST_GUIDE_NPC",
                "param": [
                    "1465"
                ],
                "guideScene": 1009,
                "guideStyle": "QUEST_GUIDE_STYLE_TARGET",
                "guideLayer": "QUEST_GUIDE_LAYER_SCENE"
            },
            "guideHint": {
                "COLBFDGFKDJ": ""
            },
            "finishExec": [
                {
                    "type": "QUEST_EXEC_ADD_QUEST_PROGRESS",
                    "param": [
                        "1020014",
                        "1"
                    ]
                }
            ],
            "versionBegin": "",
            "versionEnd": ""
        },
        {
            "subId": 1020013,
            "mainId": 10200,
            "order": 8,
            "subIdSet": 1,
            "descTextMapHash": 3670176366,
            "finishCond": [
                {
                    "type": "QUEST_CONTENT_COMPLETE_TALK",
                    "param": [
                        1020010,
                        0
                    ]
                }
            ],
            "guide": {
                "type": "QUEST_GUIDE_NPC",
                "param": [
                    "152301"
                ],
                "guideScene": 1009,
                "guideStyle": "QUEST_GUIDE_STYLE_TARGET",
                "guideLayer": "QUEST_GUIDE_LAYER_SCENE"
            },
            "guideHint": {
                "COLBFDGFKDJ": ""
            },
            "finishExec": [
                {
                    "type": "QUEST_EXEC_ADD_QUEST_PROGRESS",
                    "param": [
                        "1020014",
                        "1"
                    ]
                }
            ],
            "versionBegin": "",
            "versionEnd": ""
        },
        {
            "subId": 1020014,
            "mainId": 10200,
            "order": 9,
            "descTextMapHash": 668998046,
            "showType": "QUEST_HIDDEN",
            "finishCond": [
                {
                    "type": "QUEST_CONTENT_ADD_QUEST_PROGRESS",
                    "param": [
                        1020014,
                        0
                    ],
                    "count": 4
                }
            ],
            "guide": {},
            "guideHint": {
                "COLBFDGFKDJ": ""
            },
            "finishExec": [
                {
                    "type": "QUEST_EXEC_ADD_QUEST_PROGRESS",
                    "param": [
                        "1020016",
                        "1"
                    ]
                }
            ],
            "versionBegin": "",
            "versionEnd": ""
        },
        {
            "subId": 1020015,
            "mainId": 10200,
            "order": 3,
            "descTextMapHash": 1317245846,
            "finishCond": [
                {
                    "type": "QUEST_CONTENT_COMPLETE_TALK",
                    "param": [
                        1020002,
                        0
                    ]
                }
            ],
            "failCond": [
                {
                    "type": "QUEST_CONTENT_GAME_TIME_TICK",
                    "param": [
                        0,
                        0
                    ]
                }
            ],
            "guide": {
                "type": "QUEST_GUIDE_NPC",
                "param": [
                    "1467"
                ],
                "guideScene": 3,
                "guideStyle": "QUEST_GUIDE_STYLE_TARGET",
                "guideLayer": "QUEST_GUIDE_LAYER_SCENE"
            },
            "guideHint": {
                "COLBFDGFKDJ": ""
            },
            "isRewind": true,
            "failExec": [
                {
                    "type": "QUEST_EXEC_ROLLBACK_QUEST",
                    "param": [
                        "1020001"
                    ]
                }
            ],
            "versionBegin": "",
            "versionEnd": ""
        },
        {
            "subId": 1020016,
            "mainId": 10200,
            "order": 10,
            "descTextMapHash": 389750526,
            "showType": "QUEST_HIDDEN",
            "finishCond": [
                {
                    "type": "QUEST_CONTENT_ADD_QUEST_PROGRESS",
                    "param": [
                        1020016,
                        0
                    ],
                    "count": 1
                }
            ],
            "guide": {},
            "guideHint": {
                "COLBFDGFKDJ": ""
            },
            "isRewind": true,
            "versionBegin": "",
            "versionEnd": ""
        }
    ],
    "talks": [
        {
            "id": 1020001,
            "beginWay": "TALK_BEGIN_MANUAL",
            "beginCond": [
                {
                    "type": "QUEST_COND_STATE_EQUAL",
                    "param": [
                        "1020008",
                        "2"
                    ]
                }
            ],
            "priority": 5,
            "initDialog": 102000101,
            "npcId": [
                1006
            ],
            "performCfg": "",
            "heroTalk": "TALK_HERO_MAIN",
            "questId": 10200,
            "assetIndex": 5892543373098129461,
            "prePerformCfg": ""
        },
        {
            "id": 1020002,
            "beginWay": "TALK_BEGIN_AUTO",
            "beginCond": [
                {
                    "type": "QUEST_COND_STATE_EQUAL",
                    "param": [
                        "1020015",
                        "2"
                    ]
                }
            ],
            "priority": 5,
            "initDialog": 102000201,
            "npcId": [
                1467
            ],
            "performCfg": "QuestDialogue/LQ/Klee1_10200/Q1020001",
            "heroTalk": "TALK_HERO_MAIN",
            "questId": 10200,
            "assetIndex": 18032052353324535830,
            "prePerformCfg": "",
            "lockGameTime": true
        },
        {
            "id": 1020003,
            "beginWay": "TALK_BEGIN_MANUAL",
            "beginCond": [
                {
                    "type": "QUEST_COND_STATE_EQUAL",
                    "param": [
                        "1020005",
                        "2"
                    ]
                }
            ],
            "priority": 5,
            "initDialog": 102000301,
            "npcId": [
                1005
            ],
            "performCfg": "QuestDialogue/LQ/Klee1_10200/Q1020003",
            "heroTalk": "TALK_HERO_MAIN",
            "questId": 10200,
            "assetIndex": 6545011179358864246,
            "prePerformCfg": ""
        },
        {
            "id": 1020004,
            "beginWay": "TALK_BEGIN_AUTO",
            "beginCond": [
                {
                    "type": "QUEST_COND_STATE_EQUAL",
                    "param": [
                        "1020007",
                        "2"
                    ]
                }
            ],
            "priority": 5,
            "initDialog": 102000401,
            "npcId": [
                1006
            ],
            "performCfg": "QuestDialogue/LQ/Klee1_10200/Q1020004",
            "heroTalk": "TALK_HERO_MAIN",
            "questId": 10200,
            "assetIndex": 14092677850116994548,
            "prePerformCfg": ""
        },
        {
            "id": 1020005,
            "beginWay": "TALK_BEGIN_MANUAL",
            "beginCond": [
                {
                    "type": "QUEST_COND_STATE_EQUAL",
                    "param": [
                        "1020012",
                        "2"
                    ]
                }
            ],
            "priority": 5,
            "nextTalks": [
                1020009,
                1020025,
                1020026,
                1020027
            ],
            "initDialog": 102000501,
            "npcId": [
                1465
            ],
            "performCfg": "QuestDialogue/LQ/Klee1_10200/Q1020005",
            "questId": 10200,
            "assetIndex": 7584220339679092239,
            "prePerformCfg": "",
            "freeStyleList": [
                9000
            ]
        },
        {
            "id": 1020006,
            "beginWay": "TALK_BEGIN_AUTO",
            "beginCond": [
                {
                    "type": "QUEST_COND_STATE_EQUAL",
                    "param": [
                        "1020010",
                        "2"
                    ]
                }
            ],
            "priority": 5,
            "initDialog": 102000601,
            "npcId": [
                10090
            ],
            "performCfg": "QuestDialogue/LQ/Klee1_10200/Q1020006",
            "heroTalk": "TALK_HERO_MAIN",
            "questId": 10200,
            "assetIndex": 5503402972910897890,
            "prePerformCfg": ""
        },
        {
            "id": 1020007,
            "beginCond": [
                {
                    "type": "QUEST_COND_STATE_EQUAL",
                    "param": [
                        "1020004",
                        "2"
                    ]
                }
            ],
            "priority": 1,
            "initDialog": 102000701,
            "npcId": [
                141401
            ],
            "performCfg": "QuestDialogue/LQ/Klee1_10200/Q1020007",
            "heroTalk": "TALK_HERO_MAIN",
            "questId": 10200,
            "assetIndex": 6823844289019511982,
            "prePerformCfg": ""
        },
        {
            "id": 1020008,
            "beginCond": [
                {
                    "type": "QUEST_COND_STATE_EQUAL",
                    "param": [
                        "1020011",
                        "2"
                    ]
                }
            ],
            "priority": 1,
            "initDialog": 102000801,
            "npcId": [
                160301
            ],
            "performCfg": "QuestDialogue/LQ/Klee1_10200/Q1020008",
            "heroTalk": "TALK_HERO_MAIN",
            "questId": 10200,
            "assetIndex": 16323527655569810895,
            "prePerformCfg": ""
        },
        {
            "id": 1020009,
            "beginCond": [
                {
                    "type": "QUEST_COND_STATE_EQUAL",
                    "param": [
                        "1020012",
                        "2"
                    ]
                }
            ],
            "priority": 1,
            "initDialog": 102000901,
            "npcId": [
                1465
            ],
            "performCfg": "QuestDialogue/LQ/Klee1_10200/Q1020009",
            "heroTalk": "TALK_HERO_MAIN",
            "questId": 10200,
            "assetIndex": 11487996772353757554,
            "prePerformCfg": ""
        },
        {
            "id": 1020010,
            "beginCond": [
                {
                    "type": "QUEST_COND_STATE_EQUAL",
                    "param": [
                        "1020013",
                        "2"
                    ]
                }
            ],
            "priority": 1,
            "initDialog": 102001001,
            "npcId": [
                152301
            ],
            "performCfg": "QuestDialogue/LQ/Klee1_10200/Q1020010",
            "heroTalk": "TALK_HERO_MAIN",
            "questId": 10200,
            "assetIndex": 15439572908756285407,
            "prePerformCfg": ""
        },
        {
            "id": 1020011,
            "beginWay": "TALK_BEGIN_MANUAL",
            "beginCond": [
                {
                    "type": "QUEST_COND_STATE_EQUAL",
                    "param": [
                        "1020004",
                        "2"
                    ]
                }
            ],
            "priority": 3,
            "nextTalks": [
                1020007,
                1020012,
                1020013,
                1020014
            ],
            "initDialog": 102001101,
            "npcId": [
                141401
            ],
            "performCfg": "QuestDialogue/LQ/Klee1_10200/Q1020011",
            "questId": 10200,
            "assetIndex": 1073050322937660806,
            "prePerformCfg": ""
        },
        {
            "id": 1020012,
            "priority": 1,
            "initDialog": 102001201,
            "npcId": [
                141401
            ],
            "performCfg": "",
            "questId": 10200,
            "assetIndex": 10818894224595245525,
            "prePerformCfg": ""
        },
        {
            "id": 1020013,
            "priority": 1,
            "initDialog": 102001301,
            "npcId": [
                141401
            ],
            "performCfg": "",
            "questId": 10200,
            "assetIndex": 7470823586071534241,
            "prePerformCfg": ""
        },
        {
            "id": 1020014,
            "priority": 1,
            "initDialog": 102001401,
            "npcId": [
                141401
            ],
            "performCfg": "",
            "questId": 10200,
            "assetIndex": 12789802589291826938,
            "prePerformCfg": ""
        },
        {
            "id": 1020015,
            "beginWay": "TALK_BEGIN_MANUAL",
            "beginCond": [
                {
                    "type": "QUEST_COND_STATE_EQUAL",
                    "param": [
                        "1020013",
                        "2"
                    ]
                }
            ],
            "priority": 3,
            "nextTalks": [
                1020010,
                1020016,
                1020017
            ],
            "initDialog": 102001501,
            "npcId": [
                152301
            ],
            "performCfg": "QuestDialogue/LQ/Klee1_10200/Q1020015",
            "questId": 10200,
            "assetIndex": 14232750723348606189,
            "prePerformCfg": ""
        },
        {
            "id": 1020016,
            "priority": 1,
            "initDialog": 102001601,
            "npcId": [
                152301
            ],
            "performCfg": "",
            "questId": 10200,
            "assetIndex": 2454246857063417676,
            "prePerformCfg": ""
        },
        {
            "id": 1020017,
            "priority": 1,
            "initDialog": 102001701,
            "npcId": [
                152301
            ],
            "performCfg": "",
            "questId": 10200,
            "assetIndex": 6901806869803079435,
            "prePerformCfg": ""
        },
        {
            "id": 1020018,
            "beginWay": "TALK_BEGIN_MANUAL",
            "beginCond": [
                {
                    "type": "QUEST_COND_STATE_EQUAL",
                    "param": [
                        "1020011",
                        "2"
                    ]
                }
            ],
            "priority": 3,
            "nextTalks": [
                1020008,
                1020019
            ],
            "initDialog": 102001801,
            "npcId": [
                160301
            ],
            "performCfg": "QuestDialogue/LQ/Klee1_10200/Q1020018",
            "questId": 10200,
            "assetIndex": 6662307087298291020,
            "prePerformCfg": ""
        },
        {
            "id": 1020019,
            "priority": 1,
            "initDialog": 102001901,
            "npcId": [
                160301
            ],
            "performCfg": "",
            "questId": 10200,
            "assetIndex": 17879079696892654171,
            "prePerformCfg": ""
        },
        {
            "id": 1020022,
            "beginWay": "TALK_BEGIN_MANUAL",
            "beginCond": [
                {
                    "type": "QUEST_COND_STATE_EQUAL",
                    "param": [
                        "1020004",
                        "3"
                    ]
                }
            ],
            "priority": 3,
            "nextTalks": [
                1020012,
                1020013,
                1020014
            ],
            "initDialog": 102002201,
            "npcId": [
                141401
            ],
            "performCfg": "",
            "questId": 10200,
            "assetIndex": 1927754151698260651,
            "prePerformCfg": ""
        },
        {
            "id": 1020023,
            "beginWay": "TALK_BEGIN_MANUAL",
            "beginCond": [
                {
                    "type": "QUEST_COND_STATE_EQUAL",
                    "param": [
                        "1020013",
                        "3"
                    ]
                }
            ],
            "priority": 3,
            "nextTalks": [
                1020016,
                1020017
            ],
            "initDialog": 102002301,
            "npcId": [
                152301
            ],
            "performCfg": "",
            "questId": 10200,
            "assetIndex": 17604817123256473423,
            "prePerformCfg": ""
        },
        {
            "id": 1020024,
            "beginWay": "TALK_BEGIN_MANUAL",
            "beginCond": [
                {
                    "type": "QUEST_COND_STATE_EQUAL",
                    "param": [
                        "1020011",
                        "3"
                    ]
                }
            ],
            "priority": 3,
            "nextTalks": [
                1020019
            ],
            "initDialog": 102002401,
            "npcId": [
                160301
            ],
            "performCfg": "",
            "questId": 10200,
            "assetIndex": 17848893781737729060,
            "prePerformCfg": ""
        },
        {
            "id": 1020025,
            "priority": 1,
            "initDialog": 102002501,
            "npcId": [
                1465
            ],
            "performCfg": "",
            "questId": 10200,
            "assetIndex": 10618989058022177628,
            "prePerformCfg": "",
            "freeStyleList": [
                9000
            ]
        },
        {
            "id": 1020026,
            "priority": 1,
            "initDialog": 102002601,
            "npcId": [
                1465
            ],
            "performCfg": "",
            "questId": 10200,
            "assetIndex": 12110693758531888466,
            "prePerformCfg": "",
            "freeStyleList": [
                9000
            ]
        },
        {
            "id": 1020027,
            "priority": 1,
            "initDialog": 102002701,
            "npcId": [
                1465
            ],
            "performCfg": "",
            "questId": 10200,
            "assetIndex": 1032335213741541754,
            "prePerformCfg": "",
            "freeStyleList": [
                9000
            ]
        }
    ],
    "preloadLuaList": [
        4543246233805805157,
        14457059026087496718
    ],
    "freeStyleDic": {
        "1005": [
            1190,
            8010
        ],
        "1006": [
            1190,
            8010
        ],
        "10090": [
            1190,
            8010
        ],
        "141401": [
            1190,
            8010
        ],
        "152301": [
            1190,
            8010
        ],
        "160301": [
            1190,
            8010
        ]
    }
}