{
    "id": 11006,
    "resId": 8001,
    "type": "LQ",
    "titleTextMapHash": 237090193,
    "descTextMapHash": 1220413271,
    "luaPath": "",
    "subQuests": [
        {
            "subId": 1100601,
            "mainId": 11006,
            "order": 1,
            "descTextMapHash": 1112238510,
            "finishCond": [
                {
                    "type": "QUEST_CONTENT_TRIGGER_FIRE",
                    "param": [
                        1168,
                        0
                    ]
                }
            ],
            "guide": {
                "type": "QUEST_GUIDE_LOCATION",
                "param": [
                    "Q1100601_Target",
                    "40"
                ],
                "guideScene": 3,
                "guideLayer": "QUEST_GUIDE_LAYER_SCENE"
            },
            "guideHint": {
                "COLBFDGFKDJ": ""
            },
            "isRewind": true,
            "finishExec": [
                {
                    "type": "QUEST_EXEC_NOTIFY_GROUP_LUA",
                    "param": [
                        "3",
                        "133103015"
                    ]
                }
            ],
            "versionBegin": "",
            "versionEnd": ""
        },
        {
            "subId": 1100602,
            "mainId": 11006,
            "order": 2,
            "descTextMapHash": 3473831270,
            "finishCond": [
                {
                    "type": "QUEST_CONTENT_LUA_NOTIFY",
                    "param": [
                        0,
                        0
                    ],
                    "count": 1
                }
            ],
            "guide": {
                "type": "QUEST_GUIDE_LOCATION",
                "param": [
                    "Q1100602_Target"
                ],
                "guideScene": 3,
                "guideLayer": "QUEST_GUIDE_LAYER_SCENE"
            },
            "guideHint": {
                "COLBFDGFKDJ": ""
            },
            "finishParent": true,
            "isRewind": true,
            "versionBegin": "",
            "versionEnd": ""
        }
    ]
}