{
    "id": 11122,
    "resId": 2015,
    "series": 1112,
    "type": "LQ",
    "titleTextMapHash": 3766367927,
    "descTextMapHash": 1913457918,
    "luaPath": "Actor/Quest/LQ11122",
    "suggestTrackMainQuestList": [
        11123
    ],
    "rewardIdList": [
        111122
    ],
    "chapterId": 2020,
    "subQuests": [
        {
            "subId": 1112201,
            "mainId": 11122,
            "order": 1,
            "descTextMapHash": 1842245588,
            "finishCond": [
                {
                    "type": "QUEST_CONTENT_COMPLETE_TALK",
                    "param": [
                        1112201,
                        0
                    ]
                }
            ],
            "guide": {
                "type": "QUEST_GUIDE_LOCATION",
                "param": [
                    "Q11122_Look_Pos"
                ],
                "guideScene": 3,
                "guideStyle": "QUEST_GUIDE_STYLE_POINT",
                "guideLayer": "QUEST_GUIDE_LAYER_SCENE"
            },
            "guideHint": {
                "COLBFDGFKDJ": ""
            },
            "isRewind": true,
            "finishExec": [
                {
                    "type": "QUEST_EXEC_UNREGISTER_DYNAMIC_GROUP",
                    "param": [
                        "133106913"
                    ]
                }
            ],
            "versionBegin": "",
            "versionEnd": ""
        },
        {
            "subId": 1112202,
            "mainId": 11122,
            "order": 2,
            "descTextMapHash": 3319825692,
            "finishCond": [
                {
                    "type": "QUEST_CONTENT_COMPLETE_TALK",
                    "param": [
                        1112202,
                        0
                    ]
                }
            ],
            "guide": {
                "type": "QUEST_GUIDE_LOCATION",
                "param": [
                    "Q11122_Search_1_Pos",
                    "20"
                ],
                "guideScene": 3,
                "guideStyle": "QUEST_GUIDE_STYLE_TARGET",
                "guideLayer": "QUEST_GUIDE_LAYER_SCENE"
            },
            "guideHint": {
                "COLBFDGFKDJ": ""
            },
            "isRewind": true,
            "finishExec": [
                {
                    "type": "QUEST_EXEC_UNREGISTER_DYNAMIC_GROUP",
                    "param": [
                        "133106408"
                    ]
                }
            ],
            "versionBegin": "",
            "versionEnd": ""
        },
        {
            "subId": 1112203,
            "mainId": 11122,
            "order": 3,
            "descTextMapHash": 3689700492,
            "finishCond": [
                {
                    "type": "QUEST_CONTENT_FINISH_PLOT",
                    "param": [
                        1112203,
                        0
                    ]
                }
            ],
            "guide": {
                "type": "QUEST_GUIDE_LOCATION",
                "param": [
                    "Q11122_Search_2_Pos",
                    "SELECT_NPC_NONE"
                ],
                "guideScene": 3,
                "guideStyle": "QUEST_GUIDE_STYLE_POINT",
                "guideLayer": "QUEST_GUIDE_LAYER_SCENE"
            },
            "guideHint": {
                "COLBFDGFKDJ": ""
            },
            "isRewind": true,
            "versionBegin": "",
            "versionEnd": ""
        },
        {
            "subId": 1112204,
            "mainId": 11122,
            "order": 6,
            "subIdSet": 1,
            "descTextMapHash": 1896974420,
            "finishCond": [
                {
                    "type": "QUEST_CONTENT_COMPLETE_TALK",
                    "param": [
                        1112204,
                        0
                    ]
                }
            ],
            "guide": {
                "type": "QUEST_GUIDE_LOCATION",
                "param": [
                    "Q11122_Villager3_Pos",
                    "25"
                ],
                "guideScene": 3,
                "guideStyle": "QUEST_GUIDE_STYLE_TARGET",
                "guideLayer": "QUEST_GUIDE_LAYER_SCENE"
            },
            "guideHint": {
                "COLBFDGFKDJ": ""
            },
            "isRewind": true,
            "finishExec": [
                {
                    "type": "QUEST_EXEC_UNREGISTER_DYNAMIC_GROUP",
                    "param": [
                        "133106910"
                    ]
                }
            ],
            "versionBegin": "",
            "versionEnd": ""
        },
        {
            "subId": 1112205,
            "mainId": 11122,
            "order": 7,
            "descTextMapHash": 3147494684,
            "finishCond": [
                {
                    "type": "QUEST_CONTENT_FINISH_PLOT",
                    "param": [
                        1112205,
                        0
                    ]
                }
            ],
            "guide": {
                "type": "QUEST_GUIDE_LOCATION",
                "param": [
                    "Q11122_Search_3_Pos",
                    "30"
                ],
                "guideScene": 3,
                "guideStyle": "QUEST_GUIDE_STYLE_TARGET",
                "guideLayer": "QUEST_GUIDE_LAYER_SCENE"
            },
            "guideHint": {
                "COLBFDGFKDJ": ""
            },
            "isRewind": true,
            "versionBegin": "",
            "versionEnd": ""
        },
        {
            "subId": 1112206,
            "mainId": 11122,
            "order": 8,
            "descTextMapHash": 2469483484,
            "finishCond": [
                {
                    "type": "QUEST_CONTENT_LUA_NOTIFY",
                    "param": [
                        0,
                        0
                    ],
                    "count": 1
                }
            ],
            "guide": {
                "type": "QUEST_GUIDE_LOCATION",
                "param": [
                    "Q11122_NPC_Search_Fin_Pos",
                    "30"
                ],
                "guideScene": 3,
                "guideStyle": "QUEST_GUIDE_STYLE_TARGET",
                "guideLayer": "QUEST_GUIDE_LAYER_SCENE"
            },
            "guideHint": {
                "COLBFDGFKDJ": ""
            },
            "finishExec": [
                {
                    "type": "QUEST_EXEC_UNREGISTER_DYNAMIC_GROUP",
                    "param": [
                        "133106911"
                    ]
                }
            ],
            "versionBegin": "",
            "versionEnd": ""
        },
        {
            "subId": 1112207,
            "mainId": 11122,
            "order": 9,
            "descTextMapHash": 2014266148,
            "finishCond": [
                {
                    "type": "QUEST_CONTENT_COMPLETE_TALK",
                    "param": [
                        1112207,
                        0
                    ]
                }
            ],
            "guide": {
                "type": "QUEST_GUIDE_NPC",
                "param": [
                    "10395",
                    "SELECT_NPC_NONE"
                ],
                "guideScene": 3,
                "guideStyle": "QUEST_GUIDE_STYLE_TARGET",
                "guideLayer": "QUEST_GUIDE_LAYER_SCENE"
            },
            "guideHint": {
                "COLBFDGFKDJ": ""
            },
            "isRewind": true,
            "finishExec": [
                {
                    "type": "QUEST_EXEC_UNREGISTER_DYNAMIC_GROUP",
                    "param": [
                        "133103921"
                    ]
                }
            ],
            "versionBegin": "",
            "versionEnd": ""
        },
        {
            "subId": 1112208,
            "mainId": 11122,
            "order": 11,
            "descTextMapHash": 3386795284,
            "stepDescTextMapHash": 1968090269,
            "finishCond": [
                {
                    "type": "QUEST_CONTENT_COMPLETE_TALK",
                    "param": [
                        1112208,
                        0
                    ]
                }
            ],
            "guide": {
                "type": "QUEST_GUIDE_LOCATION",
                "param": [
                    "Q11122_Miner_Pos",
                    "40"
                ],
                "guideScene": 3,
                "guideStyle": "QUEST_GUIDE_STYLE_TARGET",
                "guideLayer": "QUEST_GUIDE_LAYER_SCENE"
            },
            "guideHint": {
                "COLBFDGFKDJ": ""
            },
            "isRewind": true,
            "versionBegin": "",
            "versionEnd": ""
        },
        {
            "subId": 1112209,
            "mainId": 11122,
            "order": 12,
            "descTextMapHash": 3672939068,
            "finishCond": [
                {
                    "type": "QUEST_CONTENT_COMPLETE_TALK",
                    "param": [
                        1112209,
                        0
                    ]
                }
            ],
            "guide": {
                "type": "QUEST_GUIDE_LOCATION",
                "param": [
                    "Q11122_Campsite_Pos",
                    "SELECT_NPC_NONE"
                ],
                "guideScene": 3,
                "guideStyle": "QUEST_GUIDE_STYLE_POINT",
                "guideLayer": "QUEST_GUIDE_LAYER_SCENE"
            },
            "guideHint": {
                "COLBFDGFKDJ": ""
            },
            "finishParent": true,
            "isRewind": true,
            "versionBegin": "",
            "versionEnd": ""
        },
        {
            "subId": 1112210,
            "mainId": 11122,
            "order": 4,
            "subIdSet": 1,
            "descTextMapHash": 857707804,
            "finishCond": [
                {
                    "type": "QUEST_CONTENT_COMPLETE_TALK",
                    "param": [
                        1112204,
                        0
                    ]
                },
                {
                    "type": "QUEST_CONTENT_COMPLETE_TALK",
                    "param": [
                        1112241,
                        0
                    ]
                }
            ],
            "guide": {
                "type": "QUEST_GUIDE_LOCATION",
                "param": [
                    "Q11122_Villager1_Pos",
                    "25"
                ],
                "guideScene": 3,
                "guideStyle": "QUEST_GUIDE_STYLE_TARGET",
                "guideLayer": "QUEST_GUIDE_LAYER_SCENE"
            },
            "guideHint": {
                "COLBFDGFKDJ": ""
            },
            "isRewind": true,
            "finishExec": [
                {
                    "type": "QUEST_EXEC_UNREGISTER_DYNAMIC_GROUP",
                    "param": [
                        "133106910"
                    ]
                }
            ],
            "versionBegin": "",
            "versionEnd": ""
        },
        {
            "subId": 1112211,
            "mainId": 11122,
            "order": 5,
            "subIdSet": 1,
            "descTextMapHash": 2207739220,
            "finishCond": [
                {
                    "type": "QUEST_CONTENT_COMPLETE_TALK",
                    "param": [
                        1112204,
                        0
                    ]
                },
                {
                    "type": "QUEST_CONTENT_COMPLETE_TALK",
                    "param": [
                        1112242,
                        0
                    ]
                }
            ],
            "guide": {
                "type": "QUEST_GUIDE_LOCATION",
                "param": [
                    "Q11122_Villager2_Pos",
                    "25"
                ],
                "guideScene": 3,
                "guideStyle": "QUEST_GUIDE_STYLE_TARGET",
                "guideLayer": "QUEST_GUIDE_LAYER_SCENE"
            },
            "guideHint": {
                "COLBFDGFKDJ": ""
            },
            "isRewind": true,
            "finishExec": [
                {
                    "type": "QUEST_EXEC_UNREGISTER_DYNAMIC_GROUP",
                    "param": [
                        "133106910"
                    ]
                }
            ],
            "versionBegin": "",
            "versionEnd": ""
        },
        {
            "subId": 1112212,
            "mainId": 11122,
            "order": 10,
            "descTextMapHash": 3394260044,
            "showType": "QUEST_HIDDEN",
            "finishCond": [
                {
                    "type": "QUEST_CONTENT_FINISH_PLOT",
                    "param": [
                        1112212,
                        0
                    ]
                }
            ],
            "guide": {
                "type": "QUEST_GUIDE_LOCATION",
                "param": [
                    "Q11122_Miner_Pos",
                    "30"
                ],
                "guideScene": 3,
                "guideStyle": "QUEST_GUIDE_STYLE_TARGET",
                "guideLayer": "QUEST_GUIDE_LAYER_SCENE"
            },
            "guideHint": {
                "COLBFDGFKDJ": ""
            },
            "isRewind": true,
            "finishExec": [
                {
                    "type": "QUEST_EXEC_UNREGISTER_DYNAMIC_GROUP",
                    "param": [
                        "133103924"
                    ]
                }
            ],
            "versionBegin": "",
            "versionEnd": ""
        }
    ],
    "talks": [
        {
            "id": 1112201,
            "beginWay": "TALK_BEGIN_AUTO",
            "beginCond": [
                {
                    "type": "QUEST_COND_STATE_EQUAL",
                    "param": [
                        "1112201",
                        "2"
                    ]
                }
            ],
            "priority": 5,
            "initDialog": 111229901,
            "npcId": [
                10408
            ],
            "performCfg": "QuestDialogue/LQ/Zhongli2_11122/Q1112201",
            "heroTalk": "TALK_HERO_MAIN",
            "questId": 11122,
            "assetIndex": 12310685417480159108,
            "prePerformCfg": ""
        },
        {
            "id": 1112202,
            "beginWay": "TALK_BEGIN_AUTO",
            "beginCond": [
                {
                    "type": "QUEST_COND_STATE_EQUAL",
                    "param": [
                        "1112202",
                        "2"
                    ]
                }
            ],
            "priority": 5,
            "initDialog": 111220201,
            "npcId": [
                10408
            ],
            "performCfg": "QuestDialogue/LQ/Zhongli2_11122/Q1112202",
            "heroTalk": "TALK_HERO_MAIN",
            "questId": 11122,
            "assetIndex": 1427804574944329023,
            "prePerformCfg": ""
        },
        {
            "id": 1112204,
            "beginWay": "TALK_BEGIN_MANUAL",
            "beginCond": [
                {
                    "type": "QUEST_COND_STATE_EQUAL",
                    "param": [
                        "1112204",
                        "2"
                    ]
                }
            ],
            "priority": 5,
            "initDialog": 111220401,
            "npcId": [
                10381
            ],
            "performCfg": "QuestDialogue/LQ/Zhongli2_11122/Q1112204",
            "heroTalk": "TALK_HERO_MAIN",
            "questId": 11122,
            "assetIndex": 437177128720220138,
            "prePerformCfg": ""
        },
        {
            "id": 1112207,
            "beginWay": "TALK_BEGIN_MANUAL",
            "beginCond": [
                {
                    "type": "QUEST_COND_STATE_EQUAL",
                    "param": [
                        "1112207",
                        "2"
                    ]
                }
            ],
            "priority": 5,
            "initDialog": 111220701,
            "npcId": [
                10395
            ],
            "performCfg": "QuestDialogue/LQ/Zhongli2_11122/Q1112207",
            "heroTalk": "TALK_HERO_MAIN",
            "questId": 11122,
            "assetIndex": 10016864829677328046,
            "prePerformCfg": ""
        },
        {
            "id": 1112208,
            "beginWay": "TALK_BEGIN_AUTO",
            "beginCond": [
                {
                    "type": "QUEST_COND_STATE_EQUAL",
                    "param": [
                        "1112208",
                        "2"
                    ]
                }
            ],
            "priority": 5,
            "initDialog": 111220802,
            "npcId": [
                10382
            ],
            "performCfg": "QuestDialogue/LQ/Zhongli2_11122/Q1112208",
            "heroTalk": "TALK_HERO_MAIN",
            "questId": 11122,
            "assetIndex": 7530760368886465298,
            "prePerformCfg": ""
        },
        {
            "id": 1112209,
            "beginWay": "TALK_BEGIN_AUTO",
            "beginCond": [
                {
                    "type": "QUEST_COND_STATE_EQUAL",
                    "param": [
                        "1112209",
                        "2"
                    ]
                }
            ],
            "priority": 5,
            "initDialog": 111220901,
            "npcId": [
                10408
            ],
            "performCfg": "QuestDialogue/LQ/Zhongli2_11122/Q1112209",
            "heroTalk": "TALK_HERO_MAIN",
            "questId": 11122,
            "assetIndex": 11681370485389206933,
            "prePerformCfg": ""
        },
        {
            "id": 1112210,
            "beginWay": "TALK_BEGIN_MANUAL",
            "beginCondComb": "LOGIC_OR",
            "beginCond": [
                {
                    "type": "QUEST_COND_STATE_EQUAL",
                    "param": [
                        "11122012",
                        "2"
                    ]
                },
                {
                    "type": "QUEST_COND_STATE_EQUAL",
                    "param": [
                        "1112208",
                        "2"
                    ]
                }
            ],
            "priority": 5,
            "initDialog": 111221001,
            "npcId": [
                10424
            ],
            "performCfg": "QuestDialogue/LQ/Zhongli2_11122/Q1112210",
            "heroTalk": "TALK_HERO_MAIN",
            "questId": 11122,
            "assetIndex": 8312218072939199725,
            "prePerformCfg": ""
        },
        {
            "id": 1112211,
            "beginWay": "TALK_BEGIN_MANUAL",
            "beginCond": [
                {
                    "type": "QUEST_COND_STATE_EQUAL",
                    "param": [
                        "1112201",
                        "2"
                    ]
                }
            ],
            "priority": 5,
            "initDialog": 111211001,
            "npcId": [
                10424
            ],
            "performCfg": "QuestDialogue/LQ/Zhongli2_11121/Q1112110",
            "heroTalk": "TALK_HERO_MAIN",
            "questId": 11122,
            "assetIndex": 859703213670335852,
            "prePerformCfg": ""
        },
        {
            "id": 1112241,
            "beginWay": "TALK_BEGIN_MANUAL",
            "beginCond": [
                {
                    "type": "QUEST_COND_STATE_EQUAL",
                    "param": [
                        "1112210",
                        "2"
                    ]
                }
            ],
            "priority": 5,
            "initDialog": 111224101,
            "npcId": [
                10379
            ],
            "performCfg": "QuestDialogue/LQ/Zhongli2_11122/Q1112241",
            "heroTalk": "TALK_HERO_MAIN",
            "questId": 11122,
            "assetIndex": 11399349584696903190,
            "prePerformCfg": ""
        },
        {
            "id": 1112242,
            "beginWay": "TALK_BEGIN_MANUAL",
            "beginCond": [
                {
                    "type": "QUEST_COND_STATE_EQUAL",
                    "param": [
                        "1112211",
                        "2"
                    ]
                }
            ],
            "priority": 5,
            "initDialog": 111224201,
            "npcId": [
                10380
            ],
            "performCfg": "QuestDialogue/LQ/Zhongli2_11122/Q1112242",
            "heroTalk": "TALK_HERO_MAIN",
            "questId": 11122,
            "assetIndex": 14010335614255725895,
            "prePerformCfg": ""
        },
        {
            "id": 1112251,
            "beginWay": "TALK_BEGIN_MANUAL",
            "beginCondComb": "LOGIC_A_AND_ETCOR",
            "beginCond": [
                {
                    "type": "QUEST_COND_STATE_EQUAL",
                    "param": [
                        "1112210",
                        "3"
                    ]
                },
                {
                    "type": "QUEST_COND_STATE_EQUAL",
                    "param": [
                        "1112204",
                        "2"
                    ]
                },
                {
                    "type": "QUEST_COND_STATE_EQUAL",
                    "param": [
                        "1112205",
                        "2"
                    ]
                },
                {
                    "type": "QUEST_COND_STATE_EQUAL",
                    "param": [
                        "1112211",
                        "2"
                    ]
                }
            ],
            "priority": 5,
            "initDialog": 111225101,
            "npcId": [
                10379
            ],
            "performCfg": "QuestDialogue/LQ/Zhongli2_11122/Q1112251",
            "heroTalk": "TALK_HERO_MAIN",
            "questId": 11122,
            "assetIndex": 17076529815562393937,
            "prePerformCfg": ""
        },
        {
            "id": 1112252,
            "beginWay": "TALK_BEGIN_MANUAL",
            "beginCondComb": "LOGIC_A_AND_ETCOR",
            "beginCond": [
                {
                    "type": "QUEST_COND_STATE_EQUAL",
                    "param": [
                        "1112211",
                        "3"
                    ]
                },
                {
                    "type": "QUEST_COND_STATE_EQUAL",
                    "param": [
                        "1112210",
                        "2"
                    ]
                },
                {
                    "type": "QUEST_COND_STATE_EQUAL",
                    "param": [
                        "1112204",
                        "2"
                    ]
                },
                {
                    "type": "QUEST_COND_STATE_EQUAL",
                    "param": [
                        "1112205",
                        "2"
                    ]
                }
            ],
            "priority": 5,
            "initDialog": 111225201,
            "npcId": [
                10380
            ],
            "performCfg": "QuestDialogue/LQ/Zhongli2_11122/Q1112252",
            "heroTalk": "TALK_HERO_MAIN",
            "questId": 11122,
            "assetIndex": 8136162058658640662,
            "prePerformCfg": ""
        },
        {
            "id": 1112253,
            "beginWay": "TALK_BEGIN_MANUAL",
            "beginCond": [
                {
                    "type": "QUEST_COND_STATE_EQUAL",
                    "param": [
                        "1112205",
                        "2"
                    ]
                }
            ],
            "priority": 5,
            "initDialog": 111225301,
            "npcId": [
                10381
            ],
            "performCfg": "QuestDialogue/LQ/Zhongli2_11122/Q1112253",
            "heroTalk": "TALK_HERO_MAIN",
            "questId": 11122,
            "assetIndex": 9799519502815915655,
            "prePerformCfg": ""
        }
    ],
    "preloadLuaList": [
        12686976343285910393,
        10852350728821043893,
        10901334057759753513,
        12089992058518000141,
        12810528955854482125
    ],
    "GDLCBECFGJO": [
        16693968853854352825
    ],
    "freeStyleDic": {
        "10395": [
            4190
        ],
        "10382": [
            4130
        ]
    }
}