{
    "id": 12016,
    "resId": 2025,
    "series": 2023,
    "type": "LQ",
    "titleTextMapHash": 4015309239,
    "descTextMapHash": 1665846270,
    "luaPath": "Actor/Quest/LQ12016",
    "suggestTrackMainQuestList": [
        12017
    ],
    "rewardIdList": [
        112016
    ],
    "chapterId": 2023,
    "subQuests": [
        {
            "subId": 1201601,
            "mainId": 12016,
            "order": 1,
            "descTextMapHash": 1670938556,
            "ALGDOBKHJPL": [
                4005605
            ],
            "finishCond": [
                {
                    "type": "QUEST_CONTENT_FINISH_PLOT",
                    "param": [
                        1201601,
                        0
                    ]
                }
            ],
            "guide": {
                "type": "QUEST_GUIDE_LOCATION",
                "autoGuide": "QUEST_GUIDE_AUTO_ENABLE",
                "param": [
                    "Q12016Player1"
                ],
                "guideScene": 3,
                "guideStyle": "QUEST_GUIDE_STYLE_POINT",
                "guideLayer": "QUEST_GUIDE_LAYER_SCENE"
            },
            "guideHint": {
                "COLBFDGFKDJ": ""
            },
            "isRewind": true,
            "versionBegin": "",
            "versionEnd": ""
        },
        {
            "subId": 1201602,
            "mainId": 12016,
            "order": 2,
            "isMpBlock": true,
            "descTextMapHash": 3914171900,
            "ALGDOBKHJPL": [
                4005605
            ],
            "finishCond": [
                {
                    "type": "QUEST_CONTENT_COMPLETE_TALK",
                    "param": [
                        1201602,
                        0
                    ]
                }
            ],
            "guide": {
                "type": "QUEST_GUIDE_NPC",
                "autoGuide": "QUEST_GUIDE_AUTO_ENABLE",
                "param": [
                    "12076"
                ],
                "guideScene": 3,
                "guideStyle": "QUEST_GUIDE_STYLE_TARGET",
                "guideLayer": "QUEST_GUIDE_LAYER_SCENE"
            },
            "guideHint": {
                "COLBFDGFKDJ": ""
            },
            "isRewind": true,
            "finishExec": [
                {
                    "type": "QUEST_EXEC_LOCK_AVATAR_TEAM",
                    "param": [
                        "0"
                    ]
                }
            ],
            "versionBegin": "",
            "versionEnd": ""
        },
        {
            "subId": 1201603,
            "mainId": 12016,
            "order": 3,
            "isMpBlock": true,
            "descTextMapHash": 1298154004,
            "ALGDOBKHJPL": [
                4005605
            ],
            "finishCond": [
                {
                    "type": "QUEST_CONTENT_FINISH_PLOT",
                    "param": [
                        1201603,
                        0
                    ]
                }
            ],
            "guide": {
                "type": "QUEST_GUIDE_NPC",
                "autoGuide": "QUEST_GUIDE_AUTO_ENABLE",
                "param": [
                    "12076"
                ],
                "guideScene": 3,
                "guideStyle": "QUEST_GUIDE_STYLE_TARGET",
                "guideLayer": "QUEST_GUIDE_LAYER_SCENE"
            },
            "guideHint": {
                "COLBFDGFKDJ": ""
            },
            "versionBegin": "",
            "versionEnd": ""
        },
        {
            "subId": 1201604,
            "mainId": 12016,
            "order": 4,
            "isMpBlock": true,
            "descTextMapHash": 136120716,
            "ALGDOBKHJPL": [
                4005605
            ],
            "finishCond": [
                {
                    "type": "QUEST_CONTENT_FINISH_PLOT",
                    "param": [
                        1201604,
                        0
                    ]
                }
            ],
            "guide": {
                "guideScene": 3
            },
            "guideHint": {
                "COLBFDGFKDJ": ""
            },
            "versionBegin": "",
            "versionEnd": ""
        },
        {
            "subId": 1201605,
            "mainId": 12016,
            "order": 5,
            "isMpBlock": true,
            "descTextMapHash": 1790169052,
            "ALGDOBKHJPL": [
                4005605
            ],
            "finishCond": [
                {
                    "type": "QUEST_CONTENT_FINISH_PLOT",
                    "param": [
                        1201605,
                        0
                    ]
                }
            ],
            "guide": {
                "type": "QUEST_GUIDE_NPC",
                "autoGuide": "QUEST_GUIDE_AUTO_ENABLE",
                "param": [
                    "3173"
                ],
                "guideScene": 3,
                "guideStyle": "QUEST_GUIDE_STYLE_TARGET",
                "guideLayer": "QUEST_GUIDE_LAYER_SCENE"
            },
            "guideHint": {
                "COLBFDGFKDJ": ""
            },
            "versionBegin": "",
            "versionEnd": ""
        },
        {
            "subId": 1201606,
            "mainId": 12016,
            "order": 7,
            "descTextMapHash": 418474700,
            "ALGDOBKHJPL": [
                4005605
            ],
            "finishCond": [
                {
                    "type": "QUEST_CONTENT_COMPLETE_TALK",
                    "param": [
                        1201606,
                        0
                    ]
                }
            ],
            "guide": {
                "type": "QUEST_GUIDE_NPC",
                "autoGuide": "QUEST_GUIDE_AUTO_ENABLE",
                "param": [
                    "3173"
                ],
                "guideScene": 3,
                "guideStyle": "QUEST_GUIDE_STYLE_TARGET",
                "guideLayer": "QUEST_GUIDE_LAYER_SCENE"
            },
            "guideHint": {
                "COLBFDGFKDJ": ""
            },
            "isRewind": true,
            "versionBegin": "",
            "versionEnd": ""
        },
        {
            "subId": 1201607,
            "mainId": 12016,
            "order": 8,
            "descTextMapHash": 430584988,
            "finishCond": [
                {
                    "type": "QUEST_CONTENT_FINISH_PLOT",
                    "param": [
                        1201607,
                        0
                    ]
                }
            ],
            "guide": {
                "type": "QUEST_GUIDE_LOCATION",
                "autoGuide": "QUEST_GUIDE_AUTO_ENABLE",
                "param": [
                    "Q12016ShougunYing2"
                ],
                "guideScene": 3,
                "guideStyle": "QUEST_GUIDE_STYLE_POINT",
                "guideLayer": "QUEST_GUIDE_LAYER_SCENE"
            },
            "guideHint": {
                "COLBFDGFKDJ": ""
            },
            "isRewind": true,
            "versionBegin": "",
            "versionEnd": ""
        },
        {
            "subId": 1201608,
            "mainId": 12016,
            "order": 9,
            "descTextMapHash": 1369007220,
            "finishCond": [
                {
                    "type": "QUEST_CONTENT_COMPLETE_TALK",
                    "param": [
                        1201608,
                        0
                    ]
                }
            ],
            "guide": {
                "type": "QUEST_GUIDE_NPC",
                "autoGuide": "QUEST_GUIDE_AUTO_ENABLE",
                "param": [
                    "3029"
                ],
                "guideScene": 3,
                "guideStyle": "QUEST_GUIDE_STYLE_TARGET",
                "guideLayer": "QUEST_GUIDE_LAYER_SCENE"
            },
            "guideHint": {
                "COLBFDGFKDJ": ""
            },
            "isRewind": true,
            "versionBegin": "",
            "versionEnd": ""
        },
        {
            "subId": 1201609,
            "mainId": 12016,
            "order": 10,
            "descTextMapHash": 369517228,
            "finishCond": [
                {
                    "type": "QUEST_CONTENT_FINISH_PLOT",
                    "param": [
                        1201609,
                        0
                    ]
                }
            ],
            "guide": {
                "type": "QUEST_GUIDE_LOCATION",
                "autoGuide": "QUEST_GUIDE_AUTO_ENABLE",
                "param": [
                    "Q12016Book2"
                ],
                "guideScene": 3,
                "guideStyle": "QUEST_GUIDE_STYLE_POINT",
                "guideLayer": "QUEST_GUIDE_LAYER_SCENE"
            },
            "guideHint": {
                "COLBFDGFKDJ": ""
            },
            "isRewind": true,
            "versionBegin": "",
            "versionEnd": ""
        },
        {
            "subId": 1201610,
            "mainId": 12016,
            "order": 11,
            "descTextMapHash": 970138380,
            "finishCond": [
                {
                    "type": "QUEST_CONTENT_COMPLETE_TALK",
                    "param": [
                        1201610,
                        0
                    ]
                }
            ],
            "guide": {
                "type": "QUEST_GUIDE_NPC",
                "autoGuide": "QUEST_GUIDE_AUTO_ENABLE",
                "param": [
                    "12076"
                ],
                "guideScene": 3,
                "guideStyle": "QUEST_GUIDE_STYLE_TARGET",
                "guideLayer": "QUEST_GUIDE_LAYER_SCENE"
            },
            "guideHint": {
                "COLBFDGFKDJ": ""
            },
            "isRewind": true,
            "versionBegin": "",
            "versionEnd": ""
        },
        {
            "subId": 1201611,
            "mainId": 12016,
            "order": 12,
            "subIdSet": 1,
            "descTextMapHash": 1960868548,
            "finishCond": [
                {
                    "type": "QUEST_CONTENT_COMPLETE_TALK",
                    "param": [
                        1201611,
                        0
                    ]
                }
            ],
            "guide": {
                "type": "QUEST_GUIDE_LOCATION",
                "autoGuide": "QUEST_GUIDE_AUTO_ENABLE",
                "param": [
                    "Q12016Book2"
                ],
                "guideScene": 3,
                "guideStyle": "QUEST_GUIDE_STYLE_POINT",
                "guideLayer": "QUEST_GUIDE_LAYER_SCENE"
            },
            "guideHint": {
                "COLBFDGFKDJ": ""
            },
            "isRewind": true,
            "versionBegin": "",
            "versionEnd": ""
        },
        {
            "subId": 1201612,
            "mainId": 12016,
            "order": 13,
            "subIdSet": 1,
            "descTextMapHash": 145833188,
            "finishCond": [
                {
                    "type": "QUEST_CONTENT_COMPLETE_TALK",
                    "param": [
                        1201612,
                        0
                    ]
                }
            ],
            "guide": {
                "type": "QUEST_GUIDE_LOCATION",
                "autoGuide": "QUEST_GUIDE_AUTO_ENABLE",
                "param": [
                    "Q12016Book2"
                ],
                "guideScene": 3,
                "guideStyle": "QUEST_GUIDE_STYLE_POINT",
                "guideLayer": "QUEST_GUIDE_LAYER_SCENE"
            },
            "guideHint": {
                "COLBFDGFKDJ": ""
            },
            "versionBegin": "",
            "versionEnd": ""
        },
        {
            "subId": 1201613,
            "mainId": 12016,
            "order": 14,
            "subIdSet": 1,
            "descTextMapHash": 2216279820,
            "finishCond": [
                {
                    "type": "QUEST_CONTENT_COMPLETE_TALK",
                    "param": [
                        1201613,
                        0
                    ]
                }
            ],
            "guide": {
                "type": "QUEST_GUIDE_LOCATION",
                "autoGuide": "QUEST_GUIDE_AUTO_ENABLE",
                "param": [
                    "Q12016Book2"
                ],
                "guideScene": 3,
                "guideStyle": "QUEST_GUIDE_STYLE_POINT",
                "guideLayer": "QUEST_GUIDE_LAYER_SCENE"
            },
            "guideHint": {
                "COLBFDGFKDJ": ""
            },
            "versionBegin": "",
            "versionEnd": ""
        },
        {
            "subId": 1201614,
            "mainId": 12016,
            "order": 15,
            "descTextMapHash": 3592902388,
            "finishCond": [
                {
                    "type": "QUEST_CONTENT_COMPLETE_TALK",
                    "param": [
                        1201614,
                        0
                    ]
                }
            ],
            "guide": {
                "type": "QUEST_GUIDE_NPC",
                "autoGuide": "QUEST_GUIDE_AUTO_ENABLE",
                "param": [
                    "12076"
                ],
                "guideScene": 3,
                "guideStyle": "QUEST_GUIDE_STYLE_TARGET",
                "guideLayer": "QUEST_GUIDE_LAYER_SCENE"
            },
            "guideHint": {
                "COLBFDGFKDJ": ""
            },
            "finishParent": true,
            "isRewind": true,
            "versionBegin": "",
            "versionEnd": ""
        },
        {
            "subId": 1201615,
            "mainId": 12016,
            "order": 6,
            "descTextMapHash": 1207564076,
            "showType": "QUEST_HIDDEN",
            "ALGDOBKHJPL": [
                4005605
            ],
            "finishCond": [
                {
                    "type": "QUEST_CONTENT_FINISH_PLOT",
                    "param": [
                        1201605,
                        0
                    ]
                }
            ],
            "failCond": [
                {
                    "type": "QUEST_CONTENT_NOT_FINISH_PLOT",
                    "param": [
                        1201615,
                        0
                    ]
                }
            ],
            "guide": {},
            "showGuide": "QUEST_GUIDE_ITEM_DISABLE",
            "guideHint": {
                "COLBFDGFKDJ": ""
            },
            "failExec": [
                {
                    "type": "QUEST_EXEC_UNLOCK_AVATAR_TEAM"
                },
                {
                    "type": "QUEST_EXEC_ROLLBACK_QUEST",
                    "param": [
                        "1201602"
                    ]
                }
            ],
            "versionBegin": "",
            "versionEnd": ""
        }
    ],
    "talks": [
        {
            "id": 1201602,
            "beginWay": "TALK_BEGIN_MANUAL",
            "beginCond": [
                {
                    "type": "QUEST_COND_STATE_EQUAL",
                    "param": [
                        "1201602",
                        "2"
                    ]
                }
            ],
            "priority": 5,
            "initDialog": 120160204,
            "npcId": [
                12076
            ],
            "performCfg": "QuestDialogue/LQ/Shougun1_12016/Q1201602",
            "heroTalk": "TALK_HERO_MAIN",
            "questId": 12016,
            "assetIndex": 6855959025028967630,
            "prePerformCfg": ""
        },
        {
            "id": 1201606,
            "beginWay": "TALK_BEGIN_MANUAL",
            "beginCond": [
                {
                    "type": "QUEST_COND_STATE_EQUAL",
                    "param": [
                        "1201606",
                        "2"
                    ]
                }
            ],
            "priority": 5,
            "initDialog": 120160610,
            "npcId": [
                3173
            ],
            "performCfg": "QuestDialogue/LQ/Shougun1_12016/Q1201606",
            "heroTalk": "TALK_HERO_MAIN",
            "questId": 12016,
            "assetIndex": 7706678575619219470,
            "prePerformCfg": ""
        },
        {
            "id": 1201608,
            "beginWay": "TALK_BEGIN_MANUAL",
            "beginCond": [
                {
                    "type": "QUEST_COND_STATE_EQUAL",
                    "param": [
                        "1201608",
                        "2"
                    ]
                }
            ],
            "priority": 5,
            "initDialog": 120160803,
            "npcId": [
                3029
            ],
            "performCfg": "QuestDialogue/LQ/Shougun1_12016/Q1201608",
            "heroTalk": "TALK_HERO_MAIN",
            "questId": 12016,
            "assetIndex": 1500957493491225755,
            "prePerformCfg": ""
        },
        {
            "id": 1201610,
            "beginWay": "TALK_BEGIN_MANUAL",
            "beginCond": [
                {
                    "type": "QUEST_COND_STATE_EQUAL",
                    "param": [
                        "1201610",
                        "2"
                    ]
                }
            ],
            "priority": 5,
            "initDialog": 120161001,
            "npcId": [
                12076
            ],
            "performCfg": "QuestDialogue/LQ/Shougun1_12016/Q1201610",
            "heroTalk": "TALK_HERO_MAIN",
            "questId": 12016,
            "assetIndex": 14518981421564172276,
            "prePerformCfg": ""
        },
        {
            "id": 1201611,
            "beginWay": "TALK_BEGIN_MANUAL",
            "beginCond": [
                {
                    "type": "QUEST_COND_STATE_EQUAL",
                    "param": [
                        "1201611",
                        "2"
                    ]
                }
            ],
            "priority": 5,
            "initDialog": 120161102,
            "npcId": [
                12082
            ],
            "performCfg": "QuestDialogue/LQ/Shougun1_12016/Q1201611",
            "heroTalk": "TALK_HERO_MAIN",
            "questId": 12016,
            "assetIndex": 2536551335397929703,
            "prePerformCfg": ""
        },
        {
            "id": 1201612,
            "beginWay": "TALK_BEGIN_MANUAL",
            "beginCond": [
                {
                    "type": "QUEST_COND_STATE_EQUAL",
                    "param": [
                        "1201612",
                        "2"
                    ]
                }
            ],
            "priority": 5,
            "initDialog": 120161201,
            "npcId": [
                12083
            ],
            "performCfg": "QuestDialogue/LQ/Shougun1_12016/Q1201612",
            "heroTalk": "TALK_HERO_MAIN",
            "questId": 12016,
            "assetIndex": 17362098393249461176,
            "prePerformCfg": ""
        },
        {
            "id": 1201613,
            "beginWay": "TALK_BEGIN_MANUAL",
            "beginCond": [
                {
                    "type": "QUEST_COND_STATE_EQUAL",
                    "param": [
                        "1201613",
                        "2"
                    ]
                }
            ],
            "priority": 5,
            "initDialog": 120161301,
            "npcId": [
                12084
            ],
            "performCfg": "QuestDialogue/LQ/Shougun1_12016/Q1201613",
            "heroTalk": "TALK_HERO_MAIN",
            "questId": 12016,
            "assetIndex": 12273252752743315120,
            "prePerformCfg": ""
        },
        {
            "id": 1201614,
            "beginWay": "TALK_BEGIN_MANUAL",
            "beginCond": [
                {
                    "type": "QUEST_COND_STATE_EQUAL",
                    "param": [
                        "1201614",
                        "2"
                    ]
                }
            ],
            "priority": 5,
            "initDialog": 120161402,
            "npcId": [
                12076
            ],
            "performCfg": "QuestDialogue/LQ/Shougun1_12016/Q1201614",
            "heroTalk": "TALK_HERO_MAIN",
            "questId": 12016,
            "assetIndex": 15649383411829044559,
            "prePerformCfg": ""
        },
        {
            "id": 1201651,
            "beginWay": "TALK_BEGIN_MANUAL",
            "beginCondComb": "LOGIC_OR",
            "beginCond": [
                {
                    "type": "QUEST_COND_STATE_EQUAL",
                    "param": [
                        "1201601",
                        "2"
                    ]
                },
                {
                    "type": "QUEST_COND_STATE_EQUAL",
                    "param": [
                        "1201602",
                        "2"
                    ]
                }
            ],
            "priority": 5,
            "initDialog": 120165101,
            "npcId": [
                3064
            ],
            "performCfg": "QuestDialogue/LQ/Shougun1_12016/Q1201651",
            "heroTalk": "TALK_HERO_MAIN",
            "questId": 12016,
            "assetIndex": 7572751368968310642,
            "prePerformCfg": ""
        },
        {
            "id": 1201652,
            "beginWay": "TALK_BEGIN_MANUAL",
            "beginCondComb": "LOGIC_OR",
            "beginCond": [
                {
                    "type": "QUEST_COND_STATE_EQUAL",
                    "param": [
                        "1201603",
                        "2"
                    ]
                },
                {
                    "type": "QUEST_COND_STATE_EQUAL",
                    "param": [
                        "1201604",
                        "2"
                    ]
                },
                {
                    "type": "QUEST_COND_STATE_EQUAL",
                    "param": [
                        "1201605",
                        "2"
                    ]
                },
                {
                    "type": "QUEST_COND_STATE_EQUAL",
                    "param": [
                        "1201606",
                        "2"
                    ]
                },
                {
                    "type": "QUEST_COND_STATE_EQUAL",
                    "param": [
                        "1201607",
                        "2"
                    ]
                },
                {
                    "type": "QUEST_COND_STATE_EQUAL",
                    "param": [
                        "1201608",
                        "2"
                    ]
                }
            ],
            "priority": 5,
            "initDialog": 120165201,
            "npcId": [
                3006
            ],
            "performCfg": "QuestDialogue/LQ/Shougun1_12016/Q1201652",
            "heroTalk": "TALK_HERO_MAIN",
            "questId": 12016,
            "assetIndex": 13394321333781667523,
            "prePerformCfg": ""
        },
        {
            "id": 1201653,
            "beginWay": "TALK_BEGIN_MANUAL",
            "beginCondComb": "LOGIC_OR",
            "beginCond": [
                {
                    "type": "QUEST_COND_STATE_EQUAL",
                    "param": [
                        "1201603",
                        "2"
                    ]
                },
                {
                    "type": "QUEST_COND_STATE_EQUAL",
                    "param": [
                        "1201604",
                        "2"
                    ]
                },
                {
                    "type": "QUEST_COND_STATE_EQUAL",
                    "param": [
                        "1201605",
                        "2"
                    ]
                },
                {
                    "type": "QUEST_COND_STATE_EQUAL",
                    "param": [
                        "1201606",
                        "2"
                    ]
                },
                {
                    "type": "QUEST_COND_STATE_EQUAL",
                    "param": [
                        "1201607",
                        "2"
                    ]
                },
                {
                    "type": "QUEST_COND_STATE_EQUAL",
                    "param": [
                        "1201608",
                        "2"
                    ]
                }
            ],
            "priority": 5,
            "initDialog": 120165301,
            "npcId": [
                3024
            ],
            "performCfg": "QuestDialogue/LQ/Shougun1_12016/Q1201653",
            "heroTalk": "TALK_HERO_MAIN",
            "questId": 12016,
            "assetIndex": 10609015161488281572,
            "prePerformCfg": ""
        },
        {
            "id": 1201654,
            "beginWay": "TALK_BEGIN_MANUAL",
            "beginCondComb": "LOGIC_OR",
            "beginCond": [
                {
                    "type": "QUEST_COND_STATE_EQUAL",
                    "param": [
                        "1201603",
                        "2"
                    ]
                },
                {
                    "type": "QUEST_COND_STATE_EQUAL",
                    "param": [
                        "1201604",
                        "2"
                    ]
                },
                {
                    "type": "QUEST_COND_STATE_EQUAL",
                    "param": [
                        "1201605",
                        "2"
                    ]
                },
                {
                    "type": "QUEST_COND_STATE_EQUAL",
                    "param": [
                        "1201606",
                        "2"
                    ]
                },
                {
                    "type": "QUEST_COND_STATE_EQUAL",
                    "param": [
                        "1201607",
                        "2"
                    ]
                },
                {
                    "type": "QUEST_COND_STATE_EQUAL",
                    "param": [
                        "1201608",
                        "2"
                    ]
                }
            ],
            "priority": 5,
            "initDialog": 120165401,
            "npcId": [
                3003
            ],
            "performCfg": "QuestDialogue/LQ/Shougun1_12016/Q1201654",
            "heroTalk": "TALK_HERO_MAIN",
            "questId": 12016,
            "assetIndex": 12724696732133274950,
            "prePerformCfg": ""
        },
        {
            "id": 1201655,
            "beginWay": "TALK_BEGIN_MANUAL",
            "beginCondComb": "LOGIC_OR",
            "beginCond": [
                {
                    "type": "QUEST_COND_STATE_EQUAL",
                    "param": [
                        "1201603",
                        "2"
                    ]
                },
                {
                    "type": "QUEST_COND_STATE_EQUAL",
                    "param": [
                        "1201604",
                        "2"
                    ]
                },
                {
                    "type": "QUEST_COND_STATE_EQUAL",
                    "param": [
                        "1201605",
                        "2"
                    ]
                },
                {
                    "type": "QUEST_COND_STATE_EQUAL",
                    "param": [
                        "1201606",
                        "2"
                    ]
                },
                {
                    "type": "QUEST_COND_STATE_EQUAL",
                    "param": [
                        "1201607",
                        "2"
                    ]
                },
                {
                    "type": "QUEST_COND_STATE_EQUAL",
                    "param": [
                        "1201608",
                        "2"
                    ]
                }
            ],
            "priority": 5,
            "initDialog": 120165501,
            "npcId": [
                3038
            ],
            "performCfg": "QuestDialogue/LQ/Shougun1_12016/Q1201655",
            "heroTalk": "TALK_HERO_MAIN",
            "questId": 12016,
            "assetIndex": 7951128341093083210,
            "prePerformCfg": ""
        },
        {
            "id": 1201656,
            "beginWay": "TALK_BEGIN_MANUAL",
            "beginCondComb": "LOGIC_OR",
            "beginCond": [
                {
                    "type": "QUEST_COND_STATE_EQUAL",
                    "param": [
                        "1201603",
                        "2"
                    ]
                },
                {
                    "type": "QUEST_COND_STATE_EQUAL",
                    "param": [
                        "1201604",
                        "2"
                    ]
                },
                {
                    "type": "QUEST_COND_STATE_EQUAL",
                    "param": [
                        "1201605",
                        "2"
                    ]
                },
                {
                    "type": "QUEST_COND_STATE_EQUAL",
                    "param": [
                        "1201606",
                        "2"
                    ]
                },
                {
                    "type": "QUEST_COND_STATE_EQUAL",
                    "param": [
                        "1201607",
                        "2"
                    ]
                },
                {
                    "type": "QUEST_COND_STATE_EQUAL",
                    "param": [
                        "1201608",
                        "2"
                    ]
                }
            ],
            "priority": 5,
            "initDialog": 120165601,
            "npcId": [
                3005
            ],
            "performCfg": "QuestDialogue/LQ/Shougun1_12016/Q1201656",
            "heroTalk": "TALK_HERO_MAIN",
            "questId": 12016,
            "assetIndex": 14365854767084219691,
            "prePerformCfg": ""
        },
        {
            "id": 1201657,
            "beginWay": "TALK_BEGIN_MANUAL",
            "beginCondComb": "LOGIC_OR",
            "beginCond": [
                {
                    "type": "QUEST_COND_STATE_EQUAL",
                    "param": [
                        "1201603",
                        "2"
                    ]
                },
                {
                    "type": "QUEST_COND_STATE_EQUAL",
                    "param": [
                        "1201604",
                        "2"
                    ]
                },
                {
                    "type": "QUEST_COND_STATE_EQUAL",
                    "param": [
                        "1201605",
                        "2"
                    ]
                },
                {
                    "type": "QUEST_COND_STATE_EQUAL",
                    "param": [
                        "1201606",
                        "2"
                    ]
                },
                {
                    "type": "QUEST_COND_STATE_EQUAL",
                    "param": [
                        "1201607",
                        "2"
                    ]
                },
                {
                    "type": "QUEST_COND_STATE_EQUAL",
                    "param": [
                        "1201608",
                        "2"
                    ]
                }
            ],
            "priority": 5,
            "initDialog": 120165701,
            "npcId": [
                3018
            ],
            "performCfg": "QuestDialogue/LQ/Shougun1_12016/Q1201657",
            "heroTalk": "TALK_HERO_MAIN",
            "questId": 12016,
            "assetIndex": 4794888612465532178,
            "prePerformCfg": ""
        },
        {
            "id": 1201658,
            "beginWay": "TALK_BEGIN_MANUAL",
            "beginCondComb": "LOGIC_OR",
            "beginCond": [
                {
                    "type": "QUEST_COND_STATE_EQUAL",
                    "param": [
                        "1201603",
                        "2"
                    ]
                },
                {
                    "type": "QUEST_COND_STATE_EQUAL",
                    "param": [
                        "1201604",
                        "2"
                    ]
                },
                {
                    "type": "QUEST_COND_STATE_EQUAL",
                    "param": [
                        "1201605",
                        "2"
                    ]
                }
            ],
            "priority": 5,
            "initDialog": 120165801,
            "npcId": [
                3173
            ],
            "performCfg": "QuestDialogue/LQ/Shougun1_12016/Q1201658",
            "heroTalk": "TALK_HERO_MAIN",
            "questId": 12016,
            "assetIndex": 10161001659838723014,
            "prePerformCfg": ""
        },
        {
            "id": 1201659,
            "beginWay": "TALK_BEGIN_MANUAL",
            "beginCondComb": "LOGIC_OR",
            "beginCond": [
                {
                    "type": "QUEST_COND_STATE_EQUAL",
                    "param": [
                        "1201609",
                        "2"
                    ]
                },
                {
                    "type": "QUEST_COND_STATE_EQUAL",
                    "param": [
                        "1201610",
                        "2"
                    ]
                },
                {
                    "type": "QUEST_COND_STATE_EQUAL",
                    "param": [
                        "1201611",
                        "2"
                    ]
                },
                {
                    "type": "QUEST_COND_STATE_EQUAL",
                    "param": [
                        "1201612",
                        "2"
                    ]
                },
                {
                    "type": "QUEST_COND_STATE_EQUAL",
                    "param": [
                        "1201613",
                        "2"
                    ]
                },
                {
                    "type": "QUEST_COND_STATE_EQUAL",
                    "param": [
                        "1201614",
                        "2"
                    ]
                }
            ],
            "priority": 5,
            "initDialog": 120165901,
            "npcId": [
                3029
            ],
            "performCfg": "QuestDialogue/LQ/Shougun1_12016/Q1201659",
            "heroTalk": "TALK_HERO_MAIN",
            "questId": 12016,
            "assetIndex": 18251005157950215501,
            "prePerformCfg": ""
        },
        {
            "id": 1201660,
            "beginWay": "TALK_BEGIN_MANUAL",
            "beginCondComb": "LOGIC_OR",
            "beginCond": [
                {
                    "type": "QUEST_COND_STATE_EQUAL",
                    "param": [
                        "1201611",
                        "2"
                    ]
                },
                {
                    "type": "QUEST_COND_STATE_EQUAL",
                    "param": [
                        "1201612",
                        "2"
                    ]
                },
                {
                    "type": "QUEST_COND_STATE_EQUAL",
                    "param": [
                        "1201613",
                        "2"
                    ]
                }
            ],
            "priority": 5,
            "initDialog": 120166001,
            "npcId": [
                12076
            ],
            "performCfg": "QuestDialogue/LQ/Shougun1_12016/Q1201660",
            "heroTalk": "TALK_HERO_MAIN",
            "questId": 12016,
            "assetIndex": 8912653977978732066,
            "prePerformCfg": ""
        },
        {
            "id": 1201661,
            "beginWay": "TALK_BEGIN_MANUAL",
            "activeMode": "PLAY_MODE_ALL",
            "beginCondComb": "LOGIC_OR",
            "beginCond": [
                {
                    "type": "QUEST_COND_STATE_EQUAL",
                    "param": [
                        "1201607",
                        "2"
                    ]
                },
                {
                    "type": "QUEST_COND_STATE_EQUAL",
                    "param": [
                        "1201608",
                        "2"
                    ]
                }
            ],
            "priority": 5,
            "initDialog": 120166101,
            "npcId": [
                3173
            ],
            "performCfg": "QuestDialogue/LQ/Shougun1_12016/Q1201661",
            "questId": 12016,
            "assetIndex": 6740209931177473000,
            "prePerformCfg": ""
        }
    ],
    "preloadLuaList": [
        2953507167998519552,
        5889572214836479472,
        9106979823183747830,
        11241911151540297158,
        5745563538103880907,
        11751738447145382107,
        7271176769493598921,
        8701018973758131701
    ],
    "GDLCBECFGJO": [
        16767390895704834072
    ],
    "freeStyleDic": {
        "3006": [
            1190
        ],
        "3024": [
            1130
        ],
        "3003": [
            1190
        ],
        "3038": [
            1050
        ],
        "3005": [
            1130
        ],
        "3018": [
            1190
        ]
    }
}