{
    "id": 12025,
    "resId": 2024,
    "series": 2026,
    "type": "LQ",
    "titleTextMapHash": 4022805903,
    "descTextMapHash": 3801586214,
    "luaPath": "Actor/Quest/LQ12025",
    "suggestTrackMainQuestList": [
        12026
    ],
    "rewardIdList": [
        112025
    ],
    "chapterId": 2026,
    "showRedPoint": true,
    "subQuests": [
        {
            "subId": 1202501,
            "mainId": 12025,
            "order": 5,
            "descTextMapHash": 1924529044,
            "finishCond": [
                {
                    "type": "QUEST_CONTENT_FINISH_PLOT",
                    "param": [
                        1202501,
                        0
                    ]
                },
                {
                    "type": "QUEST_CONTENT_QUEST_STATE_EQUAL",
                    "param": [
                        1202523,
                        3
                    ]
                }
            ],
            "guide": {
                "type": "QUEST_GUIDE_LOCATION",
                "param": [
                    "Q1202501_questpoint",
                    "40"
                ],
                "guideScene": 3,
                "guideStyle": "QUEST_GUIDE_STYLE_TARGET",
                "guideLayer": "QUEST_GUIDE_LAYER_SCENE"
            },
            "guideHint": {
                "COLBFDGFKDJ": ""
            },
            "isRewind": true,
            "finishExec": [
                {
                    "type": "QUEST_EXEC_UNREGISTER_DYNAMIC_GROUP",
                    "param": [
                        "133212584"
                    ]
                },
                {
                    "type": "QUEST_EXEC_REGISTER_DYNAMIC_GROUP",
                    "param": [
                        "3",
                        "133212580"
                    ]
                }
            ],
            "versionBegin": "",
            "versionEnd": ""
        },
        {
            "subId": 1202502,
            "mainId": 12025,
            "order": 7,
            "descTextMapHash": 2022945436,
            "finishCond": [
                {
                    "type": "QUEST_CONTENT_COMPLETE_TALK",
                    "param": [
                        1202501,
                        0
                    ]
                }
            ],
            "guide": {
                "type": "QUEST_GUIDE_LOCATION",
                "param": [
                    "Q1202504_questpoint",
                    "25"
                ],
                "guideScene": 3,
                "guideStyle": "QUEST_GUIDE_STYLE_POINT",
                "guideLayer": "QUEST_GUIDE_LAYER_SCENE"
            },
            "guideHint": {
                "COLBFDGFKDJ": ""
            },
            "isRewind": true,
            "versionBegin": "",
            "versionEnd": ""
        },
        {
            "subId": 1202503,
            "mainId": 12025,
            "order": 8,
            "isMpBlock": true,
            "descTextMapHash": 3955649228,
            "banType": "BAN_GROUP_TRANSPORT_ONLY",
            "finishCond": [
                {
                    "type": "QUEST_CONTENT_FINISH_PLOT",
                    "param": [
                        1202503,
                        0
                    ]
                }
            ],
            "failCond": [
                {
                    "type": "QUEST_CONTENT_NOT_FINISH_PLOT",
                    "param": [
                        1202503,
                        0
                    ]
                },
                {
                    "type": "QUEST_CONTENT_TEAM_DEAD",
                    "param": [
                        0,
                        0
                    ]
                },
                {
                    "type": "QUEST_CONTENT_LEAVE_SCENE_RANGE",
                    "param": [
                        3,
                        30
                    ]
                }
            ],
            "guide": {
                "type": "QUEST_GUIDE_LOCATION",
                "param": [
                    "Q1202504_Itto",
                    "30"
                ],
                "guideScene": 3,
                "guideStyle": "QUEST_GUIDE_STYLE_TARGET",
                "guideLayer": "QUEST_GUIDE_LAYER_SCENE"
            },
            "guideHint": {
                "COLBFDGFKDJ": ""
            },
            "finishExec": [
                {
                    "type": "QUEST_EXEC_UNLOCK_AVATAR_TEAM"
                }
            ],
            "failExec": [
                {
                    "type": "QUEST_EXEC_ROLLBACK_QUEST",
                    "param": [
                        "1202502"
                    ]
                },
                {
                    "type": "QUEST_EXEC_UNLOCK_AVATAR_TEAM"
                }
            ],
            "versionBegin": "",
            "versionEnd": ""
        },
        {
            "subId": 1202504,
            "mainId": 12025,
            "order": 9,
            "descTextMapHash": 2928891924,
            "finishCond": [
                {
                    "type": "QUEST_CONTENT_COMPLETE_TALK",
                    "param": [
                        1202502,
                        0
                    ]
                }
            ],
            "guide": {
                "type": "QUEST_GUIDE_NPC",
                "param": [
                    "1044"
                ],
                "guideScene": 3,
                "guideStyle": "QUEST_GUIDE_STYLE_TARGET",
                "guideLayer": "QUEST_GUIDE_LAYER_SCENE"
            },
            "guideHint": {
                "COLBFDGFKDJ": ""
            },
            "isRewind": true,
            "finishExec": [
                {
                    "type": "QUEST_EXEC_DEL_PACK_ITEM",
                    "param": [
                        "100993",
                        "1"
                    ]
                },
                {
                    "type": "QUEST_EXEC_SET_QUEST_VAR",
                    "param": [
                        "1",
                        "1"
                    ]
                }
            ],
            "versionBegin": "",
            "versionEnd": ""
        },
        {
            "subId": 1202505,
            "mainId": 12025,
            "order": 10,
            "descTextMapHash": 232444428,
            "stepDescTextMapHash": 1883485717,
            "finishCond": [
                {
                    "type": "QUEST_CONTENT_FINISH_PLOT",
                    "param": [
                        1202505,
                        0
                    ]
                }
            ],
            "guide": {
                "type": "QUEST_GUIDE_LOCATION",
                "param": [
                    "Q1202505_Itto",
                    "0"
                ],
                "guideScene": 3,
                "guideStyle": "QUEST_GUIDE_STYLE_POINT",
                "guideLayer": "QUEST_GUIDE_LAYER_SCENE"
            },
            "guideHint": {
                "COLBFDGFKDJ": ""
            },
            "isRewind": true,
            "finishExec": [
                {
                    "type": "QUEST_EXEC_UNREGISTER_DYNAMIC_GROUP",
                    "param": [
                        "133212580"
                    ]
                }
            ],
            "versionBegin": "",
            "versionEnd": ""
        },
        {
            "subId": 1202506,
            "mainId": 12025,
            "order": 11,
            "descTextMapHash": 3982031868,
            "finishCond": [
                {
                    "type": "QUEST_CONTENT_COMPLETE_TALK",
                    "param": [
                        1202503,
                        0
                    ]
                },
                {
                    "type": "QUEST_CONTENT_COMPLETE_TALK",
                    "param": [
                        1202521,
                        0
                    ]
                }
            ],
            "guide": {
                "type": "QUEST_GUIDE_NPC",
                "param": [
                    "1044"
                ],
                "guideScene": 3,
                "guideStyle": "QUEST_GUIDE_STYLE_TARGET",
                "guideLayer": "QUEST_GUIDE_LAYER_SCENE"
            },
            "guideHint": {
                "COLBFDGFKDJ": ""
            },
            "versionBegin": "",
            "versionEnd": ""
        },
        {
            "subId": 1202507,
            "mainId": 12025,
            "order": 12,
            "descTextMapHash": 2683870324,
            "finishCond": [
                {
                    "type": "QUEST_CONTENT_FINISH_PLOT",
                    "param": [
                        1202507,
                        0
                    ]
                }
            ],
            "failCond": [
                {
                    "type": "QUEST_CONTENT_NOT_FINISH_PLOT",
                    "param": [
                        1202507,
                        0
                    ]
                }
            ],
            "guide": {
                "type": "QUEST_GUIDE_LOCATION",
                "param": [
                    "Q1202507_LookPoint01",
                    "0"
                ],
                "guideScene": 3,
                "guideStyle": "QUEST_GUIDE_STYLE_POINT",
                "guideLayer": "QUEST_GUIDE_LAYER_SCENE"
            },
            "guideHint": {
                "COLBFDGFKDJ": ""
            },
            "finishExec": [
                {
                    "type": "QUEST_EXEC_REFRESH_GROUP_SUITE",
                    "param": [
                        "3",
                        "133212583,2"
                    ]
                }
            ],
            "failExec": [
                {
                    "type": "QUEST_EXEC_SET_QUEST_VAR",
                    "param": [
                        "1",
                        "2"
                    ]
                },
                {
                    "type": "QUEST_EXEC_ROLLBACK_QUEST",
                    "param": [
                        "1202505"
                    ]
                }
            ],
            "versionBegin": "",
            "versionEnd": ""
        },
        {
            "subId": 1202508,
            "mainId": 12025,
            "order": 15,
            "descTextMapHash": 2935595940,
            "finishCond": [
                {
                    "type": "QUEST_CONTENT_FINISH_PLOT",
                    "param": [
                        1202508,
                        0
                    ]
                }
            ],
            "guide": {
                "type": "QUEST_GUIDE_LOCATION",
                "param": [
                    "Q1202508_LookPoint02",
                    "30"
                ],
                "guideScene": 3,
                "guideStyle": "QUEST_GUIDE_STYLE_TARGET",
                "guideLayer": "QUEST_GUIDE_LAYER_SCENE"
            },
            "guideHint": {
                "COLBFDGFKDJ": ""
            },
            "versionBegin": "",
            "versionEnd": ""
        },
        {
            "subId": 1202509,
            "mainId": 12025,
            "order": 17,
            "descTextMapHash": 1345174956,
            "finishCond": [
                {
                    "type": "QUEST_CONTENT_FINISH_PLOT",
                    "param": [
                        1202509,
                        0
                    ]
                }
            ],
            "guide": {
                "type": "QUEST_GUIDE_LOCATION",
                "param": [
                    "Q1202509_LookPoint03",
                    "30"
                ],
                "guideScene": 3,
                "guideStyle": "QUEST_GUIDE_STYLE_TARGET",
                "guideLayer": "QUEST_GUIDE_LAYER_SCENE"
            },
            "guideHint": {
                "COLBFDGFKDJ": ""
            },
            "isRewind": true,
            "versionBegin": "",
            "versionEnd": ""
        },
        {
            "subId": 1202510,
            "mainId": 12025,
            "order": 18,
            "descTextMapHash": 1304067156,
            "finishCond": [
                {
                    "type": "QUEST_CONTENT_COMPLETE_TALK",
                    "param": [
                        1202504,
                        0
                    ]
                }
            ],
            "guide": {
                "type": "QUEST_GUIDE_NPC",
                "param": [
                    "1044"
                ],
                "guideScene": 3,
                "guideStyle": "QUEST_GUIDE_STYLE_TARGET",
                "guideLayer": "QUEST_GUIDE_LAYER_SCENE"
            },
            "guideHint": {
                "COLBFDGFKDJ": ""
            },
            "finishExec": [
                {
                    "type": "QUEST_EXEC_UNREGISTER_DYNAMIC_GROUP",
                    "param": [
                        "133212602"
                    ]
                }
            ],
            "versionBegin": "",
            "versionEnd": ""
        },
        {
            "subId": 1202512,
            "mainId": 12025,
            "order": 19,
            "descTextMapHash": 3302272844,
            "finishCond": [
                {
                    "type": "QUEST_CONTENT_COMPLETE_TALK",
                    "param": [
                        1202505,
                        0
                    ]
                }
            ],
            "guide": {
                "type": "QUEST_GUIDE_NPC",
                "param": [
                    "12202"
                ],
                "guideScene": 3,
                "guideStyle": "QUEST_GUIDE_STYLE_TARGET",
                "guideLayer": "QUEST_GUIDE_LAYER_SCENE"
            },
            "guideHint": {
                "COLBFDGFKDJ": ""
            },
            "isRewind": true,
            "finishExec": [
                {
                    "type": "QUEST_EXEC_UNREGISTER_DYNAMIC_GROUP",
                    "param": [
                        "133212583"
                    ]
                }
            ],
            "versionBegin": "",
            "versionEnd": ""
        },
        {
            "subId": 1202514,
            "mainId": 12025,
            "order": 20,
            "descTextMapHash": 892599588,
            "finishCond": [
                {
                    "type": "QUEST_CONTENT_COMPLETE_TALK",
                    "param": [
                        1202506,
                        0
                    ]
                }
            ],
            "guide": {
                "type": "QUEST_GUIDE_LOCATION",
                "param": [
                    "Q1202513_Itto",
                    "20"
                ],
                "guideScene": 3,
                "guideStyle": "QUEST_GUIDE_STYLE_POINT",
                "guideLayer": "QUEST_GUIDE_LAYER_SCENE"
            },
            "guideHint": {
                "COLBFDGFKDJ": ""
            },
            "finishParent": true,
            "isRewind": true,
            "finishExec": [
                {
                    "type": "QUEST_EXEC_DEL_ALL_SPECIFIC_PACK_ITEM",
                    "param": [
                        "101656"
                    ]
                }
            ],
            "versionBegin": "",
            "versionEnd": ""
        },
        {
            "subId": 1202515,
            "mainId": 12025,
            "order": 14,
            "descTextMapHash": 3198332380,
            "finishCond": [
                {
                    "type": "QUEST_CONTENT_FINISH_PLOT",
                    "param": [
                        1202515,
                        0
                    ]
                }
            ],
            "guide": {
                "type": "QUEST_GUIDE_LOCATION",
                "autoGuide": "QUEST_GUIDE_AUTO_ENABLE",
                "param": [
                    "Q1202508_LookPoint02",
                    "36"
                ],
                "guideScene": 3,
                "guideStyle": "QUEST_GUIDE_STYLE_POINT",
                "guideLayer": "QUEST_GUIDE_LAYER_SCENE"
            },
            "guideHint": {
                "COLBFDGFKDJ": ""
            },
            "versionBegin": "",
            "versionEnd": ""
        },
        {
            "subId": 1202516,
            "mainId": 12025,
            "order": 3,
            "descTextMapHash": 1306457268,
            "finishCond": [
                {
                    "type": "QUEST_CONTENT_FINISH_PLOT",
                    "param": [
                        1202516,
                        0
                    ]
                },
                {
                    "type": "QUEST_CONTENT_QUEST_STATE_EQUAL",
                    "param": [
                        1202523,
                        3
                    ]
                }
            ],
            "guide": {
                "type": "QUEST_GUIDE_LOCATION",
                "param": [
                    "Q1202516_camp",
                    "30"
                ],
                "guideScene": 3,
                "guideStyle": "QUEST_GUIDE_STYLE_TARGET",
                "guideLayer": "QUEST_GUIDE_LAYER_SCENE"
            },
            "guideHint": {
                "COLBFDGFKDJ": ""
            },
            "isRewind": true,
            "versionBegin": "",
            "versionEnd": ""
        },
        {
            "subId": 1202517,
            "mainId": 12025,
            "order": 1,
            "descTextMapHash": 3751406836,
            "finishCond": [
                {
                    "type": "QUEST_CONTENT_FINISH_PLOT",
                    "param": [
                        1202517,
                        0
                    ]
                },
                {
                    "type": "QUEST_CONTENT_QUEST_STATE_EQUAL",
                    "param": [
                        1202523,
                        3
                    ]
                }
            ],
            "guide": {
                "type": "QUEST_GUIDE_LOCATION",
                "param": [
                    "Q1202516_questpoint",
                    "50"
                ],
                "guideScene": 3,
                "guideStyle": "QUEST_GUIDE_STYLE_TARGET",
                "guideLayer": "QUEST_GUIDE_LAYER_SCENE"
            },
            "guideHint": {
                "COLBFDGFKDJ": ""
            },
            "isRewind": true,
            "versionBegin": "",
            "versionEnd": ""
        },
        {
            "subId": 1202518,
            "mainId": 12025,
            "order": 13,
            "descTextMapHash": 870763076,
            "finishCond": [
                {
                    "type": "QUEST_CONTENT_FINISH_PLOT",
                    "param": [
                        1202518,
                        0
                    ]
                }
            ],
            "guide": {
                "type": "QUEST_GUIDE_LOCATION",
                "param": [
                    "Q1202507_LookPoint01",
                    "0"
                ],
                "guideScene": 3,
                "guideStyle": "QUEST_GUIDE_STYLE_POINT",
                "guideLayer": "QUEST_GUIDE_LAYER_SCENE"
            },
            "guideHint": {
                "COLBFDGFKDJ": ""
            },
            "isRewind": true,
            "versionBegin": "",
            "versionEnd": ""
        },
        {
            "subId": 1202519,
            "mainId": 12025,
            "order": 2,
            "descTextMapHash": 899999444,
            "finishCond": [
                {
                    "type": "QUEST_CONTENT_FINISH_PLOT",
                    "param": [
                        1202519,
                        0
                    ]
                },
                {
                    "type": "QUEST_CONTENT_QUEST_STATE_EQUAL",
                    "param": [
                        1202523,
                        3
                    ]
                }
            ],
            "failCond": [
                {
                    "type": "QUEST_CONTENT_NOT_FINISH_PLOT",
                    "param": [
                        1202519,
                        0
                    ]
                }
            ],
            "guide": {
                "type": "QUEST_GUIDE_LOCATION",
                "param": [
                    "Q1202516_questpoint",
                    "50"
                ],
                "guideScene": 3,
                "guideStyle": "QUEST_GUIDE_STYLE_TARGET",
                "guideLayer": "QUEST_GUIDE_LAYER_SCENE"
            },
            "guideHint": {
                "COLBFDGFKDJ": ""
            },
            "failExec": [
                {
                    "type": "QUEST_EXEC_ROLLBACK_QUEST",
                    "param": [
                        "1202517"
                    ]
                }
            ],
            "versionBegin": "",
            "versionEnd": ""
        },
        {
            "subId": 1202520,
            "mainId": 12025,
            "order": 4,
            "descTextMapHash": 982509180,
            "finishCond": [
                {
                    "type": "QUEST_CONTENT_FINISH_PLOT",
                    "param": [
                        1202520,
                        0
                    ]
                },
                {
                    "type": "QUEST_CONTENT_QUEST_STATE_EQUAL",
                    "param": [
                        1202523,
                        3
                    ]
                }
            ],
            "guide": {
                "type": "QUEST_GUIDE_LOCATION",
                "param": [
                    "Q1202620_questpoint",
                    "30"
                ],
                "guideScene": 3,
                "guideStyle": "QUEST_GUIDE_STYLE_TARGET",
                "guideLayer": "QUEST_GUIDE_LAYER_SCENE"
            },
            "guideHint": {
                "COLBFDGFKDJ": ""
            },
            "isRewind": true,
            "finishExec": [
                {
                    "type": "QUEST_EXEC_UNREGISTER_DYNAMIC_GROUP",
                    "param": [
                        "133212582"
                    ]
                },
                {
                    "type": "QUEST_EXEC_REGISTER_DYNAMIC_GROUP_ONLY",
                    "param": [
                        "133212580"
                    ]
                }
            ],
            "versionBegin": "",
            "versionEnd": ""
        },
        {
            "subId": 1202521,
            "mainId": 12025,
            "order": 95,
            "descTextMapHash": 2896054068,
            "finishCond": [
                {
                    "type": "QUEST_CONTENT_FINISH_PLOT",
                    "param": [
                        1202521,
                        0
                    ]
                }
            ],
            "guide": {
                "type": "QUEST_GUIDE_LOCATION",
                "param": [
                    "Q1202503_player",
                    "0"
                ],
                "guideScene": 3,
                "guideStyle": "QUEST_GUIDE_STYLE_POINT",
                "guideLayer": "QUEST_GUIDE_LAYER_SCENE"
            },
            "guideHint": {
                "COLBFDGFKDJ": ""
            },
            "versionBegin": "",
            "versionEnd": ""
        },
        {
            "subId": 1202522,
            "mainId": 12025,
            "order": 16,
            "descTextMapHash": 743251420,
            "finishCond": [
                {
                    "type": "QUEST_CONTENT_FINISH_PLOT",
                    "param": [
                        1202522,
                        0
                    ]
                }
            ],
            "guide": {
                "type": "QUEST_GUIDE_LOCATION",
                "param": [
                    "Q1202509_LookPoint03",
                    "40"
                ],
                "guideScene": 3,
                "guideStyle": "QUEST_GUIDE_STYLE_TARGET",
                "guideLayer": "QUEST_GUIDE_LAYER_SCENE"
            },
            "guideHint": {
                "COLBFDGFKDJ": ""
            },
            "isRewind": true,
            "versionBegin": "",
            "versionEnd": ""
        },
        {
            "subId": 1202523,
            "mainId": 12025,
            "order": 6,
            "descTextMapHash": 2254094620,
            "showType": "QUEST_HIDDEN",
            "finishCond": [
                {
                    "type": "QUEST_CONTENT_FINISH_PLOT",
                    "param": [
                        1202523,
                        0
                    ]
                },
                {
                    "type": "QUEST_CONTENT_QUEST_STATE_EQUAL",
                    "param": [
                        1202501,
                        3
                    ]
                }
            ],
            "guide": {},
            "guideHint": {
                "COLBFDGFKDJ": ""
            },
            "versionBegin": "",
            "versionEnd": ""
        }
    ],
    "talks": [
        {
            "id": 1202501,
            "beginWay": "TALK_BEGIN_AUTO",
            "beginCond": [
                {
                    "type": "QUEST_COND_STATE_EQUAL",
                    "param": [
                        "1202502",
                        "2"
                    ]
                }
            ],
            "priority": 5,
            "initDialog": 120250101,
            "npcId": [
                1005
            ],
            "performCfg": "QuestDialogue/LQ/Itto1_12025/Q1202501",
            "heroTalk": "TALK_HERO_MAIN",
            "questId": 12025,
            "assetIndex": 14335188235713205152,
            "prePerformCfg": ""
        },
        {
            "id": 1202502,
            "beginWay": "TALK_BEGIN_AUTO",
            "beginCond": [
                {
                    "type": "QUEST_COND_STATE_EQUAL",
                    "param": [
                        "1202504",
                        "2"
                    ]
                }
            ],
            "priority": 5,
            "initDialog": 120250201,
            "npcId": [
                1044
            ],
            "performCfg": "QuestDialogue/LQ/Itto1_12025/Q1202502",
            "heroTalk": "TALK_HERO_MAIN",
            "questId": 12025,
            "assetIndex": 6668230045522652232,
            "prePerformCfg": ""
        },
        {
            "id": 1202503,
            "beginWay": "TALK_BEGIN_AUTO",
            "beginCondComb": "LOGIC_AND",
            "beginCond": [
                {
                    "type": "QUEST_COND_STATE_EQUAL",
                    "param": [
                        "1202506",
                        "2"
                    ]
                },
                {
                    "type": "QUEST_COND_QUEST_VAR_EQUAL",
                    "param": [
                        "1",
                        "1",
                        "12025"
                    ]
                }
            ],
            "priority": 5,
            "initDialog": 120250301,
            "npcId": [
                1044
            ],
            "performCfg": "QuestDialogue/LQ/Itto1_12025/Q1202503",
            "heroTalk": "TALK_HERO_MAIN",
            "questId": 12025,
            "assetIndex": 5780572135285968763,
            "prePerformCfg": ""
        },
        {
            "id": 1202504,
            "beginWay": "TALK_BEGIN_MANUAL",
            "beginCond": [
                {
                    "type": "QUEST_COND_STATE_EQUAL",
                    "param": [
                        "1202510",
                        "2"
                    ]
                }
            ],
            "priority": 5,
            "initDialog": 120250401,
            "npcId": [
                1044,
                1005
            ],
            "performCfg": "QuestDialogue/LQ/Itto1_12025/Q1202504",
            "heroTalk": "TALK_HERO_MAIN",
            "questId": 12025,
            "assetIndex": 1881693548040028877,
            "prePerformCfg": ""
        },
        {
            "id": 1202505,
            "beginWay": "TALK_BEGIN_MANUAL",
            "beginCond": [
                {
                    "type": "QUEST_COND_STATE_EQUAL",
                    "param": [
                        "1202512",
                        "2"
                    ]
                }
            ],
            "priority": 5,
            "initDialog": 120250501,
            "npcId": [
                12202,
                1044,
                1005,
                12201
            ],
            "performCfg": "QuestDialogue/LQ/Itto1_12025/Q1202505",
            "heroTalk": "TALK_HERO_MAIN",
            "questId": 12025,
            "assetIndex": 3842196547328361207,
            "prePerformCfg": ""
        },
        {
            "id": 1202506,
            "beginWay": "TALK_BEGIN_AUTO",
            "beginCond": [
                {
                    "type": "QUEST_COND_STATE_EQUAL",
                    "param": [
                        "1202514",
                        "2"
                    ]
                }
            ],
            "priority": 5,
            "initDialog": 120250601,
            "npcId": [
                1044
            ],
            "performCfg": "QuestDialogue/LQ/Itto1_12025/Q1202506",
            "heroTalk": "TALK_HERO_MAIN",
            "questId": 12025,
            "assetIndex": 16447886460292069543,
            "prePerformCfg": ""
        },
        {
            "id": 1202507,
            "beginWay": "TALK_BEGIN_MANUAL",
            "beginCondComb": "LOGIC_OR",
            "beginCond": [
                {
                    "type": "QUEST_COND_STATE_EQUAL",
                    "param": [
                        "1202516",
                        "2"
                    ]
                },
                {
                    "type": "QUEST_COND_STATE_EQUAL",
                    "param": [
                        "1202517",
                        "2"
                    ]
                },
                {
                    "type": "QUEST_COND_STATE_EQUAL",
                    "param": [
                        "1202519",
                        "2"
                    ]
                }
            ],
            "priority": 5,
            "initDialog": 120250701,
            "npcId": [
                3041
            ],
            "performCfg": "QuestDialogue/LQ/Itto1_12025/Q1202507",
            "heroTalk": "TALK_HERO_MAIN",
            "questId": 12025,
            "assetIndex": 12481940333016725820,
            "prePerformCfg": "",
            "lowPriority": true
        },
        {
            "id": 1202510,
            "beginWay": "TALK_BEGIN_MANUAL",
            "beginCondComb": "LOGIC_OR",
            "beginCond": [
                {
                    "type": "QUEST_COND_STATE_EQUAL",
                    "param": [
                        "1202505",
                        "2"
                    ]
                },
                {
                    "type": "QUEST_COND_STATE_EQUAL",
                    "param": [
                        "1202506",
                        "2"
                    ]
                },
                {
                    "type": "QUEST_COND_STATE_EQUAL",
                    "param": [
                        "1202507",
                        "2"
                    ]
                },
                {
                    "type": "QUEST_COND_STATE_EQUAL",
                    "param": [
                        "1202518",
                        "2"
                    ]
                },
                {
                    "type": "QUEST_COND_STATE_EQUAL",
                    "param": [
                        "1202515",
                        "2"
                    ]
                },
                {
                    "type": "QUEST_COND_STATE_EQUAL",
                    "param": [
                        "1202508",
                        "2"
                    ]
                }
            ],
            "priority": 4,
            "initDialog": 120251001,
            "npcId": [
                12202
            ],
            "performCfg": "QuestDialogue/LQ/Itto1_12025/Q1202510",
            "heroTalk": "TALK_HERO_MAIN",
            "questId": 12025,
            "assetIndex": 1318015303893347662,
            "prePerformCfg": ""
        },
        {
            "id": 1202511,
            "beginWay": "TALK_BEGIN_MANUAL",
            "beginCondComb": "LOGIC_OR",
            "beginCond": [
                {
                    "type": "QUEST_COND_STATE_EQUAL",
                    "param": [
                        "1202505",
                        "2"
                    ]
                },
                {
                    "type": "QUEST_COND_STATE_EQUAL",
                    "param": [
                        "1202506",
                        "2"
                    ]
                },
                {
                    "type": "QUEST_COND_STATE_EQUAL",
                    "param": [
                        "1202507",
                        "2"
                    ]
                },
                {
                    "type": "QUEST_COND_STATE_EQUAL",
                    "param": [
                        "1202518",
                        "2"
                    ]
                },
                {
                    "type": "QUEST_COND_STATE_EQUAL",
                    "param": [
                        "1202515",
                        "2"
                    ]
                },
                {
                    "type": "QUEST_COND_STATE_EQUAL",
                    "param": [
                        "1202508",
                        "2"
                    ]
                }
            ],
            "priority": 4,
            "initDialog": 120251101,
            "npcId": [
                12201
            ],
            "performCfg": "QuestDialogue/LQ/Itto1_12025/Q1202511",
            "heroTalk": "TALK_HERO_MAIN",
            "questId": 12025,
            "assetIndex": 3710300496579927858,
            "prePerformCfg": ""
        },
        {
            "id": 1202512,
            "beginWay": "TALK_BEGIN_MANUAL",
            "beginCondComb": "LOGIC_OR",
            "beginCond": [
                {
                    "type": "QUEST_COND_STATE_EQUAL",
                    "param": [
                        "1202509",
                        "2"
                    ]
                },
                {
                    "type": "QUEST_COND_STATE_EQUAL",
                    "param": [
                        "1202510",
                        "2"
                    ]
                },
                {
                    "type": "QUEST_COND_STATE_EQUAL",
                    "param": [
                        "1202518",
                        "2"
                    ]
                },
                {
                    "type": "QUEST_COND_STATE_EQUAL",
                    "param": [
                        "1202515",
                        "2"
                    ]
                },
                {
                    "type": "QUEST_COND_STATE_EQUAL",
                    "param": [
                        "1202508",
                        "2"
                    ]
                },
                {
                    "type": "QUEST_COND_STATE_EQUAL",
                    "param": [
                        "1202522",
                        "2"
                    ]
                }
            ],
            "priority": 4,
            "initDialog": 120251001,
            "npcId": [
                12202
            ],
            "performCfg": "QuestDialogue/LQ/Itto1_12025/Q1202510",
            "heroTalk": "TALK_HERO_MAIN",
            "questId": 12025,
            "assetIndex": 2710347333405182385,
            "prePerformCfg": ""
        },
        {
            "id": 1202513,
            "beginWay": "TALK_BEGIN_MANUAL",
            "beginCondComb": "LOGIC_OR",
            "beginCond": [
                {
                    "type": "QUEST_COND_STATE_EQUAL",
                    "param": [
                        "1202509",
                        "2"
                    ]
                },
                {
                    "type": "QUEST_COND_STATE_EQUAL",
                    "param": [
                        "1202510",
                        "2"
                    ]
                },
                {
                    "type": "QUEST_COND_STATE_EQUAL",
                    "param": [
                        "1202518",
                        "2"
                    ]
                },
                {
                    "type": "QUEST_COND_STATE_EQUAL",
                    "param": [
                        "1202515",
                        "2"
                    ]
                },
                {
                    "type": "QUEST_COND_STATE_EQUAL",
                    "param": [
                        "1202508",
                        "2"
                    ]
                },
                {
                    "type": "QUEST_COND_STATE_EQUAL",
                    "param": [
                        "1202522",
                        "2"
                    ]
                }
            ],
            "priority": 4,
            "initDialog": 120251101,
            "npcId": [
                12201
            ],
            "performCfg": "QuestDialogue/LQ/Itto1_12025/Q1202511",
            "heroTalk": "TALK_HERO_MAIN",
            "questId": 12025,
            "assetIndex": 17940196121407640113,
            "prePerformCfg": ""
        },
        {
            "id": 1202520,
            "beginWay": "TALK_BEGIN_MANUAL",
            "beginCondComb": "LOGIC_OR",
            "beginCond": [
                {
                    "type": "QUEST_COND_STATE_EQUAL",
                    "param": [
                        "1202514",
                        "2"
                    ]
                },
                {
                    "type": "QUEST_COND_STATE_EQUAL",
                    "param": [
                        "1202601",
                        "2"
                    ]
                },
                {
                    "type": "QUEST_COND_STATE_EQUAL",
                    "param": [
                        "1202602",
                        "2"
                    ]
                }
            ],
            "priority": 4,
            "initDialog": 120252001,
            "npcId": [
                12202,
                12201
            ],
            "performCfg": "QuestDialogue/LQ/Itto1_12025/Q1202520",
            "heroTalk": "TALK_HERO_MAIN",
            "questId": 12025,
            "assetIndex": 4281313252139058550,
            "prePerformCfg": "",
            "questIdleTalk": true
        },
        {
            "id": 1202521,
            "beginWay": "TALK_BEGIN_AUTO",
            "beginCondComb": "LOGIC_AND",
            "beginCond": [
                {
                    "type": "QUEST_COND_STATE_EQUAL",
                    "param": [
                        "1202506",
                        "2"
                    ]
                },
                {
                    "type": "QUEST_COND_QUEST_VAR_EQUAL",
                    "param": [
                        "1",
                        "2",
                        "12025"
                    ]
                }
            ],
            "priority": 5,
            "initDialog": 120250314,
            "npcId": [
                1044
            ],
            "performCfg": "QuestDialogue/LQ/Itto1_12025/Q1202521",
            "heroTalk": "TALK_HERO_MAIN",
            "questId": 12025,
            "assetIndex": 7946240868193232815,
            "prePerformCfg": ""
        }
    ],
    "preloadLuaList": [
        14457059026087496718,
        18016181772372187775,
        11726042998968436200,
        16435885366125136682,
        4093146726035961016,
        8170354882022537508,
        2029371479833714560,
        5702555470236461335,
        7487659770933735115,
        8210992187866829338,
        17916640033169900490,
        17002835166877597938,
        2498899706132035049,
        5927954519330012463,
        7482322970409881724,
        5190548716829285471,
        17735800120640276178,
        15516219717847839825,
        1141546643927513903,
        12595120776680568007,
        2635373728707703866,
        7514997097737649824
    ],
    "GDLCBECFGJO": [
        13358241337892574031
    ],
    "freeStyleDic": {
        "1044": [
            1280
        ],
        "12315": [
            1080
        ]
    }
}