{
    "id": 19003,
    "resId": 3001,
    "series": 101401,
    "type": "LQ",
    "titleTextMapHash": 1874677831,
    "descTextMapHash": 3192500022,
    "luaPath": "Actor/Quest/LQ19003",
    "suggestTrackMainQuestList": [
        19004,
        19006,
        19009
    ],
    "suggestTrackOutOfOrder": true,
    "chapterId": 101401,
    "subQuests": [
        {
            "subId": 1900301,
            "mainId": 19003,
            "order": 1,
            "descTextMapHash": 335170588,
            "finishCond": [
                {
                    "type": "QUEST_CONTENT_FINISH_PLOT",
                    "param": [
                        1900301,
                        0
                    ]
                }
            ],
            "guide": {
                "type": "QUEST_GUIDE_LOCATION",
                "autoGuide": "QUEST_GUIDE_AUTO_ENABLE",
                "param": [
                    "COOP101401Babala03"
                ],
                "guideScene": 3,
                "guideStyle": "QUEST_GUIDE_STYLE_POINT",
                "guideLayer": "QUEST_GUIDE_LAYER_SCENE"
            },
            "guideHint": {
                "COLBFDGFKDJ": ""
            },
            "isRewind": true,
            "versionBegin": "",
            "versionEnd": ""
        },
        {
            "subId": 1900302,
            "mainId": 19003,
            "order": 2,
            "descTextMapHash": 1286028900,
            "showType": "QUEST_HIDDEN",
            "finishCond": [
                {
                    "type": "QUEST_CONTENT_MAIN_COOP_ENTER_SAVE_POINT",
                    "param": [
                        101401,
                        30101
                    ]
                }
            ],
            "guide": {
                "autoGuide": "QUEST_GUIDE_AUTO_ENABLE",
                "guideScene": 3,
                "guideLayer": "QUEST_GUIDE_LAYER_SCENE"
            },
            "showGuide": "QUEST_GUIDE_ITEM_DISABLE",
            "guideHint": {
                "COLBFDGFKDJ": ""
            },
            "versionBegin": "",
            "versionEnd": ""
        },
        {
            "subId": 1900303,
            "mainId": 19003,
            "order": 3,
            "descTextMapHash": 4261079364,
            "finishCond": [
                {
                    "type": "QUEST_CONTENT_COMPLETE_TALK",
                    "param": [
                        1900303,
                        0
                    ]
                }
            ],
            "guide": {
                "type": "QUEST_GUIDE_NPC",
                "autoGuide": "QUEST_GUIDE_AUTO_ENABLE",
                "param": [
                    "147101"
                ],
                "guideScene": 3,
                "guideStyle": "QUEST_GUIDE_STYLE_POINT",
                "guideLayer": "QUEST_GUIDE_LAYER_SCENE"
            },
            "guideHint": {
                "COLBFDGFKDJ": ""
            },
            "isRewind": true,
            "versionBegin": "",
            "versionEnd": ""
        },
        {
            "subId": 1900304,
            "mainId": 19003,
            "order": 4,
            "subIdSet": 1,
            "descTextMapHash": 3996333284,
            "finishCond": [
                {
                    "type": "QUEST_CONTENT_LUA_NOTIFY",
                    "param": [
                        0,
                        0
                    ],
                    "count": 4
                }
            ],
            "guide": {
                "type": "QUEST_GUIDE_LOCATION",
                "autoGuide": "QUEST_GUIDE_AUTO_ENABLE",
                "param": [
                    "COOP101401_Play_Pos_02",
                    "30"
                ],
                "guideScene": 3,
                "guideLayer": "QUEST_GUIDE_LAYER_SCENE"
            },
            "guideHint": {
                "COLBFDGFKDJ": ""
            },
            "isRewind": true,
            "finishExec": [
                {
                    "type": "QUEST_EXEC_UNREGISTER_DYNAMIC_GROUP",
                    "param": [
                        "133004434"
                    ]
                }
            ],
            "versionBegin": "",
            "versionEnd": ""
        },
        {
            "subId": 1900305,
            "mainId": 19003,
            "order": 5,
            "descTextMapHash": 2052439004,
            "finishCond": [
                {
                    "type": "QUEST_CONTENT_MAIN_COOP_ENTER_SAVE_POINT",
                    "param": [
                        101401,
                        30301
                    ]
                },
                {
                    "type": "QUEST_CONTENT_MAIN_COOP_ENTER_SAVE_POINT",
                    "param": [
                        101401,
                        30302
                    ]
                },
                {
                    "type": "QUEST_CONTENT_MAIN_COOP_ENTER_SAVE_POINT",
                    "param": [
                        101401,
                        30303
                    ]
                }
            ],
            "guide": {
                "type": "QUEST_GUIDE_NPC",
                "autoGuide": "QUEST_GUIDE_AUTO_ENABLE",
                "param": [
                    "147101"
                ],
                "guideScene": 3,
                "guideStyle": "QUEST_GUIDE_STYLE_POINT",
                "guideLayer": "QUEST_GUIDE_LAYER_SCENE"
            },
            "guideHint": {
                "COLBFDGFKDJ": ""
            },
            "isRewind": true,
            "versionBegin": "",
            "versionEnd": ""
        },
        {
            "subId": 1900306,
            "mainId": 19003,
            "order": 6,
            "descTextMapHash": 1822257996,
            "finishCond": [
                {
                    "type": "QUEST_CONTENT_COMPLETE_TALK",
                    "param": [
                        1900306,
                        0
                    ]
                }
            ],
            "guide": {
                "type": "QUEST_GUIDE_NPC",
                "autoGuide": "QUEST_GUIDE_AUTO_ENABLE",
                "param": [
                    "147101"
                ],
                "guideScene": 3,
                "guideStyle": "QUEST_GUIDE_STYLE_POINT",
                "guideLayer": "QUEST_GUIDE_LAYER_SCENE"
            },
            "guideHint": {
                "COLBFDGFKDJ": ""
            },
            "finishParent": true,
            "isRewind": true,
            "versionBegin": "",
            "versionEnd": ""
        },
        {
            "subId": 1900307,
            "mainId": 19003,
            "order": 7,
            "descTextMapHash": 2241841796,
            "finishCond": [
                {
                    "type": "QUEST_CONTENT_COMPLETE_TALK",
                    "param": [
                        1900307,
                        0
                    ]
                }
            ],
            "guide": {
                "type": "QUEST_GUIDE_NPC",
                "autoGuide": "QUEST_GUIDE_AUTO_ENABLE",
                "param": [
                    "147101"
                ],
                "guideScene": 3,
                "guideStyle": "QUEST_GUIDE_STYLE_POINT",
                "guideLayer": "QUEST_GUIDE_LAYER_SCENE"
            },
            "guideHint": {
                "COLBFDGFKDJ": ""
            },
            "finishParent": true,
            "isRewind": true,
            "versionBegin": "",
            "versionEnd": ""
        },
        {
            "subId": 1900308,
            "mainId": 19003,
            "order": 8,
            "descTextMapHash": 3679238508,
            "finishCond": [
                {
                    "type": "QUEST_CONTENT_MAIN_COOP_ENTER_SAVE_POINT",
                    "param": [
                        101401,
                        30601
                    ]
                }
            ],
            "guide": {
                "type": "QUEST_GUIDE_NPC",
                "autoGuide": "QUEST_GUIDE_AUTO_ENABLE",
                "param": [
                    "147101"
                ],
                "guideScene": 3,
                "guideStyle": "QUEST_GUIDE_STYLE_POINT",
                "guideLayer": "QUEST_GUIDE_LAYER_SCENE"
            },
            "guideHint": {
                "COLBFDGFKDJ": ""
            },
            "finishParent": true,
            "isRewind": true,
            "versionBegin": "",
            "versionEnd": ""
        }
    ],
    "talks": [
        {
            "id": 1900301,
            "beginWay": "TALK_BEGIN_MANUAL",
            "beginCondComb": "LOGIC_OR",
            "beginCond": [
                {
                    "type": "QUEST_COND_STATE_EQUAL",
                    "param": [
                        "1900301",
                        "2"
                    ]
                },
                {
                    "type": "QUEST_COND_STATE_EQUAL",
                    "param": [
                        "1900302",
                        "2"
                    ]
                }
            ],
            "priority": 5,
            "initDialog": 190010201,
            "npcId": [
                147101
            ],
            "performCfg": "QuestDialogue/COOP/Coop101401SimpleTalk/Q1900102",
            "heroTalk": "TALK_HERO_MAIN",
            "questId": 19003,
            "assetIndex": 8772247954953022274,
            "prePerformCfg": ""
        },
        {
            "id": 1900303,
            "beginWay": "TALK_BEGIN_MANUAL",
            "beginCond": [
                {
                    "type": "QUEST_COND_STATE_EQUAL",
                    "param": [
                        "1900303",
                        "2"
                    ]
                }
            ],
            "priority": 5,
            "initDialog": 190030301,
            "npcId": [
                147101
            ],
            "performCfg": "QuestDialogue/COOP/Coop101401SimpleTalk/Q1900303",
            "heroTalk": "TALK_HERO_MAIN",
            "questId": 19003,
            "assetIndex": 10624699988665316969,
            "prePerformCfg": ""
        },
        {
            "id": 1900304,
            "beginWay": "TALK_BEGIN_MANUAL",
            "beginCondComb": "LOGIC_OR",
            "beginCond": [
                {
                    "type": "QUEST_COND_STATE_EQUAL",
                    "param": [
                        "1900304",
                        "2"
                    ]
                },
                {
                    "type": "QUEST_COND_STATE_EQUAL",
                    "param": [
                        "1900305",
                        "2"
                    ]
                }
            ],
            "priority": 5,
            "initDialog": 190030401,
            "npcId": [
                147101
            ],
            "performCfg": "QuestDialogue/COOP/Coop101401SimpleTalk/Q1900304",
            "heroTalk": "TALK_HERO_MAIN",
            "questId": 19003,
            "assetIndex": 3850110964982157240,
            "prePerformCfg": ""
        },
        {
            "id": 1900306,
            "beginWay": "TALK_BEGIN_MANUAL",
            "beginCond": [
                {
                    "type": "QUEST_COND_STATE_EQUAL",
                    "param": [
                        "1900306",
                        "2"
                    ]
                }
            ],
            "priority": 5,
            "initDialog": 190030601,
            "npcId": [
                147101
            ],
            "performCfg": "QuestDialogue/COOP/Coop101401SimpleTalk/Q1900306",
            "heroTalk": "TALK_HERO_MAIN",
            "questId": 19003,
            "assetIndex": 16616935118202215586,
            "prePerformCfg": ""
        },
        {
            "id": 1900307,
            "beginWay": "TALK_BEGIN_MANUAL",
            "beginCond": [
                {
                    "type": "QUEST_COND_STATE_EQUAL",
                    "param": [
                        "1900307",
                        "2"
                    ]
                }
            ],
            "priority": 5,
            "initDialog": 190030701,
            "npcId": [
                147101
            ],
            "performCfg": "QuestDialogue/COOP/Coop101401SimpleTalk/Q1900307",
            "heroTalk": "TALK_HERO_MAIN",
            "questId": 19003,
            "assetIndex": 8718011577068413045,
            "prePerformCfg": ""
        }
    ],
    "preloadLuaList": [
        17842302238695143736,
        2025913571949898556,
        5452471811525817895
    ],
    "GDLCBECFGJO": [
        16665169638172059819
    ]
}