{
    "id": 19025,
    "resId": 3003,
    "series": 103601,
    "type": "LQ",
    "titleTextMapHash": 3930592871,
    "descTextMapHash": 3137010382,
    "luaPath": "Actor/Quest/LQ19025",
    "suggestTrackOutOfOrder": true,
    "chapterId": 103601,
    "subQuests": [
        {
            "subId": 1902501,
            "mainId": 19025,
            "order": 1,
            "descTextMapHash": 2058680564,
            "finishCond": [
                {
                    "type": "QUEST_CONTENT_MAIN_COOP_ENTER_SAVE_POINT",
                    "param": [
                        103601,
                        1902502
                    ]
                }
            ],
            "guide": {
                "type": "QUEST_GUIDE_LOCATION",
                "autoGuide": "QUEST_GUIDE_AUTO_ENABLE",
                "param": [
                    "Q1902501Child2",
                    "20"
                ],
                "guideScene": 3,
                "guideStyle": "QUEST_GUIDE_STYLE_TARGET",
                "guideLayer": "QUEST_GUIDE_LAYER_SCENE"
            },
            "guideHint": {
                "COLBFDGFKDJ": ""
            },
            "isRewind": true,
            "versionBegin": "",
            "versionEnd": ""
        },
        {
            "subId": 1902502,
            "mainId": 19025,
            "order": 2,
            "descTextMapHash": 2255814772,
            "finishCond": [
                {
                    "type": "QUEST_CONTENT_INTERACT_GADGET",
                    "param": [
                        71700097,
                        0
                    ],
                    "count": 1
                }
            ],
            "guide": {},
            "guideHint": {
                "COLBFDGFKDJ": ""
            },
            "versionBegin": "",
            "versionEnd": ""
        },
        {
            "subId": 1902503,
            "mainId": 19025,
            "order": 9,
            "descTextMapHash": 1531275420,
            "finishCond": [
                {
                    "type": "QUEST_CONTENT_FINISH_ITEM_GIVING",
                    "param": [
                        1902501,
                        0
                    ]
                }
            ],
            "guide": {
                "type": "QUEST_GUIDE_NPC",
                "autoGuide": "QUEST_GUIDE_AUTO_ENABLE",
                "param": [
                    "1023",
                    "SELECT_NPC_NONE"
                ],
                "guideScene": 3,
                "guideStyle": "QUEST_GUIDE_STYLE_TARGET",
                "guideLayer": "QUEST_GUIDE_LAYER_SCENE"
            },
            "guideHint": {
                "COLBFDGFKDJ": ""
            },
            "isRewind": true,
            "versionBegin": "",
            "versionEnd": ""
        },
        {
            "subId": 1902504,
            "mainId": 19025,
            "order": 8,
            "descTextMapHash": 1823176692,
            "stepDescTextMapHash": 729051781,
            "finishCond": [
                {
                    "type": "QUEST_CONTENT_MAIN_COOP_ENTER_SAVE_POINT",
                    "param": [
                        103601,
                        1902503
                    ]
                }
            ],
            "guide": {
                "type": "QUEST_GUIDE_NPC",
                "autoGuide": "QUEST_GUIDE_AUTO_ENABLE",
                "param": [
                    "10901"
                ],
                "guideScene": 3,
                "guideStyle": "QUEST_GUIDE_STYLE_TARGET",
                "guideLayer": "QUEST_GUIDE_LAYER_SCENE"
            },
            "guideHint": {
                "COLBFDGFKDJ": ""
            },
            "isRewind": true,
            "versionBegin": "",
            "versionEnd": ""
        },
        {
            "subId": 1902505,
            "mainId": 19025,
            "order": 10,
            "isMpBlock": true,
            "descTextMapHash": 4140253820,
            "finishCond": [
                {
                    "type": "QUEST_CONTENT_MAIN_COOP_ENTER_SAVE_POINT",
                    "param": [
                        103601,
                        1902505
                    ]
                }
            ],
            "guide": {
                "type": "QUEST_GUIDE_NPC",
                "autoGuide": "QUEST_GUIDE_AUTO_ENABLE",
                "param": [
                    "10901"
                ],
                "guideScene": 3,
                "guideStyle": "QUEST_GUIDE_STYLE_TARGET",
                "guideLayer": "QUEST_GUIDE_LAYER_SCENE"
            },
            "guideHint": {
                "COLBFDGFKDJ": ""
            },
            "finishParent": true,
            "isRewind": true,
            "versionBegin": "",
            "versionEnd": ""
        },
        {
            "subId": 1902506,
            "mainId": 19025,
            "order": 3,
            "descTextMapHash": 1452966788,
            "showType": "QUEST_HIDDEN",
            "finishCond": [
                {
                    "type": "QUEST_CONTENT_COMPLETE_TALK",
                    "param": [
                        1902503,
                        0
                    ]
                }
            ],
            "guide": {},
            "guideHint": {
                "COLBFDGFKDJ": ""
            },
            "finishExec": [
                {
                    "type": "QUEST_EXEC_ADD_QUEST_PROGRESS",
                    "param": [
                        "190250901",
                        "1"
                    ]
                }
            ],
            "versionBegin": "",
            "versionEnd": ""
        },
        {
            "subId": 1902507,
            "mainId": 19025,
            "order": 4,
            "descTextMapHash": 3993024604,
            "showType": "QUEST_HIDDEN",
            "finishCond": [
                {
                    "type": "QUEST_CONTENT_COMPLETE_TALK",
                    "param": [
                        1902504,
                        0
                    ]
                },
                {
                    "type": "QUEST_CONTENT_COMPLETE_TALK",
                    "param": [
                        1902507,
                        0
                    ]
                }
            ],
            "guide": {},
            "guideHint": {
                "COLBFDGFKDJ": ""
            },
            "finishExec": [
                {
                    "type": "QUEST_EXEC_ADD_QUEST_PROGRESS",
                    "param": [
                        "190250901",
                        "1"
                    ]
                }
            ],
            "versionBegin": "",
            "versionEnd": ""
        },
        {
            "subId": 1902508,
            "mainId": 19025,
            "order": 5,
            "descTextMapHash": 2660245620,
            "showType": "QUEST_HIDDEN",
            "finishCond": [
                {
                    "type": "QUEST_CONTENT_MAIN_COOP_ENTER_SAVE_POINT",
                    "param": [
                        103601,
                        1902504
                    ]
                }
            ],
            "guide": {},
            "guideHint": {
                "COLBFDGFKDJ": ""
            },
            "finishExec": [
                {
                    "type": "QUEST_EXEC_ADD_QUEST_PROGRESS",
                    "param": [
                        "190250901",
                        "1"
                    ]
                }
            ],
            "versionBegin": "",
            "versionEnd": ""
        },
        {
            "subId": 1902509,
            "mainId": 19025,
            "order": 6,
            "subIdSet": 1,
            "descTextMapHash": 3646720860,
            "finishCond": [
                {
                    "type": "QUEST_CONTENT_ADD_QUEST_PROGRESS",
                    "param": [
                        190250901,
                        0
                    ],
                    "count": 3
                }
            ],
            "guide": {
                "type": "QUEST_GUIDE_LOCATION",
                "autoGuide": "QUEST_GUIDE_AUTO_ENABLE",
                "param": [
                    "Q1902509guild",
                    "33"
                ],
                "guideScene": 3,
                "guideStyle": "QUEST_GUIDE_STYLE_TARGET",
                "guideLayer": "QUEST_GUIDE_LAYER_SCENE"
            },
            "guideHint": {
                "COLBFDGFKDJ": ""
            },
            "isRewind": true,
            "finishExec": [
                {
                    "type": "QUEST_EXEC_ADD_QUEST_PROGRESS",
                    "param": [
                        "190251001",
                        "1"
                    ]
                }
            ],
            "versionBegin": "",
            "versionEnd": ""
        },
        {
            "subId": 1902510,
            "mainId": 19025,
            "order": 7,
            "descTextMapHash": 3451822500,
            "showType": "QUEST_HIDDEN",
            "finishCond": [
                {
                    "type": "QUEST_CONTENT_ADD_QUEST_PROGRESS",
                    "param": [
                        190251001,
                        0
                    ],
                    "count": 1
                }
            ],
            "guide": {},
            "guideHint": {
                "COLBFDGFKDJ": ""
            },
            "isRewind": true,
            "versionBegin": "",
            "versionEnd": ""
        }
    ],
    "talks": [
        {
            "id": 1902503,
            "beginWay": "TALK_BEGIN_MANUAL",
            "beginCondComb": "LOGIC_AND",
            "beginCond": [
                {
                    "type": "QUEST_COND_STATE_EQUAL",
                    "param": [
                        "1902506",
                        "2"
                    ]
                }
            ],
            "priority": 5,
            "initDialog": 190250301,
            "npcId": [
                10901
            ],
            "performCfg": "QuestDialogue/COOP/CoopChongyun/coop_1902503",
            "heroTalk": "TALK_HERO_MAIN",
            "questId": 19025,
            "assetIndex": 5933620234351067002,
            "prePerformCfg": ""
        },
        {
            "id": 1902504,
            "beginWay": "TALK_BEGIN_MANUAL",
            "beginCondComb": "LOGIC_AND",
            "beginCond": [
                {
                    "type": "QUEST_COND_STATE_EQUAL",
                    "param": [
                        "1902507",
                        "2"
                    ]
                },
                {
                    "type": "QUEST_COND_STATE_EQUAL",
                    "param": [
                        "1902508",
                        "2"
                    ]
                }
            ],
            "priority": 5,
            "initDialog": 190250401,
            "npcId": [
                10902
            ],
            "performCfg": "QuestDialogue/COOP/CoopChongyun/coop_1902504",
            "heroTalk": "TALK_HERO_MAIN",
            "questId": 19025,
            "assetIndex": 14270304716390258978,
            "prePerformCfg": ""
        },
        {
            "id": 1902505,
            "beginWay": "TALK_BEGIN_MANUAL",
            "beginCondComb": "LOGIC_AND",
            "beginCond": [
                {
                    "type": "QUEST_COND_STATE_EQUAL",
                    "param": [
                        "99902",
                        "3"
                    ]
                }
            ],
            "priority": 5,
            "initDialog": 190250501,
            "npcId": [
                1023
            ],
            "performCfg": "",
            "heroTalk": "TALK_HERO_MAIN",
            "questId": 19025,
            "assetIndex": 1689368740410983820,
            "prePerformCfg": ""
        },
        {
            "id": 1902506,
            "beginWay": "TALK_BEGIN_MANUAL",
            "beginCondComb": "LOGIC_AND",
            "beginCond": [
                {
                    "type": "QUEST_COND_STATE_EQUAL",
                    "param": [
                        "1902503",
                        "2"
                    ]
                },
                {
                    "type": "QUEST_COND_ITEM_GIVING_ACTIVED",
                    "param": [
                        "1902501"
                    ]
                }
            ],
            "priority": 5,
            "initDialog": 190250602,
            "npcId": [
                1023
            ],
            "performCfg": "QuestDialogue/COOP/CoopChongyun/Q1902506",
            "heroTalk": "TALK_HERO_MAIN",
            "questId": 19025,
            "assetIndex": 17503791675678291895,
            "prePerformCfg": ""
        },
        {
            "id": 1902507,
            "beginWay": "TALK_BEGIN_MANUAL",
            "beginCondComb": "LOGIC_AND",
            "beginCond": [
                {
                    "type": "QUEST_COND_STATE_EQUAL",
                    "param": [
                        "1902507",
                        "2"
                    ]
                },
                {
                    "type": "QUEST_COND_STATE_EQUAL",
                    "param": [
                        "1902508",
                        "3"
                    ]
                }
            ],
            "priority": 5,
            "initDialog": 190250701,
            "npcId": [
                10902
            ],
            "performCfg": "QuestDialogue/COOP/CoopChongyun/coop_1902507",
            "heroTalk": "TALK_HERO_MAIN",
            "questId": 19025,
            "assetIndex": 13180876636467339909,
            "prePerformCfg": ""
        },
        {
            "id": 1902508,
            "beginWay": "TALK_BEGIN_MANUAL",
            "beginCond": [
                {
                    "type": "QUEST_COND_STATE_EQUAL",
                    "param": [
                        "1902503",
                        "2"
                    ]
                }
            ],
            "priority": 5,
            "initDialog": 190250801,
            "npcId": [
                10902
            ],
            "performCfg": "QuestDialogue/COOP/CoopChongyun/coop_1902508",
            "heroTalk": "TALK_HERO_MAIN",
            "questId": 19025,
            "assetIndex": 71509323260730802,
            "prePerformCfg": ""
        }
    ],
    "freeStyleDic": {
        "10901": [
            5030
        ],
        "10902": [
            5030
        ]
    }
}