{
    "id": 19031,
    "resId": 3003,
    "series": 103601,
    "type": "LQ",
    "titleTextMapHash": 1179739471,
    "descTextMapHash": 3435794190,
    "luaPath": "Actor/Quest/LQ19031",
    "suggestTrackMainQuestList": [
        19032,
        19035
    ],
    "suggestTrackOutOfOrder": true,
    "chapterId": 103601,
    "subQuests": [
        {
            "subId": 1903101,
            "mainId": 19031,
            "order": 1,
            "descTextMapHash": 1567443524,
            "finishCond": [
                {
                    "type": "QUEST_CONTENT_MAIN_COOP_ENTER_SAVE_POINT",
                    "param": [
                        103601,
                        1903109
                    ]
                }
            ],
            "guide": {
                "type": "QUEST_GUIDE_NPC",
                "autoGuide": "QUEST_GUIDE_AUTO_ENABLE",
                "param": [
                    "10918"
                ],
                "guideScene": 3,
                "guideStyle": "QUEST_GUIDE_STYLE_TARGET",
                "guideLayer": "QUEST_GUIDE_LAYER_SCENE"
            },
            "guideHint": {
                "COLBFDGFKDJ": ""
            },
            "versionBegin": "",
            "versionEnd": ""
        },
        {
            "subId": 1903102,
            "mainId": 19031,
            "order": 3,
            "descTextMapHash": 3103109292,
            "finishCond": [
                {
                    "type": "QUEST_CONTENT_CLEAR_GROUP_MONSTER",
                    "param": [
                        133102915,
                        0
                    ]
                }
            ],
            "guide": {
                "type": "QUEST_GUIDE_LOCATION",
                "autoGuide": "QUEST_GUIDE_AUTO_ENABLE",
                "param": [
                    "Q1903102guild",
                    "20"
                ],
                "guideScene": 3,
                "guideStyle": "QUEST_GUIDE_STYLE_TARGET",
                "guideLayer": "QUEST_GUIDE_LAYER_SCENE"
            },
            "guideHint": {
                "COLBFDGFKDJ": ""
            },
            "isRewind": true,
            "versionBegin": "",
            "versionEnd": ""
        },
        {
            "subId": 1903103,
            "mainId": 19031,
            "order": 4,
            "descTextMapHash": 536635124,
            "finishCond": [
                {
                    "type": "QUEST_CONTENT_CLEAR_GROUP_MONSTER",
                    "param": [
                        133102916,
                        0
                    ]
                }
            ],
            "guide": {
                "type": "QUEST_GUIDE_LOCATION",
                "autoGuide": "QUEST_GUIDE_AUTO_ENABLE",
                "param": [
                    "Q1903103guild",
                    "20"
                ],
                "guideScene": 3,
                "guideStyle": "QUEST_GUIDE_STYLE_TARGET",
                "guideLayer": "QUEST_GUIDE_LAYER_SCENE"
            },
            "guideHint": {
                "COLBFDGFKDJ": ""
            },
            "isRewind": true,
            "versionBegin": "",
            "versionEnd": ""
        },
        {
            "subId": 1903104,
            "mainId": 19031,
            "order": 5,
            "descTextMapHash": 4045126356,
            "finishCond": [
                {
                    "type": "QUEST_CONTENT_COMPLETE_TALK",
                    "param": [
                        1903102,
                        0
                    ]
                }
            ],
            "guide": {},
            "showGuide": "QUEST_GUIDE_ITEM_DISABLE",
            "guideHint": {
                "COLBFDGFKDJ": ""
            },
            "finishParent": true,
            "isRewind": true,
            "versionBegin": "",
            "versionEnd": ""
        },
        {
            "subId": 1903105,
            "mainId": 19031,
            "order": 2,
            "descTextMapHash": 2612403884,
            "finishCond": [
                {
                    "type": "QUEST_CONTENT_MAIN_COOP_ENTER_SAVE_POINT",
                    "param": [
                        103601,
                        1903110
                    ]
                }
            ],
            "guide": {
                "type": "QUEST_GUIDE_NPC",
                "autoGuide": "QUEST_GUIDE_AUTO_ENABLE",
                "param": [
                    "1023"
                ],
                "guideScene": 3,
                "guideStyle": "QUEST_GUIDE_STYLE_TARGET",
                "guideLayer": "QUEST_GUIDE_LAYER_SCENE"
            },
            "guideHint": {
                "COLBFDGFKDJ": ""
            },
            "finishParent": true,
            "versionBegin": "",
            "versionEnd": ""
        },
        {
            "subId": 1903106,
            "mainId": 19031,
            "order": 6,
            "descTextMapHash": 2362003556,
            "finishCond": [
                {
                    "type": "QUEST_CONTENT_COMPLETE_TALK",
                    "param": [
                        1903102,
                        0
                    ]
                }
            ],
            "guide": {},
            "showGuide": "QUEST_GUIDE_ITEM_DISABLE",
            "guideHint": {
                "COLBFDGFKDJ": ""
            },
            "finishParent": true,
            "isRewind": true,
            "versionBegin": "",
            "versionEnd": ""
        }
    ],
    "talks": [
        {
            "id": 1903101,
            "beginWay": "TALK_BEGIN_MANUAL",
            "beginCond": [
                {
                    "type": "QUEST_COND_STATE_EQUAL",
                    "param": [
                        "1903105",
                        "3"
                    ]
                }
            ],
            "priority": 5,
            "initDialog": 190310101,
            "npcId": [
                1023
            ],
            "performCfg": "",
            "heroTalk": "TALK_HERO_MAIN",
            "questId": 19031,
            "assetIndex": 177200011910909025,
            "prePerformCfg": ""
        },
        {
            "id": 1903102,
            "beginWay": "TALK_BEGIN_MANUAL",
            "beginCondComb": "LOGIC_OR",
            "beginCond": [
                {
                    "type": "QUEST_COND_STATE_EQUAL",
                    "param": [
                        "1903104",
                        "2"
                    ]
                },
                {
                    "type": "QUEST_COND_STATE_EQUAL",
                    "param": [
                        "1903106",
                        "2"
                    ]
                }
            ],
            "priority": 5,
            "initDialog": 1903102101,
            "npcId": [
                10905
            ],
            "performCfg": "QuestDialogue/COOP/CoopChongyun/coop_1903104",
            "heroTalk": "TALK_HERO_MAIN",
            "questId": 19031,
            "assetIndex": 5211719748661434176,
            "prePerformCfg": ""
        }
    ]
}