{
    "id": 19170,
    "resId": 3016,
    "series": 107601,
    "type": "LQ",
    "titleTextMapHash": 3664926807,
    "descTextMapHash": 2987226182,
    "luaPath": "Actor/Quest/LQ19170",
    "suggestTrackMainQuestList": [
        19171,
        19172,
        19173
    ],
    "suggestTrackOutOfOrder": true,
    "chapterId": 107601,
    "subQuests": [
        {
            "subId": 1917001,
            "mainId": 19170,
            "order": 1,
            "descTextMapHash": 784856332,
            "stepDescTextMapHash": 45037829,
            "ALGDOBKHJPL": [
                330303
            ],
            "finishCond": [
                {
                    "type": "QUEST_CONTENT_FINISH_PLOT",
                    "param": [
                        1917001,
                        0
                    ]
                }
            ],
            "guide": {
                "type": "QUEST_GUIDE_LOCATION",
                "param": [
                    "Q1917001_guide"
                ],
                "guideScene": 3,
                "guideStyle": "QUEST_GUIDE_STYLE_POINT"
            },
            "guideHint": {
                "COLBFDGFKDJ": ""
            },
            "isRewind": true,
            "versionBegin": "",
            "versionEnd": ""
        },
        {
            "subId": 1917002,
            "mainId": 19170,
            "order": 2,
            "descTextMapHash": 4288860660,
            "ALGDOBKHJPL": [
                330303,
                330210
            ],
            "finishCond": [
                {
                    "type": "QUEST_CONTENT_MAIN_COOP_ENTER_SAVE_POINT",
                    "param": [
                        107601,
                        191700101
                    ]
                }
            ],
            "guide": {
                "type": "QUEST_GUIDE_NPC",
                "param": [
                    "1050"
                ],
                "guideScene": 3,
                "guideStyle": "QUEST_GUIDE_STYLE_TARGET",
                "guideLayer": "QUEST_GUIDE_LAYER_SCENE"
            },
            "guideHint": {
                "COLBFDGFKDJ": ""
            },
            "isRewind": true,
            "versionBegin": "",
            "versionEnd": ""
        },
        {
            "subId": 1917003,
            "mainId": 19170,
            "order": 3,
            "descTextMapHash": 1159736004,
            "ALGDOBKHJPL": [
                330303,
                330210
            ],
            "finishCond": [
                {
                    "type": "QUEST_CONTENT_FINISH_PLOT",
                    "param": [
                        1917003,
                        0
                    ]
                }
            ],
            "guide": {
                "type": "QUEST_GUIDE_LOCATION",
                "param": [
                    "Q1917003_guide",
                    "15"
                ],
                "guideScene": 3
            },
            "guideHint": {
                "COLBFDGFKDJ": ""
            },
            "isRewind": true,
            "versionBegin": "",
            "versionEnd": ""
        },
        {
            "subId": 1917004,
            "mainId": 19170,
            "order": 4,
            "descTextMapHash": 3889714084,
            "ALGDOBKHJPL": [
                330210
            ],
            "finishCond": [
                {
                    "type": "QUEST_CONTENT_MAIN_COOP_ENTER_SAVE_POINT",
                    "param": [
                        107601,
                        191700201
                    ]
                }
            ],
            "guide": {
                "type": "QUEST_GUIDE_NPC",
                "param": [
                    "513"
                ],
                "guideScene": 3,
                "guideStyle": "QUEST_GUIDE_STYLE_TARGET",
                "guideLayer": "QUEST_GUIDE_LAYER_SCENE"
            },
            "guideHint": {
                "COLBFDGFKDJ": ""
            },
            "isRewind": true,
            "versionBegin": "",
            "versionEnd": ""
        },
        {
            "subId": 1917005,
            "mainId": 19170,
            "order": 5,
            "descTextMapHash": 1262482948,
            "ALGDOBKHJPL": [
                330210
            ],
            "finishCond": [
                {
                    "type": "QUEST_CONTENT_MAIN_COOP_ENTER_SAVE_POINT",
                    "param": [
                        107601,
                        191700301
                    ]
                },
                {
                    "type": "QUEST_CONTENT_MAIN_COOP_ENTER_SAVE_POINT",
                    "param": [
                        107601,
                        191700302
                    ]
                },
                {
                    "type": "QUEST_CONTENT_MAIN_COOP_ENTER_SAVE_POINT",
                    "param": [
                        107601,
                        191700303
                    ]
                }
            ],
            "guide": {
                "type": "QUEST_GUIDE_NPC",
                "param": [
                    "1051"
                ],
                "guideScene": 3,
                "guideStyle": "QUEST_GUIDE_STYLE_TARGET",
                "guideLayer": "QUEST_GUIDE_LAYER_SCENE"
            },
            "guideHint": {
                "COLBFDGFKDJ": ""
            },
            "finishParent": true,
            "isRewind": true,
            "versionBegin": "",
            "versionEnd": ""
        }
    ],
    "talks": [
        {
            "id": 1917051,
            "beginWay": "TALK_BEGIN_MANUAL",
            "beginCond": [
                {
                    "type": "QUEST_COND_STATE_EQUAL",
                    "param": [
                        "1917003",
                        "2"
                    ]
                }
            ],
            "priority": 5,
            "initDialog": 191705101,
            "npcId": [
                1050
            ],
            "performCfg": "QuestDialogue/COOP/CoopFaruzan/Q1917051",
            "heroTalk": "TALK_HERO_MAIN",
            "questId": 19170,
            "assetIndex": 14134551106153002706,
            "prePerformCfg": ""
        }
    ],
    "preloadLuaList": [
        17326520474870489247,
        8008859855917477276,
        8308935156080728358,
        13817027189674675093
    ],
    "GDLCBECFGJO": [
        11443029049565152535
    ],
    "dialogList": [
        {
            "id": 191700398,
            "talkRole": {
                "type": "TALK_ROLE_PLAYER",
                "id": ""
            },
            "talkContentTextMapHash": 1103054634,
            "talkAssetPath": "",
            "talkAssetPathAlter": "",
            "talkAudioName": "",
            "actionBefore": "",
            "actionWhile": "",
            "actionAfter": "",
            "optionIcon": ""
        },
        {
            "id": 191700399,
            "talkRole": {
                "type": "TALK_ROLE_PLAYER",
                "id": ""
            },
            "talkContentTextMapHash": 331429690,
            "talkAssetPath": "",
            "talkAssetPathAlter": "",
            "talkAudioName": "",
            "actionBefore": "",
            "actionWhile": "",
            "actionAfter": "",
            "optionIcon": ""
        },
        {
            "id": 191700498,
            "talkRole": {
                "type": "TALK_ROLE_PLAYER",
                "id": ""
            },
            "talkContentTextMapHash": 102130706,
            "talkAssetPath": "",
            "talkAssetPathAlter": "",
            "talkAudioName": "",
            "actionBefore": "",
            "actionWhile": "",
            "actionAfter": "",
            "optionIcon": ""
        },
        {
            "id": 191700499,
            "talkRole": {
                "type": "TALK_ROLE_PLAYER",
                "id": ""
            },
            "talkContentTextMapHash": 3696770474,
            "talkAssetPath": "",
            "talkAssetPathAlter": "",
            "talkAudioName": "",
            "actionBefore": "",
            "actionWhile": "",
            "actionAfter": "",
            "optionIcon": ""
        }
    ]
}