{
    "id": 20100,
    "type": "WQ",
    "titleTextMapHash": 1835163705,
    "luaPath": "",
    "rewardIdList": [
        120100
    ],
    "showType": "QUEST_HIDDEN",
    "subQuests": [
        {
            "subId": 2010001,
            "mainId": 20100,
            "order": 1,
            "descTextMapHash": 4160018528,
            "showType": "QUEST_HIDDEN",
            "finishCond": [
                {
                    "type": "QUEST_CONTENT_COMPLETE_TALK",
                    "param": [
                        35801,
                        0
                    ]
                }
            ],
            "guide": {},
            "guideHint": {
                "COLBFDGFKDJ": ""
            },
            "finishParent": true,
            "versionBegin": "",
            "versionEnd": ""
        }
    ]
}