{
    "id": 21019,
    "type": "WQ",
    "activeMode": "PLAY_MODE_ALL",
    "titleTextMapHash": 2425065921,
    "descTextMapHash": 3754816807,
    "luaPath": "Actor/Quest/LQ21019",
    "subQuests": [
        {
            "subId": 2101901,
            "mainId": 21019,
            "order": 1,
            "descTextMapHash": 1927154690,
            "showType": "QUEST_HIDDEN",
            "finishCond": [
                {
                    "type": "QUEST_CONTENT_LUA_NOTIFY",
                    "param": [
                        0,
                        0
                    ],
                    "count": 1
                }
            ],
            "guide": {},
            "guideHint": {
                "COLBFDGFKDJ": ""
            },
            "versionBegin": "",
            "versionEnd": ""
        },
        {
            "subId": 2101902,
            "mainId": 21019,
            "order": 2,
            "descTextMapHash": 410775258,
            "finishCond": [
                {
                    "type": "QUEST_CONTENT_COMPLETE_TALK",
                    "param": [
                        2100602,
                        0
                    ],
                    "count": 1
                }
            ],
            "failCond": [
                {
                    "type": "QUEST_CONTENT_ADD_QUEST_PROGRESS",
                    "param": [
                        2101907,
                        1
                    ]
                }
            ],
            "guide": {
                "type": "QUEST_GUIDE_LOCATION",
                "param": [
                    "Q21019biji"
                ],
                "guideScene": 3,
                "guideStyle": "QUEST_GUIDE_STYLE_POINT",
                "guideLayer": "QUEST_GUIDE_LAYER_SCENE"
            },
            "guideHint": {
                "COLBFDGFKDJ": ""
            },
            "failExec": [
                {
                    "type": "QUEST_EXEC_REFRESH_GROUP_SUITE",
                    "param": [
                        "3",
                        "133102249,1"
                    ]
                }
            ],
            "versionBegin": "",
            "versionEnd": ""
        },
        {
            "subId": 2101903,
            "mainId": 21019,
            "order": 3,
            "descTextMapHash": 970199114,
            "showType": "QUEST_HIDDEN",
            "finishCond": [
                {
                    "type": "QUEST_CONTENT_ADD_QUEST_PROGRESS",
                    "param": [
                        133102008,
                        0
                    ],
                    "count": 3
                }
            ],
            "failCond": [
                {
                    "type": "QUEST_CONTENT_ADD_QUEST_PROGRESS",
                    "param": [
                        2101907,
                        1
                    ]
                }
            ],
            "guide": {},
            "guideHint": {
                "COLBFDGFKDJ": ""
            },
            "isRewind": true,
            "finishExec": [
                {
                    "type": "QUEST_EXEC_NOTIFY_GROUP_LUA",
                    "param": [
                        "3",
                        "133102503"
                    ]
                },
                {
                    "type": "QUEST_EXEC_ADD_QUEST_PROGRESS",
                    "param": [
                        "2101908",
                        "1"
                    ]
                },
                {
                    "type": "QUEST_EXEC_NOTIFY_GROUP_LUA",
                    "param": [
                        "3",
                        "133102699"
                    ]
                }
            ],
            "failExec": [
                {
                    "type": "QUEST_EXEC_REFRESH_GROUP_SUITE",
                    "param": [
                        "3",
                        "133102249,1"
                    ]
                }
            ],
            "versionBegin": "",
            "versionEnd": ""
        },
        {
            "subId": 2101904,
            "mainId": 21019,
            "order": 4,
            "subIdSet": 1,
            "descTextMapHash": 3086730666,
            "finishCond": [
                {
                    "type": "QUEST_CONTENT_LUA_NOTIFY",
                    "param": [
                        0,
                        0
                    ],
                    "count": 1
                }
            ],
            "failCond": [
                {
                    "type": "QUEST_CONTENT_ADD_QUEST_PROGRESS",
                    "param": [
                        2101907,
                        1
                    ]
                }
            ],
            "guide": {
                "type": "QUEST_GUIDE_LOCATION",
                "param": [
                    "Q21019_fang",
                    "30"
                ],
                "guideScene": 3,
                "guideLayer": "QUEST_GUIDE_LAYER_SCENE"
            },
            "guideHint": {
                "COLBFDGFKDJ": ""
            },
            "isRewind": true,
            "finishExec": [
                {
                    "type": "QUEST_EXEC_ADD_QUEST_PROGRESS",
                    "param": [
                        "133102008",
                        "1"
                    ]
                },
                {
                    "type": "QUEST_EXEC_NOTIFY_GROUP_LUA",
                    "param": [
                        "3",
                        "133102503"
                    ]
                }
            ],
            "failExec": [
                {
                    "type": "QUEST_EXEC_REFRESH_GROUP_SUITE",
                    "param": [
                        "3",
                        "133102249,1"
                    ]
                }
            ],
            "versionBegin": "",
            "versionEnd": ""
        },
        {
            "subId": 2101905,
            "mainId": 21019,
            "order": 5,
            "subIdSet": 1,
            "descTextMapHash": 907797818,
            "finishCond": [
                {
                    "type": "QUEST_CONTENT_LUA_NOTIFY",
                    "param": [
                        0,
                        0
                    ],
                    "count": 1
                }
            ],
            "failCond": [
                {
                    "type": "QUEST_CONTENT_ADD_QUEST_PROGRESS",
                    "param": [
                        2101907,
                        1
                    ]
                }
            ],
            "guide": {
                "type": "QUEST_GUIDE_LOCATION",
                "param": [
                    "Q21019_sanjiao",
                    "30"
                ],
                "guideScene": 3,
                "guideLayer": "QUEST_GUIDE_LAYER_SCENE"
            },
            "guideHint": {
                "COLBFDGFKDJ": ""
            },
            "isRewind": true,
            "finishExec": [
                {
                    "type": "QUEST_EXEC_ADD_QUEST_PROGRESS",
                    "param": [
                        "133102008",
                        "1"
                    ]
                },
                {
                    "type": "QUEST_EXEC_NOTIFY_GROUP_LUA",
                    "param": [
                        "3",
                        "133102503"
                    ]
                }
            ],
            "failExec": [
                {
                    "type": "QUEST_EXEC_REFRESH_GROUP_SUITE",
                    "param": [
                        "3",
                        "133102249,1"
                    ]
                }
            ],
            "versionBegin": "",
            "versionEnd": ""
        },
        {
            "subId": 2101906,
            "mainId": 21019,
            "order": 6,
            "subIdSet": 1,
            "descTextMapHash": 2362725970,
            "finishCond": [
                {
                    "type": "QUEST_CONTENT_LUA_NOTIFY",
                    "param": [
                        0,
                        0
                    ],
                    "count": 1
                }
            ],
            "failCond": [
                {
                    "type": "QUEST_CONTENT_ADD_QUEST_PROGRESS",
                    "param": [
                        2101907,
                        1
                    ]
                }
            ],
            "guide": {
                "type": "QUEST_GUIDE_LOCATION",
                "param": [
                    "Q21019_yuan",
                    "30"
                ],
                "guideScene": 3,
                "guideLayer": "QUEST_GUIDE_LAYER_SCENE"
            },
            "guideHint": {
                "COLBFDGFKDJ": ""
            },
            "isRewind": true,
            "finishExec": [
                {
                    "type": "QUEST_EXEC_ADD_QUEST_PROGRESS",
                    "param": [
                        "133102008",
                        "1"
                    ]
                },
                {
                    "type": "QUEST_EXEC_NOTIFY_GROUP_LUA",
                    "param": [
                        "3",
                        "133102503"
                    ]
                }
            ],
            "failExec": [
                {
                    "type": "QUEST_EXEC_REFRESH_GROUP_SUITE",
                    "param": [
                        "3",
                        "133102249,1"
                    ]
                }
            ],
            "versionBegin": "",
            "versionEnd": ""
        },
        {
            "subId": 2101907,
            "mainId": 21019,
            "order": 8,
            "descTextMapHash": 72888866,
            "finishCond": [
                {
                    "type": "QUEST_CONTENT_LUA_NOTIFY",
                    "param": [
                        0,
                        0
                    ],
                    "count": 1
                }
            ],
            "guide": {
                "type": "QUEST_GUIDE_LOCATION",
                "param": [
                    "Q21019_finish"
                ],
                "guideScene": 3,
                "guideStyle": "QUEST_GUIDE_STYLE_POINT",
                "guideLayer": "QUEST_GUIDE_LAYER_SCENE"
            },
            "guideHint": {
                "COLBFDGFKDJ": ""
            },
            "finishParent": true,
            "isRewind": true,
            "finishExec": [
                {
                    "type": "QUEST_EXEC_ADD_QUEST_PROGRESS",
                    "param": [
                        "2101907",
                        "1"
                    ]
                }
            ],
            "versionBegin": "",
            "versionEnd": ""
        },
        {
            "subId": 2101908,
            "mainId": 21019,
            "order": 7,
            "descTextMapHash": 1003630498,
            "showType": "QUEST_HIDDEN",
            "finishCond": [
                {
                    "type": "QUEST_CONTENT_ADD_QUEST_PROGRESS",
                    "param": [
                        2101908,
                        0
                    ],
                    "count": 1
                }
            ],
            "failCond": [
                {
                    "type": "QUEST_CONTENT_ADD_QUEST_PROGRESS",
                    "param": [
                        2101907,
                        1
                    ]
                }
            ],
            "guide": {},
            "guideHint": {
                "COLBFDGFKDJ": ""
            },
            "isRewind": true,
            "failExec": [
                {
                    "type": "QUEST_EXEC_REFRESH_GROUP_SUITE",
                    "param": [
                        "3",
                        "133102249,1"
                    ]
                }
            ],
            "versionBegin": "",
            "versionEnd": ""
        }
    ]
}