{
    "id": 23037,
    "type": "IQ",
    "activeMode": "PLAY_MODE_ALL",
    "titleTextMapHash": 3750921591,
    "descTextMapHash": 3690339846,
    "luaPath": "Actor/Quest/IQ23037",
    "repeatable": true,
    "taskID": 42340,
    "subQuests": [
        {
            "subId": 2303701,
            "mainId": 23037,
            "order": 1,
            "descTextMapHash": 9443444,
            "finishCond": [
                {
                    "type": "QUEST_CONTENT_COMPLETE_TALK",
                    "param": [
                        2303701,
                        0
                    ]
                },
                {
                    "type": "QUEST_CONTENT_COMPLETE_TALK",
                    "param": [
                        2303702,
                        0
                    ]
                },
                {
                    "type": "QUEST_CONTENT_COMPLETE_TALK",
                    "param": [
                        2303703,
                        0
                    ]
                }
            ],
            "guide": {
                "type": "QUEST_GUIDE_NPC",
                "param": [
                    "4412"
                ],
                "guideScene": 3,
                "guideStyle": "QUEST_GUIDE_STYLE_TARGET",
                "guideLayer": "QUEST_GUIDE_LAYER_SCENE"
            },
            "guideHint": {
                "COLBFDGFKDJ": ""
            },
            "isRewind": true,
            "versionBegin": "",
            "versionEnd": ""
        },
        {
            "subId": 2303702,
            "mainId": 23037,
            "order": 2,
            "descTextMapHash": 1443196612,
            "finishCond": [
                {
                    "type": "QUEST_CONTENT_COMPLETE_TALK",
                    "param": [
                        2303705,
                        0
                    ]
                }
            ],
            "guide": {
                "type": "QUEST_GUIDE_NPC",
                "param": [
                    "4071"
                ],
                "guideScene": 3,
                "guideStyle": "QUEST_GUIDE_STYLE_TARGET",
                "guideLayer": "QUEST_GUIDE_LAYER_SCENE"
            },
            "guideHint": {
                "COLBFDGFKDJ": ""
            },
            "isRewind": true,
            "versionBegin": "",
            "versionEnd": ""
        },
        {
            "subId": 2303703,
            "mainId": 23037,
            "order": 3,
            "descTextMapHash": 3509623276,
            "finishCond": [
                {
                    "type": "QUEST_CONTENT_COMPLETE_TALK",
                    "param": [
                        2303706,
                        0
                    ]
                }
            ],
            "guide": {
                "type": "QUEST_GUIDE_NPC",
                "param": [
                    "4071"
                ],
                "guideScene": 3,
                "guideStyle": "QUEST_GUIDE_STYLE_TARGET",
                "guideLayer": "QUEST_GUIDE_LAYER_SCENE"
            },
            "guideHint": {
                "COLBFDGFKDJ": ""
            },
            "isRewind": true,
            "versionBegin": "",
            "versionEnd": ""
        },
        {
            "subId": 2303704,
            "mainId": 23037,
            "order": 4,
            "descTextMapHash": 2563464428,
            "finishCond": [
                {
                    "type": "QUEST_CONTENT_COMPLETE_TALK",
                    "param": [
                        2303707,
                        0
                    ]
                }
            ],
            "guide": {
                "type": "QUEST_GUIDE_NPC",
                "param": [
                    "4071"
                ],
                "guideScene": 3,
                "guideStyle": "QUEST_GUIDE_STYLE_TARGET",
                "guideLayer": "QUEST_GUIDE_LAYER_SCENE"
            },
            "guideHint": {
                "COLBFDGFKDJ": ""
            },
            "isRewind": true,
            "versionBegin": "",
            "versionEnd": ""
        },
        {
            "subId": 2303706,
            "mainId": 23037,
            "order": 5,
            "descTextMapHash": 370774940,
            "finishCond": [
                {
                    "type": "QUEST_CONTENT_COMPLETE_TALK",
                    "param": [
                        2303708,
                        0
                    ]
                }
            ],
            "guide": {
                "type": "QUEST_GUIDE_NPC",
                "param": [
                    "4412"
                ],
                "guideScene": 3,
                "guideStyle": "QUEST_GUIDE_STYLE_TARGET",
                "guideLayer": "QUEST_GUIDE_LAYER_SCENE"
            },
            "guideHint": {
                "COLBFDGFKDJ": ""
            },
            "isRewind": true,
            "versionBegin": "",
            "versionEnd": ""
        },
        {
            "subId": 2303707,
            "mainId": 23037,
            "order": 6,
            "descTextMapHash": 1407482676,
            "finishCond": [
                {
                    "type": "QUEST_CONTENT_COMPLETE_TALK",
                    "param": [
                        2303709,
                        0
                    ]
                }
            ],
            "guide": {
                "type": "QUEST_GUIDE_NPC",
                "param": [
                    "4412"
                ],
                "guideScene": 3,
                "guideStyle": "QUEST_GUIDE_STYLE_TARGET",
                "guideLayer": "QUEST_GUIDE_LAYER_SCENE"
            },
            "guideHint": {
                "COLBFDGFKDJ": ""
            },
            "isRewind": true,
            "versionBegin": "",
            "versionEnd": ""
        },
        {
            "subId": 2303708,
            "mainId": 23037,
            "order": 7,
            "descTextMapHash": 3187936892,
            "finishCond": [
                {
                    "type": "QUEST_CONTENT_COMPLETE_TALK",
                    "param": [
                        2303710,
                        0
                    ]
                }
            ],
            "guide": {
                "type": "QUEST_GUIDE_NPC",
                "param": [
                    "4412"
                ],
                "guideScene": 3,
                "guideStyle": "QUEST_GUIDE_STYLE_TARGET",
                "guideLayer": "QUEST_GUIDE_LAYER_SCENE"
            },
            "guideHint": {
                "COLBFDGFKDJ": ""
            },
            "isRewind": true,
            "versionBegin": "",
            "versionEnd": ""
        },
        {
            "subId": 2303709,
            "mainId": 23037,
            "order": 8,
            "descTextMapHash": 2478416532,
            "finishCond": [
                {
                    "type": "QUEST_CONTENT_COMPLETE_TALK",
                    "param": [
                        2303711,
                        0
                    ]
                },
                {
                    "type": "QUEST_CONTENT_COMPLETE_TALK",
                    "param": [
                        2303712,
                        0
                    ]
                },
                {
                    "type": "QUEST_CONTENT_COMPLETE_TALK",
                    "param": [
                        2303714,
                        0
                    ]
                },
                {
                    "type": "QUEST_CONTENT_COMPLETE_TALK",
                    "param": [
                        2303715,
                        0
                    ]
                }
            ],
            "guide": {
                "type": "QUEST_GUIDE_NPC",
                "param": [
                    "4412"
                ],
                "guideScene": 3,
                "guideStyle": "QUEST_GUIDE_STYLE_TARGET",
                "guideLayer": "QUEST_GUIDE_LAYER_SCENE"
            },
            "guideHint": {
                "COLBFDGFKDJ": ""
            },
            "finishParent": true,
            "isRewind": true,
            "finishExec": [
                {
                    "type": "QUEST_EXEC_NOTIFY_DAILY_TASK",
                    "param": [
                        "42340"
                    ]
                },
                {
                    "type": "QUEST_EXEC_DEL_ALL_SPECIFIC_PACK_ITEM",
                    "param": [
                        "120052,120053,120054"
                    ]
                }
            ],
            "versionBegin": "",
            "versionEnd": ""
        }
    ],
    "talks": [
        {
            "id": 2303701,
            "beginWay": "TALK_BEGIN_MANUAL",
            "activeMode": "PLAY_MODE_HOST",
            "beginCondComb": "LOGIC_AND",
            "beginCond": [
                {
                    "type": "QUEST_COND_STATE_EQUAL",
                    "param": [
                        "2303701",
                        "2"
                    ]
                },
                {
                    "type": "QUEST_COND_QUEST_VAR_EQUAL",
                    "param": [
                        "0",
                        "1",
                        "23037"
                    ]
                }
            ],
            "priority": 5,
            "initDialog": 230370101,
            "npcId": [
                4412
            ],
            "performCfg": "",
            "heroTalk": "TALK_HERO_MAIN",
            "questId": 23037,
            "assetIndex": 8773524369931200345,
            "prePerformCfg": "",
            "freeStyleList": [
                1190,
                1170,
                1180,
                1171,
                1172,
                1173,
                1130
            ]
        },
        {
            "id": 2303702,
            "beginWay": "TALK_BEGIN_MANUAL",
            "activeMode": "PLAY_MODE_HOST",
            "beginCondComb": "LOGIC_AND",
            "beginCond": [
                {
                    "type": "QUEST_COND_STATE_EQUAL",
                    "param": [
                        "2303701",
                        "2"
                    ]
                },
                {
                    "type": "QUEST_COND_QUEST_VAR_EQUAL",
                    "param": [
                        "0",
                        "2",
                        "23037"
                    ]
                }
            ],
            "priority": 5,
            "initDialog": 230370201,
            "npcId": [
                4412
            ],
            "performCfg": "",
            "heroTalk": "TALK_HERO_MAIN",
            "questId": 23037,
            "assetIndex": 2345754035266238198,
            "prePerformCfg": "",
            "freeStyleList": [
                1190,
                1120,
                1171,
                1172,
                1173,
                4040,
                1170,
                1180
            ]
        },
        {
            "id": 2303703,
            "beginWay": "TALK_BEGIN_MANUAL",
            "activeMode": "PLAY_MODE_HOST",
            "beginCondComb": "LOGIC_AND",
            "beginCond": [
                {
                    "type": "QUEST_COND_STATE_EQUAL",
                    "param": [
                        "2303701",
                        "2"
                    ]
                },
                {
                    "type": "QUEST_COND_QUEST_VAR_EQUAL",
                    "param": [
                        "0",
                        "3",
                        "23037"
                    ]
                }
            ],
            "priority": 5,
            "initDialog": 230370301,
            "npcId": [
                4412
            ],
            "performCfg": "",
            "heroTalk": "TALK_HERO_MAIN",
            "questId": 23037,
            "assetIndex": 5953311039131527621,
            "prePerformCfg": "",
            "freeStyleList": [
                1050,
                1170,
                1180,
                1240,
                1171,
                1172,
                1173,
                1120,
                4040
            ]
        },
        {
            "id": 2303704,
            "beginWay": "TALK_BEGIN_MANUAL",
            "activeMode": "PLAY_MODE_HOST",
            "beginCondComb": "LOGIC_OR",
            "beginCond": [
                {
                    "type": "QUEST_COND_STATE_EQUAL",
                    "param": [
                        "2303702",
                        "2"
                    ]
                },
                {
                    "type": "QUEST_COND_STATE_EQUAL",
                    "param": [
                        "2303703",
                        "2"
                    ]
                },
                {
                    "type": "QUEST_COND_STATE_EQUAL",
                    "param": [
                        "2303704",
                        "2"
                    ]
                }
            ],
            "priority": 5,
            "initDialog": 230370401,
            "npcId": [
                4412
            ],
            "performCfg": "",
            "heroTalk": "TALK_HERO_MAIN",
            "questId": 23037,
            "assetIndex": 2336337249645652364,
            "prePerformCfg": ""
        },
        {
            "id": 2303705,
            "beginWay": "TALK_BEGIN_MANUAL",
            "activeMode": "PLAY_MODE_HOST",
            "beginCondComb": "LOGIC_AND",
            "beginCond": [
                {
                    "type": "QUEST_COND_STATE_EQUAL",
                    "param": [
                        "2303702",
                        "2"
                    ]
                },
                {
                    "type": "QUEST_COND_QUEST_VAR_EQUAL",
                    "param": [
                        "0",
                        "1",
                        "23037"
                    ]
                }
            ],
            "priority": 5,
            "initDialog": 230370501,
            "npcId": [
                4071
            ],
            "performCfg": "",
            "heroTalk": "TALK_HERO_MAIN",
            "questId": 23037,
            "assetIndex": 7594370316590220248,
            "prePerformCfg": "",
            "freeStyleList": [
                1120,
                1171,
                1172,
                1173,
                1170,
                1180,
                1230,
                1190,
                1150
            ]
        },
        {
            "id": 2303706,
            "beginWay": "TALK_BEGIN_MANUAL",
            "activeMode": "PLAY_MODE_HOST",
            "beginCondComb": "LOGIC_AND",
            "beginCond": [
                {
                    "type": "QUEST_COND_STATE_EQUAL",
                    "param": [
                        "2303703",
                        "2"
                    ]
                },
                {
                    "type": "QUEST_COND_QUEST_VAR_EQUAL",
                    "param": [
                        "0",
                        "2",
                        "23037"
                    ]
                }
            ],
            "priority": 5,
            "initDialog": 230370601,
            "npcId": [
                4071
            ],
            "performCfg": "",
            "heroTalk": "TALK_HERO_MAIN",
            "questId": 23037,
            "assetIndex": 12683551262696031116,
            "prePerformCfg": "",
            "freeStyleList": [
                1120,
                1171,
                1172,
                1173,
                1170,
                1180,
                1230,
                1190,
                1150
            ]
        },
        {
            "id": 2303707,
            "beginWay": "TALK_BEGIN_MANUAL",
            "activeMode": "PLAY_MODE_HOST",
            "beginCondComb": "LOGIC_AND",
            "beginCond": [
                {
                    "type": "QUEST_COND_STATE_EQUAL",
                    "param": [
                        "2303704",
                        "2"
                    ]
                },
                {
                    "type": "QUEST_COND_QUEST_VAR_EQUAL",
                    "param": [
                        "0",
                        "3",
                        "23037"
                    ]
                }
            ],
            "priority": 5,
            "initDialog": 230370701,
            "npcId": [
                4071
            ],
            "performCfg": "",
            "heroTalk": "TALK_HERO_MAIN",
            "questId": 23037,
            "assetIndex": 693559459441918779,
            "prePerformCfg": "",
            "freeStyleList": [
                1120,
                1171,
                1172,
                1173,
                1170,
                1180,
                1230,
                1190,
                1150
            ]
        },
        {
            "id": 2303708,
            "beginWay": "TALK_BEGIN_MANUAL",
            "activeMode": "PLAY_MODE_HOST",
            "beginCondComb": "LOGIC_AND",
            "beginCond": [
                {
                    "type": "QUEST_COND_STATE_EQUAL",
                    "param": [
                        "2303706",
                        "2"
                    ]
                },
                {
                    "type": "QUEST_COND_QUEST_VAR_EQUAL",
                    "param": [
                        "0",
                        "1",
                        "23037"
                    ]
                }
            ],
            "priority": 5,
            "nextTalks": [
                2303711,
                2303712
            ],
            "initDialog": 230370801,
            "npcId": [
                4412
            ],
            "performCfg": "QuestDialogue/IQ/Sumeru_23037/Q2303708",
            "heroTalk": "TALK_HERO_MAIN",
            "questId": 23037,
            "assetIndex": 4802603490646696478,
            "prePerformCfg": ""
        },
        {
            "id": 2303709,
            "beginWay": "TALK_BEGIN_MANUAL",
            "activeMode": "PLAY_MODE_HOST",
            "beginCondComb": "LOGIC_AND",
            "beginCond": [
                {
                    "type": "QUEST_COND_STATE_EQUAL",
                    "param": [
                        "2303707",
                        "2"
                    ]
                },
                {
                    "type": "QUEST_COND_QUEST_VAR_EQUAL",
                    "param": [
                        "0",
                        "2",
                        "23037"
                    ]
                }
            ],
            "priority": 5,
            "nextTalks": [
                2303711,
                2303714
            ],
            "initDialog": 230370901,
            "npcId": [
                4412
            ],
            "performCfg": "QuestDialogue/IQ/Sumeru_23037/Q2303709",
            "heroTalk": "TALK_HERO_MAIN",
            "questId": 23037,
            "assetIndex": 9230708422529491694,
            "prePerformCfg": ""
        },
        {
            "id": 2303710,
            "beginWay": "TALK_BEGIN_MANUAL",
            "activeMode": "PLAY_MODE_HOST",
            "beginCondComb": "LOGIC_AND",
            "beginCond": [
                {
                    "type": "QUEST_COND_STATE_EQUAL",
                    "param": [
                        "2303708",
                        "2"
                    ]
                },
                {
                    "type": "QUEST_COND_QUEST_VAR_EQUAL",
                    "param": [
                        "0",
                        "3",
                        "23037"
                    ]
                }
            ],
            "priority": 5,
            "nextTalks": [
                2303711,
                2303715
            ],
            "initDialog": 230371001,
            "npcId": [
                4412
            ],
            "performCfg": "QuestDialogue/IQ/Sumeru_23037/Q2303710",
            "heroTalk": "TALK_HERO_MAIN",
            "questId": 23037,
            "assetIndex": 14369811438108542855,
            "prePerformCfg": ""
        },
        {
            "id": 2303711,
            "beginWay": "TALK_BEGIN_MANUAL",
            "activeMode": "PLAY_MODE_HOST",
            "beginCondComb": "LOGIC_A_AND_ETCOR",
            "beginCond": [
                {
                    "type": "QUEST_COND_STATE_EQUAL",
                    "param": [
                        "2303709",
                        "2"
                    ]
                },
                {
                    "type": "QUEST_COND_QUEST_VAR_EQUAL",
                    "param": [
                        "1",
                        "30",
                        "23037"
                    ]
                },
                {
                    "type": "QUEST_COND_QUEST_VAR_EQUAL",
                    "param": [
                        "2",
                        "30",
                        "23037"
                    ]
                },
                {
                    "type": "QUEST_COND_QUEST_VAR_EQUAL",
                    "param": [
                        "3",
                        "30",
                        "23037"
                    ]
                }
            ],
            "priority": 5,
            "initDialog": 230371101,
            "npcId": [
                4412
            ],
            "performCfg": "QuestDialogue/IQ/Sumeru_23037/Q2303711",
            "heroTalk": "TALK_HERO_MAIN",
            "questId": 23037,
            "assetIndex": 6585868869316046243,
            "prePerformCfg": "",
            "finishExec": [
                {
                    "type": "TALK_EXEC_INC_DAILY_TASK_VAR",
                    "param": [
                        "42340",
                        "4"
                    ]
                }
            ]
        },
        {
            "id": 2303712,
            "beginWay": "TALK_BEGIN_MANUAL",
            "activeMode": "PLAY_MODE_HOST",
            "beginCondComb": "LOGIC_AND",
            "beginCond": [
                {
                    "type": "QUEST_COND_STATE_EQUAL",
                    "param": [
                        "2303709",
                        "2"
                    ]
                },
                {
                    "type": "QUEST_COND_QUEST_VAR_LESS",
                    "param": [
                        "1",
                        "30",
                        "23037"
                    ]
                },
                {
                    "type": "QUEST_COND_QUEST_VAR_EQUAL",
                    "param": [
                        "0",
                        "1",
                        "23037"
                    ]
                }
            ],
            "priority": 5,
            "initDialog": 230371201,
            "npcId": [
                4412
            ],
            "performCfg": "QuestDialogue/IQ/Sumeru_23037/Q2303712",
            "heroTalk": "TALK_HERO_MAIN",
            "questId": 23037,
            "assetIndex": 3039150595887239361,
            "prePerformCfg": "",
            "finishExec": [
                {
                    "type": "TALK_EXEC_SET_DAILY_TASK_VAR",
                    "param": [
                        "42340",
                        "1",
                        "1"
                    ]
                },
                {
                    "type": "TALK_EXEC_SET_DAILY_TASK_VAR",
                    "param": [
                        "42340",
                        "0",
                        "1"
                    ]
                }
            ]
        },
        {
            "id": 2303714,
            "beginWay": "TALK_BEGIN_MANUAL",
            "activeMode": "PLAY_MODE_HOST",
            "beginCondComb": "LOGIC_AND",
            "beginCond": [
                {
                    "type": "QUEST_COND_STATE_EQUAL",
                    "param": [
                        "2303709",
                        "2"
                    ]
                },
                {
                    "type": "QUEST_COND_QUEST_VAR_LESS",
                    "param": [
                        "2",
                        "30",
                        "23037"
                    ]
                },
                {
                    "type": "QUEST_COND_QUEST_VAR_EQUAL",
                    "param": [
                        "0",
                        "2",
                        "23037"
                    ]
                }
            ],
            "priority": 5,
            "initDialog": 230371201,
            "npcId": [
                4412
            ],
            "performCfg": "QuestDialogue/IQ/Sumeru_23037/Q2303714",
            "heroTalk": "TALK_HERO_MAIN",
            "questId": 23037,
            "assetIndex": 1811239971414299992,
            "prePerformCfg": "",
            "finishExec": [
                {
                    "type": "TALK_EXEC_SET_DAILY_TASK_VAR",
                    "param": [
                        "42340",
                        "2",
                        "1"
                    ]
                },
                {
                    "type": "TALK_EXEC_SET_DAILY_TASK_VAR",
                    "param": [
                        "42340",
                        "0",
                        "1"
                    ]
                }
            ]
        },
        {
            "id": 2303715,
            "beginWay": "TALK_BEGIN_MANUAL",
            "activeMode": "PLAY_MODE_HOST",
            "beginCondComb": "LOGIC_AND",
            "beginCond": [
                {
                    "type": "QUEST_COND_STATE_EQUAL",
                    "param": [
                        "2303709",
                        "2"
                    ]
                },
                {
                    "type": "QUEST_COND_QUEST_VAR_LESS",
                    "param": [
                        "3",
                        "30",
                        "23037"
                    ]
                },
                {
                    "type": "QUEST_COND_QUEST_VAR_EQUAL",
                    "param": [
                        "0",
                        "3",
                        "23037"
                    ]
                }
            ],
            "priority": 5,
            "initDialog": 230371201,
            "npcId": [
                4412
            ],
            "performCfg": "QuestDialogue/IQ/Sumeru_23037/Q2303715",
            "heroTalk": "TALK_HERO_MAIN",
            "questId": 23037,
            "assetIndex": 11905388542785548434,
            "prePerformCfg": "",
            "finishExec": [
                {
                    "type": "TALK_EXEC_SET_DAILY_TASK_VAR",
                    "param": [
                        "42340",
                        "3",
                        "1"
                    ]
                },
                {
                    "type": "TALK_EXEC_SET_DAILY_TASK_VAR",
                    "param": [
                        "42340",
                        "0",
                        "1"
                    ]
                }
            ]
        }
    ],
    "freeStyleDic": {
        "4412": [
            1190
        ]
    }
}