{
    "id": 40055,
    "resId": 4011,
    "series": 10065,
    "type": "EQ",
    "titleTextMapHash": 2206237567,
    "luaPath": "Actor/Quest/EQ40055",
    "suggestTrackMainQuestList": [
        40056
    ],
    "rewardIdList": [
        140055
    ],
    "chapterId": 10065,
    "showRedPoint": true,
    "activityId": 2012,
    "subQuests": [
        {
            "subId": 4005501,
            "mainId": 40055,
            "order": 2,
            "descTextMapHash": 4112694796,
            "stepDescTextMapHash": 1745263557,
            "finishCond": [
                {
                    "type": "QUEST_CONTENT_FINISH_PLOT",
                    "param": [
                        4005501,
                        0
                    ]
                }
            ],
            "guide": {
                "type": "QUEST_GUIDE_LOCATION",
                "autoGuide": "QUEST_GUIDE_AUTO_ENABLE",
                "param": [
                    "Q4005501_MaTou01"
                ],
                "guideScene": 3,
                "guideStyle": "QUEST_GUIDE_STYLE_POINT",
                "guideLayer": "QUEST_GUIDE_LAYER_SCENE"
            },
            "guideHint": {
                "COLBFDGFKDJ": ""
            },
            "isRewind": true,
            "versionBegin": "",
            "versionEnd": ""
        },
        {
            "subId": 4005502,
            "mainId": 40055,
            "order": 3,
            "descTextMapHash": 3593093692,
            "stepDescTextMapHash": 3596829933,
            "finishCond": [
                {
                    "type": "QUEST_CONTENT_COMPLETE_TALK",
                    "param": [
                        4005501,
                        0
                    ]
                }
            ],
            "guide": {
                "type": "QUEST_GUIDE_NPC",
                "autoGuide": "QUEST_GUIDE_AUTO_ENABLE",
                "param": [
                    "3205"
                ],
                "guideScene": 3,
                "guideStyle": "QUEST_GUIDE_STYLE_TARGET",
                "guideLayer": "QUEST_GUIDE_LAYER_SCENE"
            },
            "guideHint": {
                "COLBFDGFKDJ": ""
            },
            "versionBegin": "",
            "versionEnd": ""
        },
        {
            "subId": 4005503,
            "mainId": 40055,
            "order": 4,
            "descTextMapHash": 3990101364,
            "stepDescTextMapHash": 4118600949,
            "ALGDOBKHJPL": [
                320905
            ],
            "finishCond": [
                {
                    "type": "QUEST_CONTENT_FINISH_PLOT",
                    "param": [
                        4005503,
                        0
                    ]
                }
            ],
            "guide": {
                "type": "QUEST_GUIDE_LOCATION",
                "autoGuide": "QUEST_GUIDE_AUTO_ENABLE",
                "param": [
                    "Q4005503_guide"
                ],
                "guideScene": 3,
                "guideStyle": "QUEST_GUIDE_STYLE_POINT",
                "guideLayer": "QUEST_GUIDE_LAYER_SCENE"
            },
            "guideHint": {
                "COLBFDGFKDJ": ""
            },
            "isRewind": true,
            "versionBegin": "",
            "versionEnd": ""
        },
        {
            "subId": 4005504,
            "mainId": 40055,
            "order": 5,
            "descTextMapHash": 29702212,
            "stepDescTextMapHash": 2059824189,
            "ALGDOBKHJPL": [
                320905
            ],
            "finishCond": [
                {
                    "type": "QUEST_CONTENT_COMPLETE_TALK",
                    "param": [
                        4005502,
                        0
                    ]
                }
            ],
            "guide": {
                "type": "QUEST_GUIDE_NPC",
                "autoGuide": "QUEST_GUIDE_AUTO_ENABLE",
                "param": [
                    "1018"
                ],
                "guideScene": 3,
                "guideStyle": "QUEST_GUIDE_STYLE_TARGET",
                "guideLayer": "QUEST_GUIDE_LAYER_SCENE"
            },
            "guideHint": {
                "COLBFDGFKDJ": ""
            },
            "versionBegin": "",
            "versionEnd": ""
        },
        {
            "subId": 4005505,
            "mainId": 40055,
            "order": 6,
            "descTextMapHash": 4178933940,
            "stepDescTextMapHash": 320068341,
            "ALGDOBKHJPL": [
                72279
            ],
            "finishCond": [
                {
                    "type": "QUEST_CONTENT_FINISH_PLOT",
                    "param": [
                        4005505,
                        0
                    ]
                }
            ],
            "guide": {
                "type": "QUEST_GUIDE_LOCATION",
                "autoGuide": "QUEST_GUIDE_AUTO_ENABLE",
                "param": [
                    "Q4005505_guide_YuanGuoJianSi"
                ],
                "guideScene": 3,
                "guideStyle": "QUEST_GUIDE_STYLE_POINT",
                "guideLayer": "QUEST_GUIDE_LAYER_SCENE"
            },
            "guideHint": {
                "COLBFDGFKDJ": ""
            },
            "isRewind": true,
            "versionBegin": "",
            "versionEnd": ""
        },
        {
            "subId": 4005506,
            "mainId": 40055,
            "order": 7,
            "descTextMapHash": 1183725180,
            "stepDescTextMapHash": 1448910397,
            "ALGDOBKHJPL": [
                72279
            ],
            "finishCond": [
                {
                    "type": "QUEST_CONTENT_COMPLETE_TALK",
                    "param": [
                        4005561,
                        0
                    ]
                },
                {
                    "type": "QUEST_CONTENT_COMPLETE_TALK",
                    "param": [
                        4005562,
                        0
                    ]
                }
            ],
            "guide": {
                "type": "QUEST_GUIDE_NPC",
                "autoGuide": "QUEST_GUIDE_AUTO_ENABLE",
                "param": [
                    "3190"
                ],
                "guideScene": 3,
                "guideStyle": "QUEST_GUIDE_STYLE_TARGET",
                "guideLayer": "QUEST_GUIDE_LAYER_SCENE"
            },
            "guideHint": {
                "COLBFDGFKDJ": ""
            },
            "versionBegin": "",
            "versionEnd": ""
        },
        {
            "subId": 4005507,
            "mainId": 40055,
            "order": 8,
            "descTextMapHash": 1557251372,
            "stepDescTextMapHash": 1848858765,
            "finishCond": [
                {
                    "type": "QUEST_CONTENT_FINISH_PLOT",
                    "param": [
                        4005507,
                        0
                    ]
                }
            ],
            "guide": {
                "type": "QUEST_GUIDE_LOCATION",
                "autoGuide": "QUEST_GUIDE_AUTO_ENABLE",
                "param": [
                    "Q4005507_guide"
                ],
                "guideScene": 3,
                "guideStyle": "QUEST_GUIDE_STYLE_POINT",
                "guideLayer": "QUEST_GUIDE_LAYER_SCENE"
            },
            "guideHint": {
                "COLBFDGFKDJ": ""
            },
            "isRewind": true,
            "versionBegin": "",
            "versionEnd": ""
        },
        {
            "subId": 4005508,
            "mainId": 40055,
            "order": 9,
            "descTextMapHash": 1108449588,
            "stepDescTextMapHash": 607772373,
            "finishCond": [
                {
                    "type": "QUEST_CONTENT_COMPLETE_TALK",
                    "param": [
                        4005565,
                        0
                    ]
                }
            ],
            "guide": {
                "type": "QUEST_GUIDE_NPC",
                "autoGuide": "QUEST_GUIDE_AUTO_ENABLE",
                "param": [
                    "1001"
                ],
                "guideScene": 3,
                "guideStyle": "QUEST_GUIDE_STYLE_TARGET",
                "guideLayer": "QUEST_GUIDE_LAYER_SCENE"
            },
            "guideHint": {
                "COLBFDGFKDJ": ""
            },
            "isRewind": true,
            "versionBegin": "",
            "versionEnd": ""
        },
        {
            "subId": 4005509,
            "mainId": 40055,
            "order": 10,
            "descTextMapHash": 2546673564,
            "stepDescTextMapHash": 1691231245,
            "finishCond": [
                {
                    "type": "QUEST_CONTENT_COMPLETE_TALK",
                    "param": [
                        4005505,
                        0
                    ]
                }
            ],
            "guide": {
                "type": "QUEST_GUIDE_NPC",
                "autoGuide": "QUEST_GUIDE_AUTO_ENABLE",
                "param": [
                    "3000"
                ],
                "guideScene": 3,
                "guideStyle": "QUEST_GUIDE_STYLE_TARGET",
                "guideLayer": "QUEST_GUIDE_LAYER_UI"
            },
            "guideHint": {
                "COLBFDGFKDJ": ""
            },
            "versionBegin": "",
            "versionEnd": ""
        },
        {
            "subId": 4005510,
            "mainId": 40055,
            "order": 1,
            "descTextMapHash": 3487779828,
            "stepDescTextMapHash": 3444594781,
            "finishCond": [
                {
                    "type": "QUEST_CONTENT_GAME_TIME_TICK",
                    "param": [
                        1,
                        0
                    ]
                }
            ],
            "guide": {
                "autoGuide": "QUEST_GUIDE_AUTO_ENABLE",
                "guideScene": 3,
                "guideLayer": "QUEST_GUIDE_LAYER_SCENE"
            },
            "guideHint": {
                "COLBFDGFKDJ": ""
            },
            "isRewind": true,
            "versionBegin": "",
            "versionEnd": ""
        },
        {
            "subId": 4005511,
            "mainId": 40055,
            "order": 11,
            "descTextMapHash": 2317065476,
            "stepDescTextMapHash": 2167081117,
            "finishCond": [
                {
                    "type": "QUEST_CONTENT_COMPLETE_TALK",
                    "param": [
                        4005510,
                        0
                    ]
                }
            ],
            "guide": {
                "type": "QUEST_GUIDE_NPC",
                "autoGuide": "QUEST_GUIDE_AUTO_ENABLE",
                "param": [
                    "1001"
                ],
                "guideScene": 3,
                "guideStyle": "QUEST_GUIDE_STYLE_TARGET",
                "guideLayer": "QUEST_GUIDE_LAYER_SCENE"
            },
            "guideHint": {
                "COLBFDGFKDJ": ""
            },
            "isRewind": true,
            "versionBegin": "",
            "versionEnd": ""
        },
        {
            "subId": 4005512,
            "mainId": 40055,
            "order": 12,
            "isMpBlock": true,
            "descTextMapHash": 1266536572,
            "stepDescTextMapHash": 1753615429,
            "showType": "QUEST_HIDDEN",
            "finishCond": [
                {
                    "type": "QUEST_CONTENT_FINISH_PLOT",
                    "param": [
                        4005512,
                        0
                    ]
                }
            ],
            "guide": {
                "autoGuide": "QUEST_GUIDE_AUTO_ENABLE",
                "guideScene": 3,
                "guideLayer": "QUEST_GUIDE_LAYER_SCENE"
            },
            "guideHint": {
                "COLBFDGFKDJ": ""
            },
            "versionBegin": "",
            "versionEnd": ""
        },
        {
            "subId": 4005513,
            "mainId": 40055,
            "order": 13,
            "descTextMapHash": 2352842780,
            "stepDescTextMapHash": 364869133,
            "ALGDOBKHJPL": [
                320905
            ],
            "finishCond": [
                {
                    "type": "QUEST_CONTENT_COMPLETE_TALK",
                    "param": [
                        4005511,
                        0
                    ]
                }
            ],
            "guide": {
                "type": "QUEST_GUIDE_NPC",
                "autoGuide": "QUEST_GUIDE_AUTO_ENABLE",
                "param": [
                    "1018"
                ],
                "guideScene": 3,
                "guideStyle": "QUEST_GUIDE_STYLE_TARGET",
                "guideLayer": "QUEST_GUIDE_LAYER_SCENE"
            },
            "guideHint": {
                "COLBFDGFKDJ": ""
            },
            "finishParent": true,
            "isRewind": true,
            "finishExec": [
                {
                    "type": "QUEST_EXEC_SET_QUEST_GLOBAL_VAR",
                    "param": [
                        "4005513",
                        "1"
                    ]
                }
            ],
            "versionBegin": "",
            "versionEnd": ""
        }
    ],
    "talks": [
        {
            "id": 4005501,
            "beginWay": "TALK_BEGIN_MANUAL",
            "beginCond": [
                {
                    "type": "QUEST_COND_STATE_EQUAL",
                    "param": [
                        "4005502",
                        "2"
                    ]
                }
            ],
            "priority": 5,
            "initDialog": 400550101,
            "npcId": [
                3205
            ],
            "performCfg": "QuestDialogue/EQ/RongCaiJi_40055/Q4005501",
            "heroTalk": "TALK_HERO_MAIN",
            "questId": 40055,
            "assetIndex": 9964768412127181620,
            "prePerformCfg": ""
        },
        {
            "id": 4005502,
            "beginWay": "TALK_BEGIN_MANUAL",
            "beginCond": [
                {
                    "type": "QUEST_COND_STATE_EQUAL",
                    "param": [
                        "4005504",
                        "2"
                    ]
                }
            ],
            "priority": 5,
            "initDialog": 400550201,
            "npcId": [
                1018
            ],
            "performCfg": "QuestDialogue/EQ/RongCaiJi_40055/Q4005502",
            "heroTalk": "TALK_HERO_MAIN",
            "questId": 40055,
            "assetIndex": 7250136877449167813,
            "prePerformCfg": ""
        },
        {
            "id": 4005503,
            "beginWay": "TALK_BEGIN_MANUAL",
            "beginCond": [
                {
                    "type": "QUEST_COND_STATE_EQUAL",
                    "param": [
                        "4005506",
                        "2"
                    ]
                }
            ],
            "priority": 5,
            "nextTalks": [
                4005561,
                4005562
            ],
            "initDialog": 400550301,
            "npcId": [
                3190
            ],
            "performCfg": "QuestDialogue/EQ/RongCaiJi_40055/Q4005503",
            "heroTalk": "TALK_HERO_MAIN",
            "questId": 40055,
            "assetIndex": 13593275360852093127,
            "prePerformCfg": ""
        },
        {
            "id": 4005504,
            "beginWay": "TALK_BEGIN_MANUAL",
            "beginCond": [
                {
                    "type": "QUEST_COND_STATE_EQUAL",
                    "param": [
                        "4005508",
                        "2"
                    ]
                }
            ],
            "priority": 5,
            "nextTalks": [
                4005563,
                4005564,
                4005565
            ],
            "initDialog": 400550401,
            "npcId": [
                1001
            ],
            "performCfg": "QuestDialogue/EQ/RongCaiJi_40055/Q4005504",
            "heroTalk": "TALK_HERO_MAIN",
            "questId": 40055,
            "assetIndex": 15832032163005047381,
            "prePerformCfg": ""
        },
        {
            "id": 4005505,
            "beginWay": "TALK_BEGIN_MANUAL",
            "beginCond": [
                {
                    "type": "QUEST_COND_STATE_EQUAL",
                    "param": [
                        "4005509",
                        "2"
                    ]
                }
            ],
            "priority": 5,
            "initDialog": 400550501,
            "npcId": [
                3000
            ],
            "performCfg": "QuestDialogue/EQ/RongCaiJi_40055/Q4005505",
            "heroTalk": "TALK_HERO_MAIN",
            "questId": 40055,
            "assetIndex": 12267602033921462947,
            "prePerformCfg": ""
        },
        {
            "id": 4005510,
            "beginWay": "TALK_BEGIN_MANUAL",
            "beginCond": [
                {
                    "type": "QUEST_COND_STATE_EQUAL",
                    "param": [
                        "4005511",
                        "2"
                    ]
                }
            ],
            "priority": 5,
            "initDialog": 400551001,
            "npcId": [
                1001
            ],
            "performCfg": "QuestDialogue/EQ/RongCaiJi_40055/Q4005510",
            "heroTalk": "TALK_HERO_MAIN",
            "questId": 40055,
            "assetIndex": 17998918553861633088,
            "prePerformCfg": ""
        },
        {
            "id": 4005511,
            "beginWay": "TALK_BEGIN_MANUAL",
            "beginCond": [
                {
                    "type": "QUEST_COND_STATE_EQUAL",
                    "param": [
                        "4005513",
                        "2"
                    ]
                }
            ],
            "priority": 5,
            "initDialog": 400551101,
            "npcId": [
                1018
            ],
            "performCfg": "QuestDialogue/EQ/RongCaiJi_40055/Q4005511",
            "heroTalk": "TALK_HERO_MAIN",
            "questId": 40055,
            "assetIndex": 4455269850428390942,
            "prePerformCfg": ""
        },
        {
            "id": 4005551,
            "beginWay": "TALK_BEGIN_MANUAL",
            "beginCondComb": "LOGIC_OR",
            "beginCond": [
                {
                    "type": "QUEST_COND_STATE_EQUAL",
                    "param": [
                        "4005507",
                        "2"
                    ]
                },
                {
                    "type": "QUEST_COND_STATE_EQUAL",
                    "param": [
                        "4005508",
                        "2"
                    ]
                },
                {
                    "type": "QUEST_COND_STATE_EQUAL",
                    "param": [
                        "4005509",
                        "2"
                    ]
                },
                {
                    "type": "QUEST_COND_STATE_EQUAL",
                    "param": [
                        "4005511",
                        "2"
                    ]
                }
            ],
            "priority": 5,
            "initDialog": 400555101,
            "npcId": [
                3190
            ],
            "performCfg": "QuestDialogue/EQ/RongCaiJi_40055/Q4005551",
            "heroTalk": "TALK_HERO_MAIN",
            "questId": 40055,
            "assetIndex": 3434018169646576815,
            "prePerformCfg": ""
        },
        {
            "id": 4005561,
            "beginCondComb": "LOGIC_AND",
            "beginCond": [
                {
                    "type": "QUEST_COND_STATE_EQUAL",
                    "param": [
                        "7280605",
                        "3"
                    ]
                },
                {
                    "type": "QUEST_COND_STATE_EQUAL",
                    "param": [
                        "4005506",
                        "2"
                    ]
                }
            ],
            "priority": 5,
            "initDialog": 400556101,
            "npcId": [
                1018
            ],
            "performCfg": "QuestDialogue/EQ/RongCaiJi_40055/Q4005561",
            "heroTalk": "TALK_HERO_MAIN",
            "questId": 40055,
            "assetIndex": 3461233465467106122,
            "prePerformCfg": ""
        },
        {
            "id": 4005562,
            "beginCondComb": "LOGIC_A_AND_ETCOR",
            "beginCond": [
                {
                    "type": "QUEST_COND_STATE_EQUAL",
                    "param": [
                        "4005506",
                        "2"
                    ]
                },
                {
                    "type": "QUEST_COND_STATE_NOT_EQUAL",
                    "param": [
                        "7280605",
                        "3"
                    ]
                },
                {
                    "type": "QUEST_COND_QUEST_NOT_RECEIVE",
                    "param": [
                        "7280605",
                        "1"
                    ]
                }
            ],
            "priority": 5,
            "initDialog": 400556201,
            "npcId": [
                1018
            ],
            "performCfg": "QuestDialogue/EQ/RongCaiJi_40055/Q4005562",
            "heroTalk": "TALK_HERO_MAIN",
            "questId": 40055,
            "assetIndex": 2379792896622910786,
            "prePerformCfg": ""
        },
        {
            "id": 4005563,
            "beginCondComb": "LOGIC_AND",
            "beginCond": [
                {
                    "type": "QUEST_COND_STATE_EQUAL",
                    "param": [
                        "4005508",
                        "2"
                    ]
                },
                {
                    "type": "QUEST_COND_QUEST_VAR_EQUAL",
                    "param": [
                        "1",
                        "0",
                        "40055"
                    ]
                }
            ],
            "priority": 5,
            "nextTalks": [
                4005564,
                4005565
            ],
            "initDialog": 400550461,
            "npcId": [
                1001
            ],
            "performCfg": "QuestDialogue/EQ/RongCaiJi_40055/Q4005563",
            "heroTalk": "TALK_HERO_MAIN",
            "questId": 40055,
            "assetIndex": 16115548113537739773,
            "prePerformCfg": "",
            "finishExec": [
                {
                    "type": "TALK_EXEC_SET_QUEST_VAR",
                    "param": [
                        "1",
                        "1",
                        "40055"
                    ]
                }
            ]
        },
        {
            "id": 4005564,
            "beginCondComb": "LOGIC_AND",
            "beginCond": [
                {
                    "type": "QUEST_COND_STATE_EQUAL",
                    "param": [
                        "4005508",
                        "2"
                    ]
                },
                {
                    "type": "QUEST_COND_QUEST_VAR_EQUAL",
                    "param": [
                        "2",
                        "0",
                        "40055"
                    ]
                }
            ],
            "priority": 5,
            "nextTalks": [
                4005563,
                4005565
            ],
            "initDialog": 400550464,
            "npcId": [
                1001
            ],
            "performCfg": "QuestDialogue/EQ/RongCaiJi_40055/Q4005564",
            "heroTalk": "TALK_HERO_MAIN",
            "questId": 40055,
            "assetIndex": 2036874775228315287,
            "prePerformCfg": "",
            "finishExec": [
                {
                    "type": "TALK_EXEC_SET_QUEST_VAR",
                    "param": [
                        "2",
                        "1",
                        "40055"
                    ]
                }
            ]
        },
        {
            "id": 4005565,
            "beginCond": [
                {
                    "type": "QUEST_COND_STATE_EQUAL",
                    "param": [
                        "4005508",
                        "2"
                    ]
                }
            ],
            "priority": 5,
            "initDialog": 400550467,
            "npcId": [
                1001
            ],
            "performCfg": "QuestDialogue/EQ/RongCaiJi_40055/Q4005565",
            "heroTalk": "TALK_HERO_MAIN",
            "questId": 40055,
            "assetIndex": 8338654923848985353,
            "prePerformCfg": ""
        }
    ],
    "preloadLuaList": [
        3088369788188086520,
        16702024264963333360,
        11895471879203894357,
        8409694289423226805,
        340489329711320979,
        16278285134930646778,
        14011456015293666876
    ],
    "GDLCBECFGJO": [
        11380748272496861581
    ],
    "freeStyleDic": {
        "3190": [
            1171
        ],
        "3030": [
            1172
        ],
        "3029": [
            1120
        ],
        "1001": [
            1240,
            1280
        ],
        "1038": [
            1120
        ]
    }
}