{
    "id": 41312,
    "resId": 4003,
    "series": 10018,
    "type": "EQ",
    "titleTextMapHash": 2170475527,
    "descTextMapHash": 2819604518,
    "luaPath": "Actor/Quest/EQ41312",
    "suggestTrackMainQuestList": [
        41313
    ],
    "rewardIdList": [
        141312
    ],
    "chapterId": 10019,
    "showRedPoint": true,
    "subQuests": [
        {
            "subId": 4131201,
            "mainId": 41312,
            "order": 1,
            "descTextMapHash": 2934382652,
            "finishCond": [
                {
                    "type": "QUEST_CONTENT_COMPLETE_TALK",
                    "param": [
                        4131201,
                        0
                    ]
                }
            ],
            "guide": {
                "type": "QUEST_GUIDE_NPC",
                "param": [
                    "30039"
                ],
                "guideScene": 3,
                "guideStyle": "QUEST_GUIDE_STYLE_TARGET",
                "guideLayer": "QUEST_GUIDE_LAYER_SCENE"
            },
            "guideHint": {
                "COLBFDGFKDJ": ""
            },
            "isRewind": true,
            "finishExec": [
                {
                    "type": "QUEST_EXEC_REFRESH_GROUP_SUITE",
                    "param": [
                        "3",
                        "133107149,1;133107150,1;133104474,2"
                    ]
                }
            ],
            "versionBegin": "",
            "versionEnd": ""
        },
        {
            "subId": 4131202,
            "mainId": 41312,
            "order": 4,
            "isMpBlock": true,
            "descTextMapHash": 3110684588,
            "finishCond": [
                {
                    "type": "QUEST_CONTENT_LUA_NOTIFY",
                    "param": [
                        0,
                        0
                    ],
                    "count": 1
                }
            ],
            "guide": {
                "type": "QUEST_GUIDE_LOCATION",
                "param": [
                    "Q40002Target3",
                    "30"
                ],
                "guideScene": 3,
                "guideStyle": "QUEST_GUIDE_STYLE_POINT",
                "guideLayer": "QUEST_GUIDE_LAYER_SCENE"
            },
            "guideHint": {
                "COLBFDGFKDJ": ""
            },
            "versionBegin": "",
            "versionEnd": ""
        },
        {
            "subId": 4131203,
            "mainId": 41312,
            "order": 2,
            "isMpBlock": true,
            "descTextMapHash": 1206184108,
            "finishCond": [
                {
                    "type": "QUEST_CONTENT_OBTAIN_ITEM",
                    "param": [
                        100238,
                        0
                    ],
                    "count": 1
                }
            ],
            "guide": {
                "type": "QUEST_GUIDE_LOCATION",
                "param": [
                    "Q40002Target4",
                    "30"
                ],
                "guideScene": 3,
                "guideStyle": "QUEST_GUIDE_STYLE_POINT",
                "guideLayer": "QUEST_GUIDE_LAYER_SCENE"
            },
            "guideHint": {
                "COLBFDGFKDJ": ""
            },
            "finishExec": [
                {
                    "type": "QUEST_EXEC_ADD_QUEST_PROGRESS",
                    "param": [
                        "413120401",
                        "1"
                    ]
                }
            ],
            "versionBegin": "",
            "versionEnd": ""
        },
        {
            "subId": 4131204,
            "mainId": 41312,
            "order": 5,
            "descTextMapHash": 3815351980,
            "showType": "QUEST_HIDDEN",
            "finishCond": [
                {
                    "type": "QUEST_CONTENT_ADD_QUEST_PROGRESS",
                    "param": [
                        413120401,
                        0
                    ],
                    "count": 2
                }
            ],
            "guide": {},
            "guideHint": {
                "COLBFDGFKDJ": ""
            },
            "isRewind": true,
            "versionBegin": "",
            "versionEnd": ""
        },
        {
            "subId": 4131205,
            "mainId": 41312,
            "order": 6,
            "descTextMapHash": 1305894916,
            "finishCond": [
                {
                    "type": "QUEST_CONTENT_COMPLETE_TALK",
                    "param": [
                        4131205,
                        0
                    ]
                }
            ],
            "guide": {
                "type": "QUEST_GUIDE_NPC",
                "param": [
                    "30039"
                ],
                "guideScene": 3,
                "guideStyle": "QUEST_GUIDE_STYLE_TARGET",
                "guideLayer": "QUEST_GUIDE_LAYER_SCENE"
            },
            "guideHint": {
                "COLBFDGFKDJ": ""
            },
            "isRewind": true,
            "finishExec": [
                {
                    "type": "QUEST_EXEC_REFRESH_GROUP_SUITE",
                    "param": [
                        "3",
                        "133107149,3;133107150,2;133104474,1"
                    ]
                },
                {
                    "type": "QUEST_EXEC_DEL_ALL_SPECIFIC_PACK_ITEM",
                    "param": [
                        "100237,100238"
                    ]
                }
            ],
            "versionBegin": "",
            "versionEnd": ""
        },
        {
            "subId": 4131206,
            "mainId": 41312,
            "order": 8,
            "descTextMapHash": 3353091700,
            "finishCond": [
                {
                    "type": "QUEST_CONTENT_FINISH_PLOT",
                    "param": [
                        4131206,
                        0
                    ]
                }
            ],
            "guide": {
                "type": "QUEST_GUIDE_LOCATION",
                "param": [
                    "Q4000307_Player"
                ],
                "guideScene": 3,
                "guideStyle": "QUEST_GUIDE_STYLE_POINT",
                "guideLayer": "QUEST_GUIDE_LAYER_SCENE"
            },
            "guideHint": {
                "COLBFDGFKDJ": ""
            },
            "isRewind": true,
            "versionBegin": "",
            "versionEnd": ""
        },
        {
            "subId": 4131207,
            "mainId": 41312,
            "order": 32,
            "descTextMapHash": 3289956260,
            "finishCond": [
                {
                    "type": "QUEST_CONTENT_FINISH_PLOT",
                    "param": [
                        4131207,
                        0
                    ]
                }
            ],
            "guide": {
                "type": "QUEST_GUIDE_LOCATION",
                "param": [
                    "Q4131212Thief"
                ],
                "guideScene": 3,
                "guideStyle": "QUEST_GUIDE_STYLE_POINT",
                "guideLayer": "QUEST_GUIDE_LAYER_SCENE"
            },
            "guideHint": {
                "COLBFDGFKDJ": ""
            },
            "isRewind": true,
            "finishExec": [
                {
                    "type": "QUEST_EXEC_UNREGISTER_DYNAMIC_GROUP",
                    "param": [
                        "133107947"
                    ]
                }
            ],
            "versionBegin": "",
            "versionEnd": ""
        },
        {
            "subId": 4131208,
            "mainId": 41312,
            "order": 9,
            "descTextMapHash": 3052819676,
            "finishCond": [
                {
                    "type": "QUEST_CONTENT_COMPLETE_TALK",
                    "param": [
                        4131208,
                        0
                    ]
                }
            ],
            "guide": {
                "type": "QUEST_GUIDE_NPC",
                "param": [
                    "10205"
                ],
                "guideScene": 3,
                "guideStyle": "QUEST_GUIDE_STYLE_TARGET",
                "guideLayer": "QUEST_GUIDE_LAYER_SCENE"
            },
            "guideHint": {
                "COLBFDGFKDJ": ""
            },
            "isRewind": true,
            "versionBegin": "",
            "versionEnd": ""
        },
        {
            "subId": 4131209,
            "mainId": 41312,
            "order": 10,
            "descTextMapHash": 2896017636,
            "showType": "QUEST_HIDDEN",
            "finishCond": [
                {
                    "type": "QUEST_CONTENT_INTERACT_GADGET",
                    "param": [
                        70710041,
                        0
                    ],
                    "count": 1
                }
            ],
            "guide": {},
            "guideHint": {
                "COLBFDGFKDJ": ""
            },
            "finishExec": [
                {
                    "type": "QUEST_EXEC_ADD_QUEST_PROGRESS",
                    "param": [
                        "413123201",
                        "1"
                    ]
                }
            ],
            "versionBegin": "",
            "versionEnd": ""
        },
        {
            "subId": 4131210,
            "mainId": 41312,
            "order": 16,
            "isMpBlock": true,
            "descTextMapHash": 1752777124,
            "finishCond": [
                {
                    "type": "QUEST_CONTENT_INTERACT_GADGET",
                    "param": [
                        70710303,
                        0
                    ],
                    "count": 1
                }
            ],
            "guide": {
                "type": "QUEST_GUIDE_LOCATION",
                "param": [
                    "Q40003Xiao",
                    "40"
                ],
                "guideScene": 3,
                "guideStyle": "QUEST_GUIDE_STYLE_POINT",
                "guideLayer": "QUEST_GUIDE_LAYER_SCENE"
            },
            "guideHint": {
                "COLBFDGFKDJ": ""
            },
            "isRewind": true,
            "versionBegin": "",
            "versionEnd": ""
        },
        {
            "subId": 4131211,
            "mainId": 41312,
            "order": 17,
            "descTextMapHash": 4065673204,
            "finishCond": [
                {
                    "type": "QUEST_CONTENT_COMPLETE_TALK",
                    "param": [
                        4131211,
                        0
                    ]
                }
            ],
            "guide": {
                "type": "QUEST_GUIDE_NPC",
                "param": [
                    "30039"
                ]
            },
            "guideHint": {
                "COLBFDGFKDJ": ""
            },
            "isRewind": true,
            "versionBegin": "",
            "versionEnd": ""
        },
        {
            "subId": 4131212,
            "mainId": 41312,
            "order": 33,
            "isMpBlock": true,
            "descTextMapHash": 382403900,
            "finishCond": [
                {
                    "type": "QUEST_CONTENT_COMPLETE_TALK",
                    "param": [
                        4131212,
                        0
                    ]
                }
            ],
            "guide": {
                "type": "QUEST_GUIDE_NPC",
                "param": [
                    "10205"
                ],
                "guideScene": 3,
                "guideStyle": "QUEST_GUIDE_STYLE_TARGET",
                "guideLayer": "QUEST_GUIDE_LAYER_SCENE"
            },
            "guideHint": {
                "COLBFDGFKDJ": ""
            },
            "versionBegin": "",
            "versionEnd": ""
        },
        {
            "subId": 4131213,
            "mainId": 41312,
            "order": 34,
            "isMpBlock": true,
            "descTextMapHash": 924285260,
            "finishCond": [
                {
                    "type": "QUEST_CONTENT_LUA_NOTIFY",
                    "param": [
                        0,
                        0
                    ],
                    "count": 1
                }
            ],
            "guide": {
                "type": "QUEST_GUIDE_LOCATION",
                "param": [
                    "Q4131212Thief",
                    "30"
                ],
                "guideScene": 3,
                "guideStyle": "QUEST_GUIDE_STYLE_POINT",
                "guideLayer": "QUEST_GUIDE_LAYER_SCENE"
            },
            "guideHint": {
                "COLBFDGFKDJ": ""
            },
            "versionBegin": "",
            "versionEnd": ""
        },
        {
            "subId": 4131214,
            "mainId": 41312,
            "order": 15,
            "isMpBlock": true,
            "descTextMapHash": 1624749732,
            "finishCond": [
                {
                    "type": "QUEST_CONTENT_COMPLETE_TALK",
                    "param": [
                        4131214,
                        0
                    ]
                }
            ],
            "guide": {
                "type": "QUEST_GUIDE_NPC",
                "param": [
                    "1005"
                ],
                "guideScene": 3,
                "guideStyle": "QUEST_GUIDE_STYLE_TARGET",
                "guideLayer": "QUEST_GUIDE_LAYER_SCENE"
            },
            "guideHint": {
                "COLBFDGFKDJ": ""
            },
            "isRewind": true,
            "versionBegin": "",
            "versionEnd": ""
        },
        {
            "subId": 4131215,
            "mainId": 41312,
            "order": 18,
            "descTextMapHash": 3612436844,
            "finishCond": [
                {
                    "type": "QUEST_CONTENT_COMPLETE_TALK",
                    "param": [
                        4131215,
                        0
                    ]
                }
            ],
            "guide": {
                "type": "QUEST_GUIDE_NPC",
                "param": [
                    "205601"
                ],
                "guideScene": 3,
                "guideStyle": "QUEST_GUIDE_STYLE_TARGET",
                "guideLayer": "QUEST_GUIDE_LAYER_SCENE"
            },
            "guideHint": {
                "COLBFDGFKDJ": ""
            },
            "isRewind": true,
            "versionBegin": "",
            "versionEnd": ""
        },
        {
            "subId": 4131216,
            "mainId": 41312,
            "order": 19,
            "isMpBlock": true,
            "descTextMapHash": 2500821084,
            "finishCond": [
                {
                    "type": "QUEST_CONTENT_FINISH_PLOT",
                    "param": [
                        4131216,
                        0
                    ]
                },
                {
                    "type": "QUEST_CONTENT_LUA_NOTIFY",
                    "param": [
                        0,
                        0
                    ],
                    "count": 1
                }
            ],
            "guide": {
                "type": "QUEST_GUIDE_LOCATION",
                "param": [
                    "Q40003Target1",
                    "40"
                ],
                "guideScene": 3,
                "guideStyle": "QUEST_GUIDE_STYLE_POINT",
                "guideLayer": "QUEST_GUIDE_LAYER_SCENE"
            },
            "guideHint": {
                "COLBFDGFKDJ": ""
            },
            "isRewind": true,
            "versionBegin": "",
            "versionEnd": ""
        },
        {
            "subId": 4131217,
            "mainId": 41312,
            "order": 20,
            "isMpBlock": true,
            "descTextMapHash": 1695860076,
            "finishCond": [
                {
                    "type": "QUEST_CONTENT_LUA_NOTIFY",
                    "param": [
                        0,
                        0
                    ],
                    "count": 1
                }
            ],
            "guide": {
                "type": "QUEST_GUIDE_LOCATION",
                "param": [
                    "Q40003Target1",
                    "40"
                ],
                "guideScene": 3,
                "guideStyle": "QUEST_GUIDE_STYLE_POINT",
                "guideLayer": "QUEST_GUIDE_LAYER_SCENE"
            },
            "guideHint": {
                "COLBFDGFKDJ": ""
            },
            "versionBegin": "",
            "versionEnd": ""
        },
        {
            "subId": 4131218,
            "mainId": 41312,
            "order": 22,
            "isMpBlock": true,
            "descTextMapHash": 2139098172,
            "finishCond": [
                {
                    "type": "QUEST_CONTENT_COMPLETE_TALK",
                    "param": [
                        4131218,
                        0
                    ]
                }
            ],
            "guide": {
                "type": "QUEST_GUIDE_NPC",
                "param": [
                    "242801"
                ],
                "guideScene": 3,
                "guideStyle": "QUEST_GUIDE_STYLE_TARGET",
                "guideLayer": "QUEST_GUIDE_LAYER_SCENE"
            },
            "guideHint": {
                "COLBFDGFKDJ": ""
            },
            "isRewind": true,
            "versionBegin": "",
            "versionEnd": ""
        },
        {
            "subId": 4131219,
            "mainId": 41312,
            "order": 23,
            "descTextMapHash": 3343880276,
            "stepDescTextMapHash": 444424077,
            "finishCond": [
                {
                    "type": "QUEST_CONTENT_FINISH_PLOT",
                    "param": [
                        4131219,
                        0
                    ]
                }
            ],
            "guide": {
                "type": "QUEST_GUIDE_LOCATION",
                "param": [
                    "Q40002Target1"
                ],
                "guideScene": 3,
                "guideStyle": "QUEST_GUIDE_STYLE_POINT",
                "guideLayer": "QUEST_GUIDE_LAYER_SCENE"
            },
            "guideHint": {
                "COLBFDGFKDJ": ""
            },
            "isRewind": true,
            "finishExec": [
                {
                    "type": "QUEST_EXEC_UNREGISTER_DYNAMIC_GROUP",
                    "param": [
                        "133104919"
                    ]
                },
                {
                    "type": "QUEST_EXEC_REFRESH_GROUP_SUITE",
                    "param": [
                        "3",
                        "133104006,1"
                    ]
                }
            ],
            "versionBegin": "",
            "versionEnd": ""
        },
        {
            "subId": 4131220,
            "mainId": 41312,
            "order": 24,
            "descTextMapHash": 1885474388,
            "showType": "QUEST_HIDDEN",
            "finishCond": [
                {
                    "type": "QUEST_CONTENT_COMPLETE_TALK",
                    "param": [
                        4131220,
                        0
                    ]
                }
            ],
            "guide": {
                "type": "QUEST_GUIDE_NPC",
                "param": [
                    "1005"
                ],
                "guideScene": 3,
                "guideStyle": "QUEST_GUIDE_STYLE_TARGET",
                "guideLayer": "QUEST_GUIDE_LAYER_SCENE"
            },
            "guideHint": {
                "COLBFDGFKDJ": ""
            },
            "versionBegin": "",
            "versionEnd": ""
        },
        {
            "subId": 4131221,
            "mainId": 41312,
            "order": 25,
            "descTextMapHash": 2723854836,
            "finishCond": [
                {
                    "type": "QUEST_CONTENT_COMPLETE_TALK",
                    "param": [
                        4131221,
                        0
                    ]
                }
            ],
            "guide": {
                "type": "QUEST_GUIDE_NPC",
                "param": [
                    " 10204"
                ],
                "guideScene": 3,
                "guideStyle": "QUEST_GUIDE_STYLE_TARGET",
                "guideLayer": "QUEST_GUIDE_LAYER_SCENE"
            },
            "guideHint": {
                "COLBFDGFKDJ": ""
            },
            "isRewind": true,
            "versionBegin": "",
            "versionEnd": ""
        },
        {
            "subId": 4131222,
            "mainId": 41312,
            "order": 36,
            "descTextMapHash": 1818006908,
            "finishCond": [
                {
                    "type": "QUEST_CONTENT_COMPLETE_TALK",
                    "param": [
                        4131222,
                        0
                    ]
                }
            ],
            "guide": {
                "type": "QUEST_GUIDE_NPC",
                "param": [
                    "205601"
                ],
                "guideScene": 3,
                "guideStyle": "QUEST_GUIDE_STYLE_TARGET",
                "guideLayer": "QUEST_GUIDE_LAYER_SCENE"
            },
            "guideHint": {
                "COLBFDGFKDJ": ""
            },
            "finishParent": true,
            "isRewind": true,
            "finishExec": [
                {
                    "type": "QUEST_EXEC_UNREGISTER_DYNAMIC_GROUP",
                    "param": [
                        "133107903"
                    ]
                }
            ],
            "versionBegin": "",
            "versionEnd": ""
        },
        {
            "subId": 4131223,
            "mainId": 41312,
            "order": 26,
            "descTextMapHash": 1906639132,
            "finishCond": [
                {
                    "type": "QUEST_CONTENT_COMPLETE_TALK",
                    "param": [
                        4131223,
                        0
                    ]
                }
            ],
            "guide": {
                "type": "QUEST_GUIDE_NPC",
                "param": [
                    "1004"
                ],
                "guideScene": 3,
                "guideStyle": "QUEST_GUIDE_STYLE_TARGET",
                "guideLayer": "QUEST_GUIDE_LAYER_SCENE"
            },
            "guideHint": {
                "COLBFDGFKDJ": ""
            },
            "isRewind": true,
            "versionBegin": "",
            "versionEnd": ""
        },
        {
            "subId": 4131224,
            "mainId": 41312,
            "order": 27,
            "descTextMapHash": 1248477484,
            "finishCond": [
                {
                    "type": "QUEST_CONTENT_COMPLETE_TALK",
                    "param": [
                        4131224,
                        0
                    ]
                }
            ],
            "guide": {
                "type": "QUEST_GUIDE_NPC",
                "param": [
                    "146101"
                ],
                "guideScene": 3,
                "guideStyle": "QUEST_GUIDE_STYLE_TARGET",
                "guideLayer": "QUEST_GUIDE_LAYER_SCENE"
            },
            "guideHint": {
                "COLBFDGFKDJ": ""
            },
            "isRewind": true,
            "versionBegin": "",
            "versionEnd": ""
        },
        {
            "subId": 4131225,
            "mainId": 41312,
            "order": 28,
            "descTextMapHash": 1075971932,
            "finishCond": [
                {
                    "type": "QUEST_CONTENT_FINISH_PLOT",
                    "param": [
                        4131225,
                        0
                    ]
                }
            ],
            "guide": {
                "type": "QUEST_GUIDE_LOCATION",
                "param": [
                    "Q40004Target2",
                    "80"
                ],
                "guideScene": 3,
                "guideStyle": "QUEST_GUIDE_STYLE_POINT",
                "guideLayer": "QUEST_GUIDE_LAYER_SCENE"
            },
            "guideHint": {
                "COLBFDGFKDJ": ""
            },
            "isRewind": true,
            "versionBegin": "",
            "versionEnd": ""
        },
        {
            "subId": 4131226,
            "mainId": 41312,
            "order": 29,
            "isMpBlock": true,
            "descTextMapHash": 186027364,
            "finishCond": [
                {
                    "type": "QUEST_CONTENT_COMPLETE_TALK",
                    "param": [
                        4131225,
                        0
                    ]
                }
            ],
            "guide": {
                "type": "QUEST_GUIDE_NPC",
                "param": [
                    "10207"
                ],
                "guideScene": 3,
                "guideStyle": "QUEST_GUIDE_STYLE_TARGET",
                "guideLayer": "QUEST_GUIDE_LAYER_SCENE"
            },
            "guideHint": {
                "COLBFDGFKDJ": ""
            },
            "versionBegin": "",
            "versionEnd": ""
        },
        {
            "subId": 4131227,
            "mainId": 41312,
            "order": 30,
            "isMpBlock": true,
            "descTextMapHash": 1010968260,
            "finishCond": [
                {
                    "type": "QUEST_CONTENT_LUA_NOTIFY",
                    "param": [
                        0,
                        0
                    ],
                    "count": 1
                }
            ],
            "failCond": [
                {
                    "type": "QUEST_CONTENT_NOT_FINISH_PLOT",
                    "param": [
                        4131227,
                        0
                    ]
                },
                {
                    "type": "QUEST_CONTENT_ANY_MANUAL_TRANSPORT",
                    "param": [
                        0,
                        0
                    ]
                },
                {
                    "type": "QUEST_CONTENT_ENTER_MY_WORLD",
                    "param": [
                        3,
                        0
                    ]
                }
            ],
            "guide": {
                "type": "QUEST_GUIDE_LOCATION",
                "param": [
                    "Q40004Thoarder1",
                    "50"
                ],
                "guideScene": 3,
                "guideStyle": "QUEST_GUIDE_STYLE_POINT",
                "guideLayer": "QUEST_GUIDE_LAYER_SCENE"
            },
            "guideHint": {
                "COLBFDGFKDJ": ""
            },
            "failExec": [
                {
                    "type": "QUEST_EXEC_ROLLBACK_QUEST",
                    "param": [
                        "4131225"
                    ]
                },
                {
                    "type": "QUEST_EXEC_REMOVE_TRIAL_AVATAR",
                    "param": [
                        "16"
                    ]
                }
            ],
            "versionBegin": "",
            "versionEnd": ""
        },
        {
            "subId": 4131228,
            "mainId": 41312,
            "order": 31,
            "isMpBlock": true,
            "descTextMapHash": 1980925900,
            "finishCond": [
                {
                    "type": "QUEST_CONTENT_COMPLETE_TALK",
                    "param": [
                        4131227,
                        0
                    ]
                }
            ],
            "guide": {
                "type": "QUEST_GUIDE_NPC",
                "param": [
                    "10207"
                ],
                "guideScene": 3,
                "guideStyle": "QUEST_GUIDE_STYLE_TARGET",
                "guideLayer": "QUEST_GUIDE_LAYER_SCENE"
            },
            "guideHint": {
                "COLBFDGFKDJ": ""
            },
            "isRewind": true,
            "versionBegin": "",
            "versionEnd": ""
        },
        {
            "subId": 4131229,
            "mainId": 41312,
            "order": 35,
            "isMpBlock": true,
            "descTextMapHash": 3060656052,
            "finishCond": [
                {
                    "type": "QUEST_CONTENT_COMPLETE_TALK",
                    "param": [
                        4131229,
                        0
                    ]
                }
            ],
            "guide": {
                "type": "QUEST_GUIDE_NPC",
                "param": [
                    "10205"
                ],
                "guideScene": 3,
                "guideStyle": "QUEST_GUIDE_STYLE_TARGET",
                "guideLayer": "QUEST_GUIDE_LAYER_SCENE"
            },
            "guideHint": {
                "COLBFDGFKDJ": ""
            },
            "isRewind": true,
            "finishExec": [
                {
                    "type": "QUEST_EXEC_REFRESH_GROUP_SUITE",
                    "param": [
                        "3",
                        "302002902,3"
                    ]
                }
            ],
            "versionBegin": "",
            "versionEnd": ""
        },
        {
            "subId": 4131230,
            "mainId": 41312,
            "order": 11,
            "descTextMapHash": 1570596164,
            "showType": "QUEST_HIDDEN",
            "finishCond": [
                {
                    "type": "QUEST_CONTENT_INTERACT_GADGET",
                    "param": [
                        70710042,
                        0
                    ],
                    "count": 1
                }
            ],
            "guide": {},
            "guideHint": {
                "COLBFDGFKDJ": ""
            },
            "finishExec": [
                {
                    "type": "QUEST_EXEC_ADD_QUEST_PROGRESS",
                    "param": [
                        "413123201",
                        "1"
                    ]
                }
            ],
            "versionBegin": "",
            "versionEnd": ""
        },
        {
            "subId": 4131231,
            "mainId": 41312,
            "order": 12,
            "descTextMapHash": 814329052,
            "showType": "QUEST_HIDDEN",
            "finishCond": [
                {
                    "type": "QUEST_CONTENT_INTERACT_GADGET",
                    "param": [
                        70710043,
                        0
                    ],
                    "count": 1
                }
            ],
            "guide": {},
            "guideHint": {
                "COLBFDGFKDJ": ""
            },
            "finishExec": [
                {
                    "type": "QUEST_EXEC_ADD_QUEST_PROGRESS",
                    "param": [
                        "413123201",
                        "1"
                    ]
                }
            ],
            "versionBegin": "",
            "versionEnd": ""
        },
        {
            "subId": 4131232,
            "mainId": 41312,
            "order": 13,
            "subIdSet": 1,
            "isMpBlock": true,
            "descTextMapHash": 2923899548,
            "stepDescTextMapHash": 3622856037,
            "finishCond": [
                {
                    "type": "QUEST_CONTENT_ADD_QUEST_PROGRESS",
                    "param": [
                        413123201,
                        0
                    ],
                    "count": 3
                }
            ],
            "guide": {
                "type": "QUEST_GUIDE_LOCATION",
                "param": [
                    "Q40003Xiao",
                    "40"
                ],
                "guideScene": 3,
                "guideStyle": "QUEST_GUIDE_STYLE_POINT",
                "guideLayer": "QUEST_GUIDE_LAYER_SCENE"
            },
            "guideHint": {
                "COLBFDGFKDJ": ""
            },
            "isRewind": true,
            "finishExec": [
                {
                    "type": "QUEST_EXEC_ADD_QUEST_PROGRESS",
                    "param": [
                        "413123301",
                        "1"
                    ]
                }
            ],
            "versionBegin": "",
            "versionEnd": ""
        },
        {
            "subId": 4131233,
            "mainId": 41312,
            "order": 14,
            "descTextMapHash": 2086233852,
            "showType": "QUEST_HIDDEN",
            "finishCond": [
                {
                    "type": "QUEST_CONTENT_ADD_QUEST_PROGRESS",
                    "param": [
                        413123301,
                        0
                    ],
                    "count": 1
                }
            ],
            "guide": {},
            "guideHint": {
                "COLBFDGFKDJ": ""
            },
            "isRewind": true,
            "versionBegin": "",
            "versionEnd": ""
        },
        {
            "subId": 4131234,
            "mainId": 41312,
            "order": 21,
            "isMpBlock": true,
            "descTextMapHash": 1365241516,
            "finishCond": [
                {
                    "type": "QUEST_CONTENT_LUA_NOTIFY",
                    "param": [
                        0,
                        0
                    ],
                    "count": 1
                }
            ],
            "guide": {
                "type": "QUEST_GUIDE_LOCATION",
                "param": [
                    "Q40003Target1",
                    "40"
                ],
                "guideScene": 3,
                "guideStyle": "QUEST_GUIDE_STYLE_POINT",
                "guideLayer": "QUEST_GUIDE_LAYER_SCENE"
            },
            "guideHint": {
                "COLBFDGFKDJ": ""
            },
            "versionBegin": "",
            "versionEnd": ""
        },
        {
            "subId": 4131235,
            "mainId": 41312,
            "order": 7,
            "descTextMapHash": 9281524,
            "showType": "QUEST_HIDDEN",
            "finishCond": [
                {
                    "type": "QUEST_CONTENT_COMPLETE_TALK",
                    "param": [
                        4131218,
                        0
                    ]
                }
            ],
            "guide": {
                "type": "QUEST_GUIDE_NPC",
                "param": [
                    "10205"
                ],
                "guideScene": 3,
                "guideStyle": "QUEST_GUIDE_STYLE_TARGET",
                "guideLayer": "QUEST_GUIDE_LAYER_SCENE"
            },
            "guideHint": {
                "COLBFDGFKDJ": ""
            },
            "versionBegin": "",
            "versionEnd": ""
        },
        {
            "subId": 4131236,
            "mainId": 41312,
            "order": 3,
            "isMpBlock": true,
            "descTextMapHash": 1373424172,
            "finishCond": [
                {
                    "type": "QUEST_CONTENT_LUA_NOTIFY",
                    "param": [
                        0,
                        0
                    ],
                    "count": 1
                }
            ],
            "guide": {
                "type": "QUEST_GUIDE_LOCATION",
                "param": [
                    "Q4131236Target"
                ],
                "guideScene": 3,
                "guideStyle": "QUEST_GUIDE_STYLE_TARGET",
                "guideLayer": "QUEST_GUIDE_LAYER_SCENE"
            },
            "showGuide": "QUEST_GUIDE_ITEM_DISABLE",
            "guideHint": {
                "COLBFDGFKDJ": ""
            },
            "finishExec": [
                {
                    "type": "QUEST_EXEC_ADD_QUEST_PROGRESS",
                    "param": [
                        "413120401",
                        "1"
                    ]
                }
            ],
            "versionBegin": "",
            "versionEnd": ""
        }
    ],
    "talks": [
        {
            "id": 4131201,
            "beginWay": "TALK_BEGIN_MANUAL",
            "beginCond": [
                {
                    "type": "QUEST_COND_STATE_EQUAL",
                    "param": [
                        "4131201",
                        "2"
                    ]
                }
            ],
            "priority": 5,
            "initDialog": 413120101,
            "npcId": [
                30039
            ],
            "performCfg": "QuestDialogue/EQ/Sealamp2_41312/Q4131201",
            "heroTalk": "TALK_HERO_MAIN",
            "questId": 41312,
            "assetIndex": 3665906667445741247,
            "prePerformCfg": ""
        },
        {
            "id": 4131205,
            "beginWay": "TALK_BEGIN_MANUAL",
            "beginCond": [
                {
                    "type": "QUEST_COND_STATE_EQUAL",
                    "param": [
                        "4131205",
                        "2"
                    ]
                }
            ],
            "priority": 5,
            "initDialog": 413120501,
            "npcId": [
                30039
            ],
            "performCfg": "QuestDialogue/EQ/Sealamp2_41312/Q4131205",
            "heroTalk": "TALK_HERO_MAIN",
            "questId": 41312,
            "assetIndex": 1145158681374298202,
            "prePerformCfg": ""
        },
        {
            "id": 4131208,
            "beginWay": "TALK_BEGIN_MANUAL",
            "beginCond": [
                {
                    "type": "QUEST_COND_STATE_EQUAL",
                    "param": [
                        "4131208",
                        "2"
                    ]
                }
            ],
            "priority": 6,
            "initDialog": 400020801,
            "npcId": [
                10205
            ],
            "performCfg": "QuestDialogue/EQ/Sealamp2_41312/Q4131208",
            "heroTalk": "TALK_HERO_MAIN",
            "questId": 41312,
            "assetIndex": 2458000411177154268,
            "prePerformCfg": ""
        },
        {
            "id": 4131211,
            "beginWay": "TALK_BEGIN_MANUAL",
            "beginCond": [
                {
                    "type": "QUEST_COND_STATE_EQUAL",
                    "param": [
                        "4131211",
                        "2"
                    ]
                }
            ],
            "priority": 5,
            "initDialog": 413121101,
            "npcId": [
                30039
            ],
            "performCfg": "QuestDialogue/EQ/Sealamp2_41312/Q4131211",
            "heroTalk": "TALK_HERO_MAIN",
            "questId": 41312,
            "assetIndex": 5338692635580788009,
            "prePerformCfg": ""
        },
        {
            "id": 4131212,
            "beginWay": "TALK_BEGIN_MANUAL",
            "beginCond": [
                {
                    "type": "QUEST_COND_STATE_EQUAL",
                    "param": [
                        "4131212",
                        "2"
                    ]
                }
            ],
            "priority": 5,
            "initDialog": 400050201,
            "npcId": [
                10205
            ],
            "performCfg": "QuestDialogue/EQ/Sealamp2_41312/Q4131212",
            "heroTalk": "TALK_HERO_MAIN",
            "questId": 41312,
            "assetIndex": 1784868385077632145,
            "prePerformCfg": ""
        },
        {
            "id": 4131214,
            "beginWay": "TALK_BEGIN_MANUAL",
            "beginCond": [
                {
                    "type": "QUEST_COND_STATE_EQUAL",
                    "param": [
                        "4131214",
                        "2"
                    ]
                }
            ],
            "priority": 5,
            "initDialog": 413121401,
            "npcId": [
                1005
            ],
            "performCfg": "QuestDialogue/EQ/Sealamp2_41312/Q4131214",
            "heroTalk": "TALK_HERO_MAIN",
            "questId": 41312,
            "assetIndex": 4476817378016044067,
            "prePerformCfg": ""
        },
        {
            "id": 4131215,
            "beginWay": "TALK_BEGIN_MANUAL",
            "beginCond": [
                {
                    "type": "QUEST_COND_STATE_EQUAL",
                    "param": [
                        "4131215",
                        "2"
                    ]
                }
            ],
            "priority": 5,
            "initDialog": 413121501,
            "npcId": [
                205601
            ],
            "performCfg": "QuestDialogue/EQ/Sealamp2_41312/Q4131215",
            "heroTalk": "TALK_HERO_MAIN",
            "questId": 41312,
            "assetIndex": 18187472557343879865,
            "prePerformCfg": ""
        },
        {
            "id": 4131218,
            "beginWay": "TALK_BEGIN_MANUAL",
            "beginCond": [
                {
                    "type": "QUEST_COND_STATE_EQUAL",
                    "param": [
                        "4131218",
                        "2"
                    ]
                }
            ],
            "priority": 5,
            "initDialog": 413121801,
            "npcId": [
                242801
            ],
            "performCfg": "QuestDialogue/EQ/Sealamp2_41312/Q4131218",
            "heroTalk": "TALK_HERO_MAIN",
            "questId": 41312,
            "assetIndex": 9856070970424123724,
            "prePerformCfg": ""
        },
        {
            "id": 4131220,
            "beginWay": "TALK_BEGIN_MANUAL",
            "beginCond": [
                {
                    "type": "QUEST_COND_STATE_EQUAL",
                    "param": [
                        "4131220",
                        "2"
                    ]
                }
            ],
            "priority": 5,
            "initDialog": 400030701,
            "npcId": [
                1005
            ],
            "performCfg": "QuestDialogue/EQ/Sealamp2_41312/Q4131220",
            "heroTalk": "TALK_HERO_MAIN",
            "questId": 41312,
            "assetIndex": 7515996127362217997,
            "prePerformCfg": ""
        },
        {
            "id": 4131221,
            "beginWay": "TALK_BEGIN_MANUAL",
            "beginCond": [
                {
                    "type": "QUEST_COND_STATE_EQUAL",
                    "param": [
                        "4131221",
                        "2"
                    ]
                }
            ],
            "priority": 5,
            "initDialog": 413122101,
            "npcId": [
                10204
            ],
            "performCfg": "QuestDialogue/EQ/Sealamp2_41312/Q4131221",
            "heroTalk": "TALK_HERO_MAIN",
            "questId": 41312,
            "assetIndex": 5927269470946739494,
            "prePerformCfg": ""
        },
        {
            "id": 4131222,
            "beginWay": "TALK_BEGIN_MANUAL",
            "beginCond": [
                {
                    "type": "QUEST_COND_STATE_EQUAL",
                    "param": [
                        "4131222",
                        "2"
                    ]
                }
            ],
            "priority": 5,
            "initDialog": 413122201,
            "npcId": [
                205601
            ],
            "performCfg": "QuestDialogue/EQ/Sealamp2_41312/Q4131222",
            "heroTalk": "TALK_HERO_MAIN",
            "questId": 41312,
            "assetIndex": 15150634964866567683,
            "prePerformCfg": ""
        },
        {
            "id": 4131223,
            "beginWay": "TALK_BEGIN_MANUAL",
            "beginCond": [
                {
                    "type": "QUEST_COND_STATE_EQUAL",
                    "param": [
                        "4131223",
                        "2"
                    ]
                }
            ],
            "priority": 5,
            "initDialog": 400040201,
            "npcId": [
                1004
            ],
            "performCfg": "QuestDialogue/EQ/Sealamp2_41312/Q4131223",
            "heroTalk": "TALK_HERO_MAIN",
            "questId": 41312,
            "assetIndex": 5885710607025464997,
            "prePerformCfg": ""
        },
        {
            "id": 4131224,
            "beginWay": "TALK_BEGIN_MANUAL",
            "beginCond": [
                {
                    "type": "QUEST_COND_STATE_EQUAL",
                    "param": [
                        "4131224",
                        "2"
                    ]
                }
            ],
            "priority": 5,
            "initDialog": 400040301,
            "npcId": [
                146101
            ],
            "performCfg": "QuestDialogue/EQ/Sealamp2_41312/Q4131224",
            "heroTalk": "TALK_HERO_MAIN",
            "questId": 41312,
            "assetIndex": 2064971207125239743,
            "prePerformCfg": ""
        },
        {
            "id": 4131225,
            "beginWay": "TALK_BEGIN_MANUAL",
            "beginCond": [
                {
                    "type": "QUEST_COND_STATE_EQUAL",
                    "param": [
                        "4131226",
                        "2"
                    ]
                }
            ],
            "priority": 5,
            "initDialog": 413122501,
            "npcId": [
                10207
            ],
            "performCfg": "QuestDialogue/EQ/Sealamp2_41312/Q4131225",
            "heroTalk": "TALK_HERO_MAIN",
            "questId": 41312,
            "assetIndex": 16017317560578554493,
            "prePerformCfg": ""
        },
        {
            "id": 4131227,
            "beginWay": "TALK_BEGIN_MANUAL",
            "beginCond": [
                {
                    "type": "QUEST_COND_STATE_EQUAL",
                    "param": [
                        "4131228",
                        "2"
                    ]
                }
            ],
            "priority": 5,
            "initDialog": 413122701,
            "npcId": [
                10207
            ],
            "performCfg": "QuestDialogue/EQ/Sealamp2_41312/Q4131227",
            "heroTalk": "TALK_HERO_MAIN",
            "questId": 41312,
            "assetIndex": 17577561487478408603,
            "prePerformCfg": ""
        },
        {
            "id": 4131229,
            "beginWay": "TALK_BEGIN_MANUAL",
            "beginCond": [
                {
                    "type": "QUEST_COND_STATE_EQUAL",
                    "param": [
                        "4131229",
                        "2"
                    ]
                }
            ],
            "priority": 5,
            "initDialog": 413122901,
            "npcId": [
                10205
            ],
            "performCfg": "QuestDialogue/EQ/Sealamp2_41312/Q4131229",
            "heroTalk": "TALK_HERO_MAIN",
            "questId": 41312,
            "assetIndex": 4806896096397946345,
            "prePerformCfg": ""
        },
        {
            "id": 4131251,
            "beginWay": "TALK_BEGIN_MANUAL",
            "beginCondComb": "LOGIC_OR",
            "beginCond": [
                {
                    "type": "QUEST_COND_STATE_EQUAL",
                    "param": [
                        "4131202",
                        "2"
                    ]
                },
                {
                    "type": "QUEST_COND_STATE_EQUAL",
                    "param": [
                        "4131203",
                        "2"
                    ]
                },
                {
                    "type": "QUEST_COND_STATE_EQUAL",
                    "param": [
                        "4131236",
                        "2"
                    ]
                }
            ],
            "priority": 5,
            "initDialog": 413125101,
            "npcId": [
                30039
            ],
            "performCfg": "QuestDialogue/EQ/Sealamp2_41312/Q4131251",
            "heroTalk": "TALK_HERO_MAIN",
            "questId": 41312,
            "assetIndex": 14243607104458199145,
            "prePerformCfg": ""
        },
        {
            "id": 4131252,
            "beginWay": "TALK_BEGIN_MANUAL",
            "beginCondComb": "LOGIC_OR",
            "beginCond": [
                {
                    "type": "QUEST_COND_STATE_EQUAL",
                    "param": [
                        "4131206",
                        "2"
                    ]
                },
                {
                    "type": "QUEST_COND_STATE_EQUAL",
                    "param": [
                        "4131208",
                        "2"
                    ]
                },
                {
                    "type": "QUEST_COND_STATE_EQUAL",
                    "param": [
                        "4131232",
                        "2"
                    ]
                },
                {
                    "type": "QUEST_COND_STATE_EQUAL",
                    "param": [
                        "4131210",
                        "2"
                    ]
                }
            ],
            "priority": 5,
            "initDialog": 413125201,
            "npcId": [
                30039,
                202501
            ],
            "performCfg": "QuestDialogue/EQ/Sealamp2_41312/Q4131252",
            "heroTalk": "TALK_HERO_MAIN",
            "questId": 41312,
            "assetIndex": 11835198393107017017,
            "prePerformCfg": ""
        },
        {
            "id": 4131253,
            "beginWay": "TALK_BEGIN_MANUAL",
            "beginCondComb": "LOGIC_AND",
            "beginCond": [
                {
                    "type": "QUEST_COND_STATE_EQUAL",
                    "param": [
                        "4131235",
                        "2"
                    ]
                },
                {
                    "type": "QUEST_COND_QUEST_VAR_EQUAL",
                    "param": [
                        "0",
                        "1",
                        "41312"
                    ]
                }
            ],
            "priority": 4,
            "initDialog": 400020801,
            "npcId": [
                10205
            ],
            "performCfg": "QuestDialogue/EQ/Sealamp2_41312/Q4131253",
            "heroTalk": "TALK_HERO_MAIN",
            "questId": 41312,
            "assetIndex": 13864748646938405157,
            "prePerformCfg": ""
        },
        {
            "id": 4131254,
            "beginWay": "TALK_BEGIN_MANUAL",
            "beginCondComb": "LOGIC_AND",
            "beginCond": [
                {
                    "type": "QUEST_COND_STATE_EQUAL",
                    "param": [
                        "4131235",
                        "2"
                    ]
                },
                {
                    "type": "QUEST_COND_QUEST_VAR_EQUAL",
                    "param": [
                        "0",
                        "2",
                        "41312"
                    ]
                }
            ],
            "priority": 4,
            "initDialog": 400020801,
            "npcId": [
                10205
            ],
            "performCfg": "QuestDialogue/EQ/Sealamp2_41312/Q4131254",
            "heroTalk": "TALK_HERO_MAIN",
            "questId": 41312,
            "assetIndex": 4525155736184639035,
            "prePerformCfg": ""
        },
        {
            "id": 4131255,
            "beginWay": "TALK_BEGIN_MANUAL",
            "beginCond": [
                {
                    "type": "QUEST_COND_STATE_EQUAL",
                    "param": [
                        "4131215",
                        "2"
                    ]
                }
            ],
            "priority": 4,
            "initDialog": 413121109,
            "npcId": [
                30039,
                202501
            ],
            "performCfg": "QuestDialogue/EQ/Sealamp2_41312/Q4131255",
            "heroTalk": "TALK_HERO_MAIN",
            "questId": 41312,
            "assetIndex": 1194568530276818874,
            "prePerformCfg": ""
        }
    ],
    "preloadLuaList": [
        14457059026087496718,
        5575916732172504491,
        10051682423627499332,
        11114756258982471453,
        15478174891817181840,
        121735477490663972,
        18109407935687853341,
        2092928943408008691,
        14949439512041114159,
        10645300292928738537,
        1134720382046399899
    ],
    "GDLCBECFGJO": [
        1155864748680695470,
        6734397233118567582
    ],
    "freeStyleDic": {
        "10205": [
            1280
        ],
        "10207": [
            1120
        ],
        "10208": [
            1230
        ]
    }
}