{
    "id": 41341,
    "type": "WQ",
    "activeMode": "PLAY_MODE_ALL",
    "titleTextMapHash": 2197178383,
    "descTextMapHash": 3030848054,
    "luaPath": "Actor/Quest/WQ41341",
    "rewardIdList": [
        141341
    ],
    "showRedPoint": true,
    "subQuests": [
        {
            "subId": 4134101,
            "mainId": 41341,
            "order": 2,
            "descTextMapHash": 422022652,
            "finishCond": [
                {
                    "type": "QUEST_CONTENT_COMPLETE_TALK",
                    "param": [
                        4134101,
                        0
                    ]
                }
            ],
            "guide": {
                "type": "QUEST_GUIDE_NPC",
                "param": [
                    "211801"
                ],
                "guideScene": 3,
                "guideStyle": "QUEST_GUIDE_STYLE_TARGET",
                "guideLayer": "QUEST_GUIDE_LAYER_SCENE"
            },
            "guideHint": {
                "COLBFDGFKDJ": ""
            },
            "isRewind": true,
            "versionBegin": "",
            "versionEnd": ""
        },
        {
            "subId": 4134102,
            "mainId": 41341,
            "order": 3,
            "descTextMapHash": 1546583620,
            "finishCond": [
                {
                    "type": "QUEST_CONTENT_COMPLETE_TALK",
                    "param": [
                        4134102,
                        0
                    ]
                }
            ],
            "guide": {
                "type": "QUEST_GUIDE_NPC",
                "param": [
                    "211901"
                ],
                "guideScene": 3,
                "guideStyle": "QUEST_GUIDE_STYLE_TARGET",
                "guideLayer": "QUEST_GUIDE_LAYER_SCENE"
            },
            "guideHint": {
                "COLBFDGFKDJ": ""
            },
            "isRewind": true,
            "versionBegin": "",
            "versionEnd": ""
        },
        {
            "subId": 4134103,
            "mainId": 41341,
            "order": 4,
            "descTextMapHash": 3477903772,
            "finishCond": [
                {
                    "type": "QUEST_CONTENT_INTERACT_GADGET",
                    "param": [
                        71700184,
                        0
                    ]
                }
            ],
            "guide": {
                "type": "QUEST_GUIDE_LOCATION",
                "param": [
                    "Q4134103Light"
                ],
                "guideScene": 3,
                "guideStyle": "QUEST_GUIDE_STYLE_POINT",
                "guideLayer": "QUEST_GUIDE_LAYER_SCENE"
            },
            "guideHint": {
                "COLBFDGFKDJ": ""
            },
            "isRewind": true,
            "finishExec": [
                {
                    "type": "QUEST_EXEC_REGISTER_DYNAMIC_GROUP",
                    "param": [
                        "3",
                        "133102918"
                    ]
                }
            ],
            "versionBegin": "",
            "versionEnd": ""
        },
        {
            "subId": 4134104,
            "mainId": 41341,
            "order": 5,
            "descTextMapHash": 4149590220,
            "finishCond": [
                {
                    "type": "QUEST_CONTENT_COMPLETE_TALK",
                    "param": [
                        4134104,
                        0
                    ]
                }
            ],
            "guide": {
                "type": "QUEST_GUIDE_NPC",
                "param": [
                    "211901"
                ],
                "guideScene": 3,
                "guideStyle": "QUEST_GUIDE_STYLE_TARGET",
                "guideLayer": "QUEST_GUIDE_LAYER_SCENE"
            },
            "guideHint": {
                "COLBFDGFKDJ": ""
            },
            "isRewind": true,
            "versionBegin": "",
            "versionEnd": ""
        },
        {
            "subId": 4134105,
            "mainId": 41341,
            "order": 6,
            "descTextMapHash": 1130722940,
            "finishCond": [
                {
                    "type": "QUEST_CONTENT_LUA_NOTIFY",
                    "param": [
                        0,
                        0
                    ],
                    "count": 3
                }
            ],
            "guide": {
                "type": "QUEST_GUIDE_LOCATION",
                "param": [
                    "Q4134102Xiaoyu",
                    "20"
                ],
                "guideScene": 3,
                "guideStyle": "QUEST_GUIDE_STYLE_POINT",
                "guideLayer": "QUEST_GUIDE_LAYER_SCENE"
            },
            "showGuide": "QUEST_GUIDE_ITEM_DISABLE",
            "guideHint": {
                "COLBFDGFKDJ": ""
            },
            "isRewind": true,
            "finishExec": [
                {
                    "type": "QUEST_EXEC_UNREGISTER_DYNAMIC_GROUP",
                    "param": [
                        "133102917"
                    ]
                }
            ],
            "versionBegin": "",
            "versionEnd": ""
        },
        {
            "subId": 4134106,
            "mainId": 41341,
            "order": 7,
            "descTextMapHash": 1848233868,
            "finishCond": [
                {
                    "type": "QUEST_CONTENT_FINISH_PLOT",
                    "param": [
                        4134106,
                        0
                    ]
                }
            ],
            "guide": {
                "type": "QUEST_GUIDE_LOCATION",
                "param": [
                    "Q4134106Trigger"
                ],
                "guideScene": 3,
                "guideStyle": "QUEST_GUIDE_STYLE_POINT",
                "guideLayer": "QUEST_GUIDE_LAYER_SCENE"
            },
            "guideHint": {
                "COLBFDGFKDJ": ""
            },
            "isRewind": true,
            "versionBegin": "",
            "versionEnd": ""
        },
        {
            "subId": 4134107,
            "mainId": 41341,
            "order": 8,
            "descTextMapHash": 395776348,
            "finishCond": [
                {
                    "type": "QUEST_CONTENT_COMPLETE_TALK",
                    "param": [
                        4134107,
                        0
                    ]
                }
            ],
            "guide": {},
            "guideHint": {
                "COLBFDGFKDJ": ""
            },
            "finishParent": true,
            "versionBegin": "",
            "versionEnd": ""
        },
        {
            "subId": 4134108,
            "mainId": 41341,
            "order": 1,
            "showType": "QUEST_HIDDEN",
            "finishCond": [
                {
                    "type": "QUEST_CONTENT_FINISH_PLOT",
                    "param": [
                        4134108,
                        0
                    ]
                }
            ],
            "guide": {},
            "guideHint": {
                "COLBFDGFKDJ": ""
            },
            "isRewind": true,
            "versionBegin": "",
            "versionEnd": ""
        }
    ],
    "talks": [
        {
            "id": 4134101,
            "beginWay": "TALK_BEGIN_MANUAL",
            "activeMode": "PLAY_MODE_HOST",
            "beginCond": [
                {
                    "type": "QUEST_COND_STATE_EQUAL",
                    "param": [
                        "4134101",
                        "2"
                    ]
                }
            ],
            "priority": 5,
            "initDialog": 413410101,
            "npcId": [
                211801
            ],
            "performCfg": "QuestDialogue/WQ/Liyue_41341/Q4134101",
            "heroTalk": "TALK_HERO_MAIN",
            "questId": 41341,
            "assetIndex": 11654186461526417272,
            "prePerformCfg": ""
        },
        {
            "id": 4134102,
            "beginWay": "TALK_BEGIN_MANUAL",
            "activeMode": "PLAY_MODE_HOST",
            "beginCond": [
                {
                    "type": "QUEST_COND_STATE_EQUAL",
                    "param": [
                        "4134102",
                        "2"
                    ]
                }
            ],
            "priority": 5,
            "initDialog": 413410201,
            "npcId": [
                211901
            ],
            "performCfg": "QuestDialogue/WQ/Liyue_41341/Q4134102",
            "heroTalk": "TALK_HERO_MAIN",
            "questId": 41341,
            "assetIndex": 8430485279726552505,
            "prePerformCfg": ""
        },
        {
            "id": 4134104,
            "beginWay": "TALK_BEGIN_MANUAL",
            "activeMode": "PLAY_MODE_HOST",
            "beginCond": [
                {
                    "type": "QUEST_COND_STATE_EQUAL",
                    "param": [
                        "4134104",
                        "2"
                    ]
                }
            ],
            "priority": 5,
            "initDialog": 413410401,
            "npcId": [
                211901
            ],
            "performCfg": "QuestDialogue/WQ/Liyue_41341/Q4134104",
            "heroTalk": "TALK_HERO_MAIN",
            "questId": 41341,
            "assetIndex": 11509384913406344803,
            "prePerformCfg": ""
        },
        {
            "id": 4134107,
            "beginWay": "TALK_BEGIN_MANUAL",
            "activeMode": "PLAY_MODE_HOST",
            "beginCond": [
                {
                    "type": "QUEST_COND_STATE_EQUAL",
                    "param": [
                        "4134107",
                        "2"
                    ]
                }
            ],
            "priority": 5,
            "initDialog": 413410701,
            "npcId": [
                211901
            ],
            "performCfg": "QuestDialogue/WQ/Liyue_41341/Q4134107",
            "heroTalk": "TALK_HERO_MAIN",
            "questId": 41341,
            "assetIndex": 13980948572619319113,
            "prePerformCfg": ""
        },
        {
            "id": 4134198,
            "beginWay": "TALK_BEGIN_MANUAL",
            "activeMode": "PLAY_MODE_HOST",
            "beginCond": [
                {
                    "type": "QUEST_COND_STATE_EQUAL",
                    "param": [
                        "4134103",
                        "2"
                    ]
                }
            ],
            "priority": 5,
            "initDialog": 413419801,
            "npcId": [
                211801
            ],
            "performCfg": "",
            "heroTalk": "TALK_HERO_MAIN",
            "questId": 41341,
            "assetIndex": 3515285820845173195,
            "prePerformCfg": ""
        },
        {
            "id": 4134199,
            "beginWay": "TALK_BEGIN_MANUAL",
            "activeMode": "PLAY_MODE_HOST",
            "beginCond": [
                {
                    "type": "QUEST_COND_STATE_EQUAL",
                    "param": [
                        "4134103",
                        "2"
                    ]
                }
            ],
            "priority": 5,
            "initDialog": 413419901,
            "npcId": [
                211901
            ],
            "performCfg": "",
            "heroTalk": "TALK_HERO_MAIN",
            "questId": 41341,
            "assetIndex": 4249203520768427700,
            "prePerformCfg": ""
        }
    ],
    "preloadLuaList": [
        14457059026087496718,
        14216803776852656967
    ],
    "GDLCBECFGJO": [
        13776850170809339203
    ]
}