{
    "id": 70007,
    "type": "WQ",
    "mainQuestTag": "MAINQUEST_TAG_ACTIVITY",
    "activeMode": "PLAY_MODE_ALL",
    "titleTextMapHash": 1671631631,
    "descTextMapHash": 193961878,
    "luaPath": "Actor/Quest/WQ70007",
    "rewardIdList": [
        170007
    ],
    "showRedPoint": true,
    "activityId": 2003,
    "subQuests": [
        {
            "subId": 7000701,
            "mainId": 70007,
            "order": 1,
            "descTextMapHash": 154420412,
            "showType": "QUEST_HIDDEN",
            "finishCond": [
                {
                    "type": "QUEST_CONTENT_FINISH_PLOT",
                    "param": [
                        7000701,
                        0
                    ]
                }
            ],
            "guide": {},
            "guideHint": {
                "COLBFDGFKDJ": ""
            },
            "isRewind": true,
            "versionBegin": "",
            "versionEnd": ""
        },
        {
            "subId": 7000702,
            "mainId": 70007,
            "order": 3,
            "subIdSet": 1,
            "descTextMapHash": 1064095916,
            "finishCond": [
                {
                    "type": "QUEST_CONTENT_COMPLETE_TALK",
                    "param": [
                        7000702,
                        0
                    ]
                }
            ],
            "guide": {
                "type": "QUEST_GUIDE_NPC",
                "param": [
                    "10023",
                    "SELECT_NPC_NONE"
                ],
                "guideScene": 1004,
                "guideStyle": "QUEST_GUIDE_STYLE_TARGET",
                "guideLayer": "QUEST_GUIDE_LAYER_SCENE"
            },
            "guideHint": {
                "COLBFDGFKDJ": ""
            },
            "finishExec": [
                {
                    "type": "QUEST_EXEC_ADD_QUEST_PROGRESS",
                    "param": [
                        "7000705",
                        "1"
                    ]
                }
            ],
            "versionBegin": "",
            "versionEnd": ""
        },
        {
            "subId": 7000703,
            "mainId": 70007,
            "order": 4,
            "subIdSet": 1,
            "descTextMapHash": 1033561348,
            "finishCond": [
                {
                    "type": "QUEST_CONTENT_COMPLETE_TALK",
                    "param": [
                        7000703,
                        0
                    ]
                }
            ],
            "guide": {
                "type": "QUEST_GUIDE_NPC",
                "param": [
                    "10025",
                    "SELECT_NPC_NONE"
                ],
                "guideScene": 1004,
                "guideStyle": "QUEST_GUIDE_STYLE_TARGET",
                "guideLayer": "QUEST_GUIDE_LAYER_SCENE"
            },
            "guideHint": {
                "COLBFDGFKDJ": ""
            },
            "finishExec": [
                {
                    "type": "QUEST_EXEC_ADD_QUEST_PROGRESS",
                    "param": [
                        "7000705",
                        "1"
                    ]
                }
            ],
            "versionBegin": "",
            "versionEnd": ""
        },
        {
            "subId": 7000704,
            "mainId": 70007,
            "order": 5,
            "subIdSet": 1,
            "descTextMapHash": 572868,
            "finishCond": [
                {
                    "type": "QUEST_CONTENT_COMPLETE_TALK",
                    "param": [
                        7000704,
                        0
                    ]
                }
            ],
            "guide": {
                "type": "QUEST_GUIDE_NPC",
                "param": [
                    "10027",
                    "SELECT_NPC_NONE"
                ],
                "guideScene": 1004,
                "guideStyle": "QUEST_GUIDE_STYLE_TARGET",
                "guideLayer": "QUEST_GUIDE_LAYER_SCENE"
            },
            "guideHint": {
                "COLBFDGFKDJ": ""
            },
            "finishExec": [
                {
                    "type": "QUEST_EXEC_ADD_QUEST_PROGRESS",
                    "param": [
                        "7000705",
                        "1"
                    ]
                }
            ],
            "versionBegin": "",
            "versionEnd": ""
        },
        {
            "subId": 7000705,
            "mainId": 70007,
            "order": 6,
            "descTextMapHash": 1628174780,
            "showType": "QUEST_HIDDEN",
            "finishCond": [
                {
                    "type": "QUEST_CONTENT_ADD_QUEST_PROGRESS",
                    "param": [
                        7000705,
                        3
                    ],
                    "count": 3
                }
            ],
            "guide": {},
            "guideHint": {
                "COLBFDGFKDJ": ""
            },
            "finishExec": [
                {
                    "type": "QUEST_EXEC_ADD_QUEST_PROGRESS",
                    "param": [
                        "7000706",
                        "1"
                    ]
                }
            ],
            "versionBegin": "",
            "versionEnd": ""
        },
        {
            "subId": 7000706,
            "mainId": 70007,
            "order": 7,
            "descTextMapHash": 2767446716,
            "showType": "QUEST_HIDDEN",
            "finishCond": [
                {
                    "type": "QUEST_CONTENT_ADD_QUEST_PROGRESS",
                    "param": [
                        7000706,
                        1
                    ],
                    "count": 1
                }
            ],
            "guide": {},
            "guideHint": {
                "COLBFDGFKDJ": ""
            },
            "isRewind": true,
            "versionBegin": "",
            "versionEnd": ""
        },
        {
            "subId": 7000707,
            "mainId": 70007,
            "order": 8,
            "descTextMapHash": 2054864844,
            "finishCond": [
                {
                    "type": "QUEST_CONTENT_COMPLETE_TALK",
                    "param": [
                        7000707,
                        0
                    ]
                }
            ],
            "guide": {
                "type": "QUEST_GUIDE_NPC",
                "param": [
                    "1005"
                ],
                "guideScene": 1004,
                "guideStyle": "QUEST_GUIDE_STYLE_TARGET",
                "guideLayer": "QUEST_GUIDE_LAYER_SCENE"
            },
            "guideHint": {
                "COLBFDGFKDJ": ""
            },
            "isRewind": true,
            "versionBegin": "",
            "versionEnd": ""
        },
        {
            "subId": 7000708,
            "mainId": 70007,
            "order": 9,
            "descTextMapHash": 3777956180,
            "finishCond": [
                {
                    "type": "QUEST_CONTENT_COMPLETE_TALK",
                    "param": [
                        7000708,
                        0
                    ]
                }
            ],
            "guide": {
                "type": "QUEST_GUIDE_NPC",
                "param": [
                    "1648"
                ],
                "guideScene": 1004,
                "guideStyle": "QUEST_GUIDE_STYLE_TARGET",
                "guideLayer": "QUEST_GUIDE_LAYER_SCENE"
            },
            "guideHint": {
                "COLBFDGFKDJ": ""
            },
            "isRewind": true,
            "versionBegin": "",
            "versionEnd": ""
        },
        {
            "subId": 7000709,
            "mainId": 70007,
            "order": 10,
            "descTextMapHash": 4102384404,
            "finishCond": [
                {
                    "type": "QUEST_CONTENT_FINISH_PLOT",
                    "param": [
                        7000709,
                        0
                    ]
                }
            ],
            "guide": {
                "type": "QUEST_GUIDE_LOCATION",
                "param": [
                    "Q7000701Paimon"
                ],
                "guideScene": 1004,
                "guideStyle": "QUEST_GUIDE_STYLE_POINT",
                "guideLayer": "QUEST_GUIDE_LAYER_SCENE"
            },
            "guideHint": {
                "COLBFDGFKDJ": ""
            },
            "isRewind": true,
            "versionBegin": "",
            "versionEnd": ""
        },
        {
            "subId": 7000710,
            "mainId": 70007,
            "order": 11,
            "descTextMapHash": 3145449916,
            "showType": "QUEST_HIDDEN",
            "finishCond": [
                {
                    "type": "QUEST_CONTENT_COMPLETE_TALK",
                    "param": [
                        7000710,
                        0
                    ]
                }
            ],
            "guide": {},
            "guideHint": {
                "COLBFDGFKDJ": ""
            },
            "finishParent": true,
            "versionBegin": "",
            "versionEnd": ""
        },
        {
            "subId": 7000711,
            "mainId": 70007,
            "order": 12,
            "descTextMapHash": 224959556,
            "showType": "QUEST_HIDDEN",
            "finishCond": [
                {
                    "type": "QUEST_CONTENT_FINISH_PLOT",
                    "param": [
                        7000711,
                        0
                    ]
                }
            ],
            "guide": {},
            "guideHint": {
                "COLBFDGFKDJ": ""
            },
            "versionBegin": "",
            "versionEnd": ""
        },
        {
            "subId": 7000712,
            "mainId": 70007,
            "order": 2,
            "descTextMapHash": 1599130900,
            "finishCond": [
                {
                    "type": "QUEST_CONTENT_COMPLETE_TALK",
                    "param": [
                        7000701,
                        0
                    ]
                }
            ],
            "guide": {
                "type": "QUEST_GUIDE_NPC",
                "param": [
                    "1565",
                    "SELECT_NPC_NONE"
                ],
                "guideScene": 1004,
                "guideStyle": "QUEST_GUIDE_STYLE_START",
                "guideLayer": "QUEST_GUIDE_LAYER_SCENE"
            },
            "guideHint": {
                "COLBFDGFKDJ": ""
            },
            "isRewind": true,
            "versionBegin": "",
            "versionEnd": ""
        }
    ],
    "talks": [
        {
            "id": 7000701,
            "beginWay": "TALK_BEGIN_MANUAL",
            "activeMode": "PLAY_MODE_HOST",
            "beginCond": [
                {
                    "type": "QUEST_COND_STATE_EQUAL",
                    "param": [
                        "7000712",
                        "2"
                    ]
                }
            ],
            "priority": 5,
            "initDialog": 700070101,
            "npcId": [
                1565
            ],
            "performCfg": "QuestDialogue/WQ/Fenghua_70007/Q7000701",
            "heroTalk": "TALK_HERO_MAIN",
            "questId": 70007,
            "assetIndex": 291626302261404817,
            "prePerformCfg": ""
        },
        {
            "id": 7000702,
            "beginWay": "TALK_BEGIN_MANUAL",
            "activeMode": "PLAY_MODE_HOST",
            "beginCond": [
                {
                    "type": "QUEST_COND_STATE_EQUAL",
                    "param": [
                        "7000702",
                        "2"
                    ]
                }
            ],
            "priority": 5,
            "initDialog": 700070201,
            "npcId": [
                10023,
                10024
            ],
            "performCfg": "QuestDialogue/WQ/Fenghua_70007/Q7000702",
            "heroTalk": "TALK_HERO_MAIN",
            "questId": 70007,
            "assetIndex": 13305826410352260436,
            "prePerformCfg": ""
        },
        {
            "id": 7000703,
            "beginWay": "TALK_BEGIN_MANUAL",
            "activeMode": "PLAY_MODE_HOST",
            "beginCond": [
                {
                    "type": "QUEST_COND_STATE_EQUAL",
                    "param": [
                        "7000703",
                        "2"
                    ]
                }
            ],
            "priority": 5,
            "initDialog": 700070301,
            "npcId": [
                10025,
                10026
            ],
            "performCfg": "QuestDialogue/WQ/Fenghua_70007/Q7000703",
            "heroTalk": "TALK_HERO_MAIN",
            "questId": 70007,
            "assetIndex": 1158992851293086358,
            "prePerformCfg": ""
        },
        {
            "id": 7000704,
            "beginWay": "TALK_BEGIN_MANUAL",
            "activeMode": "PLAY_MODE_HOST",
            "beginCond": [
                {
                    "type": "QUEST_COND_STATE_EQUAL",
                    "param": [
                        "7000704",
                        "2"
                    ]
                }
            ],
            "priority": 5,
            "initDialog": 700070401,
            "npcId": [
                10027,
                10028
            ],
            "performCfg": "QuestDialogue/WQ/Fenghua_70007/Q7000704",
            "heroTalk": "TALK_HERO_MAIN",
            "questId": 70007,
            "assetIndex": 14301522222709147515,
            "prePerformCfg": ""
        },
        {
            "id": 7000707,
            "beginWay": "TALK_BEGIN_MANUAL",
            "activeMode": "PLAY_MODE_HOST",
            "beginCond": [
                {
                    "type": "QUEST_COND_STATE_EQUAL",
                    "param": [
                        "7000707",
                        "2"
                    ]
                }
            ],
            "priority": 5,
            "initDialog": 700070701,
            "npcId": [
                1005
            ],
            "performCfg": "QuestDialogue/WQ/Fenghua_70007/Q7000707",
            "heroTalk": "TALK_HERO_MAIN",
            "questId": 70007,
            "assetIndex": 4453568882622938264,
            "prePerformCfg": ""
        },
        {
            "id": 7000708,
            "activeMode": "PLAY_MODE_HOST",
            "beginCond": [
                {
                    "type": "QUEST_COND_STATE_EQUAL",
                    "param": [
                        "7000708",
                        "2"
                    ]
                }
            ],
            "priority": 5,
            "initDialog": 700070801,
            "npcId": [
                1648
            ],
            "performCfg": "QuestDialogue/WQ/Fenghua_70007/Q7000708",
            "heroTalk": "TALK_HERO_MAIN",
            "questId": 70007,
            "assetIndex": 7953622753987216937,
            "prePerformCfg": ""
        },
        {
            "id": 7000710,
            "beginWay": "TALK_BEGIN_MANUAL",
            "activeMode": "PLAY_MODE_HOST",
            "beginCond": [
                {
                    "type": "QUEST_COND_STATE_EQUAL",
                    "param": [
                        "7000710",
                        "2"
                    ]
                }
            ],
            "priority": 5,
            "initDialog": 700071001,
            "npcId": [
                1005
            ],
            "performCfg": "QuestDialogue/WQ/Fenghua_70007/Q7000710",
            "heroTalk": "TALK_HERO_MAIN",
            "questId": 70007,
            "assetIndex": 3082962947350533759,
            "prePerformCfg": ""
        },
        {
            "id": 7000751,
            "beginWay": "TALK_BEGIN_MANUAL",
            "activeMode": "PLAY_MODE_HOST",
            "beginCondComb": "LOGIC_OR",
            "beginCond": [
                {
                    "type": "QUEST_COND_STATE_EQUAL",
                    "param": [
                        "7000706",
                        "2"
                    ]
                },
                {
                    "type": "QUEST_COND_STATE_EQUAL",
                    "param": [
                        "7000707",
                        "2"
                    ]
                },
                {
                    "type": "QUEST_COND_STATE_EQUAL",
                    "param": [
                        "7000708",
                        "2"
                    ]
                },
                {
                    "type": "QUEST_COND_STATE_EQUAL",
                    "param": [
                        "7000709",
                        "2"
                    ]
                }
            ],
            "priority": 4,
            "initDialog": 700075101,
            "npcId": [
                1565
            ],
            "performCfg": "",
            "heroTalk": "TALK_HERO_MAIN",
            "questId": 70007,
            "assetIndex": 1673794313004148995,
            "prePerformCfg": ""
        },
        {
            "id": 7000752,
            "beginWay": "TALK_BEGIN_MANUAL",
            "activeMode": "PLAY_MODE_HOST",
            "beginCondComb": "LOGIC_OR",
            "beginCond": [
                {
                    "type": "QUEST_COND_STATE_EQUAL",
                    "param": [
                        "7000706",
                        "2"
                    ]
                },
                {
                    "type": "QUEST_COND_STATE_EQUAL",
                    "param": [
                        "7000707",
                        "2"
                    ]
                },
                {
                    "type": "QUEST_COND_STATE_EQUAL",
                    "param": [
                        "7000708",
                        "2"
                    ]
                },
                {
                    "type": "QUEST_COND_STATE_EQUAL",
                    "param": [
                        "7000709",
                        "2"
                    ]
                }
            ],
            "priority": 4,
            "initDialog": 700075201,
            "npcId": [
                10023,
                10024
            ],
            "performCfg": "",
            "heroTalk": "TALK_HERO_MAIN",
            "questId": 70007,
            "assetIndex": 9871254499516482764,
            "prePerformCfg": ""
        },
        {
            "id": 7000753,
            "beginWay": "TALK_BEGIN_MANUAL",
            "activeMode": "PLAY_MODE_HOST",
            "beginCondComb": "LOGIC_OR",
            "beginCond": [
                {
                    "type": "QUEST_COND_STATE_EQUAL",
                    "param": [
                        "7000706",
                        "2"
                    ]
                },
                {
                    "type": "QUEST_COND_STATE_EQUAL",
                    "param": [
                        "7000707",
                        "2"
                    ]
                },
                {
                    "type": "QUEST_COND_STATE_EQUAL",
                    "param": [
                        "7000708",
                        "2"
                    ]
                },
                {
                    "type": "QUEST_COND_STATE_EQUAL",
                    "param": [
                        "7000709",
                        "2"
                    ]
                }
            ],
            "priority": 4,
            "initDialog": 700075301,
            "npcId": [
                10025,
                10026
            ],
            "performCfg": "",
            "heroTalk": "TALK_HERO_MAIN",
            "questId": 70007,
            "assetIndex": 6563956624758381087,
            "prePerformCfg": ""
        },
        {
            "id": 7000754,
            "beginWay": "TALK_BEGIN_MANUAL",
            "activeMode": "PLAY_MODE_HOST",
            "beginCondComb": "LOGIC_OR",
            "beginCond": [
                {
                    "type": "QUEST_COND_STATE_EQUAL",
                    "param": [
                        "7000706",
                        "2"
                    ]
                },
                {
                    "type": "QUEST_COND_STATE_EQUAL",
                    "param": [
                        "7000707",
                        "2"
                    ]
                },
                {
                    "type": "QUEST_COND_STATE_EQUAL",
                    "param": [
                        "7000708",
                        "2"
                    ]
                },
                {
                    "type": "QUEST_COND_STATE_EQUAL",
                    "param": [
                        "7000709",
                        "2"
                    ]
                }
            ],
            "priority": 4,
            "initDialog": 700075401,
            "npcId": [
                10027,
                10028
            ],
            "performCfg": "",
            "heroTalk": "TALK_HERO_MAIN",
            "questId": 70007,
            "assetIndex": 8242121367900154771,
            "prePerformCfg": ""
        },
        {
            "id": 7000755,
            "beginWay": "TALK_BEGIN_MANUAL",
            "activeMode": "PLAY_MODE_HOST",
            "priority": 5,
            "nextTalks": [
                7000708,
                7000756,
                7000757
            ],
            "initDialog": 616480101,
            "npcId": [
                1648
            ],
            "performCfg": "",
            "heroTalk": "TALK_HERO_MAIN",
            "questId": 70007,
            "assetIndex": 14343862969579290482,
            "prePerformCfg": "",
            "freeStyleList": [
                9000
            ]
        },
        {
            "id": 7000756,
            "activeMode": "PLAY_MODE_HOST",
            "priority": 1,
            "initDialog": 616480201,
            "npcId": [
                1648
            ],
            "performCfg": "",
            "heroTalk": "TALK_HERO_MAIN",
            "questId": 70007,
            "assetIndex": 645868543158253935,
            "prePerformCfg": ""
        },
        {
            "id": 7000757,
            "activeMode": "PLAY_MODE_HOST",
            "priority": 1,
            "initDialog": 616480301,
            "npcId": [
                1648
            ],
            "performCfg": "",
            "heroTalk": "TALK_HERO_MAIN",
            "questId": 70007,
            "assetIndex": 266257451486732686,
            "prePerformCfg": ""
        }
    ],
    "preloadLuaList": [
        3958618578976986035,
        14457059026087496718,
        10389944869807506623
    ],
    "GDLCBECFGJO": [
        328706968752544545
    ],
    "freeStyleDic": {
        "10023": [
            1170,
            1190
        ],
        "10024": [
            1130,
            1190
        ],
        "10025": [
            1030
        ],
        "10026": [
            1090
        ],
        "10027": [
            1190
        ],
        "10028": [
            1190
        ]
    }
}