{
    "id": 70127,
    "type": "WQ",
    "activeMode": "PLAY_MODE_ALL",
    "titleTextMapHash": 2300022351,
    "luaPath": "Actor/Quest/WQ70127",
    "showType": "QUEST_HIDDEN",
    "subQuests": [
        {
            "subId": 7012701,
            "mainId": 70127,
            "order": 1,
            "descTextMapHash": 1379393724,
            "showType": "QUEST_HIDDEN",
            "finishCond": [
                {
                    "type": "QUEST_CONTENT_COMPLETE_TALK",
                    "param": [
                        7012701,
                        0
                    ]
                }
            ],
            "guide": {},
            "guideHint": {
                "COLBFDGFKDJ": ""
            },
            "isRewind": true,
            "finishExec": [
                {
                    "type": "QUEST_EXEC_NOTIFY_GROUP_LUA",
                    "param": [
                        "3",
                        "133008597"
                    ]
                },
                {
                    "type": "QUEST_EXEC_ADD_QUEST_PROGRESS",
                    "param": [
                        "7012704",
                        "1"
                    ]
                }
            ],
            "versionBegin": "",
            "versionEnd": ""
        },
        {
            "subId": 7012702,
            "mainId": 70127,
            "order": 2,
            "descTextMapHash": 16720332,
            "showType": "QUEST_HIDDEN",
            "finishCond": [
                {
                    "type": "QUEST_CONTENT_COMPLETE_TALK",
                    "param": [
                        7012702,
                        0
                    ]
                }
            ],
            "guide": {},
            "guideHint": {
                "COLBFDGFKDJ": ""
            },
            "isRewind": true,
            "finishExec": [
                {
                    "type": "QUEST_EXEC_NOTIFY_GROUP_LUA",
                    "param": [
                        "3",
                        "133008598"
                    ]
                },
                {
                    "type": "QUEST_EXEC_ADD_QUEST_PROGRESS",
                    "param": [
                        "7012704",
                        "1"
                    ]
                }
            ],
            "versionBegin": "",
            "versionEnd": ""
        },
        {
            "subId": 7012704,
            "mainId": 70127,
            "order": 3,
            "descTextMapHash": 971499260,
            "stepDescTextMapHash": 2844921149,
            "showType": "QUEST_HIDDEN",
            "finishCond": [
                {
                    "type": "QUEST_CONTENT_ADD_QUEST_PROGRESS",
                    "param": [
                        7012704,
                        0
                    ],
                    "count": 2
                }
            ],
            "guide": {},
            "guideHint": {
                "COLBFDGFKDJ": ""
            },
            "finishParent": true,
            "isRewind": true,
            "versionBegin": "",
            "versionEnd": ""
        }
    ],
    "talks": [
        {
            "id": 7012701,
            "beginWay": "TALK_BEGIN_MANUAL",
            "activeMode": "PLAY_MODE_ALL",
            "initDialog": 701270101,
            "npcId": [
                20214
            ],
            "performCfg": "",
            "questId": 70127,
            "assetIndex": 14074727387884197887,
            "prePerformCfg": "",
            "lockGameTime": true
        },
        {
            "id": 7012702,
            "beginWay": "TALK_BEGIN_MANUAL",
            "activeMode": "PLAY_MODE_ALL",
            "initDialog": 701270201,
            "npcId": [
                20215
            ],
            "performCfg": "",
            "questId": 70127,
            "assetIndex": 1722444960961699780,
            "prePerformCfg": "",
            "lockGameTime": true
        }
    ]
}