{
    "id": 70506,
    "resId": 4009,
    "type": "WQ",
    "mainQuestTag": "MAINQUEST_TAG_ACTIVITY",
    "titleTextMapHash": 2692125375,
    "descTextMapHash": 622976590,
    "luaPath": "Actor/Quest/WQ70506",
    "suggestTrackMainQuestList": [
        70507
    ],
    "suggestTrackOutOfOrder": true,
    "rewardIdList": [
        170506
    ],
    "showRedPoint": true,
    "activityId": 5062,
    "subQuests": [
        {
            "subId": 7050601,
            "mainId": 70506,
            "order": 1,
            "descTextMapHash": 489651196,
            "finishCond": [
                {
                    "type": "QUEST_CONTENT_FINISH_PLOT",
                    "param": [
                        7050601,
                        0
                    ]
                }
            ],
            "guide": {
                "type": "QUEST_GUIDE_NPC",
                "autoGuide": "QUEST_GUIDE_AUTO_ENABLE",
                "param": [
                    "30112"
                ],
                "guideScene": 3,
                "guideStyle": "QUEST_GUIDE_STYLE_START",
                "guideLayer": "QUEST_GUIDE_LAYER_SCENE"
            },
            "guideHint": {
                "COLBFDGFKDJ": ""
            },
            "isRewind": true,
            "versionBegin": "",
            "versionEnd": ""
        },
        {
            "subId": 7050602,
            "mainId": 70506,
            "order": 4,
            "isMpBlock": true,
            "descTextMapHash": 4001611428,
            "finishCond": [
                {
                    "type": "QUEST_CONTENT_FINISH_PLOT",
                    "param": [
                        7050602,
                        0
                    ]
                }
            ],
            "failCond": [
                {
                    "type": "QUEST_CONTENT_NOT_FINISH_PLOT",
                    "param": [
                        7050602,
                        0
                    ]
                },
                {
                    "type": "QUEST_CONTENT_LEAVE_SCENE_RANGE",
                    "param": [
                        1068,
                        40
                    ]
                }
            ],
            "guide": {
                "type": "QUEST_GUIDE_NPC",
                "autoGuide": "QUEST_GUIDE_AUTO_ENABLE",
                "param": [
                    "1006"
                ],
                "guideScene": 1068,
                "guideStyle": "QUEST_GUIDE_STYLE_START",
                "guideLayer": "QUEST_GUIDE_LAYER_SCENE"
            },
            "guideHint": {
                "COLBFDGFKDJ": ""
            },
            "failExec": [
                {
                    "type": "QUEST_EXEC_ROLLBACK_QUEST",
                    "param": [
                        "7050601"
                    ]
                }
            ],
            "versionBegin": "",
            "versionEnd": ""
        },
        {
            "subId": 7050603,
            "mainId": 70506,
            "order": 5,
            "isMpBlock": true,
            "descTextMapHash": 1375056212,
            "finishCond": [
                {
                    "type": "QUEST_CONTENT_FINISH_PLOT",
                    "param": [
                        7050603,
                        0
                    ]
                }
            ],
            "failCond": [
                {
                    "type": "QUEST_CONTENT_NOT_FINISH_PLOT",
                    "param": [
                        7050603,
                        0
                    ]
                },
                {
                    "type": "QUEST_CONTENT_LEAVE_SCENE_RANGE",
                    "param": [
                        1068,
                        40
                    ]
                }
            ],
            "guide": {
                "type": "QUEST_GUIDE_NPC",
                "autoGuide": "QUEST_GUIDE_AUTO_ENABLE",
                "param": [
                    "1006"
                ],
                "guideScene": 1068,
                "guideStyle": "QUEST_GUIDE_STYLE_START",
                "guideLayer": "QUEST_GUIDE_LAYER_SCENE"
            },
            "guideHint": {
                "COLBFDGFKDJ": ""
            },
            "failExec": [
                {
                    "type": "QUEST_EXEC_ROLLBACK_QUEST",
                    "param": [
                        "7050601"
                    ]
                }
            ],
            "versionBegin": "",
            "versionEnd": ""
        },
        {
            "subId": 7050604,
            "mainId": 70506,
            "order": 6,
            "isMpBlock": true,
            "descTextMapHash": 683514804,
            "finishCond": [
                {
                    "type": "QUEST_CONTENT_COMPLETE_TALK",
                    "param": [
                        7050602,
                        0
                    ]
                }
            ],
            "failCond": [
                {
                    "type": "QUEST_CONTENT_LEAVE_SCENE_RANGE",
                    "param": [
                        1068,
                        50
                    ]
                }
            ],
            "guide": {
                "type": "QUEST_GUIDE_NPC",
                "autoGuide": "QUEST_GUIDE_AUTO_ENABLE",
                "param": [
                    "1006"
                ],
                "guideScene": 1068,
                "guideStyle": "QUEST_GUIDE_STYLE_TARGET",
                "guideLayer": "QUEST_GUIDE_LAYER_SCENE"
            },
            "guideHint": {
                "COLBFDGFKDJ": ""
            },
            "finishParent": true,
            "isRewind": true,
            "failExec": [
                {
                    "type": "QUEST_EXEC_ROLLBACK_QUEST",
                    "param": [
                        "7050601"
                    ]
                }
            ],
            "versionBegin": "",
            "versionEnd": ""
        },
        {
            "subId": 7050605,
            "mainId": 70506,
            "order": 3,
            "isMpBlock": true,
            "descTextMapHash": 879079020,
            "finishCond": [
                {
                    "type": "QUEST_CONTENT_COMPLETE_TALK",
                    "param": [
                        7050601,
                        0
                    ]
                }
            ],
            "failCond": [
                {
                    "type": "QUEST_CONTENT_LEAVE_SCENE_RANGE",
                    "param": [
                        1068,
                        50
                    ]
                }
            ],
            "guide": {
                "type": "QUEST_GUIDE_NPC",
                "autoGuide": "QUEST_GUIDE_AUTO_ENABLE",
                "param": [
                    "1006"
                ],
                "guideScene": 1068,
                "guideStyle": "QUEST_GUIDE_STYLE_TARGET",
                "guideLayer": "QUEST_GUIDE_LAYER_SCENE"
            },
            "guideHint": {
                "COLBFDGFKDJ": ""
            },
            "failExec": [
                {
                    "type": "QUEST_EXEC_ROLLBACK_QUEST",
                    "param": [
                        "7050601"
                    ]
                }
            ],
            "versionBegin": "",
            "versionEnd": ""
        },
        {
            "subId": 7050606,
            "mainId": 70506,
            "order": 2,
            "isMpBlock": true,
            "descTextMapHash": 2699906140,
            "finishCond": [
                {
                    "type": "QUEST_CONTENT_LUA_NOTIFY",
                    "param": [
                        0,
                        0
                    ],
                    "count": 1
                },
                {
                    "type": "QUEST_CONTENT_QUEST_VAR_EQUAL",
                    "param": [
                        0,
                        1
                    ]
                }
            ],
            "failCond": [
                {
                    "type": "QUEST_CONTENT_LEAVE_SCENE_RANGE",
                    "param": [
                        1068,
                        50
                    ]
                }
            ],
            "guide": {
                "type": "QUEST_GUIDE_LOCATION",
                "param": [
                    "OpenBartender_guide",
                    "0"
                ],
                "guideScene": 1068,
                "guideStyle": "QUEST_GUIDE_STYLE_TARGET",
                "guideLayer": "QUEST_GUIDE_LAYER_SCENE"
            },
            "guideHint": {
                "COLBFDGFKDJ": ""
            },
            "isRewind": true,
            "finishExec": [
                {
                    "type": "QUEST_EXEC_REFRESH_GROUP_SUITE",
                    "param": [
                        "1068",
                        "201068003,1"
                    ]
                },
                {
                    "type": "QUEST_EXEC_SET_QUEST_VAR",
                    "param": [
                        "0",
                        "1",
                        "7050606"
                    ]
                }
            ],
            "failExec": [
                {
                    "type": "QUEST_EXEC_ROLLBACK_QUEST",
                    "param": [
                        "7050601"
                    ]
                }
            ],
            "versionBegin": "",
            "versionEnd": ""
        }
    ],
    "talks": [
        {
            "id": 7050601,
            "beginWay": "TALK_BEGIN_MANUAL",
            "beginCondComb": "LOGIC_OR",
            "beginCond": [
                {
                    "type": "QUEST_COND_STATE_EQUAL",
                    "param": [
                        "7050605",
                        "2"
                    ]
                },
                {
                    "type": "QUEST_COND_STATE_EQUAL",
                    "param": [
                        "7050602",
                        "2"
                    ]
                },
                {
                    "type": "QUEST_COND_STATE_EQUAL",
                    "param": [
                        "7050603",
                        "2"
                    ]
                }
            ],
            "priority": 5,
            "initDialog": 705060101,
            "npcId": [
                1007,
                1006
            ],
            "performCfg": "QuestDialogue/WQ/Mengde_70506/Q7050601",
            "heroTalk": "TALK_HERO_MAIN",
            "questId": 70506,
            "assetIndex": 7404954479035077829,
            "prePerformCfg": ""
        },
        {
            "id": 7050602,
            "beginWay": "TALK_BEGIN_MANUAL",
            "beginCond": [
                {
                    "type": "QUEST_COND_STATE_EQUAL",
                    "param": [
                        "7050604",
                        "2"
                    ]
                }
            ],
            "priority": 5,
            "initDialog": 705060201,
            "npcId": [
                1007,
                1006
            ],
            "performCfg": "QuestDialogue/WQ/Mengde_70506/Q7050602",
            "heroTalk": "TALK_HERO_MAIN",
            "questId": 70506,
            "assetIndex": 6572219468074067165,
            "prePerformCfg": ""
        }
    ],
    "preloadLuaList": [
        3958618578976986035,
        14457059026087496718,
        14981491126976827903
    ],
    "GDLCBECFGJO": [
        6228676427464030013
    ],
    "freeStyleDic": {
        "1006": [
            8010
        ],
        "1007": [
            8010
        ]
    }
}