{
    "id": 70711,
    "type": "WQ",
    "titleTextMapHash": 14059247,
    "descTextMapHash": 2789618046,
    "luaPath": "Actor/Quest/WQ70711",
    "subQuests": [
        {
            "subId": 7071101,
            "mainId": 70711,
            "order": 1,
            "descTextMapHash": 2705668876,
            "finishCond": [
                {
                    "type": "QUEST_CONTENT_FINISH_ITEM_GIVING",
                    "param": [
                        7071101,
                        0
                    ]
                }
            ],
            "guide": {
                "type": "QUEST_GUIDE_NPC",
                "param": [
                    "1656"
                ],
                "guideScene": 3,
                "guideLayer": "QUEST_GUIDE_LAYER_SCENE"
            },
            "guideHint": {
                "COLBFDGFKDJ": ""
            },
            "isRewind": true,
            "versionBegin": "",
            "versionEnd": ""
        },
        {
            "subId": 7071102,
            "mainId": 70711,
            "order": 2,
            "descTextMapHash": 3154879348,
            "finishCond": [
                {
                    "type": "QUEST_CONTENT_COMPLETE_TALK",
                    "param": [
                        7071102,
                        0
                    ]
                }
            ],
            "guide": {
                "type": "QUEST_GUIDE_NPC",
                "param": [
                    "1656"
                ],
                "guideScene": 3,
                "guideLayer": "QUEST_GUIDE_LAYER_SCENE"
            },
            "guideHint": {
                "COLBFDGFKDJ": ""
            },
            "finishParent": true,
            "isRewind": true,
            "versionBegin": "",
            "versionEnd": ""
        }
    ],
    "talks": [
        {
            "id": 7071101,
            "beginWay": "TALK_BEGIN_MANUAL",
            "beginCondComb": "LOGIC_AND",
            "beginCond": [
                {
                    "type": "QUEST_COND_STATE_EQUAL",
                    "param": [
                        "7071101",
                        "2"
                    ]
                },
                {
                    "type": "QUEST_COND_ITEM_GIVING_ACTIVED",
                    "param": [
                        "7071101"
                    ]
                }
            ],
            "priority": 1,
            "initDialog": 707110101,
            "npcId": [
                1656
            ],
            "performCfg": "",
            "questId": 70711,
            "assetIndex": 3857564038273783757,
            "dontBlockDaily": true,
            "prePerformCfg": ""
        },
        {
            "id": 7071102,
            "beginWay": "TALK_BEGIN_AUTO",
            "beginCond": [
                {
                    "type": "QUEST_COND_STATE_EQUAL",
                    "param": [
                        "7071102",
                        "2"
                    ]
                }
            ],
            "priority": 1,
            "initDialog": 707110201,
            "npcId": [
                1656
            ],
            "performCfg": "",
            "questId": 70711,
            "assetIndex": 16274376946236428474,
            "prePerformCfg": ""
        }
    ]
}