{
    "id": 70942,
    "type": "WQ",
    "titleTextMapHash": 614641551,
    "descTextMapHash": 235222526,
    "luaPath": "",
    "rewardIdList": [
        551041
    ],
    "showType": "QUEST_HIDDEN",
    "subQuests": [
        {
            "subId": 7094201,
            "mainId": 70942,
            "order": 1,
            "showType": "QUEST_HIDDEN",
            "finishCond": [
                {
                    "type": "QUEST_CONTENT_COMPLETE_TALK",
                    "param": [
                        7094201,
                        0
                    ]
                }
            ],
            "guide": {},
            "guideHint": {
                "COLBFDGFKDJ": ""
            },
            "finishParent": true,
            "versionBegin": "",
            "versionEnd": ""
        }
    ]
}