{
    "id": 71906,
    "type": "WQ",
    "titleTextMapHash": 3744569447,
    "descTextMapHash": 2027508758,
    "luaPath": "",
    "rewardIdList": [
        552008
    ],
    "showType": "QUEST_HIDDEN",
    "subQuests": [
        {
            "subId": 7190601,
            "mainId": 71906,
            "order": 1,
            "showType": "QUEST_HIDDEN",
            "finishCond": [
                {
                    "type": "QUEST_CONTENT_COMPLETE_TALK",
                    "param": [
                        7190601,
                        0
                    ]
                }
            ],
            "guide": {},
            "guideHint": {
                "COLBFDGFKDJ": ""
            },
            "finishParent": true,
            "versionBegin": "",
            "versionEnd": ""
        }
    ]
}