{
    "id": 72170,
    "type": "WQ",
    "activeMode": "PLAY_MODE_ALL",
    "titleTextMapHash": 3657815911,
    "descTextMapHash": 1300589166,
    "luaPath": "Actor/Quest/WQ72170",
    "rewardIdList": [
        172170
    ],
    "subQuests": [
        {
            "subId": 7217001,
            "mainId": 72170,
            "order": 2,
            "descTextMapHash": 2984878628,
            "showType": "QUEST_HIDDEN",
            "finishCond": [
                {
                    "type": "QUEST_CONTENT_COMPLETE_TALK",
                    "param": [
                        7217001,
                        0
                    ]
                },
                {
                    "type": "QUEST_CONTENT_COMPLETE_TALK",
                    "param": [
                        7217007,
                        0
                    ]
                }
            ],
            "guide": {},
            "guideHint": {
                "COLBFDGFKDJ": ""
            },
            "isRewind": true,
            "versionBegin": "",
            "versionEnd": ""
        },
        {
            "subId": 7217002,
            "mainId": 72170,
            "order": 3,
            "descTextMapHash": 3430685452,
            "stepDescTextMapHash": 1081871021,
            "finishCond": [
                {
                    "type": "QUEST_CONTENT_LUA_NOTIFY",
                    "param": [
                        0,
                        0
                    ],
                    "count": 1
                }
            ],
            "guide": {
                "type": "QUEST_GUIDE_LOCATION",
                "param": [
                    "WQ72170_Weed"
                ],
                "guideScene": 3,
                "guideStyle": "QUEST_GUIDE_STYLE_TARGET",
                "guideLayer": "QUEST_GUIDE_LAYER_SCENE"
            },
            "guideHint": {
                "COLBFDGFKDJ": ""
            },
            "isRewind": true,
            "finishExec": [
                {
                    "type": "QUEST_EXEC_UNREGISTER_DYNAMIC_GROUP",
                    "param": [
                        "133212194"
                    ]
                }
            ],
            "versionBegin": "",
            "versionEnd": ""
        },
        {
            "subId": 7217003,
            "mainId": 72170,
            "order": 4,
            "descTextMapHash": 1711994564,
            "stepDescTextMapHash": 2421427949,
            "finishCond": [
                {
                    "type": "QUEST_CONTENT_COMPLETE_TALK",
                    "param": [
                        7217002,
                        0
                    ]
                }
            ],
            "guide": {
                "type": "QUEST_GUIDE_NPC",
                "param": [
                    "20268"
                ],
                "guideScene": 3,
                "guideStyle": "QUEST_GUIDE_STYLE_FINISH",
                "guideLayer": "QUEST_GUIDE_LAYER_SCENE"
            },
            "guideHint": {
                "COLBFDGFKDJ": ""
            },
            "isRewind": true,
            "finishExec": [
                {
                    "type": "QUEST_EXEC_DEL_ALL_SPECIFIC_PACK_ITEM",
                    "param": [
                        "101519"
                    ]
                },
                {
                    "type": "QUEST_EXEC_NOTIFY_GROUP_LUA",
                    "param": [
                        "3",
                        "133212315"
                    ]
                }
            ],
            "versionBegin": "",
            "versionEnd": ""
        },
        {
            "subId": 7217004,
            "mainId": 72170,
            "order": 5,
            "descTextMapHash": 2080201236,
            "finishCond": [
                {
                    "type": "QUEST_CONTENT_COMPLETE_TALK",
                    "param": [
                        7217003,
                        0
                    ]
                }
            ],
            "guide": {
                "type": "QUEST_GUIDE_NPC",
                "param": [
                    "20268"
                ],
                "guideScene": 3,
                "guideStyle": "QUEST_GUIDE_STYLE_FINISH",
                "guideLayer": "QUEST_GUIDE_LAYER_SCENE"
            },
            "guideHint": {
                "COLBFDGFKDJ": ""
            },
            "finishParent": true,
            "isRewind": true,
            "finishExec": [
                {
                    "type": "QUEST_EXEC_SET_QUEST_GLOBAL_VAR",
                    "param": [
                        "72170",
                        "1"
                    ]
                },
                {
                    "type": "QUEST_EXEC_REFRESH_GROUP_SUITE",
                    "param": [
                        "3",
                        "133212315,2"
                    ]
                }
            ],
            "versionBegin": "",
            "versionEnd": ""
        },
        {
            "subId": 7217005,
            "mainId": 72170,
            "order": 1,
            "descTextMapHash": 3978277692,
            "showType": "QUEST_HIDDEN",
            "finishCond": [
                {
                    "type": "QUEST_CONTENT_LUA_NOTIFY",
                    "param": [
                        0,
                        0
                    ],
                    "count": 1
                }
            ],
            "guide": {},
            "showGuide": "QUEST_GUIDE_ITEM_DISABLE",
            "guideHint": {
                "COLBFDGFKDJ": ""
            },
            "versionBegin": "",
            "versionEnd": ""
        }
    ],
    "talks": [
        {
            "id": 7217001,
            "beginWay": "TALK_BEGIN_MANUAL",
            "activeMode": "PLAY_MODE_HOST",
            "beginCond": [
                {
                    "type": "QUEST_COND_STATE_EQUAL",
                    "param": [
                        "7217001",
                        "2"
                    ]
                },
                {
                    "type": "QUEST_COND_STATE_EQUAL",
                    "param": [
                        "7217005",
                        "2"
                    ]
                }
            ],
            "priority": 5,
            "initDialog": 721700101,
            "npcId": [
                20268
            ],
            "performCfg": "QuestDialogue/WQ/Inazuma_72170/Q7217001",
            "questId": 72170,
            "assetIndex": 15205609673537242135,
            "prePerformCfg": "",
            "talkMarkType": "TALK_MARK_COMMON"
        },
        {
            "id": 7217002,
            "beginWay": "TALK_BEGIN_MANUAL",
            "activeMode": "PLAY_MODE_HOST",
            "beginCond": [
                {
                    "type": "QUEST_COND_STATE_EQUAL",
                    "param": [
                        "7217003",
                        "2"
                    ]
                }
            ],
            "priority": 5,
            "initDialog": 721700201,
            "npcId": [
                20268
            ],
            "performCfg": "",
            "questId": 72170,
            "assetIndex": 11728513706486837522,
            "prePerformCfg": ""
        },
        {
            "id": 7217003,
            "beginWay": "TALK_BEGIN_AUTO",
            "activeMode": "PLAY_MODE_HOST",
            "beginCond": [
                {
                    "type": "QUEST_COND_STATE_EQUAL",
                    "param": [
                        "7217004",
                        "2"
                    ]
                }
            ],
            "priority": 5,
            "initDialog": 721700301,
            "npcId": [
                20268
            ],
            "performCfg": "QuestDialogue/WQ/Inazuma_72170/Q7217003",
            "questId": 72170,
            "assetIndex": 14539065157498359944,
            "prePerformCfg": ""
        },
        {
            "id": 7217004,
            "beginWay": "TALK_BEGIN_MANUAL",
            "activeMode": "PLAY_MODE_HOST",
            "beginCondComb": "LOGIC_AND",
            "beginCond": [
                {
                    "type": "QUEST_COND_STATE_EQUAL",
                    "param": [
                        "7217002",
                        "2"
                    ]
                },
                {
                    "type": "QUEST_COND_STATE_EQUAL",
                    "param": [
                        "7217005",
                        "2"
                    ]
                }
            ],
            "priority": 5,
            "initDialog": 721700401,
            "npcId": [
                20268,
                20270,
                20269
            ],
            "performCfg": "QuestDialogue/WQ/Inazuma_72170/Q7217004",
            "questId": 72170,
            "assetIndex": 16437195491856523755,
            "prePerformCfg": ""
        },
        {
            "id": 7217005,
            "beginWay": "TALK_BEGIN_MANUAL",
            "activeMode": "PLAY_MODE_HOST",
            "beginCondComb": "LOGIC_AND",
            "beginCond": [
                {
                    "type": "QUEST_COND_STATE_EQUAL",
                    "param": [
                        "7217002",
                        "2"
                    ]
                },
                {
                    "type": "QUEST_COND_STATE_EQUAL",
                    "param": [
                        "7217005",
                        "3"
                    ]
                }
            ],
            "priority": 5,
            "initDialog": 721700501,
            "npcId": [
                20268,
                20270,
                20269
            ],
            "performCfg": "QuestDialogue/WQ/Inazuma_72170/Q7217005",
            "questId": 72170,
            "assetIndex": 8344832272604204318,
            "prePerformCfg": ""
        },
        {
            "id": 7217006,
            "beginWay": "TALK_BEGIN_MANUAL",
            "activeMode": "PLAY_MODE_HOST",
            "beginCondComb": "LOGIC_OR",
            "beginCond": [
                {
                    "type": "QUEST_COND_STATE_EQUAL",
                    "param": [
                        "7217003",
                        "2"
                    ]
                },
                {
                    "type": "QUEST_COND_STATE_EQUAL",
                    "param": [
                        "7217004",
                        "2"
                    ]
                }
            ],
            "priority": 5,
            "initDialog": 721700601,
            "npcId": [
                20269,
                20270
            ],
            "performCfg": "QuestDialogue/WQ/Inazuma_72170/Q7217006",
            "questId": 72170,
            "assetIndex": 6960780006649884297,
            "prePerformCfg": ""
        },
        {
            "id": 7217007,
            "beginWay": "TALK_BEGIN_MANUAL",
            "activeMode": "PLAY_MODE_HOST",
            "beginCondComb": "LOGIC_AND",
            "beginCond": [
                {
                    "type": "QUEST_COND_STATE_EQUAL",
                    "param": [
                        "7217001",
                        "2"
                    ]
                },
                {
                    "type": "QUEST_COND_STATE_EQUAL",
                    "param": [
                        "7217005",
                        "3"
                    ]
                }
            ],
            "priority": 5,
            "initDialog": 721700701,
            "npcId": [
                20268
            ],
            "performCfg": "QuestDialogue/WQ/Inazuma_72170/Q7217007",
            "questId": 72170,
            "assetIndex": 2045743505578465725,
            "prePerformCfg": "",
            "talkMarkType": "TALK_MARK_COMMON"
        }
    ]
}