{
    "id": 72193,
    "type": "WQ",
    "titleTextMapHash": 4254345311,
    "descTextMapHash": 1364815022,
    "luaPath": "Actor/Quest/WQ72193",
    "showType": "QUEST_HIDDEN",
    "subQuests": [
        {
            "subId": 7219301,
            "mainId": 72193,
            "order": 1,
            "descTextMapHash": 1539392612,
            "showType": "QUEST_HIDDEN",
            "finishCond": [
                {
                    "type": "QUEST_CONTENT_COMPLETE_TALK",
                    "param": [
                        7219302,
                        0
                    ]
                }
            ],
            "guide": {},
            "guideHint": {
                "COLBFDGFKDJ": ""
            },
            "isRewind": true,
            "versionBegin": "",
            "versionEnd": ""
        },
        {
            "subId": 7219302,
            "mainId": 72193,
            "order": 2,
            "showType": "QUEST_HIDDEN",
            "finishCond": [
                {
                    "type": "QUEST_CONTENT_FINISH_PLOT",
                    "param": [
                        7219302,
                        0
                    ]
                }
            ],
            "guide": {},
            "guideHint": {
                "COLBFDGFKDJ": ""
            },
            "versionBegin": "",
            "versionEnd": ""
        },
        {
            "subId": 7219303,
            "mainId": 72193,
            "order": 3,
            "descTextMapHash": 2791896660,
            "showType": "QUEST_HIDDEN",
            "banType": "BAN_GROUP_TRANSPORT_ONLY",
            "finishCond": [
                {
                    "type": "QUEST_CONTENT_LUA_NOTIFY",
                    "param": [
                        0,
                        0
                    ],
                    "count": 1
                }
            ],
            "failCond": [
                {
                    "type": "QUEST_CONTENT_LUA_NOTIFY",
                    "param": [
                        0,
                        0
                    ],
                    "count": 1
                }
            ],
            "guide": {},
            "guideHint": {
                "COLBFDGFKDJ": ""
            },
            "failExec": [
                {
                    "type": "QUEST_EXEC_ROLLBACK_QUEST",
                    "param": [
                        "7219301"
                    ]
                }
            ],
            "versionBegin": "",
            "versionEnd": ""
        },
        {
            "subId": 7219304,
            "mainId": 72193,
            "order": 4,
            "descTextMapHash": 1782559796,
            "showType": "QUEST_HIDDEN",
            "finishCond": [
                {
                    "type": "QUEST_CONTENT_COMPLETE_TALK",
                    "param": [
                        7219305,
                        0
                    ]
                }
            ],
            "guide": {},
            "guideHint": {
                "COLBFDGFKDJ": ""
            },
            "isRewind": true,
            "versionBegin": "",
            "versionEnd": ""
        },
        {
            "subId": 7219305,
            "mainId": 72193,
            "order": 5,
            "showType": "QUEST_HIDDEN",
            "finishCond": [
                {
                    "type": "QUEST_CONTENT_FINISH_PLOT",
                    "param": [
                        7219305,
                        0
                    ]
                }
            ],
            "guide": {},
            "guideHint": {
                "COLBFDGFKDJ": ""
            },
            "versionBegin": "",
            "versionEnd": ""
        },
        {
            "subId": 7219306,
            "mainId": 72193,
            "order": 6,
            "descTextMapHash": 2995968868,
            "showType": "QUEST_HIDDEN",
            "banType": "BAN_GROUP_TRANSPORT_ONLY",
            "finishCond": [
                {
                    "type": "QUEST_CONTENT_LUA_NOTIFY",
                    "param": [
                        0,
                        0
                    ],
                    "count": 1
                }
            ],
            "failCond": [
                {
                    "type": "QUEST_CONTENT_LUA_NOTIFY",
                    "param": [
                        0,
                        0
                    ],
                    "count": 1
                }
            ],
            "guide": {},
            "guideHint": {
                "COLBFDGFKDJ": ""
            },
            "failExec": [
                {
                    "type": "QUEST_EXEC_ROLLBACK_QUEST",
                    "param": [
                        "7219304"
                    ]
                }
            ],
            "versionBegin": "",
            "versionEnd": ""
        },
        {
            "subId": 7219307,
            "mainId": 72193,
            "order": 7,
            "descTextMapHash": 1340038620,
            "showType": "QUEST_HIDDEN",
            "finishCond": [
                {
                    "type": "QUEST_CONTENT_COMPLETE_TALK",
                    "param": [
                        7219308,
                        0
                    ]
                }
            ],
            "guide": {},
            "guideHint": {
                "COLBFDGFKDJ": ""
            },
            "isRewind": true,
            "versionBegin": "",
            "versionEnd": ""
        },
        {
            "subId": 7219308,
            "mainId": 72193,
            "order": 8,
            "showType": "QUEST_HIDDEN",
            "finishCond": [
                {
                    "type": "QUEST_CONTENT_FINISH_PLOT",
                    "param": [
                        7219308,
                        0
                    ]
                }
            ],
            "guide": {},
            "guideHint": {
                "COLBFDGFKDJ": ""
            },
            "versionBegin": "",
            "versionEnd": ""
        },
        {
            "subId": 7219309,
            "mainId": 72193,
            "order": 9,
            "descTextMapHash": 625678548,
            "showType": "QUEST_HIDDEN",
            "banType": "BAN_GROUP_TRANSPORT_ONLY",
            "finishCond": [
                {
                    "type": "QUEST_CONTENT_LUA_NOTIFY",
                    "param": [
                        0,
                        0
                    ],
                    "count": 1
                }
            ],
            "failCond": [
                {
                    "type": "QUEST_CONTENT_LUA_NOTIFY",
                    "param": [
                        0,
                        0
                    ],
                    "count": 1
                }
            ],
            "guide": {},
            "guideHint": {
                "COLBFDGFKDJ": ""
            },
            "failExec": [
                {
                    "type": "QUEST_EXEC_ROLLBACK_QUEST",
                    "param": [
                        "7219307"
                    ]
                }
            ],
            "versionBegin": "",
            "versionEnd": ""
        },
        {
            "subId": 7219310,
            "mainId": 72193,
            "order": 10,
            "descTextMapHash": 4147231252,
            "showType": "QUEST_HIDDEN",
            "finishCond": [
                {
                    "type": "QUEST_CONTENT_FINISH_PLOT",
                    "param": [
                        7219310,
                        0
                    ]
                }
            ],
            "guide": {},
            "guideHint": {
                "COLBFDGFKDJ": ""
            },
            "finishParent": true,
            "versionBegin": "",
            "versionEnd": ""
        }
    ],
    "talks": [
        {
            "id": 7219301,
            "beginWay": "TALK_BEGIN_MANUAL",
            "beginCond": [
                {
                    "type": "QUEST_COND_STATE_EQUAL",
                    "param": [
                        "7219301",
                        "2"
                    ]
                }
            ],
            "priority": 5,
            "nextTalks": [
                7219302,
                7219303
            ],
            "initDialog": 721930101,
            "npcId": [
                20389
            ],
            "performCfg": "",
            "heroTalk": "TALK_HERO_MAIN",
            "questId": 72193,
            "assetIndex": 14158086776012263855,
            "prePerformCfg": ""
        },
        {
            "id": 7219302,
            "beginWay": "TALK_BEGIN_MANUAL",
            "beginCond": [
                {
                    "type": "QUEST_COND_STATE_EQUAL",
                    "param": [
                        "7219301",
                        "2"
                    ]
                }
            ],
            "priority": 1,
            "initDialog": 721930201,
            "npcId": [
                20389
            ],
            "performCfg": "",
            "heroTalk": "TALK_HERO_MAIN",
            "questId": 72193,
            "assetIndex": 2874698886969085943,
            "prePerformCfg": ""
        },
        {
            "id": 7219303,
            "beginWay": "TALK_BEGIN_MANUAL",
            "beginCond": [
                {
                    "type": "QUEST_COND_STATE_EQUAL",
                    "param": [
                        "7219301",
                        "2"
                    ]
                }
            ],
            "priority": 1,
            "initDialog": 721930301,
            "npcId": [
                20389
            ],
            "performCfg": "",
            "heroTalk": "TALK_HERO_MAIN",
            "questId": 72193,
            "assetIndex": 6629034841397288881,
            "prePerformCfg": ""
        },
        {
            "id": 7219304,
            "beginWay": "TALK_BEGIN_MANUAL",
            "beginCond": [
                {
                    "type": "QUEST_COND_STATE_EQUAL",
                    "param": [
                        "7219304",
                        "2"
                    ]
                }
            ],
            "priority": 5,
            "nextTalks": [
                7219305,
                7219306
            ],
            "initDialog": 721930401,
            "npcId": [
                20389
            ],
            "performCfg": "",
            "heroTalk": "TALK_HERO_MAIN",
            "questId": 72193,
            "assetIndex": 2897077408574735484,
            "prePerformCfg": ""
        },
        {
            "id": 7219305,
            "beginWay": "TALK_BEGIN_MANUAL",
            "beginCond": [
                {
                    "type": "QUEST_COND_STATE_EQUAL",
                    "param": [
                        "7219304",
                        "2"
                    ]
                }
            ],
            "priority": 1,
            "initDialog": 721930501,
            "npcId": [
                20389
            ],
            "performCfg": "",
            "heroTalk": "TALK_HERO_MAIN",
            "questId": 72193,
            "assetIndex": 14558017921970795956,
            "prePerformCfg": ""
        },
        {
            "id": 7219306,
            "beginWay": "TALK_BEGIN_MANUAL",
            "beginCond": [
                {
                    "type": "QUEST_COND_STATE_EQUAL",
                    "param": [
                        "7219304",
                        "2"
                    ]
                }
            ],
            "priority": 1,
            "initDialog": 721930601,
            "npcId": [
                20389
            ],
            "performCfg": "",
            "heroTalk": "TALK_HERO_MAIN",
            "questId": 72193,
            "assetIndex": 6188454708979381370,
            "prePerformCfg": ""
        },
        {
            "id": 7219307,
            "beginWay": "TALK_BEGIN_MANUAL",
            "beginCond": [
                {
                    "type": "QUEST_COND_STATE_EQUAL",
                    "param": [
                        "7219307",
                        "2"
                    ]
                }
            ],
            "priority": 5,
            "nextTalks": [
                7219308,
                7219309
            ],
            "initDialog": 721930701,
            "npcId": [
                20389
            ],
            "performCfg": "",
            "heroTalk": "TALK_HERO_MAIN",
            "questId": 72193,
            "assetIndex": 6708089314002974198,
            "prePerformCfg": ""
        },
        {
            "id": 7219308,
            "beginWay": "TALK_BEGIN_MANUAL",
            "beginCond": [
                {
                    "type": "QUEST_COND_STATE_EQUAL",
                    "param": [
                        "7219307",
                        "2"
                    ]
                }
            ],
            "priority": 1,
            "initDialog": 721930801,
            "npcId": [
                20389
            ],
            "performCfg": "",
            "heroTalk": "TALK_HERO_MAIN",
            "questId": 72193,
            "assetIndex": 10079870495751299547,
            "prePerformCfg": ""
        },
        {
            "id": 7219309,
            "beginWay": "TALK_BEGIN_MANUAL",
            "beginCond": [
                {
                    "type": "QUEST_COND_STATE_EQUAL",
                    "param": [
                        "7219307",
                        "2"
                    ]
                }
            ],
            "priority": 1,
            "initDialog": 721930901,
            "npcId": [
                20389
            ],
            "performCfg": "",
            "heroTalk": "TALK_HERO_MAIN",
            "questId": 72193,
            "assetIndex": 10199500715990250006,
            "prePerformCfg": ""
        }
    ]
}