{
    "id": 72248,
    "type": "WQ",
    "activeMode": "PLAY_MODE_ALL",
    "titleTextMapHash": 4012655439,
    "descTextMapHash": 2344828814,
    "luaPath": "Actor/Quest/WQ72248",
    "chapterId": 10060,
    "subQuests": [
        {
            "subId": 7224801,
            "mainId": 72248,
            "order": 1,
            "descTextMapHash": 148271548,
            "showType": "QUEST_HIDDEN",
            "finishCond": [
                {
                    "type": "QUEST_CONTENT_LUA_NOTIFY",
                    "param": [
                        0,
                        0
                    ],
                    "count": 1
                }
            ],
            "guide": {},
            "guideHint": {
                "COLBFDGFKDJ": ""
            },
            "isRewind": true,
            "finishExec": [
                {
                    "type": "QUEST_EXEC_SET_QUEST_GLOBAL_VAR",
                    "param": [
                        "7219806",
                        "1"
                    ]
                }
            ],
            "versionBegin": "",
            "versionEnd": ""
        },
        {
            "subId": 7224802,
            "mainId": 72248,
            "order": 3,
            "descTextMapHash": 1648171740,
            "guideTipsTextMapHash": 1172224622,
            "finishCond": [
                {
                    "type": "QUEST_CONTENT_COMPLETE_TALK",
                    "param": [
                        7224805,
                        0
                    ]
                }
            ],
            "guide": {
                "type": "QUEST_GUIDE_SHOW_OR_HIDE_NPC",
                "autoGuide": "QUEST_GUIDE_AUTO_ENABLE",
                "param": [
                    "20356",
                    "11",
                    "2"
                ],
                "guideScene": 5,
                "guideStyle": "QUEST_GUIDE_STYLE_TARGET",
                "guideLayer": "QUEST_GUIDE_LAYER_SCENE"
            },
            "guideHint": {
                "COLBFDGFKDJ": ""
            },
            "isRewind": true,
            "finishExec": [
                {
                    "type": "QUEST_EXEC_NOTIFY_GROUP_LUA",
                    "param": [
                        "5",
                        "155006027"
                    ]
                }
            ],
            "versionBegin": "",
            "versionEnd": ""
        },
        {
            "subId": 7224803,
            "mainId": 72248,
            "order": 4,
            "descTextMapHash": 730606036,
            "showType": "QUEST_HIDDEN",
            "finishCond": [
                {
                    "type": "QUEST_CONTENT_LUA_NOTIFY",
                    "param": [
                        0,
                        0
                    ],
                    "count": 1
                }
            ],
            "failCond": [
                {
                    "type": "QUEST_CONTENT_LUA_NOTIFY",
                    "param": [
                        0,
                        0
                    ],
                    "count": 1
                }
            ],
            "guide": {},
            "guideHint": {
                "COLBFDGFKDJ": ""
            },
            "isRewind": true,
            "failExec": [
                {
                    "type": "QUEST_EXEC_ROLLBACK_QUEST",
                    "param": [
                        "7224802"
                    ]
                }
            ],
            "versionBegin": "",
            "versionEnd": ""
        },
        {
            "subId": 7224804,
            "mainId": 72248,
            "order": 5,
            "descTextMapHash": 3677936524,
            "guideTipsTextMapHash": 852715990,
            "finishCond": [
                {
                    "type": "QUEST_CONTENT_COMPLETE_TALK",
                    "param": [
                        7224802,
                        0
                    ]
                }
            ],
            "guide": {
                "type": "QUEST_GUIDE_SHOW_OR_HIDE_NPC",
                "autoGuide": "QUEST_GUIDE_AUTO_ENABLE",
                "param": [
                    "20356",
                    "11",
                    "2"
                ],
                "guideScene": 5,
                "guideStyle": "QUEST_GUIDE_STYLE_TARGET",
                "guideLayer": "QUEST_GUIDE_LAYER_SCENE"
            },
            "guideHint": {
                "COLBFDGFKDJ": ""
            },
            "finishParent": true,
            "isRewind": true,
            "versionBegin": "",
            "versionEnd": ""
        },
        {
            "subId": 7224805,
            "mainId": 72248,
            "order": 2,
            "descTextMapHash": 3831293412,
            "showType": "QUEST_HIDDEN",
            "finishCond": [
                {
                    "type": "QUEST_CONTENT_COMPLETE_TALK",
                    "param": [
                        7224803,
                        0
                    ]
                }
            ],
            "guide": {
                "type": "QUEST_GUIDE_NPC",
                "autoGuide": "QUEST_GUIDE_AUTO_ENABLE",
                "param": [
                    "20356"
                ],
                "guideScene": 5,
                "guideStyle": "QUEST_GUIDE_STYLE_TARGET",
                "guideLayer": "QUEST_GUIDE_LAYER_SCENE"
            },
            "guideHint": {
                "COLBFDGFKDJ": ""
            },
            "failParentShow": "QUEST_HIDDEN",
            "isRewind": true,
            "versionBegin": "",
            "versionEnd": ""
        }
    ],
    "talks": [
        {
            "id": 7224801,
            "beginWay": "TALK_BEGIN_MANUAL",
            "activeMode": "PLAY_MODE_HOST",
            "beginCond": [
                {
                    "type": "QUEST_COND_STATE_EQUAL",
                    "param": [
                        "7224802",
                        "2"
                    ]
                }
            ],
            "priority": 5,
            "nextTalks": [
                7224805,
                7224806
            ],
            "initDialog": 722480101,
            "npcId": [
                20356
            ],
            "performCfg": "",
            "questId": 72248,
            "assetIndex": 13550985164903681719,
            "prePerformCfg": ""
        },
        {
            "id": 7224802,
            "beginWay": "TALK_BEGIN_MANUAL",
            "activeMode": "PLAY_MODE_HOST",
            "beginCond": [
                {
                    "type": "QUEST_COND_STATE_EQUAL",
                    "param": [
                        "7224804",
                        "2"
                    ]
                }
            ],
            "priority": 5,
            "initDialog": 722480201,
            "npcId": [
                20356,
                1005
            ],
            "performCfg": "QuestDialogue/WQ/Inazuma_72248/Q7224802",
            "questId": 72248,
            "assetIndex": 9192894364358402048,
            "prePerformCfg": ""
        },
        {
            "id": 7224803,
            "beginWay": "TALK_BEGIN_MANUAL",
            "activeMode": "PLAY_MODE_HOST",
            "beginCond": [
                {
                    "type": "QUEST_COND_STATE_EQUAL",
                    "param": [
                        "7224805",
                        "2"
                    ]
                }
            ],
            "priority": 5,
            "initDialog": 722480301,
            "npcId": [
                1005,
                20356
            ],
            "performCfg": "QuestDialogue/WQ/Inazuma_72248/Q7224803",
            "questId": 72248,
            "assetIndex": 10460876011888416708,
            "prePerformCfg": "",
            "talkMarkType": "TALK_MARK_COMMON"
        },
        {
            "id": 7224805,
            "activeMode": "PLAY_MODE_HOST",
            "beginCond": [
                {
                    "type": "QUEST_COND_STATE_EQUAL",
                    "param": [
                        "7224802",
                        "2"
                    ]
                }
            ],
            "priority": 5,
            "initDialog": 722480501,
            "npcId": [
                20356
            ],
            "performCfg": "",
            "questId": 72248,
            "assetIndex": 2699246715278094105,
            "prePerformCfg": ""
        },
        {
            "id": 7224806,
            "activeMode": "PLAY_MODE_HOST",
            "beginCond": [
                {
                    "type": "QUEST_COND_STATE_EQUAL",
                    "param": [
                        "7224802",
                        "2"
                    ]
                }
            ],
            "priority": 5,
            "initDialog": 722480601,
            "npcId": [
                20356
            ],
            "performCfg": "",
            "questId": 72248,
            "assetIndex": 6801302020101511182,
            "prePerformCfg": ""
        }
    ],
    "preloadLuaList": [
        1631167658280560862
    ]
}