{
    "id": 72280,
    "resId": 4011,
    "type": "WQ",
    "mainQuestTag": "MAINQUEST_TAG_ACTIVITY",
    "titleTextMapHash": 3980551671,
    "descTextMapHash": 1743042774,
    "luaPath": "Actor/Quest/WQ72280",
    "rewardIdList": [
        172280
    ],
    "activityId": 2012,
    "subQuests": [
        {
            "subId": 7228001,
            "mainId": 72280,
            "order": 2,
            "descTextMapHash": 3215681132,
            "ALGDOBKHJPL": [
                320905
            ],
            "finishCond": [
                {
                    "type": "QUEST_CONTENT_COMPLETE_TALK",
                    "param": [
                        7228001,
                        0
                    ]
                }
            ],
            "guide": {
                "type": "QUEST_GUIDE_NPC",
                "param": [
                    "1038"
                ],
                "guideScene": 3,
                "guideStyle": "QUEST_GUIDE_STYLE_TARGET",
                "guideLayer": "QUEST_GUIDE_LAYER_SCENE"
            },
            "guideHint": {
                "COLBFDGFKDJ": ""
            },
            "isRewind": true,
            "versionBegin": "",
            "versionEnd": ""
        },
        {
            "subId": 7228002,
            "mainId": 72280,
            "order": 4,
            "descTextMapHash": 707760180,
            "stepDescTextMapHash": 1441148597,
            "ALGDOBKHJPL": [
                320905
            ],
            "finishCond": [
                {
                    "type": "QUEST_CONTENT_LUA_NOTIFY",
                    "param": [
                        0,
                        0
                    ],
                    "count": 1
                }
            ],
            "guide": {
                "type": "QUEST_GUIDE_LOCATION",
                "param": [
                    "guide_Q7228002",
                    "15"
                ],
                "guideScene": 3,
                "guideStyle": "QUEST_GUIDE_STYLE_POINT",
                "guideLayer": "QUEST_GUIDE_LAYER_SCENE"
            },
            "showGuide": "QUEST_GUIDE_ITEM_DISABLE",
            "guideHint": {
                "COLBFDGFKDJ": ""
            },
            "isRewind": true,
            "versionBegin": "",
            "versionEnd": ""
        },
        {
            "subId": 7228003,
            "mainId": 72280,
            "order": 5,
            "descTextMapHash": 2034456212,
            "ALGDOBKHJPL": [
                320905
            ],
            "finishCond": [
                {
                    "type": "QUEST_CONTENT_COMPLETE_TALK",
                    "param": [
                        7228003,
                        0
                    ]
                }
            ],
            "guide": {
                "type": "QUEST_GUIDE_NPC",
                "param": [
                    "1040"
                ],
                "guideScene": 3,
                "guideStyle": "QUEST_GUIDE_STYLE_TARGET",
                "guideLayer": "QUEST_GUIDE_LAYER_SCENE"
            },
            "guideHint": {
                "COLBFDGFKDJ": ""
            },
            "versionBegin": "",
            "versionEnd": ""
        },
        {
            "subId": 7228004,
            "mainId": 72280,
            "order": 7,
            "subIdSet": 1,
            "descTextMapHash": 1580489124,
            "stepDescTextMapHash": 740020005,
            "ALGDOBKHJPL": [
                320905
            ],
            "finishCond": [
                {
                    "type": "QUEST_CONTENT_COMPLETE_TALK",
                    "param": [
                        7228004,
                        0
                    ]
                }
            ],
            "guide": {
                "type": "QUEST_GUIDE_NPC",
                "param": [
                    "20572"
                ],
                "guideScene": 3,
                "guideStyle": "QUEST_GUIDE_STYLE_TARGET",
                "guideLayer": "QUEST_GUIDE_LAYER_SCENE"
            },
            "guideHint": {
                "COLBFDGFKDJ": ""
            },
            "isRewind": true,
            "versionBegin": "",
            "versionEnd": ""
        },
        {
            "subId": 7228005,
            "mainId": 72280,
            "order": 8,
            "subIdSet": 1,
            "descTextMapHash": 1587461004,
            "ALGDOBKHJPL": [
                320905
            ],
            "finishCond": [
                {
                    "type": "QUEST_CONTENT_COMPLETE_TALK",
                    "param": [
                        7228005,
                        0
                    ]
                }
            ],
            "guide": {
                "type": "QUEST_GUIDE_NPC",
                "param": [
                    "20573"
                ],
                "guideScene": 3,
                "guideStyle": "QUEST_GUIDE_STYLE_TARGET",
                "guideLayer": "QUEST_GUIDE_LAYER_SCENE"
            },
            "guideHint": {
                "COLBFDGFKDJ": ""
            },
            "isRewind": true,
            "versionBegin": "",
            "versionEnd": ""
        },
        {
            "subId": 7228006,
            "mainId": 72280,
            "order": 9,
            "subIdSet": 1,
            "descTextMapHash": 3027049324,
            "ALGDOBKHJPL": [
                320905
            ],
            "finishCond": [
                {
                    "type": "QUEST_CONTENT_COMPLETE_TALK",
                    "param": [
                        7228006,
                        0
                    ]
                }
            ],
            "guide": {
                "type": "QUEST_GUIDE_NPC",
                "param": [
                    "20574"
                ],
                "guideScene": 3,
                "guideStyle": "QUEST_GUIDE_STYLE_TARGET",
                "guideLayer": "QUEST_GUIDE_LAYER_SCENE"
            },
            "guideHint": {
                "COLBFDGFKDJ": ""
            },
            "isRewind": true,
            "versionBegin": "",
            "versionEnd": ""
        },
        {
            "subId": 7228007,
            "mainId": 72280,
            "order": 12,
            "descTextMapHash": 3284464484,
            "ALGDOBKHJPL": [
                320905
            ],
            "finishCond": [
                {
                    "type": "QUEST_CONTENT_COMPLETE_TALK",
                    "param": [
                        7228007,
                        0
                    ]
                }
            ],
            "guide": {
                "type": "QUEST_GUIDE_NPC",
                "param": [
                    "3082"
                ],
                "guideScene": 3,
                "guideStyle": "QUEST_GUIDE_STYLE_TARGET",
                "guideLayer": "QUEST_GUIDE_LAYER_SCENE"
            },
            "guideHint": {
                "COLBFDGFKDJ": ""
            },
            "isRewind": true,
            "versionBegin": "",
            "versionEnd": ""
        },
        {
            "subId": 7228008,
            "mainId": 72280,
            "order": 13,
            "descTextMapHash": 350157372,
            "stepDescTextMapHash": 1251503813,
            "ALGDOBKHJPL": [
                320905
            ],
            "finishCond": [
                {
                    "type": "QUEST_CONTENT_COMPLETE_TALK",
                    "param": [
                        7228008,
                        0
                    ]
                }
            ],
            "guide": {
                "type": "QUEST_GUIDE_NPC",
                "param": [
                    "20574"
                ],
                "guideScene": 3,
                "guideStyle": "QUEST_GUIDE_STYLE_TARGET",
                "guideLayer": "QUEST_GUIDE_LAYER_SCENE"
            },
            "guideHint": {
                "COLBFDGFKDJ": ""
            },
            "isRewind": true,
            "versionBegin": "",
            "versionEnd": ""
        },
        {
            "subId": 7228009,
            "mainId": 72280,
            "order": 14,
            "descTextMapHash": 613675884,
            "stepDescTextMapHash": 3204784549,
            "finishCond": [
                {
                    "type": "QUEST_CONTENT_FINISH_PLOT",
                    "param": [
                        7228009,
                        0
                    ]
                }
            ],
            "guide": {
                "type": "QUEST_GUIDE_LOCATION",
                "param": [
                    "guide_Q7228009",
                    "20"
                ],
                "guideScene": 3,
                "guideStyle": "QUEST_GUIDE_STYLE_POINT",
                "guideLayer": "QUEST_GUIDE_LAYER_SCENE"
            },
            "guideHint": {
                "COLBFDGFKDJ": ""
            },
            "isRewind": true,
            "versionBegin": "",
            "versionEnd": ""
        },
        {
            "subId": 7228010,
            "mainId": 72280,
            "order": 15,
            "descTextMapHash": 3490274868,
            "finishCond": [
                {
                    "type": "QUEST_CONTENT_BARGAIN_SUCC",
                    "param": [
                        6,
                        0
                    ]
                },
                {
                    "type": "QUEST_CONTENT_BARGAIN_FAIL",
                    "param": [
                        6,
                        0
                    ]
                }
            ],
            "guide": {
                "type": "QUEST_GUIDE_NPC",
                "param": [
                    "20575"
                ],
                "guideScene": 3,
                "guideStyle": "QUEST_GUIDE_STYLE_TARGET",
                "guideLayer": "QUEST_GUIDE_LAYER_SCENE"
            },
            "guideHint": {
                "COLBFDGFKDJ": ""
            },
            "isRewind": true,
            "finishExec": [
                {
                    "type": "QUEST_EXEC_STOP_BARGAIN",
                    "param": [
                        "6"
                    ]
                }
            ],
            "versionBegin": "",
            "versionEnd": ""
        },
        {
            "subId": 7228011,
            "mainId": 72280,
            "order": 10,
            "showType": "QUEST_HIDDEN",
            "ALGDOBKHJPL": [
                320905
            ],
            "finishCond": [
                {
                    "type": "QUEST_CONTENT_QUEST_STATE_EQUAL",
                    "param": [
                        7228004,
                        3
                    ]
                },
                {
                    "type": "QUEST_CONTENT_QUEST_STATE_EQUAL",
                    "param": [
                        7228005,
                        3
                    ]
                },
                {
                    "type": "QUEST_CONTENT_QUEST_STATE_EQUAL",
                    "param": [
                        7228006,
                        3
                    ]
                }
            ],
            "guide": {},
            "showGuide": "QUEST_GUIDE_ITEM_DISABLE",
            "guideHint": {
                "COLBFDGFKDJ": ""
            },
            "failParentShow": "QUEST_HIDDEN",
            "isRewind": true,
            "versionBegin": "",
            "versionEnd": ""
        },
        {
            "subId": 7228012,
            "mainId": 72280,
            "order": 16,
            "descTextMapHash": 3273352804,
            "finishCond": [
                {
                    "type": "QUEST_CONTENT_COMPLETE_TALK",
                    "param": [
                        7228012,
                        0
                    ]
                }
            ],
            "guide": {
                "type": "QUEST_GUIDE_NPC",
                "param": [
                    "20575"
                ],
                "guideScene": 3,
                "guideStyle": "QUEST_GUIDE_STYLE_TARGET",
                "guideLayer": "QUEST_GUIDE_LAYER_SCENE"
            },
            "guideHint": {
                "COLBFDGFKDJ": ""
            },
            "finishExec": [
                {
                    "type": "QUEST_EXEC_DEL_ALL_SPECIFIC_PACK_ITEM",
                    "param": [
                        "101754"
                    ]
                }
            ],
            "versionBegin": "",
            "versionEnd": ""
        },
        {
            "subId": 7228013,
            "mainId": 72280,
            "order": 17,
            "descTextMapHash": 2022282532,
            "stepDescTextMapHash": 1146454005,
            "ALGDOBKHJPL": [
                320905
            ],
            "finishCond": [
                {
                    "type": "QUEST_CONTENT_COMPLETE_TALK",
                    "param": [
                        7228013,
                        0
                    ]
                }
            ],
            "guide": {
                "type": "QUEST_GUIDE_NPC",
                "param": [
                    "3082"
                ],
                "guideScene": 3,
                "guideStyle": "QUEST_GUIDE_STYLE_TARGET",
                "guideLayer": "QUEST_GUIDE_LAYER_SCENE"
            },
            "guideHint": {
                "COLBFDGFKDJ": ""
            },
            "isRewind": true,
            "versionBegin": "",
            "versionEnd": ""
        },
        {
            "subId": 7228014,
            "mainId": 72280,
            "order": 19,
            "showType": "QUEST_HIDDEN",
            "finishCond": [
                {
                    "type": "QUEST_CONTENT_FINISH_PLOT",
                    "param": [
                        7228014,
                        0
                    ]
                }
            ],
            "guide": {},
            "showGuide": "QUEST_GUIDE_ITEM_DISABLE",
            "guideHint": {
                "COLBFDGFKDJ": ""
            },
            "failParentShow": "QUEST_HIDDEN",
            "finishExec": [
                {
                    "type": "QUEST_EXEC_REFRESH_GROUP_SUITE",
                    "param": [
                        "3",
                        "133221074,1"
                    ]
                }
            ],
            "versionBegin": "",
            "versionEnd": ""
        },
        {
            "subId": 7228015,
            "mainId": 72280,
            "order": 18,
            "descTextMapHash": 1092630492,
            "stepDescTextMapHash": 1380456109,
            "finishCond": [
                {
                    "type": "QUEST_CONTENT_COMPLETE_TALK",
                    "param": [
                        7228015,
                        0
                    ]
                }
            ],
            "guide": {
                "type": "QUEST_GUIDE_NPC",
                "param": [
                    "1038"
                ],
                "guideScene": 3,
                "guideStyle": "QUEST_GUIDE_STYLE_TARGET",
                "guideLayer": "QUEST_GUIDE_LAYER_SCENE"
            },
            "guideHint": {
                "COLBFDGFKDJ": ""
            },
            "finishParent": true,
            "isRewind": true,
            "finishExec": [
                {
                    "type": "QUEST_EXEC_DEL_ALL_SPECIFIC_PACK_ITEM",
                    "param": [
                        "101755"
                    ]
                },
                {
                    "type": "QUEST_EXEC_REFRESH_GROUP_SUITE",
                    "param": [
                        "3",
                        "133221074,2"
                    ]
                },
                {
                    "type": "QUEST_EXEC_UNREGISTER_DYNAMIC_GROUP",
                    "param": [
                        "133221074",
                        "1"
                    ]
                },
                {
                    "type": "QUEST_EXEC_UNREGISTER_DYNAMIC_GROUP",
                    "param": [
                        "133209100",
                        "0"
                    ]
                },
                {
                    "type": "QUEST_EXEC_SET_QUEST_GLOBAL_VAR",
                    "param": [
                        "7228001",
                        "1"
                    ]
                }
            ],
            "versionBegin": "",
            "versionEnd": ""
        },
        {
            "subId": 7228016,
            "mainId": 72280,
            "order": 6,
            "showType": "QUEST_HIDDEN",
            "finishCond": [
                {
                    "type": "QUEST_CONTENT_FINISH_PLOT",
                    "param": [
                        7228016,
                        0
                    ]
                }
            ],
            "guide": {},
            "showGuide": "QUEST_GUIDE_ITEM_DISABLE",
            "guideHint": {
                "COLBFDGFKDJ": ""
            },
            "failParentShow": "QUEST_HIDDEN",
            "finishExec": [
                {
                    "type": "QUEST_EXEC_UNREGISTER_DYNAMIC_GROUP",
                    "param": [
                        "133209067",
                        "0"
                    ]
                }
            ],
            "versionBegin": "",
            "versionEnd": ""
        },
        {
            "subId": 7228017,
            "mainId": 72280,
            "order": 11,
            "descTextMapHash": 618823116,
            "ALGDOBKHJPL": [
                320905
            ],
            "finishCond": [
                {
                    "type": "QUEST_CONTENT_COMPLETE_TALK",
                    "param": [
                        7228011,
                        0
                    ]
                }
            ],
            "guide": {
                "type": "QUEST_GUIDE_NPC",
                "param": [
                    "1040"
                ],
                "guideScene": 3,
                "guideStyle": "QUEST_GUIDE_STYLE_TARGET",
                "guideLayer": "QUEST_GUIDE_LAYER_SCENE"
            },
            "guideHint": {
                "COLBFDGFKDJ": ""
            },
            "isRewind": true,
            "versionBegin": "",
            "versionEnd": ""
        },
        {
            "subId": 7228018,
            "mainId": 72280,
            "order": 1,
            "showType": "QUEST_HIDDEN",
            "finishCond": [
                {
                    "type": "QUEST_CONTENT_FINISH_PLOT",
                    "param": [
                        7228018,
                        0
                    ]
                }
            ],
            "guide": {},
            "guideHint": {
                "COLBFDGFKDJ": ""
            },
            "failParentShow": "QUEST_HIDDEN",
            "isRewind": true,
            "versionBegin": "",
            "versionEnd": ""
        },
        {
            "subId": 7228019,
            "mainId": 72280,
            "order": 3,
            "showType": "QUEST_HIDDEN",
            "finishCond": [
                {
                    "type": "QUEST_CONTENT_FINISH_PLOT",
                    "param": [
                        7228019,
                        0
                    ]
                }
            ],
            "guide": {},
            "showGuide": "QUEST_GUIDE_ITEM_DISABLE",
            "guideHint": {
                "COLBFDGFKDJ": ""
            },
            "failParentShow": "QUEST_HIDDEN",
            "finishExec": [
                {
                    "type": "QUEST_EXEC_SET_GAME_TIME",
                    "param": [
                        "11"
                    ]
                }
            ],
            "versionBegin": "",
            "versionEnd": ""
        }
    ],
    "talks": [
        {
            "id": 7228001,
            "beginWay": "TALK_BEGIN_MANUAL",
            "beginCond": [
                {
                    "type": "QUEST_COND_STATE_EQUAL",
                    "param": [
                        "7228001",
                        "2"
                    ]
                }
            ],
            "priority": 5,
            "initDialog": 722800101,
            "npcId": [
                1038,
                20570,
                1040
            ],
            "performCfg": "QuestDialogue/WQ/Inazuma_72280/Q7228001",
            "heroTalk": "TALK_HERO_MAIN",
            "questId": 72280,
            "assetIndex": 8796080615651738414,
            "prePerformCfg": "",
            "lockGameTime": true
        },
        {
            "id": 7228003,
            "beginWay": "TALK_BEGIN_MANUAL",
            "beginCond": [
                {
                    "type": "QUEST_COND_STATE_EQUAL",
                    "param": [
                        "7228003",
                        "2"
                    ]
                }
            ],
            "priority": 5,
            "initDialog": 722800301,
            "npcId": [
                1040
            ],
            "performCfg": "QuestDialogue/WQ/Inazuma_72280/Q7228003",
            "heroTalk": "TALK_HERO_MAIN",
            "questId": 72280,
            "assetIndex": 14689375936355046061,
            "prePerformCfg": ""
        },
        {
            "id": 7228004,
            "beginWay": "TALK_BEGIN_MANUAL",
            "beginCond": [
                {
                    "type": "QUEST_COND_STATE_EQUAL",
                    "param": [
                        "7228004",
                        "2"
                    ]
                }
            ],
            "priority": 5,
            "initDialog": 722800401,
            "npcId": [
                20572
            ],
            "performCfg": "QuestDialogue/WQ/Inazuma_72280/Q7228004",
            "heroTalk": "TALK_HERO_MAIN",
            "questId": 72280,
            "assetIndex": 236851987420506715,
            "prePerformCfg": ""
        },
        {
            "id": 7228005,
            "beginWay": "TALK_BEGIN_MANUAL",
            "beginCond": [
                {
                    "type": "QUEST_COND_STATE_EQUAL",
                    "param": [
                        "7228005",
                        "2"
                    ]
                }
            ],
            "priority": 5,
            "initDialog": 722800501,
            "npcId": [
                20573
            ],
            "performCfg": "QuestDialogue/WQ/Inazuma_72280/Q7228005",
            "heroTalk": "TALK_HERO_MAIN",
            "questId": 72280,
            "assetIndex": 16922793583777312046,
            "prePerformCfg": ""
        },
        {
            "id": 7228006,
            "beginWay": "TALK_BEGIN_MANUAL",
            "beginCondComb": "LOGIC_OR",
            "beginCond": [
                {
                    "type": "QUEST_COND_STATE_EQUAL",
                    "param": [
                        "7228006",
                        "2"
                    ]
                },
                {
                    "type": "QUEST_COND_STATE_EQUAL",
                    "param": [
                        "7228007",
                        "2"
                    ]
                },
                {
                    "type": "QUEST_COND_STATE_EQUAL",
                    "param": [
                        "7228017",
                        "2"
                    ]
                }
            ],
            "priority": 5,
            "initDialog": 722800601,
            "npcId": [
                20574
            ],
            "performCfg": "QuestDialogue/WQ/Inazuma_72280/Q7228006",
            "heroTalk": "TALK_HERO_MAIN",
            "questId": 72280,
            "assetIndex": 17881601322024387116,
            "prePerformCfg": ""
        },
        {
            "id": 7228007,
            "beginWay": "TALK_BEGIN_MANUAL",
            "beginCond": [
                {
                    "type": "QUEST_COND_STATE_EQUAL",
                    "param": [
                        "7228007",
                        "2"
                    ]
                }
            ],
            "priority": 5,
            "initDialog": 722800701,
            "npcId": [
                3082
            ],
            "performCfg": "QuestDialogue/WQ/Inazuma_72280/Q7228007",
            "heroTalk": "TALK_HERO_MAIN",
            "questId": 72280,
            "assetIndex": 6625898205931632756,
            "prePerformCfg": ""
        },
        {
            "id": 7228008,
            "beginWay": "TALK_BEGIN_MANUAL",
            "beginCond": [
                {
                    "type": "QUEST_COND_STATE_EQUAL",
                    "param": [
                        "7228008",
                        "2"
                    ]
                }
            ],
            "priority": 5,
            "initDialog": 722800801,
            "npcId": [
                20574
            ],
            "performCfg": "QuestDialogue/WQ/Inazuma_72280/Q7228008",
            "heroTalk": "TALK_HERO_MAIN",
            "questId": 72280,
            "assetIndex": 10699453000872346792,
            "prePerformCfg": ""
        },
        {
            "id": 7228010,
            "beginWay": "TALK_BEGIN_MANUAL",
            "beginCond": [
                {
                    "type": "QUEST_COND_STATE_EQUAL",
                    "param": [
                        "7228010",
                        "2"
                    ]
                }
            ],
            "priority": 5,
            "initDialog": 722801001,
            "npcId": [
                20575,
                1040
            ],
            "performCfg": "QuestDialogue/WQ/Inazuma_72280/Q7228010",
            "heroTalk": "TALK_HERO_MAIN",
            "questId": 72280,
            "assetIndex": 16240072473213024005,
            "prePerformCfg": ""
        },
        {
            "id": 7228011,
            "beginWay": "TALK_BEGIN_MANUAL",
            "beginCond": [
                {
                    "type": "QUEST_COND_STATE_EQUAL",
                    "param": [
                        "7228017",
                        "2"
                    ]
                }
            ],
            "priority": 5,
            "initDialog": 722801101,
            "npcId": [
                1040
            ],
            "performCfg": "QuestDialogue/WQ/Inazuma_72280/Q7228011",
            "heroTalk": "TALK_HERO_MAIN",
            "questId": 72280,
            "assetIndex": 7682872813090353020,
            "prePerformCfg": ""
        },
        {
            "id": 7228012,
            "beginCond": [
                {
                    "type": "QUEST_COND_STATE_EQUAL",
                    "param": [
                        "7228012",
                        "2"
                    ]
                }
            ],
            "priority": 5,
            "initDialog": 722801201,
            "npcId": [
                20575,
                1038,
                1040
            ],
            "performCfg": "QuestDialogue/WQ/Inazuma_72280/Q7228012",
            "heroTalk": "TALK_HERO_MAIN",
            "questId": 72280,
            "assetIndex": 3052328836264322555,
            "prePerformCfg": ""
        },
        {
            "id": 7228013,
            "beginWay": "TALK_BEGIN_MANUAL",
            "beginCond": [
                {
                    "type": "QUEST_COND_STATE_EQUAL",
                    "param": [
                        "7228013",
                        "2"
                    ]
                }
            ],
            "priority": 5,
            "initDialog": 722801301,
            "npcId": [
                3082,
                1040
            ],
            "performCfg": "QuestDialogue/WQ/Inazuma_72280/Q7228013",
            "heroTalk": "TALK_HERO_MAIN",
            "questId": 72280,
            "assetIndex": 4824164203169645824,
            "prePerformCfg": ""
        },
        {
            "id": 7228015,
            "beginWay": "TALK_BEGIN_MANUAL",
            "beginCond": [
                {
                    "type": "QUEST_COND_STATE_EQUAL",
                    "param": [
                        "7228015",
                        "2"
                    ]
                }
            ],
            "priority": 5,
            "initDialog": 722801501,
            "npcId": [
                1038,
                12076
            ],
            "performCfg": "QuestDialogue/WQ/Inazuma_72280/Q7228015",
            "heroTalk": "TALK_HERO_MAIN",
            "questId": 72280,
            "assetIndex": 9493270394935738810,
            "prePerformCfg": ""
        },
        {
            "id": 7228022,
            "priority": 5,
            "nextTalks": [
                7228012
            ],
            "initDialog": 722801011,
            "npcId": [
                20575
            ],
            "performCfg": "QuestDialogue/WQ/Inazuma_72280/Q7228022",
            "heroTalk": "TALK_HERO_MAIN",
            "questId": 72280,
            "assetIndex": 13158811763114399319,
            "prePerformCfg": ""
        },
        {
            "id": 7228023,
            "priority": 5,
            "nextTalks": [
                7228012
            ],
            "initDialog": 722801014,
            "npcId": [
                20575
            ],
            "performCfg": "QuestDialogue/WQ/Inazuma_72280/Q7228023",
            "heroTalk": "TALK_HERO_MAIN",
            "questId": 72280,
            "assetIndex": 17210752821925730815,
            "prePerformCfg": ""
        },
        {
            "id": 7228024,
            "priority": 5,
            "initDialog": 722801017,
            "npcId": [
                20575
            ],
            "performCfg": "QuestDialogue/WQ/Inazuma_72280/Q7228024",
            "heroTalk": "TALK_HERO_MAIN",
            "questId": 72280,
            "assetIndex": 12420705409256642773,
            "prePerformCfg": ""
        },
        {
            "id": 7228025,
            "priority": 5,
            "initDialog": 722801018,
            "npcId": [
                20575
            ],
            "performCfg": "QuestDialogue/WQ/Inazuma_72280/Q7228025",
            "heroTalk": "TALK_HERO_MAIN",
            "questId": 72280,
            "assetIndex": 6685844271409676415,
            "prePerformCfg": ""
        },
        {
            "id": 7228026,
            "priority": 5,
            "nextTalks": [
                7228012
            ],
            "initDialog": 722801019,
            "npcId": [
                20575
            ],
            "performCfg": "QuestDialogue/WQ/Inazuma_72280/Q7228026",
            "heroTalk": "TALK_HERO_MAIN",
            "questId": 72280,
            "assetIndex": 11841184995239949141,
            "prePerformCfg": ""
        },
        {
            "id": 7228027,
            "beginWay": "TALK_BEGIN_MANUAL",
            "beginCondComb": "LOGIC_A_AND_ETCOR",
            "beginCond": [
                {
                    "type": "QUEST_COND_STATE_EQUAL",
                    "param": [
                        "7228004",
                        "3"
                    ]
                },
                {
                    "type": "QUEST_COND_STATE_EQUAL",
                    "param": [
                        "7228005",
                        "2"
                    ]
                },
                {
                    "type": "QUEST_COND_STATE_EQUAL",
                    "param": [
                        "7228006",
                        "2"
                    ]
                }
            ],
            "priority": 5,
            "initDialog": 722800401,
            "npcId": [
                20572
            ],
            "performCfg": "QuestDialogue/WQ/Inazuma_72280/Q7228004",
            "heroTalk": "TALK_HERO_MAIN",
            "questId": 72280,
            "assetIndex": 13736908830284943110,
            "prePerformCfg": ""
        },
        {
            "id": 7228028,
            "beginWay": "TALK_BEGIN_MANUAL",
            "beginCondComb": "LOGIC_A_AND_ETCOR",
            "beginCond": [
                {
                    "type": "QUEST_COND_STATE_EQUAL",
                    "param": [
                        "7228005",
                        "3"
                    ]
                },
                {
                    "type": "QUEST_COND_STATE_EQUAL",
                    "param": [
                        "7228004",
                        "2"
                    ]
                },
                {
                    "type": "QUEST_COND_STATE_EQUAL",
                    "param": [
                        "7228006",
                        "2"
                    ]
                }
            ],
            "priority": 5,
            "initDialog": 722800501,
            "npcId": [
                20573
            ],
            "performCfg": "QuestDialogue/WQ/Inazuma_72280/Q7228005",
            "heroTalk": "TALK_HERO_MAIN",
            "questId": 72280,
            "assetIndex": 12259024985263277272,
            "prePerformCfg": ""
        },
        {
            "id": 7228029,
            "beginWay": "TALK_BEGIN_MANUAL",
            "beginCondComb": "LOGIC_A_AND_ETCOR",
            "beginCond": [
                {
                    "type": "QUEST_COND_STATE_EQUAL",
                    "param": [
                        "7228006",
                        "3"
                    ]
                },
                {
                    "type": "QUEST_COND_STATE_EQUAL",
                    "param": [
                        "7228004",
                        "2"
                    ]
                },
                {
                    "type": "QUEST_COND_STATE_EQUAL",
                    "param": [
                        "7228005",
                        "2"
                    ]
                }
            ],
            "priority": 5,
            "initDialog": 722800601,
            "npcId": [
                20574
            ],
            "performCfg": "QuestDialogue/WQ/Inazuma_72280/Q7228006",
            "heroTalk": "TALK_HERO_MAIN",
            "questId": 72280,
            "assetIndex": 8382158147142906352,
            "prePerformCfg": ""
        },
        {
            "id": 7228030,
            "beginWay": "TALK_BEGIN_MANUAL",
            "beginCondComb": "LOGIC_OR",
            "beginCond": [
                {
                    "type": "QUEST_COND_STATE_EQUAL",
                    "param": [
                        "7228008",
                        "2"
                    ]
                },
                {
                    "type": "QUEST_COND_STATE_EQUAL",
                    "param": [
                        "7228009",
                        "2"
                    ]
                },
                {
                    "type": "QUEST_COND_STATE_EQUAL",
                    "param": [
                        "7228010",
                        "2"
                    ]
                },
                {
                    "type": "QUEST_COND_STATE_EQUAL",
                    "param": [
                        "7228012",
                        "2"
                    ]
                }
            ],
            "priority": 5,
            "initDialog": 722800704,
            "npcId": [
                3082
            ],
            "performCfg": "QuestDialogue/WQ/Inazuma_72280/Q7228030",
            "heroTalk": "TALK_HERO_MAIN",
            "questId": 72280,
            "assetIndex": 16847462205261171166,
            "prePerformCfg": ""
        },
        {
            "id": 7228031,
            "beginWay": "TALK_BEGIN_MANUAL",
            "beginCond": [
                {
                    "type": "QUEST_COND_STATE_EQUAL",
                    "param": [
                        "7228015",
                        "2"
                    ]
                }
            ],
            "priority": 5,
            "initDialog": 722801305,
            "npcId": [
                3082
            ],
            "performCfg": "QuestDialogue/WQ/Inazuma_72280/Q7228031",
            "heroTalk": "TALK_HERO_MAIN",
            "questId": 72280,
            "assetIndex": 834055608544161082,
            "prePerformCfg": ""
        },
        {
            "id": 7228032,
            "beginWay": "TALK_BEGIN_MANUAL",
            "beginCond": [
                {
                    "type": "QUEST_COND_STATE_EQUAL",
                    "param": [
                        "7228015",
                        "2"
                    ]
                }
            ],
            "priority": 5,
            "initDialog": 722803201,
            "npcId": [
                30210
            ],
            "performCfg": "",
            "heroTalk": "TALK_HERO_MAIN",
            "questId": 72280,
            "assetIndex": 15502123752521053329,
            "prePerformCfg": ""
        }
    ],
    "preloadLuaList": [
        14675478132396842287,
        1896561906340707838,
        1622596028315724289,
        12389168394857417486
    ],
    "GDLCBECFGJO": [
        6930642620921169738
    ],
    "freeStyleDic": {
        "1038": [
            1170,
            1190
        ],
        "20572": [
            1240
        ],
        "20573": [
            1190
        ],
        "20575": [
            1120
        ]
    }
}