{
    "id": 72667,
    "type": "WQ",
    "mainQuestTag": "MAINQUEST_TAG_ACTIVITY",
    "titleTextMapHash": 453605039,
    "descTextMapHash": 1882171958,
    "luaPath": "Actor/Quest/WQ72667",
    "rewardIdList": [
        172667
    ],
    "showRedPoint": true,
    "activityId": 5041,
    "subQuests": [
        {
            "subId": 7266701,
            "mainId": 72667,
            "order": 1,
            "descTextMapHash": 1658396892,
            "showType": "QUEST_HIDDEN",
            "finishCond": [
                {
                    "type": "QUEST_CONTENT_ITEM_LESS_THAN",
                    "param": [
                        111027,
                        1
                    ]
                }
            ],
            "guide": {},
            "guideHint": {
                "COLBFDGFKDJ": ""
            },
            "isRewind": true,
            "versionBegin": "",
            "versionEnd": ""
        },
        {
            "subId": 7266702,
            "mainId": 72667,
            "order": 2,
            "descTextMapHash": 2766820748,
            "finishCond": [
                {
                    "type": "QUEST_CONTENT_COMPLETE_TALK",
                    "param": [
                        7266701,
                        0
                    ]
                }
            ],
            "guide": {
                "type": "QUEST_GUIDE_NPC",
                "param": [
                    "3200"
                ],
                "guideScene": 3,
                "guideStyle": "QUEST_GUIDE_STYLE_TARGET"
            },
            "guideHint": {
                "COLBFDGFKDJ": ""
            },
            "versionBegin": "",
            "versionEnd": ""
        },
        {
            "subId": 7266703,
            "mainId": 72667,
            "order": 3,
            "descTextMapHash": 318196780,
            "showType": "QUEST_HIDDEN",
            "finishCond": [
                {
                    "type": "QUEST_CONTENT_OBTAIN_ITEM",
                    "param": [
                        111027,
                        0
                    ],
                    "count": 1
                }
            ],
            "guide": {},
            "showGuide": "QUEST_GUIDE_ITEM_DISABLE",
            "guideHint": {
                "COLBFDGFKDJ": ""
            },
            "finishExec": [
                {
                    "type": "QUEST_EXEC_ROLLBACK_QUEST",
                    "param": [
                        "7266701"
                    ]
                }
            ],
            "versionBegin": "",
            "versionEnd": ""
        }
    ],
    "talks": [
        {
            "id": 7266701,
            "beginCondComb": "LOGIC_AND",
            "beginCond": [
                {
                    "type": "QUEST_COND_STATE_EQUAL",
                    "param": [
                        "7266702",
                        "2"
                    ]
                },
                {
                    "type": "QUEST_COND_ITEM_NUM_LESS_THAN",
                    "param": [
                        "111027",
                        "1"
                    ]
                }
            ],
            "priority": 5,
            "initDialog": 726670102,
            "npcId": [
                3200
            ],
            "performCfg": "",
            "questId": 72667,
            "assetIndex": 17187348794615842937,
            "prePerformCfg": ""
        }
    ]
}