{
    "id": 72723,
    "type": "WQ",
    "mainQuestTag": "MAINQUEST_TAG_GUIDE",
    "activeMode": "PLAY_MODE_ALL",
    "titleTextMapHash": 3543452679,
    "descTextMapHash": 788529110,
    "luaPath": "Actor/Quest/WQ72722",
    "rewardIdList": [
        172723
    ],
    "showType": "QUEST_HIDDEN",
    "activityId": 2012,
    "subQuests": [
        {
            "subId": 7272301,
            "mainId": 72723,
            "order": 1,
            "showType": "QUEST_HIDDEN",
            "finishCond": [
                {
                    "type": "QUEST_CONTENT_COMPLETE_TALK",
                    "param": [
                        7268701,
                        0
                    ]
                }
            ],
            "guide": {},
            "guideHint": {
                "COLBFDGFKDJ": ""
            },
            "finishParent": true,
            "failParentShow": "QUEST_HIDDEN",
            "versionBegin": "",
            "versionEnd": ""
        }
    ]
}