{
    "id": 72810,
    "type": "WQ",
    "luaPath": "Actor/Quest/WQ72810",
    "showType": "QUEST_HIDDEN",
    "subQuests": [
        {
            "subId": 7281001,
            "mainId": 72810,
            "order": 1,
            "showType": "QUEST_HIDDEN",
            "finishCond": [
                {
                    "type": "QUEST_CONTENT_GAME_TIME_TICK",
                    "param": [
                        0,
                        0
                    ]
                }
            ],
            "guide": {
                "guideScene": 3,
                "guideStyle": "QUEST_GUIDE_STYLE_TARGET",
                "guideLayer": "QUEST_GUIDE_LAYER_SCENE"
            },
            "showGuide": "QUEST_GUIDE_ITEM_DISABLE",
            "guideHint": {
                "COLBFDGFKDJ": ""
            },
            "failParentShow": "QUEST_HIDDEN",
            "isRewind": true,
            "finishExec": [
                {
                    "type": "QUEST_EXEC_INIT_TIME_VAR",
                    "param": [
                        "1"
                    ]
                }
            ],
            "versionBegin": "",
            "versionEnd": ""
        },
        {
            "subId": 7281002,
            "mainId": 72810,
            "order": 2,
            "showType": "QUEST_HIDDEN",
            "finishCond": [
                {
                    "type": "QUEST_CONTENT_TIME_VAR_GT_EQ",
                    "param": [
                        72810,
                        1
                    ]
                }
            ],
            "guide": {
                "guideScene": 3,
                "guideStyle": "QUEST_GUIDE_STYLE_TARGET",
                "guideLayer": "QUEST_GUIDE_LAYER_SCENE"
            },
            "showGuide": "QUEST_GUIDE_ITEM_DISABLE",
            "guideHint": {
                "COLBFDGFKDJ": ""
            },
            "failParentShow": "QUEST_HIDDEN",
            "isRewind": true,
            "versionBegin": "",
            "versionEnd": ""
        },
        {
            "subId": 7281003,
            "mainId": 72810,
            "order": 3,
            "showType": "QUEST_HIDDEN",
            "finishCond": [
                {
                    "type": "QUEST_CONTENT_COMPLETE_TALK",
                    "param": [
                        7281001,
                        0
                    ]
                },
                {
                    "type": "QUEST_CONTENT_TIME_VAR_GT_EQ",
                    "param": [
                        72810,
                        1
                    ]
                }
            ],
            "guide": {
                "type": "QUEST_GUIDE_LOCATION",
                "param": [
                    "Q2202805xiangtai",
                    "20"
                ],
                "guideScene": 3,
                "guideStyle": "QUEST_GUIDE_STYLE_TARGET",
                "guideLayer": "QUEST_GUIDE_LAYER_SCENE"
            },
            "guideHint": {
                "COLBFDGFKDJ": ""
            },
            "failParentShow": "QUEST_HIDDEN",
            "isRewind": true,
            "finishExec": [
                {
                    "type": "QUEST_EXEC_CLEAR_TIME_VAR",
                    "param": [
                        "72810",
                        "1"
                    ]
                },
                {
                    "type": "QUEST_EXEC_UNREGISTER_DYNAMIC_GROUP",
                    "param": [
                        "133221013"
                    ]
                },
                {
                    "type": "QUEST_EXEC_SET_DAILY_TASK_VAR",
                    "param": [
                        "41120",
                        "4",
                        "0"
                    ]
                },
                {
                    "type": "QUEST_EXEC_ROLLBACK_QUEST",
                    "param": [
                        "7281001"
                    ]
                }
            ],
            "versionBegin": "",
            "versionEnd": ""
        }
    ]
}