{
    "id": 73166,
    "type": "WQ",
    "activeMode": "PLAY_MODE_ALL",
    "titleTextMapHash": 1183723207,
    "luaPath": "Actor/Quest/WQ73166",
    "rewardIdList": [
        210007
    ],
    "showType": "QUEST_HIDDEN",
    "subQuests": [
        {
            "subId": 7316601,
            "mainId": 73166,
            "order": 1,
            "showType": "QUEST_HIDDEN",
            "finishCond": [
                {
                    "type": "QUEST_CONTENT_GAME_TIME_TICK",
                    "param": [
                        0,
                        0
                    ]
                }
            ],
            "guide": {},
            "guideHint": {
                "COLBFDGFKDJ": ""
            },
            "failParentShow": "QUEST_HIDDEN",
            "versionBegin": "",
            "versionEnd": ""
        },
        {
            "subId": 7316602,
            "mainId": 73166,
            "order": 2,
            "showType": "QUEST_HIDDEN",
            "finishCond": [
                {
                    "type": "QUEST_CONTENT_QUEST_STATE_EQUAL",
                    "param": [
                        7300309,
                        3
                    ]
                }
            ],
            "guide": {},
            "guideHint": {
                "COLBFDGFKDJ": ""
            },
            "failParentShow": "QUEST_HIDDEN",
            "isRewind": true,
            "versionBegin": "",
            "versionEnd": ""
        },
        {
            "subId": 7316603,
            "mainId": 73166,
            "order": 4,
            "showType": "QUEST_HIDDEN",
            "finishCond": [
                {
                    "type": "QUEST_CONTENT_GADGET_STATE_CHANGE",
                    "param": [
                        133304263,
                        263001
                    ]
                }
            ],
            "guide": {},
            "guideHint": {
                "COLBFDGFKDJ": ""
            },
            "failParentShow": "QUEST_HIDDEN",
            "isRewind": true,
            "versionBegin": "",
            "versionEnd": ""
        },
        {
            "subId": 7316604,
            "mainId": 73166,
            "order": 5,
            "showType": "QUEST_HIDDEN",
            "finishCond": [
                {
                    "type": "QUEST_CONTENT_COMPLETE_TALK",
                    "param": [
                        7316601,
                        0
                    ]
                }
            ],
            "guide": {},
            "guideHint": {
                "COLBFDGFKDJ": ""
            },
            "finishParent": true,
            "failParentShow": "QUEST_HIDDEN",
            "isRewind": true,
            "finishExec": [
                {
                    "type": "QUEST_EXEC_INC_QUEST_GLOBAL_VAR",
                    "param": [
                        "73100",
                        "1"
                    ]
                },
                {
                    "type": "QUEST_EXEC_REFRESH_GROUP_SUITE",
                    "param": [
                        "3",
                        "133304263,3"
                    ]
                }
            ],
            "versionBegin": "",
            "versionEnd": ""
        },
        {
            "subId": 7316605,
            "mainId": 73166,
            "order": 3,
            "showType": "QUEST_HIDDEN",
            "finishCond": [
                {
                    "type": "QUEST_CONTENT_QUEST_STATE_EQUAL",
                    "param": [
                        7302515,
                        3
                    ]
                }
            ],
            "guide": {},
            "guideHint": {
                "COLBFDGFKDJ": ""
            },
            "failParentShow": "QUEST_HIDDEN",
            "isRewind": true,
            "versionBegin": "",
            "versionEnd": ""
        }
    ],
    "talks": [
        {
            "id": 7316601,
            "beginWay": "TALK_BEGIN_MANUAL",
            "activeMode": "PLAY_MODE_ALL",
            "beginCond": [
                {
                    "type": "QUEST_COND_STATE_EQUAL",
                    "param": [
                        "7316603",
                        "3"
                    ]
                }
            ],
            "priority": 5,
            "initDialog": 731660101,
            "npcId": [
                20704
            ],
            "performCfg": "",
            "heroTalk": "TALK_HERO_MAIN",
            "questId": 73166,
            "assetIndex": 12918787797239545410,
            "prePerformCfg": ""
        }
    ],
    "freeStyleDic": {
        "20704": [
            6010,
            1040,
            6060
        ]
    }
}