{
    "id": 73246,
    "type": "WQ",
    "activeMode": "PLAY_MODE_ALL",
    "titleTextMapHash": 3014794863,
    "descTextMapHash": 323093286,
    "luaPath": "Actor/Quest/WQ73246",
    "subQuests": [
        {
            "subId": 7324601,
            "mainId": 73246,
            "order": 1,
            "descTextMapHash": 2729899684,
            "guideTipsTextMapHash": 646826062,
            "finishCond": [
                {
                    "type": "QUEST_CONTENT_QUEST_STATE_EQUAL",
                    "param": [
                        7301301,
                        3
                    ]
                }
            ],
            "guide": {
                "type": "QUEST_GUIDE_LOCATION",
                "param": [
                    "Q7301301_N4191",
                    "25",
                    "11",
                    "38"
                ],
                "guideScene": 3,
                "guideStyle": "QUEST_GUIDE_STYLE_POINT"
            },
            "guideHint": {
                "COLBFDGFKDJ": ""
            },
            "finishParent": true,
            "isRewind": true,
            "versionBegin": "",
            "versionEnd": ""
        }
    ]
}