{
    "id": 73655,
    "type": "WQ",
    "titleTextMapHash": 1863907759,
    "descTextMapHash": 1701449014,
    "luaPath": "Actor/Quest/WQ73655",
    "subQuests": [
        {
            "subId": 7365501,
            "mainId": 73655,
            "order": 1,
            "descTextMapHash": 461927084,
            "finishCond": [
                {
                    "type": "QUEST_CONTENT_FINISH_ITEM_GIVING",
                    "param": [
                        7365501,
                        0
                    ]
                }
            ],
            "guide": {
                "type": "QUEST_GUIDE_NPC",
                "param": [
                    "4164"
                ],
                "guideScene": 3,
                "guideStyle": "QUEST_GUIDE_STYLE_TARGET",
                "guideLayer": "QUEST_GUIDE_LAYER_SCENE"
            },
            "guideHint": {
                "COLBFDGFKDJ": ""
            },
            "isRewind": true,
            "versionBegin": "",
            "versionEnd": ""
        },
        {
            "subId": 7365502,
            "mainId": 73655,
            "order": 2,
            "descTextMapHash": 3755148372,
            "finishCond": [
                {
                    "type": "QUEST_CONTENT_COMPLETE_TALK",
                    "param": [
                        7365502,
                        0
                    ]
                }
            ],
            "guide": {
                "type": "QUEST_GUIDE_NPC",
                "param": [
                    "4164"
                ],
                "guideScene": 3,
                "guideStyle": "QUEST_GUIDE_STYLE_TARGET",
                "guideLayer": "QUEST_GUIDE_LAYER_SCENE"
            },
            "guideHint": {
                "COLBFDGFKDJ": ""
            },
            "finishParent": true,
            "isRewind": true,
            "versionBegin": "",
            "versionEnd": ""
        }
    ],
    "talks": [
        {
            "id": 7365501,
            "beginCondComb": "LOGIC_AND",
            "beginCond": [
                {
                    "type": "QUEST_COND_STATE_EQUAL",
                    "param": [
                        "7365501",
                        "2"
                    ]
                },
                {
                    "type": "QUEST_COND_ITEM_GIVING_ACTIVED",
                    "param": [
                        "7365501"
                    ]
                }
            ],
            "priority": 5,
            "initDialog": 736550101,
            "npcId": [
                4164
            ],
            "performCfg": "",
            "questId": 73655,
            "assetIndex": 2412646326180670520,
            "dontBlockDaily": true,
            "prePerformCfg": ""
        },
        {
            "id": 7365502,
            "beginWay": "TALK_BEGIN_AUTO",
            "beginCond": [
                {
                    "type": "QUEST_COND_STATE_EQUAL",
                    "param": [
                        "7365502",
                        "2"
                    ]
                }
            ],
            "priority": 5,
            "initDialog": 736550201,
            "npcId": [
                4164
            ],
            "performCfg": "",
            "questId": 73655,
            "assetIndex": 3486541743431834060,
            "prePerformCfg": ""
        }
    ]
}