{
    "id": 74023,
    "type": "WQ",
    "activeMode": "PLAY_MODE_ALL",
    "titleTextMapHash": 1425266519,
    "descTextMapHash": 2137046718,
    "luaPath": "Actor/Quest/WQ74023",
    "rewardIdList": [
        174023
    ],
    "subQuests": [
        {
            "subId": 7402301,
            "mainId": 74023,
            "order": 1,
            "showType": "QUEST_HIDDEN",
            "finishCond": [
                {
                    "type": "QUEST_CONTENT_LUA_NOTIFY",
                    "param": [
                        0,
                        0
                    ],
                    "count": 1
                }
            ],
            "guide": {},
            "showGuide": "QUEST_GUIDE_ITEM_DISABLE",
            "guideHint": {
                "COLBFDGFKDJ": ""
            },
            "isRewind": true,
            "versionBegin": "",
            "versionEnd": ""
        },
        {
            "subId": 7402302,
            "mainId": 74023,
            "order": 3,
            "descTextMapHash": 1889841972,
            "finishCond": [
                {
                    "type": "QUEST_CONTENT_LUA_NOTIFY",
                    "param": [
                        0,
                        0
                    ],
                    "count": 1
                }
            ],
            "guide": {
                "type": "QUEST_GUIDE_LOCATION",
                "autoGuide": "QUEST_GUIDE_AUTO_ENABLE",
                "param": [
                    "QTravel06_Salsa_Dicheng",
                    "30"
                ],
                "guideScene": 3,
                "guideStyle": "QUEST_GUIDE_STYLE_POINT",
                "guideLayer": "QUEST_GUIDE_LAYER_SCENE"
            },
            "guideHint": {
                "COLBFDGFKDJ": ""
            },
            "isRewind": true,
            "versionBegin": "",
            "versionEnd": ""
        },
        {
            "subId": 7402303,
            "mainId": 74023,
            "order": 4,
            "descTextMapHash": 3776739916,
            "finishCond": [
                {
                    "type": "QUEST_CONTENT_COMPLETE_TALK",
                    "param": [
                        7402301,
                        0
                    ]
                }
            ],
            "guide": {
                "type": "QUEST_GUIDE_NPC",
                "autoGuide": "QUEST_GUIDE_AUTO_ENABLE",
                "param": [
                    "21036"
                ],
                "guideScene": 3,
                "guideStyle": "QUEST_GUIDE_STYLE_TARGET",
                "guideLayer": "QUEST_GUIDE_LAYER_SCENE"
            },
            "guideHint": {
                "COLBFDGFKDJ": ""
            },
            "finishParent": true,
            "isRewind": true,
            "finishExec": [
                {
                    "type": "QUEST_EXEC_UNREGISTER_DYNAMIC_GROUP",
                    "param": [
                        "133401664",
                        "1"
                    ]
                }
            ],
            "versionBegin": "",
            "versionEnd": ""
        },
        {
            "subId": 7402304,
            "mainId": 74023,
            "order": 2,
            "descTextMapHash": 555989732,
            "finishCond": [
                {
                    "type": "QUEST_CONTENT_COMPLETE_TALK",
                    "param": [
                        7402302,
                        0
                    ]
                }
            ],
            "guide": {
                "type": "QUEST_GUIDE_LOCATION",
                "autoGuide": "QUEST_GUIDE_AUTO_ENABLE",
                "param": [
                    "QTravel06_Salsa_Dicheng"
                ],
                "guideScene": 3,
                "guideStyle": "QUEST_GUIDE_STYLE_POINT",
                "guideLayer": "QUEST_GUIDE_LAYER_SCENE"
            },
            "guideHint": {
                "COLBFDGFKDJ": ""
            },
            "isRewind": true,
            "versionBegin": "",
            "versionEnd": ""
        }
    ],
    "talks": [
        {
            "id": 7402301,
            "beginWay": "TALK_BEGIN_MANUAL",
            "activeMode": "PLAY_MODE_HOST",
            "beginCond": [
                {
                    "type": "QUEST_COND_STATE_EQUAL",
                    "param": [
                        "7402303",
                        "2"
                    ]
                }
            ],
            "priority": 5,
            "initDialog": 740230101,
            "npcId": [
                21035,
                21036
            ],
            "performCfg": "QuestDialogue/WQ/Fontaine_74016/Q7402301",
            "heroTalk": "TALK_HERO_MAIN",
            "questId": 74023,
            "assetIndex": 5405005834783180008,
            "prePerformCfg": ""
        },
        {
            "id": 7402302,
            "beginWay": "TALK_BEGIN_AUTO",
            "activeMode": "PLAY_MODE_HOST",
            "beginCond": [
                {
                    "type": "QUEST_COND_STATE_EQUAL",
                    "param": [
                        "7402304",
                        "2"
                    ]
                }
            ],
            "priority": 5,
            "initDialog": 740230201,
            "npcId": [
                21066
            ],
            "performCfg": "QuestDialogue/WQ/Fontaine_74023/Q7402302",
            "heroTalk": "TALK_HERO_MAIN",
            "questId": 74023,
            "assetIndex": 2182466946138993860,
            "prePerformCfg": ""
        },
        {
            "id": 7402303,
            "beginWay": "TALK_BEGIN_MANUAL",
            "activeMode": "PLAY_MODE_HOST",
            "beginCond": [
                {
                    "type": "QUEST_COND_STATE_EQUAL",
                    "param": [
                        "7402303",
                        "3"
                    ]
                }
            ],
            "priority": 5,
            "initDialog": 740230301,
            "npcId": [
                21035
            ],
            "performCfg": "QuestDialogue/WQ/Fontaine_74023/Q7402303",
            "heroTalk": "TALK_HERO_MAIN",
            "questId": 74023,
            "assetIndex": 3878133064608482153,
            "prePerformCfg": "",
            "questIdleTalk": true
        }
    ]
}