{
    "id": 74113,
    "type": "WQ",
    "activeMode": "PLAY_MODE_ALL",
    "titleTextMapHash": 2749716735,
    "descTextMapHash": 863772534,
    "luaPath": "Actor/Quest/WQ74113",
    "suggestTrackMainQuestList": [
        74115
    ],
    "rewardIdList": [
        174113
    ],
    "chapterId": 10200,
    "subQuests": [
        {
            "subId": 7411301,
            "mainId": 74113,
            "order": 1,
            "descTextMapHash": 1988610596,
            "showType": "QUEST_HIDDEN",
            "finishCond": [
                {
                    "type": "QUEST_CONTENT_FINISH_PLOT",
                    "param": [
                        7411301,
                        0
                    ]
                }
            ],
            "guide": {
                "param": [
                    "30"
                ],
                "guideScene": 3
            },
            "showGuide": "QUEST_GUIDE_ITEM_DISABLE",
            "guideHint": {
                "COLBFDGFKDJ": ""
            },
            "versionBegin": "",
            "versionEnd": ""
        },
        {
            "subId": 7411302,
            "mainId": 74113,
            "order": 2,
            "descTextMapHash": 3379010524,
            "finishCond": [
                {
                    "type": "QUEST_CONTENT_FINISH_PLOT",
                    "param": [
                        7411302,
                        0
                    ]
                }
            ],
            "guide": {
                "type": "QUEST_GUIDE_LOCATION",
                "param": [
                    "[3_5622:3518.488,451.331,4657.618,0.000,90.000,0.000]",
                    "30"
                ],
                "guideScene": 3
            },
            "guideHint": {
                "COLBFDGFKDJ": ""
            },
            "versionBegin": "",
            "versionEnd": ""
        },
        {
            "subId": 7411303,
            "mainId": 74113,
            "order": 3,
            "descTextMapHash": 1999515508,
            "finishCond": [
                {
                    "type": "QUEST_CONTENT_COMPLETE_TALK",
                    "param": [
                        7411303,
                        0
                    ]
                }
            ],
            "guide": {
                "type": "QUEST_GUIDE_NPC",
                "param": [
                    "21158"
                ],
                "guideScene": 3,
                "guideStyle": "QUEST_GUIDE_STYLE_TARGET",
                "guideLayer": "QUEST_GUIDE_LAYER_SCENE"
            },
            "guideHint": {
                "COLBFDGFKDJ": ""
            },
            "isRewind": true,
            "finishExec": [
                {
                    "type": "QUEST_EXEC_UNLOCK_EVENTS_ITEM",
                    "param": [
                        "74113",
                        "11309,11310,11311"
                    ]
                }
            ],
            "versionBegin": "",
            "versionEnd": ""
        },
        {
            "subId": 7411304,
            "mainId": 74113,
            "order": 4,
            "descTextMapHash": 3142358836,
            "finishCond": [
                {
                    "type": "QUEST_CONTENT_QUEST_STATE_EQUAL",
                    "param": [
                        7411323,
                        3
                    ]
                }
            ],
            "guide": {
                "type": "QUEST_GUIDE_LOCATION",
                "param": [
                    "[3_5890:3513.628,450.077,4654.247,0.000,248.090,0.000]",
                    "30"
                ],
                "guideScene": 3
            },
            "guideHint": {
                "COLBFDGFKDJ": ""
            },
            "isRewind": true,
            "versionBegin": "",
            "versionEnd": ""
        },
        {
            "subId": 7411305,
            "mainId": 74113,
            "order": 11,
            "descTextMapHash": 4085378836,
            "guide": {
                "type": "QUEST_GUIDE_NPC",
                "param": [
                    "21160"
                ],
                "guideScene": 3,
                "guideStyle": "QUEST_GUIDE_STYLE_TARGET",
                "guideLayer": "QUEST_GUIDE_LAYER_SCENE"
            },
            "guideHint": {
                "COLBFDGFKDJ": ""
            },
            "isRewind": true,
            "finishExec": [
                {
                    "type": "QUEST_EXEC_UNLOCK_EVENTS_ITEM",
                    "param": [
                        "74113",
                        "11309,11310,11311"
                    ]
                }
            ],
            "versionBegin": "",
            "versionEnd": ""
        },
        {
            "subId": 7411306,
            "mainId": 74113,
            "order": 12,
            "descTextMapHash": 2969291204,
            "finishCond": [
                {
                    "type": "QUEST_CONTENT_COMPLETE_TALK",
                    "param": [
                        7411306,
                        0
                    ]
                }
            ],
            "guide": {
                "type": "QUEST_GUIDE_NPC",
                "param": [
                    "21158"
                ],
                "guideScene": 3,
                "guideStyle": "QUEST_GUIDE_STYLE_TARGET",
                "guideLayer": "QUEST_GUIDE_LAYER_SCENE"
            },
            "guideHint": {
                "COLBFDGFKDJ": ""
            },
            "isRewind": true,
            "versionBegin": "",
            "versionEnd": ""
        },
        {
            "subId": 7411307,
            "mainId": 74113,
            "order": 13,
            "descTextMapHash": 2561285988,
            "finishCond": [
                {
                    "type": "QUEST_CONTENT_FINISH_PLOT",
                    "param": [
                        7411307,
                        0
                    ]
                }
            ],
            "guide": {
                "type": "QUEST_GUIDE_LOCATION",
                "param": [
                    "[3_5875:3250.695,441.310,3630.722,0.000,20.000,0.000]",
                    "30"
                ],
                "guideScene": 3
            },
            "guideHint": {
                "COLBFDGFKDJ": ""
            },
            "isRewind": true,
            "versionBegin": "",
            "versionEnd": ""
        },
        {
            "subId": 7411308,
            "mainId": 74113,
            "order": 15,
            "descTextMapHash": 83177892,
            "finishCond": [
                {
                    "type": "QUEST_CONTENT_LUA_NOTIFY",
                    "param": [
                        0,
                        0
                    ],
                    "count": 1
                }
            ],
            "guide": {
                "type": "QUEST_GUIDE_LOCATION",
                "param": [
                    "[3_5875:3250.695,441.310,3630.722,0.000,20.000,0.000]",
                    "40"
                ],
                "guideScene": 3
            },
            "showGuide": "QUEST_GUIDE_ITEM_DISABLE",
            "guideHint": {
                "COLBFDGFKDJ": ""
            },
            "isRewind": true,
            "finishExec": [
                {
                    "type": "QUEST_EXEC_UNREGISTER_DYNAMIC_GROUP",
                    "param": [
                        "133402325"
                    ]
                }
            ],
            "versionBegin": "",
            "versionEnd": ""
        },
        {
            "subId": 7411309,
            "mainId": 74113,
            "order": 17,
            "descTextMapHash": 3472561180,
            "finishCond": [
                {
                    "type": "QUEST_CONTENT_LUA_NOTIFY",
                    "param": [
                        0,
                        0
                    ],
                    "count": 1
                }
            ],
            "guide": {
                "type": "QUEST_GUIDE_LOCATION",
                "param": [
                    "[3_5625:3252.735,442.350,3647.444,0.000,67.653,0.000]",
                    "40"
                ],
                "guideScene": 3
            },
            "showGuide": "QUEST_GUIDE_ITEM_DISABLE",
            "guideHint": {
                "COLBFDGFKDJ": ""
            },
            "isRewind": true,
            "finishExec": [
                {
                    "type": "QUEST_EXEC_NOTIFY_GROUP_LUA",
                    "param": [
                        "3",
                        "133402324"
                    ]
                }
            ],
            "versionBegin": "",
            "versionEnd": ""
        },
        {
            "subId": 7411310,
            "mainId": 74113,
            "order": 16,
            "descTextMapHash": 3002532612,
            "finishCond": [
                {
                    "type": "QUEST_CONTENT_COMPLETE_TALK",
                    "param": [
                        7411310,
                        0
                    ]
                }
            ],
            "guide": {
                "type": "QUEST_GUIDE_NPC",
                "param": [
                    "21163"
                ],
                "guideScene": 3,
                "guideStyle": "QUEST_GUIDE_STYLE_TARGET",
                "guideLayer": "QUEST_GUIDE_LAYER_SCENE"
            },
            "guideHint": {
                "COLBFDGFKDJ": ""
            },
            "isRewind": true,
            "versionBegin": "",
            "versionEnd": ""
        },
        {
            "subId": 7411311,
            "mainId": 74113,
            "order": 21,
            "descTextMapHash": 1428955836,
            "finishCond": [
                {
                    "type": "QUEST_CONTENT_COMPLETE_TALK",
                    "param": [
                        7411311,
                        0
                    ]
                }
            ],
            "guide": {
                "type": "QUEST_GUIDE_LOCATION",
                "param": [
                    "[3_5625:3252.735,442.350,3647.444,0.000,67.653,0.000]",
                    "40"
                ],
                "guideScene": 3,
                "guideStyle": "QUEST_GUIDE_STYLE_TARGET",
                "guideLayer": "QUEST_GUIDE_LAYER_SCENE"
            },
            "guideHint": {
                "COLBFDGFKDJ": ""
            },
            "isRewind": true,
            "finishExec": [
                {
                    "type": "QUEST_EXEC_UNLOCK_EVENTS_ITEM",
                    "param": [
                        "74113",
                        "11312"
                    ]
                }
            ],
            "versionBegin": "",
            "versionEnd": ""
        },
        {
            "subId": 7411312,
            "mainId": 74113,
            "order": 22,
            "descTextMapHash": 2611685844,
            "finishCond": [
                {
                    "type": "QUEST_CONTENT_FINISH_PLOT",
                    "param": [
                        7411312,
                        0
                    ]
                }
            ],
            "guide": {
                "type": "QUEST_GUIDE_NPC",
                "param": [
                    "21171"
                ],
                "guideScene": 3,
                "guideStyle": "QUEST_GUIDE_STYLE_TARGET"
            },
            "guideHint": {
                "COLBFDGFKDJ": ""
            },
            "isRewind": true,
            "finishExec": [
                {
                    "type": "QUEST_EXEC_UNREGISTER_DYNAMIC_GROUP",
                    "param": [
                        "133402324"
                    ]
                }
            ],
            "versionBegin": "",
            "versionEnd": ""
        },
        {
            "subId": 7411313,
            "mainId": 74113,
            "order": 24,
            "descTextMapHash": 1407730948,
            "finishCond": [
                {
                    "type": "QUEST_CONTENT_FINISH_PLOT",
                    "param": [
                        7411313,
                        0
                    ]
                }
            ],
            "guide": {
                "type": "QUEST_GUIDE_LOCATION",
                "param": [
                    "[3_5629:3246.875,442.487,3201.015,0.000,90.000,0.000]",
                    "40"
                ],
                "guideScene": 3
            },
            "guideHint": {
                "COLBFDGFKDJ": ""
            },
            "isRewind": true,
            "finishExec": [
                {
                    "type": "QUEST_EXEC_UNREGISTER_DYNAMIC_GROUP",
                    "param": [
                        "133402324"
                    ]
                }
            ],
            "versionBegin": "",
            "versionEnd": ""
        },
        {
            "subId": 7411314,
            "mainId": 74113,
            "order": 25,
            "descTextMapHash": 3736625228,
            "finishCond": [
                {
                    "type": "QUEST_CONTENT_COMPLETE_TALK",
                    "param": [
                        7411314,
                        0
                    ]
                }
            ],
            "guide": {
                "type": "QUEST_GUIDE_NPC",
                "param": [
                    "21162"
                ],
                "guideScene": 3,
                "guideStyle": "QUEST_GUIDE_STYLE_TARGET",
                "guideLayer": "QUEST_GUIDE_LAYER_SCENE"
            },
            "guideHint": {
                "COLBFDGFKDJ": ""
            },
            "isRewind": true,
            "versionBegin": "",
            "versionEnd": ""
        },
        {
            "subId": 7411315,
            "mainId": 74113,
            "order": 26,
            "descTextMapHash": 2117312684,
            "finishCond": [
                {
                    "type": "QUEST_CONTENT_FINISH_PLOT",
                    "param": [
                        7411315,
                        0
                    ]
                }
            ],
            "guide": {
                "type": "QUEST_GUIDE_LOCATION",
                "param": [
                    "[3_5631:3352.162,444.138,3246.971,0.000,273.640,0.000]",
                    "40"
                ],
                "guideScene": 3,
                "guideLayer": "QUEST_GUIDE_LAYER_SCENE"
            },
            "guideHint": {
                "COLBFDGFKDJ": ""
            },
            "isRewind": true,
            "versionBegin": "",
            "versionEnd": ""
        },
        {
            "subId": 7411316,
            "mainId": 74113,
            "order": 27,
            "descTextMapHash": 2434469756,
            "finishCond": [
                {
                    "type": "QUEST_CONTENT_LUA_NOTIFY",
                    "param": [
                        0,
                        0
                    ],
                    "count": 1
                }
            ],
            "guide": {
                "type": "QUEST_GUIDE_LOCATION",
                "param": [
                    "[3_5631:3352.162,444.138,3246.971,0.000,273.640,0.000]",
                    "40"
                ],
                "guideScene": 3,
                "guideLayer": "QUEST_GUIDE_LAYER_SCENE"
            },
            "guideHint": {
                "COLBFDGFKDJ": ""
            },
            "isRewind": true,
            "versionBegin": "",
            "versionEnd": ""
        },
        {
            "subId": 7411317,
            "mainId": 74113,
            "order": 28,
            "descTextMapHash": 3028934076,
            "finishCond": [
                {
                    "type": "QUEST_CONTENT_COMPLETE_TALK",
                    "param": [
                        7411317,
                        0
                    ]
                }
            ],
            "guide": {
                "type": "QUEST_GUIDE_NPC",
                "param": [
                    "21162"
                ],
                "guideScene": 3,
                "guideStyle": "QUEST_GUIDE_STYLE_TARGET",
                "guideLayer": "QUEST_GUIDE_LAYER_SCENE"
            },
            "guideHint": {
                "COLBFDGFKDJ": ""
            },
            "isRewind": true,
            "finishExec": [
                {
                    "type": "QUEST_EXEC_UNLOCK_EVENTS_ITEM",
                    "param": [
                        "74113",
                        "11313"
                    ]
                }
            ],
            "versionBegin": "",
            "versionEnd": ""
        },
        {
            "subId": 7411318,
            "mainId": 74113,
            "order": 31,
            "descTextMapHash": 1405933148,
            "finishCond": [
                {
                    "type": "QUEST_CONTENT_LUA_NOTIFY",
                    "param": [
                        0,
                        0
                    ],
                    "count": 1
                }
            ],
            "guide": {
                "type": "QUEST_GUIDE_LOCATION",
                "param": [
                    "[3_5708:3238.781,413.700,3067.097]",
                    "35"
                ],
                "guideScene": 3
            },
            "guideHint": {
                "COLBFDGFKDJ": ""
            },
            "isRewind": true,
            "finishExec": [
                {
                    "type": "QUEST_EXEC_UNLOCK_EVENTS_ITEM",
                    "param": [
                        "74113",
                        "11320"
                    ]
                },
                {
                    "type": "QUEST_EXEC_UNREGISTER_DYNAMIC_GROUP",
                    "param": [
                        "133402327",
                        "1"
                    ]
                },
                {
                    "type": "QUEST_EXEC_UNREGISTER_DYNAMIC_GROUP",
                    "param": [
                        "133402808"
                    ]
                }
            ],
            "versionBegin": "",
            "versionEnd": ""
        },
        {
            "subId": 7411319,
            "mainId": 74113,
            "order": 32,
            "descTextMapHash": 2926045188,
            "finishCond": [
                {
                    "type": "QUEST_CONTENT_COMPLETE_TALK",
                    "param": [
                        7411319,
                        0
                    ]
                }
            ],
            "guide": {
                "type": "QUEST_GUIDE_NPC",
                "param": [
                    "21158"
                ],
                "guideScene": 3,
                "guideStyle": "QUEST_GUIDE_STYLE_TARGET",
                "guideLayer": "QUEST_GUIDE_LAYER_SCENE"
            },
            "guideHint": {
                "COLBFDGFKDJ": ""
            },
            "finishParent": true,
            "isRewind": true,
            "versionBegin": "",
            "versionEnd": ""
        },
        {
            "subId": 7411320,
            "mainId": 74113,
            "order": 5,
            "subIdSet": 1,
            "descTextMapHash": 4195233212,
            "showType": "QUEST_HIDDEN",
            "finishCond": [
                {
                    "type": "QUEST_CONTENT_LUA_NOTIFY",
                    "param": [
                        0,
                        0
                    ],
                    "count": 1
                }
            ],
            "guide": {
                "param": [
                    "30"
                ],
                "guideScene": 3
            },
            "showGuide": "QUEST_GUIDE_ITEM_DISABLE",
            "guideHint": {
                "COLBFDGFKDJ": ""
            },
            "finishExec": [
                {
                    "type": "QUEST_EXEC_NOTIFY_GROUP_LUA",
                    "param": [
                        "3",
                        "133401593"
                    ]
                },
                {
                    "type": "QUEST_EXEC_UNLOCK_EVENTS_ITEM",
                    "param": [
                        "74113",
                        "11301"
                    ]
                }
            ],
            "versionBegin": "",
            "versionEnd": ""
        },
        {
            "subId": 7411321,
            "mainId": 74113,
            "order": 6,
            "subIdSet": 1,
            "descTextMapHash": 3066903500,
            "showType": "QUEST_HIDDEN",
            "finishCond": [
                {
                    "type": "QUEST_CONTENT_COMPLETE_TALK",
                    "param": [
                        7411304,
                        0
                    ]
                }
            ],
            "guide": {
                "param": [
                    "30"
                ],
                "guideScene": 3
            },
            "showGuide": "QUEST_GUIDE_ITEM_DISABLE",
            "guideHint": {
                "COLBFDGFKDJ": ""
            },
            "finishExec": [
                {
                    "type": "QUEST_EXEC_NOTIFY_GROUP_LUA",
                    "param": [
                        "3",
                        "133401593"
                    ]
                },
                {
                    "type": "QUEST_EXEC_UNLOCK_EVENTS_ITEM",
                    "param": [
                        "74113",
                        "11304"
                    ]
                }
            ],
            "versionBegin": "",
            "versionEnd": ""
        },
        {
            "subId": 7411322,
            "mainId": 74113,
            "order": 7,
            "subIdSet": 1,
            "descTextMapHash": 1130564732,
            "showType": "QUEST_HIDDEN",
            "finishCond": [
                {
                    "type": "QUEST_CONTENT_COMPLETE_TALK",
                    "param": [
                        7411301,
                        0
                    ]
                }
            ],
            "guide": {
                "param": [
                    "30"
                ],
                "guideScene": 3
            },
            "showGuide": "QUEST_GUIDE_ITEM_DISABLE",
            "guideHint": {
                "COLBFDGFKDJ": ""
            },
            "finishExec": [
                {
                    "type": "QUEST_EXEC_NOTIFY_GROUP_LUA",
                    "param": [
                        "3",
                        "133401593"
                    ]
                },
                {
                    "type": "QUEST_EXEC_UNLOCK_EVENTS_ITEM",
                    "param": [
                        "74113",
                        "11303"
                    ]
                }
            ],
            "versionBegin": "",
            "versionEnd": ""
        },
        {
            "subId": 7411323,
            "mainId": 74113,
            "order": 10,
            "descTextMapHash": 620808676,
            "showType": "QUEST_HIDDEN",
            "finishCond": [
                {
                    "type": "QUEST_CONTENT_QUEST_STATE_EQUAL",
                    "param": [
                        7411320,
                        3
                    ]
                },
                {
                    "type": "QUEST_CONTENT_QUEST_STATE_EQUAL",
                    "param": [
                        7411321,
                        3
                    ]
                },
                {
                    "type": "QUEST_CONTENT_QUEST_STATE_EQUAL",
                    "param": [
                        7411322,
                        3
                    ]
                },
                {
                    "type": "QUEST_CONTENT_QUEST_STATE_EQUAL",
                    "param": [
                        7411325,
                        3
                    ]
                },
                {
                    "type": "QUEST_CONTENT_QUEST_STATE_EQUAL",
                    "param": [
                        7411327,
                        3
                    ]
                }
            ],
            "guide": {},
            "guideHint": {
                "COLBFDGFKDJ": ""
            },
            "isRewind": true,
            "versionBegin": "",
            "versionEnd": ""
        },
        {
            "subId": 7411324,
            "mainId": 74113,
            "order": 14,
            "descTextMapHash": 1519166284,
            "finishCond": [
                {
                    "type": "QUEST_CONTENT_COMPLETE_TALK",
                    "param": [
                        7411324,
                        0
                    ]
                }
            ],
            "guide": {
                "type": "QUEST_GUIDE_NPC",
                "param": [
                    "21163"
                ],
                "guideScene": 3,
                "guideStyle": "QUEST_GUIDE_STYLE_TARGET"
            },
            "guideHint": {
                "COLBFDGFKDJ": ""
            },
            "isRewind": true,
            "versionBegin": "",
            "versionEnd": ""
        },
        {
            "subId": 7411325,
            "mainId": 74113,
            "order": 8,
            "subIdSet": 1,
            "descTextMapHash": 665058868,
            "showType": "QUEST_HIDDEN",
            "finishCond": [
                {
                    "type": "QUEST_CONTENT_LUA_NOTIFY",
                    "param": [
                        0,
                        0
                    ],
                    "count": 1
                }
            ],
            "guide": {
                "param": [
                    "30"
                ],
                "guideScene": 3
            },
            "showGuide": "QUEST_GUIDE_ITEM_DISABLE",
            "guideHint": {
                "COLBFDGFKDJ": ""
            },
            "finishExec": [
                {
                    "type": "QUEST_EXEC_NOTIFY_GROUP_LUA",
                    "param": [
                        "3",
                        "133401593"
                    ]
                },
                {
                    "type": "QUEST_EXEC_UNLOCK_EVENTS_ITEM",
                    "param": [
                        "74113",
                        "11302"
                    ]
                }
            ],
            "versionBegin": "",
            "versionEnd": ""
        },
        {
            "subId": 7411326,
            "mainId": 74113,
            "order": 23,
            "descTextMapHash": 3287427572,
            "finishCond": [
                {
                    "type": "QUEST_CONTENT_COMPLETE_TALK",
                    "param": [
                        7411336,
                        0
                    ]
                }
            ],
            "guide": {
                "type": "QUEST_GUIDE_NPC",
                "param": [
                    "21171"
                ],
                "guideScene": 3,
                "guideStyle": "QUEST_GUIDE_STYLE_TARGET",
                "guideLayer": "QUEST_GUIDE_LAYER_SCENE"
            },
            "guideHint": {
                "COLBFDGFKDJ": ""
            },
            "isRewind": true,
            "versionBegin": "",
            "versionEnd": ""
        },
        {
            "subId": 7411327,
            "mainId": 74113,
            "order": 9,
            "subIdSet": 1,
            "descTextMapHash": 2321468716,
            "showType": "QUEST_HIDDEN",
            "finishCond": [
                {
                    "type": "QUEST_CONTENT_LUA_NOTIFY",
                    "param": [
                        0,
                        0
                    ],
                    "count": 1
                }
            ],
            "guide": {
                "param": [
                    "30"
                ],
                "guideScene": 3
            },
            "showGuide": "QUEST_GUIDE_ITEM_DISABLE",
            "guideHint": {
                "COLBFDGFKDJ": ""
            },
            "finishExec": [
                {
                    "type": "QUEST_EXEC_NOTIFY_GROUP_LUA",
                    "param": [
                        "3",
                        "133401593"
                    ]
                },
                {
                    "type": "QUEST_EXEC_UNLOCK_EVENTS_ITEM",
                    "param": [
                        "74113",
                        "11305"
                    ]
                }
            ],
            "versionBegin": "",
            "versionEnd": ""
        },
        {
            "subId": 7411328,
            "mainId": 74113,
            "order": 19,
            "descTextMapHash": 411210964,
            "finishCond": [
                {
                    "type": "QUEST_CONTENT_COMPLETE_TALK",
                    "param": [
                        7411332,
                        0
                    ]
                }
            ],
            "guide": {
                "type": "QUEST_GUIDE_NPC",
                "param": [
                    "21161"
                ],
                "guideScene": 3
            },
            "guideHint": {
                "COLBFDGFKDJ": ""
            },
            "isRewind": true,
            "versionBegin": "",
            "versionEnd": ""
        },
        {
            "subId": 7411329,
            "mainId": 74113,
            "order": 20,
            "descTextMapHash": 1031394244,
            "finishCond": [
                {
                    "type": "QUEST_CONTENT_COMPLETE_TALK",
                    "param": [
                        7411334,
                        0
                    ]
                }
            ],
            "guide": {
                "type": "QUEST_GUIDE_NPC",
                "param": [
                    "21171"
                ],
                "guideScene": 3,
                "guideStyle": "QUEST_GUIDE_STYLE_TARGET"
            },
            "guideHint": {
                "COLBFDGFKDJ": ""
            },
            "isRewind": true,
            "versionBegin": "",
            "versionEnd": ""
        },
        {
            "subId": 7411330,
            "mainId": 74113,
            "order": 30,
            "descTextMapHash": 3225642388,
            "finishCond": [
                {
                    "type": "QUEST_CONTENT_COMPLETE_TALK",
                    "param": [
                        7411337,
                        0
                    ]
                },
                {
                    "type": "QUEST_CONTENT_COMPLETE_TALK",
                    "param": [
                        7411370,
                        0
                    ]
                }
            ],
            "guide": {
                "type": "QUEST_GUIDE_NPC",
                "param": [
                    "21158"
                ],
                "guideScene": 3,
                "guideStyle": "QUEST_GUIDE_STYLE_POINT",
                "guideLayer": "QUEST_GUIDE_LAYER_SCENE"
            },
            "guideHint": {
                "COLBFDGFKDJ": ""
            },
            "isRewind": true,
            "finishExec": [
                {
                    "type": "QUEST_EXEC_UNLOCK_EVENTS_ITEM",
                    "param": [
                        "74113",
                        "11313"
                    ]
                },
                {
                    "type": "QUEST_EXEC_UNREGISTER_DYNAMIC_GROUP",
                    "param": [
                        "133402328"
                    ]
                }
            ],
            "versionBegin": "",
            "versionEnd": ""
        },
        {
            "subId": 7411331,
            "mainId": 74113,
            "order": 18,
            "descTextMapHash": 1901011956,
            "showType": "QUEST_HIDDEN",
            "finishCond": [
                {
                    "type": "QUEST_CONTENT_COMPLETE_TALK",
                    "param": [
                        7411312,
                        0
                    ]
                },
                {
                    "type": "QUEST_CONTENT_QUEST_STATE_EQUAL",
                    "param": [
                        7411309,
                        3
                    ]
                }
            ],
            "guide": {
                "type": "QUEST_GUIDE_NPC",
                "param": [
                    "21161"
                ],
                "guideScene": 3
            },
            "guideHint": {
                "COLBFDGFKDJ": ""
            },
            "isRewind": true,
            "versionBegin": "",
            "versionEnd": ""
        },
        {
            "subId": 7411332,
            "mainId": 74113,
            "order": 29,
            "descTextMapHash": 1251468428,
            "finishCond": [
                {
                    "type": "QUEST_CONTENT_FINISH_PLOT",
                    "param": [
                        7411332,
                        0
                    ]
                }
            ],
            "guide": {
                "type": "QUEST_GUIDE_LOCATION",
                "param": [
                    "[3_6516:3225.110,440.022,3188.880,0.000,65.697,0.000]"
                ],
                "guideScene": 3,
                "guideStyle": "QUEST_GUIDE_STYLE_POINT",
                "guideLayer": "QUEST_GUIDE_LAYER_SCENE"
            },
            "guideHint": {
                "COLBFDGFKDJ": ""
            },
            "isRewind": true,
            "finishExec": [
                {
                    "type": "QUEST_EXEC_UNLOCK_EVENTS_ITEM",
                    "param": [
                        "74113",
                        "11313"
                    ]
                },
                {
                    "type": "QUEST_EXEC_UNREGISTER_DYNAMIC_GROUP",
                    "param": [
                        "133402328"
                    ]
                }
            ],
            "versionBegin": "",
            "versionEnd": ""
        }
    ],
    "talks": [
        {
            "id": 7411301,
            "beginWay": "TALK_BEGIN_MANUAL",
            "activeMode": "PLAY_MODE_HOST",
            "beginCond": [
                {
                    "type": "QUEST_COND_STATE_EQUAL",
                    "param": [
                        "7411322",
                        "2"
                    ]
                }
            ],
            "priority": 5,
            "initDialog": 741130101,
            "npcId": [
                21330
            ],
            "performCfg": "QuestDialogue/WQ/Fontaine_74113/Q7411301",
            "questId": 74113,
            "assetIndex": 2609890947486706603,
            "prePerformCfg": "",
            "ELGPLEMBBFA": [
                "[3_7168:3526.232,451.311,4647.119,0.000,124.778,0.000]",
                "[3_7169:3527.048,451.311,4647.771,0.000,138.799,0.000]",
                "[3_7170:3530.160,451.311,4644.260,0.000,309.308,0.000]",
                "[3_7171:3530.468,451.311,4646.060,0.000,295.238,0.000]"
            ]
        },
        {
            "id": 7411303,
            "beginWay": "TALK_BEGIN_MANUAL",
            "activeMode": "PLAY_MODE_HOST",
            "beginCond": [
                {
                    "type": "QUEST_COND_STATE_EQUAL",
                    "param": [
                        "7411303",
                        "2"
                    ]
                }
            ],
            "priority": 5,
            "initDialog": 741130301,
            "npcId": [
                21158,
                21170,
                5042,
                21160
            ],
            "performCfg": "QuestDialogue/WQ/Fontaine_74113/Q7411303",
            "questId": 74113,
            "assetIndex": 14040549927929957274,
            "prePerformCfg": "",
            "ELGPLEMBBFA": [
                "[3_5622:3518.488,451.331,4657.618,0.000,90.000,0.000]",
                "[3_5623:3494.125,446.192,4656.404]",
                "[3_5624:3524.111,451.331,4657.417,0.000,270.000,0.000]",
                "[3_6555:3522.659,451.240,4653.874,0.000,300.000,0.000]",
                "[3_6788:3517.295,451.240,4655.105,0.000,70.000,0.000]"
            ]
        },
        {
            "id": 7411304,
            "beginWay": "TALK_BEGIN_MANUAL",
            "activeMode": "PLAY_MODE_HOST",
            "beginCond": [
                {
                    "type": "QUEST_COND_STATE_EQUAL",
                    "param": [
                        "7411321",
                        "2"
                    ]
                }
            ],
            "priority": 5,
            "initDialog": 741130401,
            "npcId": [
                21331
            ],
            "performCfg": "QuestDialogue/WQ/Fontaine_74113/Q7411304",
            "questId": 74113,
            "assetIndex": 14093052350929542044,
            "prePerformCfg": "",
            "ELGPLEMBBFA": [
                "[3_7172:3517.327,451.240,4656.552,0.000,20.618,0.000]",
                "[3_7173:3520.493,451.240,4659.363,0.000,248.034,0.000]",
                "[3_7174:3520.310,451.331,4658.028,0.000,282.187,0.000]"
            ]
        },
        {
            "id": 7411305,
            "beginWay": "TALK_BEGIN_MANUAL",
            "activeMode": "PLAY_MODE_HOST",
            "beginCond": [
                {
                    "type": "QUEST_COND_STATE_EQUAL",
                    "param": [
                        "7411305",
                        "2"
                    ]
                }
            ],
            "priority": 5,
            "initDialog": 741130501,
            "npcId": [
                21160
            ],
            "performCfg": "",
            "questId": 74113,
            "assetIndex": 2518952717018982722,
            "prePerformCfg": ""
        },
        {
            "id": 7411306,
            "beginWay": "TALK_BEGIN_AUTO",
            "activeMode": "PLAY_MODE_HOST",
            "beginCondComb": "LOGIC_AND",
            "beginCond": [
                {
                    "type": "QUEST_COND_STATE_EQUAL",
                    "param": [
                        "7411306",
                        "2"
                    ]
                }
            ],
            "priority": 8,
            "initDialog": 741130601,
            "npcId": [
                21158
            ],
            "performCfg": "QuestDialogue/WQ/Fontaine_74113/Q7411306",
            "questId": 74113,
            "assetIndex": 649176080830671277,
            "prePerformCfg": "",
            "ELGPLEMBBFA": [
                "[3_6209:3503.746,445.895,4651.124,0.000,260.000,0.000]",
                "[3_6210:3502.959,445.895,4653.032,0.000,240.000,0.000]",
                "[3_6211:3501.018,445.895,4650.335,0.000,50.000,0.000]",
                "[3_6212:3500.901,445.895,4651.329,0.000,70.000,0.000]"
            ]
        },
        {
            "id": 7411307,
            "beginWay": "TALK_BEGIN_MANUAL",
            "activeMode": "PLAY_MODE_HOST",
            "beginCond": [
                {
                    "type": "QUEST_COND_STATE_EQUAL",
                    "param": [
                        "7411309",
                        "2"
                    ]
                }
            ],
            "priority": 5,
            "initDialog": 741130701,
            "npcId": [
                21158
            ],
            "performCfg": "",
            "questId": 74113,
            "assetIndex": 12052799288347118476,
            "prePerformCfg": ""
        },
        {
            "id": 7411308,
            "beginWay": "TALK_BEGIN_MANUAL",
            "activeMode": "PLAY_MODE_HOST",
            "beginCond": [
                {
                    "type": "QUEST_COND_STATE_EQUAL",
                    "param": [
                        "7411309",
                        "2"
                    ]
                }
            ],
            "priority": 5,
            "initDialog": 741130801,
            "npcId": [
                21160
            ],
            "performCfg": "",
            "questId": 74113,
            "assetIndex": 879099726783771972,
            "prePerformCfg": ""
        },
        {
            "id": 7411310,
            "beginWay": "TALK_BEGIN_MANUAL",
            "activeMode": "PLAY_MODE_HOST",
            "beginCond": [
                {
                    "type": "QUEST_COND_STATE_EQUAL",
                    "param": [
                        "7411310",
                        "2"
                    ]
                }
            ],
            "priority": 5,
            "initDialog": 741131001,
            "npcId": [
                21165,
                21158,
                21163
            ],
            "performCfg": "QuestDialogue/WQ/Fontaine_74113/Q7411310",
            "questId": 74113,
            "assetIndex": 260157967177503543,
            "prePerformCfg": "",
            "ELGPLEMBBFA": [
                "[3_5811:3251.308,440.821,3635.268]",
                "[3_5874:3255.488,441.564,3638.354]",
                "[3_6514:3252.277,441.072,3642.545,0.000,185.000,0.000]",
                "[3_7194:3251.050,440.680,3638.890,0.000,180.000,0.000]"
            ]
        },
        {
            "id": 7411311,
            "beginWay": "TALK_BEGIN_MANUAL",
            "activeMode": "PLAY_MODE_HOST",
            "beginCond": [
                {
                    "type": "QUEST_COND_STATE_EQUAL",
                    "param": [
                        "7411311",
                        "2"
                    ]
                }
            ],
            "priority": 5,
            "initDialog": 741131101,
            "npcId": [
                21171
            ],
            "performCfg": "",
            "questId": 74113,
            "assetIndex": 9021435409389382904,
            "prePerformCfg": ""
        },
        {
            "id": 7411312,
            "beginWay": "TALK_BEGIN_MANUAL",
            "activeMode": "PLAY_MODE_HOST",
            "beginCond": [
                {
                    "type": "QUEST_COND_STATE_EQUAL",
                    "param": [
                        "7411331",
                        "2"
                    ]
                }
            ],
            "priority": 5,
            "initDialog": 741131201,
            "npcId": [
                21283
            ],
            "performCfg": "",
            "questId": 74113,
            "assetIndex": 16682134769405942638,
            "prePerformCfg": ""
        },
        {
            "id": 7411313,
            "beginWay": "TALK_BEGIN_MANUAL",
            "activeMode": "PLAY_MODE_HOST",
            "beginCond": [
                {
                    "type": "QUEST_COND_STATE_EQUAL",
                    "param": [
                        "7411313",
                        "2"
                    ]
                }
            ],
            "priority": 5,
            "initDialog": 741131301,
            "npcId": [
                21171
            ],
            "performCfg": "",
            "questId": 74113,
            "assetIndex": 17591810462720651964,
            "prePerformCfg": ""
        },
        {
            "id": 7411314,
            "beginWay": "TALK_BEGIN_MANUAL",
            "activeMode": "PLAY_MODE_HOST",
            "beginCond": [
                {
                    "type": "QUEST_COND_STATE_EQUAL",
                    "param": [
                        "7411314",
                        "2"
                    ]
                }
            ],
            "priority": 5,
            "initDialog": 741131401,
            "npcId": [
                21162,
                21169,
                21158,
                21160
            ],
            "performCfg": "QuestDialogue/WQ/Fontaine_74113/Q7411314",
            "questId": 74113,
            "assetIndex": 10880728090723376701,
            "prePerformCfg": "",
            "ELGPLEMBBFA": [
                "[3_5629:3246.875,442.487,3201.015,0.000,90.000,0.000]",
                "[3_5630:3249.381,442.535,3201.192,0.000,270.000,0.000]",
                "[3_7330:3248.880,442.604,3203.541,0.000,205.962,0.000]"
            ]
        },
        {
            "id": 7411315,
            "beginWay": "TALK_BEGIN_MANUAL",
            "activeMode": "PLAY_MODE_HOST",
            "beginCond": [
                {
                    "type": "QUEST_COND_STATE_EQUAL",
                    "param": [
                        "7411329",
                        "2"
                    ]
                }
            ],
            "priority": 5,
            "initDialog": 741131501,
            "npcId": [
                21158
            ],
            "performCfg": "",
            "questId": 74113,
            "assetIndex": 4371328670546074995,
            "prePerformCfg": ""
        },
        {
            "id": 7411316,
            "beginWay": "TALK_BEGIN_MANUAL",
            "activeMode": "PLAY_MODE_HOST",
            "beginCond": [
                {
                    "type": "QUEST_COND_STATE_EQUAL",
                    "param": [
                        "7411329",
                        "2"
                    ]
                }
            ],
            "priority": 5,
            "initDialog": 741131601,
            "npcId": [
                21160
            ],
            "performCfg": "",
            "questId": 74113,
            "assetIndex": 7527298144539577734,
            "prePerformCfg": ""
        },
        {
            "id": 7411317,
            "beginWay": "TALK_BEGIN_MANUAL",
            "activeMode": "PLAY_MODE_HOST",
            "beginCond": [
                {
                    "type": "QUEST_COND_STATE_EQUAL",
                    "param": [
                        "7411317",
                        "2"
                    ]
                }
            ],
            "priority": 5,
            "initDialog": 741131701,
            "npcId": [
                21162
            ],
            "performCfg": "QuestDialogue/WQ/Fontaine_74113/Q7411317",
            "questId": 74113,
            "assetIndex": 1844176011050329273,
            "prePerformCfg": "",
            "ELGPLEMBBFA": [
                "[3_7331:3354.688,443.701,3247.839,0.000,180.000,0.000]",
                "[3_7332:3353.792,443.802,3245.098,0.000,20.000,0.000]",
                "[3_7333:3354.936,443.927,3245.399,0.000,355.769,0.000]",
                "[3_7334:3356.320,443.980,3245.150,0.000,333.930,0.000]"
            ]
        },
        {
            "id": 7411318,
            "beginWay": "TALK_BEGIN_MANUAL",
            "activeMode": "PLAY_MODE_HOST",
            "beginCondComb": "LOGIC_AND",
            "beginCond": [
                {
                    "type": "QUEST_COND_STATE_EQUAL",
                    "param": [
                        "7411310",
                        "3"
                    ]
                },
                {
                    "type": "QUEST_COND_STATE_EQUAL",
                    "param": [
                        "7411331"
                    ]
                },
                {
                    "type": "QUEST_COND_STATE_EQUAL",
                    "param": [
                        "7411312"
                    ]
                }
            ],
            "priority": 3,
            "initDialog": 741131801,
            "npcId": [
                21171
            ],
            "performCfg": "",
            "questId": 74113,
            "assetIndex": 18212118368434578630,
            "prePerformCfg": ""
        },
        {
            "id": 7411319,
            "beginWay": "TALK_BEGIN_AUTO",
            "activeMode": "PLAY_MODE_HOST",
            "beginCond": [
                {
                    "type": "QUEST_COND_STATE_EQUAL",
                    "param": [
                        "7411319",
                        "2"
                    ]
                }
            ],
            "priority": 5,
            "initDialog": 741131901,
            "npcId": [
                21158,
                21160
            ],
            "performCfg": "QuestDialogue/WQ/Fontaine_74113/Q7411319",
            "questId": 74113,
            "assetIndex": 97952248339440652,
            "prePerformCfg": "",
            "ELGPLEMBBFA": [
                "[3_6516:3225.110,440.022,3188.880,0.000,65.697,0.000]",
                "[3_6517:3226.729,440.023,3189.675,0.000,229.311,0.000]",
                "[3_7428:3224.490,440.142,3190.660,0.000,140.000,0.000]",
                "[3_7429:3225.485,440.121,3190.998,0.000,170.000,0.000]"
            ]
        },
        {
            "id": 7411320,
            "beginWay": "TALK_BEGIN_MANUAL",
            "activeMode": "PLAY_MODE_HOST",
            "beginCond": [
                {
                    "type": "QUEST_COND_STATE_EQUAL",
                    "param": [
                        "7411329",
                        "2"
                    ]
                }
            ],
            "priority": 3,
            "initDialog": 741132001,
            "npcId": [
                21161
            ],
            "performCfg": "",
            "questId": 74113,
            "assetIndex": 17033802010161055036,
            "prePerformCfg": ""
        },
        {
            "id": 7411321,
            "beginWay": "TALK_BEGIN_MANUAL",
            "activeMode": "PLAY_MODE_HOST",
            "beginCond": [
                {
                    "type": "QUEST_COND_STATE_EQUAL",
                    "param": [
                        "7411318",
                        "3"
                    ]
                }
            ],
            "priority": 4,
            "initDialog": 741132101,
            "npcId": [
                21162,
                21169
            ],
            "performCfg": "",
            "questId": 74113,
            "assetIndex": 14096323714878073180,
            "prePerformCfg": "",
            "questIdleTalk": true
        },
        {
            "id": 7411322,
            "beginWay": "TALK_BEGIN_MANUAL",
            "activeMode": "PLAY_MODE_HOST",
            "beginCond": [
                {
                    "type": "QUEST_COND_STATE_EQUAL",
                    "param": [
                        "7411311",
                        "2"
                    ]
                }
            ],
            "priority": 5,
            "initDialog": 741132201,
            "npcId": [
                21161
            ],
            "performCfg": "",
            "questId": 74113,
            "assetIndex": 2000188134915121503,
            "prePerformCfg": ""
        },
        {
            "id": 7411324,
            "beginWay": "TALK_BEGIN_MANUAL",
            "activeMode": "PLAY_MODE_HOST",
            "beginCond": [
                {
                    "type": "QUEST_COND_STATE_EQUAL",
                    "param": [
                        "7411324",
                        "2"
                    ]
                }
            ],
            "priority": 5,
            "initDialog": 741132401,
            "npcId": [
                21163,
                21165
            ],
            "performCfg": "QuestDialogue/WQ/Fontaine_74113/Q7411324",
            "questId": 74113,
            "assetIndex": 451947754952915550,
            "prePerformCfg": "",
            "ELGPLEMBBFA": [
                "[3_5873:3250.601,440.661,3635.483]",
                "[3_5874:3255.488,441.564,3638.354]",
                "[3_5875:3250.695,441.310,3630.722,0.000,20.000,0.000]",
                "[3_6514:3252.277,441.072,3642.545,0.000,185.000,0.000]"
            ]
        },
        {
            "id": 7411325,
            "beginWay": "TALK_BEGIN_MANUAL",
            "activeMode": "PLAY_MODE_HOST",
            "beginCond": [
                {
                    "type": "QUEST_COND_STATE_EQUAL",
                    "param": [
                        "7411311",
                        "2"
                    ]
                }
            ],
            "priority": 8,
            "initDialog": 741132501,
            "npcId": [
                21171
            ],
            "performCfg": "QuestDialogue/WQ/Fontaine_74113/Q7411325",
            "questId": 74113,
            "assetIndex": 230209017308248956,
            "prePerformCfg": "",
            "ELGPLEMBBFA": [
                "[3_6215:3249.292,440.390,3639.542,0.000,269.374,0.000]",
                "[3_6216:3248.578,440.204,3638.242,0.000,49.442,0.000]",
                "[3_6217:3248.133,440.195,3640.462,0.000,88.883,0.000]",
                "[3_6218:3247.979,440.102,3639.504,0.000,75.833,0.000]"
            ]
        },
        {
            "id": 7411326,
            "beginWay": "TALK_BEGIN_MANUAL",
            "activeMode": "PLAY_MODE_HOST",
            "beginCond": [
                {
                    "type": "QUEST_COND_STATE_EQUAL",
                    "param": [
                        "7411311",
                        "2"
                    ]
                }
            ],
            "priority": 5,
            "initDialog": 741132601,
            "npcId": [
                21171
            ],
            "performCfg": "",
            "questId": 74113,
            "assetIndex": 11712889283853066710,
            "prePerformCfg": ""
        },
        {
            "id": 7411327,
            "beginWay": "TALK_BEGIN_MANUAL",
            "activeMode": "PLAY_MODE_HOST",
            "beginCond": [
                {
                    "type": "QUEST_COND_STATE_EQUAL",
                    "param": [
                        "7411310",
                        "3"
                    ]
                }
            ],
            "priority": 5,
            "initDialog": 741132701,
            "npcId": [
                21279
            ],
            "performCfg": "",
            "questId": 74113,
            "assetIndex": 15743458305500307240,
            "prePerformCfg": "",
            "finishExec": [
                {
                    "type": "TALK_EXEC_SET_QUEST_VAR",
                    "param": [
                        "1",
                        "1",
                        "74113"
                    ]
                }
            ]
        },
        {
            "id": 7411328,
            "beginWay": "TALK_BEGIN_MANUAL",
            "activeMode": "PLAY_MODE_HOST",
            "beginCond": [
                {
                    "type": "QUEST_COND_STATE_EQUAL",
                    "param": [
                        "7411310",
                        "3"
                    ]
                }
            ],
            "priority": 5,
            "initDialog": 741132801,
            "npcId": [
                21280
            ],
            "performCfg": "",
            "questId": 74113,
            "assetIndex": 6451247374600889617,
            "prePerformCfg": "",
            "finishExec": [
                {
                    "type": "TALK_EXEC_SET_QUEST_VAR",
                    "param": [
                        "2",
                        "1",
                        "74113"
                    ]
                }
            ]
        },
        {
            "id": 7411329,
            "beginWay": "TALK_BEGIN_MANUAL",
            "activeMode": "PLAY_MODE_HOST",
            "beginCond": [
                {
                    "type": "QUEST_COND_STATE_EQUAL",
                    "param": [
                        "7411310",
                        "3"
                    ]
                }
            ],
            "priority": 5,
            "initDialog": 741132901,
            "npcId": [
                21281
            ],
            "performCfg": "QuestDialogue/WQ/Fontaine_74113/Q7411329",
            "questId": 74113,
            "assetIndex": 1841710900698806924,
            "prePerformCfg": "",
            "finishExec": [
                {
                    "type": "TALK_EXEC_SET_QUEST_VAR",
                    "param": [
                        "3",
                        "1",
                        "74113"
                    ]
                }
            ]
        },
        {
            "id": 7411332,
            "beginWay": "TALK_BEGIN_MANUAL",
            "activeMode": "PLAY_MODE_HOST",
            "beginCond": [
                {
                    "type": "QUEST_COND_STATE_EQUAL",
                    "param": [
                        "7411328",
                        "2"
                    ]
                }
            ],
            "priority": 5,
            "initDialog": 741133201,
            "npcId": [
                21161
            ],
            "performCfg": "QuestDialogue/WQ/Fontaine_74113/Q7411332",
            "questId": 74113,
            "assetIndex": 15129911649217760602,
            "prePerformCfg": "",
            "ELGPLEMBBFA": [
                "[3_6513:3237.783,439.163,3650.345,0.000,132.707,0.000]",
                "[3_7189:3240.715,439.634,3647.299,0.000,311.061,0.000]",
                "[3_7190:3238.510,439.760,3646.690]"
            ]
        },
        {
            "id": 7411333,
            "beginWay": "TALK_BEGIN_MANUAL",
            "activeMode": "PLAY_MODE_HOST",
            "beginCond": [
                {
                    "type": "QUEST_COND_STATE_EQUAL",
                    "param": [
                        "7411329",
                        "2"
                    ]
                }
            ],
            "priority": 8,
            "initDialog": 741133301,
            "npcId": [
                21171
            ],
            "performCfg": "QuestDialogue/WQ/Fontaine_74113/Q7411333",
            "questId": 74113,
            "assetIndex": 2990913100755721329,
            "prePerformCfg": "",
            "ELGPLEMBBFA": [
                "[3_6215:3249.292,440.390,3639.542,0.000,269.374,0.000]",
                "[3_6518:3253.471,441.186,3636.102,0.000,90.000,0.000]"
            ]
        },
        {
            "id": 7411334,
            "beginWay": "TALK_BEGIN_MANUAL",
            "activeMode": "PLAY_MODE_HOST",
            "beginCond": [
                {
                    "type": "QUEST_COND_STATE_EQUAL",
                    "param": [
                        "7411329",
                        "2"
                    ]
                }
            ],
            "priority": 5,
            "initDialog": 741133401,
            "npcId": [
                21171
            ],
            "performCfg": "QuestDialogue/WQ/Fontaine_74113/Q7411334",
            "questId": 74113,
            "assetIndex": 8282008109362247804,
            "prePerformCfg": "",
            "ELGPLEMBBFA": [
                "[3_6216:3248.578,440.204,3638.242,0.000,49.442,0.000]",
                "[3_6218:3247.979,440.102,3639.504,0.000,75.833,0.000]",
                "[3_6964:3251.887,441.417,3644.803,0.000,200.000,0.000]",
                "[3_7190:3238.510,439.760,3646.690]"
            ]
        },
        {
            "id": 7411335,
            "beginWay": "TALK_BEGIN_MANUAL",
            "activeMode": "PLAY_MODE_HOST",
            "beginCond": [
                {
                    "type": "QUEST_COND_STATE_EQUAL",
                    "param": [
                        "7411329",
                        "2"
                    ]
                }
            ],
            "priority": 5,
            "initDialog": 741133501,
            "npcId": [
                21171
            ],
            "performCfg": "",
            "questId": 74113,
            "assetIndex": 5387852220908244489,
            "prePerformCfg": ""
        },
        {
            "id": 7411336,
            "beginWay": "TALK_BEGIN_AUTO",
            "activeMode": "PLAY_MODE_HOST",
            "beginCond": [
                {
                    "type": "QUEST_COND_STATE_EQUAL",
                    "param": [
                        "7411326",
                        "2"
                    ]
                }
            ],
            "priority": 5,
            "initDialog": 741133602,
            "npcId": [
                21158,
                21171
            ],
            "performCfg": "QuestDialogue/WQ/Fontaine_74113/Q7411336",
            "questId": 74113,
            "assetIndex": 32869112446631915,
            "prePerformCfg": "",
            "PFJKAACJGBC": true,
            "ELGPLEMBBFA": [
                "[3_6720:3228.699,441.174,3260.788,0.000,152.030,0.000]",
                "[3_6953:3229.450,441.059,3259.070,0.000,154.842,0.000]"
            ]
        },
        {
            "id": 7411337,
            "beginWay": "TALK_BEGIN_MANUAL",
            "activeMode": "PLAY_MODE_HOST",
            "beginCondComb": "LOGIC_AND",
            "beginCond": [
                {
                    "type": "QUEST_COND_STATE_EQUAL",
                    "param": [
                        "7411330",
                        "2"
                    ]
                },
                {
                    "type": "QUEST_COND_QUEST_GLOBAL_VAR_NOT_EQUAL",
                    "param": [
                        "7400702",
                        "1"
                    ]
                }
            ],
            "priority": 5,
            "initDialog": 741133701,
            "npcId": [
                21158,
                21160
            ],
            "performCfg": "QuestDialogue/WQ/Fontaine_74113/Q7411337",
            "questId": 74113,
            "assetIndex": 5428107920878241441,
            "prePerformCfg": "",
            "ELGPLEMBBFA": [
                "[3_6516:3225.110,440.022,3188.880,0.000,65.697,0.000]",
                "[3_6517:3226.729,440.023,3189.675,0.000,229.311,0.000]",
                "[3_7426:3224.785,440.122,3191.045,0.000,144.777,0.000]"
            ]
        },
        {
            "id": 7411343,
            "beginWay": "TALK_BEGIN_MANUAL",
            "activeMode": "PLAY_MODE_HOST",
            "beginCond": [
                {
                    "type": "QUEST_COND_STATE_EQUAL",
                    "param": [
                        "7411314",
                        "3"
                    ]
                }
            ],
            "priority": 2,
            "initDialog": 741134301,
            "npcId": [
                21169
            ],
            "performCfg": "",
            "questId": 74113,
            "assetIndex": 841563170760115817,
            "prePerformCfg": ""
        },
        {
            "id": 7411368,
            "beginWay": "TALK_BEGIN_MANUAL",
            "activeMode": "PLAY_MODE_HOST",
            "beginCondComb": "LOGIC_AND",
            "beginCond": [
                {
                    "type": "QUEST_COND_STATE_EQUAL",
                    "param": [
                        "7411316",
                        "3"
                    ]
                },
                {
                    "type": "QUEST_COND_STATE_EQUAL",
                    "param": [
                        "7411319",
                        "0"
                    ]
                }
            ],
            "priority": 3,
            "initDialog": 741136801,
            "npcId": [
                21162
            ],
            "performCfg": "",
            "questId": 74113,
            "assetIndex": 12081744767103105383,
            "prePerformCfg": ""
        },
        {
            "id": 7411370,
            "beginWay": "TALK_BEGIN_MANUAL",
            "activeMode": "PLAY_MODE_HOST",
            "beginCondComb": "LOGIC_AND",
            "beginCond": [
                {
                    "type": "QUEST_COND_STATE_EQUAL",
                    "param": [
                        "7411330",
                        "2"
                    ]
                },
                {
                    "type": "QUEST_COND_QUEST_GLOBAL_VAR_EQUAL",
                    "param": [
                        "7400702",
                        "1"
                    ]
                }
            ],
            "priority": 5,
            "initDialog": 741137001,
            "npcId": [
                21158,
                21160
            ],
            "performCfg": "QuestDialogue/WQ/Fontaine_74113/Q7411370",
            "questId": 74113,
            "assetIndex": 2154143461687679401,
            "prePerformCfg": "",
            "ELGPLEMBBFA": [
                "[3_6516:3225.110,440.022,3188.880,0.000,65.697,0.000]",
                "[3_6517:3226.729,440.023,3189.675,0.000,229.311,0.000]",
                "[3_7427:3224.836,440.137,3191.095,0.000,145.000,0.000]"
            ]
        },
        {
            "id": 7411371,
            "beginWay": "TALK_BEGIN_MANUAL",
            "activeMode": "PLAY_MODE_HOST",
            "beginCondComb": "LOGIC_AND",
            "beginCond": [
                {
                    "type": "QUEST_COND_STATE_EQUAL",
                    "param": [
                        "7411316",
                        "3"
                    ]
                }
            ],
            "priority": 3,
            "initDialog": 741137101,
            "npcId": [
                21169
            ],
            "performCfg": "",
            "questId": 74113,
            "assetIndex": 2140476275795526505,
            "prePerformCfg": ""
        },
        {
            "id": 7411372,
            "beginWay": "TALK_BEGIN_MANUAL",
            "activeMode": "PLAY_MODE_HOST",
            "beginCondComb": "LOGIC_AND",
            "beginCond": [
                {
                    "type": "QUEST_COND_STATE_EQUAL",
                    "param": [
                        "7411318",
                        "2"
                    ]
                }
            ],
            "priority": 5,
            "initDialog": 741137201,
            "npcId": [
                21160,
                21158
            ],
            "performCfg": "",
            "questId": 74113,
            "assetIndex": 1718545773804129650,
            "prePerformCfg": ""
        }
    ],
    "preloadLuaList": [
        4631270399420025220,
        15257245802753871430,
        3567386061084485462,
        2773171881825731350,
        243824256692135012,
        12867375058769944485,
        10294687750024573729,
        15676808186133257786,
        6538301679078363431,
        16996158468819789157
    ],
    "GDLCBECFGJO": [
        4212329186796865606
    ],
    "freeStyleDic": {
        "21169": [
            1130,
            1160
        ],
        "21162": [
            1230
        ]
    },
    "NELLMEHAFLJ": true
}