{
    "id": 74135,
    "type": "WQ",
    "mainQuestTag": "MAINQUEST_TAG_RANK_ZERO_WQ",
    "activeMode": "PLAY_MODE_ALL",
    "titleTextMapHash": 531847311,
    "descTextMapHash": 1882272854,
    "luaPath": "Actor/Quest/WQ74135",
    "rewardIdList": [
        74135
    ],
    "subQuests": [
        {
            "subId": 7413501,
            "mainId": 74135,
            "order": 1,
            "descTextMapHash": 1838829412,
            "guideTipsTextMapHash": 3241422126,
            "finishCond": [
                {
                    "type": "QUEST_CONTENT_QUEST_GLOBAL_VAR_EQUAL",
                    "param": [
                        7400801,
                        1
                    ]
                }
            ],
            "guide": {},
            "guideHint": {
                "COLBFDGFKDJ": ""
            },
            "isRewind": true,
            "versionBegin": "",
            "versionEnd": ""
        },
        {
            "subId": 7413502,
            "mainId": 74135,
            "order": 2,
            "descTextMapHash": 1361988740,
            "finishCond": [
                {
                    "type": "QUEST_CONTENT_FINISH_PLOT",
                    "param": [
                        7413502,
                        0
                    ]
                }
            ],
            "guide": {
                "type": "QUEST_GUIDE_LOCATION",
                "param": [
                    "[3_4618:3201.079,254.568,4175.873]"
                ],
                "guideScene": 3,
                "guideStyle": "QUEST_GUIDE_STYLE_POINT",
                "guideLayer": "QUEST_GUIDE_LAYER_SCENE"
            },
            "guideHint": {
                "COLBFDGFKDJ": ""
            },
            "isRewind": true,
            "versionBegin": "",
            "versionEnd": ""
        },
        {
            "subId": 7413503,
            "mainId": 74135,
            "order": 3,
            "descTextMapHash": 1987522596,
            "finishCond": [
                {
                    "type": "QUEST_CONTENT_FINISH_PLOT",
                    "param": [
                        7413502,
                        0
                    ]
                }
            ],
            "guide": {
                "type": "QUEST_GUIDE_LOCATION",
                "param": [
                    "[3_4618:3201.079,254.568,4175.873]"
                ],
                "guideScene": 3,
                "guideStyle": "QUEST_GUIDE_STYLE_POINT",
                "guideLayer": "QUEST_GUIDE_LAYER_SCENE"
            },
            "guideHint": {
                "COLBFDGFKDJ": ""
            },
            "isRewind": true,
            "versionBegin": "",
            "versionEnd": ""
        },
        {
            "subId": 7413504,
            "mainId": 74135,
            "order": 4,
            "descTextMapHash": 3323495996,
            "finishCond": [
                {
                    "type": "QUEST_CONTENT_QUEST_GLOBAL_VAR_EQUAL",
                    "param": [
                        7400102,
                        3
                    ]
                }
            ],
            "guide": {
                "type": "QUEST_GUIDE_LOCATION",
                "param": [
                    "[1080_22:200.072,-21.491,200.074]",
                    "30"
                ],
                "guideScene": 1080,
                "guideStyle": "QUEST_GUIDE_STYLE_TARGET",
                "guideLayer": "QUEST_GUIDE_LAYER_SCENE"
            },
            "guideHint": {
                "COLBFDGFKDJ": ""
            },
            "finishParent": true,
            "isRewind": true,
            "versionBegin": "",
            "versionEnd": ""
        }
    ],
    "preloadLuaList": [
        5314604243032027527
    ],
    "GDLCBECFGJO": [
        3261184554243807415
    ]
}