{
    "CCFPGAKINNB": 74677,
    "JNMCHAGDLOL": "WQ",
    "DPKJDKDKDFH": "MAINQUEST_TAG_GUIDE",
    "HLAINHJACPJ": 2535885047,
    "CJBHOPEAEPN": 2816982646,
    "KBPAAIICBFE": "Actor/Quest/WQ74677",
    "MHOOJOMLDDB": [
        174677
    ],
    "CFHCHGOOLBN": true,
    "PMKEAKECDPO": 5172,
    "POJOCEPJPAL": [
        {
            "OHGOECEBPJM": 7467701,
            "DNINOJJPDDG": 74677,
            "NKCPJODPKPO": 1,
            "CJBHOPEAEPN": 981363300,
            "AODHOADLAJC": [
                {
                    "JNMCHAGDLOL": "QUEST_CONTENT_COMPLETE_TALK",
                    "OBKNOBNIEGC": [
                        7467701,
                        0
                    ]
                }
            ],
            "OALKBEIOAOH": {
                "JNMCHAGDLOL": "QUEST_GUIDE_NPC",
                "OBKNOBNIEGC": [
                    "30483"
                ],
                "KGFIGPLOOGN": 3,
                "IGOKLNLLAJL": "QUEST_GUIDE_STYLE_TARGET"
            },
            "CDDKJNJPILI": {
                "KPOGPNLFAAE": ""
            },
            "DBJJALMJAGP": true,
            "IBKCENKCMEM": true,
            "JLPDHGIFKMC": "",
            "NADDGOKKJAO": ""
        }
    ],
    "PCNNNPLAEAI": [
        {
            "CCFPGAKINNB": 7467701,
            "CLHPPLIFPFJ": "TALK_BEGIN_MANUAL",
            "AFNAENENCBB": [
                {
                    "type": "QUEST_COND_STATE_EQUAL",
                    "param": [
                        "7467701",
                        "2"
                    ]
                }
            ],
            "KPMDGJNJNJC": 5,
            "FMFFELFBBJN": 746770101,
            "JDOFKFPHIDC": [
                30483
            ],
            "GHHGNCCJOEJ": "QuestDialogue/WQ/GoalChallenge_74677/Q7467701",
            "GKACCNJHFHH": "TALK_HERO_MAIN",
            "OLLANCCFJKD": 74677,
            "NKIDPMJGEKA": 1380444555221780470,
            "BBMLHKKNIOJ": ""
        }
    ],
    "NKMGAAOIGIL": true
}