{
    "id": 74919,
    "type": "WQ",
    "titleTextMapHash": 1035430527,
    "descTextMapHash": 2100232494,
    "luaPath": "",
    "rewardIdList": [
        555020
    ],
    "showType": "QUEST_HIDDEN",
    "subQuests": [
        {
            "subId": 7491901,
            "mainId": 74919,
            "order": 1,
            "showType": "QUEST_HIDDEN",
            "finishCond": [
                {
                    "type": "QUEST_CONTENT_COMPLETE_TALK",
                    "param": [
                        7491901,
                        0
                    ]
                }
            ],
            "guide": {},
            "guideHint": {
                "COLBFDGFKDJ": ""
            },
            "finishParent": true,
            "versionBegin": "",
            "versionEnd": ""
        }
    ]
}