{
    "id": 74937,
    "type": "WQ",
    "titleTextMapHash": 43428839,
    "descTextMapHash": 767900550,
    "luaPath": "",
    "rewardIdList": [
        555037
    ],
    "showType": "QUEST_HIDDEN",
    "subQuests": [
        {
            "subId": 7493701,
            "mainId": 74937,
            "order": 1,
            "showType": "QUEST_HIDDEN",
            "finishCond": [
                {
                    "type": "QUEST_CONTENT_COMPLETE_TALK",
                    "param": [
                        7493701,
                        0
                    ]
                }
            ],
            "guide": {},
            "guideHint": {
                "COLBFDGFKDJ": ""
            },
            "finishParent": true,
            "versionBegin": "",
            "versionEnd": ""
        }
    ]
}