{
    "luaDataPath": "",
    "startBlackKeepTime": 0.5,
    "entityBan": "",
    "disableNpcLod": true,
    "isAutoBanNpc": true,
    "isBanWidgetPet": true,
    "protectNpcMobileLod": true,
    "startFade": {
        "startFadeInDuration": 0.5,
        "startFadeOutDuration": 0.5
    },
    "endFade": {
        "startFadeOutDuration": 0.0
    },
    "actors": [
        {
            "alias": "Avatar",
            "visible": true,
            "bornPointName": "Q801001_N10000005",
            "relativePosType": "AVATAR_NEW",
            "relativePosNpcAlias": "",
            "bindMovingTargetKey": ""
        },
        {
            "alias": "AvatarNpc",
            "visible": true,
            "bornPointName": "Q801001_N10000005",
            "removeActorType": "NEW_REMOVE",
            "relativePosType": "AVATAR_NEW",
            "relativePosNpcAlias": "",
            "bindMovingTargetKey": ""
        },
        {
            "configID": 1022,
            "alias": "1022",
            "visible": true,
            "bornPointName": "Q801001_N1022",
            "removeActorType": "NEW_REMOVE",
            "relativePosType": "AVATAR_NEW",
            "relativePosNpcAlias": "",
            "bindMovingTargetKey": ""
        }
    ],
    "group": [
        [
            {
                "$type": "MoleMole.Config.ConfigTimeProtectAction",
                "type": "TIME_PROTECT",
                "duration": 1.0,
                "actionId": 104
            },
            {
                "$type": "MoleMole.Config.ConfigBlackScreenAction",
                "type": "BLACK_SCREEN",
                "duration": 1.0,
                "actionId": 138,
                "blackScreenType": "KEEP_BLACK",
                "durationToBlack": 0.5,
                "durationKeepBlack": 1.0,
                "durationFromBlack": 0.5,
                "inteePos": "",
                "textMapID": "",
                "useTextFade": true
            },
            {
                "$type": "MoleMole.Config.ConfigLocalGadgetOP",
                "type": "LOCAL_GADGET_OP",
                "actionId": 157,
                "gadgetId": 70710971,
                "subKey": 2,
                "oprCode": 1,
                "questMainId": 8009,
                "slotName": "",
                "sceneId": 20180,
                "position": {
                    "x": -722.3070068359375,
                    "y": 225.10699462890625,
                    "z": 2237.343017578125
                },
                "euler": {
                    "y": 179.9010009765625
                },
                "gvKey": ""
            },
            {
                "$type": "MoleMole.Config.ConfigSitOrStandAction",
                "type": "SIT_OR_STAND",
                "aliasList": [
                    "Avatar"
                ],
                "actionId": 152,
                "banResetFreestyle": true
            },
            {
                "$type": "MoleMole.Config.ConfigVisibleInterAction",
                "type": "VISIBLE",
                "aliasList": [
                    "Avatar"
                ],
                "actionId": 155,
                "extraParam": ""
            },
            {
                "$type": "MoleMole.Config.ConfigTeleportToAction",
                "type": "TELEPORT_TO",
                "aliasList": [
                    "Avatar"
                ],
                "actionId": 323,
                "position": {
                    "x": -719.4749755859375,
                    "y": 225.1699981689453,
                    "z": 2236.0458984375
                },
                "forward": {
                    "x": -0.9649999737739563,
                    "z": -0.2639999985694885
                },
                "openLongDisTeleport": true,
                "posBindMovingTargetKey": "",
                "forwardBindMovingTargetKey": ""
            },
            {
                "$type": "MoleMole.Config.ConfigPlayerNPCEnergyTypeAction",
                "type": "SET_PLAYER_NPC_ENERGY_TYPE",
                "aliasList": [
                    "AvatarNpc"
                ],
                "actionId": 153,
                "setHeroEngergyType": true
            },
            {
                "$type": "EAMBKPBOPIC",
                "type": "LOOK_AT",
                "aliasList": [
                    "AvatarNpc"
                ],
                "actionId": 164,
                "BCHGCKLKNEH": 0.5,
                "OMCCMPHDLOO": "",
                "EOHIIHMKDJC": true,
                "KPCALFDIHMC": "",
                "DBLNLMOPEBP": ""
            },
            {
                "$type": "ILCGAGEGDJI",
                "type": "BODY_LANG",
                "aliasList": [
                    "AvatarNpc"
                ],
                "actionId": 168,
                "FLBOOPHHFJP": 4121,
                "PMJAMGLAJGK": true,
                "LIMPPBIAKGL": false,
                "FNEGLPPEBBF": true,
                "FNDLJGEAMGI": ""
            },
            {
                "$type": "MoleMole.Config.ConfigTeleportToAction",
                "type": "TELEPORT_TO",
                "aliasList": [
                    "AvatarNpc"
                ],
                "actionId": 169,
                "position": {
                    "x": -719.4749755859375,
                    "y": 225.1699981689453,
                    "z": 2236.0458984375
                },
                "forward": {
                    "x": -0.9649999737739563,
                    "z": -0.2639999985694885
                },
                "openLongDisTeleport": true,
                "posBindMovingTargetKey": "",
                "forwardBindMovingTargetKey": ""
            },
            {
                "$type": "EAMBKPBOPIC",
                "type": "LOOK_AT",
                "aliasList": [
                    "1022"
                ],
                "actionId": 165,
                "BCHGCKLKNEH": 0.5,
                "OMCCMPHDLOO": "",
                "EOHIIHMKDJC": true,
                "KPCALFDIHMC": "",
                "DBLNLMOPEBP": ""
            },
            {
                "$type": "MoleMole.Config.ConfigTeleportToAction",
                "type": "TELEPORT_TO",
                "aliasList": [
                    "1022"
                ],
                "actionId": 176,
                "position": {
                    "x": -720.5120239257812,
                    "y": 225.10699462890625,
                    "z": 2239.010986328125
                },
                "forward": {
                    "x": 0.3790000081062317,
                    "z": -0.925000011920929
                },
                "openLongDisTeleport": true,
                "posBindMovingTargetKey": "",
                "forwardBindMovingTargetKey": ""
            }
        ],
        [
            {
                "$type": "MoleMole.Config.ConfigBlackScreenAction",
                "type": "BLACK_SCREEN",
                "duration": 0.5,
                "actionId": 139,
                "blackScreenType": "FROM_BLACK",
                "durationToBlack": 0.5,
                "durationKeepBlack": 0.5,
                "durationFromBlack": 0.5,
                "inteePos": "",
                "textMapID": "",
                "useTextFade": true
            },
            {
                "$type": "MoleMole.Config.ConfigSimpleUIShowInterAction",
                "type": "SIMPLE_UI_SHOW",
                "actionId": 163,
                "contextName": "BlinkDialog",
                "param": ""
            },
            {
                "$type": "MOOOKOKLLEI",
                "type": "CAMERA_MOVE",
                "duration": 0.5,
                "actionId": 170,
                "DOKGBCKOLJK": {
                    "x": -719.1259765625,
                    "y": 225.49099731445312,
                    "z": 2236.5849609375
                },
                "HGKCPMDICGG": {
                    "x": -719.9910278320312,
                    "y": 225.15899658203125,
                    "z": 2236.2080078125
                },
                "AFODHELHCGB": 35.0,
                "MGMFMGNANHH": 6,
                "NDFGFJFGHKL": "EaseInOutCubic",
                "IBCBGNHCICN": {},
                "BNBBLLBEIDL": true,
                "NHNPMMBMCFC": 283.59698486328125,
                "HCPFCAHMGMO": false,
                "OMCCMPHDLOO": "",
                "FEFNBKOHPOG": true,
                "OCFGGGHIKOO": "",
                "LJFHGGJDPHH": "",
                "LPKDFKLNEHL": ""
            },
            {
                "$type": "MoleMole.Config.ConfigCameraDOFAction",
                "type": "CAMERA_DOF",
                "actionId": 178,
                "enabled": true,
                "focusDistance": 0.6430000066757202,
                "focusRange": 0.27000001072883606,
                "nearFocalDistance": 0.33799999952316284,
                "nearFocalTransDistance": 0.11999999731779099,
                "dofBlurAmount": 2.0,
                "quality": 3
            },
            {
                "$type": "DLPFECMKEKH",
                "type": "DIALOG",
                "aliasList": [
                    "1022"
                ],
                "actionId": 107,
                "NMKEDPFEKBH": 80091201,
                "JLCHMAJCAPA": 3.0
            },
            {
                "$type": "OPCCDGPJCJI",
                "type": "EMO_SYNC",
                "aliasList": [
                    "1022"
                ],
                "actionId": 159,
                "IONNJBCBACJ": "Cs_Emo_Avatar_Simple_Common_Set/Cs_Emo_Avatar_Talk/Cs_Emo_Avatar_MainLine/Cs_Emo_Avatar_Twins03/Cs_Emo_80091201",
                "HLEJKBCMNNJ": "",
                "JGHLJJLNGPP": "",
                "MANNKIIBOFM": "",
                "COMNAAFDEDH": "",
                "CPGCCLNOCDK": "",
                "IGEFGCJKCPM": [
                    14328182742776101923,
                    3752988508066525803,
                    7775246380241373743,
                    12894110121917339548
                ]
            },
            {
                "$type": "MOOOKOKLLEI",
                "type": "CAMERA_MOVE",
                "delayTime": 0.10000000149011612,
                "duration": 1.5850000381469727,
                "actionId": 173,
                "DOKGBCKOLJK": {
                    "x": -719.1259765625,
                    "y": 225.49099731445312,
                    "z": 2236.5849609375
                },
                "HGKCPMDICGG": {
                    "x": -719.89697265625,
                    "y": 225.156005859375,
                    "z": 2236.04296875
                },
                "AFODHELHCGB": 35.0,
                "NDFGFJFGHKL": "Linear",
                "IBCBGNHCICN": {},
                "BNBBLLBEIDL": true,
                "NHNPMMBMCFC": 284.0,
                "HCPFCAHMGMO": false,
                "OMCCMPHDLOO": "",
                "FEFNBKOHPOG": true,
                "OCFGGGHIKOO": "",
                "LJFHGGJDPHH": "",
                "LPKDFKLNEHL": ""
            },
            {
                "$type": "MOOOKOKLLEI",
                "type": "CAMERA_MOVE",
                "delayTime": 1.5019999742507935,
                "duration": 1.2699999809265137,
                "actionId": 174,
                "DOKGBCKOLJK": {
                    "x": -719.1259765625,
                    "y": 225.49099731445312,
                    "z": 2236.5849609375
                },
                "HGKCPMDICGG": {
                    "x": -720.1090087890625,
                    "y": 225.31300354003906,
                    "z": 2236.54296875
                },
                "AFODHELHCGB": 35.0,
                "NDFGFJFGHKL": "Linear",
                "IBCBGNHCICN": {},
                "BNBBLLBEIDL": true,
                "NHNPMMBMCFC": 291.7170104980469,
                "HCPFCAHMGMO": false,
                "OMCCMPHDLOO": "",
                "FEFNBKOHPOG": true,
                "OCFGGGHIKOO": "",
                "LJFHGGJDPHH": "",
                "LPKDFKLNEHL": ""
            },
            {
                "$type": "MOOOKOKLLEI",
                "type": "CAMERA_MOVE",
                "delayTime": 2.640000104904175,
                "duration": 3.3310000896453857,
                "actionId": 175,
                "DOKGBCKOLJK": {
                    "x": -719.1259765625,
                    "y": 225.49099731445312,
                    "z": 2236.5849609375
                },
                "HGKCPMDICGG": {
                    "x": -719.7059936523438,
                    "y": 225.41799926757812,
                    "z": 2237.39599609375
                },
                "AFODHELHCGB": 35.0,
                "NDFGFJFGHKL": "EaseOutQuad",
                "IBCBGNHCICN": {},
                "BNBBLLBEIDL": true,
                "NHNPMMBMCFC": 293.5570068359375,
                "HCPFCAHMGMO": false,
                "OMCCMPHDLOO": "",
                "FEFNBKOHPOG": true,
                "OCFGGGHIKOO": "",
                "LJFHGGJDPHH": "",
                "LPKDFKLNEHL": ""
            },
            {
                "$type": "MoleMole.Config.ConfigMoveToAction",
                "type": "MOVE_TO",
                "delayTime": 3.0,
                "aliasList": [
                    "1022"
                ],
                "actionId": 177,
                "moveType": "WALK",
                "routeList": [
                    {
                        "x": -719.9940185546875,
                        "y": 225.1699981689453,
                        "z": 2237.748046875
                    }
                ],
                "exactlyMove": true,
                "closeNavMesh": true,
                "openSetPos": true,
                "bindMovingTargetKey": ""
            }
        ],
        [
            {
                "$type": "MoleMole.Config.ConfigTimeProtectAction",
                "type": "TIME_PROTECT",
                "duration": 2.0,
                "actionId": 180
            },
            {
                "$type": "MOOOKOKLLEI",
                "type": "CAMERA_MOVE",
                "duration": 1.0,
                "actionId": 190,
                "DOKGBCKOLJK": {
                    "x": -719.1259765625,
                    "y": 225.49099731445312,
                    "z": 2236.5849609375
                },
                "HGKCPMDICGG": {
                    "x": -719.833984375,
                    "y": 225.1790008544922,
                    "z": 2237.218994140625
                },
                "AFODHELHCGB": 35.0,
                "NDFGFJFGHKL": "EaseOutQuad",
                "IBCBGNHCICN": {},
                "BNBBLLBEIDL": true,
                "NHNPMMBMCFC": 285.1830139160156,
                "HCPFCAHMGMO": false,
                "OMCCMPHDLOO": "",
                "FEFNBKOHPOG": true,
                "OCFGGGHIKOO": "",
                "LJFHGGJDPHH": "",
                "LPKDFKLNEHL": ""
            },
            {
                "$type": "MoleMole.Config.ConfigSimpleBlackScreenAction",
                "type": "SIMPLE_BLACK_SCREEN",
                "actionId": 191,
                "durationToBlack": 0.5,
                "durationKeepBlack": 1.5,
                "durationFromBlack": 0.5,
                "textMapID": "",
                "useTextFade": true
            },
            {
                "$type": "MoleMole.Config.ConfigTeleportToAction",
                "type": "TELEPORT_TO",
                "aliasList": [
                    "1022"
                ],
                "actionId": 210,
                "position": {
                    "x": -719.9940185546875,
                    "y": 225.1699981689453,
                    "z": 2237.748046875
                },
                "forward": {
                    "x": 0.3790000081062317,
                    "z": -0.925000011920929
                },
                "openLongDisTeleport": true,
                "posBindMovingTargetKey": "",
                "forwardBindMovingTargetKey": ""
            },
            {
                "$type": "MOOOKOKLLEI",
                "type": "CAMERA_MOVE",
                "delayTime": 1.0,
                "duration": 0.5,
                "actionId": 192,
                "DOKGBCKOLJK": {
                    "x": -719.489013671875,
                    "y": 226.52999877929688,
                    "z": 2236.345947265625
                },
                "HGKCPMDICGG": {
                    "x": -719.7979736328125,
                    "y": 225.98300170898438,
                    "z": 2237.1240234375
                },
                "AFODHELHCGB": 25.0,
                "MGMFMGNANHH": 6,
                "NDFGFJFGHKL": "EaseOutQuad",
                "IBCBGNHCICN": {},
                "BNBBLLBEIDL": true,
                "HCPFCAHMGMO": false,
                "OMCCMPHDLOO": "",
                "FEFNBKOHPOG": true,
                "OCFGGGHIKOO": "",
                "LJFHGGJDPHH": "",
                "LPKDFKLNEHL": ""
            },
            {
                "$type": "MoleMole.Config.ConfigCameraDOFAction",
                "type": "CAMERA_DOF",
                "delayTime": 1.600000023841858,
                "actionId": 284,
                "focusDistance": 5.0,
                "focusRange": 10.0,
                "nearFocalDistance": 1.0,
                "nearFocalTransDistance": 1.0,
                "dofBlurAmount": 1.0,
                "quality": 3
            }
        ],
        [
            {
                "$type": "MOOOKOKLLEI",
                "type": "CAMERA_MOVE",
                "duration": 0.5,
                "actionId": 172,
                "DOKGBCKOLJK": {
                    "x": -719.489013671875,
                    "y": 226.52999877929688,
                    "z": 2236.345947265625
                },
                "HGKCPMDICGG": {
                    "x": -719.948974609375,
                    "y": 226.39199829101562,
                    "z": 2237.222900390625
                },
                "AFODHELHCGB": 25.0,
                "MGMFMGNANHH": 6,
                "NDFGFJFGHKL": "EaseOutQuad",
                "IBCBGNHCICN": {},
                "BNBBLLBEIDL": true,
                "HCPFCAHMGMO": false,
                "OMCCMPHDLOO": "",
                "FEFNBKOHPOG": true,
                "OCFGGGHIKOO": "",
                "LJFHGGJDPHH": "",
                "LPKDFKLNEHL": ""
            },
            {
                "$type": "MoleMole.Config.ConfigCameraPostProcessInterAction",
                "type": "CAMERA_POST_PROCESS",
                "duration": 5.0,
                "actionId": 285,
                "postProcessType": "MOTION_BLUR",
                "motionBlurParam": {
                    "radialBlurEnable": true,
                    "radialCenter": {
                        "x": 0.5,
                        "y": 0.5
                    },
                    "radialRadius": 2.0,
                    "radialAmountCurve": {
                        "OHMHMKDAJHJ": [
                            {
                                "FOMIALGHGCN": 6.6579999923706055,
                                "IHCEPAGPEEB": 6.6579999923706055
                            },
                            {
                                "time": 0.9959999918937683,
                                "value": -0.007000000216066837,
                                "FOMIALGHGCN": -5.3420000076293945,
                                "IHCEPAGPEEB": -5.3420000076293945
                            }
                        ]
                    }
                }
            },
            {
                "$type": "DLPFECMKEKH",
                "type": "DIALOG",
                "aliasList": [
                    "AvatarNpc"
                ],
                "actionId": 141,
                "NMKEDPFEKBH": 80091202,
                "JLCHMAJCAPA": 0.5
            },
            {
                "$type": "MOOOKOKLLEI",
                "type": "CAMERA_MOVE",
                "delayTime": 0.10000000149011612,
                "duration": 2.180000066757202,
                "actionId": 184,
                "DOKGBCKOLJK": {
                    "x": -719.489013671875,
                    "y": 226.52999877929688,
                    "z": 2236.345947265625
                },
                "HGKCPMDICGG": {
                    "x": -719.7630004882812,
                    "y": 226.43099975585938,
                    "z": 2237.302978515625
                },
                "AFODHELHCGB": 25.0,
                "NDFGFJFGHKL": "Linear",
                "IBCBGNHCICN": {},
                "HCPFCAHMGMO": false,
                "OMCCMPHDLOO": "",
                "FEFNBKOHPOG": true,
                "OCFGGGHIKOO": "",
                "LJFHGGJDPHH": "",
                "LPKDFKLNEHL": ""
            },
            {
                "$type": "MOOOKOKLLEI",
                "type": "CAMERA_MOVE",
                "delayTime": 1.965000033378601,
                "duration": 6.571000099182129,
                "actionId": 187,
                "DOKGBCKOLJK": {
                    "x": -719.489013671875,
                    "y": 226.52999877929688,
                    "z": 2236.345947265625
                },
                "HGKCPMDICGG": {
                    "x": -719.8519897460938,
                    "y": 226.52699279785156,
                    "z": 2237.278076171875
                },
                "AFODHELHCGB": 25.0,
                "NDFGFJFGHKL": "EaseOutQuad",
                "IBCBGNHCICN": {},
                "BNBBLLBEIDL": true,
                "HCPFCAHMGMO": false,
                "OMCCMPHDLOO": "",
                "FEFNBKOHPOG": true,
                "OCFGGGHIKOO": "",
                "LJFHGGJDPHH": "",
                "LPKDFKLNEHL": ""
            }
        ],
        [
            {
                "$type": "MOOOKOKLLEI",
                "type": "CAMERA_MOVE",
                "duration": 0.9629999995231628,
                "actionId": 188,
                "DOKGBCKOLJK": {
                    "x": -719.489013671875,
                    "y": 226.52999877929688,
                    "z": 2236.345947265625
                },
                "HGKCPMDICGG": {
                    "x": -719.89501953125,
                    "y": 226.61399841308594,
                    "z": 2237.256103515625
                },
                "AFODHELHCGB": 25.0,
                "NDFGFJFGHKL": "Linear",
                "IBCBGNHCICN": {},
                "BNBBLLBEIDL": true,
                "HCPFCAHMGMO": false,
                "OMCCMPHDLOO": "",
                "FEFNBKOHPOG": true,
                "OCFGGGHIKOO": "",
                "LJFHGGJDPHH": "",
                "LPKDFKLNEHL": ""
            },
            {
                "$type": "MoleMole.Config.ConfigCameraPostProcessInterAction",
                "type": "CAMERA_POST_PROCESS",
                "duration": 5.0,
                "actionId": 287,
                "postProcessType": "MOTION_BLUR",
                "motionBlurParam": {
                    "radialBlurEnable": true,
                    "radialCenter": {
                        "x": 0.5,
                        "y": 0.5
                    },
                    "radialRadius": 1.0,
                    "radialAmountCurve": {
                        "OHMHMKDAJHJ": [
                            {
                                "FOMIALGHGCN": 6.6579999923706055,
                                "IHCEPAGPEEB": 6.6579999923706055
                            },
                            {
                                "time": 0.9959999918937683,
                                "value": -0.007000000216066837,
                                "FOMIALGHGCN": -5.3420000076293945,
                                "IHCEPAGPEEB": -5.3420000076293945
                            }
                        ]
                    }
                }
            },
            {
                "$type": "DLPFECMKEKH",
                "type": "DIALOG",
                "aliasList": [
                    "AvatarNpc"
                ],
                "actionId": 142,
                "NMKEDPFEKBH": 80091203,
                "JLCHMAJCAPA": 0.5
            },
            {
                "$type": "MOOOKOKLLEI",
                "type": "CAMERA_MOVE",
                "delayTime": 0.8859999775886536,
                "duration": 2.7090001106262207,
                "actionId": 189,
                "DOKGBCKOLJK": {
                    "x": -719.489013671875,
                    "y": 226.52999877929688,
                    "z": 2236.345947265625
                },
                "HGKCPMDICGG": {
                    "x": -719.822998046875,
                    "y": 226.6739959716797,
                    "z": 2237.278076171875
                },
                "AFODHELHCGB": 25.0,
                "NDFGFJFGHKL": "EaseOutQuad",
                "IBCBGNHCICN": {},
                "BNBBLLBEIDL": true,
                "HCPFCAHMGMO": false,
                "OMCCMPHDLOO": "",
                "FEFNBKOHPOG": true,
                "OCFGGGHIKOO": "",
                "LJFHGGJDPHH": "",
                "LPKDFKLNEHL": ""
            }
        ],
        [
            {
                "$type": "MOOOKOKLLEI",
                "type": "CAMERA_MOVE",
                "duration": 1.809999942779541,
                "actionId": 197,
                "DOKGBCKOLJK": {
                    "x": -719.489013671875,
                    "y": 226.52999877929688,
                    "z": 2236.345947265625
                },
                "HGKCPMDICGG": {
                    "x": -719.7830200195312,
                    "y": 226.61099243164062,
                    "z": 2237.298095703125
                },
                "AFODHELHCGB": 25.0,
                "NDFGFJFGHKL": "Linear",
                "IBCBGNHCICN": {},
                "BNBBLLBEIDL": true,
                "HCPFCAHMGMO": false,
                "OMCCMPHDLOO": "",
                "FEFNBKOHPOG": true,
                "OCFGGGHIKOO": "",
                "LJFHGGJDPHH": "",
                "LPKDFKLNEHL": ""
            },
            {
                "$type": "MoleMole.Config.ConfigCameraPostProcessInterAction",
                "type": "CAMERA_POST_PROCESS",
                "duration": 5.0,
                "actionId": 288,
                "postProcessType": "MOTION_BLUR",
                "motionBlurParam": {
                    "radialBlurEnable": true,
                    "radialCenter": {
                        "x": 0.5,
                        "y": 0.5
                    },
                    "radialRadius": 1.5,
                    "radialAmountCurve": {
                        "OHMHMKDAJHJ": [
                            {
                                "value": -0.026000000536441803,
                                "FOMIALGHGCN": 3.2820000648498535,
                                "IHCEPAGPEEB": 3.2820000648498535
                            },
                            {
                                "time": 0.9959999918937683,
                                "value": -0.032999999821186066,
                                "FOMIALGHGCN": -3.4639999866485596,
                                "IHCEPAGPEEB": -3.4639999866485596
                            }
                        ]
                    }
                }
            },
            {
                "$type": "DLPFECMKEKH",
                "type": "DIALOG",
                "aliasList": [
                    "1022"
                ],
                "actionId": 113,
                "NMKEDPFEKBH": 80091204,
                "JLCHMAJCAPA": 0.5
            },
            {
                "$type": "OPCCDGPJCJI",
                "type": "EMO_SYNC",
                "aliasList": [
                    "1022"
                ],
                "actionId": 160,
                "IONNJBCBACJ": "Cs_Emo_Avatar_Simple_Common_Set/Cs_Emo_Avatar_Talk/Cs_Emo_Avatar_MainLine/Cs_Emo_Avatar_Twins03/Cs_Emo_80091204",
                "HLEJKBCMNNJ": "",
                "JGHLJJLNGPP": "",
                "MANNKIIBOFM": "",
                "COMNAAFDEDH": "",
                "CPGCCLNOCDK": "",
                "IGEFGCJKCPM": [
                    4036393546370270,
                    16797196957962657676,
                    17427919540463157549,
                    3329796752473818538
                ]
            },
            {
                "$type": "ILCGAGEGDJI",
                "type": "BODY_LANG",
                "aliasList": [
                    "1022"
                ],
                "actionId": 194,
                "FLBOOPHHFJP": 1120,
                "PMJAMGLAJGK": true,
                "LIMPPBIAKGL": false,
                "FNEGLPPEBBF": true,
                "FNDLJGEAMGI": ""
            },
            {
                "$type": "MOOOKOKLLEI",
                "type": "CAMERA_MOVE",
                "delayTime": 1.6929999589920044,
                "duration": 1.809999942779541,
                "actionId": 198,
                "DOKGBCKOLJK": {
                    "x": -719.489013671875,
                    "y": 226.52999877929688,
                    "z": 2236.345947265625
                },
                "HGKCPMDICGG": {
                    "x": -719.81298828125,
                    "y": 226.66200256347656,
                    "z": 2237.282958984375
                },
                "AFODHELHCGB": 25.0,
                "NDFGFJFGHKL": "EaseInOutQuad",
                "IBCBGNHCICN": {},
                "BNBBLLBEIDL": true,
                "HCPFCAHMGMO": false,
                "OMCCMPHDLOO": "",
                "FEFNBKOHPOG": true,
                "OCFGGGHIKOO": "",
                "LJFHGGJDPHH": "",
                "LPKDFKLNEHL": ""
            }
        ],
        [
            {
                "$type": "MOOOKOKLLEI",
                "type": "CAMERA_MOVE",
                "duration": 3.1059999465942383,
                "actionId": 200,
                "DOKGBCKOLJK": {
                    "x": -719.489013671875,
                    "y": 226.52999877929688,
                    "z": 2236.345947265625
                },
                "HGKCPMDICGG": {
                    "x": -719.8699951171875,
                    "y": 226.61399841308594,
                    "z": 2237.26708984375
                },
                "AFODHELHCGB": 25.0,
                "NDFGFJFGHKL": "EaseInOutQuad",
                "IBCBGNHCICN": {},
                "BNBBLLBEIDL": true,
                "HCPFCAHMGMO": false,
                "OMCCMPHDLOO": "",
                "FEFNBKOHPOG": true,
                "OCFGGGHIKOO": "",
                "LJFHGGJDPHH": "",
                "LPKDFKLNEHL": ""
            },
            {
                "$type": "MoleMole.Config.ConfigCameraPostProcessInterAction",
                "type": "CAMERA_POST_PROCESS",
                "duration": 11.15999984741211,
                "actionId": 289,
                "postProcessType": "MOTION_BLUR",
                "motionBlurParam": {
                    "radialBlurEnable": true,
                    "radialCenter": {
                        "x": 0.5,
                        "y": 0.5
                    },
                    "radialRadius": 1.5,
                    "radialAmountCurve": {
                        "OHMHMKDAJHJ": [
                            {
                                "value": -0.026000000536441803,
                                "FOMIALGHGCN": 3.2820000648498535,
                                "IHCEPAGPEEB": 3.2820000648498535
                            },
                            {
                                "time": 0.9959999918937683,
                                "value": -0.032999999821186066,
                                "FOMIALGHGCN": -3.4639999866485596,
                                "IHCEPAGPEEB": -3.4639999866485596
                            }
                        ]
                    }
                }
            },
            {
                "$type": "DLPFECMKEKH",
                "type": "DIALOG",
                "aliasList": [
                    "1022"
                ],
                "actionId": 115,
                "NMKEDPFEKBH": 80091205,
                "JLCHMAJCAPA": 0.5
            },
            {
                "$type": "OPCCDGPJCJI",
                "type": "EMO_SYNC",
                "aliasList": [
                    "1022"
                ],
                "actionId": 161,
                "IONNJBCBACJ": "Cs_Emo_Avatar_Simple_Common_Set/Cs_Emo_Avatar_Talk/Cs_Emo_Avatar_MainLine/Cs_Emo_Avatar_Twins03/Cs_Emo_80091205",
                "HLEJKBCMNNJ": "",
                "JGHLJJLNGPP": "",
                "MANNKIIBOFM": "",
                "COMNAAFDEDH": "",
                "CPGCCLNOCDK": "",
                "IGEFGCJKCPM": [
                    17401404614588524303,
                    3378757542241976031,
                    1102654441830524127,
                    15311925998715753239
                ]
            },
            {
                "$type": "ILCGAGEGDJI",
                "type": "BODY_LANG",
                "aliasList": [
                    "1022"
                ],
                "actionId": 199,
                "JLABKFNJCNP": true,
                "PMJAMGLAJGK": true,
                "LIMPPBIAKGL": false,
                "FNEGLPPEBBF": true,
                "FNDLJGEAMGI": ""
            },
            {
                "$type": "MOOOKOKLLEI",
                "type": "CAMERA_MOVE",
                "delayTime": 3.0160000324249268,
                "duration": 8.159000396728516,
                "actionId": 206,
                "DOKGBCKOLJK": {
                    "x": -719.489013671875,
                    "y": 226.52999877929688,
                    "z": 2236.345947265625
                },
                "HGKCPMDICGG": {
                    "x": -719.8150024414062,
                    "y": 226.66799926757812,
                    "z": 2237.281005859375
                },
                "AFODHELHCGB": 25.0,
                "NDFGFJFGHKL": "EaseInOutQuad",
                "IBCBGNHCICN": {},
                "BNBBLLBEIDL": true,
                "HCPFCAHMGMO": false,
                "OMCCMPHDLOO": "",
                "FEFNBKOHPOG": true,
                "OCFGGGHIKOO": "",
                "LJFHGGJDPHH": "",
                "LPKDFKLNEHL": ""
            }
        ],
        [
            {
                "$type": "MOOOKOKLLEI",
                "type": "CAMERA_MOVE",
                "duration": 4.045000076293945,
                "actionId": 207,
                "DOKGBCKOLJK": {
                    "x": -719.489013671875,
                    "y": 226.52999877929688,
                    "z": 2236.345947265625
                },
                "HGKCPMDICGG": {
                    "x": -719.7919921875,
                    "y": 226.5989990234375,
                    "z": 2237.2958984375
                },
                "AFODHELHCGB": 25.0,
                "NDFGFJFGHKL": "Linear",
                "IBCBGNHCICN": {},
                "BNBBLLBEIDL": true,
                "HCPFCAHMGMO": false,
                "OMCCMPHDLOO": "",
                "FEFNBKOHPOG": true,
                "OCFGGGHIKOO": "",
                "LJFHGGJDPHH": "",
                "LPKDFKLNEHL": ""
            },
            {
                "$type": "MoleMole.Config.ConfigCameraPostProcessInterAction",
                "type": "CAMERA_POST_PROCESS",
                "duration": 6.334000110626221,
                "actionId": 290,
                "postProcessType": "MOTION_BLUR",
                "motionBlurParam": {
                    "radialBlurEnable": true,
                    "radialCenter": {
                        "x": 0.5,
                        "y": 0.5
                    },
                    "radialRadius": 1.5,
                    "radialAmountCurve": {
                        "OHMHMKDAJHJ": [
                            {
                                "value": -0.026000000536441803,
                                "FOMIALGHGCN": 3.2820000648498535,
                                "IHCEPAGPEEB": 3.2820000648498535
                            },
                            {
                                "time": 0.9959999918937683,
                                "value": -0.032999999821186066,
                                "FOMIALGHGCN": -3.4639999866485596,
                                "IHCEPAGPEEB": -3.4639999866485596
                            }
                        ]
                    }
                }
            },
            {
                "$type": "DLPFECMKEKH",
                "type": "DIALOG",
                "aliasList": [
                    "1022"
                ],
                "actionId": 117,
                "NMKEDPFEKBH": 80091206,
                "JLCHMAJCAPA": 0.5
            },
            {
                "$type": "OPCCDGPJCJI",
                "type": "EMO_SYNC",
                "aliasList": [
                    "1022"
                ],
                "actionId": 162,
                "IONNJBCBACJ": "Cs_Emo_Avatar_Simple_Common_Set/Cs_Emo_Avatar_Talk/Cs_Emo_Avatar_MainLine/Cs_Emo_Avatar_Twins03/Cs_Emo_80091206",
                "HLEJKBCMNNJ": "",
                "JGHLJJLNGPP": "",
                "MANNKIIBOFM": "",
                "COMNAAFDEDH": "",
                "CPGCCLNOCDK": "",
                "IGEFGCJKCPM": [
                    16099312769635124628,
                    14813734976670800010,
                    10969019910464733171,
                    3520919504291208018
                ]
            },
            {
                "$type": "ILCGAGEGDJI",
                "type": "BODY_LANG",
                "delayTime": 2.5420000553131104,
                "aliasList": [
                    "1022"
                ],
                "actionId": 201,
                "FLBOOPHHFJP": 1171,
                "PMJAMGLAJGK": true,
                "LIMPPBIAKGL": false,
                "FNEGLPPEBBF": true,
                "FNDLJGEAMGI": ""
            },
            {
                "$type": "MOOOKOKLLEI",
                "type": "CAMERA_MOVE",
                "delayTime": 3.9549999237060547,
                "duration": 4.045000076293945,
                "actionId": 208,
                "DOKGBCKOLJK": {
                    "x": -719.489013671875,
                    "y": 226.52999877929688,
                    "z": 2236.345947265625
                },
                "HGKCPMDICGG": {
                    "x": -719.8319702148438,
                    "y": 226.67100524902344,
                    "z": 2237.27490234375
                },
                "AFODHELHCGB": 25.0,
                "NDFGFJFGHKL": "EaseInOutQuad",
                "IBCBGNHCICN": {},
                "BNBBLLBEIDL": true,
                "HCPFCAHMGMO": false,
                "OMCCMPHDLOO": "",
                "FEFNBKOHPOG": true,
                "OCFGGGHIKOO": "",
                "LJFHGGJDPHH": "",
                "LPKDFKLNEHL": ""
            }
        ],
        [
            {
                "$type": "MoleMole.Config.ConfigTimeProtectAction",
                "type": "TIME_PROTECT",
                "duration": 3.0,
                "actionId": 205
            },
            {
                "$type": "MOOOKOKLLEI",
                "type": "CAMERA_MOVE",
                "duration": 3.0,
                "actionId": 209,
                "DOKGBCKOLJK": {
                    "x": -719.489013671875,
                    "y": 226.52999877929688,
                    "z": 2236.345947265625
                },
                "HGKCPMDICGG": {
                    "x": -719.4970092773438,
                    "y": 226.6529998779297,
                    "z": 2237.337890625
                },
                "AFODHELHCGB": 25.0,
                "NDFGFJFGHKL": "EaseInOutQuad",
                "IBCBGNHCICN": {},
                "BNBBLLBEIDL": true,
                "HCPFCAHMGMO": false,
                "OMCCMPHDLOO": "",
                "FEFNBKOHPOG": true,
                "OCFGGGHIKOO": "",
                "LJFHGGJDPHH": "",
                "LPKDFKLNEHL": ""
            },
            {
                "$type": "MoleMole.Config.ConfigCameraPostProcessInterAction",
                "type": "CAMERA_POST_PROCESS",
                "duration": 3.0,
                "actionId": 291,
                "postProcessType": "MOTION_BLUR",
                "motionBlurParam": {
                    "radialBlurEnable": true,
                    "radialCenter": {
                        "x": 0.5,
                        "y": 0.5
                    },
                    "radialRadius": 1.5,
                    "radialAmountCurve": {
                        "OHMHMKDAJHJ": [
                            {
                                "FOMIALGHGCN": 1.0,
                                "IHCEPAGPEEB": 1.0
                            },
                            {
                                "time": 1.0,
                                "value": 1.0,
                                "FOMIALGHGCN": 1.0,
                                "IHCEPAGPEEB": 1.0
                            }
                        ]
                    }
                }
            },
            {
                "$type": "ILCGAGEGDJI",
                "type": "BODY_LANG",
                "aliasList": [
                    "AvatarNpc"
                ],
                "actionId": 218,
                "JLABKFNJCNP": true,
                "PMJAMGLAJGK": true,
                "LIMPPBIAKGL": false,
                "FNEGLPPEBBF": true,
                "FNDLJGEAMGI": ""
            },
            {
                "$type": "OOMFCPJAJGL",
                "type": "STEER_TO",
                "duration": 1.0,
                "aliasList": [
                    "1022"
                ],
                "actionId": 203,
                "DMGIIHNDNLC": "ABSOLUTE",
                "PLAPKCOMAKJ": {
                    "x": -718.2579956054688,
                    "y": 225.16799926757812,
                    "z": 2238.049072265625
                },
                "HCMINPNPFDF": true,
                "PENAEBFAHCH": true,
                "CKOEAJFMDON": true,
                "OMCCMPHDLOO": "",
                "AKKPIOCLGOP": true,
                "PPGPCHDAOJG": true,
                "DBLNLMOPEBP": ""
            },
            {
                "$type": "MoleMole.Config.ConfigMoveToAction",
                "type": "MOVE_TO",
                "delayTime": 1.0,
                "aliasList": [
                    "1022"
                ],
                "actionId": 204,
                "moveType": "WALK",
                "routeList": [
                    {
                        "x": -715.6890258789062,
                        "y": 225.19700622558594,
                        "z": 2238.493896484375
                    }
                ],
                "exactlyMove": true,
                "closeNavMesh": true,
                "openSetPos": true,
                "bindMovingTargetKey": ""
            }
        ],
        [
            {
                "$type": "MOOOKOKLLEI",
                "type": "CAMERA_MOVE",
                "duration": 4.943999767303467,
                "actionId": 211,
                "DOKGBCKOLJK": {
                    "x": -719.489013671875,
                    "y": 226.52999877929688,
                    "z": 2236.345947265625
                },
                "HGKCPMDICGG": {
                    "x": -719.3380126953125,
                    "y": 226.22900390625,
                    "z": 2237.287109375
                },
                "AFODHELHCGB": 25.0,
                "NDFGFJFGHKL": "EaseOutQuad",
                "IBCBGNHCICN": {},
                "BNBBLLBEIDL": true,
                "HCPFCAHMGMO": false,
                "OMCCMPHDLOO": "",
                "FEFNBKOHPOG": true,
                "OCFGGGHIKOO": "",
                "LJFHGGJDPHH": "",
                "LPKDFKLNEHL": ""
            },
            {
                "$type": "MoleMole.Config.ConfigTeleportToAction",
                "type": "TELEPORT_TO",
                "aliasList": [
                    "Avatar"
                ],
                "actionId": 324,
                "position": {
                    "x": -719.4749755859375,
                    "y": 225.1699981689453,
                    "z": 2236.0458984375
                },
                "forward": {
                    "x": -0.25999999046325684,
                    "z": 0.9660000205039978
                },
                "openLongDisTeleport": true,
                "posBindMovingTargetKey": "",
                "forwardBindMovingTargetKey": ""
            },
            {
                "$type": "DLPFECMKEKH",
                "type": "DIALOG",
                "aliasList": [
                    "AvatarNpc"
                ],
                "actionId": 143,
                "NMKEDPFEKBH": 80091207,
                "JLCHMAJCAPA": 0.5
            },
            {
                "$type": "MoleMole.Config.ConfigTeleportToAction",
                "type": "TELEPORT_TO",
                "aliasList": [
                    "AvatarNpc"
                ],
                "actionId": 219,
                "position": {
                    "x": -719.4749755859375,
                    "y": 225.1699981689453,
                    "z": 2236.0458984375
                },
                "forward": {
                    "x": -0.25999999046325684,
                    "z": 0.9660000205039978
                },
                "openLongDisTeleport": true,
                "posBindMovingTargetKey": "",
                "forwardBindMovingTargetKey": ""
            }
        ],
        [
            {
                "$type": "MoleMole.Config.ConfigBlackScreenAction",
                "type": "BLACK_SCREEN",
                "actionId": 297,
                "blackScreenType": "TO_BLACK",
                "durationToBlack": 0.5,
                "durationKeepBlack": 0.5,
                "durationFromBlack": 0.5,
                "inteePos": "",
                "textMapID": "",
                "useTextFade": true
            },
            {
                "$type": "MOOOKOKLLEI",
                "type": "CAMERA_MOVE",
                "duration": 0.5,
                "actionId": 298,
                "DOKGBCKOLJK": {
                    "x": -719.489013671875,
                    "y": 226.52999877929688,
                    "z": 2236.345947265625
                },
                "HGKCPMDICGG": {
                    "x": -719.385986328125,
                    "y": 226.10000610351562,
                    "z": 2237.242919921875
                },
                "AFODHELHCGB": 25.0,
                "NDFGFJFGHKL": "EaseOutQuad",
                "IBCBGNHCICN": {},
                "BNBBLLBEIDL": true,
                "HCPFCAHMGMO": false,
                "OMCCMPHDLOO": "",
                "FEFNBKOHPOG": true,
                "OCFGGGHIKOO": "",
                "LJFHGGJDPHH": "",
                "LPKDFKLNEHL": ""
            },
            {
                "$type": "MoleMole.Config.ConfigTimeProtectAction",
                "type": "TIME_PROTECT",
                "duration": 0.5,
                "actionId": 299
            },
            {
                "$type": "DLPFECMKEKH",
                "type": "DIALOG_CLEAR",
                "actionId": 300
            }
        ],
        [
            {
                "$type": "MoleMole.Config.ConfigTimeProtectAction",
                "type": "TIME_PROTECT",
                "duration": 1.0,
                "actionId": 214
            },
            {
                "$type": "MOOOKOKLLEI",
                "type": "CAMERA_MOVE",
                "duration": 0.5,
                "actionId": 269,
                "DOKGBCKOLJK": {
                    "x": -719.0230102539062,
                    "y": 225.802001953125,
                    "z": 2237.738037109375
                },
                "HGKCPMDICGG": {
                    "x": -719.2260131835938,
                    "y": 225.8260040283203,
                    "z": 2236.759033203125
                },
                "AFODHELHCGB": 25.0,
                "MGMFMGNANHH": 6,
                "NDFGFJFGHKL": "EaseInOutCubic",
                "IBCBGNHCICN": {},
                "BNBBLLBEIDL": true,
                "HCPFCAHMGMO": false,
                "OMCCMPHDLOO": "",
                "FEFNBKOHPOG": true,
                "OCFGGGHIKOO": "",
                "LJFHGGJDPHH": "",
                "LPKDFKLNEHL": ""
            },
            {
                "$type": "MoleMole.Config.ConfigBlackScreenAction",
                "type": "BLACK_SCREEN",
                "actionId": 294,
                "blackScreenType": "KEEP_BLACK",
                "durationToBlack": 0.5,
                "durationKeepBlack": 2.0,
                "inteePos": "",
                "textMapID": "",
                "useTextFade": true
            },
            {
                "$type": "MoleMole.Config.ConfigCameraPostProcessInterAction",
                "type": "CAMERA_POST_PROCESS",
                "delayTime": 0.6000000238418579,
                "actionId": 292,
                "postProcessType": "MOTION_BLUR",
                "motionBlurParam": {
                    "radialAmountCurve": {}
                }
            }
        ],
        [
            {
                "$type": "MoleMole.Config.ConfigCameraDOFAction",
                "type": "CAMERA_DOF",
                "actionId": 222,
                "focusDistance": 5.0,
                "focusRange": 10.0,
                "nearFocalDistance": 1.0,
                "nearFocalTransDistance": 1.0,
                "dofBlurAmount": 1.0,
                "quality": 3
            },
            {
                "$type": "MOOOKOKLLEI",
                "type": "CAMERA_MOVE",
                "duration": 6.5,
                "actionId": 224,
                "DOKGBCKOLJK": {
                    "x": -718.47802734375,
                    "y": 226.43800354003906,
                    "z": 2236.98388671875
                },
                "HGKCPMDICGG": {
                    "x": -719.2080078125,
                    "y": 226.47999572753906,
                    "z": 2236.302001953125
                },
                "AFODHELHCGB": 25.0,
                "NDFGFJFGHKL": "EaseOutQuad",
                "IBCBGNHCICN": {},
                "BNBBLLBEIDL": true,
                "HCPFCAHMGMO": false,
                "OMCCMPHDLOO": "",
                "FEFNBKOHPOG": true,
                "OCFGGGHIKOO": "",
                "LJFHGGJDPHH": "",
                "LPKDFKLNEHL": ""
            },
            {
                "$type": "MoleMole.Config.ConfigBlackScreenAction",
                "type": "BLACK_SCREEN",
                "actionId": 295,
                "blackScreenType": "FROM_BLACK",
                "durationToBlack": 0.5,
                "durationKeepBlack": 0.5,
                "durationFromBlack": 0.5,
                "inteePos": "",
                "textMapID": "",
                "useTextFade": true
            },
            {
                "$type": "DLPFECMKEKH",
                "type": "DIALOG",
                "aliasList": [
                    "AvatarNpc"
                ],
                "actionId": 144,
                "NMKEDPFEKBH": 80091208,
                "JLCHMAJCAPA": 3.0
            },
            {
                "$type": "ILCGAGEGDJI",
                "type": "BODY_LANG",
                "aliasList": [
                    "AvatarNpc"
                ],
                "actionId": 221,
                "FLBOOPHHFJP": 1343,
                "PMJAMGLAJGK": true,
                "LIMPPBIAKGL": false,
                "FNEGLPPEBBF": true,
                "FNDLJGEAMGI": ""
            },
            {
                "$type": "OPCCDGPJCJI",
                "type": "EMO_SYNC",
                "aliasList": [
                    "AvatarNpc"
                ],
                "actionId": 225,
                "IONNJBCBACJ": "",
                "HLEJKBCMNNJ": "Cs_Emo_Avatar_Common/Cs_Emo_Avatar_Smile01",
                "JGHLJJLNGPP": "Cs_Emo_Avatar_Common/Cs_Emo_Avatar_LowClosed01",
                "MANNKIIBOFM": "",
                "COMNAAFDEDH": "",
                "CPGCCLNOCDK": "",
                "HINHCFHAMDI": false,
                "MFABDGAFKII": [
                    10690861126541730163,
                    10307265193832958374,
                    9401534900849971975,
                    18440618347769519338
                ],
                "IPAGHAALIII": [
                    13948284213264595615,
                    7688108384441439599,
                    13936602145956991039,
                    10261157731837374257
                ]
            },
            {
                "$type": "EAMBKPBOPIC",
                "type": "LOOK_AT",
                "aliasList": [
                    "AvatarNpc"
                ],
                "actionId": 229,
                "BCHGCKLKNEH": 0.5,
                "OMCCMPHDLOO": "",
                "EOHIIHMKDJC": true,
                "KPCALFDIHMC": "",
                "DBLNLMOPEBP": ""
            },
            {
                "$type": "MoleMole.Config.ConfigVisibleInterAction",
                "type": "VISIBLE",
                "aliasList": [
                    "1022"
                ],
                "actionId": 231,
                "extraParam": ""
            },
            {
                "$type": "OPCCDGPJCJI",
                "type": "EMO_SYNC",
                "delayTime": 3.1989998817443848,
                "aliasList": [
                    "AvatarNpc"
                ],
                "actionId": 226,
                "IONNJBCBACJ": "",
                "HLEJKBCMNNJ": "Cs_Emo_Avatar_Common/Cs_Emo_Avatar_Default01",
                "JGHLJJLNGPP": "Cs_Emo_Avatar_Common/Cs_Emo_Avatar_Default01",
                "MANNKIIBOFM": "",
                "COMNAAFDEDH": "",
                "CPGCCLNOCDK": "",
                "MFABDGAFKII": [
                    1010565500959774114,
                    17914558573000180712,
                    14498871351621154070,
                    14348654671849899985
                ],
                "IPAGHAALIII": [
                    17551147554270584215,
                    11567349927864383394,
                    11535483659151300012,
                    3124390413002392171
                ]
            },
            {
                "$type": "ILCGAGEGDJI",
                "type": "BODY_LANG",
                "delayTime": 5.394999980926514,
                "aliasList": [
                    "AvatarNpc"
                ],
                "actionId": 223,
                "JLABKFNJCNP": true,
                "PMJAMGLAJGK": true,
                "LIMPPBIAKGL": false,
                "FNEGLPPEBBF": true,
                "FNDLJGEAMGI": ""
            },
            {
                "$type": "EAMBKPBOPIC",
                "type": "LOOK_AT",
                "delayTime": 5.98199987411499,
                "aliasList": [
                    "AvatarNpc"
                ],
                "actionId": 228,
                "FIDJDPAIFDN": true,
                "useTargetPos": true,
                "GFKIMGBGADJ": true,
                "GMKIJKADNHN": {
                    "x": -719.3099975585938,
                    "y": 226.55499267578125,
                    "z": 2236.718017578125
                },
                "BCHGCKLKNEH": 0.5,
                "OMCCMPHDLOO": "",
                "CEBMBGKJACI": "NONE",
                "EOHIIHMKDJC": true,
                "KPCALFDIHMC": "",
                "DBLNLMOPEBP": ""
            }
        ],
        [
            {
                "$type": "MOOOKOKLLEI",
                "type": "CAMERA_MOVE",
                "duration": 0.5,
                "actionId": 232,
                "DOKGBCKOLJK": {
                    "x": -708.7429809570312,
                    "y": 227.25999450683594,
                    "z": 2251.674072265625
                },
                "HGKCPMDICGG": {
                    "x": -709.2329711914062,
                    "y": 227.20899963378906,
                    "z": 2250.803955078125
                },
                "AFODHELHCGB": 35.0,
                "MGMFMGNANHH": 6,
                "NDFGFJFGHKL": "EaseInOutCubic",
                "IBCBGNHCICN": {},
                "BNBBLLBEIDL": true,
                "HCPFCAHMGMO": false,
                "OMCCMPHDLOO": "",
                "FEFNBKOHPOG": true,
                "OCFGGGHIKOO": "",
                "LJFHGGJDPHH": "",
                "LPKDFKLNEHL": ""
            },
            {
                "$type": "DLPFECMKEKH",
                "type": "DIALOG",
                "aliasList": [
                    "AvatarNpc"
                ],
                "actionId": 145,
                "NMKEDPFEKBH": 80091209,
                "JLCHMAJCAPA": 0.5
            },
            {
                "$type": "OPCCDGPJCJI",
                "type": "EMO_SYNC",
                "aliasList": [
                    "AvatarNpc"
                ],
                "actionId": 230,
                "IONNJBCBACJ": "",
                "HLEJKBCMNNJ": "Cs_Emo_Avatar_Common/Cs_Emo_Avatar_Default01",
                "JGHLJJLNGPP": "Cs_Emo_Avatar_Common/Cs_Emo_Avatar_Default01",
                "MANNKIIBOFM": "",
                "COMNAAFDEDH": "",
                "CPGCCLNOCDK": "",
                "MFABDGAFKII": [
                    1010565500959774114,
                    17914558573000180712,
                    14498871351621154070,
                    14348654671849899985
                ],
                "IPAGHAALIII": [
                    17551147554270584215,
                    11567349927864383394,
                    11535483659151300012,
                    3124390413002392171
                ]
            },
            {
                "$type": "EAMBKPBOPIC",
                "type": "LOOK_AT",
                "aliasList": [
                    "AvatarNpc"
                ],
                "actionId": 234,
                "FIDJDPAIFDN": true,
                "useTargetPos": true,
                "GFKIMGBGADJ": true,
                "GMKIJKADNHN": {
                    "x": -719.968017578125,
                    "y": 226.55499267578125,
                    "z": 2236.407958984375
                },
                "BCHGCKLKNEH": 0.5,
                "OMCCMPHDLOO": "",
                "CEBMBGKJACI": "NONE",
                "EOHIIHMKDJC": true,
                "KPCALFDIHMC": "",
                "DBLNLMOPEBP": ""
            },
            {
                "$type": "ILCGAGEGDJI",
                "type": "BODY_LANG",
                "aliasList": [
                    "AvatarNpc"
                ],
                "actionId": 275,
                "JLABKFNJCNP": true,
                "PMJAMGLAJGK": true,
                "LIMPPBIAKGL": false,
                "FNEGLPPEBBF": true,
                "FNDLJGEAMGI": ""
            },
            {
                "$type": "MOOOKOKLLEI",
                "type": "CAMERA_MOVE",
                "delayTime": 0.10000000149011612,
                "duration": 6.5980000495910645,
                "actionId": 233,
                "DOKGBCKOLJK": {
                    "x": -709.0570068359375,
                    "y": 227.25799560546875,
                    "z": 2251.85205078125
                },
                "HGKCPMDICGG": {
                    "x": -709.5469970703125,
                    "y": 227.20700073242188,
                    "z": 2250.98193359375
                },
                "AFODHELHCGB": 35.0,
                "NDFGFJFGHKL": "EaseOutQuad",
                "IBCBGNHCICN": {},
                "BNBBLLBEIDL": true,
                "HCPFCAHMGMO": false,
                "OMCCMPHDLOO": "",
                "FEFNBKOHPOG": true,
                "OCFGGGHIKOO": "",
                "LJFHGGJDPHH": "",
                "LPKDFKLNEHL": ""
            },
            {
                "$type": "EAMBKPBOPIC",
                "type": "LOOK_AT",
                "delayTime": 1.944000005722046,
                "aliasList": [
                    "AvatarNpc"
                ],
                "actionId": 235,
                "FIDJDPAIFDN": true,
                "useTargetPos": true,
                "GFKIMGBGADJ": true,
                "GMKIJKADNHN": {
                    "x": -718.5800170898438,
                    "y": 226.55499267578125,
                    "z": 2236.803955078125
                },
                "BCHGCKLKNEH": 0.5,
                "OMCCMPHDLOO": "",
                "CEBMBGKJACI": "NONE",
                "EOHIIHMKDJC": true,
                "KPCALFDIHMC": "",
                "DBLNLMOPEBP": ""
            },
            {
                "$type": "EAMBKPBOPIC",
                "type": "LOOK_AT",
                "delayTime": 4.285999774932861,
                "aliasList": [
                    "AvatarNpc"
                ],
                "actionId": 236,
                "FIDJDPAIFDN": true,
                "useTargetPos": true,
                "GFKIMGBGADJ": true,
                "GMKIJKADNHN": {
                    "x": -719.968017578125,
                    "y": 226.55499267578125,
                    "z": 2236.407958984375
                },
                "BCHGCKLKNEH": 0.5,
                "OMCCMPHDLOO": "",
                "CEBMBGKJACI": "NONE",
                "EOHIIHMKDJC": true,
                "KPCALFDIHMC": "",
                "DBLNLMOPEBP": ""
            }
        ],
        [
            {
                "$type": "MOOOKOKLLEI",
                "type": "CAMERA_MOVE",
                "duration": 0.5,
                "actionId": 237,
                "DOKGBCKOLJK": {
                    "x": -720.72900390625,
                    "y": 226.52699279785156,
                    "z": 2236.5419921875
                },
                "HGKCPMDICGG": {
                    "x": -719.7869873046875,
                    "y": 226.54200744628906,
                    "z": 2236.2080078125
                },
                "AFODHELHCGB": 20.0,
                "MGMFMGNANHH": 6,
                "NDFGFJFGHKL": "EaseInOutCubic",
                "IBCBGNHCICN": {},
                "BNBBLLBEIDL": true,
                "HCPFCAHMGMO": false,
                "OMCCMPHDLOO": "",
                "FEFNBKOHPOG": true,
                "OCFGGGHIKOO": "",
                "LJFHGGJDPHH": "",
                "LPKDFKLNEHL": ""
            },
            {
                "$type": "DLPFECMKEKH",
                "type": "DIALOG",
                "aliasList": [
                    "AvatarNpc"
                ],
                "actionId": 146,
                "NMKEDPFEKBH": 80091210,
                "JLCHMAJCAPA": 0.5
            },
            {
                "$type": "ILCGAGEGDJI",
                "type": "BODY_LANG",
                "aliasList": [
                    "AvatarNpc"
                ],
                "actionId": 238,
                "FLBOOPHHFJP": 1190,
                "PMJAMGLAJGK": true,
                "LIMPPBIAKGL": false,
                "FNEGLPPEBBF": true,
                "FNDLJGEAMGI": ""
            },
            {
                "$type": "EAMBKPBOPIC",
                "type": "LOOK_AT",
                "aliasList": [
                    "AvatarNpc"
                ],
                "actionId": 238,
                "BCHGCKLKNEH": 0.5,
                "OMCCMPHDLOO": "",
                "EOHIIHMKDJC": true,
                "KPCALFDIHMC": "",
                "DBLNLMOPEBP": ""
            },
            {
                "$type": "OPCCDGPJCJI",
                "type": "EMO_SYNC",
                "aliasList": [
                    "AvatarNpc"
                ],
                "actionId": 240,
                "IONNJBCBACJ": "",
                "HLEJKBCMNNJ": "Cs_Emo_Avatar_Common/Cs_Emo_Avatar_Angry01",
                "JGHLJJLNGPP": "Cs_Emo_Avatar_Common/Cs_Emo_Avatar_Angry01_B",
                "MANNKIIBOFM": "",
                "COMNAAFDEDH": "",
                "CPGCCLNOCDK": "",
                "MFABDGAFKII": [
                    14296606849723709100,
                    5508348580450379567,
                    7627497203169383327,
                    8979581647593659876
                ],
                "IPAGHAALIII": [
                    12827270931485377071,
                    477271327041930928,
                    15631992893087520179,
                    3915791412555494663
                ]
            },
            {
                "$type": "MOOOKOKLLEI",
                "type": "CAMERA_MOVE",
                "delayTime": 0.10000000149011612,
                "duration": 9.626999855041504,
                "actionId": 241,
                "DOKGBCKOLJK": {
                    "x": -721.1680297851562,
                    "y": 226.43600463867188,
                    "z": 2235.096923828125
                },
                "HGKCPMDICGG": {
                    "x": -720.3870239257812,
                    "y": 226.49000549316406,
                    "z": 2235.718994140625
                },
                "AFODHELHCGB": 20.0,
                "NDFGFJFGHKL": "EaseOutQuad",
                "IBCBGNHCICN": {},
                "BNBBLLBEIDL": true,
                "HCPFCAHMGMO": false,
                "OMCCMPHDLOO": "",
                "FEFNBKOHPOG": true,
                "OCFGGGHIKOO": "",
                "LJFHGGJDPHH": "",
                "LPKDFKLNEHL": ""
            },
            {
                "$type": "ILCGAGEGDJI",
                "type": "BODY_LANG",
                "delayTime": 2.3269999027252197,
                "aliasList": [
                    "AvatarNpc"
                ],
                "actionId": 242,
                "JLABKFNJCNP": true,
                "PMJAMGLAJGK": true,
                "LIMPPBIAKGL": false,
                "FNEGLPPEBBF": true,
                "FNDLJGEAMGI": ""
            },
            {
                "$type": "EAMBKPBOPIC",
                "type": "LOOK_AT",
                "delayTime": 3.3980000019073486,
                "aliasList": [
                    "AvatarNpc"
                ],
                "actionId": 243,
                "FIDJDPAIFDN": true,
                "useTargetPos": true,
                "GFKIMGBGADJ": true,
                "GMKIJKADNHN": {
                    "x": -719.1099853515625,
                    "y": 226.55499267578125,
                    "z": 2236.64111328125
                },
                "BCHGCKLKNEH": 0.5,
                "OMCCMPHDLOO": "",
                "CEBMBGKJACI": "NONE",
                "EOHIIHMKDJC": true,
                "KPCALFDIHMC": "",
                "DBLNLMOPEBP": ""
            }
        ],
        [
            {
                "$type": "MOOOKOKLLEI",
                "type": "CAMERA_MOVE",
                "duration": 0.5,
                "actionId": 249,
                "DOKGBCKOLJK": {
                    "x": -711.2479858398438,
                    "y": 227.27099609375,
                    "z": 2262.885009765625
                },
                "HGKCPMDICGG": {
                    "x": -711.4879760742188,
                    "y": 227.2169952392578,
                    "z": 2261.916015625
                },
                "AFODHELHCGB": 35.0,
                "MGMFMGNANHH": 6,
                "NDFGFJFGHKL": "EaseInOutCubic",
                "IBCBGNHCICN": {},
                "BNBBLLBEIDL": true,
                "HCPFCAHMGMO": false,
                "OMCCMPHDLOO": "",
                "FEFNBKOHPOG": true,
                "OCFGGGHIKOO": "",
                "LJFHGGJDPHH": "",
                "LPKDFKLNEHL": ""
            },
            {
                "$type": "DLPFECMKEKH",
                "type": "DIALOG",
                "aliasList": [
                    "AvatarNpc"
                ],
                "actionId": 147,
                "NMKEDPFEKBH": 80091211,
                "JLCHMAJCAPA": 0.5
            },
            {
                "$type": "EAMBKPBOPIC",
                "type": "LOOK_AT",
                "aliasList": [
                    "AvatarNpc"
                ],
                "actionId": 244,
                "FIDJDPAIFDN": true,
                "useTargetPos": true,
                "GFKIMGBGADJ": true,
                "GMKIJKADNHN": {
                    "x": -719.1099853515625,
                    "y": 226.55499267578125,
                    "z": 2236.64111328125
                },
                "BCHGCKLKNEH": 0.5,
                "OMCCMPHDLOO": "",
                "CEBMBGKJACI": "NONE",
                "EOHIIHMKDJC": true,
                "KPCALFDIHMC": "",
                "DBLNLMOPEBP": ""
            },
            {
                "$type": "ILCGAGEGDJI",
                "type": "BODY_LANG",
                "aliasList": [
                    "AvatarNpc"
                ],
                "actionId": 245,
                "FLBOOPHHFJP": 1230,
                "PMJAMGLAJGK": true,
                "LIMPPBIAKGL": false,
                "FNEGLPPEBBF": true,
                "FNDLJGEAMGI": ""
            },
            {
                "$type": "MOOOKOKLLEI",
                "type": "CAMERA_MOVE",
                "delayTime": 0.10000000149011612,
                "duration": 7.571000099182129,
                "actionId": 248,
                "DOKGBCKOLJK": {
                    "x": -711.3920288085938,
                    "y": 227.25100708007812,
                    "z": 2262.922119140625
                },
                "HGKCPMDICGG": {
                    "x": -711.6320190429688,
                    "y": 227.19700622558594,
                    "z": 2261.952880859375
                },
                "AFODHELHCGB": 35.0,
                "NDFGFJFGHKL": "EaseOutQuad",
                "IBCBGNHCICN": {},
                "BNBBLLBEIDL": true,
                "HCPFCAHMGMO": false,
                "OMCCMPHDLOO": "",
                "FEFNBKOHPOG": true,
                "OCFGGGHIKOO": "",
                "LJFHGGJDPHH": "",
                "LPKDFKLNEHL": ""
            },
            {
                "$type": "EAMBKPBOPIC",
                "type": "LOOK_AT",
                "delayTime": 0.925000011920929,
                "aliasList": [
                    "AvatarNpc"
                ],
                "actionId": 250,
                "FIDJDPAIFDN": true,
                "useTargetPos": true,
                "GFKIMGBGADJ": true,
                "GMKIJKADNHN": {
                    "x": -721.8350219726562,
                    "y": 226.55799865722656,
                    "z": 2238.8740234375
                },
                "BCHGCKLKNEH": 0.5,
                "OMCCMPHDLOO": "",
                "CEBMBGKJACI": "NONE",
                "EOHIIHMKDJC": true,
                "KPCALFDIHMC": "",
                "DBLNLMOPEBP": ""
            },
            {
                "$type": "EAMBKPBOPIC",
                "type": "LOOK_AT",
                "delayTime": 3.5439999103546143,
                "aliasList": [
                    "AvatarNpc"
                ],
                "actionId": 251,
                "FIDJDPAIFDN": true,
                "useTargetPos": true,
                "GFKIMGBGADJ": true,
                "GMKIJKADNHN": {
                    "x": -718.6950073242188,
                    "y": 226.55799865722656,
                    "z": 2239.907958984375
                },
                "BCHGCKLKNEH": 0.5,
                "OMCCMPHDLOO": "",
                "CEBMBGKJACI": "NONE",
                "EOHIIHMKDJC": true,
                "KPCALFDIHMC": "",
                "DBLNLMOPEBP": ""
            }
        ],
        [
            {
                "$type": "MOOOKOKLLEI",
                "type": "CAMERA_MOVE",
                "duration": 0.5,
                "actionId": 252,
                "DOKGBCKOLJK": {
                    "x": -699.6199951171875,
                    "y": 232.88900756835938,
                    "z": 2244.097900390625
                },
                "HGKCPMDICGG": {
                    "x": -700.2529907226562,
                    "y": 232.70700073242188,
                    "z": 2243.344970703125
                },
                "MGMFMGNANHH": 6,
                "NDFGFJFGHKL": "EaseInOutCubic",
                "IBCBGNHCICN": {},
                "BNBBLLBEIDL": true,
                "HCPFCAHMGMO": false,
                "OMCCMPHDLOO": "",
                "FEFNBKOHPOG": true,
                "OCFGGGHIKOO": "",
                "LJFHGGJDPHH": "",
                "LPKDFKLNEHL": ""
            },
            {
                "$type": "MoleMole.Config.ConfigAudioPlayAction",
                "type": "AUDIO_PLAY",
                "actionId": 318,
                "audioEventStr": "Play_sfx_quest_Coop105001_1911703_search"
            },
            {
                "$type": "DLPFECMKEKH",
                "type": "DIALOG",
                "aliasList": [
                    "AvatarNpc"
                ],
                "actionId": 148,
                "NMKEDPFEKBH": 80091212,
                "JLCHMAJCAPA": 0.5
            },
            {
                "$type": "ILCGAGEGDJI",
                "type": "BODY_LANG",
                "aliasList": [
                    "AvatarNpc"
                ],
                "actionId": 254,
                "JLABKFNJCNP": true,
                "PMJAMGLAJGK": true,
                "LIMPPBIAKGL": false,
                "FNEGLPPEBBF": true,
                "FNDLJGEAMGI": ""
            },
            {
                "$type": "EAMBKPBOPIC",
                "type": "LOOK_AT",
                "aliasList": [
                    "AvatarNpc"
                ],
                "actionId": 255,
                "FIDJDPAIFDN": true,
                "useTargetPos": true,
                "GFKIMGBGADJ": true,
                "GMKIJKADNHN": {
                    "x": -718.3389892578125,
                    "y": 226.6750030517578,
                    "z": 2236.638916015625
                },
                "PBEEIPKGGKJ": true,
                "EJJGMGKOEKN": 15.0,
                "BCHGCKLKNEH": 0.5,
                "MIMBENELNHD": 0.5,
                "OMCCMPHDLOO": "",
                "CEBMBGKJACI": "NONE",
                "EOHIIHMKDJC": true,
                "KPCALFDIHMC": "",
                "DBLNLMOPEBP": ""
            },
            {
                "$type": "MOOOKOKLLEI",
                "type": "CAMERA_MOVE",
                "delayTime": 0.10000000149011612,
                "duration": 5.565999984741211,
                "actionId": 253,
                "DOKGBCKOLJK": {
                    "x": -699.7680053710938,
                    "y": 232.8470001220703,
                    "z": 2243.922119140625
                },
                "HGKCPMDICGG": {
                    "x": -700.4010009765625,
                    "y": 232.6649932861328,
                    "z": 2243.1689453125
                },
                "NDFGFJFGHKL": "EaseOutQuad",
                "IBCBGNHCICN": {},
                "BNBBLLBEIDL": true,
                "HCPFCAHMGMO": false,
                "OMCCMPHDLOO": "",
                "FEFNBKOHPOG": true,
                "OCFGGGHIKOO": "",
                "LJFHGGJDPHH": "",
                "LPKDFKLNEHL": ""
            }
        ],
        [
            {
                "$type": "MOOOKOKLLEI",
                "type": "CAMERA_MOVE",
                "duration": 0.5,
                "actionId": 256,
                "DOKGBCKOLJK": {
                    "x": -721.3480224609375,
                    "y": 225.77099609375,
                    "z": 2237.0439453125
                },
                "HGKCPMDICGG": {
                    "x": -720.4530029296875,
                    "y": 226.16000366210938,
                    "z": 2236.822998046875
                },
                "AFODHELHCGB": 30.0,
                "MGMFMGNANHH": 6,
                "NDFGFJFGHKL": "EaseInOutCubic",
                "IBCBGNHCICN": {},
                "BNBBLLBEIDL": true,
                "HCPFCAHMGMO": false,
                "OMCCMPHDLOO": "",
                "FEFNBKOHPOG": true,
                "OCFGGGHIKOO": "",
                "LJFHGGJDPHH": "",
                "LPKDFKLNEHL": ""
            },
            {
                "$type": "DLPFECMKEKH",
                "type": "DIALOG",
                "aliasList": [
                    "AvatarNpc"
                ],
                "actionId": 149,
                "NMKEDPFEKBH": 80091213,
                "JLCHMAJCAPA": 1.600000023841858
            },
            {
                "$type": "OOMFCPJAJGL",
                "type": "STEER_TO",
                "duration": 1.0,
                "aliasList": [
                    "AvatarNpc"
                ],
                "actionId": 257,
                "DMGIIHNDNLC": "ABSOLUTE",
                "PLAPKCOMAKJ": {
                    "x": -718.1300048828125,
                    "y": 225.1699981689453,
                    "z": 2236.4970703125
                },
                "HCMINPNPFDF": true,
                "PENAEBFAHCH": true,
                "CKOEAJFMDON": true,
                "OMCCMPHDLOO": "",
                "AKKPIOCLGOP": true,
                "PPGPCHDAOJG": true,
                "DBLNLMOPEBP": ""
            },
            {
                "$type": "EAMBKPBOPIC",
                "type": "LOOK_AT",
                "aliasList": [
                    "AvatarNpc"
                ],
                "actionId": 258,
                "FIDJDPAIFDN": true,
                "useTargetPos": true,
                "GFKIMGBGADJ": true,
                "GMKIJKADNHN": {
                    "x": -718.4609985351562,
                    "y": 227.00100708007812,
                    "z": 2236.02001953125
                },
                "BCHGCKLKNEH": 0.5,
                "OMCCMPHDLOO": "",
                "CEBMBGKJACI": "NONE",
                "EOHIIHMKDJC": true,
                "KPCALFDIHMC": "",
                "DBLNLMOPEBP": ""
            },
            {
                "$type": "MOOOKOKLLEI",
                "type": "CAMERA_MOVE",
                "delayTime": 0.10000000149011612,
                "duration": 5.605999946594238,
                "actionId": 260,
                "DOKGBCKOLJK": {
                    "x": -721.3480224609375,
                    "y": 225.77099609375,
                    "z": 2237.0439453125
                },
                "HGKCPMDICGG": {
                    "x": -720.47900390625,
                    "y": 226.218994140625,
                    "z": 2236.8349609375
                },
                "AFODHELHCGB": 30.0,
                "NDFGFJFGHKL": "EaseOutQuad",
                "IBCBGNHCICN": {},
                "BNBBLLBEIDL": true,
                "HCPFCAHMGMO": false,
                "OMCCMPHDLOO": "",
                "FEFNBKOHPOG": true,
                "OCFGGGHIKOO": "",
                "LJFHGGJDPHH": "",
                "LPKDFKLNEHL": ""
            },
            {
                "$type": "ECLBLHOENAG",
                "type": "DIALOG_SELECT",
                "delayTime": 1.5,
                "aliasList": [
                    "AvatarNpc"
                ],
                "actionId": 150,
                "NDMMOPDPKNF": [
                    80091214,
                    80091215
                ],
                "FPDBIEGHMCD": [
                    3961991970,
                    3961991970
                ],
                "PKBOIGBGDEG": true,
                "GOJJPCDMMLN": 404900854
            }
        ],
        [
            {
                "$type": "MOOOKOKLLEI",
                "type": "CAMERA_MOVE",
                "duration": 0.5,
                "actionId": 261,
                "DOKGBCKOLJK": {
                    "x": -718.6060180664062,
                    "y": 226.5189971923828,
                    "z": 2236.60595703125
                },
                "HGKCPMDICGG": {
                    "x": -719.3690185546875,
                    "y": 226.572998046875,
                    "z": 2235.9619140625
                },
                "AFODHELHCGB": 25.0,
                "MGMFMGNANHH": 6,
                "NDFGFJFGHKL": "EaseInOutCubic",
                "IBCBGNHCICN": {},
                "BNBBLLBEIDL": true,
                "HCPFCAHMGMO": false,
                "OMCCMPHDLOO": "",
                "FEFNBKOHPOG": true,
                "OCFGGGHIKOO": "",
                "LJFHGGJDPHH": "",
                "LPKDFKLNEHL": ""
            },
            {
                "$type": "DLPFECMKEKH",
                "type": "DIALOG",
                "aliasList": [
                    "AvatarNpc"
                ],
                "actionId": 151,
                "NMKEDPFEKBH": 80091216,
                "JLCHMAJCAPA": 0.5
            },
            {
                "$type": "MoleMole.Config.ConfigTeleportToAction",
                "type": "TELEPORT_TO",
                "aliasList": [
                    "1022"
                ],
                "actionId": 307,
                "position": {
                    "x": -715.6890258789062,
                    "y": 225.19700622558594,
                    "z": 2238.493896484375
                },
                "forward": {
                    "x": 0.9850000143051147,
                    "z": 0.17100000381469727
                },
                "openLongDisTeleport": true,
                "posBindMovingTargetKey": "",
                "forwardBindMovingTargetKey": ""
            },
            {
                "$type": "MOOOKOKLLEI",
                "type": "CAMERA_MOVE",
                "delayTime": 0.10000000149011612,
                "duration": 4.745999813079834,
                "actionId": 265,
                "DOKGBCKOLJK": {
                    "x": -718.6530151367188,
                    "y": 226.5189971923828,
                    "z": 2236.662109375
                },
                "HGKCPMDICGG": {
                    "x": -719.416015625,
                    "y": 226.572998046875,
                    "z": 2236.01806640625
                },
                "AFODHELHCGB": 25.0,
                "NDFGFJFGHKL": "EaseOutQuad",
                "IBCBGNHCICN": {},
                "BNBBLLBEIDL": true,
                "HCPFCAHMGMO": false,
                "OMCCMPHDLOO": "",
                "FEFNBKOHPOG": true,
                "OCFGGGHIKOO": "",
                "LJFHGGJDPHH": "",
                "LPKDFKLNEHL": ""
            }
        ],
        [
            {
                "$type": "MoleMole.Config.ConfigTimeProtectAction",
                "type": "TIME_PROTECT",
                "duration": 0.10000000149011612,
                "actionId": 105
            },
            {
                "$type": "MoleMole.Config.ConfigSimpleBlackScreenAction",
                "type": "SIMPLE_BLACK_SCREEN",
                "actionId": 135,
                "durationToBlack": 0.5,
                "durationKeepBlack": 1.0,
                "durationFromBlack": 0.5,
                "textMapID": ""
            },
            {
                "$type": "MoleMole.Config.ConfigTimeProtectAction",
                "type": "TIME_PROTECT",
                "duration": 1.0,
                "actionId": 136
            },
            {
                "$type": "MOOOKOKLLEI",
                "type": "CAMERA_MOVE",
                "delayTime": 0.5,
                "duration": 0.10000000149011612,
                "actionId": 140,
                "DOKGBCKOLJK": {
                    "x": -723.833984375,
                    "y": 228.20599365234375,
                    "z": 2238.674072265625
                },
                "HGKCPMDICGG": {
                    "x": -722.9210205078125,
                    "y": 227.8820037841797,
                    "z": 2238.426025390625
                },
                "AFODHELHCGB": 30.0,
                "MGMFMGNANHH": 5,
                "NDFGFJFGHKL": "EaseInOutCubic",
                "IBCBGNHCICN": {},
                "BNBBLLBEIDL": true,
                "HCPFCAHMGMO": false,
                "OMCCMPHDLOO": "",
                "FEFNBKOHPOG": true,
                "OCFGGGHIKOO": "",
                "LJFHGGJDPHH": "",
                "LPKDFKLNEHL": ""
            },
            {
                "$type": "MoleMole.Config.ConfigLocalGadgetOP",
                "type": "LOCAL_GADGET_OP",
                "delayTime": 0.6000000238418579,
                "actionId": 158,
                "gadgetId": 70710971,
                "subKey": 2,
                "oprCode": 2,
                "questMainId": 8009,
                "slotName": "",
                "sceneId": 20180,
                "position": {
                    "x": -722.3070068359375,
                    "y": 225.10699462890625,
                    "z": 2237.343017578125
                },
                "euler": {
                    "y": 179.9010009765625
                },
                "gvKey": ""
            },
            {
                "$type": "MoleMole.Config.ConfigVisibleInterAction",
                "type": "VISIBLE",
                "delayTime": 0.6000000238418579,
                "aliasList": [
                    "Avatar"
                ],
                "actionId": 154,
                "isVisible": true,
                "extraParam": ""
            },
            {
                "$type": "MoleMole.Config.ConfigVisibleInterAction",
                "type": "VISIBLE",
                "delayTime": 0.6000000238418579,
                "aliasList": [
                    "AvatarNpc"
                ],
                "actionId": 156,
                "extraParam": ""
            },
            {
                "$type": "MoleMole.Config.ConfigVisibleInterAction",
                "type": "VISIBLE",
                "delayTime": 0.6000000238418579,
                "aliasList": [
                    "1022"
                ],
                "actionId": 137,
                "extraParam": ""
            }
        ]
    ],
    "groupId": [
        {
            "grpId": 404900855,
            "nextGrpId": 404900856
        },
        {
            "index": 1,
            "grpId": 404900856,
            "nextGrpId": 404900857
        },
        {
            "index": 2,
            "grpId": 404900857,
            "nextGrpId": 404900858
        },
        {
            "index": 3,
            "grpId": 404900858,
            "nextGrpId": 404900859
        },
        {
            "index": 4,
            "grpId": 404900859,
            "nextGrpId": 404900860
        },
        {
            "index": 5,
            "grpId": 404900860,
            "nextGrpId": 404900861
        },
        {
            "index": 6,
            "grpId": 404900861,
            "nextGrpId": 404900862
        },
        {
            "index": 7,
            "grpId": 404900862,
            "nextGrpId": 404900863
        },
        {
            "index": 8,
            "grpId": 404900863,
            "nextGrpId": 3961991961
        },
        {
            "index": 9,
            "grpId": 3961991961,
            "nextGrpId": 3961991962
        },
        {
            "index": 10,
            "grpId": 3961991962,
            "nextGrpId": 3961991963
        },
        {
            "index": 11,
            "grpId": 3961991963,
            "nextGrpId": 3961991964
        },
        {
            "index": 12,
            "grpId": 3961991964,
            "nextGrpId": 3961991965
        },
        {
            "index": 13,
            "grpId": 3961991965,
            "nextGrpId": 3961991966
        },
        {
            "index": 14,
            "grpId": 3961991966,
            "nextGrpId": 3961991967
        },
        {
            "index": 15,
            "grpId": 3961991967,
            "nextGrpId": 3961991968
        },
        {
            "index": 16,
            "grpId": 3961991968,
            "nextGrpId": 3961991969
        },
        {
            "index": 17,
            "grpId": 3961991969,
            "nextGrpId": 3961991970
        },
        {
            "index": 18,
            "grpId": 3961991970,
            "nextGrpId": 3961991992
        },
        {
            "index": 19,
            "grpId": 3961991992,
            "nextGrpId": 3961991993
        }
    ],
    "freeStyleDic": {
        "1025": [
            4121,
            1343,
            1190,
            1230
        ],
        "1026": [
            4121,
            1343,
            1190,
            1230
        ],
        "1022": [
            1120,
            1171
        ]
    }
}