{
    "luaDataPath": "",
    "entityBan": "",
    "disableNpcLod": true,
    "isAutoBanNpc": true,
    "isBanWidgetPet": true,
    "protectNpcMobileLod": true,
    "LIICEPFFGMH": 1,
    "startFade": {
        "startFadeOutDuration": 0.0
    },
    "endFade": {
        "startFadeOutDuration": 0.0
    },
    "actors": [
        {
            "alias": "Avatar",
            "visible": true,
            "bornPointName": "",
            "relativePosType": "AVATAR_NEW",
            "relativePosNpcAlias": "",
            "bindMovingTargetKey": ""
        },
        {
            "configID": 9069,
            "alias": "9069",
            "visible": true,
            "bornPointName": "",
            "relativePosType": "AVATAR_NEW",
            "relativePosNpcAlias": "",
            "bindMovingTargetKey": ""
        }
    ],
    "group": [
        [
            {
                "$type": "MOOOKOKLLEI",
                "type": "CAMERA_FOCUS",
                "duration": 0.10000000149011612,
                "actionId": 103,
                "OMCCMPHDLOO": "",
                "OCFGGGHIKOO": "",
                "LJFHGGJDPHH": "",
                "LPKDFKLNEHL": ""
            },
            {
                "$type": "MoleMole.Config.ConfigTimeProtectAction",
                "type": "TIME_PROTECT",
                "duration": 1.024999976158142,
                "actionId": 119
            },
            {
                "$type": "OOMFCPJAJGL",
                "type": "STEER_TO",
                "duration": 1.0,
                "aliasList": [
                    "Avatar"
                ],
                "actionId": 107,
                "DMGIIHNDNLC": "TO_TARGET_ADVANCED",
                "PLAPKCOMAKJ": {
                    "x": 796.2429809570312,
                    "y": 318.1549987792969,
                    "z": 110.08499908447266
                },
                "HCMINPNPFDF": true,
                "PENAEBFAHCH": true,
                "CKOEAJFMDON": true,
                "OMCCMPHDLOO": "9069",
                "AKKPIOCLGOP": true,
                "PPGPCHDAOJG": true,
                "DBLNLMOPEBP": ""
            },
            {
                "$type": "EAMBKPBOPIC",
                "type": "LOOK_AT",
                "aliasList": [
                    "Avatar"
                ],
                "actionId": 109,
                "FIDJDPAIFDN": true,
                "BCHGCKLKNEH": 0.5,
                "OMCCMPHDLOO": "9069",
                "EOHIIHMKDJC": true,
                "KPCALFDIHMC": "",
                "DBLNLMOPEBP": ""
            },
            {
                "$type": "OOMFCPJAJGL",
                "type": "STEER_TO",
                "duration": 1.0,
                "aliasList": [
                    "9069"
                ],
                "actionId": 108,
                "DMGIIHNDNLC": "TO_TARGET_ADVANCED",
                "PLAPKCOMAKJ": {
                    "x": 795.6430053710938,
                    "y": 319.2439880371094,
                    "z": 110.08499908447266
                },
                "HCMINPNPFDF": true,
                "PENAEBFAHCH": true,
                "CKOEAJFMDON": true,
                "OMCCMPHDLOO": "Avatar",
                "AKKPIOCLGOP": true,
                "PPGPCHDAOJG": true,
                "DBLNLMOPEBP": ""
            },
            {
                "$type": "EAMBKPBOPIC",
                "type": "LOOK_AT",
                "aliasList": [
                    "9069"
                ],
                "actionId": 110,
                "FIDJDPAIFDN": true,
                "BCHGCKLKNEH": 0.5,
                "OMCCMPHDLOO": "Avatar",
                "EOHIIHMKDJC": true,
                "KPCALFDIHMC": "",
                "DBLNLMOPEBP": ""
            }
        ],
        [
            {
                "$type": "DLPFECMKEKH",
                "type": "DIALOG",
                "aliasList": [
                    "9069"
                ],
                "actionId": 106,
                "NMKEDPFEKBH": 690691301,
                "JLCHMAJCAPA": 0.5
            },
            {
                "$type": "MoleMole.Config.ConfigEmojiBubbleAction",
                "type": "EMOJI_BUBBLE",
                "aliasList": [
                    "9069"
                ],
                "actionId": 113,
                "pattarnName": "Eff_EmojiBubble_Emoji_Love_Spice"
            },
            {
                "$type": "ILCGAGEGDJI",
                "type": "BODY_LANG",
                "aliasList": [
                    "9069"
                ],
                "actionId": 114,
                "FLBOOPHHFJP": 1120,
                "PMJAMGLAJGK": true,
                "LIMPPBIAKGL": false,
                "FNEGLPPEBBF": true,
                "FNDLJGEAMGI": ""
            },
            {
                "$type": "OPCCDGPJCJI",
                "type": "EMO_SYNC",
                "aliasList": [
                    "9069"
                ],
                "actionId": 118,
                "IONNJBCBACJ": "Cs_Emo_Avatar_Simple_Common_Set/Cs_Emo_Avatar_Talk/Cs_Emo_HomeWorld/Cs_Emo_Avatar_Tighnari/Cs_Emo_690691301",
                "HLEJKBCMNNJ": "",
                "JGHLJJLNGPP": "",
                "MANNKIIBOFM": "",
                "COMNAAFDEDH": "",
                "CPGCCLNOCDK": "",
                "IGEFGCJKCPM": [
                    3749847892719519039,
                    18107936363526967485,
                    11460566702994463985,
                    9785730228573731368
                ]
            },
            {
                "$type": "ILCGAGEGDJI",
                "type": "BODY_LANG",
                "delayTime": 1.649999976158142,
                "aliasList": [
                    "9069"
                ],
                "actionId": 115,
                "FLBOOPHHFJP": 4031,
                "PMJAMGLAJGK": true,
                "LIMPPBIAKGL": false,
                "FNEGLPPEBBF": true,
                "FNDLJGEAMGI": ""
            },
            {
                "$type": "ILCGAGEGDJI",
                "type": "BODY_LANG",
                "delayTime": 4.132999897003174,
                "aliasList": [
                    "9069"
                ],
                "actionId": 116,
                "JLABKFNJCNP": true,
                "PMJAMGLAJGK": true,
                "LIMPPBIAKGL": false,
                "FNEGLPPEBBF": true,
                "FNDLJGEAMGI": ""
            },
            {
                "$type": "ILCGAGEGDJI",
                "type": "BODY_LANG",
                "delayTime": 5.425000190734863,
                "aliasList": [
                    "9069"
                ],
                "actionId": 117,
                "FLBOOPHHFJP": 1171,
                "PMJAMGLAJGK": true,
                "LIMPPBIAKGL": false,
                "FNEGLPPEBBF": true,
                "FNDLJGEAMGI": ""
            }
        ],
        [
            {
                "$type": "MoleMole.Config.ConfigTimeProtectAction",
                "type": "TIME_PROTECT",
                "duration": 0.10000000149011612,
                "actionId": 104
            },
            {
                "$type": "ILCGAGEGDJI",
                "type": "BODY_LANG",
                "aliasList": [
                    "9069"
                ],
                "actionId": 112,
                "JLABKFNJCNP": true,
                "PMJAMGLAJGK": true,
                "LIMPPBIAKGL": false,
                "FNEGLPPEBBF": true,
                "FNDLJGEAMGI": ""
            }
        ]
    ],
    "groupId": [
        {
            "grpId": 2254310957,
            "nextGrpId": 2254310958
        },
        {
            "index": 1,
            "grpId": 2254310958,
            "nextGrpId": 2254310959
        },
        {
            "index": 2,
            "grpId": 2254310959,
            "nextGrpId": 2254310960
        }
    ],
    "freeStyleDic": {
        "9069": [
            1120,
            4031,
            1171
        ]
    }
}