[
  {
    "id": 1,
    "galleryId": 43001,
    "groupId": 133309828,
    "pointId": 828016,
    "NADHNPAIAMJ": 133309820,
    "INLIAEPMDBD": 820001,
    "ONFODEAKIBD": [
      51280101,
      51280102,
      51280103
    ],
    "watcherList": [
      15128101
    ],
    "preQuestID": 73511,
    "MHABIBDGBOP": 73512,
    "openTime": 1,
    "pushTipsID": 13047,
    "levelTitleTextMapHash": 776711416,
    "LMIDOGOBPJH": "UI_ACTIVITY_SANDWORMCANNON_LEVEL_1_DESC",
    "LGKJPENEIFC": 1113356277,
    "KDCBHFCFLAO": "30342,30343",
    "JBPMNENFNNP": "UI_DungeonPic_SandwormCannon",
    "buffIcon": "UI_Icon_SandwormCannon"
  },
  {
    "id": 2,
    "galleryId": 43002,
    "groupId": 133307745,
    "pointId": 745011,
    "NADHNPAIAMJ": 133307742,
    "INLIAEPMDBD": 742002,
    "ONFODEAKIBD": [
      51280201,
      51280202,
      51280203
    ],
    "watcherList": [
      15128201
    ],
    "preQuestID": 73513,
    "MHABIBDGBOP": 73514,
    "openTime": 1,
    "pushTipsID": 13048,
    "levelTitleTextMapHash": 1443276120,
    "LMIDOGOBPJH": "UI_ACTIVITY_SANDWORMCANNON_LEVEL_2_DESC",
    "LGKJPENEIFC": 3526105573,
    "KDCBHFCFLAO": "30342,30343",
    "JBPMNENFNNP": "UI_DungeonPic_SandwormCannon",
    "buffIcon": "UI_Icon_SandwormCannon"
  },
  {
    "id": 3,
    "galleryId": 43003,
    "groupId": 133307730,
    "pointId": 730023,
    "NADHNPAIAMJ": 133307742,
    "INLIAEPMDBD": 742002,
    "ONFODEAKIBD": [
      51280301,
      51280302,
      51280303
    ],
    "watcherList": [
      15128301
    ],
    "preQuestID": 73515,
    "MHABIBDGBOP": 73516,
    "openTime": 2,
    "pushTipsID": 13049,
    "levelTitleTextMapHash": 3601022272,
    "LMIDOGOBPJH": "UI_ACTIVITY_SANDWORMCANNON_LEVEL_3_DESC",
    "LGKJPENEIFC": 4037745157,
    "KDCBHFCFLAO": "30342,30343",
    "JBPMNENFNNP": "UI_DungeonPic_SandwormCannon",
    "buffIcon": "UI_Icon_SandwormCannon"
  },
  {
    "id": 4,
    "galleryId": 43004,
    "groupId": 133307436,
    "pointId": 436029,
    "NADHNPAIAMJ": 133307459,
    "INLIAEPMDBD": 459002,
    "ONFODEAKIBD": [
      51280401,
      51280402,
      51280403
    ],
    "watcherList": [
      15128401
    ],
    "preQuestID": 73517,
    "MHABIBDGBOP": 73518,
    "openTime": 3,
    "pushTipsID": 13049,
    "levelTitleTextMapHash": 3555625720,
    "LMIDOGOBPJH": "UI_ACTIVITY_SANDWORMCANNON_LEVEL_4_DESC",
    "LGKJPENEIFC": 218125637,
    "KDCBHFCFLAO": "30342,30343",
    "JBPMNENFNNP": "UI_DungeonPic_SandwormCannon",
    "buffIcon": "UI_Icon_SandwormCannon"
  },
  {
    "id": 5,
    "galleryId": 43005,
    "groupId": 133307743,
    "pointId": 743008,
    "NADHNPAIAMJ": 133309820,
    "INLIAEPMDBD": 820001,
    "OCKIKHIAGJN": true,
    "ONFODEAKIBD": [
      51280501,
      51280502,
      51280503
    ],
    "watcherList": [
      15128501,
      15128502,
      15128503
    ],
    "preQuestID": 73519,
    "openTime": 4,
    "pushTipsID": 13050,
    "levelTitleTextMapHash": 2744256416,
    "LMIDOGOBPJH": "UI_ACTIVITY_SANDWORMCANNON_LEVEL_5_DESC",
    "LGKJPENEIFC": 572600701,
    "KDCBHFCFLAO": "30342,30343",
    "JBPMNENFNNP": "UI_DungeonPic_SandwormCannon",
    "buffIcon": "UI_Icon_SandwormCannon"
  }
]