[
  {
    "id": 1,
    "ILOBHAJBEFJ": 2.5280001163482666,
    "IDMDLMFDMLI": 3.7909998893737793,
    "BEAKEDADBDG": -0.3100000023841858
  },
  {
    "id": 101,
    "type": "FORMAL",
    "ILOBHAJBEFJ": 5.021999835968018,
    "IDMDLMFDMLI": 6.284999847412109,
    "BEAKEDADBDG": -0.3100000023841858
  },
  {
    "id": 102,
    "type": "FORMAL",
    "ILOBHAJBEFJ": 7.547999858856201,
    "IDMDLMFDMLI": 8.812000274658203,
    "BEAKEDADBDG": -0.3100000023841858
  },
  {
    "id": 103,
    "type": "FORMAL",
    "ILOBHAJBEFJ": 10.074999809265137,
    "IDMDLMFDMLI": 11.338000297546387,
    "BEAKEDADBDG": -0.3100000023841858
  },
  {
    "id": 104,
    "type": "FORMAL",
    "ILOBHAJBEFJ": 12.60099983215332,
    "IDMDLMFDMLI": 13.86400032043457,
    "BEAKEDADBDG": -0.3100000023841858
  },
  {
    "id": 105,
    "type": "FORMAL",
    "ILOBHAJBEFJ": 12.60099983215332,
    "IDMDLMFDMLI": 14.496000289916992,
    "BEAKEDADBDG": -0.3100000023841858
  },
  {
    "id": 106,
    "type": "FORMAL",
    "ILOBHAJBEFJ": 15.126999855041504,
    "IDMDLMFDMLI": 16.391000747680664,
    "BEAKEDADBDG": -0.3100000023841858
  },
  {
    "id": 107,
    "type": "FORMAL",
    "ILOBHAJBEFJ": 17.65399932861328,
    "IDMDLMFDMLI": 18.91699981689453,
    "BEAKEDADBDG": -0.3100000023841858
  },
  {
    "id": 108,
    "type": "FORMAL",
    "ILOBHAJBEFJ": 20.18000030517578,
    "IDMDLMFDMLI": 21.44300079345703,
    "BEAKEDADBDG": -0.3100000023841858
  },
  {
    "id": 109,
    "type": "FORMAL",
    "ILOBHAJBEFJ": 22.70599937438965,
    "IDMDLMFDMLI": 23.33799934387207,
    "BEAKEDADBDG": -0.3100000023841858
  },
  {
    "id": 110,
    "type": "FORMAL",
    "ILOBHAJBEFJ": 22.70599937438965,
    "IDMDLMFDMLI": 23.969999313354492,
    "BEAKEDADBDG": -0.3100000023841858
  },
  {
    "id": 111,
    "type": "FORMAL",
    "ILOBHAJBEFJ": 22.70599937438965,
    "IDMDLMFDMLI": 24.60099983215332,
    "BEAKEDADBDG": -0.3100000023841858
  },
  {
    "id": 112,
    "type": "FORMAL",
    "ILOBHAJBEFJ": 25.232999801635742,
    "IDMDLMFDMLI": 25.86400032043457,
    "BEAKEDADBDG": -0.3100000023841858
  },
  {
    "id": 113,
    "type": "FORMAL",
    "ILOBHAJBEFJ": 27.759000778198242,
    "IDMDLMFDMLI": 28.391000747680664,
    "BEAKEDADBDG": -0.3100000023841858
  },
  {
    "id": 114,
    "type": "FORMAL",
    "ILOBHAJBEFJ": 30.28499984741211,
    "IDMDLMFDMLI": 30.91699981689453,
    "BEAKEDADBDG": -0.3100000023841858
  },
  {
    "id": 115,
    "type": "FORMAL",
    "ILOBHAJBEFJ": 32.8120002746582,
    "IDMDLMFDMLI": 33.44300079345703,
    "BEAKEDADBDG": -0.3100000023841858
  },
  {
    "id": 116,
    "type": "FORMAL",
    "ILOBHAJBEFJ": 32.8120002746582,
    "IDMDLMFDMLI": 34.07500076293945,
    "BEAKEDADBDG": -0.3100000023841858
  },
  {
    "id": 117,
    "type": "FORMAL",
    "ILOBHAJBEFJ": 32.8120002746582,
    "IDMDLMFDMLI": 34.70600128173828,
    "BEAKEDADBDG": -0.3100000023841858
  },
  {
    "id": 118,
    "type": "FORMAL",
    "ILOBHAJBEFJ": 35.3380012512207,
    "IDMDLMFDMLI": 35.970001220703125,
    "BEAKEDADBDG": -0.3100000023841858
  },
  {
    "id": 119,
    "type": "FORMAL",
    "ILOBHAJBEFJ": 36.60100173950195,
    "IDMDLMFDMLI": 37.233001708984375,
    "BEAKEDADBDG": -0.3100000023841858
  },
  {
    "id": 120,
    "type": "FORMAL",
    "ILOBHAJBEFJ": 37.86399841308594,
    "IDMDLMFDMLI": 39.12699890136719,
    "BEAKEDADBDG": -0.3100000023841858
  },
  {
    "id": 121,
    "type": "FORMAL",
    "ILOBHAJBEFJ": 40.39099884033203,
    "IDMDLMFDMLI": 41.02199935913086,
    "BEAKEDADBDG": -0.3100000023841858
  },
  {
    "id": 122,
    "type": "FORMAL",
    "ILOBHAJBEFJ": 40.39099884033203,
    "IDMDLMFDMLI": 41.65399932861328,
    "BEAKEDADBDG": -0.3100000023841858
  },
  {
    "id": 123,
    "type": "FORMAL",
    "ILOBHAJBEFJ": 40.39099884033203,
    "IDMDLMFDMLI": 42.28499984741211,
    "BEAKEDADBDG": -0.3100000023841858
  },
  {
    "id": 124,
    "type": "FORMAL",
    "ILOBHAJBEFJ": 42.91699981689453,
    "IDMDLMFDMLI": 44.18000030517578,
    "BEAKEDADBDG": -0.3100000023841858
  },
  {
    "id": 125,
    "type": "FORMAL",
    "ILOBHAJBEFJ": 45.44300079345703,
    "IDMDLMFDMLI": 45.91699981689453,
    "BEAKEDADBDG": -0.3100000023841858
  },
  {
    "id": 126,
    "type": "FORMAL",
    "ILOBHAJBEFJ": 45.44300079345703,
    "IDMDLMFDMLI": 47.3380012512207,
    "BEAKEDADBDG": -0.3100000023841858
  },
  {
    "id": 127,
    "type": "FORMAL",
    "ILOBHAJBEFJ": 47.970001220703125,
    "IDMDLMFDMLI": 48.44300079345703,
    "BEAKEDADBDG": -0.3100000023841858
  },
  {
    "id": 128,
    "type": "FORMAL",
    "ILOBHAJBEFJ": 47.970001220703125,
    "IDMDLMFDMLI": 49.86399841308594,
    "BEAKEDADBDG": -0.3100000023841858
  },
  {
    "id": 129,
    "type": "FORMAL",
    "ILOBHAJBEFJ": 50.49599838256836,
    "IDMDLMFDMLI": 50.970001220703125,
    "BEAKEDADBDG": -0.3100000023841858
  },
  {
    "id": 130,
    "type": "FORMAL",
    "ILOBHAJBEFJ": 52.07500076293945,
    "IDMDLMFDMLI": 52.39099884033203,
    "BEAKEDADBDG": -0.3100000023841858
  },
  {
    "id": 131,
    "type": "FORMAL",
    "ILOBHAJBEFJ": 53.02199935913086,
    "IDMDLMFDMLI": 53.65399932861328,
    "BEAKEDADBDG": -0.3100000023841858
  },
  {
    "id": 132,
    "type": "FORMAL",
    "ILOBHAJBEFJ": 53.02199935913086,
    "IDMDLMFDMLI": 54.28499984741211,
    "BEAKEDADBDG": -0.3100000023841858
  },
  {
    "id": 133,
    "type": "FORMAL",
    "ILOBHAJBEFJ": 53.02199935913086,
    "IDMDLMFDMLI": 54.91699981689453,
    "BEAKEDADBDG": -0.3100000023841858
  },
  {
    "id": 134,
    "type": "FORMAL",
    "ILOBHAJBEFJ": 55.54800033569336,
    "IDMDLMFDMLI": 56.02199935913086,
    "BEAKEDADBDG": -0.3100000023841858
  },
  {
    "id": 135,
    "type": "FORMAL",
    "ILOBHAJBEFJ": 55.54800033569336,
    "IDMDLMFDMLI": 57.44300079345703,
    "BEAKEDADBDG": -0.3100000023841858
  },
  {
    "id": 136,
    "type": "FORMAL",
    "ILOBHAJBEFJ": 58.07500076293945,
    "IDMDLMFDMLI": 58.54800033569336,
    "BEAKEDADBDG": -0.3100000023841858
  },
  {
    "id": 137,
    "type": "FORMAL",
    "ILOBHAJBEFJ": 58.07500076293945,
    "IDMDLMFDMLI": 59.970001220703125,
    "BEAKEDADBDG": -0.3100000023841858
  },
  {
    "id": 138,
    "type": "FORMAL",
    "ILOBHAJBEFJ": 60.60100173950195,
    "IDMDLMFDMLI": 61.07500076293945,
    "BEAKEDADBDG": -0.3100000023841858
  },
  {
    "id": 139,
    "type": "FORMAL",
    "ILOBHAJBEFJ": 60.60100173950195,
    "IDMDLMFDMLI": 62.49599838256836,
    "BEAKEDADBDG": -0.3100000023841858
  },
  {
    "id": 140,
    "type": "FORMAL",
    "ILOBHAJBEFJ": 63.12699890136719,
    "IDMDLMFDMLI": 63.75899887084961,
    "BEAKEDADBDG": -0.3100000023841858
  },
  {
    "id": 141,
    "type": "FORMAL",
    "ILOBHAJBEFJ": 63.12699890136719,
    "IDMDLMFDMLI": 64.39099884033203,
    "BEAKEDADBDG": -0.3100000023841858
  },
  {
    "id": 142,
    "type": "FORMAL",
    "ILOBHAJBEFJ": 63.12699890136719,
    "IDMDLMFDMLI": 65.02200317382812,
    "BEAKEDADBDG": -0.3100000023841858
  },
  {
    "id": 143,
    "type": "FORMAL",
    "ILOBHAJBEFJ": 65.65399932861328,
    "IDMDLMFDMLI": 66.12699890136719,
    "BEAKEDADBDG": -0.3100000023841858
  },
  {
    "id": 144,
    "type": "FORMAL",
    "ILOBHAJBEFJ": 67.23300170898438,
    "IDMDLMFDMLI": 67.5479965209961,
    "BEAKEDADBDG": -0.3100000023841858
  },
  {
    "id": 145,
    "type": "FORMAL",
    "ILOBHAJBEFJ": 68.18000030517578,
    "IDMDLMFDMLI": 68.65399932861328,
    "BEAKEDADBDG": -0.3100000023841858
  },
  {
    "id": 146,
    "type": "FORMAL",
    "ILOBHAJBEFJ": 69.75900268554688,
    "IDMDLMFDMLI": 70.07499694824219,
    "BEAKEDADBDG": -0.3100000023841858
  },
  {
    "id": 147,
    "type": "FORMAL",
    "ILOBHAJBEFJ": 70.70600128173828,
    "IDMDLMFDMLI": 71.18000030517578,
    "BEAKEDADBDG": -0.3100000023841858
  },
  {
    "id": 148,
    "type": "FORMAL",
    "ILOBHAJBEFJ": 72.28500366210938,
    "IDMDLMFDMLI": 72.60099792480469,
    "BEAKEDADBDG": -0.3100000023841858
  },
  {
    "id": 149,
    "type": "FORMAL",
    "ILOBHAJBEFJ": 73.23300170898438,
    "IDMDLMFDMLI": 73.86399841308594,
    "BEAKEDADBDG": -0.3100000023841858
  },
  {
    "id": 150,
    "type": "FORMAL",
    "ILOBHAJBEFJ": 74.49600219726562,
    "IDMDLMFDMLI": 75.12699890136719,
    "BEAKEDADBDG": -0.3100000023841858
  },
  {
    "id": 151,
    "type": "FORMAL",
    "ILOBHAJBEFJ": 75.75900268554688,
    "IDMDLMFDMLI": 76.23300170898438,
    "BEAKEDADBDG": -0.3100000023841858
  },
  {
    "id": 152,
    "type": "FORMAL",
    "ILOBHAJBEFJ": 77.33799743652344,
    "IDMDLMFDMLI": 77.65399932861328,
    "BEAKEDADBDG": -0.3100000023841858
  },
  {
    "id": 153,
    "type": "FORMAL",
    "ILOBHAJBEFJ": 78.28500366210938,
    "IDMDLMFDMLI": 78.75900268554688,
    "BEAKEDADBDG": -0.3100000023841858
  },
  {
    "id": 154,
    "type": "FORMAL",
    "ILOBHAJBEFJ": 79.5479965209961,
    "IDMDLMFDMLI": 80.18000030517578,
    "BEAKEDADBDG": -0.3100000023841858
  },
  {
    "id": 155,
    "type": "FORMAL",
    "ILOBHAJBEFJ": 80.81199645996094,
    "IDMDLMFDMLI": 81.44300079345703,
    "BEAKEDADBDG": -0.3100000023841858
  },
  {
    "id": 156,
    "type": "FORMAL",
    "ILOBHAJBEFJ": 80.81199645996094,
    "IDMDLMFDMLI": 82.07499694824219,
    "BEAKEDADBDG": -0.3100000023841858
  },
  {
    "id": 157,
    "type": "FORMAL",
    "ILOBHAJBEFJ": 83.02200317382812,
    "IDMDLMFDMLI": 83.33799743652344,
    "BEAKEDADBDG": -0.3100000023841858
  },
  {
    "id": 158,
    "type": "FORMAL",
    "ILOBHAJBEFJ": 83.65399932861328,
    "IDMDLMFDMLI": 83.97000122070312,
    "BEAKEDADBDG": -0.3100000023841858
  },
  {
    "id": 159,
    "type": "FORMAL",
    "ILOBHAJBEFJ": 84.28500366210938,
    "IDMDLMFDMLI": 84.60099792480469,
    "BEAKEDADBDG": -0.3100000023841858
  },
  {
    "id": 160,
    "type": "FORMAL",
    "ILOBHAJBEFJ": 84.91699981689453,
    "IDMDLMFDMLI": 85.23300170898438,
    "BEAKEDADBDG": -0.3100000023841858
  },
  {
    "id": 161,
    "type": "FORMAL",
    "ILOBHAJBEFJ": 85.86399841308594,
    "IDMDLMFDMLI": 87.12699890136719,
    "BEAKEDADBDG": -0.3100000023841858
  },
  {
    "id": 162,
    "type": "FORMAL",
    "ILOBHAJBEFJ": 88.39099884033203,
    "IDMDLMFDMLI": 89.65399932861328,
    "BEAKEDADBDG": -0.3100000023841858
  },
  {
    "id": 163,
    "type": "FORMAL",
    "ILOBHAJBEFJ": 90.91699981689453,
    "IDMDLMFDMLI": 92.18000030517578,
    "BEAKEDADBDG": -0.3100000023841858
  },
  {
    "id": 164,
    "type": "FORMAL",
    "ILOBHAJBEFJ": 93.44300079345703,
    "IDMDLMFDMLI": 94.70600128173828,
    "BEAKEDADBDG": -0.3100000023841858
  }
]