[
  {
    "sortId": 1,
    "sortFactor": 23,
    "avatarId": 10000033,
    "beginTime": "2020-11-11 04:00:00"
  },
  {
    "sortId": 2,
    "sortFactor": 22,
    "avatarId": 10000039,
    "beginTime": "2020-11-11 04:00:00"
  },
  {
    "sortId": 3,
    "sortFactor": 21,
    "avatarId": 10000029,
    "beginTime": "2020-09-15 04:00:00"
  },
  {
    "sortId": 4,
    "sortFactor": 20,
    "avatarId": 10000022,
    "beginTime": "2020-09-15 04:00:00"
  },
  {
    "sortId": 5,
    "sortFactor": 19,
    "avatarId": 10000042,
    "beginTime": "2020-09-15 04:00:00"
  },
  {
    "sortId": 6,
    "sortFactor": 18,
    "avatarId": 10000041,
    "beginTime": "2020-09-15 04:00:00"
  },
  {
    "sortId": 7,
    "sortFactor": 17,
    "avatarId": 10000035,
    "beginTime": "2020-09-15 04:00:00"
  },
  {
    "sortId": 8,
    "sortFactor": 16,
    "avatarId": 10000016,
    "beginTime": "2020-09-15 04:00:00"
  },
  {
    "sortId": 9,
    "sortFactor": 15,
    "avatarId": 10000003,
    "beginTime": "2020-09-15 04:00:00"
  },
  {
    "sortId": 10,
    "sortFactor": 14,
    "avatarId": 10000043,
    "beginTime": "2020-09-15 04:00:00"
  },
  {
    "sortId": 11,
    "sortFactor": 13,
    "avatarId": 10000036,
    "beginTime": "2020-09-15 04:00:00"
  },
  {
    "sortId": 12,
    "sortFactor": 12,
    "avatarId": 10000034,
    "beginTime": "2020-09-15 04:00:00"
  },
  {
    "sortId": 13,
    "sortFactor": 11,
    "avatarId": 10000032,
    "beginTime": "2020-09-15 04:00:00"
  },
  {
    "sortId": 14,
    "sortFactor": 10,
    "avatarId": 10000031,
    "beginTime": "2020-09-15 04:00:00"
  },
  {
    "sortId": 15,
    "sortFactor": 9,
    "avatarId": 10000027,
    "beginTime": "2020-09-15 04:00:00"
  },
  {
    "sortId": 16,
    "sortFactor": 8,
    "avatarId": 10000025,
    "beginTime": "2020-09-15 04:00:00"
  },
  {
    "sortId": 17,
    "sortFactor": 7,
    "avatarId": 10000024,
    "beginTime": "2020-09-15 04:00:00"
  },
  {
    "sortId": 18,
    "sortFactor": 6,
    "avatarId": 10000023,
    "beginTime": "2020-09-15 04:00:00"
  },
  {
    "sortId": 19,
    "sortFactor": 5,
    "avatarId": 10000020,
    "beginTime": "2020-09-15 04:00:00"
  },
  {
    "sortId": 20,
    "sortFactor": 4,
    "avatarId": 10000014,
    "beginTime": "2020-09-15 04:00:00"
  },
  {
    "sortId": 21,
    "sortFactor": 3,
    "avatarId": 10000006,
    "beginTime": "2020-09-15 04:00:00"
  },
  {
    "sortId": 22,
    "sortFactor": 2,
    "avatarId": 10000015,
    "beginTime": "2020-09-15 04:00:00"
  },
  {
    "sortId": 23,
    "sortFactor": 1,
    "avatarId": 10000021,
    "beginTime": "2020-09-15 04:00:00"
  },
  {
    "sortId": 24,
    "sortFactor": 25,
    "avatarId": 10000030,
    "beginTime": "2020-12-02 04:00:00"
  },
  {
    "sortId": 25,
    "sortFactor": 24,
    "avatarId": 10000044,
    "beginTime": "2020-12-02 04:00:00"
  },
  {
    "sortId": 26,
    "sortFactor": 27,
    "avatarId": 10000037,
    "beginTime": "2021-01-12 18:00:00"
  },
  {
    "sortId": 27,
    "sortFactor": 26,
    "avatarId": 10000038,
    "beginTime": "2020-12-22 00:00:00"
  },
  {
    "sortId": 28,
    "sortFactor": 28,
    "avatarId": 10000026,
    "beginTime": "2021-02-02 00:00:00"
  },
  {
    "sortId": 29,
    "sortFactor": 29,
    "avatarId": 10000046,
    "beginTime": "2021-03-02 18:00:00"
  },
  {
    "sortId": 30,
    "sortFactor": 30,
    "avatarId": 10000045,
    "beginTime": "2021-04-06 18:00:00"
  },
  {
    "sortId": 31,
    "sortFactor": 31,
    "avatarId": 10000048,
    "beginTime": "2021-04-27 00:00:00"
  },
  {
    "sortId": 32,
    "sortFactor": 32,
    "avatarId": 10000051,
    "beginTime": "2021-05-18 18:00:00"
  },
  {
    "sortId": 33,
    "sortFactor": 33,
    "avatarId": 10000047,
    "beginTime": "2021-06-29 18:00:00"
  },
  {
    "sortId": 34,
    "sortFactor": 34,
    "avatarId": 10000002,
    "beginTime": "2021-07-21 00:00:00"
  },
  {
    "sortId": 35,
    "sortFactor": 35,
    "avatarId": 10000053,
    "beginTime": "2021-08-10 18:00:00"
  },
  {
    "sortId": 36,
    "sortFactor": 36,
    "avatarId": 10000049,
    "beginTime": "2021-08-10 18:00:00"
  },
  {
    "sortId": 37,
    "sortFactor": 37,
    "avatarId": 10000062,
    "beginTime": "2021-09-01 00:00:00",
    "hideWhenDontHave": true
  },
  {
    "sortId": 38,
    "sortFactor": 38,
    "avatarId": 10000056,
    "beginTime": "2021-09-01 00:00:00"
  },
  {
    "sortId": 39,
    "sortFactor": 39,
    "avatarId": 10000052,
    "beginTime": "2021-09-01 00:00:00"
  },
  {
    "sortId": 40,
    "sortFactor": 40,
    "avatarId": 10000054,
    "beginTime": "2021-09-21 18:00:00"
  },
  {
    "sortId": 41,
    "sortFactor": 41,
    "avatarId": 10000050,
    "beginTime": "2021-11-02 18:00:00"
  },
  {
    "sortId": 42,
    "sortFactor": 42,
    "avatarId": 10000055,
    "beginTime": "2021-12-14 18:00:00"
  },
  {
    "sortId": 43,
    "sortFactor": 43,
    "avatarId": 10000057,
    "beginTime": "2021-12-14 18:00:00"
  },
  {
    "sortId": 44,
    "sortFactor": 44,
    "avatarId": 10000064,
    "beginTime": "2022-01-05 00:00:00"
  },
  {
    "sortId": 45,
    "sortFactor": 45,
    "avatarId": 10000063,
    "beginTime": "2022-01-05 00:00:00"
  },
  {
    "sortId": 46,
    "sortFactor": 46,
    "avatarId": 10000058,
    "beginTime": "2022-02-16 00:00:00"
  },
  {
    "sortId": 47,
    "sortFactor": 47,
    "avatarId": 10000066,
    "beginTime": "2022-03-30 00:00:00"
  },
  {
    "sortId": 48,
    "sortFactor": 48,
    "avatarId": 10000060,
    "beginTime": "2022-05-31 00:00:00"
  },
  {
    "sortId": 49,
    "sortFactor": 49,
    "avatarId": 10000065,
    "beginTime": "2022-06-21 18:00:00"
  },
  {
    "sortId": 50,
    "sortFactor": 50,
    "avatarId": 10000059,
    "beginTime": "2022-07-13 00:00:00"
  },
  {
    "sortId": 51,
    "sortFactor": 51,
    "avatarId": 10000067,
    "beginTime": "2022-08-24 00:00:00"
  },
  {
    "sortId": 52,
    "sortFactor": 52,
    "avatarId": 10000069,
    "beginTime": "2022-08-24 00:00:00"
  },
  {
    "sortId": 53,
    "sortFactor": 53,
    "avatarId": 10000068,
    "beginTime": "2022-09-09 18:00:00"
  },
  {
    "sortId": 54,
    "sortFactor": 54,
    "avatarId": 10000072,
    "beginTime": "2022-09-27 00:00:00"
  },
  {
    "sortId": 55,
    "sortFactor": 55,
    "avatarId": 10000071,
    "beginTime": "2022-09-27 00:00:00"
  },
  {
    "sortId": 56,
    "sortFactor": 56,
    "avatarId": 10000070,
    "beginTime": "2022-10-14 18:00:00"
  },
  {
    "sortId": 57,
    "sortFactor": 57,
    "avatarId": 10000073,
    "beginTime": "2022-11-01 00:00:00"
  },
  {
    "sortId": 58,
    "sortFactor": 58,
    "avatarId": 10000074,
    "beginTime": "2022-11-18 18:00:00"
  },
  {
    "sortId": 59,
    "sortFactor": 59,
    "avatarId": 10000076,
    "beginTime": "2022-12-06 00:00:00"
  },
  {
    "sortId": 60,
    "sortFactor": 60,
    "avatarId": 10000075,
    "beginTime": "2022-12-06 00:00:00"
  },
  {
    "sortId": 61,
    "sortFactor": 61,
    "avatarId": 10000077,
    "beginTime": "2023-01-17 00:00:00"
  },
  {
    "sortId": 62,
    "sortFactor": 62,
    "avatarId": 10000078,
    "beginTime": "2023-01-17 00:00:00"
  },
  {
    "sortId": 63,
    "sortFactor": 63,
    "avatarId": 10000079,
    "beginTime": "2023-02-28 00:00:00"
  },
  {
    "sortId": 64,
    "sortFactor": 64,
    "avatarId": 10000080,
    "beginTime": "2023-03-21 18:00:00"
  },
  {
    "sortId": 65,
    "sortFactor": 65,
    "avatarId": 10000081,
    "beginTime": "2023-05-02 18:00:00"
  },
  {
    "sortId": 66,
    "sortFactor": 66,
    "avatarId": 10000082,
    "beginTime": "2023-05-02 18:00:00"
  },
  {
    "sortId": 67,
    "sortFactor": 67,
    "avatarId": 10000061,
    "beginTime": "2023-05-23 00:00:00"
  },
  {
    "sortId": 68,
    "sortFactor": 68,
    "avatarId": 10000083,
    "beginTime": "2023-08-15 00:00:00"
  },
  {
    "sortId": 69,
    "sortFactor": 69,
    "avatarId": 10000084,
    "beginTime": "2023-08-15 00:00:00"
  },
  {
    "sortId": 70,
    "sortFactor": 70,
    "avatarId": 10000085,
    "beginTime": "2023-09-05 18:00:00"
  },
  {
    "sortId": 71,
    "sortFactor": 71,
    "avatarId": 10000087,
    "beginTime": "2023-09-26 00:00:00"
  },
  {
    "sortId": 72,
    "sortFactor": 72,
    "avatarId": 10000086,
    "beginTime": "2023-10-17 18:00:00"
  },
  {
    "sortId": 73,
    "sortFactor": 73,
    "avatarId": 10000088,
    "beginTime": "2023-11-07 00:00:00"
  },
  {
    "sortId": 74,
    "sortFactor": 74,
    "avatarId": 10000089,
    "beginTime": "2023-11-07 00:00:00"
  },
  {
    "sortId": 75,
    "sortFactor": 75,
    "avatarId": 10000091,
    "beginTime": "2023-12-19 00:00:00"
  },
  {
    "sortId": 76,
    "sortFactor": 76,
    "avatarId": 10000090,
    "beginTime": "2024-01-09 18:00:00"
  },
  {
    "sortId": 77,
    "sortFactor": 77,
    "avatarId": 10000092,
    "beginTime": "2024-01-30 00:00:00"
  },
  {
    "sortId": 78,
    "sortFactor": 78,
    "avatarId": 10000093,
    "beginTime": "2024-01-30 00:00:00"
  }
]