[
  {
    "id": 1,
    "sortID": 1,
    "monsterId": 36090192,
    "configId": 10001023,
    "iconPath": "ART/UI/Atlas/Activity/FungusFighter/UI_Icon_Fungus_Partner_Un_Gamma_Water",
    "nameTextMapHash": 2188275147,
    "descriptionTextMapHash": 766260242,
    "GHBADPGMEKF": 2,
    "KDICDGMKHJO": [
      2,
      1
    ],
    "LBIIMACHKBJ": 1,
    "MKAJGFAALHN": 10
  },
  {
    "id": 2,
    "sortID": 8,
    "monsterId": 36090292,
    "configId": 10001024,
    "iconPath": "ART/UI/Atlas/Activity/FungusFighter/UI_Icon_Fungus_Partner_Un_Delta_Grass",
    "nameTextMapHash": 2988051155,
    "descriptionTextMapHash": 139872914,
    "GHBADPGMEKF": 4,
    "KDICDGMKHJO": [
      4,
      3
    ],
    "LBIIMACHKBJ": 7,
    "MKAJGFAALHN": 15
  },
  {
    "id": 3,
    "sortID": 3,
    "monsterId": 36090392,
    "configId": 10001025,
    "iconPath": "ART/UI/Atlas/Activity/FungusFighter/UI_Icon_Fungus_Partner_Un_Delta_Wind",
    "nameTextMapHash": 40608763,
    "descriptionTextMapHash": 3339001458,
    "GHBADPGMEKF": 6,
    "KDICDGMKHJO": [
      6,
      5
    ],
    "LBIIMACHKBJ": 6,
    "MKAJGFAALHN": 11
  },
  {
    "id": 4,
    "sortID": 4,
    "monsterId": 36090492,
    "configId": 10001026,
    "iconPath": "ART/UI/Atlas/Activity/FungusFighter/UI_Icon_Fungus_Partner_Trois_Epsilon_Electric",
    "nameTextMapHash": 2601091779,
    "descriptionTextMapHash": 1602025818,
    "GHBADPGMEKF": 8,
    "KDICDGMKHJO": [
      8,
      7
    ],
    "LBIIMACHKBJ": 4,
    "MKAJGFAALHN": 10
  },
  {
    "id": 5,
    "sortID": 7,
    "monsterId": 36090592,
    "configId": 10001027,
    "iconPath": "ART/UI/Atlas/Activity/FungusFighter/UI_Icon_Fungus_Partner_Trois_Alpha_Ice",
    "nameTextMapHash": 3997480355,
    "descriptionTextMapHash": 1268426186,
    "GHBADPGMEKF": 10,
    "KDICDGMKHJO": [
      10,
      9
    ],
    "LBIIMACHKBJ": 3,
    "MKAJGFAALHN": 8
  },
  {
    "id": 6,
    "sortID": 6,
    "monsterId": 36090692,
    "configId": 10001028,
    "iconPath": "ART/UI/Atlas/Activity/FungusFighter/UI_Icon_Fungus_Partner_Trois_Gamma_Fire",
    "nameTextMapHash": 659783691,
    "descriptionTextMapHash": 4289913098,
    "GHBADPGMEKF": 12,
    "KDICDGMKHJO": [
      12,
      11
    ],
    "LBIIMACHKBJ": 2,
    "MKAJGFAALHN": 8
  },
  {
    "id": 7,
    "sortID": 2,
    "monsterId": 36090792,
    "configId": 10001029,
    "iconPath": "ART/UI/Atlas/Activity/FungusFighter/UI_Icon_Fungus_Partner_Deux_Alpha_Fire",
    "nameTextMapHash": 2903725243,
    "descriptionTextMapHash": 2906600730,
    "GHBADPGMEKF": 14,
    "KDICDGMKHJO": [
      14,
      13
    ],
    "LBIIMACHKBJ": 2,
    "MKAJGFAALHN": 15
  },
  {
    "id": 8,
    "sortID": 9,
    "monsterId": 36090892,
    "configId": 10001030,
    "iconPath": "ART/UI/Atlas/Activity/FungusFighter/UI_Icon_Fungus_Partner_Deux_Epsilon_Wind",
    "nameTextMapHash": 2114942539,
    "descriptionTextMapHash": 12463826,
    "GHBADPGMEKF": 16,
    "KDICDGMKHJO": [
      16,
      15
    ],
    "LBIIMACHKBJ": 6,
    "MKAJGFAALHN": 9
  },
  {
    "id": 9,
    "sortID": 5,
    "monsterId": 36090992,
    "configId": 10001031,
    "iconPath": "ART/UI/Atlas/Activity/FungusFighter/UI_Icon_Fungus_Partner_Deux_Beta_Rock",
    "nameTextMapHash": 615388675,
    "descriptionTextMapHash": 3753766522,
    "GHBADPGMEKF": 18,
    "KDICDGMKHJO": [
      18,
      17
    ],
    "LBIIMACHKBJ": 5,
    "MKAJGFAALHN": 10
  },
  {
    "id": 10,
    "sortID": 10,
    "monsterId": 36091092,
    "configId": 10001032,
    "iconPath": "ART/UI/Atlas/Activity/FungusFighter/UI_Icon_Fungus_Partner_Deux_Delta_Electric",
    "nameTextMapHash": 1650351067,
    "descriptionTextMapHash": 3993405578,
    "GHBADPGMEKF": 20,
    "KDICDGMKHJO": [
      20,
      19
    ],
    "LBIIMACHKBJ": 4,
    "MKAJGFAALHN": 11
  }
]