[
  {
    "id": 22,
    "abilityGroupName": "ActivityAbility_InstableSprayV2_ElecDamageUp",
    "sgv": "SGV_ELEC_BUFF",
    "iconNameHash": 13300747772815758154,
    "elementType": 2,
    "JNGFLOKAGOA": 3.0,
    "buffNameTextMapHash": 2179842128,
    "buffDescTextMapHash": 421775798,
    "descParams": [
      "20",
      "50",
      "",
      "",
      ""
    ]
  },
  {
    "id": 23,
    "abilityGroupName": "ActivityAbility_InstableSprayV2_GrassDamageUp",
    "sgv": "SGV_GRASS_BUFF",
    "iconNameHash": 6853007950492863011,
    "elementType": 6,
    "JNGFLOKAGOA": 3.0,
    "buffNameTextMapHash": 3713001032,
    "buffDescTextMapHash": 2497076870,
    "descParams": [
      "20",
      "50",
      "",
      "",
      ""
    ]
  },
  {
    "id": 24,
    "abilityGroupName": "ActivityAbility_InstableSprayV2_WindDamageUp",
    "sgv": "SGV_WIND_BUFF",
    "iconNameHash": 8621889949091498732,
    "JNGFLOKAGOA": 3.0,
    "buffNameTextMapHash": 4089531512,
    "buffDescTextMapHash": 430819630,
    "descParams": [
      "20",
      "50",
      "",
      "",
      ""
    ]
  },
  {
    "id": 25,
    "abilityGroupName": "ActivityAbility_InstableSprayV2_FireDamageUp",
    "sgv": "SGV_FIRE_BUFF",
    "iconNameHash": 17454481252396265124,
    "elementType": 3,
    "JNGFLOKAGOA": 3.0,
    "buffNameTextMapHash": 1056768296,
    "buffDescTextMapHash": 2275387366,
    "descParams": [
      "20",
      "50",
      "",
      "",
      ""
    ]
  },
  {
    "id": 26,
    "abilityGroupName": "ActivityAbility_InstableSprayV2_WaterDamageUp",
    "sgv": "SGV_WATER_BUFF",
    "iconNameHash": 802293797372035603,
    "elementType": 4,
    "JNGFLOKAGOA": 3.0,
    "buffNameTextMapHash": 915880008,
    "buffDescTextMapHash": 1088820198,
    "descParams": [
      "20",
      "50",
      "",
      "",
      ""
    ]
  },
  {
    "id": 27,
    "abilityGroupName": "ActivityAbility_InstableSprayV2_IceDamageUp",
    "sgv": "SGV_ICE_BUFF",
    "iconNameHash": 14900300496819228905,
    "elementType": 5,
    "JNGFLOKAGOA": 3.0,
    "buffNameTextMapHash": 1732510312,
    "buffDescTextMapHash": 4161989822,
    "descParams": [
      "20",
      "50",
      "",
      "",
      ""
    ]
  },
  {
    "id": 28,
    "abilityGroupName": "ActivityAbility_InstableSprayV2_MaxHpUp",
    "sgv": "SGV_MAXHP_UP",
    "iconNameHash": 4379068753467113767,
    "elementType": 7,
    "JNGFLOKAGOA": 3.0,
    "buffNameTextMapHash": 1234280672,
    "buffDescTextMapHash": 3484303134,
    "descParams": [
      "20",
      "50",
      "",
      "",
      ""
    ]
  },
  {
    "id": 29,
    "abilityGroupName": "ActivityAbility_InstableSprayV2_ElemMasteryAllUp",
    "sgv": "SGV_ElEMMASTERY_UP",
    "iconNameHash": 9182921390622573774,
    "elementType": 7,
    "JNGFLOKAGOA": 3.0,
    "buffNameTextMapHash": 1418409904,
    "buffDescTextMapHash": 2665029246,
    "descParams": [
      "20",
      "200",
      "",
      "",
      ""
    ]
  },
  {
    "id": 30,
    "abilityGroupName": "ActivityAbility_InstableSprayV2_ElementBurstUp",
    "sgv": "SGV_ELEMENTBURST_UP",
    "iconNameHash": 18043644982337433713,
    "elementType": 7,
    "JNGFLOKAGOA": 3.0,
    "buffNameTextMapHash": 4164725664,
    "buffDescTextMapHash": 2977298974,
    "descParams": [
      "20",
      "50",
      "",
      "",
      ""
    ]
  },
  {
    "id": 31,
    "abilityGroupName": "ActivityAbility_InstableSprayV2_NormalAtkUp",
    "sgv": "SGV_NORMALLATK_UP",
    "iconNameHash": 3480637014274355441,
    "elementType": 7,
    "JNGFLOKAGOA": 3.0,
    "buffNameTextMapHash": 2046513736,
    "buffDescTextMapHash": 2690913782,
    "descParams": [
      "20",
      "50",
      "",
      "",
      ""
    ]
  },
  {
    "id": 32,
    "abilityGroupName": "ActivityAbility_InstableSprayV2_PhysicalDamageUp",
    "sgv": "SGV_PHYISICAL_BUFF",
    "iconNameHash": 4055466082003605912,
    "elementType": 7,
    "JNGFLOKAGOA": 3.0,
    "buffNameTextMapHash": 2407441168,
    "buffDescTextMapHash": 2105905222,
    "descParams": [
      "20",
      "60",
      "",
      "",
      ""
    ]
  },
  {
    "id": 33,
    "abilityGroupName": "ActivityAbility_InstableSprayV2_OverDose_SubHurtDown",
    "sgv": "SGV_OVERDOSE_DEBUFF",
    "iconNameHash": 12257002186934903659,
    "elementType": 7,
    "JNGFLOKAGOA": 3.0,
    "buffNameTextMapHash": 2828804464,
    "buffDescTextMapHash": 1670797758,
    "descParams": [
      "20",
      "40",
      "5",
      "",
      ""
    ]
  },
  {
    "id": 34,
    "abilityGroupName": "ActivityAbility_InstableSprayV2_Swirl_DefenseDown",
    "sgv": "SGV_SWIRL_DEBUFF",
    "iconNameHash": 15833113844690091193,
    "elementType": 7,
    "JNGFLOKAGOA": 3.0,
    "buffNameTextMapHash": 2223133880,
    "buffDescTextMapHash": 145012310,
    "descParams": [
      "20",
      "25",
      "5",
      "",
      ""
    ]
  },
  {
    "id": 35,
    "abilityGroupName": "ActivityAbility_InstableSprayV2_Melt_AddHurtUp",
    "sgv": "SGV_MELT_BUFF",
    "iconNameHash": 1538746670003198501,
    "elementType": 7,
    "JNGFLOKAGOA": 3.0,
    "buffNameTextMapHash": 2063404160,
    "buffDescTextMapHash": 1133985958,
    "descParams": [
      "20",
      "50",
      "5",
      "",
      ""
    ]
  },
  {
    "id": 36,
    "abilityGroupName": "ActivityAbility_InstableSprayV2_Freeze_AddHurtUp",
    "sgv": "SGV_FREEZE_BUFF",
    "iconNameHash": 14178688174481131407,
    "elementType": 7,
    "JNGFLOKAGOA": 3.0,
    "buffNameTextMapHash": 3675085320,
    "buffDescTextMapHash": 3669200430,
    "descParams": [
      "20",
      "65",
      "5",
      "",
      ""
    ]
  },
  {
    "id": 37,
    "abilityGroupName": "ActivityAbility_InstableSprayV2_Superconductor_AttackUp",
    "sgv": "SGV_SPCONDUCTOR_BUFF",
    "iconNameHash": 12445351828706787479,
    "elementType": 7,
    "JNGFLOKAGOA": 3.0,
    "buffNameTextMapHash": 855857480,
    "buffDescTextMapHash": 3237156870,
    "descParams": [
      "20",
      "50",
      "5",
      "",
      ""
    ]
  },
  {
    "id": 38,
    "abilityGroupName": "ActivityAbility_InstableSprayV2_Burn_SubHurtDown",
    "sgv": "SGV_BURN_DEBUFF",
    "iconNameHash": 6334363133602882805,
    "elementType": 7,
    "JNGFLOKAGOA": 3.0,
    "buffNameTextMapHash": 1145508672,
    "buffDescTextMapHash": 2980165478,
    "descParams": [
      "20",
      "40",
      "5",
      "",
      ""
    ]
  },
  {
    "id": 39,
    "abilityGroupName": "ActivityAbility_InstableSprayV2_Overgrow_SubHurtDown",
    "sgv": "SGV_OVERGROW_DEBUFF",
    "iconNameHash": 17931195241070888934,
    "elementType": 7,
    "JNGFLOKAGOA": 3.0,
    "buffNameTextMapHash": 449085640,
    "buffDescTextMapHash": 4122591574,
    "descParams": [
      "20",
      "40",
      "5",
      "",
      ""
    ]
  },
  {
    "id": 40,
    "abilityGroupName": "ActivityAbility_InstableSprayV2_Switch_GetEnergy",
    "sgv": "SGV_SWITCH_BUFF",
    "iconNameHash": 16012843359734920184,
    "elementType": 7,
    "JNGFLOKAGOA": 3.0,
    "buffNameTextMapHash": 2897722040,
    "buffDescTextMapHash": 1103090454,
    "descParams": [
      "20",
      "15",
      "",
      "",
      ""
    ]
  },
  {
    "id": 41,
    "abilityGroupName": "ActivityAbility_InstableSprayV2_ChargeBuff",
    "sgv": "SGV_CHARGE_BUFF",
    "iconNameHash": 10258413902840355690,
    "elementType": 7,
    "JNGFLOKAGOA": 3.0,
    "buffNameTextMapHash": 429011392,
    "buffDescTextMapHash": 1152063374,
    "descParams": [
      "20",
      "60",
      "",
      "",
      ""
    ]
  },
  {
    "id": 42,
    "abilityGroupName": "ActivityAbility_InstableSprayV2_BeHit_HPBUFF",
    "sgv": "SGV_BEHIT_HPBUFF",
    "iconNameHash": 9167609896276289962,
    "elementType": 7,
    "JNGFLOKAGOA": 3.0,
    "buffNameTextMapHash": 3222269648,
    "buffDescTextMapHash": 2455545054,
    "descParams": [
      "20",
      "50",
      "10",
      "20",
      "5"
    ]
  },
  {
    "id": 43,
    "abilityGroupName": "ActivityAbility_InstableSprayV2_BeHit_ElemMasteryUp",
    "sgv": "SGV_BEHIT_ElEMMASTERYBUFF",
    "iconNameHash": 6331966028868224365,
    "elementType": 7,
    "JNGFLOKAGOA": 3.0,
    "buffNameTextMapHash": 4253983272,
    "buffDescTextMapHash": 1969272542,
    "descParams": [
      "20",
      "250",
      "10",
      "",
      ""
    ]
  },
  {
    "id": 44,
    "abilityGroupName": "ActivityAbility_InstableSprayV2_AtkUp",
    "sgv": "SGV_ATK_BUFF",
    "iconNameHash": 8762246620886568120,
    "elementType": 7,
    "JNGFLOKAGOA": 3.0,
    "buffNameTextMapHash": 251402096,
    "buffDescTextMapHash": 276113382,
    "descParams": [
      "20",
      "50",
      "",
      "",
      ""
    ]
  }
]