[
  {
    "ID": 1,
    "levelTagName": "2_4_Day",
    "sceneId": 5,
    "addSceneTagIdList": [],
    "removeSceneTagIdList": [
      120
    ],
    "levelTagCanFixTime": true,
    "levelTagFixedEnviroTime": 8.0,
    "loadDynamicGroupList": []
  },
  {
    "ID": 2,
    "levelTagName": "2_4_Night",
    "sceneId": 5,
    "addSceneTagIdList": [
      120
    ],
    "removeSceneTagIdList": [],
    "levelTagCanFixTime": true,
    "levelTagFixedEnviroTime": 20.0,
    "loadDynamicGroupList": []
  },
  {
    "ID": 3,
    "levelTagName": "2_5_Day",
    "sceneId": 7,
    "addSceneTagIdList": [],
    "removeSceneTagIdList": [
      123
    ],
    "levelTagCanFixTime": true,
    "levelTagFixedEnviroTime": 8.0,
    "loadDynamicGroupList": []
  },
  {
    "ID": 4,
    "levelTagName": "2_5_Night",
    "sceneId": 7,
    "addSceneTagIdList": [
      123
    ],
    "removeSceneTagIdList": [],
    "levelTagCanFixTime": true,
    "levelTagFixedEnviroTime": 20.0,
    "loadDynamicGroupList": []
  },
  {
    "ID": 5,
    "levelTagName": "2_8_BuDing_MDLY",
    "sceneId": 9,
    "addSceneTagIdList": [
      1021,
      1026,
      1082
    ],
    "removeSceneTagIdList": [
      1020,
      1023,
      1025,
      1022,
      1024,
      1077,
      1078,
      1079,
      1080,
      1081,
      1083,
      1084,
      1085
    ],
    "loadDynamicGroupList": [
      199004045
    ]
  },
  {
    "ID": 6,
    "levelTagName": "2_8_BuDing_MDDQ",
    "sceneId": 9,
    "addSceneTagIdList": [
      1021,
      1024,
      1080
    ],
    "removeSceneTagIdList": [
      1020,
      1023,
      1025,
      1022,
      1026,
      1077,
      1078,
      1079,
      1081,
      1082,
      1083,
      1084,
      1085
    ],
    "loadDynamicGroupList": [
      199004041
    ]
  },
  {
    "ID": 7,
    "levelTagName": "2_8_BuDing_DQLY",
    "sceneId": 9,
    "addSceneTagIdList": [
      1023,
      1026,
      1084
    ],
    "removeSceneTagIdList": [
      1020,
      1021,
      1025,
      1022,
      1024,
      1077,
      1078,
      1079,
      1080,
      1081,
      1082,
      1083,
      1085
    ],
    "loadDynamicGroupList": [
      199004047
    ]
  },
  {
    "ID": 8,
    "levelTagName": "2_8_BuDing_DQMD",
    "sceneId": 9,
    "addSceneTagIdList": [
      1023,
      1022,
      1079
    ],
    "removeSceneTagIdList": [
      1020,
      1021,
      1025,
      1024,
      1026,
      1077,
      1078,
      1080,
      1081,
      1082,
      1083,
      1084,
      1085
    ],
    "loadDynamicGroupList": [
      199004042
    ]
  },
  {
    "ID": 9,
    "levelTagName": "2_8_BuDing_LYMD",
    "sceneId": 9,
    "addSceneTagIdList": [
      1025,
      1022,
      1083
    ],
    "removeSceneTagIdList": [
      1020,
      1021,
      1023,
      1024,
      1026,
      1077,
      1078,
      1079,
      1080,
      1081,
      1082,
      1084,
      1085
    ],
    "loadDynamicGroupList": [
      199004044
    ]
  },
  {
    "ID": 10,
    "levelTagName": "2_8_BuDing_LYDQ",
    "sceneId": 9,
    "addSceneTagIdList": [
      1025,
      1024,
      1085
    ],
    "removeSceneTagIdList": [
      1020,
      1021,
      1023,
      1022,
      1026,
      1077,
      1078,
      1079,
      1080,
      1081,
      1082,
      1083,
      1084
    ],
    "loadDynamicGroupList": [
      199004046
    ]
  },
  {
    "ID": 11,
    "levelTagName": "2_8_BuDing_MDMD",
    "sceneId": 9,
    "addSceneTagIdList": [
      1021,
      1022,
      1077
    ],
    "removeSceneTagIdList": [
      1020,
      1023,
      1025,
      1024,
      1026,
      1078,
      1079,
      1080,
      1081,
      1082,
      1083,
      1084,
      1085
    ],
    "loadDynamicGroupList": [
      199004038
    ]
  },
  {
    "ID": 12,
    "levelTagName": "2_8_BuDing_LYLY",
    "sceneId": 9,
    "addSceneTagIdList": [
      1025,
      1026,
      1081
    ],
    "removeSceneTagIdList": [
      1020,
      1021,
      1023,
      1022,
      1024,
      1077,
      1078,
      1079,
      1080,
      1082,
      1083,
      1084,
      1085
    ],
    "loadDynamicGroupList": [
      199004043
    ]
  },
  {
    "ID": 13,
    "levelTagName": "2_8_BuDing_DQDQ",
    "sceneId": 9,
    "addSceneTagIdList": [
      1023,
      1024,
      1078
    ],
    "removeSceneTagIdList": [
      1020,
      1021,
      1025,
      1022,
      1026,
      1077,
      1079,
      1080,
      1081,
      1082,
      1083,
      1084,
      1085
    ],
    "loadDynamicGroupList": [
      199004039
    ]
  },
  {
    "ID": 14,
    "levelTagName": "2_8_BuDing_Default",
    "sceneId": 9,
    "addSceneTagIdList": [
      1020
    ],
    "removeSceneTagIdList": [
      1021,
      1022,
      1023,
      1024,
      1025,
      1026,
      1077,
      1078,
      1079,
      1080,
      1081,
      1082,
      1083,
      1084,
      1085
    ],
    "loadDynamicGroupList": [
      199004117
    ]
  },
  {
    "ID": 15,
    "levelTagName": "2_8_PoPo_Default",
    "sceneId": 9,
    "addSceneTagIdList": [
      1014
    ],
    "removeSceneTagIdList": [
      1015,
      1016
    ],
    "loadDynamicGroupList": []
  },
  {
    "ID": 16,
    "levelTagName": "2_8_PoPo_01",
    "sceneId": 9,
    "addSceneTagIdList": [
      1015
    ],
    "removeSceneTagIdList": [
      1014,
      1016
    ],
    "loadDynamicGroupList": [
      199001022
    ]
  },
  {
    "ID": 17,
    "levelTagName": "2_8_PoPo_02",
    "sceneId": 9,
    "addSceneTagIdList": [
      1016
    ],
    "removeSceneTagIdList": [
      1014,
      1015
    ],
    "loadDynamicGroupList": [
      199001026
    ]
  },
  {
    "ID": 18,
    "levelTagName": "2_8_Shuang_Default",
    "sceneId": 9,
    "addSceneTagIdList": [
      1017
    ],
    "removeSceneTagIdList": [
      1018,
      1019,
      1060
    ],
    "loadDynamicGroupList": []
  },
  {
    "ID": 19,
    "levelTagName": "2_8_Shuang_01",
    "sceneId": 9,
    "addSceneTagIdList": [
      1018
    ],
    "removeSceneTagIdList": [
      1017,
      1019,
      1060
    ],
    "loadDynamicGroupList": [
      199002183
    ]
  },
  {
    "ID": 20,
    "levelTagName": "2_8_Shuang_02",
    "sceneId": 9,
    "addSceneTagIdList": [
      1019
    ],
    "removeSceneTagIdList": [
      1017,
      1018,
      1060
    ],
    "loadDynamicGroupList": [
      199002184
    ]
  },
  {
    "ID": 21,
    "levelTagName": "2_8_WeiWei_01",
    "sceneId": 9,
    "addSceneTagIdList": [
      1012
    ],
    "removeSceneTagIdList": [
      1013
    ],
    "loadDynamicGroupList": [
      199003035
    ]
  },
  {
    "ID": 22,
    "levelTagName": "2_8_WeiWei_02",
    "sceneId": 9,
    "addSceneTagIdList": [
      1013
    ],
    "removeSceneTagIdList": [
      1012
    ],
    "loadDynamicGroupList": [
      199003038
    ]
  },
  {
    "ID": 23,
    "levelTagName": "2_8_Kazuha_01",
    "sceneId": 20142,
    "addSceneTagIdList": [
      1050,
      1051
    ],
    "removeSceneTagIdList": [
      1052,
      1053,
      1054,
      1055,
      1056,
      1057,
      1058,
      1059
    ],
    "loadDynamicGroupList": []
  },
  {
    "ID": 24,
    "levelTagName": "2_8_Kazuha_02",
    "sceneId": 20142,
    "addSceneTagIdList": [
      1050,
      1052,
      1053
    ],
    "removeSceneTagIdList": [
      1051,
      1054,
      1055,
      1056,
      1057,
      1058,
      1059
    ],
    "loadDynamicGroupList": []
  },
  {
    "ID": 25,
    "levelTagName": "2_8_Kazuha_03",
    "sceneId": 20142,
    "addSceneTagIdList": [
      1050,
      1052,
      1054
    ],
    "removeSceneTagIdList": [
      1051,
      1053,
      1055,
      1056,
      1057,
      1058,
      1059
    ],
    "loadDynamicGroupList": []
  },
  {
    "ID": 26,
    "levelTagName": "2_8_Kazuha_04",
    "sceneId": 20142,
    "addSceneTagIdList": [
      1050,
      1052,
      1055,
      1059
    ],
    "removeSceneTagIdList": [
      1051,
      1053,
      1054,
      1056,
      1057,
      1058
    ],
    "loadDynamicGroupList": []
  },
  {
    "ID": 27,
    "levelTagName": "2_8_Kazuha_05",
    "sceneId": 20142,
    "addSceneTagIdList": [
      1050,
      1052,
      1055,
      1056
    ],
    "removeSceneTagIdList": [
      1051,
      1053,
      1054,
      1059,
      1057,
      1058
    ],
    "loadDynamicGroupList": []
  },
  {
    "ID": 28,
    "levelTagName": "2_8_Kazuha_06",
    "sceneId": 20142,
    "addSceneTagIdList": [
      1050,
      1052,
      1055,
      1057
    ],
    "removeSceneTagIdList": [
      1051,
      1053,
      1054,
      1059,
      1056,
      1058
    ],
    "loadDynamicGroupList": []
  },
  {
    "ID": 29,
    "levelTagName": "2_8_Kazuha_07",
    "sceneId": 20142,
    "addSceneTagIdList": [
      1050,
      1052,
      1055,
      1058
    ],
    "removeSceneTagIdList": [
      1051,
      1053,
      1054,
      1059,
      1056,
      1057
    ],
    "loadDynamicGroupList": []
  },
  {
    "ID": 30,
    "levelTagName": "2_8_Kazuha03_01",
    "sceneId": 20140,
    "addSceneTagIdList": [
      1069
    ],
    "removeSceneTagIdList": [
      1070,
      1071,
      1086
    ],
    "loadDynamicGroupList": []
  },
  {
    "ID": 31,
    "levelTagName": "2_8_Kazuha03_02",
    "sceneId": 20140,
    "addSceneTagIdList": [
      1069,
      1070
    ],
    "removeSceneTagIdList": [
      1071,
      1086
    ],
    "loadDynamicGroupList": []
  },
  {
    "ID": 32,
    "levelTagName": "2_8_Kazuha03_03",
    "sceneId": 20140,
    "addSceneTagIdList": [
      1069,
      1070,
      1071
    ],
    "removeSceneTagIdList": [
      1086
    ],
    "loadDynamicGroupList": []
  },
  {
    "ID": 33,
    "levelTagName": "2_8_Shuang_03",
    "sceneId": 9,
    "addSceneTagIdList": [
      1060
    ],
    "removeSceneTagIdList": [
      1017,
      1018,
      1019
    ],
    "loadDynamicGroupList": [
      199002185
    ]
  },
  {
    "ID": 34,
    "levelTagName": "2_8_Kazuha02_01",
    "sceneId": 20135,
    "addSceneTagIdList": [
      1072,
      1073
    ],
    "removeSceneTagIdList": [],
    "loadDynamicGroupList": []
  },
  {
    "ID": 35,
    "levelTagName": "2_8_Kazuha02_02",
    "sceneId": 20135,
    "addSceneTagIdList": [
      1073
    ],
    "removeSceneTagIdList": [
      1072
    ],
    "loadDynamicGroupList": []
  },
  {
    "ID": 36,
    "levelTagName": "2_8_Kazuha02_03",
    "sceneId": 20135,
    "addSceneTagIdList": [
      1072
    ],
    "removeSceneTagIdList": [
      1073
    ],
    "loadDynamicGroupList": []
  },
  {
    "ID": 37,
    "levelTagName": "2_8_Kazuha02_04",
    "sceneId": 20135,
    "addSceneTagIdList": [],
    "removeSceneTagIdList": [
      1072,
      1073
    ],
    "loadDynamicGroupList": []
  },
  {
    "ID": 38,
    "levelTagName": "3.0_Dream",
    "sceneId": 3,
    "addSceneTagIdList": [
      1094
    ],
    "removeSceneTagIdList": [
      1093
    ],
    "loadDynamicGroupList": [
      133301164
    ]
  },
  {
    "ID": 39,
    "levelTagName": "3.0_Reality",
    "sceneId": 3,
    "addSceneTagIdList": [
      1093
    ],
    "removeSceneTagIdList": [
      1094
    ],
    "loadDynamicGroupList": [
      133301163
    ]
  },
  {
    "ID": 40,
    "levelTagName": "2_8_Kazuha03_05",
    "sceneId": 20140,
    "addSceneTagIdList": [
      1069,
      1070,
      1071,
      1086
    ],
    "removeSceneTagIdList": [],
    "loadDynamicGroupList": []
  },
  {
    "ID": 41,
    "levelTagName": "2_8_Fischel03_02",
    "sceneId": 20139,
    "addSceneTagIdList": [
      1047
    ],
    "removeSceneTagIdList": [],
    "loadDynamicGroupList": []
  },
  {
    "ID": 42,
    "levelTagName": "2_8_Mona_01",
    "sceneId": 20136,
    "addSceneTagIdList": [
      1065
    ],
    "removeSceneTagIdList": [
      1066,
      1067
    ],
    "loadDynamicGroupList": []
  },
  {
    "ID": 43,
    "levelTagName": "2_8_Mona_02",
    "sceneId": 20136,
    "addSceneTagIdList": [
      1066
    ],
    "removeSceneTagIdList": [
      1065,
      1067
    ],
    "loadDynamicGroupList": []
  },
  {
    "ID": 44,
    "levelTagName": "2_8_Mona_03",
    "sceneId": 20136,
    "addSceneTagIdList": [
      1067
    ],
    "removeSceneTagIdList": [
      1065,
      1066
    ],
    "loadDynamicGroupList": []
  },
  {
    "ID": 45,
    "levelTagName": "2_8_Mona_04",
    "sceneId": 20136,
    "addSceneTagIdList": [
      1074
    ],
    "removeSceneTagIdList": [
      1075
    ],
    "loadDynamicGroupList": []
  },
  {
    "ID": 46,
    "levelTagName": "2_8_Mona_05",
    "sceneId": 20136,
    "addSceneTagIdList": [
      1075
    ],
    "removeSceneTagIdList": [
      1074
    ],
    "loadDynamicGroupList": []
  },
  {
    "ID": 47,
    "levelTagName": "2_8_Fischel03_01",
    "sceneId": 20139,
    "addSceneTagIdList": [
      1046
    ],
    "removeSceneTagIdList": [
      1047
    ],
    "loadDynamicGroupList": []
  },
  {
    "ID": 48,
    "levelTagName": "3_1_Cyno_1_01",
    "sceneId": 20157,
    "addSceneTagIdList": [],
    "removeSceneTagIdList": [],
    "loadDynamicGroupList": []
  },
  {
    "ID": 49,
    "levelTagName": "3_1_Cyno_1_02",
    "sceneId": 20157,
    "addSceneTagIdList": [],
    "removeSceneTagIdList": [],
    "loadDynamicGroupList": []
  },
  {
    "ID": 50,
    "levelTagName": "3_1_Cyno_2_01",
    "sceneId": 20157,
    "addSceneTagIdList": [],
    "removeSceneTagIdList": [],
    "loadDynamicGroupList": []
  },
  {
    "ID": 51,
    "levelTagName": "3_1_Cyno_2_02",
    "sceneId": 20157,
    "addSceneTagIdList": [],
    "removeSceneTagIdList": [],
    "loadDynamicGroupList": []
  },
  {
    "ID": 52,
    "levelTagName": "3_1_Cyno_3_01",
    "sceneId": 20157,
    "addSceneTagIdList": [],
    "removeSceneTagIdList": [],
    "loadDynamicGroupList": []
  },
  {
    "ID": 53,
    "levelTagName": "3_1_Cyno_3_02",
    "sceneId": 20157,
    "addSceneTagIdList": [],
    "removeSceneTagIdList": [],
    "loadDynamicGroupList": []
  },
  {
    "ID": 54,
    "levelTagName": "3_1_Cyno_3_03",
    "sceneId": 20157,
    "addSceneTagIdList": [],
    "removeSceneTagIdList": [],
    "loadDynamicGroupList": []
  },
  {
    "ID": 55,
    "levelTagName": "3.0_CaveForest_Dream",
    "sceneId": 3,
    "addSceneTagIdList": [
      1121
    ],
    "removeSceneTagIdList": [
      1120
    ],
    "loadDynamicGroupList": [
      133303437
    ]
  },
  {
    "ID": 56,
    "levelTagName": "3.0_CaveForest_Reality",
    "sceneId": 3,
    "addSceneTagIdList": [
      1120
    ],
    "removeSceneTagIdList": [
      1121
    ],
    "loadDynamicGroupList": [
      133303438
    ]
  },
  {
    "ID": 57,
    "levelTagName": "3.0_Mdg_real",
    "sceneId": 3,
    "addSceneTagIdList": [
      1110
    ],
    "removeSceneTagIdList": [
      1111
    ],
    "loadDynamicGroupList": [
      133301564
    ]
  },
  {
    "ID": 58,
    "levelTagName": "3.0_Mdg_dream",
    "sceneId": 3,
    "addSceneTagIdList": [
      1111
    ],
    "removeSceneTagIdList": [
      1110
    ],
    "loadDynamicGroupList": [
      133301563
    ]
  },
  {
    "ID": 59,
    "levelTagName": "3_4_Sandstorm_On",
    "sceneId": 3,
    "addSceneTagIdList": [],
    "removeSceneTagIdList": [],
    "loadDynamicGroupList": []
  },
  {
    "ID": 60,
    "levelTagName": "3_4_Sandstorm_Off",
    "sceneId": 3,
    "addSceneTagIdList": [],
    "removeSceneTagIdList": [],
    "loadDynamicGroupList": []
  },
  {
    "ID": 61,
    "levelTagName": "3_1_Cyno_3_04",
    "sceneId": 20157,
    "addSceneTagIdList": [],
    "removeSceneTagIdList": [],
    "loadDynamicGroupList": []
  },
  {
    "ID": 62,
    "levelTagName": "3_1_LSK_Af",
    "sceneId": 3,
    "addSceneTagIdList": [
      1092
    ],
    "removeSceneTagIdList": [
      1091
    ],
    "loadDynamicGroupList": []
  },
  {
    "ID": 63,
    "levelTagName": "3_1_XST_Af",
    "sceneId": 3,
    "addSceneTagIdList": [
      1170
    ],
    "removeSceneTagIdList": [
      1137
    ],
    "loadDynamicGroupList": []
  },
  {
    "ID": 64,
    "levelTagName": "3_1_CWL_Af",
    "sceneId": 3,
    "addSceneTagIdList": [
      1166
    ],
    "removeSceneTagIdList": [
      1165
    ],
    "loadDynamicGroupList": []
  },
  {
    "ID": 65,
    "levelTagName": "3_1_LSK_Be",
    "sceneId": 3,
    "addSceneTagIdList": [
      1091
    ],
    "removeSceneTagIdList": [],
    "loadDynamicGroupList": []
  },
  {
    "ID": 66,
    "levelTagName": "3_1_XST_Be",
    "sceneId": 3,
    "addSceneTagIdList": [
      1137
    ],
    "removeSceneTagIdList": [],
    "loadDynamicGroupList": []
  },
  {
    "ID": 67,
    "levelTagName": "3_1_CWL_Be",
    "sceneId": 3,
    "addSceneTagIdList": [
      1165
    ],
    "removeSceneTagIdList": [],
    "loadDynamicGroupList": []
  },
  {
    "ID": 68,
    "levelTagName": "3_1_XSM_Be",
    "sceneId": 3,
    "addSceneTagIdList": [
      1168
    ],
    "removeSceneTagIdList": [],
    "loadDynamicGroupList": []
  },
  {
    "ID": 69,
    "levelTagName": "3_1_XSM_Af",
    "sceneId": 3,
    "addSceneTagIdList": [],
    "removeSceneTagIdList": [
      1168
    ],
    "loadDynamicGroupList": []
  },
  {
    "ID": 70,
    "levelTagName": "3_4_Titan_A",
    "sceneId": 3,
    "addSceneTagIdList": [],
    "removeSceneTagIdList": [],
    "loadDynamicGroupList": [
      133313154
    ]
  },
  {
    "ID": 71,
    "levelTagName": "3_4_Titan_B",
    "sceneId": 3,
    "addSceneTagIdList": [
      1191
    ],
    "removeSceneTagIdList": [
      1190
    ],
    "loadDynamicGroupList": [
      133313031
    ]
  },
  {
    "ID": 72,
    "levelTagName": "3_4_Titan_C",
    "sceneId": 3,
    "addSceneTagIdList": [
      1193
    ],
    "removeSceneTagIdList": [],
    "loadDynamicGroupList": [
      133313158
    ]
  },
  {
    "ID": 73,
    "levelTagName": "3_4_Titan_D",
    "sceneId": 3,
    "addSceneTagIdList": [],
    "removeSceneTagIdList": [],
    "loadDynamicGroupList": []
  },
  {
    "ID": 74,
    "levelTagName": "3_4_Titan_E",
    "sceneId": 3,
    "addSceneTagIdList": [
      1195
    ],
    "removeSceneTagIdList": [],
    "loadDynamicGroupList": [
      133313159
    ]
  },
  {
    "ID": 75,
    "levelTagName": "3_4_Titan_F",
    "sceneId": 3,
    "addSceneTagIdList": [
      1197
    ],
    "removeSceneTagIdList": [
      1196,
      1195
    ],
    "loadDynamicGroupList": [
      133313236
    ]
  },
  {
    "ID": 76,
    "levelTagName": "3_4_SandFall_1",
    "sceneId": 3,
    "addSceneTagIdList": [],
    "removeSceneTagIdList": [],
    "loadDynamicGroupList": [
      133307462
    ]
  },
  {
    "ID": 77,
    "levelTagName": "3_4_SandFall_2",
    "sceneId": 3,
    "addSceneTagIdList": [],
    "removeSceneTagIdList": [
      1199
    ],
    "loadDynamicGroupList": [
      133307463
    ]
  },
  {
    "ID": 78,
    "levelTagName": "3_4_TreeHouse_1",
    "sceneId": 3,
    "addSceneTagIdList": [],
    "removeSceneTagIdList": [],
    "loadDynamicGroupList": [
      133307514
    ]
  },
  {
    "ID": 79,
    "levelTagName": "3_4_TreeHouse_2",
    "sceneId": 3,
    "addSceneTagIdList": [
      1188
    ],
    "removeSceneTagIdList": [
      1187
    ],
    "loadDynamicGroupList": [
      133307515
    ]
  },
  {
    "ID": 80,
    "levelTagName": "3_6_Onion_real_ex",
    "sceneId": 3,
    "addSceneTagIdList": [
      1257
    ],
    "removeSceneTagIdList": [
      1258,
      1259,
      1260
    ],
    "loadDynamicGroupList": []
  },
  {
    "ID": 81,
    "levelTagName": "3_6_Onion_real_mx",
    "sceneId": 3,
    "addSceneTagIdList": [
      1258
    ],
    "removeSceneTagIdList": [
      1257,
      1259,
      1260
    ],
    "loadDynamicGroupList": []
  },
  {
    "ID": 82,
    "levelTagName": "3_6_Onion_dream_ex",
    "sceneId": 3,
    "addSceneTagIdList": [
      1259
    ],
    "removeSceneTagIdList": [
      1257,
      1258,
      1260
    ],
    "loadDynamicGroupList": []
  },
  {
    "ID": 83,
    "levelTagName": "3_6_Onion_dream_mx",
    "sceneId": 3,
    "addSceneTagIdList": [
      1260
    ],
    "removeSceneTagIdList": [
      1257,
      1258,
      1259
    ],
    "loadDynamicGroupList": []
  },
  {
    "ID": 84,
    "levelTagName": "3_6_TNHY_BeforeRain",
    "sceneId": 3,
    "addSceneTagIdList": [
      1223,
      1225,
      1227,
      1229,
      1231,
      1233
    ],
    "removeSceneTagIdList": [],
    "loadDynamicGroupList": [
      133316379
    ]
  },
  {
    "ID": 85,
    "levelTagName": "3_6_TNHY_AfterRain",
    "sceneId": 3,
    "addSceneTagIdList": [
      1224,
      1226,
      1228,
      1230,
      1232,
      1234
    ],
    "removeSceneTagIdList": [
      1223,
      1225,
      1227,
      1229,
      1231,
      1233
    ],
    "loadDynamicGroupList": []
  },
  {
    "ID": 86,
    "levelTagName": "3_6_TNHY_FlowerBefore",
    "sceneId": 3,
    "addSceneTagIdList": [],
    "removeSceneTagIdList": [],
    "loadDynamicGroupList": [
      133316402
    ]
  },
  {
    "ID": 87,
    "levelTagName": "3_6_TNHY_FlowerAfter",
    "sceneId": 3,
    "addSceneTagIdList": [
      1242
    ],
    "removeSceneTagIdList": [
      1241
    ],
    "loadDynamicGroupList": []
  },
  {
    "ID": 88,
    "levelTagName": "3_6_TNHY_SandwormBefore",
    "sceneId": 3,
    "addSceneTagIdList": [],
    "removeSceneTagIdList": [],
    "loadDynamicGroupList": [
      133316400
    ]
  },
  {
    "ID": 89,
    "levelTagName": "3_6_TNHY_SandwormAfter",
    "sceneId": 3,
    "addSceneTagIdList": [
      1240
    ],
    "removeSceneTagIdList": [
      1239
    ],
    "loadDynamicGroupList": []
  },
  {
    "ID": 90,
    "levelTagName": "4_0_LS_Before",
    "sceneId": 3,
    "addSceneTagIdList": [],
    "removeSceneTagIdList": [],
    "loadDynamicGroupList": [
      133401302
    ]
  },
  {
    "ID": 91,
    "levelTagName": "4_0_LS_After",
    "sceneId": 3,
    "addSceneTagIdList": [],
    "removeSceneTagIdList": [],
    "loadDynamicGroupList": []
  },
  {
    "ID": 92,
    "levelTagName": "4_1_KZST01_Before",
    "sceneId": 3,
    "addSceneTagIdList": [],
    "removeSceneTagIdList": [],
    "loadDynamicGroupList": []
  },
  {
    "ID": 93,
    "levelTagName": "4_1_KZST01_After",
    "sceneId": 3,
    "addSceneTagIdList": [],
    "removeSceneTagIdList": [],
    "loadDynamicGroupList": []
  },
  {
    "ID": 94,
    "levelTagName": "4_1_KZST02_Before",
    "sceneId": 3,
    "addSceneTagIdList": [],
    "removeSceneTagIdList": [],
    "loadDynamicGroupList": []
  },
  {
    "ID": 95,
    "levelTagName": "4_1_KZST02_After",
    "sceneId": 3,
    "addSceneTagIdList": [],
    "removeSceneTagIdList": [],
    "loadDynamicGroupList": []
  },
  {
    "ID": 96,
    "levelTagName": "4_1_KZST03_Before",
    "sceneId": 3,
    "addSceneTagIdList": [],
    "removeSceneTagIdList": [],
    "loadDynamicGroupList": []
  },
  {
    "ID": 97,
    "levelTagName": "4_1_KZST03_After",
    "sceneId": 3,
    "addSceneTagIdList": [],
    "removeSceneTagIdList": [],
    "loadDynamicGroupList": []
  },
  {
    "ID": 98,
    "levelTagName": "4_1_KZST04_Before",
    "sceneId": 3,
    "addSceneTagIdList": [],
    "removeSceneTagIdList": [],
    "loadDynamicGroupList": []
  },
  {
    "ID": 99,
    "levelTagName": "4_1_KZST04_After",
    "sceneId": 3,
    "addSceneTagIdList": [],
    "removeSceneTagIdList": [],
    "loadDynamicGroupList": []
  },
  {
    "ID": 100,
    "levelTagName": "4_0_WishPond_Normal",
    "sceneId": 3,
    "addSceneTagIdList": [],
    "removeSceneTagIdList": [
      1336
    ],
    "loadDynamicGroupList": []
  },
  {
    "ID": 101,
    "levelTagName": "4_0_WishPond_MaxLv",
    "sceneId": 3,
    "addSceneTagIdList": [
      1336
    ],
    "removeSceneTagIdList": [],
    "loadDynamicGroupList": []
  },
  {
    "ID": 102,
    "levelTagName": "4_2_Tower_Bf",
    "sceneId": 3,
    "addSceneTagIdList": [
      1320
    ],
    "removeSceneTagIdList": [
      1321
    ],
    "loadDynamicGroupList": [
      133404255
    ]
  },
  {
    "ID": 103,
    "levelTagName": "4_2_Tower_Af",
    "sceneId": 3,
    "addSceneTagIdList": [
      1321
    ],
    "removeSceneTagIdList": [
      1320
    ],
    "loadDynamicGroupList": [
      133404256
    ]
  },
  {
    "ID": 104,
    "levelTagName": "4_2_DPQS_Before",
    "sceneId": 3,
    "addSceneTagIdList": [
      1322
    ],
    "removeSceneTagIdList": [
      1323
    ],
    "loadDynamicGroupList": [
      133402575
    ]
  },
  {
    "ID": 105,
    "levelTagName": "4_2_DPQS_After",
    "sceneId": 3,
    "addSceneTagIdList": [
      1323
    ],
    "removeSceneTagIdList": [
      1322
    ],
    "loadDynamicGroupList": [
      133402629
    ]
  },
  {
    "ID": 106,
    "levelTagName": "4_2_LSSG_Before",
    "sceneId": 3,
    "addSceneTagIdList": [
      1326
    ],
    "removeSceneTagIdList": [
      1327
    ],
    "loadDynamicGroupList": []
  },
  {
    "ID": 107,
    "levelTagName": "4_2_LSSG_After",
    "sceneId": 3,
    "addSceneTagIdList": [
      1327
    ],
    "removeSceneTagIdList": [
      1326
    ],
    "loadDynamicGroupList": [
      133402491
    ]
  },
  {
    "ID": 108,
    "levelTagName": "4_1_KZST_P1",
    "sceneId": 3,
    "addSceneTagIdList": [],
    "removeSceneTagIdList": [],
    "loadDynamicGroupList": []
  },
  {
    "ID": 109,
    "levelTagName": "4_1_KZST_P2",
    "sceneId": 3,
    "addSceneTagIdList": [],
    "removeSceneTagIdList": [],
    "loadDynamicGroupList": []
  },
  {
    "ID": 110,
    "levelTagName": "4_1_KZST_P3",
    "sceneId": 3,
    "addSceneTagIdList": [],
    "removeSceneTagIdList": [],
    "loadDynamicGroupList": []
  },
  {
    "ID": 111,
    "levelTagName": "4_3_Sniper_1",
    "sceneId": 35924,
    "addSceneTagIdList": [],
    "removeSceneTagIdList": [],
    "levelTagCanFixTime": true,
    "levelTagFixedEnviroTime": 8.0,
    "loadDynamicGroupList": []
  },
  {
    "ID": 112,
    "levelTagName": "4_3_Sniper_2",
    "sceneId": 35925,
    "addSceneTagIdList": [],
    "removeSceneTagIdList": [],
    "levelTagCanFixTime": true,
    "levelTagFixedEnviroTime": 24.0,
    "loadDynamicGroupList": []
  },
  {
    "ID": 113,
    "levelTagName": "4_3_Sniper_3",
    "sceneId": 35926,
    "addSceneTagIdList": [],
    "removeSceneTagIdList": [],
    "levelTagCanFixTime": true,
    "levelTagFixedEnviroTime": 24.0,
    "loadDynamicGroupList": []
  },
  {
    "ID": 114,
    "levelTagName": "4_3_Sniper_4",
    "sceneId": 35927,
    "addSceneTagIdList": [],
    "removeSceneTagIdList": [],
    "levelTagCanFixTime": true,
    "levelTagFixedEnviroTime": 19.0,
    "loadDynamicGroupList": []
  },
  {
    "ID": 115,
    "levelTagName": "4_4_LXS_Before",
    "sceneId": 3,
    "addSceneTagIdList": [],
    "removeSceneTagIdList": [],
    "loadDynamicGroupList": [
      133116202
    ]
  },
  {
    "ID": 116,
    "levelTagName": "4_4_LXS_After",
    "sceneId": 3,
    "addSceneTagIdList": [],
    "removeSceneTagIdList": [],
    "loadDynamicGroupList": []
  },
  {
    "ID": 117,
    "levelTagName": "4_4_WQ_Bf",
    "sceneId": 3,
    "addSceneTagIdList": [],
    "removeSceneTagIdList": [],
    "loadDynamicGroupList": [
      133116324
    ]
  },
  {
    "ID": 118,
    "levelTagName": "4_4_WQ_Af",
    "sceneId": 3,
    "addSceneTagIdList": [],
    "removeSceneTagIdList": [],
    "loadDynamicGroupList": []
  },
  {
    "ID": 100000,
    "levelTagName": "2_7_CY_Rogue_1_000",
    "sceneId": 20128,
    "addSceneTagIdList": [],
    "removeSceneTagIdList": [],
    "loadDynamicGroupList": []
  },
  {
    "ID": 100001,
    "levelTagName": "2_7_CY_Rogue_1_001",
    "sceneId": 20128,
    "addSceneTagIdList": [],
    "removeSceneTagIdList": [],
    "loadDynamicGroupList": []
  },
  {
    "ID": 100002,
    "levelTagName": "2_7_CY_Rogue_1_002",
    "sceneId": 20128,
    "addSceneTagIdList": [],
    "removeSceneTagIdList": [],
    "loadDynamicGroupList": []
  },
  {
    "ID": 100003,
    "levelTagName": "2_7_CY_Rogue_1_003",
    "sceneId": 20128,
    "addSceneTagIdList": [],
    "removeSceneTagIdList": [],
    "loadDynamicGroupList": []
  },
  {
    "ID": 100010,
    "levelTagName": "2_7_CY_Rogue_1_010",
    "sceneId": 20128,
    "addSceneTagIdList": [],
    "removeSceneTagIdList": [],
    "loadDynamicGroupList": []
  },
  {
    "ID": 100011,
    "levelTagName": "2_7_CY_Rogue_1_011",
    "sceneId": 20128,
    "addSceneTagIdList": [],
    "removeSceneTagIdList": [],
    "loadDynamicGroupList": []
  },
  {
    "ID": 100012,
    "levelTagName": "2_7_CY_Rogue_1_012",
    "sceneId": 20128,
    "addSceneTagIdList": [],
    "removeSceneTagIdList": [],
    "loadDynamicGroupList": []
  },
  {
    "ID": 100013,
    "levelTagName": "2_7_CY_Rogue_1_013",
    "sceneId": 20128,
    "addSceneTagIdList": [],
    "removeSceneTagIdList": [],
    "loadDynamicGroupList": []
  },
  {
    "ID": 100020,
    "levelTagName": "2_7_CY_Rogue_1_020",
    "sceneId": 20128,
    "addSceneTagIdList": [],
    "removeSceneTagIdList": [],
    "loadDynamicGroupList": []
  },
  {
    "ID": 100021,
    "levelTagName": "2_7_CY_Rogue_1_021",
    "sceneId": 20128,
    "addSceneTagIdList": [],
    "removeSceneTagIdList": [],
    "loadDynamicGroupList": []
  },
  {
    "ID": 100022,
    "levelTagName": "2_7_CY_Rogue_1_022",
    "sceneId": 20128,
    "addSceneTagIdList": [],
    "removeSceneTagIdList": [],
    "loadDynamicGroupList": []
  },
  {
    "ID": 100023,
    "levelTagName": "2_7_CY_Rogue_1_023",
    "sceneId": 20128,
    "addSceneTagIdList": [],
    "removeSceneTagIdList": [],
    "loadDynamicGroupList": []
  },
  {
    "ID": 100030,
    "levelTagName": "2_7_CY_Rogue_1_030",
    "sceneId": 20128,
    "addSceneTagIdList": [],
    "removeSceneTagIdList": [],
    "loadDynamicGroupList": []
  },
  {
    "ID": 100031,
    "levelTagName": "2_7_CY_Rogue_1_031",
    "sceneId": 20128,
    "addSceneTagIdList": [],
    "removeSceneTagIdList": [],
    "loadDynamicGroupList": []
  },
  {
    "ID": 100032,
    "levelTagName": "2_7_CY_Rogue_1_032",
    "sceneId": 20128,
    "addSceneTagIdList": [],
    "removeSceneTagIdList": [],
    "loadDynamicGroupList": []
  },
  {
    "ID": 100033,
    "levelTagName": "2_7_CY_Rogue_1_033",
    "sceneId": 20128,
    "addSceneTagIdList": [],
    "removeSceneTagIdList": [],
    "loadDynamicGroupList": []
  },
  {
    "ID": 100100,
    "levelTagName": "2_7_CY_Rogue_1_100",
    "sceneId": 20128,
    "addSceneTagIdList": [],
    "removeSceneTagIdList": [],
    "loadDynamicGroupList": []
  },
  {
    "ID": 100101,
    "levelTagName": "2_7_CY_Rogue_1_101",
    "sceneId": 20128,
    "addSceneTagIdList": [],
    "removeSceneTagIdList": [],
    "loadDynamicGroupList": []
  },
  {
    "ID": 100102,
    "levelTagName": "2_7_CY_Rogue_1_102",
    "sceneId": 20128,
    "addSceneTagIdList": [],
    "removeSceneTagIdList": [],
    "loadDynamicGroupList": []
  },
  {
    "ID": 100103,
    "levelTagName": "2_7_CY_Rogue_1_103",
    "sceneId": 20128,
    "addSceneTagIdList": [],
    "removeSceneTagIdList": [],
    "loadDynamicGroupList": []
  },
  {
    "ID": 100110,
    "levelTagName": "2_7_CY_Rogue_1_110",
    "sceneId": 20128,
    "addSceneTagIdList": [],
    "removeSceneTagIdList": [],
    "loadDynamicGroupList": []
  },
  {
    "ID": 100111,
    "levelTagName": "2_7_CY_Rogue_1_111",
    "sceneId": 20128,
    "addSceneTagIdList": [],
    "removeSceneTagIdList": [],
    "loadDynamicGroupList": []
  },
  {
    "ID": 100112,
    "levelTagName": "2_7_CY_Rogue_1_112",
    "sceneId": 20128,
    "addSceneTagIdList": [],
    "removeSceneTagIdList": [],
    "loadDynamicGroupList": []
  },
  {
    "ID": 100113,
    "levelTagName": "2_7_CY_Rogue_1_113",
    "sceneId": 20128,
    "addSceneTagIdList": [],
    "removeSceneTagIdList": [],
    "loadDynamicGroupList": []
  },
  {
    "ID": 100120,
    "levelTagName": "2_7_CY_Rogue_1_120",
    "sceneId": 20128,
    "addSceneTagIdList": [],
    "removeSceneTagIdList": [],
    "loadDynamicGroupList": []
  },
  {
    "ID": 100121,
    "levelTagName": "2_7_CY_Rogue_1_121",
    "sceneId": 20128,
    "addSceneTagIdList": [],
    "removeSceneTagIdList": [],
    "loadDynamicGroupList": []
  },
  {
    "ID": 100122,
    "levelTagName": "2_7_CY_Rogue_1_122",
    "sceneId": 20128,
    "addSceneTagIdList": [],
    "removeSceneTagIdList": [],
    "loadDynamicGroupList": []
  },
  {
    "ID": 100123,
    "levelTagName": "2_7_CY_Rogue_1_123",
    "sceneId": 20128,
    "addSceneTagIdList": [],
    "removeSceneTagIdList": [],
    "loadDynamicGroupList": []
  },
  {
    "ID": 100130,
    "levelTagName": "2_7_CY_Rogue_1_130",
    "sceneId": 20128,
    "addSceneTagIdList": [],
    "removeSceneTagIdList": [],
    "loadDynamicGroupList": []
  },
  {
    "ID": 100131,
    "levelTagName": "2_7_CY_Rogue_1_131",
    "sceneId": 20128,
    "addSceneTagIdList": [],
    "removeSceneTagIdList": [],
    "loadDynamicGroupList": []
  },
  {
    "ID": 100132,
    "levelTagName": "2_7_CY_Rogue_1_132",
    "sceneId": 20128,
    "addSceneTagIdList": [],
    "removeSceneTagIdList": [],
    "loadDynamicGroupList": []
  },
  {
    "ID": 100133,
    "levelTagName": "2_7_CY_Rogue_1_133",
    "sceneId": 20128,
    "addSceneTagIdList": [],
    "removeSceneTagIdList": [],
    "loadDynamicGroupList": []
  },
  {
    "ID": 100200,
    "levelTagName": "2_7_CY_Rogue_1_200",
    "sceneId": 20128,
    "addSceneTagIdList": [],
    "removeSceneTagIdList": [],
    "loadDynamicGroupList": []
  },
  {
    "ID": 100201,
    "levelTagName": "2_7_CY_Rogue_1_201",
    "sceneId": 20128,
    "addSceneTagIdList": [],
    "removeSceneTagIdList": [],
    "loadDynamicGroupList": []
  },
  {
    "ID": 100202,
    "levelTagName": "2_7_CY_Rogue_1_202",
    "sceneId": 20128,
    "addSceneTagIdList": [],
    "removeSceneTagIdList": [],
    "loadDynamicGroupList": []
  },
  {
    "ID": 100203,
    "levelTagName": "2_7_CY_Rogue_1_203",
    "sceneId": 20128,
    "addSceneTagIdList": [],
    "removeSceneTagIdList": [],
    "loadDynamicGroupList": []
  },
  {
    "ID": 100210,
    "levelTagName": "2_7_CY_Rogue_1_210",
    "sceneId": 20128,
    "addSceneTagIdList": [],
    "removeSceneTagIdList": [],
    "loadDynamicGroupList": []
  },
  {
    "ID": 100211,
    "levelTagName": "2_7_CY_Rogue_1_211",
    "sceneId": 20128,
    "addSceneTagIdList": [],
    "removeSceneTagIdList": [],
    "loadDynamicGroupList": []
  },
  {
    "ID": 100212,
    "levelTagName": "2_7_CY_Rogue_1_212",
    "sceneId": 20128,
    "addSceneTagIdList": [],
    "removeSceneTagIdList": [],
    "loadDynamicGroupList": []
  },
  {
    "ID": 100213,
    "levelTagName": "2_7_CY_Rogue_1_213",
    "sceneId": 20128,
    "addSceneTagIdList": [],
    "removeSceneTagIdList": [],
    "loadDynamicGroupList": []
  },
  {
    "ID": 100220,
    "levelTagName": "2_7_CY_Rogue_1_220",
    "sceneId": 20128,
    "addSceneTagIdList": [],
    "removeSceneTagIdList": [],
    "loadDynamicGroupList": []
  },
  {
    "ID": 100221,
    "levelTagName": "2_7_CY_Rogue_1_221",
    "sceneId": 20128,
    "addSceneTagIdList": [],
    "removeSceneTagIdList": [],
    "loadDynamicGroupList": []
  },
  {
    "ID": 100222,
    "levelTagName": "2_7_CY_Rogue_1_222",
    "sceneId": 20128,
    "addSceneTagIdList": [],
    "removeSceneTagIdList": [],
    "loadDynamicGroupList": []
  },
  {
    "ID": 100223,
    "levelTagName": "2_7_CY_Rogue_1_223",
    "sceneId": 20128,
    "addSceneTagIdList": [],
    "removeSceneTagIdList": [],
    "loadDynamicGroupList": []
  },
  {
    "ID": 100230,
    "levelTagName": "2_7_CY_Rogue_1_230",
    "sceneId": 20128,
    "addSceneTagIdList": [],
    "removeSceneTagIdList": [],
    "loadDynamicGroupList": []
  },
  {
    "ID": 100231,
    "levelTagName": "2_7_CY_Rogue_1_231",
    "sceneId": 20128,
    "addSceneTagIdList": [],
    "removeSceneTagIdList": [],
    "loadDynamicGroupList": []
  },
  {
    "ID": 100232,
    "levelTagName": "2_7_CY_Rogue_1_232",
    "sceneId": 20128,
    "addSceneTagIdList": [],
    "removeSceneTagIdList": [],
    "loadDynamicGroupList": []
  },
  {
    "ID": 100233,
    "levelTagName": "2_7_CY_Rogue_1_233",
    "sceneId": 20128,
    "addSceneTagIdList": [],
    "removeSceneTagIdList": [],
    "loadDynamicGroupList": []
  },
  {
    "ID": 100300,
    "levelTagName": "2_7_CY_Rogue_1_300",
    "sceneId": 20128,
    "addSceneTagIdList": [],
    "removeSceneTagIdList": [],
    "loadDynamicGroupList": []
  },
  {
    "ID": 100301,
    "levelTagName": "2_7_CY_Rogue_1_301",
    "sceneId": 20128,
    "addSceneTagIdList": [],
    "removeSceneTagIdList": [],
    "loadDynamicGroupList": []
  },
  {
    "ID": 100302,
    "levelTagName": "2_7_CY_Rogue_1_302",
    "sceneId": 20128,
    "addSceneTagIdList": [],
    "removeSceneTagIdList": [],
    "loadDynamicGroupList": []
  },
  {
    "ID": 100303,
    "levelTagName": "2_7_CY_Rogue_1_303",
    "sceneId": 20128,
    "addSceneTagIdList": [],
    "removeSceneTagIdList": [],
    "loadDynamicGroupList": []
  },
  {
    "ID": 100310,
    "levelTagName": "2_7_CY_Rogue_1_310",
    "sceneId": 20128,
    "addSceneTagIdList": [],
    "removeSceneTagIdList": [],
    "loadDynamicGroupList": []
  },
  {
    "ID": 100311,
    "levelTagName": "2_7_CY_Rogue_1_311",
    "sceneId": 20128,
    "addSceneTagIdList": [],
    "removeSceneTagIdList": [],
    "loadDynamicGroupList": []
  },
  {
    "ID": 100312,
    "levelTagName": "2_7_CY_Rogue_1_312",
    "sceneId": 20128,
    "addSceneTagIdList": [],
    "removeSceneTagIdList": [],
    "loadDynamicGroupList": []
  },
  {
    "ID": 100313,
    "levelTagName": "2_7_CY_Rogue_1_313",
    "sceneId": 20128,
    "addSceneTagIdList": [],
    "removeSceneTagIdList": [],
    "loadDynamicGroupList": []
  },
  {
    "ID": 100320,
    "levelTagName": "2_7_CY_Rogue_1_320",
    "sceneId": 20128,
    "addSceneTagIdList": [],
    "removeSceneTagIdList": [],
    "loadDynamicGroupList": []
  },
  {
    "ID": 100321,
    "levelTagName": "2_7_CY_Rogue_1_321",
    "sceneId": 20128,
    "addSceneTagIdList": [],
    "removeSceneTagIdList": [],
    "loadDynamicGroupList": []
  },
  {
    "ID": 100322,
    "levelTagName": "2_7_CY_Rogue_1_322",
    "sceneId": 20128,
    "addSceneTagIdList": [],
    "removeSceneTagIdList": [],
    "loadDynamicGroupList": []
  },
  {
    "ID": 100323,
    "levelTagName": "2_7_CY_Rogue_1_323",
    "sceneId": 20128,
    "addSceneTagIdList": [],
    "removeSceneTagIdList": [],
    "loadDynamicGroupList": []
  },
  {
    "ID": 100330,
    "levelTagName": "2_7_CY_Rogue_1_330",
    "sceneId": 20128,
    "addSceneTagIdList": [],
    "removeSceneTagIdList": [],
    "loadDynamicGroupList": []
  },
  {
    "ID": 100331,
    "levelTagName": "2_7_CY_Rogue_1_331",
    "sceneId": 20128,
    "addSceneTagIdList": [],
    "removeSceneTagIdList": [],
    "loadDynamicGroupList": []
  },
  {
    "ID": 100332,
    "levelTagName": "2_7_CY_Rogue_1_332",
    "sceneId": 20128,
    "addSceneTagIdList": [],
    "removeSceneTagIdList": [],
    "loadDynamicGroupList": []
  },
  {
    "ID": 100333,
    "levelTagName": "2_7_CY_Rogue_1_333",
    "sceneId": 20128,
    "addSceneTagIdList": [],
    "removeSceneTagIdList": [],
    "loadDynamicGroupList": []
  },
  {
    "ID": 200000,
    "levelTagName": "2_7_CY_Rogue_2_000",
    "sceneId": 20128,
    "addSceneTagIdList": [],
    "removeSceneTagIdList": [],
    "loadDynamicGroupList": []
  },
  {
    "ID": 200001,
    "levelTagName": "2_7_CY_Rogue_2_001",
    "sceneId": 20128,
    "addSceneTagIdList": [],
    "removeSceneTagIdList": [],
    "loadDynamicGroupList": []
  },
  {
    "ID": 200002,
    "levelTagName": "2_7_CY_Rogue_2_002",
    "sceneId": 20128,
    "addSceneTagIdList": [],
    "removeSceneTagIdList": [],
    "loadDynamicGroupList": []
  },
  {
    "ID": 200003,
    "levelTagName": "2_7_CY_Rogue_2_003",
    "sceneId": 20128,
    "addSceneTagIdList": [],
    "removeSceneTagIdList": [],
    "loadDynamicGroupList": []
  },
  {
    "ID": 200010,
    "levelTagName": "2_7_CY_Rogue_2_010",
    "sceneId": 20128,
    "addSceneTagIdList": [],
    "removeSceneTagIdList": [],
    "loadDynamicGroupList": []
  },
  {
    "ID": 200011,
    "levelTagName": "2_7_CY_Rogue_2_011",
    "sceneId": 20128,
    "addSceneTagIdList": [],
    "removeSceneTagIdList": [],
    "loadDynamicGroupList": []
  },
  {
    "ID": 200012,
    "levelTagName": "2_7_CY_Rogue_2_012",
    "sceneId": 20128,
    "addSceneTagIdList": [],
    "removeSceneTagIdList": [],
    "loadDynamicGroupList": []
  },
  {
    "ID": 200013,
    "levelTagName": "2_7_CY_Rogue_2_013",
    "sceneId": 20128,
    "addSceneTagIdList": [],
    "removeSceneTagIdList": [],
    "loadDynamicGroupList": []
  },
  {
    "ID": 200020,
    "levelTagName": "2_7_CY_Rogue_2_020",
    "sceneId": 20128,
    "addSceneTagIdList": [],
    "removeSceneTagIdList": [],
    "loadDynamicGroupList": []
  },
  {
    "ID": 200021,
    "levelTagName": "2_7_CY_Rogue_2_021",
    "sceneId": 20128,
    "addSceneTagIdList": [],
    "removeSceneTagIdList": [],
    "loadDynamicGroupList": []
  },
  {
    "ID": 200022,
    "levelTagName": "2_7_CY_Rogue_2_022",
    "sceneId": 20128,
    "addSceneTagIdList": [],
    "removeSceneTagIdList": [],
    "loadDynamicGroupList": []
  },
  {
    "ID": 200023,
    "levelTagName": "2_7_CY_Rogue_2_023",
    "sceneId": 20128,
    "addSceneTagIdList": [],
    "removeSceneTagIdList": [],
    "loadDynamicGroupList": []
  },
  {
    "ID": 200030,
    "levelTagName": "2_7_CY_Rogue_2_030",
    "sceneId": 20128,
    "addSceneTagIdList": [],
    "removeSceneTagIdList": [],
    "loadDynamicGroupList": []
  },
  {
    "ID": 200031,
    "levelTagName": "2_7_CY_Rogue_2_031",
    "sceneId": 20128,
    "addSceneTagIdList": [],
    "removeSceneTagIdList": [],
    "loadDynamicGroupList": []
  },
  {
    "ID": 200032,
    "levelTagName": "2_7_CY_Rogue_2_032",
    "sceneId": 20128,
    "addSceneTagIdList": [],
    "removeSceneTagIdList": [],
    "loadDynamicGroupList": []
  },
  {
    "ID": 200033,
    "levelTagName": "2_7_CY_Rogue_2_033",
    "sceneId": 20128,
    "addSceneTagIdList": [],
    "removeSceneTagIdList": [],
    "loadDynamicGroupList": []
  },
  {
    "ID": 200100,
    "levelTagName": "2_7_CY_Rogue_2_100",
    "sceneId": 20128,
    "addSceneTagIdList": [],
    "removeSceneTagIdList": [],
    "loadDynamicGroupList": []
  },
  {
    "ID": 200101,
    "levelTagName": "2_7_CY_Rogue_2_101",
    "sceneId": 20128,
    "addSceneTagIdList": [],
    "removeSceneTagIdList": [],
    "loadDynamicGroupList": []
  },
  {
    "ID": 200102,
    "levelTagName": "2_7_CY_Rogue_2_102",
    "sceneId": 20128,
    "addSceneTagIdList": [],
    "removeSceneTagIdList": [],
    "loadDynamicGroupList": []
  },
  {
    "ID": 200103,
    "levelTagName": "2_7_CY_Rogue_2_103",
    "sceneId": 20128,
    "addSceneTagIdList": [],
    "removeSceneTagIdList": [],
    "loadDynamicGroupList": []
  },
  {
    "ID": 200110,
    "levelTagName": "2_7_CY_Rogue_2_110",
    "sceneId": 20128,
    "addSceneTagIdList": [],
    "removeSceneTagIdList": [],
    "loadDynamicGroupList": []
  },
  {
    "ID": 200111,
    "levelTagName": "2_7_CY_Rogue_2_111",
    "sceneId": 20128,
    "addSceneTagIdList": [],
    "removeSceneTagIdList": [],
    "loadDynamicGroupList": []
  },
  {
    "ID": 200112,
    "levelTagName": "2_7_CY_Rogue_2_112",
    "sceneId": 20128,
    "addSceneTagIdList": [],
    "removeSceneTagIdList": [],
    "loadDynamicGroupList": []
  },
  {
    "ID": 200113,
    "levelTagName": "2_7_CY_Rogue_2_113",
    "sceneId": 20128,
    "addSceneTagIdList": [],
    "removeSceneTagIdList": [],
    "loadDynamicGroupList": []
  },
  {
    "ID": 200120,
    "levelTagName": "2_7_CY_Rogue_2_120",
    "sceneId": 20128,
    "addSceneTagIdList": [],
    "removeSceneTagIdList": [],
    "loadDynamicGroupList": []
  },
  {
    "ID": 200121,
    "levelTagName": "2_7_CY_Rogue_2_121",
    "sceneId": 20128,
    "addSceneTagIdList": [],
    "removeSceneTagIdList": [],
    "loadDynamicGroupList": []
  },
  {
    "ID": 200122,
    "levelTagName": "2_7_CY_Rogue_2_122",
    "sceneId": 20128,
    "addSceneTagIdList": [],
    "removeSceneTagIdList": [],
    "loadDynamicGroupList": []
  },
  {
    "ID": 200123,
    "levelTagName": "2_7_CY_Rogue_2_123",
    "sceneId": 20128,
    "addSceneTagIdList": [],
    "removeSceneTagIdList": [],
    "loadDynamicGroupList": []
  },
  {
    "ID": 200130,
    "levelTagName": "2_7_CY_Rogue_2_130",
    "sceneId": 20128,
    "addSceneTagIdList": [],
    "removeSceneTagIdList": [],
    "loadDynamicGroupList": []
  },
  {
    "ID": 200131,
    "levelTagName": "2_7_CY_Rogue_2_131",
    "sceneId": 20128,
    "addSceneTagIdList": [],
    "removeSceneTagIdList": [],
    "loadDynamicGroupList": []
  },
  {
    "ID": 200132,
    "levelTagName": "2_7_CY_Rogue_2_132",
    "sceneId": 20128,
    "addSceneTagIdList": [],
    "removeSceneTagIdList": [],
    "loadDynamicGroupList": []
  },
  {
    "ID": 200133,
    "levelTagName": "2_7_CY_Rogue_2_133",
    "sceneId": 20128,
    "addSceneTagIdList": [],
    "removeSceneTagIdList": [],
    "loadDynamicGroupList": []
  },
  {
    "ID": 200200,
    "levelTagName": "2_7_CY_Rogue_2_200",
    "sceneId": 20128,
    "addSceneTagIdList": [],
    "removeSceneTagIdList": [],
    "loadDynamicGroupList": []
  },
  {
    "ID": 200201,
    "levelTagName": "2_7_CY_Rogue_2_201",
    "sceneId": 20128,
    "addSceneTagIdList": [],
    "removeSceneTagIdList": [],
    "loadDynamicGroupList": []
  },
  {
    "ID": 200202,
    "levelTagName": "2_7_CY_Rogue_2_202",
    "sceneId": 20128,
    "addSceneTagIdList": [],
    "removeSceneTagIdList": [],
    "loadDynamicGroupList": []
  },
  {
    "ID": 200203,
    "levelTagName": "2_7_CY_Rogue_2_203",
    "sceneId": 20128,
    "addSceneTagIdList": [],
    "removeSceneTagIdList": [],
    "loadDynamicGroupList": []
  },
  {
    "ID": 200210,
    "levelTagName": "2_7_CY_Rogue_2_210",
    "sceneId": 20128,
    "addSceneTagIdList": [],
    "removeSceneTagIdList": [],
    "loadDynamicGroupList": []
  },
  {
    "ID": 200211,
    "levelTagName": "2_7_CY_Rogue_2_211",
    "sceneId": 20128,
    "addSceneTagIdList": [],
    "removeSceneTagIdList": [],
    "loadDynamicGroupList": []
  },
  {
    "ID": 200212,
    "levelTagName": "2_7_CY_Rogue_2_212",
    "sceneId": 20128,
    "addSceneTagIdList": [],
    "removeSceneTagIdList": [],
    "loadDynamicGroupList": []
  },
  {
    "ID": 200213,
    "levelTagName": "2_7_CY_Rogue_2_213",
    "sceneId": 20128,
    "addSceneTagIdList": [],
    "removeSceneTagIdList": [],
    "loadDynamicGroupList": []
  },
  {
    "ID": 200220,
    "levelTagName": "2_7_CY_Rogue_2_220",
    "sceneId": 20128,
    "addSceneTagIdList": [],
    "removeSceneTagIdList": [],
    "loadDynamicGroupList": []
  },
  {
    "ID": 200221,
    "levelTagName": "2_7_CY_Rogue_2_221",
    "sceneId": 20128,
    "addSceneTagIdList": [],
    "removeSceneTagIdList": [],
    "loadDynamicGroupList": []
  },
  {
    "ID": 200222,
    "levelTagName": "2_7_CY_Rogue_2_222",
    "sceneId": 20128,
    "addSceneTagIdList": [],
    "removeSceneTagIdList": [],
    "loadDynamicGroupList": []
  },
  {
    "ID": 200223,
    "levelTagName": "2_7_CY_Rogue_2_223",
    "sceneId": 20128,
    "addSceneTagIdList": [],
    "removeSceneTagIdList": [],
    "loadDynamicGroupList": []
  },
  {
    "ID": 200230,
    "levelTagName": "2_7_CY_Rogue_2_230",
    "sceneId": 20128,
    "addSceneTagIdList": [],
    "removeSceneTagIdList": [],
    "loadDynamicGroupList": []
  },
  {
    "ID": 200231,
    "levelTagName": "2_7_CY_Rogue_2_231",
    "sceneId": 20128,
    "addSceneTagIdList": [],
    "removeSceneTagIdList": [],
    "loadDynamicGroupList": []
  },
  {
    "ID": 200232,
    "levelTagName": "2_7_CY_Rogue_2_232",
    "sceneId": 20128,
    "addSceneTagIdList": [],
    "removeSceneTagIdList": [],
    "loadDynamicGroupList": []
  },
  {
    "ID": 200233,
    "levelTagName": "2_7_CY_Rogue_2_233",
    "sceneId": 20128,
    "addSceneTagIdList": [],
    "removeSceneTagIdList": [],
    "loadDynamicGroupList": []
  },
  {
    "ID": 200300,
    "levelTagName": "2_7_CY_Rogue_2_300",
    "sceneId": 20128,
    "addSceneTagIdList": [],
    "removeSceneTagIdList": [],
    "loadDynamicGroupList": []
  },
  {
    "ID": 200301,
    "levelTagName": "2_7_CY_Rogue_2_301",
    "sceneId": 20128,
    "addSceneTagIdList": [],
    "removeSceneTagIdList": [],
    "loadDynamicGroupList": []
  },
  {
    "ID": 200302,
    "levelTagName": "2_7_CY_Rogue_2_302",
    "sceneId": 20128,
    "addSceneTagIdList": [],
    "removeSceneTagIdList": [],
    "loadDynamicGroupList": []
  },
  {
    "ID": 200303,
    "levelTagName": "2_7_CY_Rogue_2_303",
    "sceneId": 20128,
    "addSceneTagIdList": [],
    "removeSceneTagIdList": [],
    "loadDynamicGroupList": []
  },
  {
    "ID": 200310,
    "levelTagName": "2_7_CY_Rogue_2_310",
    "sceneId": 20128,
    "addSceneTagIdList": [],
    "removeSceneTagIdList": [],
    "loadDynamicGroupList": []
  },
  {
    "ID": 200311,
    "levelTagName": "2_7_CY_Rogue_2_311",
    "sceneId": 20128,
    "addSceneTagIdList": [],
    "removeSceneTagIdList": [],
    "loadDynamicGroupList": []
  },
  {
    "ID": 200312,
    "levelTagName": "2_7_CY_Rogue_2_312",
    "sceneId": 20128,
    "addSceneTagIdList": [],
    "removeSceneTagIdList": [],
    "loadDynamicGroupList": []
  },
  {
    "ID": 200313,
    "levelTagName": "2_7_CY_Rogue_2_313",
    "sceneId": 20128,
    "addSceneTagIdList": [],
    "removeSceneTagIdList": [],
    "loadDynamicGroupList": []
  },
  {
    "ID": 200320,
    "levelTagName": "2_7_CY_Rogue_2_320",
    "sceneId": 20128,
    "addSceneTagIdList": [],
    "removeSceneTagIdList": [],
    "loadDynamicGroupList": []
  },
  {
    "ID": 200321,
    "levelTagName": "2_7_CY_Rogue_2_321",
    "sceneId": 20128,
    "addSceneTagIdList": [],
    "removeSceneTagIdList": [],
    "loadDynamicGroupList": []
  },
  {
    "ID": 200322,
    "levelTagName": "2_7_CY_Rogue_2_322",
    "sceneId": 20128,
    "addSceneTagIdList": [],
    "removeSceneTagIdList": [],
    "loadDynamicGroupList": []
  },
  {
    "ID": 200323,
    "levelTagName": "2_7_CY_Rogue_2_323",
    "sceneId": 20128,
    "addSceneTagIdList": [],
    "removeSceneTagIdList": [],
    "loadDynamicGroupList": []
  },
  {
    "ID": 200330,
    "levelTagName": "2_7_CY_Rogue_2_330",
    "sceneId": 20128,
    "addSceneTagIdList": [],
    "removeSceneTagIdList": [],
    "loadDynamicGroupList": []
  },
  {
    "ID": 200331,
    "levelTagName": "2_7_CY_Rogue_2_331",
    "sceneId": 20128,
    "addSceneTagIdList": [],
    "removeSceneTagIdList": [],
    "loadDynamicGroupList": []
  },
  {
    "ID": 200332,
    "levelTagName": "2_7_CY_Rogue_2_332",
    "sceneId": 20128,
    "addSceneTagIdList": [],
    "removeSceneTagIdList": [],
    "loadDynamicGroupList": []
  },
  {
    "ID": 200333,
    "levelTagName": "2_7_CY_Rogue_2_333",
    "sceneId": 20128,
    "addSceneTagIdList": [],
    "removeSceneTagIdList": [],
    "loadDynamicGroupList": []
  },
  {
    "ID": 204000,
    "levelTagName": "2_7_CY_Rogue_1_B_00",
    "sceneId": 20127,
    "addSceneTagIdList": [],
    "removeSceneTagIdList": [],
    "loadDynamicGroupList": []
  },
  {
    "ID": 204001,
    "levelTagName": "2_7_CY_Rogue_1_B_01",
    "sceneId": 20127,
    "addSceneTagIdList": [],
    "removeSceneTagIdList": [],
    "loadDynamicGroupList": []
  },
  {
    "ID": 204002,
    "levelTagName": "2_7_CY_Rogue_1_B_02",
    "sceneId": 20127,
    "addSceneTagIdList": [],
    "removeSceneTagIdList": [],
    "loadDynamicGroupList": []
  },
  {
    "ID": 204003,
    "levelTagName": "2_7_CY_Rogue_1_B_03",
    "sceneId": 20127,
    "addSceneTagIdList": [],
    "removeSceneTagIdList": [],
    "loadDynamicGroupList": []
  },
  {
    "ID": 204010,
    "levelTagName": "2_7_CY_Rogue_1_B_10",
    "sceneId": 20127,
    "addSceneTagIdList": [],
    "removeSceneTagIdList": [],
    "loadDynamicGroupList": []
  },
  {
    "ID": 204011,
    "levelTagName": "2_7_CY_Rogue_1_B_11",
    "sceneId": 20127,
    "addSceneTagIdList": [],
    "removeSceneTagIdList": [],
    "loadDynamicGroupList": []
  },
  {
    "ID": 204012,
    "levelTagName": "2_7_CY_Rogue_1_B_12",
    "sceneId": 20127,
    "addSceneTagIdList": [],
    "removeSceneTagIdList": [],
    "loadDynamicGroupList": []
  },
  {
    "ID": 204013,
    "levelTagName": "2_7_CY_Rogue_1_B_13",
    "sceneId": 20127,
    "addSceneTagIdList": [],
    "removeSceneTagIdList": [],
    "loadDynamicGroupList": []
  },
  {
    "ID": 204100,
    "levelTagName": "2_7_CY_Rogue_1_C_00",
    "sceneId": 20127,
    "addSceneTagIdList": [],
    "removeSceneTagIdList": [],
    "loadDynamicGroupList": []
  },
  {
    "ID": 204101,
    "levelTagName": "2_7_CY_Rogue_1_C_01",
    "sceneId": 20127,
    "addSceneTagIdList": [],
    "removeSceneTagIdList": [],
    "loadDynamicGroupList": []
  },
  {
    "ID": 204102,
    "levelTagName": "2_7_CY_Rogue_1_C_02",
    "sceneId": 20127,
    "addSceneTagIdList": [],
    "removeSceneTagIdList": [],
    "loadDynamicGroupList": []
  },
  {
    "ID": 204103,
    "levelTagName": "2_7_CY_Rogue_1_C_03",
    "sceneId": 20127,
    "addSceneTagIdList": [],
    "removeSceneTagIdList": [],
    "loadDynamicGroupList": []
  },
  {
    "ID": 204110,
    "levelTagName": "2_7_CY_Rogue_1_C_10",
    "sceneId": 20127,
    "addSceneTagIdList": [],
    "removeSceneTagIdList": [],
    "loadDynamicGroupList": []
  },
  {
    "ID": 204111,
    "levelTagName": "2_7_CY_Rogue_1_C_11",
    "sceneId": 20127,
    "addSceneTagIdList": [],
    "removeSceneTagIdList": [],
    "loadDynamicGroupList": []
  },
  {
    "ID": 204112,
    "levelTagName": "2_7_CY_Rogue_1_C_12",
    "sceneId": 20127,
    "addSceneTagIdList": [],
    "removeSceneTagIdList": [],
    "loadDynamicGroupList": []
  },
  {
    "ID": 204113,
    "levelTagName": "2_7_CY_Rogue_1_C_13",
    "sceneId": 20127,
    "addSceneTagIdList": [],
    "removeSceneTagIdList": [],
    "loadDynamicGroupList": []
  },
  {
    "ID": 204200,
    "levelTagName": "2_7_CY_Rogue_1_D_00",
    "sceneId": 20127,
    "addSceneTagIdList": [],
    "removeSceneTagIdList": [],
    "loadDynamicGroupList": []
  },
  {
    "ID": 204201,
    "levelTagName": "2_7_CY_Rogue_1_D_01",
    "sceneId": 20127,
    "addSceneTagIdList": [],
    "removeSceneTagIdList": [],
    "loadDynamicGroupList": []
  },
  {
    "ID": 204202,
    "levelTagName": "2_7_CY_Rogue_1_D_02",
    "sceneId": 20127,
    "addSceneTagIdList": [],
    "removeSceneTagIdList": [],
    "loadDynamicGroupList": []
  },
  {
    "ID": 204203,
    "levelTagName": "2_7_CY_Rogue_1_D_03",
    "sceneId": 20127,
    "addSceneTagIdList": [],
    "removeSceneTagIdList": [],
    "loadDynamicGroupList": []
  },
  {
    "ID": 204210,
    "levelTagName": "2_7_CY_Rogue_1_D_10",
    "sceneId": 20127,
    "addSceneTagIdList": [],
    "removeSceneTagIdList": [],
    "loadDynamicGroupList": []
  },
  {
    "ID": 204211,
    "levelTagName": "2_7_CY_Rogue_1_D_11",
    "sceneId": 20127,
    "addSceneTagIdList": [],
    "removeSceneTagIdList": [],
    "loadDynamicGroupList": []
  },
  {
    "ID": 204212,
    "levelTagName": "2_7_CY_Rogue_1_D_12",
    "sceneId": 20127,
    "addSceneTagIdList": [],
    "removeSceneTagIdList": [],
    "loadDynamicGroupList": []
  },
  {
    "ID": 204213,
    "levelTagName": "2_7_CY_Rogue_1_D_13",
    "sceneId": 20127,
    "addSceneTagIdList": [],
    "removeSceneTagIdList": [],
    "loadDynamicGroupList": []
  },
  {
    "ID": 204300,
    "levelTagName": "2_7_CY_Rogue_1_E_00",
    "sceneId": 20127,
    "addSceneTagIdList": [],
    "removeSceneTagIdList": [],
    "loadDynamicGroupList": []
  },
  {
    "ID": 204301,
    "levelTagName": "2_7_CY_Rogue_1_E_01",
    "sceneId": 20127,
    "addSceneTagIdList": [],
    "removeSceneTagIdList": [],
    "loadDynamicGroupList": []
  },
  {
    "ID": 204302,
    "levelTagName": "2_7_CY_Rogue_1_E_02",
    "sceneId": 20127,
    "addSceneTagIdList": [],
    "removeSceneTagIdList": [],
    "loadDynamicGroupList": []
  },
  {
    "ID": 204303,
    "levelTagName": "2_7_CY_Rogue_1_E_03",
    "sceneId": 20127,
    "addSceneTagIdList": [],
    "removeSceneTagIdList": [],
    "loadDynamicGroupList": []
  },
  {
    "ID": 204310,
    "levelTagName": "2_7_CY_Rogue_1_E_10",
    "sceneId": 20127,
    "addSceneTagIdList": [],
    "removeSceneTagIdList": [],
    "loadDynamicGroupList": []
  },
  {
    "ID": 204311,
    "levelTagName": "2_7_CY_Rogue_1_E_11",
    "sceneId": 20127,
    "addSceneTagIdList": [],
    "removeSceneTagIdList": [],
    "loadDynamicGroupList": []
  },
  {
    "ID": 204312,
    "levelTagName": "2_7_CY_Rogue_1_E_12",
    "sceneId": 20127,
    "addSceneTagIdList": [],
    "removeSceneTagIdList": [],
    "loadDynamicGroupList": []
  },
  {
    "ID": 204313,
    "levelTagName": "2_7_CY_Rogue_1_E_13",
    "sceneId": 20127,
    "addSceneTagIdList": [],
    "removeSceneTagIdList": [],
    "loadDynamicGroupList": []
  }
]