[
  {
    "IANICDAODML": [
      "INFO_Liloupar_A1"
    ],
    "pushTipsId": 13015,
    "HIIFCPBMJEL": "ItemIcon/UI_ItemIcon_220072_01",
    "AOJIPPKOOIK": "ReadPic/UI_Img_SmallProps_WeatherGenie_01"
  },
  {
    "level": 1,
    "IANICDAODML": [
      "INFO_Liloupar_A1",
      "INFO_Liloupar_B1"
    ],
    "pushTipsId": 13016,
    "HIIFCPBMJEL": "ItemIcon/UI_ItemIcon_220072_02",
    "AOJIPPKOOIK": "ReadPic/UI_Img_SmallProps_WeatherGenie_02"
  },
  {
    "level": 2,
    "IANICDAODML": [
      "INFO_Liloupar_A1",
      "INFO_Liloupar_B1",
      "INFO_Liloupar_C1"
    ],
    "pushTipsId": 13016,
    "HIIFCPBMJEL": "ItemIcon/UI_ItemIcon_220072_02",
    "AOJIPPKOOIK": "ReadPic/UI_Img_SmallProps_WeatherGenie_02"
  },
  {
    "level": 3,
    "IANICDAODML": [
      "INFO_Liloupar_A2",
      "INFO_Liloupar_B1",
      "INFO_Liloupar_C1"
    ],
    "pushTipsId": 13016,
    "HIIFCPBMJEL": "ItemIcon/UI_ItemIcon_220072_02",
    "AOJIPPKOOIK": "ReadPic/UI_Img_SmallProps_WeatherGenie_02"
  },
  {
    "level": 4,
    "IANICDAODML": [
      "INFO_Liloupar_A2",
      "INFO_Liloupar_B1",
      "INFO_Liloupar_C1",
      "INFO_Liloupar_D1"
    ],
    "pushTipsId": 13017,
    "HIIFCPBMJEL": "ItemIcon/UI_ItemIcon_220072_02",
    "AOJIPPKOOIK": "ReadPic/UI_Img_SmallProps_WeatherGenie_02"
  },
  {
    "level": 5,
    "IANICDAODML": [
      "INFO_Liloupar_A2",
      "INFO_Liloupar_B2",
      "INFO_Liloupar_C1",
      "INFO_Liloupar_D1"
    ],
    "pushTipsId": 13017,
    "HIIFCPBMJEL": "ItemIcon/UI_ItemIcon_220072_03",
    "AOJIPPKOOIK": "ReadPic/UI_Img_SmallProps_WeatherGenie_03"
  },
  {
    "level": 6,
    "IANICDAODML": [
      "INFO_Liloupar_A2",
      "INFO_Liloupar_B2",
      "INFO_Liloupar_C1",
      "INFO_Liloupar_D1",
      "INFO_Liloupar_E1"
    ],
    "pushTipsId": 13017,
    "HIIFCPBMJEL": "ItemIcon/UI_ItemIcon_220072_03",
    "AOJIPPKOOIK": "ReadPic/UI_Img_SmallProps_WeatherGenie_03"
  }
]