[
  {
    "activityID": 5072,
    "musicIDList": [
      1,
      2,
      3,
      4,
      5,
      6,
      7
    ],
    "MJKMHICOFPM": [],
    "startQuestID": 7268401,
    "tutorialID": 11031,
    "npcMarkID": 570,
    "EEOBFHKEAPH": [],
    "EPJMEFHOPNL": []
  },
  {
    "activityID": 2020,
    "musicIDList": [
      8,
      9,
      10,
      11,
      12,
      13,
      14
    ],
    "MJKMHICOFPM": [
      1,
      2,
      3,
      4,
      5,
      6,
      7
    ],
    "tutorialID": 6114,
    "npcMarkID": 773,
    "EEOBFHKEAPH": [
      2343.0,
      210.0,
      -933.0
    ],
    "EPJMEFHOPNL": [
      -2.0,
      0.0,
      3.4000000953674316
    ]
  }
]