[
  {
    "goodsId": 201013,
    "singleLimit": 300,
    "MKGPBFBPEKL": "",
    "FMGGDFIMPGI": ""
  },
  {
    "goodsId": 301016,
    "singleLimit": 300,
    "MKGPBFBPEKL": "",
    "FMGGDFIMPGI": ""
  },
  {
    "goodsId": 405015,
    "singleLimit": 300,
    "MKGPBFBPEKL": "",
    "FMGGDFIMPGI": ""
  },
  {
    "goodsId": 102506,
    "singleLimit": 100,
    "MKGPBFBPEKL": "",
    "FMGGDFIMPGI": ""
  },
  {
    "goodsId": 602001,
    "singleLimit": 1,
    "APJPKPKJKCP": true,
    "MKGPBFBPEKL": "",
    "FMGGDFIMPGI": ""
  },
  {
    "goodsId": 602002,
    "singleLimit": 1,
    "APJPKPKJKCP": true,
    "MKGPBFBPEKL": "",
    "FMGGDFIMPGI": ""
  },
  {
    "goodsId": 602003,
    "singleLimit": 1,
    "APJPKPKJKCP": true,
    "MKGPBFBPEKL": "",
    "FMGGDFIMPGI": ""
  },
  {
    "goodsId": 602004,
    "singleLimit": 1,
    "APJPKPKJKCP": true,
    "MKGPBFBPEKL": "",
    "FMGGDFIMPGI": ""
  },
  {
    "goodsId": 602005,
    "singleLimit": 1,
    "APJPKPKJKCP": true,
    "MKGPBFBPEKL": "",
    "FMGGDFIMPGI": ""
  },
  {
    "goodsId": 602006,
    "singleLimit": 1,
    "APJPKPKJKCP": true,
    "MKGPBFBPEKL": "",
    "FMGGDFIMPGI": ""
  },
  {
    "goodsId": 602007,
    "singleLimit": 1,
    "APJPKPKJKCP": true,
    "MKGPBFBPEKL": "",
    "FMGGDFIMPGI": ""
  },
  {
    "goodsId": 602008,
    "singleLimit": 1,
    "APJPKPKJKCP": true,
    "MKGPBFBPEKL": "",
    "FMGGDFIMPGI": ""
  },
  {
    "goodsId": 602009,
    "singleLimit": 1,
    "APJPKPKJKCP": true,
    "MKGPBFBPEKL": "",
    "FMGGDFIMPGI": ""
  },
  {
    "goodsId": 602010,
    "singleLimit": 1,
    "APJPKPKJKCP": true,
    "MKGPBFBPEKL": "",
    "FMGGDFIMPGI": ""
  },
  {
    "goodsId": 602011,
    "singleLimit": 1,
    "APJPKPKJKCP": true,
    "MKGPBFBPEKL": "",
    "FMGGDFIMPGI": ""
  },
  {
    "goodsId": 602012,
    "singleLimit": 1,
    "APJPKPKJKCP": true,
    "MKGPBFBPEKL": "",
    "FMGGDFIMPGI": ""
  },
  {
    "goodsId": 602013,
    "singleLimit": 1,
    "APJPKPKJKCP": true,
    "MKGPBFBPEKL": "",
    "FMGGDFIMPGI": ""
  },
  {
    "goodsId": 602014,
    "singleLimit": 1,
    "APJPKPKJKCP": true,
    "MKGPBFBPEKL": "",
    "FMGGDFIMPGI": ""
  },
  {
    "goodsId": 602015,
    "singleLimit": 1,
    "APJPKPKJKCP": true,
    "MKGPBFBPEKL": "",
    "FMGGDFIMPGI": ""
  },
  {
    "goodsId": 602016,
    "singleLimit": 1,
    "APJPKPKJKCP": true,
    "MKGPBFBPEKL": "",
    "FMGGDFIMPGI": ""
  },
  {
    "goodsId": 603001,
    "singleLimit": 1,
    "MKGPBFBPEKL": "QUEST_SmugglerShopLimit",
    "FMGGDFIMPGI": ""
  },
  {
    "goodsId": 603002,
    "singleLimit": 2,
    "MKGPBFBPEKL": "QUEST_SmugglerShopLimit",
    "FMGGDFIMPGI": ""
  },
  {
    "goodsId": 1003105,
    "singleLimit": 1,
    "MKGPBFBPEKL": "",
    "FMGGDFIMPGI": "UI_ACTIVITY_TREASUREHUNTV4_SHOP_TIP"
  },
  {
    "goodsId": 1003106,
    "singleLimit": 1,
    "MKGPBFBPEKL": "",
    "FMGGDFIMPGI": "UI_ACTIVITY_TREASUREHUNTV4_SHOP_TIP"
  },
  {
    "goodsId": 1003107,
    "singleLimit": 1,
    "MKGPBFBPEKL": "",
    "FMGGDFIMPGI": "UI_ACTIVITY_TREASUREHUNTV4_SHOP_TIP"
  },
  {
    "goodsId": 1003108,
    "singleLimit": 1,
    "MKGPBFBPEKL": "",
    "FMGGDFIMPGI": "UI_ACTIVITY_TREASUREHUNTV4_SHOP_TIP"
  },
  {
    "goodsId": 1003109,
    "singleLimit": 1,
    "MKGPBFBPEKL": "",
    "FMGGDFIMPGI": "UI_ACTIVITY_TREASUREHUNTV4_SHOP_TIP"
  },
  {
    "goodsId": 1003110,
    "singleLimit": 1,
    "MKGPBFBPEKL": "",
    "FMGGDFIMPGI": "UI_ACTIVITY_TREASUREHUNTV4_SHOP_TIP"
  }
]