[
  {
    "rewardGroup": 1,
    "floor": 1,
    "rewardId3Stars": 610001,
    "rewardId6Stars": 610021,
    "rewardId9Stars": 610041,
    "rewardIdRoom": [
      621001,
      621002,
      621003
    ]
  },
  {
    "rewardGroup": 1,
    "floor": 2,
    "rewardId3Stars": 610002,
    "rewardId6Stars": 610022,
    "rewardId9Stars": 610042,
    "rewardIdRoom": [
      621004,
      621005,
      621006
    ]
  },
  {
    "rewardGroup": 1,
    "floor": 3,
    "rewardId3Stars": 610003,
    "rewardId6Stars": 610023,
    "rewardId9Stars": 610043,
    "rewardIdRoom": [
      621007,
      621008,
      621009
    ]
  },
  {
    "rewardGroup": 1,
    "floor": 4,
    "rewardId3Stars": 610004,
    "rewardId6Stars": 610024,
    "rewardId9Stars": 610044,
    "rewardIdRoom": [
      621010,
      621011,
      621012
    ]
  },
  {
    "rewardGroup": 1,
    "floor": 5,
    "rewardId3Stars": 610005,
    "rewardId6Stars": 610025,
    "rewardId9Stars": 610045,
    "rewardIdRoom": [
      621013,
      621014,
      621015
    ]
  },
  {
    "rewardGroup": 1,
    "floor": 6,
    "rewardId3Stars": 610006,
    "rewardId6Stars": 610026,
    "rewardId9Stars": 610046,
    "rewardIdRoom": [
      621016,
      621017,
      621018
    ]
  },
  {
    "rewardGroup": 1,
    "floor": 7,
    "rewardId3Stars": 610007,
    "rewardId6Stars": 610027,
    "rewardId9Stars": 610047,
    "rewardIdRoom": [
      621019,
      621020,
      621021
    ]
  },
  {
    "rewardGroup": 1,
    "floor": 8,
    "rewardId3Stars": 610008,
    "rewardId6Stars": 610028,
    "rewardId9Stars": 610048,
    "rewardIdRoom": [
      621022,
      621023,
      621024
    ]
  },
  {
    "rewardGroup": 1,
    "floor": 9,
    "rewardId3Stars": 610009,
    "rewardId6Stars": 610029,
    "rewardId9Stars": 610049,
    "rewardIdRoom": [
      621025,
      621026,
      621027
    ]
  },
  {
    "rewardGroup": 1,
    "floor": 10,
    "rewardId3Stars": 610010,
    "rewardId6Stars": 610030,
    "rewardId9Stars": 610050,
    "rewardIdRoom": [
      621028,
      621029,
      621030
    ]
  },
  {
    "rewardGroup": 1,
    "floor": 11,
    "rewardId3Stars": 610011,
    "rewardId6Stars": 610031,
    "rewardId9Stars": 610051,
    "rewardIdRoom": [
      621031,
      621032,
      621033
    ]
  },
  {
    "rewardGroup": 1,
    "floor": 12,
    "rewardId3Stars": 610012,
    "rewardId6Stars": 610032,
    "rewardId9Stars": 610052,
    "rewardIdRoom": [
      621034,
      621035,
      621036
    ]
  },
  {
    "rewardGroup": 2,
    "floor": 1,
    "rewardId3Stars": 610001,
    "rewardId6Stars": 610021,
    "rewardId9Stars": 610041,
    "rewardIdRoom": [
      621001,
      621002,
      621003
    ]
  },
  {
    "rewardGroup": 2,
    "floor": 2,
    "rewardId3Stars": 610002,
    "rewardId6Stars": 610022,
    "rewardId9Stars": 610042,
    "rewardIdRoom": [
      621004,
      621005,
      621006
    ]
  },
  {
    "rewardGroup": 2,
    "floor": 3,
    "rewardId3Stars": 610003,
    "rewardId6Stars": 610023,
    "rewardId9Stars": 610043,
    "rewardIdRoom": [
      621007,
      621008,
      621009
    ]
  },
  {
    "rewardGroup": 2,
    "floor": 4,
    "rewardId3Stars": 610004,
    "rewardId6Stars": 610024,
    "rewardId9Stars": 610044,
    "rewardIdRoom": [
      621010,
      621011,
      621012
    ]
  },
  {
    "rewardGroup": 2,
    "floor": 5,
    "rewardId3Stars": 610005,
    "rewardId6Stars": 610025,
    "rewardId9Stars": 610045,
    "rewardIdRoom": [
      621013,
      621014,
      621015
    ]
  },
  {
    "rewardGroup": 2,
    "floor": 6,
    "rewardId3Stars": 610006,
    "rewardId6Stars": 610026,
    "rewardId9Stars": 610046,
    "rewardIdRoom": [
      621016,
      621017,
      621018
    ]
  },
  {
    "rewardGroup": 2,
    "floor": 7,
    "rewardId3Stars": 610007,
    "rewardId6Stars": 610027,
    "rewardId9Stars": 610047,
    "rewardIdRoom": [
      621019,
      621020,
      621021
    ]
  },
  {
    "rewardGroup": 2,
    "floor": 8,
    "rewardId3Stars": 610008,
    "rewardId6Stars": 610028,
    "rewardId9Stars": 610048,
    "rewardIdRoom": [
      621022,
      621023,
      621024
    ]
  },
  {
    "rewardGroup": 2,
    "floor": 9,
    "rewardId3Stars": 610009,
    "rewardId6Stars": 610029,
    "rewardId9Stars": 610049,
    "rewardIdRoom": [
      622601,
      622602,
      622603
    ]
  },
  {
    "rewardGroup": 2,
    "floor": 10,
    "rewardId3Stars": 610010,
    "rewardId6Stars": 610030,
    "rewardId9Stars": 610050,
    "rewardIdRoom": [
      622604,
      622605,
      622606
    ]
  },
  {
    "rewardGroup": 2,
    "floor": 11,
    "rewardId3Stars": 610011,
    "rewardId6Stars": 610031,
    "rewardId9Stars": 610051,
    "rewardIdRoom": [
      622607,
      622608,
      622609
    ]
  },
  {
    "rewardGroup": 2,
    "floor": 12,
    "rewardId3Stars": 610012,
    "rewardId6Stars": 610032,
    "rewardId9Stars": 610052,
    "rewardIdRoom": [
      622610,
      622611,
      622612
    ]
  },
  {
    "rewardGroup": 3,
    "floor": 1,
    "rewardId3Stars": 610001,
    "rewardId6Stars": 610021,
    "rewardId9Stars": 610041,
    "rewardIdRoom": [
      621001,
      621002,
      621003
    ]
  },
  {
    "rewardGroup": 3,
    "floor": 2,
    "rewardId3Stars": 610002,
    "rewardId6Stars": 610022,
    "rewardId9Stars": 610042,
    "rewardIdRoom": [
      621004,
      621005,
      621006
    ]
  },
  {
    "rewardGroup": 3,
    "floor": 3,
    "rewardId3Stars": 610003,
    "rewardId6Stars": 610023,
    "rewardId9Stars": 610043,
    "rewardIdRoom": [
      621007,
      621008,
      621009
    ]
  },
  {
    "rewardGroup": 3,
    "floor": 4,
    "rewardId3Stars": 610004,
    "rewardId6Stars": 610024,
    "rewardId9Stars": 610044,
    "rewardIdRoom": [
      621010,
      621011,
      621012
    ]
  },
  {
    "rewardGroup": 3,
    "floor": 5,
    "rewardId3Stars": 610005,
    "rewardId6Stars": 610025,
    "rewardId9Stars": 610045,
    "rewardIdRoom": [
      621013,
      621014,
      621015
    ]
  },
  {
    "rewardGroup": 3,
    "floor": 6,
    "rewardId3Stars": 610006,
    "rewardId6Stars": 610026,
    "rewardId9Stars": 610046,
    "rewardIdRoom": [
      621016,
      621017,
      621018
    ]
  },
  {
    "rewardGroup": 3,
    "floor": 7,
    "rewardId3Stars": 610007,
    "rewardId6Stars": 610027,
    "rewardId9Stars": 610047,
    "rewardIdRoom": [
      621019,
      621020,
      621021
    ]
  },
  {
    "rewardGroup": 3,
    "floor": 8,
    "rewardId3Stars": 610008,
    "rewardId6Stars": 610028,
    "rewardId9Stars": 610048,
    "rewardIdRoom": [
      621022,
      621023,
      621024
    ]
  },
  {
    "rewardGroup": 3,
    "floor": 9,
    "rewardId3Stars": 610009,
    "rewardId6Stars": 610029,
    "rewardId9Stars": 610049,
    "rewardIdRoom": [
      623001,
      623002,
      623003
    ]
  },
  {
    "rewardGroup": 3,
    "floor": 10,
    "rewardId3Stars": 610010,
    "rewardId6Stars": 610030,
    "rewardId9Stars": 610050,
    "rewardIdRoom": [
      623004,
      623005,
      623006
    ]
  },
  {
    "rewardGroup": 3,
    "floor": 11,
    "rewardId3Stars": 610011,
    "rewardId6Stars": 610031,
    "rewardId9Stars": 610051,
    "rewardIdRoom": [
      623007,
      623008,
      623009
    ]
  },
  {
    "rewardGroup": 3,
    "floor": 12,
    "rewardId3Stars": 610012,
    "rewardId6Stars": 610032,
    "rewardId9Stars": 610052,
    "rewardIdRoom": [
      623010,
      623011,
      623012
    ]
  },
  {
    "rewardGroup": 4,
    "floor": 1,
    "rewardId3Stars": 610001,
    "rewardId6Stars": 610021,
    "rewardId9Stars": 610041,
    "rewardIdRoom": [
      621001,
      621002,
      621003
    ]
  },
  {
    "rewardGroup": 4,
    "floor": 2,
    "rewardId3Stars": 610002,
    "rewardId6Stars": 610022,
    "rewardId9Stars": 610042,
    "rewardIdRoom": [
      621004,
      621005,
      621006
    ]
  },
  {
    "rewardGroup": 4,
    "floor": 3,
    "rewardId3Stars": 610003,
    "rewardId6Stars": 610023,
    "rewardId9Stars": 610043,
    "rewardIdRoom": [
      621007,
      621008,
      621009
    ]
  },
  {
    "rewardGroup": 4,
    "floor": 4,
    "rewardId3Stars": 610004,
    "rewardId6Stars": 610024,
    "rewardId9Stars": 610044,
    "rewardIdRoom": [
      621010,
      621011,
      621012
    ]
  },
  {
    "rewardGroup": 4,
    "floor": 5,
    "rewardId3Stars": 610005,
    "rewardId6Stars": 610025,
    "rewardId9Stars": 610045,
    "rewardIdRoom": [
      621013,
      621014,
      621015
    ]
  },
  {
    "rewardGroup": 4,
    "floor": 6,
    "rewardId3Stars": 610006,
    "rewardId6Stars": 610026,
    "rewardId9Stars": 610046,
    "rewardIdRoom": [
      621016,
      621017,
      621018
    ]
  },
  {
    "rewardGroup": 4,
    "floor": 7,
    "rewardId3Stars": 610007,
    "rewardId6Stars": 610027,
    "rewardId9Stars": 610047,
    "rewardIdRoom": [
      621019,
      621020,
      621021
    ]
  },
  {
    "rewardGroup": 4,
    "floor": 8,
    "rewardId3Stars": 610008,
    "rewardId6Stars": 610028,
    "rewardId9Stars": 610048,
    "rewardIdRoom": [
      621022,
      621023,
      621024
    ]
  },
  {
    "rewardGroup": 4,
    "floor": 9,
    "rewardId3Stars": 610009,
    "rewardId6Stars": 610029,
    "rewardId9Stars": 610049,
    "rewardIdRoom": [
      623301,
      623302,
      623303
    ]
  },
  {
    "rewardGroup": 4,
    "floor": 10,
    "rewardId3Stars": 610010,
    "rewardId6Stars": 610030,
    "rewardId9Stars": 610050,
    "rewardIdRoom": [
      623304,
      623305,
      623306
    ]
  },
  {
    "rewardGroup": 4,
    "floor": 11,
    "rewardId3Stars": 610011,
    "rewardId6Stars": 610031,
    "rewardId9Stars": 610051,
    "rewardIdRoom": [
      623307,
      623308,
      623309
    ]
  },
  {
    "rewardGroup": 4,
    "floor": 12,
    "rewardId3Stars": 610012,
    "rewardId6Stars": 610032,
    "rewardId9Stars": 610052,
    "rewardIdRoom": [
      623310,
      623311,
      623312
    ]
  },
  {
    "rewardGroup": 5,
    "floor": 1,
    "rewardId3Stars": 610001,
    "rewardId6Stars": 610021,
    "rewardId9Stars": 610041,
    "rewardIdRoom": [
      621001,
      621002,
      621003
    ]
  },
  {
    "rewardGroup": 5,
    "floor": 2,
    "rewardId3Stars": 610002,
    "rewardId6Stars": 610022,
    "rewardId9Stars": 610042,
    "rewardIdRoom": [
      621004,
      621005,
      621006
    ]
  },
  {
    "rewardGroup": 5,
    "floor": 3,
    "rewardId3Stars": 610003,
    "rewardId6Stars": 610023,
    "rewardId9Stars": 610043,
    "rewardIdRoom": [
      621007,
      621008,
      621009
    ]
  },
  {
    "rewardGroup": 5,
    "floor": 4,
    "rewardId3Stars": 610004,
    "rewardId6Stars": 610024,
    "rewardId9Stars": 610044,
    "rewardIdRoom": [
      621010,
      621011,
      621012
    ]
  },
  {
    "rewardGroup": 5,
    "floor": 5,
    "rewardId3Stars": 610005,
    "rewardId6Stars": 610025,
    "rewardId9Stars": 610045,
    "rewardIdRoom": [
      621013,
      621014,
      621015
    ]
  },
  {
    "rewardGroup": 5,
    "floor": 6,
    "rewardId3Stars": 610006,
    "rewardId6Stars": 610026,
    "rewardId9Stars": 610046,
    "rewardIdRoom": [
      621016,
      621017,
      621018
    ]
  },
  {
    "rewardGroup": 5,
    "floor": 7,
    "rewardId3Stars": 610007,
    "rewardId6Stars": 610027,
    "rewardId9Stars": 610047,
    "rewardIdRoom": [
      621019,
      621020,
      621021
    ]
  },
  {
    "rewardGroup": 5,
    "floor": 8,
    "rewardId3Stars": 610008,
    "rewardId6Stars": 610028,
    "rewardId9Stars": 610048,
    "rewardIdRoom": [
      621022,
      621023,
      621024
    ]
  },
  {
    "rewardGroup": 5,
    "floor": 9,
    "rewardId3Stars": 610009,
    "rewardId6Stars": 610029,
    "rewardId9Stars": 610049,
    "rewardIdRoom": [
      623601,
      623602,
      623603
    ]
  },
  {
    "rewardGroup": 5,
    "floor": 10,
    "rewardId3Stars": 610010,
    "rewardId6Stars": 610030,
    "rewardId9Stars": 610050,
    "rewardIdRoom": [
      623604,
      623605,
      623606
    ]
  },
  {
    "rewardGroup": 5,
    "floor": 11,
    "rewardId3Stars": 610011,
    "rewardId6Stars": 610031,
    "rewardId9Stars": 610051,
    "rewardIdRoom": [
      623607,
      623608,
      623609
    ]
  },
  {
    "rewardGroup": 5,
    "floor": 12,
    "rewardId3Stars": 610012,
    "rewardId6Stars": 610032,
    "rewardId9Stars": 610052,
    "rewardIdRoom": [
      623610,
      623611,
      623612
    ]
  },
  {
    "rewardGroup": 6,
    "floor": 1,
    "rewardId3Stars": 610001,
    "rewardId6Stars": 610021,
    "rewardId9Stars": 610041,
    "rewardIdRoom": [
      621001,
      621002,
      621003
    ]
  },
  {
    "rewardGroup": 6,
    "floor": 2,
    "rewardId3Stars": 610002,
    "rewardId6Stars": 610022,
    "rewardId9Stars": 610042,
    "rewardIdRoom": [
      621004,
      621005,
      621006
    ]
  },
  {
    "rewardGroup": 6,
    "floor": 3,
    "rewardId3Stars": 610003,
    "rewardId6Stars": 610023,
    "rewardId9Stars": 610043,
    "rewardIdRoom": [
      621007,
      621008,
      621009
    ]
  },
  {
    "rewardGroup": 6,
    "floor": 4,
    "rewardId3Stars": 610004,
    "rewardId6Stars": 610024,
    "rewardId9Stars": 610044,
    "rewardIdRoom": [
      621010,
      621011,
      621012
    ]
  },
  {
    "rewardGroup": 6,
    "floor": 5,
    "rewardId3Stars": 610005,
    "rewardId6Stars": 610025,
    "rewardId9Stars": 610045,
    "rewardIdRoom": [
      621013,
      621014,
      621015
    ]
  },
  {
    "rewardGroup": 6,
    "floor": 6,
    "rewardId3Stars": 610006,
    "rewardId6Stars": 610026,
    "rewardId9Stars": 610046,
    "rewardIdRoom": [
      621016,
      621017,
      621018
    ]
  },
  {
    "rewardGroup": 6,
    "floor": 7,
    "rewardId3Stars": 610007,
    "rewardId6Stars": 610027,
    "rewardId9Stars": 610047,
    "rewardIdRoom": [
      621019,
      621020,
      621021
    ]
  },
  {
    "rewardGroup": 6,
    "floor": 8,
    "rewardId3Stars": 610008,
    "rewardId6Stars": 610028,
    "rewardId9Stars": 610048,
    "rewardIdRoom": [
      621022,
      621023,
      621024
    ]
  },
  {
    "rewardGroup": 6,
    "floor": 9,
    "rewardId3Stars": 610009,
    "rewardId6Stars": 610029,
    "rewardId9Stars": 610049,
    "rewardIdRoom": [
      624001,
      624002,
      624003
    ]
  },
  {
    "rewardGroup": 6,
    "floor": 10,
    "rewardId3Stars": 610010,
    "rewardId6Stars": 610030,
    "rewardId9Stars": 610050,
    "rewardIdRoom": [
      624004,
      624005,
      624006
    ]
  },
  {
    "rewardGroup": 6,
    "floor": 11,
    "rewardId3Stars": 610011,
    "rewardId6Stars": 610031,
    "rewardId9Stars": 610051,
    "rewardIdRoom": [
      624007,
      624008,
      624009
    ]
  },
  {
    "rewardGroup": 6,
    "floor": 12,
    "rewardId3Stars": 610012,
    "rewardId6Stars": 610032,
    "rewardId9Stars": 610052,
    "rewardIdRoom": [
      624010,
      624011,
      624012
    ]
  },
  {
    "rewardGroup": 7,
    "floor": 1,
    "rewardId3Stars": 610001,
    "rewardId6Stars": 610021,
    "rewardId9Stars": 610041,
    "rewardIdRoom": [
      621001,
      621002,
      621003
    ]
  },
  {
    "rewardGroup": 7,
    "floor": 2,
    "rewardId3Stars": 610002,
    "rewardId6Stars": 610022,
    "rewardId9Stars": 610042,
    "rewardIdRoom": [
      621004,
      621005,
      621006
    ]
  },
  {
    "rewardGroup": 7,
    "floor": 3,
    "rewardId3Stars": 610003,
    "rewardId6Stars": 610023,
    "rewardId9Stars": 610043,
    "rewardIdRoom": [
      621007,
      621008,
      621009
    ]
  },
  {
    "rewardGroup": 7,
    "floor": 4,
    "rewardId3Stars": 610004,
    "rewardId6Stars": 610024,
    "rewardId9Stars": 610044,
    "rewardIdRoom": [
      621010,
      621011,
      621012
    ]
  },
  {
    "rewardGroup": 7,
    "floor": 5,
    "rewardId3Stars": 610005,
    "rewardId6Stars": 610025,
    "rewardId9Stars": 610045,
    "rewardIdRoom": [
      621013,
      621014,
      621015
    ]
  },
  {
    "rewardGroup": 7,
    "floor": 6,
    "rewardId3Stars": 610006,
    "rewardId6Stars": 610026,
    "rewardId9Stars": 610046,
    "rewardIdRoom": [
      621016,
      621017,
      621018
    ]
  },
  {
    "rewardGroup": 7,
    "floor": 7,
    "rewardId3Stars": 610007,
    "rewardId6Stars": 610027,
    "rewardId9Stars": 610047,
    "rewardIdRoom": [
      621019,
      621020,
      621021
    ]
  },
  {
    "rewardGroup": 7,
    "floor": 8,
    "rewardId3Stars": 610008,
    "rewardId6Stars": 610028,
    "rewardId9Stars": 610048,
    "rewardIdRoom": [
      621022,
      621023,
      621024
    ]
  },
  {
    "rewardGroup": 7,
    "floor": 9,
    "rewardId3Stars": 610009,
    "rewardId6Stars": 610029,
    "rewardId9Stars": 610049,
    "rewardIdRoom": [
      624301,
      624302,
      624303
    ]
  },
  {
    "rewardGroup": 7,
    "floor": 10,
    "rewardId3Stars": 610010,
    "rewardId6Stars": 610030,
    "rewardId9Stars": 610050,
    "rewardIdRoom": [
      624304,
      624305,
      624306
    ]
  },
  {
    "rewardGroup": 7,
    "floor": 11,
    "rewardId3Stars": 610011,
    "rewardId6Stars": 610031,
    "rewardId9Stars": 610051,
    "rewardIdRoom": [
      624307,
      624308,
      624309
    ]
  },
  {
    "rewardGroup": 7,
    "floor": 12,
    "rewardId3Stars": 610012,
    "rewardId6Stars": 610032,
    "rewardId9Stars": 610052,
    "rewardIdRoom": [
      624310,
      624311,
      624312
    ]
  }
]