{
    "luaDataPath": "",
    "entityBan": "",
    "disableNpcLod": true,
    "isAutoBanNpc": true,
    "isBanWidgetPet": true,
    "protectNpcMobileLod": true,
    "LIICEPFFGMH": 7,
    "startFade": {
        "startFadeOutDuration": 0.0
    },
    "endFade": {
        "startFadeOutDuration": 0.0
    },
    "actors": [
        {
            "alias": "Avatar",
            "visible": true,
            "bornPointName": "",
            "relativePosType": "AVATAR_NEW",
            "relativePosNpcAlias": "",
            "notDestroyInTalk": true,
            "bindMovingTargetKey": ""
        },
        {
            "configID": 1082,
            "alias": "1082",
            "visible": true,
            "bornPointName": "",
            "relativePosType": "AVATAR_NEW",
            "relativePosNpcAlias": "",
            "notDestroyInTalk": true,
            "bindMovingTargetKey": ""
        }
    ],
    "group": [
        [
            {
                "$type": "MoleMole.Config.ConfigCameraFocusNewInterAction",
                "type": "CAMERA_FOCUS_NEW",
                "duration": 0.5,
                "actionId": 120,
                "focusExtendedSetting": {
                    "duration": 1.0,
                    "refPosData": {
                        "npcAlias": ""
                    },
                    "tarPosData": {
                        "npcAlias": ""
                    }
                }
            },
            {
                "$type": "MoleMole.Config.ConfigTimeProtectAction",
                "type": "TIME_PROTECT",
                "duration": 0.00800000037997961,
                "actionId": 125
            },
            {
                "$type": "MoleMole.Config.ConfigSitOrStandAction",
                "type": "SIT_OR_STAND",
                "aliasList": [
                    "Avatar"
                ],
                "actionId": 115,
                "flag": 8192,
                "banResetFreestyle": true
            },
            {
                "$type": "EAMBKPBOPIC",
                "type": "LOOK_AT",
                "aliasList": [
                    "Avatar"
                ],
                "actionId": 123,
                "flag": 64,
                "FIDJDPAIFDN": true,
                "BCHGCKLKNEH": 0.5,
                "OMCCMPHDLOO": "1082",
                "EOHIIHMKDJC": true,
                "NALDAIJKCML": 10.0,
                "KPCALFDIHMC": "",
                "DBLNLMOPEBP": ""
            },
            {
                "$type": "OOMFCPJAJGL",
                "type": "STEER_TO",
                "duration": 0.800000011920929,
                "aliasList": [
                    "Avatar"
                ],
                "actionId": 126,
                "flag": 32,
                "DMGIIHNDNLC": "TO_TARGET_ADVANCED",
                "HCMINPNPFDF": true,
                "PENAEBFAHCH": true,
                "CKOEAJFMDON": true,
                "OMCCMPHDLOO": "1082",
                "PPGPCHDAOJG": true,
                "DBLNLMOPEBP": ""
            },
            {
                "$type": "EAMBKPBOPIC",
                "type": "LOOK_AT",
                "aliasList": [
                    "1082"
                ],
                "actionId": 122,
                "flag": 64,
                "FIDJDPAIFDN": true,
                "BCHGCKLKNEH": 0.5,
                "OMCCMPHDLOO": "Avatar",
                "EOHIIHMKDJC": true,
                "NALDAIJKCML": 10.0,
                "KPCALFDIHMC": "",
                "DBLNLMOPEBP": ""
            },
            {
                "$type": "MoleMole.Config.ConfigSitOrStandAction",
                "type": "SIT_OR_STAND",
                "aliasList": [
                    "1082"
                ],
                "actionId": 132,
                "flag": 8192,
                "isSit": true,
                "banResetFreestyle": true
            }
        ],
        [
            {
                "$type": "DLPFECMKEKH",
                "type": "DIALOG",
                "aliasList": [
                    "1082"
                ],
                "actionId": 107,
                "NMKEDPFEKBH": 401350601,
                "JLCHMAJCAPA": 0.5
            },
            {
                "$type": "ILCGAGEGDJI",
                "type": "BODY_LANG",
                "aliasList": [
                    "1082"
                ],
                "actionId": 127,
                "FLBOOPHHFJP": 8012,
                "PMJAMGLAJGK": true,
                "LIMPPBIAKGL": false,
                "FNEGLPPEBBF": true,
                "FNDLJGEAMGI": ""
            },
            {
                "$type": "OPCCDGPJCJI",
                "type": "EMO_SYNC",
                "aliasList": [
                    "1082"
                ],
                "actionId": 131,
                "flag": 320,
                "IONNJBCBACJ": "Cs_Emo_Avatar_Simple_Common_Set/Cs_Emo_Avatar_Talk/Cs_Emo_Avatar_Event/Cs_Emo_Filmfest/Cs_Emo_401350601",
                "HLEJKBCMNNJ": "",
                "JGHLJJLNGPP": "",
                "MANNKIIBOFM": "",
                "COMNAAFDEDH": "",
                "CPGCCLNOCDK": "",
                "IGEFGCJKCPM": [
                    9533855120093558132,
                    7563633757466240047,
                    9947870699817742104,
                    3439042000617091946
                ]
            }
        ],
        [
            {
                "$type": "MoleMole.Config.ConfigTimeProtectAction",
                "type": "TIME_PROTECT",
                "duration": 0.10000000149011612,
                "actionId": 124
            },
            {
                "$type": "ILCGAGEGDJI",
                "type": "BODY_LANG",
                "aliasList": [
                    "1082"
                ],
                "actionId": 111,
                "JLABKFNJCNP": true,
                "PMJAMGLAJGK": true,
                "LIMPPBIAKGL": false,
                "FNDLJGEAMGI": ""
            },
            {
                "$type": "EAMBKPBOPIC",
                "type": "LOOK_AT",
                "aliasList": [
                    "1082"
                ],
                "actionId": 128,
                "flag": 64,
                "BCHGCKLKNEH": 0.5,
                "OMCCMPHDLOO": "",
                "EOHIIHMKDJC": true,
                "NALDAIJKCML": 10.0,
                "KPCALFDIHMC": "",
                "DBLNLMOPEBP": ""
            }
        ]
    ],
    "groupId": [
        {
            "grpId": 1028268438,
            "nextGrpId": 1028268439
        },
        {
            "index": 1,
            "grpId": 1028268439,
            "nextGrpId": 1028268440
        },
        {
            "index": 2,
            "grpId": 1028268440,
            "nextGrpId": 1028268441
        }
    ],
    "freeStyleDic": {
        "1082": [
            8012
        ]
    },
    "NKMHEOFLONH": {
        "1082": [
            "SitChat01AS",
            "SitDowncast01AS",
            "SitHoldArm01AS",
            "SitPutArm01AS",
            "SitShrug01AS",
            "SitThink01AS"
        ]
    },
    "EEPECPFCFCB": {
        "NBMCAFGDPDO": "",
        "GLCHGCDCFFF": ""
    }
}