{
    "luaDataPath": "",
    "entityBan": "",
    "group": [
        [
            {
                "$type": "MoleMole.Config.ConfigUITriggerInterAction",
                "type": "UI_TRIGGER",
                "contextName": "InLevelTimeShiftPage",
                "param": ""
            },
            {
                "$type": "MOOOKOKLLEI",
                "type": "CAMERA_MOVE",
                "duration": 1.0,
                "IPHEFBOANAL": "RELATIVE_TO_INTEE_ONLY",
                "DOKGBCKOLJK": {
                    "x": 3.0,
                    "y": 2.0,
                    "z": 9.0
                },
                "JEIFACJKNOB": 20.0,
                "DGGAJKMNNKE": "TO_INTEE",
                "HGKCPMDICGG": {
                    "y": 3.0
                },
                "OMPKKAFEHPN": 5.0,
                "OMCCMPHDLOO": "",
                "OCFGGGHIKOO": "",
                "LJFHGGJDPHH": "",
                "LPKDFKLNEHL": ""
            }
        ],
        [
            {
                "$type": "MOOOKOKLLEI",
                "type": "CAMERA_MOVE",
                "duration": 1.0,
                "IPHEFBOANAL": "EXIT",
                "DGGAJKMNNKE": "TO_INTEE",
                "OMPKKAFEHPN": 5.0,
                "MGMFMGNANHH": 6,
                "OMCCMPHDLOO": "",
                "OCFGGGHIKOO": "",
                "LJFHGGJDPHH": "",
                "LPKDFKLNEHL": ""
            }
        ]
    ]
}