{
    "luaDataPath": "",
    "entityBan": "",
    "group": [
        [
            {
                "$type": "MoleMole.Config.ConfigUITriggerInterAction",
                "type": "UI_TRIGGER",
                "contextName": "MichiaeMatsuriBossChallengePage",
                "param": ""
            },
            {
                "$type": "MOOOKOKLLEI",
                "type": "CAMERA_MOVE",
                "duration": 0.75,
                "IPHEFBOANAL": "RELATIVE_TO_INTEE_ONLY",
                "DOKGBCKOLJK": {
                    "x": -2.109999895095825,
                    "y": 0.6600000262260437,
                    "z": 6.0
                },
                "JEIFACJKNOB": 5.0,
                "DGGAJKMNNKE": "RELATIVE_TO_INTEE_FORWARD",
                "HGKCPMDICGG": {
                    "x": -1.7799999713897705,
                    "y": 1.4500000476837158,
                    "z": 1.1799999475479126
                },
                "AFODHELHCGB": 40.0,
                "OMPKKAFEHPN": 1.0,
                "NDFGFJFGHKL": "EaseInOutQuad",
                "IBCBGNHCICN": {},
                "OMCCMPHDLOO": "",
                "OCFGGGHIKOO": "",
                "LJFHGGJDPHH": "",
                "LPKDFKLNEHL": ""
            }
        ],
        [
            {
                "$type": "MOOOKOKLLEI",
                "type": "CAMERA_MOVE",
                "duration": 0.75,
                "IPHEFBOANAL": "EXIT",
                "DGGAJKMNNKE": "TO_INTEE",
                "OMPKKAFEHPN": 5.0,
                "OMCCMPHDLOO": "",
                "OCFGGGHIKOO": "",
                "LJFHGGJDPHH": "",
                "LPKDFKLNEHL": ""
            }
        ]
    ]
}