{
    "luaDataPath": "",
    "entityBan": "",
    "isKeyInteraction": false,
    "group": [
        [
            {
                "$type": "MoleMole.Config.ConfigUITriggerInterAction",
                "type": "UI_TRIGGER",
                "contextName": "MusicDifficultyDialog",
                "param": "1"
            },
            {
                "$type": "DLPFECMKEKH",
                "type": "DIALOG_CLEAR",
                "NGODOHEPOOE": false
            }
        ],
        [
            {
                "$type": "MOOOKOKLLEI",
                "type": "CAMERA_MOVE",
                "duration": 1.0,
                "IPHEFBOANAL": "EXIT",
                "DGGAJKMNNKE": "TO_INTEE",
                "OMPKKAFEHPN": 5.0,
                "OMCCMPHDLOO": "",
                "OCFGGGHIKOO": "",
                "LJFHGGJDPHH": "",
                "LPKDFKLNEHL": ""
            }
        ]
    ]
}