{
    "coopInteractionMap": {
        "1901001": {
            "id": 1901001,
            "coopMap": {
                "111": {
                    "$type": "HPKBPKNNAFI",
                    "CJPNLCDCNCG": 111,
                    "NNFEMOCCPOP": "COOP_NODE_SELECT",
                    "OLLCIMCAAPD": [
                        114,
                        113
                    ],
                    "HLCIDKJGFHF": [
                        {
                            "GBCAFJHNHLO": 190100199,
                            "KDEKKNPDHPC": {},
                            "JAKMCDANHPG": {}
                        },
                        {
                            "GBCAFJHNHLO": 190100198,
                            "KDEKKNPDHPC": {},
                            "JAKMCDANHPG": {}
                        }
                    ]
                },
                "110": {
                    "$type": "DOEBOPCACKJ",
                    "CJPNLCDCNCG": 110,
                    "NNFEMOCCPOP": "COOP_NODE_TALK",
                    "OLLCIMCAAPD": [
                        111
                    ],
                    "LFHAJOIGMOB": {
                        "id": 110,
                        "performCfg": "QuestDialogue/COOP/Coop105301/Q1901001",
                        "loadType": "TALK_COOP",
                        "questId": 19010,
                        "assetIndex": 16961554884635591184,
                        "prePerformCfg": ""
                    }
                },
                "115": {
                    "$type": "HPKBPKNNAFI",
                    "CJPNLCDCNCG": 115,
                    "NNFEMOCCPOP": "COOP_NODE_SELECT",
                    "OLLCIMCAAPD": [
                        117,
                        118
                    ],
                    "HLCIDKJGFHF": [
                        {
                            "GBCAFJHNHLO": 190100299,
                            "KDEKKNPDHPC": {},
                            "JAKMCDANHPG": {}
                        },
                        {
                            "GBCAFJHNHLO": 190100298,
                            "KDEKKNPDHPC": {},
                            "JAKMCDANHPG": {}
                        }
                    ]
                },
                "114": {
                    "$type": "DOEBOPCACKJ",
                    "CJPNLCDCNCG": 114,
                    "NNFEMOCCPOP": "COOP_NODE_TALK",
                    "OLLCIMCAAPD": [
                        115
                    ],
                    "LFHAJOIGMOB": {
                        "id": 114,
                        "performCfg": "QuestDialogue/COOP/Coop105301/Q1901002",
                        "loadType": "TALK_COOP",
                        "questId": 19010,
                        "assetIndex": 2560479361598717959,
                        "prePerformCfg": ""
                    }
                },
                "117": {
                    "$type": "DOEBOPCACKJ",
                    "CJPNLCDCNCG": 117,
                    "NNFEMOCCPOP": "COOP_NODE_TALK",
                    "OLLCIMCAAPD": [
                        18
                    ],
                    "LFHAJOIGMOB": {
                        "id": 117,
                        "performCfg": "QuestDialogue/COOP/Coop105301/Q1901005",
                        "loadType": "TALK_COOP",
                        "questId": 19010,
                        "assetIndex": 7746789976313930301,
                        "prePerformCfg": ""
                    }
                },
                "18": {
                    "$type": "OEIMMGLADPN",
                    "CJPNLCDCNCG": 18,
                    "NNFEMOCCPOP": "COOP_NODE_END",
                    "MILIKGJLDIK": 19010011
                },
                "118": {
                    "$type": "DOEBOPCACKJ",
                    "CJPNLCDCNCG": 118,
                    "NNFEMOCCPOP": "COOP_NODE_TALK",
                    "OLLCIMCAAPD": [
                        26
                    ],
                    "LFHAJOIGMOB": {
                        "id": 118,
                        "performCfg": "QuestDialogue/COOP/Coop105301/Q1901004",
                        "loadType": "TALK_COOP",
                        "questId": 19010,
                        "assetIndex": 16814866827301684078,
                        "prePerformCfg": ""
                    }
                },
                "26": {
                    "$type": "OEIMMGLADPN",
                    "CJPNLCDCNCG": 26,
                    "NNFEMOCCPOP": "COOP_NODE_END",
                    "MILIKGJLDIK": 19010012
                },
                "113": {
                    "$type": "DOEBOPCACKJ",
                    "CJPNLCDCNCG": 113,
                    "NNFEMOCCPOP": "COOP_NODE_TALK",
                    "OLLCIMCAAPD": [
                        27
                    ],
                    "LFHAJOIGMOB": {
                        "id": 113,
                        "performCfg": "QuestDialogue/COOP/Coop105301/Q1901003",
                        "loadType": "TALK_COOP",
                        "questId": 19010,
                        "assetIndex": 5439727225271746909,
                        "prePerformCfg": ""
                    }
                },
                "27": {
                    "$type": "OEIMMGLADPN",
                    "CJPNLCDCNCG": 27,
                    "NNFEMOCCPOP": "COOP_NODE_END",
                    "MILIKGJLDIK": 19010013
                }
            },
            "startNodeId": 110
        },
        "1901201": {
            "id": 1901201,
            "coopMap": {
                "47": {
                    "$type": "DOEBOPCACKJ",
                    "CJPNLCDCNCG": 47,
                    "NNFEMOCCPOP": "COOP_NODE_TALK",
                    "OLLCIMCAAPD": [
                        3
                    ],
                    "LFHAJOIGMOB": {
                        "id": 47,
                        "performCfg": "QuestDialogue/COOP/Coop105301/Q1901201",
                        "loadType": "TALK_COOP",
                        "questId": 19012,
                        "assetIndex": 6810276111411106795,
                        "prePerformCfg": ""
                    }
                },
                "3": {
                    "$type": "OEIMMGLADPN",
                    "CJPNLCDCNCG": 3,
                    "NNFEMOCCPOP": "COOP_NODE_END",
                    "MILIKGJLDIK": 1901201
                }
            },
            "startNodeId": 47
        },
        "1901202": {
            "id": 1901202,
            "coopMap": {
                "102": {
                    "$type": "DOEBOPCACKJ",
                    "CJPNLCDCNCG": 102,
                    "NNFEMOCCPOP": "COOP_NODE_TALK",
                    "OLLCIMCAAPD": [
                        6
                    ],
                    "LFHAJOIGMOB": {
                        "id": 102,
                        "performCfg": "QuestDialogue/COOP/Coop105301/Q1901202",
                        "loadType": "TALK_COOP",
                        "questId": 19012,
                        "assetIndex": 5533157701891293273,
                        "prePerformCfg": ""
                    }
                },
                "6": {
                    "$type": "OEIMMGLADPN",
                    "CJPNLCDCNCG": 6,
                    "NNFEMOCCPOP": "COOP_NODE_END",
                    "MILIKGJLDIK": 1901202
                }
            },
            "startNodeId": 102
        },
        "1901204": {
            "id": 1901204,
            "coopMap": {
                "103": {
                    "$type": "DOEBOPCACKJ",
                    "CJPNLCDCNCG": 103,
                    "NNFEMOCCPOP": "COOP_NODE_TALK",
                    "OLLCIMCAAPD": [
                        8
                    ],
                    "LFHAJOIGMOB": {
                        "id": 103,
                        "performCfg": "QuestDialogue/COOP/Coop105301/Q1901204",
                        "loadType": "TALK_COOP",
                        "questId": 19012,
                        "assetIndex": 1762497069127551210,
                        "prePerformCfg": ""
                    }
                },
                "8": {
                    "$type": "OEIMMGLADPN",
                    "CJPNLCDCNCG": 8,
                    "NNFEMOCCPOP": "COOP_NODE_END",
                    "MILIKGJLDIK": 1901204
                }
            },
            "startNodeId": 103
        },
        "1901205": {
            "id": 1901205,
            "coopMap": {
                "105": {
                    "$type": "HPKBPKNNAFI",
                    "CJPNLCDCNCG": 105,
                    "NNFEMOCCPOP": "COOP_NODE_SELECT",
                    "OLLCIMCAAPD": [
                        108,
                        109
                    ],
                    "HLCIDKJGFHF": [
                        {
                            "GBCAFJHNHLO": 190120399,
                            "KDEKKNPDHPC": {},
                            "JAKMCDANHPG": {}
                        },
                        {
                            "GBCAFJHNHLO": 190120398,
                            "KDEKKNPDHPC": {},
                            "JAKMCDANHPG": {}
                        }
                    ]
                },
                "104": {
                    "$type": "DOEBOPCACKJ",
                    "CJPNLCDCNCG": 104,
                    "NNFEMOCCPOP": "COOP_NODE_TALK",
                    "OLLCIMCAAPD": [
                        105
                    ],
                    "LFHAJOIGMOB": {
                        "id": 104,
                        "performCfg": "QuestDialogue/COOP/Coop105301/Q1901203",
                        "loadType": "TALK_COOP",
                        "questId": 19012,
                        "assetIndex": 18222138942791525455,
                        "prePerformCfg": ""
                    }
                },
                "108": {
                    "$type": "DOEBOPCACKJ",
                    "CJPNLCDCNCG": 108,
                    "NNFEMOCCPOP": "COOP_NODE_TALK",
                    "OLLCIMCAAPD": [
                        14
                    ],
                    "LFHAJOIGMOB": {
                        "id": 108,
                        "performCfg": "QuestDialogue/COOP/Coop105301/Q1901206",
                        "loadType": "TALK_COOP",
                        "questId": 19012,
                        "assetIndex": 13919875783711679579,
                        "prePerformCfg": ""
                    }
                },
                "14": {
                    "$type": "OEIMMGLADPN",
                    "CJPNLCDCNCG": 14,
                    "NNFEMOCCPOP": "COOP_NODE_END",
                    "MILIKGJLDIK": 19012051
                },
                "109": {
                    "$type": "DOEBOPCACKJ",
                    "CJPNLCDCNCG": 109,
                    "NNFEMOCCPOP": "COOP_NODE_TALK",
                    "OLLCIMCAAPD": [
                        20
                    ],
                    "LFHAJOIGMOB": {
                        "id": 109,
                        "performCfg": "QuestDialogue/COOP/Coop105301/Q1901207",
                        "loadType": "TALK_COOP",
                        "questId": 19012,
                        "assetIndex": 4429485122691144001,
                        "prePerformCfg": ""
                    }
                },
                "20": {
                    "$type": "OEIMMGLADPN",
                    "CJPNLCDCNCG": 20,
                    "NNFEMOCCPOP": "COOP_NODE_END",
                    "MILIKGJLDIK": 19012052
                }
            },
            "startNodeId": 104
        },
        "1901302": {
            "id": 1901302,
            "coopMap": {
                "120": {
                    "$type": "HPKBPKNNAFI",
                    "CJPNLCDCNCG": 120,
                    "NNFEMOCCPOP": "COOP_NODE_SELECT",
                    "OLLCIMCAAPD": [
                        122,
                        123
                    ],
                    "HLCIDKJGFHF": [
                        {
                            "GBCAFJHNHLO": 190130199,
                            "KDEKKNPDHPC": {},
                            "JAKMCDANHPG": {}
                        },
                        {
                            "GBCAFJHNHLO": 190130198,
                            "KDEKKNPDHPC": {},
                            "JAKMCDANHPG": {}
                        }
                    ]
                },
                "119": {
                    "$type": "DOEBOPCACKJ",
                    "CJPNLCDCNCG": 119,
                    "NNFEMOCCPOP": "COOP_NODE_TALK",
                    "OLLCIMCAAPD": [
                        120
                    ],
                    "LFHAJOIGMOB": {
                        "id": 119,
                        "performCfg": "QuestDialogue/COOP/Coop105301/Q1901301",
                        "loadType": "TALK_COOP",
                        "questId": 19013,
                        "assetIndex": 10426449032425205019,
                        "prePerformCfg": ""
                    }
                },
                "122": {
                    "$type": "DOEBOPCACKJ",
                    "CJPNLCDCNCG": 122,
                    "NNFEMOCCPOP": "COOP_NODE_TALK",
                    "OLLCIMCAAPD": [
                        161
                    ],
                    "LFHAJOIGMOB": {
                        "id": 122,
                        "performCfg": "QuestDialogue/COOP/Coop105301/Q1901302",
                        "loadType": "TALK_COOP",
                        "questId": 19013,
                        "assetIndex": 1829382246682315370,
                        "prePerformCfg": ""
                    }
                },
                "161": {
                    "$type": "OEIMMGLADPN",
                    "CJPNLCDCNCG": 161,
                    "NNFEMOCCPOP": "COOP_NODE_END",
                    "MILIKGJLDIK": 19013021
                },
                "123": {
                    "$type": "DOEBOPCACKJ",
                    "CJPNLCDCNCG": 123,
                    "NNFEMOCCPOP": "COOP_NODE_TALK",
                    "OLLCIMCAAPD": [
                        69
                    ],
                    "LFHAJOIGMOB": {
                        "id": 123,
                        "performCfg": "QuestDialogue/COOP/Coop105301/Q1901303",
                        "loadType": "TALK_COOP",
                        "questId": 19013,
                        "assetIndex": 3882041855654803913,
                        "prePerformCfg": ""
                    }
                },
                "69": {
                    "$type": "OEIMMGLADPN",
                    "CJPNLCDCNCG": 69,
                    "NNFEMOCCPOP": "COOP_NODE_END",
                    "MILIKGJLDIK": 19013022
                }
            },
            "startNodeId": 119
        },
        "1901305": {
            "id": 1901305,
            "coopMap": {
                "124": {
                    "$type": "DOEBOPCACKJ",
                    "CJPNLCDCNCG": 124,
                    "NNFEMOCCPOP": "COOP_NODE_TALK",
                    "OLLCIMCAAPD": [
                        72
                    ],
                    "LFHAJOIGMOB": {
                        "id": 124,
                        "performCfg": "QuestDialogue/COOP/Coop105301/Q1901305",
                        "loadType": "TALK_COOP",
                        "questId": 19013,
                        "assetIndex": 5213664061926763514,
                        "prePerformCfg": ""
                    }
                },
                "72": {
                    "$type": "OEIMMGLADPN",
                    "CJPNLCDCNCG": 72,
                    "NNFEMOCCPOP": "COOP_NODE_END",
                    "MILIKGJLDIK": 1901305
                }
            },
            "startNodeId": 124
        },
        "1901306": {
            "id": 1901306,
            "coopMap": {
                "125": {
                    "$type": "DOEBOPCACKJ",
                    "CJPNLCDCNCG": 125,
                    "NNFEMOCCPOP": "COOP_NODE_TALK",
                    "OLLCIMCAAPD": [
                        145
                    ],
                    "LFHAJOIGMOB": {
                        "id": 125,
                        "performCfg": "QuestDialogue/COOP/Coop105301/Q1901306",
                        "loadType": "TALK_COOP",
                        "questId": 19013,
                        "assetIndex": 9487656953568338141,
                        "prePerformCfg": ""
                    }
                },
                "145": {
                    "$type": "OEIMMGLADPN",
                    "CJPNLCDCNCG": 145,
                    "NNFEMOCCPOP": "COOP_NODE_END",
                    "MILIKGJLDIK": 1901306
                }
            },
            "startNodeId": 125
        },
        "1901307": {
            "id": 1901307,
            "coopMap": {
                "165": {
                    "$type": "DOEBOPCACKJ",
                    "CJPNLCDCNCG": 165,
                    "NNFEMOCCPOP": "COOP_NODE_TALK",
                    "OLLCIMCAAPD": [
                        163
                    ],
                    "LFHAJOIGMOB": {
                        "id": 165,
                        "performCfg": "QuestDialogue/COOP/Coop105301/Q1901307",
                        "loadType": "TALK_COOP",
                        "questId": 19013,
                        "assetIndex": 16652704915459152357,
                        "prePerformCfg": ""
                    }
                },
                "163": {
                    "$type": "OEIMMGLADPN",
                    "CJPNLCDCNCG": 163,
                    "NNFEMOCCPOP": "COOP_NODE_END",
                    "MILIKGJLDIK": 1901307
                }
            },
            "startNodeId": 165
        },
        "1901402": {
            "id": 1901402,
            "coopMap": {
                "128": {
                    "$type": "DOEBOPCACKJ",
                    "CJPNLCDCNCG": 128,
                    "NNFEMOCCPOP": "COOP_NODE_TALK",
                    "OLLCIMCAAPD": [
                        58
                    ],
                    "LFHAJOIGMOB": {
                        "id": 128,
                        "performCfg": "QuestDialogue/COOP/Coop105301/Q1901402",
                        "loadType": "TALK_COOP",
                        "questId": 19014,
                        "assetIndex": 18343239795613453752,
                        "prePerformCfg": ""
                    }
                },
                "58": {
                    "$type": "OEIMMGLADPN",
                    "CJPNLCDCNCG": 58,
                    "NNFEMOCCPOP": "COOP_NODE_END",
                    "MILIKGJLDIK": 1901402
                }
            },
            "startNodeId": 128
        },
        "1901404": {
            "id": 1901404,
            "coopMap": {
                "129": {
                    "$type": "DOEBOPCACKJ",
                    "CJPNLCDCNCG": 129,
                    "NNFEMOCCPOP": "COOP_NODE_TALK",
                    "OLLCIMCAAPD": [
                        78
                    ],
                    "LFHAJOIGMOB": {
                        "id": 129,
                        "performCfg": "QuestDialogue/COOP/Coop105301/Q1901404",
                        "loadType": "TALK_COOP",
                        "questId": 19014,
                        "assetIndex": 6445644047608194155,
                        "prePerformCfg": ""
                    }
                },
                "78": {
                    "$type": "OEIMMGLADPN",
                    "CJPNLCDCNCG": 78,
                    "NNFEMOCCPOP": "COOP_NODE_END",
                    "MILIKGJLDIK": 1901404
                }
            },
            "startNodeId": 129
        },
        "1901405": {
            "id": 1901405,
            "coopMap": {
                "130": {
                    "$type": "DOEBOPCACKJ",
                    "CJPNLCDCNCG": 130,
                    "NNFEMOCCPOP": "COOP_NODE_TALK",
                    "OLLCIMCAAPD": [
                        80
                    ],
                    "LFHAJOIGMOB": {
                        "id": 130,
                        "performCfg": "QuestDialogue/COOP/Coop105301/Q1901405",
                        "loadType": "TALK_COOP",
                        "questId": 19014,
                        "assetIndex": 2150807989785354296,
                        "prePerformCfg": ""
                    }
                },
                "80": {
                    "$type": "OEIMMGLADPN",
                    "CJPNLCDCNCG": 80,
                    "NNFEMOCCPOP": "COOP_NODE_END",
                    "MILIKGJLDIK": 1901405
                }
            },
            "startNodeId": 130
        },
        "1901407": {
            "id": 1901407,
            "coopMap": {
                "131": {
                    "$type": "DOEBOPCACKJ",
                    "CJPNLCDCNCG": 131,
                    "NNFEMOCCPOP": "COOP_NODE_TALK",
                    "OLLCIMCAAPD": [
                        90
                    ],
                    "LFHAJOIGMOB": {
                        "id": 131,
                        "performCfg": "QuestDialogue/COOP/Coop105301/Q1901406",
                        "loadType": "TALK_COOP",
                        "questId": 19014,
                        "assetIndex": 11434696653425311114,
                        "prePerformCfg": ""
                    }
                },
                "90": {
                    "$type": "OEIMMGLADPN",
                    "CJPNLCDCNCG": 90,
                    "NNFEMOCCPOP": "COOP_NODE_END",
                    "MILIKGJLDIK": 1901407
                }
            },
            "startNodeId": 131
        },
        "1901409": {
            "id": 1901409,
            "coopMap": {
                "173": {
                    "$type": "DOEBOPCACKJ",
                    "CJPNLCDCNCG": 173,
                    "NNFEMOCCPOP": "COOP_NODE_TALK",
                    "OLLCIMCAAPD": [
                        171
                    ],
                    "LFHAJOIGMOB": {
                        "id": 173,
                        "performCfg": "QuestDialogue/COOP/Coop105301/Q1901403",
                        "loadType": "TALK_COOP",
                        "questId": 19014,
                        "assetIndex": 18266745100187411260,
                        "prePerformCfg": ""
                    }
                },
                "171": {
                    "$type": "OEIMMGLADPN",
                    "CJPNLCDCNCG": 171,
                    "NNFEMOCCPOP": "COOP_NODE_END",
                    "MILIKGJLDIK": 1901409
                }
            },
            "startNodeId": 173
        },
        "1901501": {
            "id": 1901501,
            "coopMap": {
                "189": {
                    "$type": "IGELINDEMCG",
                    "CJPNLCDCNCG": 189,
                    "NNFEMOCCPOP": "COOP_NODE_COND",
                    "OLLCIMCAAPD": [
                        132,
                        188
                    ],
                    "BADJBMBFHAO": {
                        "INHDKFOOKKK": "LOGIC_AND",
                        "BCKNHAAHACL": [
                            {
                                "type": "COOP_COND_TEMP_VALUE_COMPARE",
                                "param": [
                                    1,
                                    1,
                                    0
                                ]
                            }
                        ]
                    }
                },
                "132": {
                    "$type": "DOEBOPCACKJ",
                    "CJPNLCDCNCG": 132,
                    "NNFEMOCCPOP": "COOP_NODE_TALK",
                    "OLLCIMCAAPD": [
                        195
                    ],
                    "LFHAJOIGMOB": {
                        "id": 132,
                        "performCfg": "QuestDialogue/COOP/Coop105301/Q1901501",
                        "loadType": "TALK_COOP",
                        "questId": 19015,
                        "assetIndex": 306750458208302717,
                        "prePerformCfg": ""
                    }
                },
                "195": {
                    "$type": "HMAGBPJDFEC",
                    "CJPNLCDCNCG": 195,
                    "NNFEMOCCPOP": "COOP_NODE_ACTION",
                    "OLLCIMCAAPD": [
                        39
                    ],
                    "actionList": [
                        {
                            "actionType": "COOP_ACTION_TEMP_VALUE_SET",
                            "param": [
                                1,
                                1
                            ]
                        }
                    ]
                },
                "39": {
                    "$type": "OEIMMGLADPN",
                    "CJPNLCDCNCG": 39,
                    "NNFEMOCCPOP": "COOP_NODE_END",
                    "MILIKGJLDIK": 1901501
                },
                "188": {
                    "$type": "DOEBOPCACKJ",
                    "CJPNLCDCNCG": 188,
                    "NNFEMOCCPOP": "COOP_NODE_TALK",
                    "OLLCIMCAAPD": [
                        195
                    ],
                    "LFHAJOIGMOB": {
                        "id": 188,
                        "performCfg": "QuestDialogue/COOP/Coop105301/Q1901508",
                        "loadType": "TALK_COOP",
                        "questId": 19015,
                        "assetIndex": 18317485297201051158,
                        "prePerformCfg": ""
                    }
                }
            },
            "startNodeId": 189
        },
        "1901503": {
            "id": 1901503,
            "coopMap": {
                "196": {
                    "$type": "HMAGBPJDFEC",
                    "CJPNLCDCNCG": 196,
                    "NNFEMOCCPOP": "COOP_NODE_ACTION",
                    "OLLCIMCAAPD": [
                        178
                    ],
                    "actionList": [
                        {
                            "actionType": "COOP_ACTION_TEMP_VALUE_SET",
                            "param": [
                                1,
                                0
                            ]
                        }
                    ]
                },
                "178": {
                    "$type": "IGELINDEMCG",
                    "CJPNLCDCNCG": 178,
                    "NNFEMOCCPOP": "COOP_NODE_COND",
                    "OLLCIMCAAPD": [
                        133,
                        182
                    ],
                    "BADJBMBFHAO": {
                        "BCKNHAAHACL": [
                            {
                                "type": "COOP_COND_QUEST_FINISH",
                                "param": [
                                    1901503
                                ]
                            }
                        ]
                    }
                },
                "133": {
                    "$type": "DOEBOPCACKJ",
                    "CJPNLCDCNCG": 133,
                    "NNFEMOCCPOP": "COOP_NODE_TALK",
                    "OLLCIMCAAPD": [
                        60
                    ],
                    "LFHAJOIGMOB": {
                        "id": 133,
                        "performCfg": "QuestDialogue/COOP/Coop105301/Q1901502",
                        "loadType": "TALK_COOP",
                        "questId": 19015,
                        "assetIndex": 17853336262901362839,
                        "prePerformCfg": ""
                    }
                },
                "60": {
                    "$type": "OEIMMGLADPN",
                    "CJPNLCDCNCG": 60,
                    "NNFEMOCCPOP": "COOP_NODE_END",
                    "MILIKGJLDIK": 1901503
                },
                "182": {
                    "$type": "IGELINDEMCG",
                    "CJPNLCDCNCG": 182,
                    "NNFEMOCCPOP": "COOP_NODE_COND",
                    "OLLCIMCAAPD": [
                        180,
                        183
                    ],
                    "BADJBMBFHAO": {
                        "BCKNHAAHACL": [
                            {
                                "type": "COOP_COND_QUEST_FINISH",
                                "param": [
                                    1901508
                                ]
                            }
                        ]
                    }
                },
                "180": {
                    "$type": "DOEBOPCACKJ",
                    "CJPNLCDCNCG": 180,
                    "NNFEMOCCPOP": "COOP_NODE_TALK",
                    "OLLCIMCAAPD": [
                        60
                    ],
                    "LFHAJOIGMOB": {
                        "id": 180,
                        "performCfg": "QuestDialogue/COOP/Coop105301/Q1901503",
                        "loadType": "TALK_COOP",
                        "questId": 19015,
                        "assetIndex": 9509516916725101027,
                        "prePerformCfg": ""
                    }
                },
                "183": {
                    "$type": "IGELINDEMCG",
                    "CJPNLCDCNCG": 183,
                    "NNFEMOCCPOP": "COOP_NODE_COND",
                    "OLLCIMCAAPD": [
                        181,
                        0
                    ],
                    "BADJBMBFHAO": {
                        "BCKNHAAHACL": [
                            {
                                "type": "COOP_COND_QUEST_FINISH",
                                "param": [
                                    1901509
                                ]
                            }
                        ]
                    }
                },
                "181": {
                    "$type": "DOEBOPCACKJ",
                    "CJPNLCDCNCG": 181,
                    "NNFEMOCCPOP": "COOP_NODE_TALK",
                    "OLLCIMCAAPD": [
                        60
                    ],
                    "LFHAJOIGMOB": {
                        "id": 181,
                        "performCfg": "QuestDialogue/COOP/Coop105301/Q1901507",
                        "loadType": "TALK_COOP",
                        "questId": 19015,
                        "assetIndex": 10643973197484645562,
                        "prePerformCfg": ""
                    }
                }
            },
            "startNodeId": 196
        },
        "1901504": {
            "id": 1901504,
            "coopMap": {
                "134": {
                    "$type": "DOEBOPCACKJ",
                    "CJPNLCDCNCG": 134,
                    "NNFEMOCCPOP": "COOP_NODE_TALK",
                    "OLLCIMCAAPD": [
                        84
                    ],
                    "LFHAJOIGMOB": {
                        "id": 134,
                        "performCfg": "QuestDialogue/COOP/Coop105301/Q1901504",
                        "loadType": "TALK_COOP",
                        "questId": 19015,
                        "assetIndex": 12042709456361291529,
                        "prePerformCfg": ""
                    }
                },
                "84": {
                    "$type": "OEIMMGLADPN",
                    "CJPNLCDCNCG": 84,
                    "NNFEMOCCPOP": "COOP_NODE_END",
                    "MILIKGJLDIK": 1901504
                }
            },
            "startNodeId": 134
        },
        "1901506": {
            "id": 1901506,
            "coopMap": {
                "135": {
                    "$type": "DOEBOPCACKJ",
                    "CJPNLCDCNCG": 135,
                    "NNFEMOCCPOP": "COOP_NODE_TALK",
                    "OLLCIMCAAPD": [
                        86
                    ],
                    "LFHAJOIGMOB": {
                        "id": 135,
                        "performCfg": "QuestDialogue/COOP/Coop105301/Q1901505",
                        "loadType": "TALK_COOP",
                        "questId": 19015,
                        "assetIndex": 2422692707396555790,
                        "prePerformCfg": ""
                    }
                },
                "86": {
                    "$type": "OEIMMGLADPN",
                    "CJPNLCDCNCG": 86,
                    "NNFEMOCCPOP": "COOP_NODE_END",
                    "MILIKGJLDIK": 1901506
                }
            },
            "startNodeId": 135
        },
        "1901507": {
            "id": 1901507,
            "coopMap": {
                "136": {
                    "$type": "DOEBOPCACKJ",
                    "CJPNLCDCNCG": 136,
                    "NNFEMOCCPOP": "COOP_NODE_TALK",
                    "OLLCIMCAAPD": [
                        88
                    ],
                    "LFHAJOIGMOB": {
                        "id": 136,
                        "performCfg": "QuestDialogue/COOP/Coop105301/Q1901506",
                        "loadType": "TALK_COOP",
                        "questId": 19015,
                        "assetIndex": 1780670260152414537,
                        "prePerformCfg": ""
                    }
                },
                "88": {
                    "$type": "OEIMMGLADPN",
                    "CJPNLCDCNCG": 88,
                    "NNFEMOCCPOP": "COOP_NODE_END",
                    "MILIKGJLDIK": 1901507
                }
            },
            "startNodeId": 136
        },
        "1901601": {
            "id": 1901601,
            "coopMap": {
                "138": {
                    "$type": "HPKBPKNNAFI",
                    "CJPNLCDCNCG": 138,
                    "NNFEMOCCPOP": "COOP_NODE_SELECT",
                    "OLLCIMCAAPD": [
                        140,
                        141
                    ],
                    "HLCIDKJGFHF": [
                        {
                            "GBCAFJHNHLO": 190160198,
                            "KDEKKNPDHPC": {},
                            "JAKMCDANHPG": {}
                        },
                        {
                            "GBCAFJHNHLO": 190160199,
                            "KDEKKNPDHPC": {},
                            "JAKMCDANHPG": {}
                        }
                    ]
                },
                "137": {
                    "$type": "DOEBOPCACKJ",
                    "CJPNLCDCNCG": 137,
                    "NNFEMOCCPOP": "COOP_NODE_TALK",
                    "OLLCIMCAAPD": [
                        138
                    ],
                    "LFHAJOIGMOB": {
                        "id": 137,
                        "performCfg": "QuestDialogue/COOP/Coop105301/Q1901601",
                        "loadType": "TALK_COOP",
                        "questId": 19016,
                        "assetIndex": 4649769101241928735,
                        "prePerformCfg": ""
                    }
                },
                "140": {
                    "$type": "DOEBOPCACKJ",
                    "CJPNLCDCNCG": 140,
                    "NNFEMOCCPOP": "COOP_NODE_TALK",
                    "OLLCIMCAAPD": [
                        23
                    ],
                    "LFHAJOIGMOB": {
                        "id": 140,
                        "performCfg": "QuestDialogue/COOP/Coop105301/Q1901602",
                        "loadType": "TALK_COOP",
                        "questId": 19016,
                        "assetIndex": 12659212906879861701,
                        "prePerformCfg": ""
                    }
                },
                "23": {
                    "$type": "OEIMMGLADPN",
                    "CJPNLCDCNCG": 23,
                    "NNFEMOCCPOP": "COOP_NODE_END",
                    "MILIKGJLDIK": 19016011
                },
                "141": {
                    "$type": "DOEBOPCACKJ",
                    "CJPNLCDCNCG": 141,
                    "NNFEMOCCPOP": "COOP_NODE_TALK",
                    "OLLCIMCAAPD": [
                        29
                    ],
                    "LFHAJOIGMOB": {
                        "id": 141,
                        "performCfg": "QuestDialogue/COOP/Coop105301/Q1901603",
                        "loadType": "TALK_COOP",
                        "questId": 19016,
                        "assetIndex": 3900757394556701080,
                        "prePerformCfg": ""
                    }
                },
                "29": {
                    "$type": "OEIMMGLADPN",
                    "CJPNLCDCNCG": 29,
                    "NNFEMOCCPOP": "COOP_NODE_END",
                    "MILIKGJLDIK": 19016012
                }
            },
            "startNodeId": 137
        },
        "1901602": {
            "id": 1901602,
            "coopMap": {
                "143": {
                    "$type": "DOEBOPCACKJ",
                    "CJPNLCDCNCG": 143,
                    "NNFEMOCCPOP": "COOP_NODE_TALK",
                    "OLLCIMCAAPD": [
                        33
                    ],
                    "LFHAJOIGMOB": {
                        "id": 143,
                        "performCfg": "QuestDialogue/COOP/Coop105301/Q1901604",
                        "loadType": "TALK_COOP",
                        "questId": 19016,
                        "assetIndex": 17910615712325824595,
                        "prePerformCfg": ""
                    }
                },
                "33": {
                    "$type": "OEIMMGLADPN",
                    "CJPNLCDCNCG": 33,
                    "NNFEMOCCPOP": "COOP_NODE_END",
                    "MILIKGJLDIK": 1901602
                }
            },
            "startNodeId": 143
        },
        "1901604": {
            "id": 1901604,
            "coopMap": {
                "144": {
                    "$type": "DOEBOPCACKJ",
                    "CJPNLCDCNCG": 144,
                    "NNFEMOCCPOP": "COOP_NODE_TALK",
                    "OLLCIMCAAPD": [
                        198
                    ],
                    "LFHAJOIGMOB": {
                        "id": 144,
                        "performCfg": "QuestDialogue/COOP/Coop105301/Q1901605",
                        "loadType": "TALK_COOP",
                        "questId": 19016,
                        "assetIndex": 10940404107738042214,
                        "prePerformCfg": ""
                    }
                },
                "198": {
                    "$type": "OEIMMGLADPN",
                    "CJPNLCDCNCG": 198,
                    "NNFEMOCCPOP": "COOP_NODE_END",
                    "MILIKGJLDIK": 1901604
                }
            },
            "startNodeId": 144
        },
        "1901605": {
            "id": 1901605,
            "coopMap": {
                "142": {
                    "$type": "DOEBOPCACKJ",
                    "CJPNLCDCNCG": 142,
                    "NNFEMOCCPOP": "COOP_NODE_TALK",
                    "OLLCIMCAAPD": [
                        156
                    ],
                    "LFHAJOIGMOB": {
                        "id": 142,
                        "performCfg": "QuestDialogue/COOP/Coop105301/Q1901606",
                        "loadType": "TALK_COOP",
                        "questId": 19016,
                        "assetIndex": 5235580462124977163,
                        "prePerformCfg": ""
                    }
                },
                "156": {
                    "$type": "OEIMMGLADPN",
                    "CJPNLCDCNCG": 156,
                    "NNFEMOCCPOP": "COOP_NODE_END",
                    "MILIKGJLDIK": 1901605
                }
            },
            "startNodeId": 142
        },
        "1901607": {
            "id": 1901607,
            "coopMap": {
                "160": {
                    "$type": "DOEBOPCACKJ",
                    "CJPNLCDCNCG": 160,
                    "NNFEMOCCPOP": "COOP_NODE_TALK",
                    "OLLCIMCAAPD": [
                        158
                    ],
                    "LFHAJOIGMOB": {
                        "id": 160,
                        "performCfg": "QuestDialogue/COOP/Coop105301/Q1901607",
                        "loadType": "TALK_COOP",
                        "questId": 19016,
                        "assetIndex": 6859579467966699689,
                        "prePerformCfg": ""
                    }
                },
                "158": {
                    "$type": "OEIMMGLADPN",
                    "CJPNLCDCNCG": 158,
                    "NNFEMOCCPOP": "COOP_NODE_END",
                    "MILIKGJLDIK": 1901607
                }
            },
            "startNodeId": 160
        }
    },
    "subStartPointMap": {
        "1901001": {
            "id": 1901001,
            "coopInteractionId": 1901001
        },
        "1901201": {
            "id": 1901201,
            "coopInteractionId": 1901201
        },
        "1901202": {
            "id": 1901202,
            "coopInteractionId": 1901202
        },
        "1901204": {
            "id": 1901204,
            "coopInteractionId": 1901204
        },
        "1901205": {
            "id": 1901205,
            "coopInteractionId": 1901205
        },
        "1901302": {
            "id": 1901302,
            "coopInteractionId": 1901302
        },
        "1901305": {
            "id": 1901305,
            "coopInteractionId": 1901305
        },
        "1901306": {
            "id": 1901306,
            "coopInteractionId": 1901306
        },
        "1901307": {
            "id": 1901307,
            "coopInteractionId": 1901307
        },
        "1901402": {
            "id": 1901402,
            "coopInteractionId": 1901402
        },
        "1901404": {
            "id": 1901404,
            "coopInteractionId": 1901404
        },
        "1901405": {
            "id": 1901405,
            "coopInteractionId": 1901405
        },
        "1901407": {
            "id": 1901407,
            "coopInteractionId": 1901407
        },
        "1901409": {
            "id": 1901409,
            "coopInteractionId": 1901409
        },
        "1901501": {
            "id": 1901501,
            "coopInteractionId": 1901501
        },
        "1901503": {
            "id": 1901503,
            "coopInteractionId": 1901503
        },
        "1901504": {
            "id": 1901504,
            "coopInteractionId": 1901504
        },
        "1901506": {
            "id": 1901506,
            "coopInteractionId": 1901506
        },
        "1901507": {
            "id": 1901507,
            "coopInteractionId": 1901507
        },
        "1901601": {
            "id": 1901601,
            "coopInteractionId": 1901601
        },
        "1901602": {
            "id": 1901602,
            "coopInteractionId": 1901602
        },
        "1901604": {
            "id": 1901604,
            "coopInteractionId": 1901604
        },
        "1901605": {
            "id": 1901605,
            "coopInteractionId": 1901605
        },
        "1901607": {
            "id": 1901607,
            "coopInteractionId": 1901607
        }
    },
    "savePointMap": {
        "19010011": {
            "id": 19010011
        },
        "19010012": {
            "id": 19010012
        },
        "19010013": {
            "id": 19010013
        },
        "1901201": {
            "id": 1901201
        },
        "1901202": {
            "id": 1901202
        },
        "1901204": {
            "id": 1901204
        },
        "19012051": {
            "id": 19012051
        },
        "19012052": {
            "id": 19012052
        },
        "19013021": {
            "id": 19013021
        },
        "19013022": {
            "id": 19013022
        },
        "1901305": {
            "id": 1901305
        },
        "1901306": {
            "id": 1901306,
            "isEnd": true
        },
        "1901307": {
            "id": 1901307,
            "isEnd": true
        },
        "1901402": {
            "id": 1901402
        },
        "1901404": {
            "id": 1901404
        },
        "1901405": {
            "id": 1901405
        },
        "1901407": {
            "id": 1901407,
            "isEnd": true
        },
        "1901409": {
            "id": 1901409
        },
        "1901501": {
            "id": 1901501
        },
        "1901503": {
            "id": 1901503
        },
        "1901504": {
            "id": 1901504
        },
        "1901506": {
            "id": 1901506
        },
        "1901507": {
            "id": 1901507,
            "isEnd": true
        },
        "19016011": {
            "id": 19016011
        },
        "19016012": {
            "id": 19016012
        },
        "1901602": {
            "id": 1901602
        },
        "1901604": {
            "id": 1901604,
            "isEnd": true
        },
        "1901605": {
            "id": 1901605
        },
        "1901607": {
            "id": 1901607,
            "isEnd": true
        }
    },
    "confidenceValue": 5,
    "maxConfidenceValue": 5,
    "temperamentMap": {
        "COOP_TEMPERAMENT_1": {
            "ratio": 50,
            "value": 1.0
        },
        "COOP_TEMPERAMENT_2": {
            "ratio": 50,
            "value": 1.0
        },
        "COOP_TEMPERAMENT_3": {
            "ratio": 50,
            "value": 1.0
        },
        "COOP_TEMPERAMENT_4": {
            "ratio": 50,
            "value": 1.0
        }
    },
    "useTemperament": false,
    "coopTempValueMap": {
        "1": {
            "id": 1,
            "isCoopVar": true
        }
    }
}