{
    "luaDataPath": "",
    "startBlackKeepTime": 0.20000000298023224,
    "entityBan": "45306_Dialog",
    "startFade": {
        "startFadeInDuration": 0.4000000059604645,
        "startFadeOutDuration": 0.4000000059604645
    },
    "endFade": {
        "startFadeOutDuration": 0.0
    },
    "actors": [
        {
            "alias": "Avatar",
            "visible": true,
            "bornPointName": "Q45301_Q45306PlayerPos",
            "relativePosNpcAlias": "",
            "bindMovingTargetKey": ""
        },
        {
            "configID": 153701,
            "alias": "153701",
            "visible": true,
            "bornPointName": "Q453FarmerOld",
            "relativePosNpcAlias": "",
            "bindMovingTargetKey": ""
        },
        {
            "configID": 1002,
            "alias": "1002",
            "visible": true,
            "bornPointName": "Q453AmborTalk",
            "relativePosNpcAlias": "",
            "bindMovingTargetKey": ""
        },
        {
            "configID": 1005,
            "alias": "1005",
            "visible": true,
            "bornPointName": "Q45301_Q45306_Paimon",
            "relativePosNpcAlias": "",
            "bindMovingTargetKey": ""
        },
        {
            "configID": 154301,
            "alias": "154301",
            "visible": true,
            "bornPointName": "Q453FarmerWound1",
            "relativePosNpcAlias": "",
            "bindMovingTargetKey": ""
        },
        {
            "configID": 163201,
            "alias": "163201",
            "visible": true,
            "bornPointName": "Q453Farmer1",
            "relativePosNpcAlias": "",
            "bindMovingTargetKey": ""
        }
    ],
    "group": [
        [
            {
                "$type": "MoleMole.Config.ConfigTimeProtectAction",
                "type": "TIME_PROTECT",
                "duration": 3.0
            },
            {
                "$type": "DLPFECMKEKH",
                "type": "DIALOG_CLEAR"
            },
            {
                "$type": "MOOOKOKLLEI",
                "type": "CAMERA_MOVE",
                "duration": 1.0,
                "DOKGBCKOLJK": {
                    "x": 1977.891845703125,
                    "y": 212.50576782226562,
                    "z": -884.1116943359375
                },
                "HGKCPMDICGG": {
                    "x": 1976.9722900390625,
                    "y": 212.41587829589844,
                    "z": -884.4942626953125
                },
                "AFODHELHCGB": 25.0,
                "MGMFMGNANHH": 6,
                "NDFGFJFGHKL": "EaseInOutCubic",
                "IBCBGNHCICN": {},
                "OMCCMPHDLOO": "",
                "OCFGGGHIKOO": "",
                "LJFHGGJDPHH": "",
                "LPKDFKLNEHL": ""
            },
            {
                "$type": "MOOOKOKLLEI",
                "type": "CAMERA_MOVE",
                "delayTime": 0.10000000149011612,
                "duration": 3.0,
                "DOKGBCKOLJK": {
                    "x": 1977.90087890625,
                    "y": 212.2961883544922,
                    "z": -884.0842895507812
                },
                "HGKCPMDICGG": {
                    "x": 1976.9813232421875,
                    "y": 212.206298828125,
                    "z": -884.4668579101562
                },
                "AFODHELHCGB": 25.0,
                "NDFGFJFGHKL": "EaseInOutQuad",
                "IBCBGNHCICN": {},
                "OMCCMPHDLOO": "",
                "OCFGGGHIKOO": "",
                "LJFHGGJDPHH": "",
                "LPKDFKLNEHL": ""
            },
            {
                "$type": "MoleMole.Config.ConfigCameraDOFAction",
                "type": "CAMERA_DOF",
                "enabled": true,
                "focusDistance": 10.0,
                "focusRange": 20.0,
                "quality": 3
            },
            {
                "$type": "MoleMole.Config.ConfigMoveToAction",
                "type": "MOVE_TO",
                "duration": 0.10000000149011612,
                "aliasList": [
                    "Avatar"
                ],
                "routeList": [
                    {
                        "x": 1972.2213134765625,
                        "y": 210.53021240234375,
                        "z": -886.6649780273438
                    }
                ],
                "bindMovingTargetKey": ""
            },
            {
                "$type": "OOMFCPJAJGL",
                "type": "STEER_TO",
                "delayTime": 0.10000000149011612,
                "duration": 0.10000000149011612,
                "aliasList": [
                    "Avatar"
                ],
                "PLAPKCOMAKJ": {
                    "x": -0.7380595207214355,
                    "z": -0.6747356057167053
                },
                "OMCCMPHDLOO": "",
                "DBLNLMOPEBP": ""
            },
            {
                "$type": "EAMBKPBOPIC",
                "type": "LOOK_AT",
                "aliasList": [
                    "Avatar"
                ],
                "FIDJDPAIFDN": true,
                "useTargetPos": true,
                "GFKIMGBGADJ": true,
                "GMKIJKADNHN": {
                    "x": 1971.171142578125,
                    "y": 212.48536682128906,
                    "z": -887.4696655273438
                },
                "BCHGCKLKNEH": 0.30000001192092896,
                "OMCCMPHDLOO": "",
                "KPCALFDIHMC": "",
                "DBLNLMOPEBP": ""
            },
            {
                "$type": "MoleMole.Config.ConfigMoveToAction",
                "type": "MOVE_TO",
                "duration": 0.10000000149011612,
                "aliasList": [
                    "153701"
                ],
                "routeList": [
                    {
                        "x": 1967.884765625,
                        "y": 211.0496368408203,
                        "z": -886.3232421875
                    }
                ],
                "bindMovingTargetKey": ""
            },
            {
                "$type": "OOMFCPJAJGL",
                "type": "STEER_TO",
                "delayTime": 0.10000000149011612,
                "duration": 0.10000000149011612,
                "aliasList": [
                    "153701"
                ],
                "PLAPKCOMAKJ": {
                    "x": 0.9946353435516357,
                    "z": 0.10344274342060089
                },
                "OMCCMPHDLOO": "",
                "DBLNLMOPEBP": ""
            },
            {
                "$type": "ILCGAGEGDJI",
                "type": "BODY_LANG",
                "aliasList": [
                    "153701"
                ],
                "FLBOOPHHFJP": 1120,
                "FNDLJGEAMGI": ""
            },
            {
                "$type": "EAMBKPBOPIC",
                "type": "LOOK_AT",
                "aliasList": [
                    "153701"
                ],
                "FIDJDPAIFDN": true,
                "useTargetPos": true,
                "GFKIMGBGADJ": true,
                "GMKIJKADNHN": {
                    "x": 1971.171142578125,
                    "y": 212.48536682128906,
                    "z": -887.4696655273438
                },
                "BCHGCKLKNEH": 0.30000001192092896,
                "OMCCMPHDLOO": "",
                "KPCALFDIHMC": "",
                "DBLNLMOPEBP": ""
            },
            {
                "$type": "MoleMole.Config.ConfigMoveToAction",
                "type": "MOVE_TO",
                "duration": 0.10000000149011612,
                "aliasList": [
                    "1002"
                ],
                "routeList": [
                    {
                        "x": 1971.069091796875,
                        "y": 210.68968200683594,
                        "z": -886.1953735351562
                    }
                ],
                "bindMovingTargetKey": ""
            },
            {
                "$type": "OOMFCPJAJGL",
                "type": "STEER_TO",
                "delayTime": 0.10000000149011612,
                "duration": 0.10000000149011612,
                "aliasList": [
                    "1002"
                ],
                "PLAPKCOMAKJ": {
                    "x": 0.037057846784591675,
                    "y": 0.09489456564188004,
                    "z": -0.9947973489761353
                },
                "OMCCMPHDLOO": "",
                "DBLNLMOPEBP": ""
            },
            {
                "$type": "EAMBKPBOPIC",
                "type": "LOOK_AT",
                "aliasList": [
                    "1002"
                ],
                "FIDJDPAIFDN": true,
                "useTargetPos": true,
                "GFKIMGBGADJ": true,
                "GMKIJKADNHN": {
                    "x": 1971.171142578125,
                    "y": 212.48536682128906,
                    "z": -887.4696655273438
                },
                "BCHGCKLKNEH": 0.30000001192092896,
                "OMCCMPHDLOO": "",
                "KPCALFDIHMC": "",
                "DBLNLMOPEBP": ""
            },
            {
                "$type": "OOMFCPJAJGL",
                "type": "STEER_TO",
                "delayTime": 0.10000000149011612,
                "duration": 0.10000000149011612,
                "aliasList": [
                    "1005"
                ],
                "PLAPKCOMAKJ": {
                    "x": -0.9512103199958801,
                    "y": 0.3052316904067993,
                    "z": -0.045083340257406235
                },
                "OMCCMPHDLOO": "",
                "DBLNLMOPEBP": ""
            },
            {
                "$type": "EAMBKPBOPIC",
                "type": "LOOK_AT",
                "aliasList": [
                    "1005"
                ],
                "FIDJDPAIFDN": true,
                "useTargetPos": true,
                "GFKIMGBGADJ": true,
                "GMKIJKADNHN": {
                    "x": 1971.171142578125,
                    "y": 212.48536682128906,
                    "z": -887.4696655273438
                },
                "BCHGCKLKNEH": 0.30000001192092896,
                "OMCCMPHDLOO": "",
                "KPCALFDIHMC": "",
                "DBLNLMOPEBP": ""
            },
            {
                "$type": "EAMBKPBOPIC",
                "type": "LOOK_AT",
                "aliasList": [
                    "154301"
                ],
                "FIDJDPAIFDN": true,
                "useTargetPos": true,
                "GFKIMGBGADJ": true,
                "GMKIJKADNHN": {
                    "x": 1972.0821533203125,
                    "y": 211.9804229736328,
                    "z": -886.7337646484375
                },
                "BCHGCKLKNEH": 0.30000001192092896,
                "OMCCMPHDLOO": "",
                "KPCALFDIHMC": "",
                "DBLNLMOPEBP": ""
            },
            {
                "$type": "MoleMole.Config.ConfigMoveToAction",
                "type": "MOVE_TO",
                "duration": 0.10000000149011612,
                "aliasList": [
                    "163201"
                ],
                "routeList": [
                    {
                        "x": 1970.842041015625,
                        "y": 210.80384826660156,
                        "z": -888.3182983398438
                    }
                ],
                "bindMovingTargetKey": ""
            },
            {
                "$type": "OOMFCPJAJGL",
                "type": "STEER_TO",
                "delayTime": 0.10000000149011612,
                "duration": 0.10000000149011612,
                "aliasList": [
                    "163201"
                ],
                "PLAPKCOMAKJ": {
                    "x": 0.7894072532653809,
                    "z": 0.6138697862625122
                },
                "OMCCMPHDLOO": "",
                "DBLNLMOPEBP": ""
            },
            {
                "$type": "EAMBKPBOPIC",
                "type": "LOOK_AT",
                "aliasList": [
                    "163201"
                ],
                "FIDJDPAIFDN": true,
                "useTargetPos": true,
                "GFKIMGBGADJ": true,
                "GMKIJKADNHN": {
                    "x": 1972.0821533203125,
                    "y": 211.9804229736328,
                    "z": -886.7337646484375
                },
                "BCHGCKLKNEH": 0.30000001192092896,
                "OMCCMPHDLOO": "",
                "KPCALFDIHMC": "",
                "DBLNLMOPEBP": ""
            },
            {
                "$type": "ILCGAGEGDJI",
                "type": "BODY_LANG",
                "aliasList": [
                    "163201"
                ],
                "FLBOOPHHFJP": 1230,
                "FNDLJGEAMGI": ""
            }
        ],
        [
            {
                "$type": "MOOOKOKLLEI",
                "type": "CAMERA_MOVE",
                "duration": 3.0,
                "DOKGBCKOLJK": {
                    "x": 1975.5606689453125,
                    "y": 212.11270141601562,
                    "z": -886.1323852539062
                },
                "HGKCPMDICGG": {
                    "x": 1974.5865478515625,
                    "y": 212.03475952148438,
                    "z": -886.3443603515625
                },
                "AFODHELHCGB": 25.0,
                "NDFGFJFGHKL": "EaseInOutCubic",
                "IBCBGNHCICN": {},
                "OMCCMPHDLOO": "",
                "OCFGGGHIKOO": "",
                "LJFHGGJDPHH": "",
                "LPKDFKLNEHL": ""
            },
            {
                "$type": "MoleMole.Config.ConfigCameraDOFAction",
                "type": "CAMERA_DOF",
                "delayTime": 0.4000000059604645,
                "duration": 2.200000047683716,
                "enabled": true,
                "focusDistance": 8.0,
                "focusRange": 8.0,
                "quality": 3
            },
            {
                "$type": "DLPFECMKEKH",
                "type": "DIALOG",
                "aliasList": [
                    "154301"
                ],
                "NMKEDPFEKBH": 4530601,
                "JLCHMAJCAPA": 0.5
            },
            {
                "$type": "ILCGAGEGDJI",
                "type": "BODY_LANG",
                "aliasList": [
                    "154301"
                ],
                "FLBOOPHHFJP": 1173,
                "FNDLJGEAMGI": ""
            },
            {
                "$type": "OPCCDGPJCJI",
                "type": "EMO_SYNC",
                "aliasList": [
                    "154301"
                ],
                "IONNJBCBACJ": "Cs_Emo_Avatar_Simple_Common_Set/Cs_Emo_Avatar_Talk/Cs_Emo_Avatar_PersonalLine/Cs_Emo_Avatar_Razor/Cs_Emo_4530601",
                "HLEJKBCMNNJ": "",
                "JGHLJJLNGPP": "",
                "MANNKIIBOFM": "",
                "COMNAAFDEDH": "",
                "CPGCCLNOCDK": "",
                "IGEFGCJKCPM": [
                    11484995813499723962,
                    14054064547201535826,
                    14507583842314167052,
                    2681801381602418327
                ]
            }
        ],
        [
            {
                "$type": "MOOOKOKLLEI",
                "type": "CAMERA_MOVE",
                "duration": 1.0,
                "DOKGBCKOLJK": {
                    "x": 1969.3526611328125,
                    "y": 213.1336669921875,
                    "z": -886.5118408203125
                },
                "HGKCPMDICGG": {
                    "x": 1970.2176513671875,
                    "y": 212.7479248046875,
                    "z": -886.8326416015625
                },
                "AFODHELHCGB": 20.0,
                "MGMFMGNANHH": 6,
                "NDFGFJFGHKL": "EaseInOutCubic",
                "IBCBGNHCICN": {},
                "OMCCMPHDLOO": "",
                "OCFGGGHIKOO": "",
                "LJFHGGJDPHH": "",
                "LPKDFKLNEHL": ""
            },
            {
                "$type": "MOOOKOKLLEI",
                "type": "CAMERA_MOVE",
                "delayTime": 0.10000000149011612,
                "duration": 1.0,
                "DOKGBCKOLJK": {
                    "x": 1969.490478515625,
                    "y": 213.07199096679688,
                    "z": -886.55322265625
                },
                "HGKCPMDICGG": {
                    "x": 1970.36083984375,
                    "y": 212.66421508789062,
                    "z": -886.8292846679688
                },
                "AFODHELHCGB": 20.0,
                "NDFGFJFGHKL": "EaseInOutCubic",
                "IBCBGNHCICN": {},
                "OMCCMPHDLOO": "",
                "OCFGGGHIKOO": "",
                "LJFHGGJDPHH": "",
                "LPKDFKLNEHL": ""
            },
            {
                "$type": "EAMBKPBOPIC",
                "type": "LOOK_AT",
                "delayTime": 0.4000000059604645,
                "aliasList": [
                    "153701"
                ],
                "FIDJDPAIFDN": true,
                "useTargetPos": true,
                "GFKIMGBGADJ": true,
                "GMKIJKADNHN": {
                    "x": 1972.526123046875,
                    "y": 211.95021057128906,
                    "z": -887.5126342773438
                },
                "BCHGCKLKNEH": 0.5,
                "OMCCMPHDLOO": "",
                "KPCALFDIHMC": "",
                "DBLNLMOPEBP": ""
            },
            {
                "$type": "DLPFECMKEKH",
                "type": "DIALOG",
                "aliasList": [
                    "1005"
                ],
                "NMKEDPFEKBH": 4530602,
                "JLCHMAJCAPA": 0.5
            },
            {
                "$type": "ILCGAGEGDJI",
                "type": "BODY_LANG",
                "aliasList": [
                    "1005"
                ],
                "FLBOOPHHFJP": 1060,
                "FNDLJGEAMGI": ""
            },
            {
                "$type": "ILCGAGEGDJI",
                "type": "BODY_LANG",
                "delayTime": 1.8749996423721313,
                "aliasList": [
                    "1005"
                ],
                "JLABKFNJCNP": true,
                "FNDLJGEAMGI": ""
            },
            {
                "$type": "OPCCDGPJCJI",
                "type": "EMO_SYNC",
                "aliasList": [
                    "1005"
                ],
                "IONNJBCBACJ": "Cs_Emo_Avatar_Simple_Common_Set/Cs_Emo_Avatar_Talk/Cs_Emo_Avatar_PersonalLine/Cs_Emo_Avatar_Razor/Cs_Emo_4530602",
                "HLEJKBCMNNJ": "",
                "JGHLJJLNGPP": "",
                "MANNKIIBOFM": "",
                "COMNAAFDEDH": "",
                "CPGCCLNOCDK": "",
                "IGEFGCJKCPM": [
                    6079903348506714369,
                    13064058550178674129,
                    6306965339376547168,
                    5780752861445026348
                ]
            },
            {
                "$type": "EAMBKPBOPIC",
                "type": "LOOK_AT",
                "delayTime": 0.30000001192092896,
                "aliasList": [
                    "154301"
                ],
                "FIDJDPAIFDN": true,
                "useTargetPos": true,
                "GFKIMGBGADJ": true,
                "GMKIJKADNHN": {
                    "x": 1972.526123046875,
                    "y": 211.95021057128906,
                    "z": -887.5126342773438
                },
                "BCHGCKLKNEH": 0.4000000059604645,
                "OMCCMPHDLOO": "",
                "KPCALFDIHMC": "",
                "DBLNLMOPEBP": ""
            },
            {
                "$type": "EAMBKPBOPIC",
                "type": "LOOK_AT",
                "delayTime": 0.4000000059604645,
                "aliasList": [
                    "163201"
                ],
                "FIDJDPAIFDN": true,
                "useTargetPos": true,
                "GFKIMGBGADJ": true,
                "GMKIJKADNHN": {
                    "x": 1972.526123046875,
                    "y": 211.95021057128906,
                    "z": -887.5126342773438
                },
                "BCHGCKLKNEH": 0.4000000059604645,
                "OMCCMPHDLOO": "",
                "KPCALFDIHMC": "",
                "DBLNLMOPEBP": ""
            }
        ],
        [
            {
                "$type": "MOOOKOKLLEI",
                "type": "CAMERA_MOVE",
                "duration": 1.0,
                "DOKGBCKOLJK": {
                    "x": 1974.2982177734375,
                    "y": 211.92990112304688,
                    "z": -886.3248901367188
                },
                "HGKCPMDICGG": {
                    "x": 1973.3848876953125,
                    "y": 211.93588256835938,
                    "z": -886.7321166992188
                },
                "AFODHELHCGB": 25.0,
                "MGMFMGNANHH": 6,
                "NDFGFJFGHKL": "EaseInOutCubic",
                "IBCBGNHCICN": {},
                "OMCCMPHDLOO": "",
                "OCFGGGHIKOO": "",
                "LJFHGGJDPHH": "",
                "LPKDFKLNEHL": ""
            },
            {
                "$type": "ILCGAGEGDJI",
                "type": "BODY_LANG",
                "delayTime": 0.4000000059604645,
                "aliasList": [
                    "1005"
                ],
                "JLABKFNJCNP": true,
                "FNDLJGEAMGI": ""
            },
            {
                "$type": "DLPFECMKEKH",
                "type": "DIALOG",
                "aliasList": [
                    "154301"
                ],
                "NMKEDPFEKBH": 4530603,
                "JLCHMAJCAPA": 0.5
            },
            {
                "$type": "ILCGAGEGDJI",
                "type": "BODY_LANG",
                "delayTime": 5.5,
                "aliasList": [
                    "154301"
                ],
                "JLABKFNJCNP": true,
                "FNDLJGEAMGI": ""
            },
            {
                "$type": "ILCGAGEGDJI",
                "type": "BODY_LANG",
                "aliasList": [
                    "154301"
                ],
                "FLBOOPHHFJP": 1130,
                "FNDLJGEAMGI": ""
            },
            {
                "$type": "OPCCDGPJCJI",
                "type": "EMO_SYNC",
                "aliasList": [
                    "154301"
                ],
                "IONNJBCBACJ": "Cs_Emo_Avatar_Simple_Common_Set/Cs_Emo_Avatar_Talk/Cs_Emo_Avatar_PersonalLine/Cs_Emo_Avatar_Razor/Cs_Emo_4530603",
                "HLEJKBCMNNJ": "",
                "JGHLJJLNGPP": "",
                "MANNKIIBOFM": "",
                "COMNAAFDEDH": "",
                "CPGCCLNOCDK": "",
                "IGEFGCJKCPM": [
                    9294183166711712493,
                    11158474399798168842,
                    4841375052819529923,
                    15582333158698772871
                ]
            }
        ],
        [
            {
                "$type": "ILCGAGEGDJI",
                "type": "BODY_LANG",
                "delayTime": 0.4000000059604645,
                "aliasList": [
                    "1002"
                ],
                "FLBOOPHHFJP": 1120,
                "FNDLJGEAMGI": ""
            },
            {
                "$type": "DLPFECMKEKH",
                "type": "DIALOG",
                "aliasList": [
                    "154301"
                ],
                "NMKEDPFEKBH": 4530604,
                "JLCHMAJCAPA": 0.5
            },
            {
                "$type": "ILCGAGEGDJI",
                "type": "BODY_LANG",
                "aliasList": [
                    "154301"
                ],
                "FLBOOPHHFJP": 1171,
                "FNDLJGEAMGI": ""
            },
            {
                "$type": "OPCCDGPJCJI",
                "type": "EMO_SYNC",
                "aliasList": [
                    "154301"
                ],
                "IONNJBCBACJ": "Cs_Emo_Avatar_Simple_Common_Set/Cs_Emo_Avatar_Talk/Cs_Emo_Avatar_PersonalLine/Cs_Emo_Avatar_Razor/Cs_Emo_4530604",
                "HLEJKBCMNNJ": "",
                "JGHLJJLNGPP": "",
                "MANNKIIBOFM": "",
                "COMNAAFDEDH": "",
                "CPGCCLNOCDK": "",
                "IGEFGCJKCPM": [
                    9193539597059169247,
                    12565966255028925623,
                    14910516838477898218,
                    6073780859930167657
                ]
            }
        ],
        [
            {
                "$type": "MOOOKOKLLEI",
                "type": "CAMERA_MOVE",
                "duration": 1.0,
                "DOKGBCKOLJK": {
                    "x": 1973.2435302734375,
                    "y": 212.4744110107422,
                    "z": -890.5596923828125
                },
                "HGKCPMDICGG": {
                    "x": 1972.80517578125,
                    "y": 212.3546905517578,
                    "z": -889.6688842773438
                },
                "AFODHELHCGB": 20.0,
                "MGMFMGNANHH": 6,
                "NDFGFJFGHKL": "EaseInOutCubic",
                "IBCBGNHCICN": {},
                "OMCCMPHDLOO": "",
                "OCFGGGHIKOO": "",
                "LJFHGGJDPHH": "",
                "LPKDFKLNEHL": ""
            },
            {
                "$type": "MOOOKOKLLEI",
                "type": "CAMERA_MOVE",
                "delayTime": 0.10000000149011612,
                "duration": 10.0,
                "DOKGBCKOLJK": {
                    "x": 1973.3909912109375,
                    "y": 212.47357177734375,
                    "z": -890.4837646484375
                },
                "HGKCPMDICGG": {
                    "x": 1972.9130859375,
                    "y": 212.35385131835938,
                    "z": -889.6135864257812
                },
                "AFODHELHCGB": 20.0,
                "NDFGFJFGHKL": "EaseInOutQuad",
                "IBCBGNHCICN": {},
                "OMCCMPHDLOO": "",
                "OCFGGGHIKOO": "",
                "LJFHGGJDPHH": "",
                "LPKDFKLNEHL": ""
            },
            {
                "$type": "EAMBKPBOPIC",
                "type": "LOOK_AT",
                "delayTime": 0.21666665375232697,
                "aliasList": [
                    "Avatar"
                ],
                "FIDJDPAIFDN": true,
                "useTargetPos": true,
                "GFKIMGBGADJ": true,
                "GMKIJKADNHN": {
                    "x": 1971.07470703125,
                    "y": 212.10467529296875,
                    "z": -886.299560546875
                },
                "BCHGCKLKNEH": 0.4000000059604645,
                "OMCCMPHDLOO": "",
                "KPCALFDIHMC": "",
                "DBLNLMOPEBP": ""
            },
            {
                "$type": "EAMBKPBOPIC",
                "type": "LOOK_AT",
                "delayTime": 0.4000000059604645,
                "aliasList": [
                    "153701"
                ],
                "FIDJDPAIFDN": true,
                "useTargetPos": true,
                "GFKIMGBGADJ": true,
                "GMKIJKADNHN": {
                    "x": 1971.07470703125,
                    "y": 212.10467529296875,
                    "z": -886.299560546875
                },
                "BCHGCKLKNEH": 0.5,
                "OMCCMPHDLOO": "",
                "KPCALFDIHMC": "",
                "DBLNLMOPEBP": ""
            },
            {
                "$type": "DLPFECMKEKH",
                "type": "DIALOG",
                "aliasList": [
                    "1002"
                ],
                "NMKEDPFEKBH": 4530605,
                "JLCHMAJCAPA": 0.5
            },
            {
                "$type": "OPCCDGPJCJI",
                "type": "EMO_SYNC",
                "aliasList": [
                    "1002"
                ],
                "IONNJBCBACJ": "Cs_Emo_Avatar_Simple_Common_Set/Cs_Emo_Avatar_Talk/Cs_Emo_Avatar_PersonalLine/Cs_Emo_Avatar_Razor/Cs_Emo_4530605",
                "HLEJKBCMNNJ": "",
                "JGHLJJLNGPP": "",
                "MANNKIIBOFM": "",
                "COMNAAFDEDH": "",
                "CPGCCLNOCDK": "",
                "IGEFGCJKCPM": [
                    9652229982742049450,
                    4693236520488172052,
                    12622227246600224029,
                    17666974247176165499
                ]
            },
            {
                "$type": "EAMBKPBOPIC",
                "type": "LOOK_AT",
                "delayTime": 0.4000000059604645,
                "aliasList": [
                    "1005"
                ],
                "FIDJDPAIFDN": true,
                "useTargetPos": true,
                "GFKIMGBGADJ": true,
                "GMKIJKADNHN": {
                    "x": 1971.07470703125,
                    "y": 212.10467529296875,
                    "z": -886.299560546875
                },
                "BCHGCKLKNEH": 0.4000000059604645,
                "OMCCMPHDLOO": "",
                "KPCALFDIHMC": "",
                "DBLNLMOPEBP": ""
            },
            {
                "$type": "EAMBKPBOPIC",
                "type": "LOOK_AT",
                "delayTime": 0.30000001192092896,
                "aliasList": [
                    "154301"
                ],
                "FIDJDPAIFDN": true,
                "useTargetPos": true,
                "GFKIMGBGADJ": true,
                "GMKIJKADNHN": {
                    "x": 1971.07470703125,
                    "y": 212.04791259765625,
                    "z": -886.299560546875
                },
                "BCHGCKLKNEH": 0.4000000059604645,
                "OMCCMPHDLOO": "",
                "KPCALFDIHMC": "",
                "DBLNLMOPEBP": ""
            },
            {
                "$type": "EAMBKPBOPIC",
                "type": "LOOK_AT",
                "delayTime": 0.4000000059604645,
                "aliasList": [
                    "163201"
                ],
                "FIDJDPAIFDN": true,
                "useTargetPos": true,
                "GFKIMGBGADJ": true,
                "GMKIJKADNHN": {
                    "x": 1971.7274169921875,
                    "y": 212.10467529296875,
                    "z": -886.2609252929688
                },
                "BCHGCKLKNEH": 0.4000000059604645,
                "OMCCMPHDLOO": "",
                "KPCALFDIHMC": "",
                "DBLNLMOPEBP": ""
            }
        ],
        [
            {
                "$type": "DLPFECMKEKH",
                "type": "DIALOG",
                "aliasList": [
                    "1002"
                ],
                "NMKEDPFEKBH": 4530606,
                "JLCHMAJCAPA": 1.899999976158142
            },
            {
                "$type": "ILCGAGEGDJI",
                "type": "BODY_LANG",
                "aliasList": [
                    "1002"
                ],
                "JLABKFNJCNP": true,
                "FNDLJGEAMGI": ""
            },
            {
                "$type": "ILCGAGEGDJI",
                "type": "BODY_LANG",
                "delayTime": 1.7999999523162842,
                "aliasList": [
                    "1002"
                ],
                "FLBOOPHHFJP": 1130,
                "FNDLJGEAMGI": ""
            },
            {
                "$type": "OPCCDGPJCJI",
                "type": "EMO_SYNC",
                "aliasList": [
                    "1002"
                ],
                "IONNJBCBACJ": "Cs_Emo_Avatar_Simple_Common_Set/Cs_Emo_Avatar_Talk/Cs_Emo_Avatar_PersonalLine/Cs_Emo_Avatar_Razor/Cs_Emo_4530606",
                "HLEJKBCMNNJ": "",
                "JGHLJJLNGPP": "",
                "MANNKIIBOFM": "",
                "COMNAAFDEDH": "",
                "CPGCCLNOCDK": "",
                "IGEFGCJKCPM": [
                    4142730892882131799,
                    12956598440269896155,
                    18263206935274394855,
                    9344131660150226964
                ]
            }
        ],
        [
            {
                "$type": "DLPFECMKEKH",
                "type": "DIALOG",
                "aliasList": [
                    "1002"
                ],
                "NMKEDPFEKBH": 4530607,
                "JLCHMAJCAPA": 0.5
            },
            {
                "$type": "ILCGAGEGDJI",
                "type": "BODY_LANG",
                "delayTime": 3.0,
                "aliasList": [
                    "1002"
                ],
                "JLABKFNJCNP": true,
                "FNDLJGEAMGI": ""
            },
            {
                "$type": "OPCCDGPJCJI",
                "type": "EMO_SYNC",
                "aliasList": [
                    "1002"
                ],
                "IONNJBCBACJ": "Cs_Emo_Avatar_Simple_Common_Set/Cs_Emo_Avatar_Talk/Cs_Emo_Avatar_PersonalLine/Cs_Emo_Avatar_Razor/Cs_Emo_4530607",
                "HLEJKBCMNNJ": "",
                "JGHLJJLNGPP": "",
                "MANNKIIBOFM": "",
                "COMNAAFDEDH": "",
                "CPGCCLNOCDK": "",
                "IGEFGCJKCPM": [
                    4989100724254374034,
                    18024059205909053779,
                    13622103300293031355,
                    8579633354932135916
                ]
            }
        ],
        [
            {
                "$type": "MOOOKOKLLEI",
                "type": "CAMERA_MOVE",
                "duration": 1.0,
                "DOKGBCKOLJK": {
                    "x": 1973.02587890625,
                    "y": 211.56668090820312,
                    "z": -883.695068359375
                },
                "HGKCPMDICGG": {
                    "x": 1972.6029052734375,
                    "y": 211.62063598632812,
                    "z": -884.599609375
                },
                "AFODHELHCGB": 25.0,
                "MGMFMGNANHH": 6,
                "NDFGFJFGHKL": "EaseInOutCubic",
                "IBCBGNHCICN": {},
                "OMCCMPHDLOO": "",
                "OCFGGGHIKOO": "",
                "LJFHGGJDPHH": "",
                "LPKDFKLNEHL": ""
            },
            {
                "$type": "EAMBKPBOPIC",
                "type": "LOOK_AT",
                "delayTime": 0.4000000059604645,
                "aliasList": [
                    "Avatar"
                ],
                "FIDJDPAIFDN": true,
                "useTargetPos": true,
                "GFKIMGBGADJ": true,
                "GMKIJKADNHN": {
                    "x": 1971.171142578125,
                    "y": 212.48536682128906,
                    "z": -887.4696655273438
                },
                "BCHGCKLKNEH": 0.4000000059604645,
                "OMCCMPHDLOO": "",
                "KPCALFDIHMC": "",
                "DBLNLMOPEBP": ""
            },
            {
                "$type": "EAMBKPBOPIC",
                "type": "LOOK_AT",
                "delayTime": 0.20000000298023224,
                "aliasList": [
                    "153701"
                ],
                "FIDJDPAIFDN": true,
                "useTargetPos": true,
                "GFKIMGBGADJ": true,
                "GMKIJKADNHN": {
                    "x": 1971.171142578125,
                    "y": 212.48536682128906,
                    "z": -887.4696655273438
                },
                "BCHGCKLKNEH": 0.5,
                "OMCCMPHDLOO": "",
                "KPCALFDIHMC": "",
                "DBLNLMOPEBP": ""
            },
            {
                "$type": "ILCGAGEGDJI",
                "type": "BODY_LANG",
                "aliasList": [
                    "1002"
                ],
                "JLABKFNJCNP": true,
                "FNDLJGEAMGI": ""
            },
            {
                "$type": "EAMBKPBOPIC",
                "type": "LOOK_AT",
                "delayTime": 0.3333333432674408,
                "aliasList": [
                    "1005"
                ],
                "FIDJDPAIFDN": true,
                "useTargetPos": true,
                "GFKIMGBGADJ": true,
                "GMKIJKADNHN": {
                    "x": 1971.171142578125,
                    "y": 212.48536682128906,
                    "z": -887.4696655273438
                },
                "BCHGCKLKNEH": 0.4000000059604645,
                "OMCCMPHDLOO": "",
                "KPCALFDIHMC": "",
                "DBLNLMOPEBP": ""
            },
            {
                "$type": "DLPFECMKEKH",
                "type": "DIALOG",
                "aliasList": [
                    "154301"
                ],
                "NMKEDPFEKBH": 4530608,
                "JLCHMAJCAPA": 0.5
            },
            {
                "$type": "ILCGAGEGDJI",
                "type": "BODY_LANG",
                "aliasList": [
                    "154301"
                ],
                "FLBOOPHHFJP": 1110,
                "FNDLJGEAMGI": ""
            },
            {
                "$type": "ILCGAGEGDJI",
                "type": "BODY_LANG",
                "delayTime": 0.4000000059604645,
                "aliasList": [
                    "154301"
                ],
                "JLABKFNJCNP": true,
                "FNDLJGEAMGI": ""
            },
            {
                "$type": "OPCCDGPJCJI",
                "type": "EMO_SYNC",
                "aliasList": [
                    "154301"
                ],
                "IONNJBCBACJ": "Cs_Emo_Avatar_Simple_Common_Set/Cs_Emo_Avatar_Talk/Cs_Emo_Avatar_PersonalLine/Cs_Emo_Avatar_Razor/Cs_Emo_4530608",
                "HLEJKBCMNNJ": "",
                "JGHLJJLNGPP": "",
                "MANNKIIBOFM": "",
                "COMNAAFDEDH": "",
                "CPGCCLNOCDK": "",
                "IGEFGCJKCPM": [
                    6548669345397547941,
                    18282808487796998735,
                    2472778632351027921,
                    3545422108611578207
                ]
            }
        ],
        [
            {
                "$type": "MOOOKOKLLEI",
                "type": "CAMERA_MOVE",
                "duration": 1.0,
                "DOKGBCKOLJK": {
                    "x": 1969.3526611328125,
                    "y": 213.1336669921875,
                    "z": -886.5118408203125
                },
                "HGKCPMDICGG": {
                    "x": 1970.2176513671875,
                    "y": 212.7479248046875,
                    "z": -886.8326416015625
                },
                "AFODHELHCGB": 20.0,
                "MGMFMGNANHH": 6,
                "NDFGFJFGHKL": "EaseInOutCubic",
                "IBCBGNHCICN": {},
                "OMCCMPHDLOO": "",
                "OCFGGGHIKOO": "",
                "LJFHGGJDPHH": "",
                "LPKDFKLNEHL": ""
            },
            {
                "$type": "MOOOKOKLLEI",
                "type": "CAMERA_MOVE",
                "delayTime": 0.10000000149011612,
                "duration": 1.0,
                "DOKGBCKOLJK": {
                    "x": 1969.490478515625,
                    "y": 213.07199096679688,
                    "z": -886.55322265625
                },
                "HGKCPMDICGG": {
                    "x": 1970.36083984375,
                    "y": 212.66421508789062,
                    "z": -886.8292846679688
                },
                "AFODHELHCGB": 20.0,
                "NDFGFJFGHKL": "EaseInOutCubic",
                "IBCBGNHCICN": {},
                "OMCCMPHDLOO": "",
                "OCFGGGHIKOO": "",
                "LJFHGGJDPHH": "",
                "LPKDFKLNEHL": ""
            },
            {
                "$type": "DLPFECMKEKH",
                "type": "DIALOG",
                "aliasList": [
                    "1005"
                ],
                "NMKEDPFEKBH": 4530609,
                "JLCHMAJCAPA": 0.5
            },
            {
                "$type": "ILCGAGEGDJI",
                "type": "BODY_LANG",
                "aliasList": [
                    "1005"
                ],
                "FLBOOPHHFJP": 1230,
                "FNDLJGEAMGI": ""
            },
            {
                "$type": "OPCCDGPJCJI",
                "type": "EMO_SYNC",
                "aliasList": [
                    "1005"
                ],
                "IONNJBCBACJ": "Cs_Emo_Avatar_Simple_Common_Set/Cs_Emo_Avatar_Talk/Cs_Emo_Avatar_PersonalLine/Cs_Emo_Avatar_Razor/Cs_Emo_4530609",
                "HLEJKBCMNNJ": "",
                "JGHLJJLNGPP": "",
                "MANNKIIBOFM": "",
                "COMNAAFDEDH": "",
                "CPGCCLNOCDK": "",
                "IGEFGCJKCPM": [
                    9525440259956534250,
                    10716248551875484382,
                    15962348614945121975,
                    13661187989144591865
                ]
            },
            {
                "$type": "EAMBKPBOPIC",
                "type": "LOOK_AT",
                "delayTime": 0.30000001192092896,
                "aliasList": [
                    "154301"
                ],
                "FIDJDPAIFDN": true,
                "useTargetPos": true,
                "GFKIMGBGADJ": true,
                "GMKIJKADNHN": {
                    "x": 1972.526123046875,
                    "y": 211.95021057128906,
                    "z": -887.5126342773438
                },
                "BCHGCKLKNEH": 0.4000000059604645,
                "OMCCMPHDLOO": "",
                "KPCALFDIHMC": "",
                "DBLNLMOPEBP": ""
            },
            {
                "$type": "EAMBKPBOPIC",
                "type": "LOOK_AT",
                "delayTime": 0.4000000059604645,
                "aliasList": [
                    "163201"
                ],
                "FIDJDPAIFDN": true,
                "useTargetPos": true,
                "GFKIMGBGADJ": true,
                "GMKIJKADNHN": {
                    "x": 1972.526123046875,
                    "y": 211.95021057128906,
                    "z": -887.5126342773438
                },
                "BCHGCKLKNEH": 0.4000000059604645,
                "OMCCMPHDLOO": "",
                "KPCALFDIHMC": "",
                "DBLNLMOPEBP": ""
            }
        ],
        [
            {
                "$type": "MOOOKOKLLEI",
                "type": "CAMERA_MOVE",
                "duration": 1.0,
                "DOKGBCKOLJK": {
                    "x": 1974.8177490234375,
                    "y": 212.06478881835938,
                    "z": -889.65625
                },
                "HGKCPMDICGG": {
                    "x": 1974.0177001953125,
                    "y": 211.98983764648438,
                    "z": -889.0610961914062
                },
                "AFODHELHCGB": 25.0,
                "MGMFMGNANHH": 6,
                "NDFGFJFGHKL": "EaseInOutCubic",
                "IBCBGNHCICN": {},
                "OMCCMPHDLOO": "",
                "OCFGGGHIKOO": "",
                "LJFHGGJDPHH": "",
                "LPKDFKLNEHL": ""
            },
            {
                "$type": "ILCGAGEGDJI",
                "type": "BODY_LANG",
                "delayTime": 0.4000000059604645,
                "aliasList": [
                    "1005"
                ],
                "JLABKFNJCNP": true,
                "FNDLJGEAMGI": ""
            },
            {
                "$type": "DLPFECMKEKH",
                "type": "DIALOG",
                "aliasList": [
                    "154301"
                ],
                "NMKEDPFEKBH": 4530610,
                "JLCHMAJCAPA": 0.5
            },
            {
                "$type": "ILCGAGEGDJI",
                "type": "BODY_LANG",
                "aliasList": [
                    "154301"
                ],
                "FLBOOPHHFJP": 1171,
                "FNDLJGEAMGI": ""
            },
            {
                "$type": "OPCCDGPJCJI",
                "type": "EMO_SYNC",
                "aliasList": [
                    "154301"
                ],
                "IONNJBCBACJ": "Cs_Emo_Avatar_Simple_Common_Set/Cs_Emo_Avatar_Talk/Cs_Emo_Avatar_PersonalLine/Cs_Emo_Avatar_Razor/Cs_Emo_4530610",
                "HLEJKBCMNNJ": "",
                "JGHLJJLNGPP": "",
                "MANNKIIBOFM": "",
                "COMNAAFDEDH": "",
                "CPGCCLNOCDK": "",
                "IGEFGCJKCPM": [
                    5223673390183881546,
                    4291626312497922537,
                    8092091525124735254,
                    14724856472543130966
                ]
            }
        ],
        [
            {
                "$type": "MOOOKOKLLEI",
                "type": "CAMERA_MOVE",
                "duration": 1.0,
                "DOKGBCKOLJK": {
                    "x": 1974.38134765625,
                    "y": 212.37644958496094,
                    "z": -890.0171508789062
                },
                "HGKCPMDICGG": {
                    "x": 1973.69140625,
                    "y": 212.22698974609375,
                    "z": -889.308837890625
                },
                "AFODHELHCGB": 25.0,
                "NDFGFJFGHKL": "EaseInOutCubic",
                "IBCBGNHCICN": {},
                "OMCCMPHDLOO": "",
                "OCFGGGHIKOO": "",
                "LJFHGGJDPHH": "",
                "LPKDFKLNEHL": ""
            },
            {
                "$type": "DLPFECMKEKH",
                "type": "DIALOG",
                "aliasList": [
                    "1002"
                ],
                "NMKEDPFEKBH": 4530611,
                "JLCHMAJCAPA": 0.5
            },
            {
                "$type": "ILCGAGEGDJI",
                "type": "BODY_LANG",
                "aliasList": [
                    "1002"
                ],
                "FLBOOPHHFJP": 1060,
                "FNDLJGEAMGI": ""
            },
            {
                "$type": "OPCCDGPJCJI",
                "type": "EMO_SYNC",
                "aliasList": [
                    "1002"
                ],
                "IONNJBCBACJ": "Cs_Emo_Avatar_Simple_Common_Set/Cs_Emo_Avatar_Talk/Cs_Emo_Avatar_PersonalLine/Cs_Emo_Avatar_Razor/Cs_Emo_4530611",
                "HLEJKBCMNNJ": "",
                "JGHLJJLNGPP": "",
                "MANNKIIBOFM": "",
                "COMNAAFDEDH": "",
                "CPGCCLNOCDK": "",
                "IGEFGCJKCPM": [
                    5141788831258390210,
                    7578879320949250663,
                    4943674566565755151,
                    10225013501243177554
                ]
            },
            {
                "$type": "EAMBKPBOPIC",
                "type": "LOOK_AT",
                "delayTime": 0.30000001192092896,
                "aliasList": [
                    "154301"
                ],
                "FIDJDPAIFDN": true,
                "useTargetPos": true,
                "GFKIMGBGADJ": true,
                "GMKIJKADNHN": {
                    "x": 1971.07470703125,
                    "y": 212.10467529296875,
                    "z": -886.299560546875
                },
                "BCHGCKLKNEH": 0.4000000059604645,
                "OMCCMPHDLOO": "",
                "KPCALFDIHMC": "",
                "DBLNLMOPEBP": ""
            },
            {
                "$type": "EAMBKPBOPIC",
                "type": "LOOK_AT",
                "delayTime": 0.4000000059604645,
                "aliasList": [
                    "163201"
                ],
                "FIDJDPAIFDN": true,
                "useTargetPos": true,
                "GFKIMGBGADJ": true,
                "GMKIJKADNHN": {
                    "x": 1971.07470703125,
                    "y": 212.10467529296875,
                    "z": -886.299560546875
                },
                "BCHGCKLKNEH": 0.4000000059604645,
                "OMCCMPHDLOO": "",
                "KPCALFDIHMC": "",
                "DBLNLMOPEBP": ""
            }
        ],
        [
            {
                "$type": "MOOOKOKLLEI",
                "type": "CAMERA_MOVE",
                "duration": 2.0,
                "DOKGBCKOLJK": {
                    "x": 1975.005859375,
                    "y": 211.9713897705078,
                    "z": -890.17822265625
                },
                "HGKCPMDICGG": {
                    "x": 1974.2169189453125,
                    "y": 211.92938232421875,
                    "z": -889.565185546875
                },
                "AFODHELHCGB": 25.0,
                "NDFGFJFGHKL": "EaseInOutCubic",
                "IBCBGNHCICN": {},
                "OMCCMPHDLOO": "",
                "OCFGGGHIKOO": "",
                "LJFHGGJDPHH": "",
                "LPKDFKLNEHL": ""
            },
            {
                "$type": "ILCGAGEGDJI",
                "type": "BODY_LANG",
                "delayTime": 0.4000000059604645,
                "aliasList": [
                    "1002"
                ],
                "JLABKFNJCNP": true,
                "FNDLJGEAMGI": ""
            },
            {
                "$type": "DLPFECMKEKH",
                "type": "DIALOG",
                "aliasList": [
                    "154301"
                ],
                "NMKEDPFEKBH": 4530612,
                "JLCHMAJCAPA": 0.5
            },
            {
                "$type": "ILCGAGEGDJI",
                "type": "BODY_LANG",
                "aliasList": [
                    "154301"
                ],
                "FLBOOPHHFJP": 1120,
                "FNDLJGEAMGI": ""
            },
            {
                "$type": "OPCCDGPJCJI",
                "type": "EMO_SYNC",
                "aliasList": [
                    "154301"
                ],
                "IONNJBCBACJ": "Cs_Emo_Avatar_Simple_Common_Set/Cs_Emo_Avatar_Talk/Cs_Emo_Avatar_PersonalLine/Cs_Emo_Avatar_Razor/Cs_Emo_4530612",
                "HLEJKBCMNNJ": "",
                "JGHLJJLNGPP": "",
                "MANNKIIBOFM": "",
                "COMNAAFDEDH": "",
                "CPGCCLNOCDK": "",
                "IGEFGCJKCPM": [
                    3478670442566022238,
                    12846765815061356046,
                    12009186765915206501,
                    2923810383080650563
                ]
            }
        ],
        [
            {
                "$type": "MoleMole.Config.ConfigBlackScreenAction",
                "type": "BLACK_SCREEN",
                "delayTime": 4.199999809265137,
                "duration": 0.800000011920929,
                "blackScreenType": "TO_BLACK",
                "durationToBlack": 0.800000011920929,
                "inteePos": "",
                "textMapID": ""
            },
            {
                "$type": "MOOOKOKLLEI",
                "type": "CAMERA_MOVE",
                "delayTime": 2.308333396911621,
                "duration": 3.0,
                "DOKGBCKOLJK": {
                    "x": 1975.005859375,
                    "y": 211.9713897705078,
                    "z": -890.17822265625
                },
                "HGKCPMDICGG": {
                    "x": 1974.171875,
                    "y": 211.92039489746094,
                    "z": -889.6287841796875
                },
                "AFODHELHCGB": 25.0,
                "NDFGFJFGHKL": "EaseInOutCubic",
                "IBCBGNHCICN": {},
                "OMCCMPHDLOO": "",
                "OCFGGGHIKOO": "",
                "LJFHGGJDPHH": "",
                "LPKDFKLNEHL": ""
            },
            {
                "$type": "DLPFECMKEKH",
                "type": "DIALOG_CLEAR",
                "delayTime": 4.5
            },
            {
                "$type": "EAMBKPBOPIC",
                "type": "LOOK_AT",
                "delayTime": 2.7757480144500732,
                "aliasList": [
                    "Avatar"
                ],
                "FIDJDPAIFDN": true,
                "useTargetPos": true,
                "GFKIMGBGADJ": true,
                "GMKIJKADNHN": {
                    "x": 1970.41796875,
                    "y": 212.91970825195312,
                    "z": -899.6776123046875
                },
                "BCHGCKLKNEH": 2.0,
                "OMCCMPHDLOO": "",
                "KPCALFDIHMC": "",
                "DBLNLMOPEBP": ""
            },
            {
                "$type": "EAMBKPBOPIC",
                "type": "LOOK_AT",
                "delayTime": 2.7757480144500732,
                "aliasList": [
                    "153701"
                ],
                "FIDJDPAIFDN": true,
                "useTargetPos": true,
                "GFKIMGBGADJ": true,
                "GMKIJKADNHN": {
                    "x": 1970.41796875,
                    "y": 212.91970825195312,
                    "z": -899.6776123046875
                },
                "BCHGCKLKNEH": 2.0,
                "OMCCMPHDLOO": "",
                "KPCALFDIHMC": "",
                "DBLNLMOPEBP": ""
            },
            {
                "$type": "EAMBKPBOPIC",
                "type": "LOOK_AT",
                "delayTime": 2.792414903640747,
                "aliasList": [
                    "1002"
                ],
                "FIDJDPAIFDN": true,
                "useTargetPos": true,
                "GFKIMGBGADJ": true,
                "GMKIJKADNHN": {
                    "x": 1970.41796875,
                    "y": 212.91970825195312,
                    "z": -899.6776123046875
                },
                "BCHGCKLKNEH": 2.0,
                "OMCCMPHDLOO": "",
                "KPCALFDIHMC": "",
                "DBLNLMOPEBP": ""
            },
            {
                "$type": "EAMBKPBOPIC",
                "type": "LOOK_AT",
                "delayTime": 2.792414903640747,
                "aliasList": [
                    "1005"
                ],
                "FIDJDPAIFDN": true,
                "useTargetPos": true,
                "GFKIMGBGADJ": true,
                "GMKIJKADNHN": {
                    "x": 1970.41796875,
                    "y": 212.91970825195312,
                    "z": -899.6776123046875
                },
                "BCHGCKLKNEH": 2.0,
                "OMCCMPHDLOO": "",
                "KPCALFDIHMC": "",
                "DBLNLMOPEBP": ""
            },
            {
                "$type": "OOMFCPJAJGL",
                "type": "STEER_TO",
                "delayTime": 2.797119617462158,
                "duration": 2.0,
                "aliasList": [
                    "1005"
                ],
                "PLAPKCOMAKJ": {
                    "x": -0.17084477841854095,
                    "y": 0.14863738417625427,
                    "z": -0.9740220904350281
                },
                "OMCCMPHDLOO": "",
                "DBLNLMOPEBP": ""
            },
            {
                "$type": "DLPFECMKEKH",
                "type": "DIALOG",
                "duration": 5.0,
                "aliasList": [
                    "154301"
                ],
                "NMKEDPFEKBH": 4530613,
                "JLCHMAJCAPA": 5.0
            },
            {
                "$type": "MoleMole.Config.ConfigMoveToAction",
                "type": "MOVE_TO",
                "delayTime": 3.0,
                "aliasList": [
                    "154301"
                ],
                "moveType": "WALK",
                "routeList": [
                    {
                        "x": 1970.7447509765625,
                        "y": 211.35263061523438,
                        "z": -900.2666015625
                    }
                ],
                "bindMovingTargetKey": ""
            },
            {
                "$type": "OOMFCPJAJGL",
                "type": "STEER_TO",
                "delayTime": 1.0,
                "duration": 1.0,
                "aliasList": [
                    "154301"
                ],
                "PLAPKCOMAKJ": {
                    "x": 0.07115872204303741,
                    "y": 0.18349169194698334,
                    "z": -0.9804423451423645
                },
                "GDDCAKPOIAD": 120.85675811767578,
                "HCMINPNPFDF": true,
                "OMCCMPHDLOO": "",
                "DBLNLMOPEBP": ""
            },
            {
                "$type": "ILCGAGEGDJI",
                "type": "BODY_LANG",
                "aliasList": [
                    "154301"
                ],
                "JLABKFNJCNP": true,
                "FNDLJGEAMGI": ""
            },
            {
                "$type": "EAMBKPBOPIC",
                "type": "LOOK_AT",
                "delayTime": 1.0,
                "aliasList": [
                    "154301"
                ],
                "FIDJDPAIFDN": true,
                "useTargetPos": true,
                "GFKIMGBGADJ": true,
                "GMKIJKADNHN": {
                    "x": 1967.002685546875,
                    "y": 212.59298706054688,
                    "z": -909.74658203125
                },
                "BCHGCKLKNEH": 0.4000000059604645,
                "OMCCMPHDLOO": "",
                "KPCALFDIHMC": "",
                "DBLNLMOPEBP": ""
            },
            {
                "$type": "OPCCDGPJCJI",
                "type": "EMO_SYNC",
                "aliasList": [
                    "154301"
                ],
                "IONNJBCBACJ": "Cs_Emo_Avatar_Simple_Common_Set/Cs_Emo_Avatar_Talk/Cs_Emo_Avatar_PersonalLine/Cs_Emo_Avatar_Razor/Cs_Emo_4530613",
                "HLEJKBCMNNJ": "",
                "JGHLJJLNGPP": "",
                "MANNKIIBOFM": "",
                "COMNAAFDEDH": "",
                "CPGCCLNOCDK": "",
                "IGEFGCJKCPM": [
                    4564820435984062767,
                    12105735076228921200,
                    10613775038402099216,
                    15855226872341249318
                ]
            },
            {
                "$type": "MoleMole.Config.ConfigMoveToAction",
                "type": "MOVE_TO",
                "delayTime": 2.5833334922790527,
                "aliasList": [
                    "163201"
                ],
                "moveType": "WALK",
                "routeList": [
                    {
                        "x": 1969.8055419921875,
                        "y": 211.43984985351562,
                        "z": -902.6055908203125
                    }
                ],
                "bindMovingTargetKey": ""
            },
            {
                "$type": "OOMFCPJAJGL",
                "type": "STEER_TO",
                "delayTime": 1.399999976158142,
                "duration": 1.0,
                "aliasList": [
                    "163201"
                ],
                "ECOLMDAPKKN": true,
                "GDDCAKPOIAD": 171.72731018066406,
                "HCMINPNPFDF": true,
                "OMCCMPHDLOO": "",
                "DBLNLMOPEBP": ""
            },
            {
                "$type": "EAMBKPBOPIC",
                "type": "LOOK_AT",
                "delayTime": 1.399999976158142,
                "aliasList": [
                    "163201"
                ],
                "FIDJDPAIFDN": true,
                "useTargetPos": true,
                "GFKIMGBGADJ": true,
                "GMKIJKADNHN": {
                    "x": 1967.002685546875,
                    "y": 212.59298706054688,
                    "z": -909.74658203125
                },
                "BCHGCKLKNEH": 0.4000000059604645,
                "OMCCMPHDLOO": "",
                "KPCALFDIHMC": "",
                "DBLNLMOPEBP": ""
            },
            {
                "$type": "ILCGAGEGDJI",
                "type": "BODY_LANG",
                "delayTime": 0.4000000059604645,
                "aliasList": [
                    "163201"
                ],
                "JLABKFNJCNP": true,
                "FNDLJGEAMGI": ""
            }
        ],
        [
            {
                "$type": "MOOOKOKLLEI",
                "type": "CAMERA_MOVE",
                "duration": 1.0,
                "DOKGBCKOLJK": {
                    "x": 1969.6915283203125,
                    "y": 212.5277099609375,
                    "z": -887.7544555664062
                },
                "HGKCPMDICGG": {
                    "x": 1968.891845703125,
                    "y": 212.5457000732422,
                    "z": -887.1543579101562
                },
                "AFODHELHCGB": 25.0,
                "MGMFMGNANHH": 6,
                "NDFGFJFGHKL": "EaseInOutCubic",
                "IBCBGNHCICN": {},
                "OMCCMPHDLOO": "",
                "OCFGGGHIKOO": "",
                "LJFHGGJDPHH": "",
                "LPKDFKLNEHL": ""
            },
            {
                "$type": "MoleMole.Config.ConfigBlackScreenAction",
                "type": "BLACK_SCREEN",
                "duration": 2.0,
                "blackScreenType": "KEEP_BLACK",
                "durationKeepBlack": 2.0,
                "inteePos": "",
                "textMapID": ""
            },
            {
                "$type": "MoleMole.Config.ConfigBlackScreenAction",
                "type": "BLACK_SCREEN",
                "delayTime": 2.0,
                "duration": 0.800000011920929,
                "blackScreenType": "FROM_BLACK",
                "durationFromBlack": 0.800000011920929,
                "inteePos": "",
                "textMapID": ""
            },
            {
                "$type": "MoleMole.Config.ConfigTimeProtectAction",
                "type": "TIME_PROTECT",
                "duration": 3.0
            },
            {
                "$type": "MOOOKOKLLEI",
                "type": "CAMERA_MOVE",
                "delayTime": 2.0,
                "duration": 5.0,
                "DOKGBCKOLJK": {
                    "x": 1969.711181640625,
                    "y": 212.52603149414062,
                    "z": -887.7284545898438
                },
                "HGKCPMDICGG": {
                    "x": 1968.9114990234375,
                    "y": 212.5440216064453,
                    "z": -887.1283569335938
                },
                "AFODHELHCGB": 25.0,
                "NDFGFJFGHKL": "EaseInOutCubic",
                "IBCBGNHCICN": {},
                "OMCCMPHDLOO": "",
                "OCFGGGHIKOO": "",
                "LJFHGGJDPHH": "",
                "LPKDFKLNEHL": ""
            },
            {
                "$type": "EAMBKPBOPIC",
                "type": "LOOK_AT",
                "delayTime": 1.899999976158142,
                "aliasList": [
                    "Avatar"
                ],
                "FIDJDPAIFDN": true,
                "useTargetPos": true,
                "GFKIMGBGADJ": true,
                "GMKIJKADNHN": {
                    "x": 1967.9842529296875,
                    "y": 212.8555908203125,
                    "z": -886.3129272460938
                },
                "BCHGCKLKNEH": 0.4000000059604645,
                "OMCCMPHDLOO": "",
                "KPCALFDIHMC": "",
                "DBLNLMOPEBP": ""
            },
            {
                "$type": "DLPFECMKEKH",
                "type": "DIALOG",
                "delayTime": 2.9000000953674316,
                "aliasList": [
                    "153701"
                ],
                "NMKEDPFEKBH": 4530614,
                "JLCHMAJCAPA": 0.10000000149011612
            },
            {
                "$type": "OPCCDGPJCJI",
                "type": "EMO_SYNC",
                "delayTime": 2.8999996185302734,
                "aliasList": [
                    "153701"
                ],
                "IONNJBCBACJ": "Cs_Emo_Avatar_Simple_Common_Set/Cs_Emo_Avatar_Talk/Cs_Emo_Avatar_PersonalLine/Cs_Emo_Avatar_Razor/Cs_Emo_4530614",
                "HLEJKBCMNNJ": "",
                "JGHLJJLNGPP": "",
                "MANNKIIBOFM": "",
                "COMNAAFDEDH": "",
                "CPGCCLNOCDK": "",
                "IGEFGCJKCPM": [
                    18273323787408723571,
                    1338392948853998420,
                    6887104111113348417,
                    11368355715145228831
                ]
            },
            {
                "$type": "EAMBKPBOPIC",
                "type": "LOOK_AT",
                "delayTime": 1.899999976158142,
                "aliasList": [
                    "1002"
                ],
                "FIDJDPAIFDN": true,
                "useTargetPos": true,
                "GFKIMGBGADJ": true,
                "GMKIJKADNHN": {
                    "x": 1967.9842529296875,
                    "y": 212.8555908203125,
                    "z": -886.3129272460938
                },
                "BCHGCKLKNEH": 0.4000000059604645,
                "OMCCMPHDLOO": "",
                "KPCALFDIHMC": "",
                "DBLNLMOPEBP": ""
            },
            {
                "$type": "EAMBKPBOPIC",
                "type": "LOOK_AT",
                "delayTime": 1.899999976158142,
                "aliasList": [
                    "1005"
                ],
                "FIDJDPAIFDN": true,
                "useTargetPos": true,
                "GFKIMGBGADJ": true,
                "GMKIJKADNHN": {
                    "x": 1967.9842529296875,
                    "y": 212.8555908203125,
                    "z": -886.3129272460938
                },
                "BCHGCKLKNEH": 0.4000000059604645,
                "OMCCMPHDLOO": "",
                "KPCALFDIHMC": "",
                "DBLNLMOPEBP": ""
            },
            {
                "$type": "OOMFCPJAJGL",
                "type": "STEER_TO",
                "delayTime": 1.899999976158142,
                "duration": 1.0,
                "aliasList": [
                    "1005"
                ],
                "PLAPKCOMAKJ": {
                    "x": -0.9374364614486694,
                    "y": 0.26049694418907166,
                    "z": 0.23098552227020264
                },
                "OMCCMPHDLOO": "",
                "DBLNLMOPEBP": ""
            },
            {
                "$type": "MoleMole.Config.ConfigVisibleInterAction",
                "type": "VISIBLE",
                "aliasList": [
                    "154301"
                ],
                "extraParam": ""
            },
            {
                "$type": "MoleMole.Config.ConfigVisibleInterAction",
                "type": "VISIBLE",
                "aliasList": [
                    "163201"
                ],
                "extraParam": ""
            }
        ],
        [
            {
                "$type": "MOOOKOKLLEI",
                "type": "CAMERA_MOVE",
                "duration": 1.0,
                "DOKGBCKOLJK": {
                    "x": 1974.78173828125,
                    "y": 211.84188842773438,
                    "z": -888.806640625
                },
                "HGKCPMDICGG": {
                    "x": 1973.8956298828125,
                    "y": 211.85987854003906,
                    "z": -888.3433837890625
                },
                "AFODHELHCGB": 20.0,
                "NDFGFJFGHKL": "EaseInOutCubic",
                "IBCBGNHCICN": {},
                "OMCCMPHDLOO": "",
                "OCFGGGHIKOO": "",
                "LJFHGGJDPHH": "",
                "LPKDFKLNEHL": ""
            },
            {
                "$type": "EAMBKPBOPIC",
                "type": "LOOK_AT",
                "delayTime": 0.20000000298023224,
                "aliasList": [
                    "153701"
                ],
                "FIDJDPAIFDN": true,
                "useTargetPos": true,
                "GFKIMGBGADJ": true,
                "GMKIJKADNHN": {
                    "x": 1972.526123046875,
                    "y": 211.95021057128906,
                    "z": -887.5126342773438
                },
                "BCHGCKLKNEH": 0.4000000059604645,
                "OMCCMPHDLOO": "",
                "KPCALFDIHMC": "",
                "DBLNLMOPEBP": ""
            },
            {
                "$type": "OOMFCPJAJGL",
                "type": "STEER_TO",
                "delayTime": 0.4000000059604645,
                "duration": 1.0,
                "aliasList": [
                    "1002"
                ],
                "PLAPKCOMAKJ": {
                    "x": -0.9311165809631348,
                    "y": 0.21192435920238495,
                    "z": -0.2968331277370453
                },
                "OMCCMPHDLOO": "",
                "DBLNLMOPEBP": ""
            },
            {
                "$type": "DLPFECMKEKH",
                "type": "DIALOG",
                "aliasList": [
                    "1005"
                ],
                "NMKEDPFEKBH": 4530615,
                "JLCHMAJCAPA": 0.5
            },
            {
                "$type": "ILCGAGEGDJI",
                "type": "BODY_LANG",
                "aliasList": [
                    "1005"
                ],
                "FLBOOPHHFJP": 1170,
                "FNDLJGEAMGI": ""
            },
            {
                "$type": "ILCGAGEGDJI",
                "type": "BODY_LANG",
                "delayTime": 0.4000000059604645,
                "aliasList": [
                    "1005"
                ],
                "JLABKFNJCNP": true,
                "FNDLJGEAMGI": ""
            },
            {
                "$type": "OPCCDGPJCJI",
                "type": "EMO_SYNC",
                "aliasList": [
                    "1005"
                ],
                "IONNJBCBACJ": "Cs_Emo_Avatar_Simple_Common_Set/Cs_Emo_Avatar_Talk/Cs_Emo_Avatar_PersonalLine/Cs_Emo_Avatar_Razor/Cs_Emo_4530615",
                "HLEJKBCMNNJ": "",
                "JGHLJJLNGPP": "",
                "MANNKIIBOFM": "",
                "COMNAAFDEDH": "",
                "CPGCCLNOCDK": "",
                "IGEFGCJKCPM": [
                    17620120870610627563,
                    4032709342726890266,
                    5373672830075364015,
                    17335844030656902042
                ]
            }
        ],
        [
            {
                "$type": "ECLBLHOENAG",
                "type": "DIALOG_SELECT",
                "delayTime": 0.4000000059604645,
                "aliasList": [
                    "Avatar"
                ],
                "NDMMOPDPKNF": [
                    4530617
                ],
                "FPDBIEGHMCD": [
                    3702027208
                ],
                "PKBOIGBGDEG": true
            },
            {
                "$type": "DLPFECMKEKH",
                "type": "DIALOG",
                "aliasList": [
                    "153701"
                ],
                "NMKEDPFEKBH": 4530616,
                "JLCHMAJCAPA": 0.5
            },
            {
                "$type": "ILCGAGEGDJI",
                "type": "BODY_LANG",
                "delayTime": 1.399999976158142,
                "aliasList": [
                    "153701"
                ],
                "JLABKFNJCNP": true,
                "FNDLJGEAMGI": ""
            },
            {
                "$type": "OPCCDGPJCJI",
                "type": "EMO_SYNC",
                "aliasList": [
                    "153701"
                ],
                "IONNJBCBACJ": "Cs_Emo_Avatar_Simple_Common_Set/Cs_Emo_Avatar_Talk/Cs_Emo_Avatar_PersonalLine/Cs_Emo_Avatar_Razor/Cs_Emo_4530616",
                "HLEJKBCMNNJ": "",
                "JGHLJJLNGPP": "",
                "MANNKIIBOFM": "",
                "COMNAAFDEDH": "",
                "CPGCCLNOCDK": "",
                "IGEFGCJKCPM": [
                    16887163671577307416,
                    15286019587181707731,
                    1797219406087921950,
                    6395705219001632849
                ]
            }
        ],
        [
            {
                "$type": "MOOOKOKLLEI",
                "type": "CAMERA_MOVE",
                "duration": 1.0,
                "DOKGBCKOLJK": {
                    "x": 1970.27490234375,
                    "y": 212.23452758789062,
                    "z": -886.9376831054688
                },
                "HGKCPMDICGG": {
                    "x": 1969.3197021484375,
                    "y": 212.35720825195312,
                    "z": -886.66845703125
                },
                "AFODHELHCGB": 25.0,
                "MGMFMGNANHH": 6,
                "NDFGFJFGHKL": "EaseInOutCubic",
                "IBCBGNHCICN": {},
                "OMCCMPHDLOO": "",
                "OCFGGGHIKOO": "",
                "LJFHGGJDPHH": "",
                "LPKDFKLNEHL": ""
            },
            {
                "$type": "DLPFECMKEKH",
                "type": "DIALOG",
                "aliasList": [
                    "153701"
                ],
                "NMKEDPFEKBH": 4530618,
                "JLCHMAJCAPA": 1.0
            },
            {
                "$type": "EAMBKPBOPIC",
                "type": "LOOK_AT",
                "aliasList": [
                    "153701"
                ],
                "FIDJDPAIFDN": true,
                "useTargetPos": true,
                "GFKIMGBGADJ": true,
                "GMKIJKADNHN": {
                    "x": 1972.0821533203125,
                    "y": 211.9804229736328,
                    "z": -886.7337646484375
                },
                "BCHGCKLKNEH": 0.4000000059604645,
                "OMCCMPHDLOO": "",
                "KPCALFDIHMC": "",
                "DBLNLMOPEBP": ""
            },
            {
                "$type": "ILCGAGEGDJI",
                "type": "BODY_LANG",
                "aliasList": [
                    "153701"
                ],
                "JLABKFNJCNP": true,
                "FNDLJGEAMGI": ""
            },
            {
                "$type": "ILCGAGEGDJI",
                "type": "BODY_LANG",
                "delayTime": 0.8999999761581421,
                "aliasList": [
                    "153701"
                ],
                "FLBOOPHHFJP": 1130,
                "FNDLJGEAMGI": ""
            },
            {
                "$type": "ILCGAGEGDJI",
                "type": "BODY_LANG",
                "delayTime": 6.605034828186035,
                "aliasList": [
                    "153701"
                ],
                "JLABKFNJCNP": true,
                "FNDLJGEAMGI": ""
            },
            {
                "$type": "OPCCDGPJCJI",
                "type": "EMO_SYNC",
                "aliasList": [
                    "153701"
                ],
                "IONNJBCBACJ": "Cs_Emo_Avatar_Simple_Common_Set/Cs_Emo_Avatar_Talk/Cs_Emo_Avatar_PersonalLine/Cs_Emo_Avatar_Razor/Cs_Emo_4530618",
                "HLEJKBCMNNJ": "",
                "JGHLJJLNGPP": "",
                "MANNKIIBOFM": "",
                "COMNAAFDEDH": "",
                "CPGCCLNOCDK": "",
                "IGEFGCJKCPM": [
                    12480172779790746410,
                    12122017146975272940,
                    6470099254997578038,
                    13840839441862902804
                ]
            }
        ],
        [
            {
                "$type": "MOOOKOKLLEI",
                "type": "CAMERA_MOVE",
                "duration": 1.0,
                "DOKGBCKOLJK": {
                    "x": 1966.09912109375,
                    "y": 213.2225341796875,
                    "z": -887.1898193359375
                },
                "HGKCPMDICGG": {
                    "x": 1967.0311279296875,
                    "y": 212.90985107421875,
                    "z": -887.0068359375
                },
                "AFODHELHCGB": 25.0,
                "MGMFMGNANHH": 6,
                "NDFGFJFGHKL": "EaseInOutCubic",
                "IBCBGNHCICN": {},
                "OMCCMPHDLOO": "",
                "OCFGGGHIKOO": "",
                "LJFHGGJDPHH": "",
                "LPKDFKLNEHL": ""
            },
            {
                "$type": "ILCGAGEGDJI",
                "type": "BODY_LANG",
                "aliasList": [
                    "153701"
                ],
                "JLABKFNJCNP": true,
                "FNDLJGEAMGI": ""
            },
            {
                "$type": "EAMBKPBOPIC",
                "type": "LOOK_AT",
                "delayTime": 0.4000000059604645,
                "aliasList": [
                    "153701"
                ],
                "FIDJDPAIFDN": true,
                "useTargetPos": true,
                "GFKIMGBGADJ": true,
                "GMKIJKADNHN": {
                    "x": 1971.07470703125,
                    "y": 212.10467529296875,
                    "z": -886.299560546875
                },
                "BCHGCKLKNEH": 0.4000000059604645,
                "OMCCMPHDLOO": "",
                "KPCALFDIHMC": "",
                "DBLNLMOPEBP": ""
            },
            {
                "$type": "DLPFECMKEKH",
                "type": "DIALOG",
                "aliasList": [
                    "1002"
                ],
                "NMKEDPFEKBH": 4530619,
                "JLCHMAJCAPA": 0.5
            },
            {
                "$type": "ILCGAGEGDJI",
                "type": "BODY_LANG",
                "aliasList": [
                    "1002"
                ],
                "FLBOOPHHFJP": 1130,
                "FNDLJGEAMGI": ""
            },
            {
                "$type": "OPCCDGPJCJI",
                "type": "EMO_SYNC",
                "aliasList": [
                    "1002"
                ],
                "IONNJBCBACJ": "Cs_Emo_Avatar_Simple_Common_Set/Cs_Emo_Avatar_Talk/Cs_Emo_Avatar_PersonalLine/Cs_Emo_Avatar_Razor/Cs_Emo_4530619",
                "HLEJKBCMNNJ": "",
                "JGHLJJLNGPP": "",
                "MANNKIIBOFM": "",
                "COMNAAFDEDH": "",
                "CPGCCLNOCDK": "",
                "IGEFGCJKCPM": [
                    12237940522102010829,
                    13119839986918625817,
                    13763689425022897541,
                    623220709657407547
                ]
            }
        ],
        [
            {
                "$type": "MOOOKOKLLEI",
                "type": "CAMERA_MOVE",
                "duration": 1.0,
                "DOKGBCKOLJK": {
                    "x": 1966.3590087890625,
                    "y": 213.1353302001953,
                    "z": -887.1387939453125
                },
                "HGKCPMDICGG": {
                    "x": 1967.2950439453125,
                    "y": 212.82835388183594,
                    "z": -886.9666748046875
                },
                "AFODHELHCGB": 25.0,
                "NDFGFJFGHKL": "EaseInOutCubic",
                "IBCBGNHCICN": {},
                "OMCCMPHDLOO": "",
                "OCFGGGHIKOO": "",
                "LJFHGGJDPHH": "",
                "LPKDFKLNEHL": ""
            },
            {
                "$type": "DLPFECMKEKH",
                "type": "DIALOG",
                "aliasList": [
                    "1002"
                ],
                "NMKEDPFEKBH": 4530620,
                "JLCHMAJCAPA": 1.0
            },
            {
                "$type": "OPCCDGPJCJI",
                "type": "EMO_SYNC",
                "aliasList": [
                    "1002"
                ],
                "IONNJBCBACJ": "Cs_Emo_Avatar_Simple_Common_Set/Cs_Emo_Avatar_Talk/Cs_Emo_Avatar_PersonalLine/Cs_Emo_Avatar_Razor/Cs_Emo_4530620",
                "HLEJKBCMNNJ": "",
                "JGHLJJLNGPP": "",
                "MANNKIIBOFM": "",
                "COMNAAFDEDH": "",
                "CPGCCLNOCDK": "",
                "IGEFGCJKCPM": [
                    7470285893298603650,
                    15456522646905645033,
                    499992652863541935,
                    6969294837373178577
                ]
            },
            {
                "$type": "ILCGAGEGDJI",
                "type": "BODY_LANG",
                "delayTime": 0.8999999761581421,
                "aliasList": [
                    "1005"
                ],
                "FLBOOPHHFJP": 1270,
                "FNDLJGEAMGI": ""
            }
        ],
        [
            {
                "$type": "MOOOKOKLLEI",
                "type": "CAMERA_MOVE",
                "duration": 2.0,
                "DOKGBCKOLJK": {
                    "x": 1968.4639892578125,
                    "y": 212.6947021484375,
                    "z": -886.76806640625
                },
                "HGKCPMDICGG": {
                    "x": 1969.420166015625,
                    "y": 212.40203857421875,
                    "z": -886.7576904296875
                },
                "AFODHELHCGB": 25.0,
                "NDFGFJFGHKL": "EaseInOutCubic",
                "IBCBGNHCICN": {},
                "OMCCMPHDLOO": "",
                "OCFGGGHIKOO": "",
                "LJFHGGJDPHH": "",
                "LPKDFKLNEHL": ""
            },
            {
                "$type": "EAMBKPBOPIC",
                "type": "LOOK_AT",
                "delayTime": 0.4000000059604645,
                "aliasList": [
                    "Avatar"
                ],
                "FIDJDPAIFDN": true,
                "useTargetPos": true,
                "GFKIMGBGADJ": true,
                "GMKIJKADNHN": {
                    "x": 1971.07470703125,
                    "y": 212.04234313964844,
                    "z": -886.2089233398438
                },
                "BCHGCKLKNEH": 0.4000000059604645,
                "OMCCMPHDLOO": "",
                "KPCALFDIHMC": "",
                "DBLNLMOPEBP": ""
            },
            {
                "$type": "ILCGAGEGDJI",
                "type": "BODY_LANG",
                "aliasList": [
                    "1002"
                ],
                "JLABKFNJCNP": true,
                "FNDLJGEAMGI": ""
            },
            {
                "$type": "OOMFCPJAJGL",
                "type": "STEER_TO",
                "delayTime": 0.4000000059604645,
                "duration": 1.0,
                "aliasList": [
                    "1002"
                ],
                "PLAPKCOMAKJ": {
                    "x": 0.3663609027862549,
                    "z": -0.9304727911949158
                },
                "HCMINPNPFDF": true,
                "OMCCMPHDLOO": "",
                "DBLNLMOPEBP": ""
            },
            {
                "$type": "EAMBKPBOPIC",
                "type": "LOOK_AT",
                "delayTime": 0.4000000059604645,
                "aliasList": [
                    "1002"
                ],
                "FIDJDPAIFDN": true,
                "useTargetPos": true,
                "GFKIMGBGADJ": true,
                "GMKIJKADNHN": {
                    "x": 1972.526123046875,
                    "y": 211.95021057128906,
                    "z": -887.5126342773438
                },
                "BCHGCKLKNEH": 0.4000000059604645,
                "OMCCMPHDLOO": "",
                "KPCALFDIHMC": "",
                "DBLNLMOPEBP": ""
            },
            {
                "$type": "DLPFECMKEKH",
                "type": "DIALOG",
                "aliasList": [
                    "1005"
                ],
                "NMKEDPFEKBH": 4530621,
                "JLCHMAJCAPA": 0.5
            },
            {
                "$type": "ILCGAGEGDJI",
                "type": "BODY_LANG",
                "aliasList": [
                    "1005"
                ],
                "FLBOOPHHFJP": 1170,
                "FNDLJGEAMGI": ""
            },
            {
                "$type": "EAMBKPBOPIC",
                "type": "LOOK_AT",
                "aliasList": [
                    "1005"
                ],
                "FIDJDPAIFDN": true,
                "useTargetPos": true,
                "GFKIMGBGADJ": true,
                "GMKIJKADNHN": {
                    "x": 1971.07470703125,
                    "y": 212.10467529296875,
                    "z": -886.299560546875
                },
                "BCHGCKLKNEH": 0.4000000059604645,
                "OMCCMPHDLOO": "",
                "KPCALFDIHMC": "",
                "DBLNLMOPEBP": ""
            },
            {
                "$type": "ILCGAGEGDJI",
                "type": "BODY_LANG",
                "delayTime": 0.4000000059604645,
                "aliasList": [
                    "1005"
                ],
                "JLABKFNJCNP": true,
                "FNDLJGEAMGI": ""
            },
            {
                "$type": "OPCCDGPJCJI",
                "type": "EMO_SYNC",
                "aliasList": [
                    "1005"
                ],
                "IONNJBCBACJ": "Cs_Emo_Avatar_Simple_Common_Set/Cs_Emo_Avatar_Talk/Cs_Emo_Avatar_PersonalLine/Cs_Emo_Avatar_Razor/Cs_Emo_4530621",
                "HLEJKBCMNNJ": "",
                "JGHLJJLNGPP": "",
                "MANNKIIBOFM": "",
                "COMNAAFDEDH": "",
                "CPGCCLNOCDK": "",
                "IGEFGCJKCPM": [
                    2681958897389466039,
                    6423653977293228660,
                    3861988754680801421,
                    1930038787117601562
                ]
            }
        ],
        [
            {
                "$type": "MoleMole.Config.ConfigBlackScreenAction",
                "type": "BLACK_SCREEN",
                "duration": 2.0,
                "durationToBlack": 0.800000011920929,
                "durationKeepBlack": 0.4000000059604645,
                "durationFromBlack": 0.800000011920929,
                "inteePos": "",
                "textMapID": ""
            },
            {
                "$type": "DLPFECMKEKH",
                "type": "DIALOG_CLEAR",
                "delayTime": 0.30000001192092896,
                "NMKEDPFEKBH": 4530621,
                "JLCHMAJCAPA": 2.5
            },
            {
                "$type": "MOOOKOKLLEI",
                "type": "CAMERA_MOVE",
                "delayTime": 1.0,
                "duration": 1.0,
                "IPHEFBOANAL": "EXIT",
                "DOKGBCKOLJK": {
                    "x": 1974.5921630859375,
                    "y": 212.15963745117188,
                    "z": -884.0470581054688
                },
                "DGGAJKMNNKE": "TO_INTEE",
                "HGKCPMDICGG": {
                    "x": 7.907646656036377,
                    "y": 222.76246643066406,
                    "z": -0.00029242332675494254
                },
                "MGMFMGNANHH": 6,
                "NDFGFJFGHKL": "EaseInOutCubic",
                "IBCBGNHCICN": {},
                "OMCCMPHDLOO": "",
                "OCFGGGHIKOO": "",
                "LJFHGGJDPHH": "",
                "LPKDFKLNEHL": ""
            },
            {
                "$type": "MoleMole.Config.ConfigTimeProtectAction",
                "type": "TIME_PROTECT",
                "duration": 2.0
            },
            {
                "$type": "MoleMole.Config.ConfigCameraDOFAction",
                "type": "CAMERA_DOF",
                "delayTime": 1.0
            },
            {
                "$type": "EAMBKPBOPIC",
                "type": "LOOK_AT",
                "delayTime": 1.0,
                "aliasList": [
                    "Avatar"
                ],
                "FIDJDPAIFDN": true,
                "BCHGCKLKNEH": 0.5,
                "OMCCMPHDLOO": "",
                "KPCALFDIHMC": "",
                "DBLNLMOPEBP": ""
            },
            {
                "$type": "MoleMole.Config.ConfigVisibleInterAction",
                "type": "VISIBLE",
                "delayTime": 1.0,
                "aliasList": [
                    "153701"
                ],
                "extraParam": ""
            },
            {
                "$type": "MoleMole.Config.ConfigVisibleInterAction",
                "type": "VISIBLE",
                "delayTime": 1.0,
                "aliasList": [
                    "1002"
                ],
                "extraParam": ""
            }
        ],
        [
            {
                "$type": "EAMBKPBOPIC",
                "type": "LOOK_AT",
                "aliasList": [
                    "Avatar"
                ],
                "OMCCMPHDLOO": "",
                "KPCALFDIHMC": "",
                "DBLNLMOPEBP": ""
            },
            {
                "$type": "EAMBKPBOPIC",
                "type": "LOOK_AT",
                "aliasList": [
                    "153701"
                ],
                "OMCCMPHDLOO": "",
                "KPCALFDIHMC": "",
                "DBLNLMOPEBP": ""
            },
            {
                "$type": "EAMBKPBOPIC",
                "type": "LOOK_AT",
                "aliasList": [
                    "1002"
                ],
                "OMCCMPHDLOO": "",
                "KPCALFDIHMC": "",
                "DBLNLMOPEBP": ""
            },
            {
                "$type": "EAMBKPBOPIC",
                "type": "LOOK_AT",
                "aliasList": [
                    "1005"
                ],
                "OMCCMPHDLOO": "",
                "KPCALFDIHMC": "",
                "DBLNLMOPEBP": ""
            },
            {
                "$type": "EAMBKPBOPIC",
                "type": "LOOK_AT",
                "aliasList": [
                    "154301"
                ],
                "OMCCMPHDLOO": "",
                "KPCALFDIHMC": "",
                "DBLNLMOPEBP": ""
            },
            {
                "$type": "EAMBKPBOPIC",
                "type": "LOOK_AT",
                "aliasList": [
                    "163201"
                ],
                "OMCCMPHDLOO": "",
                "KPCALFDIHMC": "",
                "DBLNLMOPEBP": ""
            }
        ]
    ],
    "groupId": [
        {
            "grpId": 1504893552,
            "nextGrpId": 1504893553
        },
        {
            "index": 1,
            "grpId": 1504893553,
            "nextGrpId": 1504893554
        },
        {
            "index": 2,
            "grpId": 1504893554,
            "nextGrpId": 1504893555
        },
        {
            "index": 3,
            "grpId": 1504893555,
            "nextGrpId": 1504893556
        },
        {
            "index": 4,
            "grpId": 1504893556,
            "nextGrpId": 1504893557
        },
        {
            "index": 5,
            "grpId": 1504893557,
            "nextGrpId": 1504893558
        },
        {
            "index": 6,
            "grpId": 1504893558,
            "nextGrpId": 1504893559
        },
        {
            "index": 7,
            "grpId": 1504893559,
            "nextGrpId": 1504893560
        },
        {
            "index": 8,
            "grpId": 1504893560,
            "nextGrpId": 3702027200
        },
        {
            "index": 9,
            "grpId": 3702027200,
            "nextGrpId": 3702027201
        },
        {
            "index": 10,
            "grpId": 3702027201,
            "nextGrpId": 3702027202
        },
        {
            "index": 11,
            "grpId": 3702027202,
            "nextGrpId": 3702027203
        },
        {
            "index": 12,
            "grpId": 3702027203,
            "nextGrpId": 3702027204
        },
        {
            "index": 13,
            "grpId": 3702027204,
            "nextGrpId": 3702027205
        },
        {
            "index": 14,
            "grpId": 3702027205,
            "nextGrpId": 3702027206
        },
        {
            "index": 15,
            "grpId": 3702027206,
            "nextGrpId": 3702027207
        },
        {
            "index": 16,
            "grpId": 3702027207,
            "nextGrpId": 3702027208
        },
        {
            "index": 17,
            "grpId": 3702027208,
            "nextGrpId": 3702027209
        },
        {
            "index": 18,
            "grpId": 3702027209,
            "nextGrpId": 3702027231
        },
        {
            "index": 19,
            "grpId": 3702027231,
            "nextGrpId": 3702027232
        },
        {
            "index": 20,
            "grpId": 3702027232,
            "nextGrpId": 3702027233
        },
        {
            "index": 21,
            "grpId": 3702027233,
            "nextGrpId": 3702027234
        },
        {
            "index": 22,
            "grpId": 3702027234,
            "nextGrpId": 3702027235
        }
    ],
    "freeStyleDic": {
        "153701": [
            1120,
            1130
        ],
        "1002": [
            1120,
            1130,
            1060
        ],
        "154301": [
            1173,
            1130,
            1171,
            1110,
            1120
        ],
        "163201": [
            1230
        ]
    }
}