{
    "luaDataPath": "",
    "startBlackKeepTime": 0.5,
    "entityBan": "",
    "disableNpcLod": true,
    "startFade": {
        "startFadeInDuration": 0.5,
        "startFadeOutDuration": 0.5
    },
    "endFade": {
        "startFadeOutDuration": 0.0
    },
    "actors": [
        {
            "alias": "Avatar",
            "visible": true,
            "bornPointName": "72173_plyershan",
            "relativePosNpcAlias": "",
            "bindMovingTargetKey": ""
        },
        {
            "configID": 1005,
            "alias": "1005",
            "visible": true,
            "bornPointName": "",
            "useRelativePos": true,
            "relativePos": {
                "x": -0.5,
                "z": -0.5
            },
            "removeActorType": "REMOVE_WITH_DISAPPEAR",
            "relativePosNpcAlias": "",
            "bindMovingTargetKey": ""
        },
        {
            "configID": 20320,
            "alias": "20320",
            "visible": true,
            "bornPointName": "72173_aliushan",
            "relativePosNpcAlias": "",
            "bindMovingTargetKey": ""
        },
        {
            "configID": 20322,
            "alias": "20322",
            "visible": true,
            "bornPointName": "72173_afushan",
            "relativePosNpcAlias": "",
            "bindMovingTargetKey": ""
        }
    ],
    "group": [
        [
            {
                "$type": "MoleMole.Config.ConfigTimeProtectAction",
                "type": "TIME_PROTECT",
                "duration": 1.0
            },
            {
                "$type": "MoleMole.Config.ConfigSimpleBlackScreenAction",
                "type": "SIMPLE_BLACK_SCREEN",
                "duration": 1.0,
                "durationToBlack": 0.5,
                "durationKeepBlack": 0.5,
                "durationFromBlack": 0.5,
                "textMapID": ""
            }
        ],
        [
            {
                "$type": "DLPFECMKEKH",
                "type": "DIALOG",
                "aliasList": [
                    "1005"
                ],
                "NMKEDPFEKBH": 721730301,
                "JLCHMAJCAPA": 0.5
            }
        ],
        [
            {
                "$type": "DLPFECMKEKH",
                "type": "DIALOG",
                "aliasList": [
                    "1005"
                ],
                "NMKEDPFEKBH": 721730302,
                "JLCHMAJCAPA": 0.5
            },
            {
                "$type": "ECLBLHOENAG",
                "type": "DIALOG_SELECT",
                "delayTime": 0.4000000059604645,
                "aliasList": [
                    "Avatar"
                ],
                "NDMMOPDPKNF": [
                    721730303
                ],
                "FPDBIEGHMCD": [
                    1971006135
                ],
                "PKBOIGBGDEG": true
            }
        ],
        [
            {
                "$type": "DLPFECMKEKH",
                "type": "DIALOG",
                "aliasList": [
                    "1005"
                ],
                "NMKEDPFEKBH": 721730304,
                "JLCHMAJCAPA": 0.5
            }
        ],
        [
            {
                "$type": "DLPFECMKEKH",
                "type": "DIALOG",
                "aliasList": [
                    "20320"
                ],
                "NMKEDPFEKBH": 721730305,
                "JLCHMAJCAPA": 0.5
            },
            {
                "$type": "ECLBLHOENAG",
                "type": "DIALOG_SELECT",
                "delayTime": 0.4000000059604645,
                "aliasList": [
                    "Avatar"
                ],
                "NDMMOPDPKNF": [
                    721730306,
                    721730307
                ],
                "FPDBIEGHMCD": [
                    1971006137,
                    1971006137
                ],
                "PKBOIGBGDEG": true
            }
        ],
        [
            {
                "$type": "DLPFECMKEKH",
                "type": "DIALOG",
                "aliasList": [
                    "20322"
                ],
                "NMKEDPFEKBH": 721730308,
                "JLCHMAJCAPA": 0.5
            }
        ],
        [
            {
                "$type": "DLPFECMKEKH",
                "type": "DIALOG",
                "aliasList": [
                    "1005"
                ],
                "NMKEDPFEKBH": 721730309,
                "JLCHMAJCAPA": 0.5
            }
        ],
        [
            {
                "$type": "DLPFECMKEKH",
                "type": "DIALOG",
                "aliasList": [
                    "1005"
                ],
                "NMKEDPFEKBH": 721730310,
                "JLCHMAJCAPA": 0.5
            },
            {
                "$type": "ECLBLHOENAG",
                "type": "DIALOG_SELECT",
                "delayTime": 0.4000000059604645,
                "aliasList": [
                    "Avatar"
                ],
                "NDMMOPDPKNF": [
                    721730311
                ],
                "FPDBIEGHMCD": [
                    1971006140
                ],
                "PKBOIGBGDEG": true
            }
        ],
        [
            {
                "$type": "DLPFECMKEKH",
                "type": "DIALOG",
                "aliasList": [
                    "1005"
                ],
                "NMKEDPFEKBH": 721730312,
                "JLCHMAJCAPA": 0.5
            }
        ],
        [
            {
                "$type": "DLPFECMKEKH",
                "type": "DIALOG",
                "aliasList": [
                    "1005"
                ],
                "NMKEDPFEKBH": 721730313,
                "JLCHMAJCAPA": 0.5
            },
            {
                "$type": "ECLBLHOENAG",
                "type": "DIALOG_SELECT",
                "delayTime": 0.4000000059604645,
                "aliasList": [
                    "Avatar"
                ],
                "NDMMOPDPKNF": [
                    721730314
                ],
                "FPDBIEGHMCD": [
                    971647997
                ],
                "PKBOIGBGDEG": true
            }
        ],
        [
            {
                "$type": "DLPFECMKEKH",
                "type": "DIALOG",
                "aliasList": [
                    "1005"
                ],
                "NMKEDPFEKBH": 721730315,
                "JLCHMAJCAPA": 0.5
            }
        ],
        [
            {
                "$type": "DLPFECMKEKH",
                "type": "DIALOG",
                "aliasList": [
                    "20320"
                ],
                "NMKEDPFEKBH": 721730316,
                "JLCHMAJCAPA": 0.5
            }
        ],
        [
            {
                "$type": "DLPFECMKEKH",
                "type": "DIALOG",
                "aliasList": [
                    "1005"
                ],
                "NMKEDPFEKBH": 721730317,
                "JLCHMAJCAPA": 0.5
            }
        ],
        [
            {
                "$type": "MoleMole.Config.ConfigSimpleBlackScreenAction",
                "type": "SIMPLE_BLACK_SCREEN",
                "delayTime": 0.7099999785423279,
                "durationToBlack": 0.5,
                "durationKeepBlack": 3.0,
                "durationFromBlack": 0.5,
                "textMapID": "QUEST_Message_Q7217317",
                "useTextFade": true
            }
        ],
        [
            {
                "$type": "DLPFECMKEKH",
                "type": "DIALOG",
                "aliasList": [
                    "20322"
                ],
                "NMKEDPFEKBH": 721730318,
                "JLCHMAJCAPA": 0.5
            }
        ],
        [
            {
                "$type": "DLPFECMKEKH",
                "type": "DIALOG",
                "aliasList": [
                    "20320"
                ],
                "NMKEDPFEKBH": 721730319,
                "JLCHMAJCAPA": 0.5
            }
        ],
        [
            {
                "$type": "DLPFECMKEKH",
                "type": "DIALOG",
                "aliasList": [
                    "1005"
                ],
                "NMKEDPFEKBH": 721730320,
                "JLCHMAJCAPA": 0.5
            }
        ],
        [
            {
                "$type": "DLPFECMKEKH",
                "type": "DIALOG",
                "aliasList": [
                    "1005"
                ],
                "NMKEDPFEKBH": 721730321,
                "JLCHMAJCAPA": 0.5
            }
        ],
        [
            {
                "$type": "DLPFECMKEKH",
                "type": "DIALOG",
                "aliasList": [
                    "20320"
                ],
                "NMKEDPFEKBH": 721730322,
                "JLCHMAJCAPA": 0.5
            }
        ],
        [
            {
                "$type": "DLPFECMKEKH",
                "type": "DIALOG",
                "aliasList": [
                    "20322"
                ],
                "NMKEDPFEKBH": 721730323,
                "JLCHMAJCAPA": 0.5
            }
        ],
        [
            {
                "$type": "DLPFECMKEKH",
                "type": "DIALOG",
                "aliasList": [
                    "1005"
                ],
                "NMKEDPFEKBH": 721730324,
                "JLCHMAJCAPA": 0.5
            },
            {
                "$type": "ECLBLHOENAG",
                "type": "DIALOG_SELECT",
                "delayTime": 0.4000000059604645,
                "aliasList": [
                    "Avatar"
                ],
                "NDMMOPDPKNF": [
                    721730325,
                    721730326
                ],
                "FPDBIEGHMCD": [
                    971648029,
                    971648029
                ],
                "PKBOIGBGDEG": true
            }
        ],
        [
            {
                "$type": "DLPFECMKEKH",
                "type": "DIALOG",
                "aliasList": [
                    "20322"
                ],
                "NMKEDPFEKBH": 721730327,
                "JLCHMAJCAPA": 0.5
            }
        ],
        [
            {
                "$type": "DLPFECMKEKH",
                "type": "DIALOG",
                "aliasList": [
                    "20320"
                ],
                "NMKEDPFEKBH": 721730328,
                "JLCHMAJCAPA": 0.5
            }
        ],
        [
            {
                "$type": "DLPFECMKEKH",
                "type": "DIALOG",
                "aliasList": [
                    "20322"
                ],
                "NMKEDPFEKBH": 721730329,
                "JLCHMAJCAPA": 0.5
            }
        ],
        [
            {
                "$type": "DLPFECMKEKH",
                "type": "DIALOG",
                "aliasList": [
                    "1005"
                ],
                "NMKEDPFEKBH": 721730330,
                "JLCHMAJCAPA": 0.5
            },
            {
                "$type": "ECLBLHOENAG",
                "type": "DIALOG_SELECT",
                "delayTime": 0.4000000059604645,
                "aliasList": [
                    "Avatar"
                ],
                "NDMMOPDPKNF": [
                    721730331,
                    721730333
                ],
                "FPDBIEGHMCD": [
                    971648033,
                    971648034
                ],
                "PKBOIGBGDEG": true
            }
        ],
        [
            {
                "$type": "DLPFECMKEKH",
                "type": "DIALOG",
                "aliasList": [
                    "1005"
                ],
                "NMKEDPFEKBH": 721730332,
                "JLCHMAJCAPA": 0.5
            }
        ],
        [
            {
                "$type": "DLPFECMKEKH",
                "type": "DIALOG",
                "aliasList": [
                    "1005"
                ],
                "NMKEDPFEKBH": 721730334,
                "JLCHMAJCAPA": 0.5
            }
        ],
        [
            {
                "$type": "MoleMole.Config.ConfigTimeProtectAction",
                "type": "TIME_PROTECT",
                "duration": 0.10000000149011612
            }
        ],
        [
            {
                "$type": "MoleMole.Config.ConfigTimeProtectAction",
                "type": "TIME_PROTECT",
                "duration": 0.10000000149011612
            }
        ]
    ],
    "groupId": [
        {
            "grpId": 1971006132,
            "nextGrpId": 1971006133
        },
        {
            "index": 1,
            "grpId": 1971006133,
            "nextGrpId": 1971006134
        },
        {
            "index": 2,
            "grpId": 1971006134,
            "nextGrpId": 1971006135
        },
        {
            "index": 3,
            "grpId": 1971006135,
            "nextGrpId": 1971006136
        },
        {
            "index": 4,
            "grpId": 1971006136,
            "nextGrpId": 1971006137
        },
        {
            "index": 5,
            "grpId": 1971006137,
            "nextGrpId": 1971006138
        },
        {
            "index": 6,
            "grpId": 1971006138,
            "nextGrpId": 1971006139
        },
        {
            "index": 7,
            "grpId": 1971006139,
            "nextGrpId": 1971006140
        },
        {
            "index": 8,
            "grpId": 1971006140,
            "nextGrpId": 971647996
        },
        {
            "index": 9,
            "grpId": 971647996,
            "nextGrpId": 971647997
        },
        {
            "index": 10,
            "grpId": 971647997,
            "nextGrpId": 971647998
        },
        {
            "index": 11,
            "grpId": 971647998,
            "nextGrpId": 971647999
        },
        {
            "index": 12,
            "grpId": 971647999,
            "nextGrpId": 971648000
        },
        {
            "index": 13,
            "grpId": 971648000,
            "nextGrpId": 971648001
        },
        {
            "index": 14,
            "grpId": 971648001,
            "nextGrpId": 971648002
        },
        {
            "index": 15,
            "grpId": 971648002,
            "nextGrpId": 971648003
        },
        {
            "index": 16,
            "grpId": 971648003,
            "nextGrpId": 971648004
        },
        {
            "index": 17,
            "grpId": 971648004,
            "nextGrpId": 971648005
        },
        {
            "index": 18,
            "grpId": 971648005,
            "nextGrpId": 971648027
        },
        {
            "index": 19,
            "grpId": 971648027,
            "nextGrpId": 971648028
        },
        {
            "index": 20,
            "grpId": 971648028,
            "nextGrpId": 971648029
        },
        {
            "index": 21,
            "grpId": 971648029,
            "nextGrpId": 971648030
        },
        {
            "index": 22,
            "grpId": 971648030,
            "nextGrpId": 971648031
        },
        {
            "index": 23,
            "grpId": 971648031,
            "nextGrpId": 971648032
        },
        {
            "index": 24,
            "grpId": 971648032,
            "nextGrpId": 971648033
        },
        {
            "index": 25,
            "grpId": 971648033,
            "nextGrpId": 971648034
        },
        {
            "index": 26,
            "grpId": 971648034,
            "nextGrpId": 971648035
        },
        {
            "index": 27,
            "grpId": 971648035,
            "nextGrpId": 971648036
        },
        {
            "index": 28,
            "grpId": 971648036,
            "nextGrpId": 971648058
        }
    ],
    "freeStyleDic": {
        "20320": [],
        "20322": []
    }
}