{
    "luaDataPath": "",
    "startBlackKeepTime": 0.5,
    "entityBan": "2068NPC_Hide",
    "disableNpcLod": true,
    "startFade": {
        "startFadeInDuration": 0.5,
        "startFadeOutDuration": 0.5
    },
    "endFade": {
        "startFadeOutDuration": 0.0
    },
    "actors": [
        {
            "alias": "Avatar",
            "visible": true,
            "bornPointName": "Q1100809Player",
            "relativePosNpcAlias": "",
            "bindMovingTargetKey": ""
        },
        {
            "configID": 10234,
            "alias": "10234",
            "visible": true,
            "bornPointName": "Q1100809Baizh",
            "relativePosNpcAlias": "",
            "bindMovingTargetKey": ""
        },
        {
            "configID": 1030,
            "alias": "1030",
            "visible": true,
            "bornPointName": "Q1100809Yanfei",
            "removeActorType": "REMOVE",
            "relativePosNpcAlias": "",
            "bindMovingTargetKey": ""
        },
        {
            "configID": 1005,
            "alias": "1005",
            "visible": true,
            "bornPointName": "Q1100809Paimon",
            "removeActorType": "REMOVE_WITH_DISAPPEAR",
            "relativePosNpcAlias": "",
            "bindMovingTargetKey": ""
        },
        {
            "configID": 2103,
            "alias": "2103",
            "bornPointName": "Q1120001AGui",
            "relativePosNpcAlias": "",
            "bindMovingTargetKey": ""
        }
    ],
    "group": [
        [
            {
                "$type": "MoleMole.Config.ConfigSimpleBlackScreenAction",
                "type": "SIMPLE_BLACK_SCREEN",
                "duration": 1.0,
                "durationToBlack": 0.5,
                "durationKeepBlack": 0.5,
                "durationFromBlack": 0.5,
                "textMapID": ""
            },
            {
                "$type": "MoleMole.Config.ConfigTeleportToAction",
                "type": "TELEPORT_TO",
                "aliasList": [
                    "10234"
                ],
                "position": {
                    "x": -428.0282897949219,
                    "y": 239.24655151367188,
                    "z": 435.2881774902344
                },
                "forward": {
                    "x": -0.9706217050552368,
                    "y": 2.3426142803373295e-08,
                    "z": -0.24061131477355957
                },
                "posBindMovingTargetKey": "",
                "forwardBindMovingTargetKey": ""
            },
            {
                "$type": "EAMBKPBOPIC",
                "type": "LOOK_AT",
                "aliasList": [
                    "1030"
                ],
                "FIDJDPAIFDN": true,
                "EFHJCGEOHAF": {
                    "y": -370.0
                },
                "BCHGCKLKNEH": 0.5,
                "OMCCMPHDLOO": "",
                "KPCALFDIHMC": "",
                "DBLNLMOPEBP": ""
            }
        ],
        [
            {
                "$type": "MOOOKOKLLEI",
                "type": "CAMERA_MOVE",
                "delayTime": 0.10000000149011612,
                "duration": 14.348346710205078,
                "DOKGBCKOLJK": {
                    "x": -432.0333557128906,
                    "y": 241.03036499023438,
                    "z": 436.48260498046875
                },
                "HGKCPMDICGG": {
                    "x": -431.1201477050781,
                    "y": 240.82484436035156,
                    "z": 436.1307067871094
                },
                "AFODHELHCGB": 40.0,
                "NDFGFJFGHKL": "EaseOutQuad",
                "IBCBGNHCICN": {},
                "HCPFCAHMGMO": false,
                "OMCCMPHDLOO": "",
                "OCFGGGHIKOO": "",
                "LJFHGGJDPHH": "",
                "LPKDFKLNEHL": ""
            },
            {
                "$type": "MOOOKOKLLEI",
                "type": "CAMERA_MOVE",
                "duration": 1.0,
                "DOKGBCKOLJK": {
                    "x": -431.70599365234375,
                    "y": 240.93312072753906,
                    "z": 437.1758728027344
                },
                "HGKCPMDICGG": {
                    "x": -430.8784484863281,
                    "y": 240.7452392578125,
                    "z": 436.6468505859375
                },
                "AFODHELHCGB": 40.0,
                "MGMFMGNANHH": 6,
                "NDFGFJFGHKL": "EaseInOutCubic",
                "IBCBGNHCICN": {},
                "HCPFCAHMGMO": false,
                "OMCCMPHDLOO": "",
                "OCFGGGHIKOO": "",
                "LJFHGGJDPHH": "",
                "LPKDFKLNEHL": ""
            },
            {
                "$type": "DLPFECMKEKH",
                "type": "DIALOG",
                "aliasList": [
                    "10234"
                ],
                "NMKEDPFEKBH": 110080901,
                "JLCHMAJCAPA": 0.5
            },
            {
                "$type": "EAMBKPBOPIC",
                "type": "LOOK_AT",
                "delayTime": 2.450000047683716,
                "aliasList": [
                    "10234"
                ],
                "FIDJDPAIFDN": true,
                "EFHJCGEOHAF": {
                    "x": 45.871280670166016,
                    "y": 4.638896214316686e-14
                },
                "BCHGCKLKNEH": 0.5,
                "OMCCMPHDLOO": "",
                "KPCALFDIHMC": "",
                "DBLNLMOPEBP": ""
            },
            {
                "$type": "CJKIHIFAALJ",
                "type": "LOOK_AT_EYECTRL",
                "aliasList": [
                    "10234"
                ],
                "useTargetPos": false,
                "BJMEKPDGMPA": 1.0,
                "OMCCMPHDLOO": "",
                "OPPBKKOPIOB": "Face"
            },
            {
                "$type": "ILCGAGEGDJI",
                "type": "BODY_LANG",
                "delayTime": 5.0,
                "aliasList": [
                    "10234"
                ],
                "JLABKFNJCNP": true,
                "PMJAMGLAJGK": true,
                "FNDLJGEAMGI": ""
            },
            {
                "$type": "EAMBKPBOPIC",
                "type": "LOOK_AT",
                "aliasList": [
                    "10234"
                ],
                "FIDJDPAIFDN": true,
                "EFHJCGEOHAF": {
                    "y": -360.0
                },
                "BCHGCKLKNEH": 0.5,
                "OMCCMPHDLOO": "",
                "KPCALFDIHMC": "",
                "DBLNLMOPEBP": ""
            },
            {
                "$type": "EAMBKPBOPIC",
                "type": "LOOK_AT",
                "delayTime": 5.0,
                "aliasList": [
                    "10234"
                ],
                "FIDJDPAIFDN": true,
                "EFHJCGEOHAF": {
                    "x": 6.923292636871338,
                    "y": -3.388394708044029e-14
                },
                "BCHGCKLKNEH": 0.5,
                "OMCCMPHDLOO": "",
                "KPCALFDIHMC": "",
                "DBLNLMOPEBP": ""
            },
            {
                "$type": "OPCCDGPJCJI",
                "type": "EMO_SYNC",
                "aliasList": [
                    "10234"
                ],
                "IONNJBCBACJ": "Cs_Emo_Avatar_Simple_Common_Set/Cs_Emo_Avatar_Talk/Cs_Emo_Avatar_Event/Cs_Emo_Homeworld/Cs_Emo_110080901",
                "HLEJKBCMNNJ": "",
                "JGHLJJLNGPP": "",
                "MANNKIIBOFM": "",
                "COMNAAFDEDH": "",
                "CPGCCLNOCDK": "",
                "IGEFGCJKCPM": [
                    9096744588553454346,
                    16080392379553029851,
                    12029079621336728174,
                    5808145517060263646
                ]
            },
            {
                "$type": "ILCGAGEGDJI",
                "type": "BODY_LANG",
                "delayTime": 1.0296804904937744,
                "aliasList": [
                    "10234"
                ],
                "FLBOOPHHFJP": 1172,
                "PMJAMGLAJGK": true,
                "LIMPPBIAKGL": false,
                "FNDLJGEAMGI": ""
            },
            {
                "$type": "EAMBKPBOPIC",
                "type": "LOOK_AT",
                "delayTime": 2.5999999046325684,
                "aliasList": [
                    "1030"
                ],
                "FIDJDPAIFDN": true,
                "EFHJCGEOHAF": {
                    "x": 332.4093322753906,
                    "y": 343.5293273925781
                },
                "BCHGCKLKNEH": 0.5,
                "OMCCMPHDLOO": "",
                "KPCALFDIHMC": "",
                "DBLNLMOPEBP": ""
            },
            {
                "$type": "ILCGAGEGDJI",
                "type": "BODY_LANG",
                "delayTime": 4.403126239776611,
                "aliasList": [
                    "1005"
                ],
                "FLBOOPHHFJP": 1090,
                "PMJAMGLAJGK": true,
                "FNDLJGEAMGI": ""
            }
        ],
        [
            {
                "$type": "MOOOKOKLLEI",
                "type": "CAMERA_MOVE",
                "delayTime": 0.10000000149011612,
                "duration": 23.618677139282227,
                "DOKGBCKOLJK": {
                    "x": -429.2723693847656,
                    "y": 240.83253479003906,
                    "z": 434.7213134765625
                },
                "HGKCPMDICGG": {
                    "x": -428.36199951171875,
                    "y": 240.7456512451172,
                    "z": 435.1258850097656
                },
                "AFODHELHCGB": 40.0,
                "NDFGFJFGHKL": "EaseOutQuad",
                "IBCBGNHCICN": {},
                "HCPFCAHMGMO": false,
                "OMCCMPHDLOO": "",
                "OCFGGGHIKOO": "",
                "LJFHGGJDPHH": "",
                "LPKDFKLNEHL": ""
            },
            {
                "$type": "MOOOKOKLLEI",
                "type": "CAMERA_MOVE",
                "duration": 1.0,
                "DOKGBCKOLJK": {
                    "x": -429.308837890625,
                    "y": 240.82699584960938,
                    "z": 434.80218505859375
                },
                "HGKCPMDICGG": {
                    "x": -428.3984680175781,
                    "y": 240.7401123046875,
                    "z": 435.2067565917969
                },
                "AFODHELHCGB": 40.0,
                "MGMFMGNANHH": 6,
                "NDFGFJFGHKL": "EaseInOutCubic",
                "IBCBGNHCICN": {},
                "HCPFCAHMGMO": false,
                "OMCCMPHDLOO": "",
                "OCFGGGHIKOO": "",
                "LJFHGGJDPHH": "",
                "LPKDFKLNEHL": ""
            },
            {
                "$type": "DLPFECMKEKH",
                "type": "DIALOG",
                "aliasList": [
                    "10234"
                ],
                "NMKEDPFEKBH": 110080902,
                "JLCHMAJCAPA": 0.5
            },
            {
                "$type": "ILCGAGEGDJI",
                "type": "BODY_LANG",
                "delayTime": 5.706551551818848,
                "aliasList": [
                    "10234"
                ],
                "FLBOOPHHFJP": 1172,
                "PMJAMGLAJGK": true,
                "FNDLJGEAMGI": ""
            },
            {
                "$type": "EAMBKPBOPIC",
                "type": "LOOK_AT",
                "aliasList": [
                    "10234"
                ],
                "FIDJDPAIFDN": true,
                "EFHJCGEOHAF": {
                    "x": -30.0,
                    "y": -360.0
                },
                "BCHGCKLKNEH": 0.30000001192092896,
                "OMCCMPHDLOO": "",
                "KPCALFDIHMC": "",
                "DBLNLMOPEBP": ""
            },
            {
                "$type": "CJKIHIFAALJ",
                "type": "LOOK_AT_EYECTRL",
                "aliasList": [
                    "10234"
                ],
                "useTargetPos": false,
                "BJMEKPDGMPA": 1.0,
                "OMCCMPHDLOO": "",
                "OPPBKKOPIOB": "Face"
            },
            {
                "$type": "CJKIHIFAALJ",
                "type": "LOOK_AT_EYECTRL",
                "delayTime": 4.0584282875061035,
                "aliasList": [
                    "10234"
                ],
                "useTargetPos": false,
                "KOPLMCFNFEH": {
                    "x": -1.0,
                    "z": 1.0
                },
                "DONDAIFPGMK": {
                    "x": -1.0,
                    "z": 1.0
                },
                "BJMEKPDGMPA": 0.10000000149011612,
                "OMCCMPHDLOO": "",
                "OPPBKKOPIOB": "Face"
            },
            {
                "$type": "OPCCDGPJCJI",
                "type": "EMO_SYNC",
                "aliasList": [
                    "10234"
                ],
                "IONNJBCBACJ": "Cs_Emo_Avatar_Simple_Common_Set/Cs_Emo_Avatar_Talk/Cs_Emo_Avatar_Event/Cs_Emo_Homeworld/Cs_Emo_110080902",
                "HLEJKBCMNNJ": "",
                "JGHLJJLNGPP": "",
                "MANNKIIBOFM": "",
                "COMNAAFDEDH": "",
                "CPGCCLNOCDK": "",
                "IGEFGCJKCPM": [
                    3948280565007596958,
                    15042738427188292043,
                    11297369999551732642,
                    14954113806613495655
                ]
            },
            {
                "$type": "OOMFCPJAJGL",
                "type": "STEER_TO",
                "duration": 0.800000011920929,
                "aliasList": [
                    "1030"
                ],
                "DMGIIHNDNLC": "ABSOLUTE",
                "PLAPKCOMAKJ": {
                    "x": -427.9352111816406,
                    "y": 239.2592010498047,
                    "z": 435.43231201171875
                },
                "HCMINPNPFDF": true,
                "OMCCMPHDLOO": "",
                "DBLNLMOPEBP": ""
            },
            {
                "$type": "EAMBKPBOPIC",
                "type": "LOOK_AT",
                "delayTime": 0.20000000298023224,
                "aliasList": [
                    "1005"
                ],
                "FIDJDPAIFDN": true,
                "EFHJCGEOHAF": {
                    "x": 45.521663665771484,
                    "y": 356.2279357910156
                },
                "BCHGCKLKNEH": 0.20000000298023224,
                "OMCCMPHDLOO": "",
                "KPCALFDIHMC": "",
                "DBLNLMOPEBP": ""
            }
        ],
        [
            {
                "$type": "MOOOKOKLLEI",
                "type": "CAMERA_MOVE",
                "delayTime": 0.10000000149011612,
                "duration": 16.0,
                "DOKGBCKOLJK": {
                    "x": -428.2767333984375,
                    "y": 240.6347198486328,
                    "z": 435.2166442871094
                },
                "HGKCPMDICGG": {
                    "x": -428.6582946777344,
                    "y": 240.52096557617188,
                    "z": 434.29931640625
                },
                "AFODHELHCGB": 40.0,
                "NDFGFJFGHKL": "EaseOutQuad",
                "IBCBGNHCICN": {},
                "HCPFCAHMGMO": false,
                "OMCCMPHDLOO": "",
                "OCFGGGHIKOO": "",
                "LJFHGGJDPHH": "",
                "LPKDFKLNEHL": ""
            },
            {
                "$type": "MOOOKOKLLEI",
                "type": "CAMERA_MOVE",
                "duration": 1.0,
                "DOKGBCKOLJK": {
                    "x": -428.2864685058594,
                    "y": 240.63418579101562,
                    "z": 435.2207946777344
                },
                "HGKCPMDICGG": {
                    "x": -428.66802978515625,
                    "y": 240.5204315185547,
                    "z": 434.303466796875
                },
                "AFODHELHCGB": 40.0,
                "MGMFMGNANHH": 6,
                "NDFGFJFGHKL": "EaseOutQuad",
                "IBCBGNHCICN": {},
                "HCPFCAHMGMO": false,
                "OMCCMPHDLOO": "",
                "OCFGGGHIKOO": "",
                "LJFHGGJDPHH": "",
                "LPKDFKLNEHL": ""
            },
            {
                "$type": "MoleMole.Config.ConfigVisibleInterAction",
                "type": "VISIBLE",
                "aliasList": [
                    "10234"
                ],
                "extraParam": ""
            },
            {
                "$type": "DLPFECMKEKH",
                "type": "DIALOG",
                "aliasList": [
                    "1030"
                ],
                "NMKEDPFEKBH": 110080903,
                "JLCHMAJCAPA": 0.5
            },
            {
                "$type": "ILCGAGEGDJI",
                "type": "BODY_LANG",
                "aliasList": [
                    "1030"
                ],
                "FLBOOPHHFJP": 1150,
                "PMJAMGLAJGK": true,
                "FNDLJGEAMGI": ""
            },
            {
                "$type": "EAMBKPBOPIC",
                "type": "LOOK_AT",
                "delayTime": 0.806157112121582,
                "aliasList": [
                    "1030"
                ],
                "FIDJDPAIFDN": true,
                "useTargetPos": true,
                "GFKIMGBGADJ": true,
                "GMKIJKADNHN": {
                    "x": -428.0814208984375,
                    "y": 240.8714141845703,
                    "z": 435.2038269042969
                },
                "EFHJCGEOHAF": {
                    "x": 360.0,
                    "y": 340.0
                },
                "BCHGCKLKNEH": 0.30000001192092896,
                "OMCCMPHDLOO": "",
                "KPCALFDIHMC": "",
                "DBLNLMOPEBP": ""
            },
            {
                "$type": "EAMBKPBOPIC",
                "type": "LOOK_AT",
                "aliasList": [
                    "1030"
                ],
                "FIDJDPAIFDN": true,
                "useTargetPos": true,
                "GFKIMGBGADJ": true,
                "GMKIJKADNHN": {
                    "x": -428.0113525390625,
                    "y": 250.0,
                    "z": 435.26251220703125
                },
                "EFHJCGEOHAF": {
                    "x": 360.0,
                    "y": 340.0
                },
                "BCHGCKLKNEH": 0.5,
                "OMCCMPHDLOO": "",
                "KPCALFDIHMC": "",
                "DBLNLMOPEBP": ""
            },
            {
                "$type": "ILCGAGEGDJI",
                "type": "BODY_LANG",
                "delayTime": 4.800000190734863,
                "aliasList": [
                    "1030"
                ],
                "FLBOOPHHFJP": 1171,
                "PMJAMGLAJGK": true,
                "FNDLJGEAMGI": ""
            },
            {
                "$type": "CJKIHIFAALJ",
                "type": "LOOK_AT_EYECTRL",
                "delayTime": 4.730166435241699,
                "aliasList": [
                    "1030"
                ],
                "useTargetPos": false,
                "KOPLMCFNFEH": {
                    "x": 1.0,
                    "z": -5.0
                },
                "DONDAIFPGMK": {
                    "x": 1.0,
                    "z": -5.0
                },
                "BJMEKPDGMPA": 0.05000000074505806,
                "OMCCMPHDLOO": "",
                "OPPBKKOPIOB": "Face"
            },
            {
                "$type": "CJKIHIFAALJ",
                "type": "LOOK_AT_EYECTRL",
                "delayTime": 0.27352702617645264,
                "aliasList": [
                    "1030"
                ],
                "useTargetPos": false,
                "KOPLMCFNFEH": {
                    "z": -5.0
                },
                "DONDAIFPGMK": {
                    "z": -5.0
                },
                "BJMEKPDGMPA": 0.05000000074505806,
                "OMCCMPHDLOO": "",
                "OPPBKKOPIOB": "Face"
            },
            {
                "$type": "CJKIHIFAALJ",
                "type": "LOOK_AT_EYECTRL",
                "delayTime": 1.6843504905700684,
                "aliasList": [
                    "1030"
                ],
                "useTargetPos": false,
                "KOPLMCFNFEH": {
                    "x": 4.0,
                    "z": -5.0
                },
                "DONDAIFPGMK": {
                    "x": 4.0,
                    "z": -5.0
                },
                "BJMEKPDGMPA": 0.05000000074505806,
                "OMCCMPHDLOO": "",
                "OPPBKKOPIOB": "Face"
            },
            {
                "$type": "CJKIHIFAALJ",
                "type": "LOOK_AT_EYECTRL",
                "delayTime": 2.233497142791748,
                "aliasList": [
                    "1030"
                ],
                "useTargetPos": false,
                "KOPLMCFNFEH": {
                    "x": -1.0,
                    "z": -2.0
                },
                "DONDAIFPGMK": {
                    "x": -1.0,
                    "z": -2.0
                },
                "BJMEKPDGMPA": 0.05000000074505806,
                "OMCCMPHDLOO": "",
                "OPPBKKOPIOB": "Face"
            },
            {
                "$type": "CJKIHIFAALJ",
                "type": "LOOK_AT_EYECTRL",
                "aliasList": [
                    "1030"
                ],
                "useTargetPos": false,
                "BJMEKPDGMPA": 1.0,
                "OMCCMPHDLOO": "",
                "OPPBKKOPIOB": "Face"
            },
            {
                "$type": "OPCCDGPJCJI",
                "type": "EMO_SYNC",
                "aliasList": [
                    "1030"
                ],
                "IONNJBCBACJ": "Cs_Emo_Avatar_Simple_Common_Set/Cs_Emo_Avatar_Talk/Cs_Emo_Avatar_Event/Cs_Emo_Homeworld/Cs_Emo_110080903",
                "HLEJKBCMNNJ": "",
                "JGHLJJLNGPP": "",
                "MANNKIIBOFM": "",
                "COMNAAFDEDH": "",
                "CPGCCLNOCDK": "",
                "IGEFGCJKCPM": [
                    11656066090837299358,
                    5312716984538911080,
                    12854525699822043064,
                    16274575467061429997
                ]
            }
        ],
        [
            {
                "$type": "MOOOKOKLLEI",
                "type": "CAMERA_MOVE",
                "duration": 1.0,
                "DOKGBCKOLJK": {
                    "x": -428.5977478027344,
                    "y": 240.75767517089844,
                    "z": 434.78521728515625
                },
                "HGKCPMDICGG": {
                    "x": -427.82818603515625,
                    "y": 240.95144653320312,
                    "z": 435.3936767578125
                },
                "AFODHELHCGB": 28.0,
                "MGMFMGNANHH": 6,
                "NDFGFJFGHKL": "EaseInOutCubic",
                "IBCBGNHCICN": {},
                "HCPFCAHMGMO": false,
                "OMCCMPHDLOO": "",
                "OCFGGGHIKOO": "",
                "LJFHGGJDPHH": "",
                "LPKDFKLNEHL": ""
            },
            {
                "$type": "DLPFECMKEKH",
                "type": "DIALOG",
                "aliasList": [
                    "10234"
                ],
                "NMKEDPFEKBH": 110080904,
                "JLCHMAJCAPA": 0.5
            },
            {
                "$type": "ILCGAGEGDJI",
                "type": "BODY_LANG",
                "delayTime": 2.950000047683716,
                "aliasList": [
                    "10234"
                ],
                "FLBOOPHHFJP": 1190,
                "PMJAMGLAJGK": true,
                "FNDLJGEAMGI": ""
            },
            {
                "$type": "EAMBKPBOPIC",
                "type": "LOOK_AT",
                "delayTime": 2.950000047683716,
                "aliasList": [
                    "10234"
                ],
                "FIDJDPAIFDN": true,
                "EFHJCGEOHAF": {
                    "x": 16.767127990722656,
                    "y": 7.683163642883301
                },
                "BCHGCKLKNEH": 0.30000001192092896,
                "OMCCMPHDLOO": "",
                "KPCALFDIHMC": "",
                "DBLNLMOPEBP": ""
            },
            {
                "$type": "CJKIHIFAALJ",
                "type": "LOOK_AT_EYECTRL",
                "delayTime": 1.7999999523162842,
                "duration": 0.10000000149011612,
                "aliasList": [
                    "10234"
                ],
                "useTargetPos": false,
                "KOPLMCFNFEH": {
                    "x": 6.0,
                    "z": 6.0
                },
                "DONDAIFPGMK": {
                    "x": 6.0,
                    "z": 6.0
                },
                "BJMEKPDGMPA": 0.10000000149011612,
                "OMCCMPHDLOO": "",
                "OPPBKKOPIOB": "Face"
            },
            {
                "$type": "CJKIHIFAALJ",
                "type": "LOOK_AT_EYECTRL",
                "delayTime": 0.0619964599609375,
                "aliasList": [
                    "10234"
                ],
                "useTargetPos": false,
                "BJMEKPDGMPA": 1.0,
                "OMCCMPHDLOO": "",
                "OPPBKKOPIOB": "Face"
            },
            {
                "$type": "CJKIHIFAALJ",
                "type": "LOOK_AT_EYECTRL",
                "delayTime": 0.49388137459754944,
                "aliasList": [
                    "10234"
                ],
                "useTargetPos": false,
                "KOPLMCFNFEH": {
                    "x": 2.0
                },
                "DONDAIFPGMK": {
                    "x": 2.0
                },
                "BJMEKPDGMPA": 0.05000000074505806,
                "OMCCMPHDLOO": "",
                "OPPBKKOPIOB": "Face"
            },
            {
                "$type": "CJKIHIFAALJ",
                "type": "LOOK_AT_EYECTRL",
                "delayTime": 4.951738357543945,
                "duration": 0.10000000149011612,
                "aliasList": [
                    "10234"
                ],
                "useTargetPos": false,
                "KOPLMCFNFEH": {
                    "x": 4.0,
                    "z": 6.0
                },
                "DONDAIFPGMK": {
                    "x": 4.0,
                    "z": 6.0
                },
                "BJMEKPDGMPA": 0.05000000074505806,
                "OMCCMPHDLOO": "",
                "OPPBKKOPIOB": "Face"
            },
            {
                "$type": "OPCCDGPJCJI",
                "type": "EMO_SYNC",
                "aliasList": [
                    "10234"
                ],
                "IONNJBCBACJ": "Cs_Emo_Avatar_Simple_Common_Set/Cs_Emo_Avatar_Talk/Cs_Emo_Avatar_Event/Cs_Emo_Homeworld/Cs_Emo_110080904",
                "HLEJKBCMNNJ": "",
                "JGHLJJLNGPP": "",
                "MANNKIIBOFM": "",
                "COMNAAFDEDH": "",
                "CPGCCLNOCDK": "",
                "IGEFGCJKCPM": [
                    13182470519201472652,
                    2577689614156728376,
                    1398683052824470027,
                    16037841228934728619
                ]
            },
            {
                "$type": "ILCGAGEGDJI",
                "type": "BODY_LANG",
                "aliasList": [
                    "10234"
                ],
                "JLABKFNJCNP": true,
                "PMJAMGLAJGK": true,
                "FNDLJGEAMGI": ""
            },
            {
                "$type": "MoleMole.Config.ConfigVisibleInterAction",
                "type": "VISIBLE",
                "aliasList": [
                    "10234"
                ],
                "isVisible": true,
                "extraParam": ""
            },
            {
                "$type": "EAMBKPBOPIC",
                "type": "LOOK_AT",
                "aliasList": [
                    "1005"
                ],
                "FIDJDPAIFDN": true,
                "EFHJCGEOHAF": {
                    "x": 353.6581115722656,
                    "y": 340.3824462890625
                },
                "BCHGCKLKNEH": 0.20000000298023224,
                "OMCCMPHDLOO": "",
                "KPCALFDIHMC": "",
                "DBLNLMOPEBP": ""
            }
        ],
        [
            {
                "$type": "MOOOKOKLLEI",
                "type": "CAMERA_MOVE",
                "delayTime": 0.10000000149011612,
                "duration": 25.0,
                "DOKGBCKOLJK": {
                    "x": -432.9378967285156,
                    "y": 243.5572509765625,
                    "z": 431.74774169921875
                },
                "HGKCPMDICGG": {
                    "x": -432.251953125,
                    "y": 243.0612335205078,
                    "z": 432.2801208496094
                },
                "AFODHELHCGB": 30.0,
                "NDFGFJFGHKL": "EaseOutQuad",
                "IBCBGNHCICN": {},
                "HCPFCAHMGMO": false,
                "OMCCMPHDLOO": "",
                "OCFGGGHIKOO": "",
                "LJFHGGJDPHH": "",
                "LPKDFKLNEHL": ""
            },
            {
                "$type": "MOOOKOKLLEI",
                "type": "CAMERA_MOVE",
                "duration": 1.0,
                "DOKGBCKOLJK": {
                    "x": -433.13836669921875,
                    "y": 243.56114196777344,
                    "z": 432.01409912109375
                },
                "HGKCPMDICGG": {
                    "x": -432.4476623535156,
                    "y": 243.06512451171875,
                    "z": 432.540283203125
                },
                "AFODHELHCGB": 30.0,
                "MGMFMGNANHH": 6,
                "NDFGFJFGHKL": "EaseInOutCubic",
                "IBCBGNHCICN": {},
                "HCPFCAHMGMO": false,
                "OMCCMPHDLOO": "",
                "OCFGGGHIKOO": "",
                "LJFHGGJDPHH": "",
                "LPKDFKLNEHL": ""
            },
            {
                "$type": "DLPFECMKEKH",
                "type": "DIALOG",
                "aliasList": [
                    "10234"
                ],
                "NMKEDPFEKBH": 110080905,
                "JLCHMAJCAPA": 0.5
            },
            {
                "$type": "ILCGAGEGDJI",
                "type": "BODY_LANG",
                "delayTime": 5.0,
                "aliasList": [
                    "10234"
                ],
                "FLBOOPHHFJP": 1172,
                "PMJAMGLAJGK": true,
                "FNDLJGEAMGI": ""
            },
            {
                "$type": "EAMBKPBOPIC",
                "type": "LOOK_AT",
                "delayTime": 6.5,
                "aliasList": [
                    "10234"
                ],
                "FIDJDPAIFDN": true,
                "EFHJCGEOHAF": {
                    "x": 332.92657470703125,
                    "y": 359.80987548828125
                },
                "BCHGCKLKNEH": 0.30000001192092896,
                "OMCCMPHDLOO": "",
                "KPCALFDIHMC": "",
                "DBLNLMOPEBP": ""
            },
            {
                "$type": "EAMBKPBOPIC",
                "type": "LOOK_AT",
                "delayTime": 2.0999999046325684,
                "aliasList": [
                    "10234"
                ],
                "FIDJDPAIFDN": true,
                "EFHJCGEOHAF": {
                    "x": -1.42259091262531e-06,
                    "y": 352.6123046875
                },
                "BCHGCKLKNEH": 0.20000000298023224,
                "OMCCMPHDLOO": "",
                "KPCALFDIHMC": "",
                "DBLNLMOPEBP": ""
            },
            {
                "$type": "OPCCDGPJCJI",
                "type": "EMO_SYNC",
                "aliasList": [
                    "10234"
                ],
                "IONNJBCBACJ": "Cs_Emo_Avatar_Simple_Common_Set/Cs_Emo_Avatar_Talk/Cs_Emo_Avatar_Event/Cs_Emo_Homeworld/Cs_Emo_110080905",
                "HLEJKBCMNNJ": "",
                "JGHLJJLNGPP": "",
                "MANNKIIBOFM": "",
                "COMNAAFDEDH": "",
                "CPGCCLNOCDK": "",
                "IGEFGCJKCPM": [
                    9681547380415611624,
                    11835404265001382346,
                    4194956688432082757,
                    13653539233016579564
                ]
            },
            {
                "$type": "EAMBKPBOPIC",
                "type": "LOOK_AT",
                "aliasList": [
                    "1005"
                ],
                "BCHGCKLKNEH": 0.5,
                "OMCCMPHDLOO": "",
                "KPCALFDIHMC": "",
                "DBLNLMOPEBP": ""
            },
            {
                "$type": "EAMBKPBOPIC",
                "type": "LOOK_AT",
                "delayTime": 0.12285668402910233,
                "aliasList": [
                    "1005"
                ],
                "FIDJDPAIFDN": true,
                "EFHJCGEOHAF": {
                    "x": 353.9726257324219,
                    "y": 341.4363098144531
                },
                "BCHGCKLKNEH": 0.5,
                "OMCCMPHDLOO": "",
                "KPCALFDIHMC": "",
                "DBLNLMOPEBP": ""
            },
            {
                "$type": "EAMBKPBOPIC",
                "type": "LOOK_AT",
                "delayTime": 7.262969017028809,
                "aliasList": [
                    "1005"
                ],
                "FIDJDPAIFDN": true,
                "EFHJCGEOHAF": {
                    "x": 63.9676513671875,
                    "y": 354.2489929199219
                },
                "BCHGCKLKNEH": 0.20000000298023224,
                "OMCCMPHDLOO": "",
                "KPCALFDIHMC": "",
                "DBLNLMOPEBP": ""
            },
            {
                "$type": "ILCGAGEGDJI",
                "type": "BODY_LANG",
                "delayTime": 7.300000190734863,
                "aliasList": [
                    "1005"
                ],
                "JLABKFNJCNP": true,
                "KACOEDHDAMC": false,
                "FNDLJGEAMGI": ""
            }
        ],
        [
            {
                "$type": "DLPFECMKEKH",
                "type": "DIALOG",
                "aliasList": [
                    "10234"
                ],
                "NMKEDPFEKBH": 110080906,
                "JLCHMAJCAPA": 0.5
            },
            {
                "$type": "ILCGAGEGDJI",
                "type": "BODY_LANG",
                "delayTime": 3.0,
                "aliasList": [
                    "10234"
                ],
                "FLBOOPHHFJP": 1171,
                "PMJAMGLAJGK": true,
                "FNDLJGEAMGI": ""
            },
            {
                "$type": "EAMBKPBOPIC",
                "type": "LOOK_AT",
                "delayTime": 2.950000047683716,
                "aliasList": [
                    "10234"
                ],
                "FIDJDPAIFDN": true,
                "EFHJCGEOHAF": {
                    "x": 7.8534111976623535,
                    "y": 4.900726318359375
                },
                "BCHGCKLKNEH": 0.20000000298023224,
                "OMCCMPHDLOO": "",
                "KPCALFDIHMC": "",
                "DBLNLMOPEBP": ""
            },
            {
                "$type": "ILCGAGEGDJI",
                "type": "BODY_LANG",
                "delayTime": 8.199999809265137,
                "aliasList": [
                    "10234"
                ],
                "FLBOOPHHFJP": 1172,
                "PMJAMGLAJGK": true,
                "FNDLJGEAMGI": ""
            },
            {
                "$type": "EAMBKPBOPIC",
                "type": "LOOK_AT",
                "delayTime": 8.199999809265137,
                "aliasList": [
                    "10234"
                ],
                "FIDJDPAIFDN": true,
                "EFHJCGEOHAF": {
                    "x": 350.46856689453125,
                    "y": -6.482402776456647e-14
                },
                "BCHGCKLKNEH": 0.5,
                "OMCCMPHDLOO": "",
                "KPCALFDIHMC": "",
                "DBLNLMOPEBP": ""
            },
            {
                "$type": "EAMBKPBOPIC",
                "type": "LOOK_AT",
                "delayTime": 0.4000000059604645,
                "aliasList": [
                    "10234"
                ],
                "FIDJDPAIFDN": true,
                "EFHJCGEOHAF": {
                    "x": 355.29241943359375,
                    "y": 2.44502850041059e-13
                },
                "BCHGCKLKNEH": 0.20000000298023224,
                "OMCCMPHDLOO": "",
                "KPCALFDIHMC": "",
                "DBLNLMOPEBP": ""
            },
            {
                "$type": "ILCGAGEGDJI",
                "type": "BODY_LANG",
                "delayTime": 12.098382949829102,
                "duration": 1.7016172409057617,
                "aliasList": [
                    "10234"
                ],
                "JLABKFNJCNP": true,
                "KACOEDHDAMC": false,
                "FNDLJGEAMGI": ""
            },
            {
                "$type": "OPCCDGPJCJI",
                "type": "EMO_SYNC",
                "aliasList": [
                    "10234"
                ],
                "IONNJBCBACJ": "Cs_Emo_Avatar_Simple_Common_Set/Cs_Emo_Avatar_Talk/Cs_Emo_Avatar_Event/Cs_Emo_Homeworld/Cs_Emo_110080906",
                "HLEJKBCMNNJ": "",
                "JGHLJJLNGPP": "",
                "MANNKIIBOFM": "",
                "COMNAAFDEDH": "",
                "CPGCCLNOCDK": "",
                "IGEFGCJKCPM": [
                    6617556701673107032,
                    2263204861258092561,
                    15904071583281218304,
                    16245128369177655052
                ]
            },
            {
                "$type": "EAMBKPBOPIC",
                "type": "LOOK_AT",
                "delayTime": 8.929359436035156,
                "aliasList": [
                    "1005"
                ],
                "FIDJDPAIFDN": true,
                "EFHJCGEOHAF": {
                    "x": 353.5400390625,
                    "y": 345.0045471191406
                },
                "BCHGCKLKNEH": 0.20000000298023224,
                "OMCCMPHDLOO": "",
                "KPCALFDIHMC": "",
                "DBLNLMOPEBP": ""
            },
            {
                "$type": "EAMBKPBOPIC",
                "type": "LOOK_AT",
                "delayTime": 7.422958850860596,
                "aliasList": [
                    "1005"
                ],
                "FIDJDPAIFDN": true,
                "EFHJCGEOHAF": {
                    "x": 62.081050872802734,
                    "y": 351.446533203125
                },
                "BCHGCKLKNEH": 0.20000000298023224,
                "OMCCMPHDLOO": "",
                "KPCALFDIHMC": "",
                "DBLNLMOPEBP": ""
            },
            {
                "$type": "EAMBKPBOPIC",
                "type": "LOOK_AT",
                "delayTime": 6.923009395599365,
                "aliasList": [
                    "1005"
                ],
                "FIDJDPAIFDN": true,
                "EFHJCGEOHAF": {
                    "x": 49.216583251953125,
                    "y": 355.2159118652344
                },
                "BCHGCKLKNEH": 0.20000000298023224,
                "OMCCMPHDLOO": "",
                "KPCALFDIHMC": "",
                "DBLNLMOPEBP": ""
            },
            {
                "$type": "EAMBKPBOPIC",
                "type": "LOOK_AT",
                "aliasList": [
                    "1005"
                ],
                "FIDJDPAIFDN": true,
                "EFHJCGEOHAF": {
                    "x": 63.9676513671875,
                    "y": 354.2489929199219
                },
                "BCHGCKLKNEH": 0.5,
                "OMCCMPHDLOO": "",
                "KPCALFDIHMC": "",
                "DBLNLMOPEBP": ""
            },
            {
                "$type": "EAMBKPBOPIC",
                "type": "LOOK_AT",
                "delayTime": 0.6593917608261108,
                "aliasList": [
                    "1005"
                ],
                "FIDJDPAIFDN": true,
                "EFHJCGEOHAF": {
                    "x": 4.5828028305550106e-07,
                    "y": 338.86322021484375
                },
                "BCHGCKLKNEH": 0.5,
                "OMCCMPHDLOO": "",
                "KPCALFDIHMC": "",
                "DBLNLMOPEBP": ""
            },
            {
                "$type": "ILCGAGEGDJI",
                "type": "BODY_LANG",
                "aliasList": [
                    "1005"
                ],
                "JLABKFNJCNP": true,
                "KACOEDHDAMC": false,
                "FNDLJGEAMGI": ""
            }
        ],
        [
            {
                "$type": "MOOOKOKLLEI",
                "type": "CAMERA_MOVE",
                "duration": 1.0,
                "DOKGBCKOLJK": {
                    "x": -429.8417053222656,
                    "y": 240.7793426513672,
                    "z": 433.89300537109375
                },
                "HGKCPMDICGG": {
                    "x": -429.0345764160156,
                    "y": 240.69842529296875,
                    "z": 434.4778137207031
                },
                "AFODHELHCGB": 32.0,
                "MGMFMGNANHH": 6,
                "NDFGFJFGHKL": "EaseInOutCubic",
                "IBCBGNHCICN": {},
                "HCPFCAHMGMO": false,
                "OMCCMPHDLOO": "",
                "OCFGGGHIKOO": "",
                "LJFHGGJDPHH": "",
                "LPKDFKLNEHL": ""
            },
            {
                "$type": "DLPFECMKEKH",
                "type": "DIALOG",
                "aliasList": [
                    "10234"
                ],
                "NMKEDPFEKBH": 110080907,
                "JLCHMAJCAPA": 0.5
            },
            {
                "$type": "EAMBKPBOPIC",
                "type": "LOOK_AT",
                "aliasList": [
                    "10234"
                ],
                "FIDJDPAIFDN": true,
                "EFHJCGEOHAF": {
                    "x": 330.9764709472656,
                    "y": 1.3036059141159058
                },
                "BCHGCKLKNEH": 0.20000000298023224,
                "OMCCMPHDLOO": "",
                "KPCALFDIHMC": "",
                "DBLNLMOPEBP": ""
            },
            {
                "$type": "CJKIHIFAALJ",
                "type": "LOOK_AT_EYECTRL",
                "aliasList": [
                    "10234"
                ],
                "useTargetPos": false,
                "KOPLMCFNFEH": {
                    "z": -2.0
                },
                "DONDAIFPGMK": {
                    "z": -2.0
                },
                "BJMEKPDGMPA": 1.0,
                "OMCCMPHDLOO": "",
                "OPPBKKOPIOB": "Face"
            },
            {
                "$type": "ILCGAGEGDJI",
                "type": "BODY_LANG",
                "delayTime": 7.366626739501953,
                "duration": 1.0,
                "aliasList": [
                    "10234"
                ],
                "JLABKFNJCNP": true,
                "KACOEDHDAMC": false,
                "FNDLJGEAMGI": ""
            },
            {
                "$type": "ILCGAGEGDJI",
                "type": "BODY_LANG",
                "delayTime": 2.299999952316284,
                "aliasList": [
                    "10234"
                ],
                "FLBOOPHHFJP": 1171,
                "PMJAMGLAJGK": true,
                "FNDLJGEAMGI": ""
            },
            {
                "$type": "EAMBKPBOPIC",
                "type": "LOOK_AT",
                "delayTime": 3.0130538940429688,
                "aliasList": [
                    "10234"
                ],
                "FIDJDPAIFDN": true,
                "EFHJCGEOHAF": {
                    "x": 337.50830078125,
                    "y": 358.1083679199219
                },
                "BCHGCKLKNEH": 0.5,
                "OMCCMPHDLOO": "",
                "KPCALFDIHMC": "",
                "DBLNLMOPEBP": ""
            },
            {
                "$type": "CJKIHIFAALJ",
                "type": "LOOK_AT_EYECTRL",
                "delayTime": 1.9045491218566895,
                "aliasList": [
                    "10234"
                ],
                "useTargetPos": false,
                "KOPLMCFNFEH": {
                    "x": 8.0,
                    "z": 1.0
                },
                "DONDAIFPGMK": {
                    "x": 8.0,
                    "z": 1.0
                },
                "BJMEKPDGMPA": 0.10000000149011612,
                "OMCCMPHDLOO": "",
                "OPPBKKOPIOB": "Face"
            },
            {
                "$type": "EAMBKPBOPIC",
                "type": "LOOK_AT",
                "delayTime": 5.244454383850098,
                "aliasList": [
                    "10234"
                ],
                "FIDJDPAIFDN": true,
                "EFHJCGEOHAF": {
                    "x": 330.9764709472656,
                    "y": 1.3036059141159058
                },
                "BCHGCKLKNEH": 0.4000000059604645,
                "OMCCMPHDLOO": "",
                "KPCALFDIHMC": "",
                "DBLNLMOPEBP": ""
            },
            {
                "$type": "CJKIHIFAALJ",
                "type": "LOOK_AT_EYECTRL",
                "delayTime": 3.9919886589050293,
                "aliasList": [
                    "10234"
                ],
                "useTargetPos": false,
                "KOPLMCFNFEH": {
                    "x": -4.0,
                    "z": 2.0
                },
                "DONDAIFPGMK": {
                    "x": -4.0,
                    "z": 2.0
                },
                "BJMEKPDGMPA": 0.10000000149011612,
                "OMCCMPHDLOO": "",
                "OPPBKKOPIOB": "Face"
            },
            {
                "$type": "CJKIHIFAALJ",
                "type": "LOOK_AT_EYECTRL",
                "delayTime": 5.2444539070129395,
                "aliasList": [
                    "10234"
                ],
                "useTargetPos": false,
                "BJMEKPDGMPA": 1.0,
                "OMCCMPHDLOO": "",
                "OPPBKKOPIOB": "Face"
            },
            {
                "$type": "CJKIHIFAALJ",
                "type": "LOOK_AT_EYECTRL",
                "delayTime": 7.087162971496582,
                "aliasList": [
                    "10234"
                ],
                "useTargetPos": false,
                "KOPLMCFNFEH": {
                    "z": 2.0
                },
                "DONDAIFPGMK": {
                    "z": 2.0
                },
                "BJMEKPDGMPA": 0.10000000149011612,
                "OMCCMPHDLOO": "",
                "OPPBKKOPIOB": "Face"
            },
            {
                "$type": "OPCCDGPJCJI",
                "type": "EMO_SYNC",
                "aliasList": [
                    "10234"
                ],
                "IONNJBCBACJ": "Cs_Emo_Avatar_Simple_Common_Set/Cs_Emo_Avatar_Talk/Cs_Emo_Avatar_Event/Cs_Emo_Homeworld/Cs_Emo_110080907",
                "HLEJKBCMNNJ": "",
                "JGHLJJLNGPP": "",
                "MANNKIIBOFM": "",
                "COMNAAFDEDH": "",
                "CPGCCLNOCDK": "",
                "IGEFGCJKCPM": [
                    7416182928760343790,
                    3424263851076990393,
                    11873175011533063234,
                    3092787807119881542
                ]
            },
            {
                "$type": "ILCGAGEGDJI",
                "type": "BODY_LANG",
                "aliasList": [
                    "10234"
                ],
                "JLABKFNJCNP": true,
                "KACOEDHDAMC": false,
                "FNDLJGEAMGI": ""
            }
        ],
        [
            {
                "$type": "DLPFECMKEKH",
                "type": "DIALOG",
                "aliasList": [
                    "10234"
                ],
                "NMKEDPFEKBH": 110080908,
                "JLCHMAJCAPA": 0.5
            },
            {
                "$type": "ILCGAGEGDJI",
                "type": "BODY_LANG",
                "aliasList": [
                    "10234"
                ],
                "JLABKFNJCNP": true,
                "FLBOOPHHFJP": 1170,
                "KACOEDHDAMC": false,
                "FNDLJGEAMGI": ""
            },
            {
                "$type": "CJKIHIFAALJ",
                "type": "LOOK_AT_EYECTRL",
                "delayTime": 0.058441162109375,
                "aliasList": [
                    "10234"
                ],
                "useTargetPos": false,
                "KOPLMCFNFEH": {
                    "z": 2.0
                },
                "DONDAIFPGMK": {
                    "z": 2.0
                },
                "BJMEKPDGMPA": 0.10000000149011612,
                "OMCCMPHDLOO": "",
                "OPPBKKOPIOB": "Face"
            },
            {
                "$type": "ILCGAGEGDJI",
                "type": "BODY_LANG",
                "delayTime": 2.5341339111328125,
                "aliasList": [
                    "10234"
                ],
                "FLBOOPHHFJP": 1171,
                "PMJAMGLAJGK": true,
                "FNDLJGEAMGI": ""
            },
            {
                "$type": "OPCCDGPJCJI",
                "type": "EMO_SYNC",
                "aliasList": [
                    "10234"
                ],
                "IONNJBCBACJ": "Cs_Emo_Avatar_Simple_Common_Set/Cs_Emo_Avatar_Talk/Cs_Emo_Avatar_Event/Cs_Emo_Homeworld/Cs_Emo_110080908",
                "HLEJKBCMNNJ": "",
                "JGHLJJLNGPP": "",
                "MANNKIIBOFM": "",
                "COMNAAFDEDH": "",
                "CPGCCLNOCDK": "",
                "IGEFGCJKCPM": [
                    10430403547058960158,
                    16695444759350559595,
                    14698547165373025859,
                    9706555843855613865
                ]
            }
        ],
        [
            {
                "$type": "MOOOKOKLLEI",
                "type": "CAMERA_MOVE",
                "duration": 1.0,
                "DOKGBCKOLJK": {
                    "x": -429.5093078613281,
                    "y": 240.199462890625,
                    "z": 430.1612243652344
                },
                "HGKCPMDICGG": {
                    "x": -429.2966003417969,
                    "y": 240.26242065429688,
                    "z": 431.1363220214844
                },
                "AFODHELHCGB": 42.0,
                "MGMFMGNANHH": 6,
                "NDFGFJFGHKL": "EaseOutQuad",
                "IBCBGNHCICN": {},
                "HCPFCAHMGMO": false,
                "OMCCMPHDLOO": "",
                "OCFGGGHIKOO": "",
                "LJFHGGJDPHH": "",
                "LPKDFKLNEHL": ""
            },
            {
                "$type": "MOOOKOKLLEI",
                "type": "CAMERA_MOVE",
                "delayTime": 0.10000000149011612,
                "duration": 10.0,
                "DOKGBCKOLJK": {
                    "x": -429.2803039550781,
                    "y": 240.19920349121094,
                    "z": 430.11126708984375
                },
                "HGKCPMDICGG": {
                    "x": -429.0675964355469,
                    "y": 240.2621612548828,
                    "z": 431.08636474609375
                },
                "AFODHELHCGB": 42.0,
                "NDFGFJFGHKL": "EaseOutQuad",
                "IBCBGNHCICN": {},
                "HCPFCAHMGMO": false,
                "OMCCMPHDLOO": "",
                "OCFGGGHIKOO": "",
                "LJFHGGJDPHH": "",
                "LPKDFKLNEHL": ""
            },
            {
                "$type": "EAMBKPBOPIC",
                "type": "LOOK_AT",
                "delayTime": 0.7466512322425842,
                "aliasList": [
                    "Avatar"
                ],
                "FIDJDPAIFDN": true,
                "useTargetPos": true,
                "GFKIMGBGADJ": true,
                "GMKIJKADNHN": {
                    "x": -428.71490478515625,
                    "y": 240.87042236328125,
                    "z": 433.94171142578125
                },
                "BCHGCKLKNEH": 0.5,
                "OMCCMPHDLOO": "",
                "KPCALFDIHMC": "",
                "DBLNLMOPEBP": ""
            },
            {
                "$type": "DLPFECMKEKH",
                "type": "DIALOG",
                "aliasList": [
                    "1030"
                ],
                "NMKEDPFEKBH": 110080909,
                "JLCHMAJCAPA": 0.5
            },
            {
                "$type": "ILCGAGEGDJI",
                "type": "BODY_LANG",
                "aliasList": [
                    "1030"
                ],
                "FLBOOPHHFJP": 1230,
                "PMJAMGLAJGK": true,
                "FNDLJGEAMGI": ""
            },
            {
                "$type": "ILCGAGEGDJI",
                "type": "BODY_LANG",
                "delayTime": 2.700000047683716,
                "aliasList": [
                    "1030"
                ],
                "FLBOOPHHFJP": 1130,
                "PMJAMGLAJGK": true,
                "FNDLJGEAMGI": ""
            },
            {
                "$type": "ILCGAGEGDJI",
                "type": "BODY_LANG",
                "delayTime": 4.256418228149414,
                "aliasList": [
                    "1030"
                ],
                "JLABKFNJCNP": true,
                "KACOEDHDAMC": false,
                "FNDLJGEAMGI": ""
            },
            {
                "$type": "OPCCDGPJCJI",
                "type": "EMO_SYNC",
                "aliasList": [
                    "1030"
                ],
                "IONNJBCBACJ": "Cs_Emo_Avatar_Simple_Common_Set/Cs_Emo_Avatar_Talk/Cs_Emo_Avatar_Event/Cs_Emo_Homeworld/Cs_Emo_110080909",
                "HLEJKBCMNNJ": "",
                "JGHLJJLNGPP": "",
                "MANNKIIBOFM": "",
                "COMNAAFDEDH": "",
                "CPGCCLNOCDK": "",
                "IGEFGCJKCPM": [
                    224315034423162268,
                    556048064044321156,
                    2898989552056637362,
                    15496016058919046945
                ]
            }
        ],
        [
            {
                "$type": "MOOOKOKLLEI",
                "type": "CAMERA_MOVE",
                "delayTime": 0.10000000149011612,
                "duration": 20.0,
                "DOKGBCKOLJK": {
                    "x": -428.89068603515625,
                    "y": 240.63357543945312,
                    "z": 434.5213928222656
                },
                "HGKCPMDICGG": {
                    "x": -428.110107421875,
                    "y": 240.73240661621094,
                    "z": 435.1385803222656
                },
                "AFODHELHCGB": 42.0,
                "NDFGFJFGHKL": "EaseOutQuad",
                "IBCBGNHCICN": {},
                "HCPFCAHMGMO": false,
                "OMCCMPHDLOO": "",
                "OCFGGGHIKOO": "",
                "LJFHGGJDPHH": "",
                "LPKDFKLNEHL": ""
            },
            {
                "$type": "MOOOKOKLLEI",
                "type": "CAMERA_MOVE",
                "duration": 1.0,
                "DOKGBCKOLJK": {
                    "x": -428.9440612792969,
                    "y": 240.63482666015625,
                    "z": 434.58868408203125
                },
                "HGKCPMDICGG": {
                    "x": -428.1634826660156,
                    "y": 240.73365783691406,
                    "z": 435.20587158203125
                },
                "AFODHELHCGB": 42.0,
                "MGMFMGNANHH": 6,
                "NDFGFJFGHKL": "EaseInOutCubic",
                "IBCBGNHCICN": {},
                "HCPFCAHMGMO": false,
                "OMCCMPHDLOO": "",
                "OCFGGGHIKOO": "",
                "LJFHGGJDPHH": "",
                "LPKDFKLNEHL": ""
            },
            {
                "$type": "EAMBKPBOPIC",
                "type": "LOOK_AT",
                "aliasList": [
                    "Avatar"
                ],
                "FIDJDPAIFDN": true,
                "useTargetPos": true,
                "GFKIMGBGADJ": true,
                "GMKIJKADNHN": {
                    "x": -427.6807556152344,
                    "y": 240.92950439453125,
                    "z": 437.9956970214844
                },
                "BCHGCKLKNEH": 0.5,
                "OMCCMPHDLOO": "",
                "KPCALFDIHMC": "",
                "DBLNLMOPEBP": ""
            },
            {
                "$type": "DLPFECMKEKH",
                "type": "DIALOG",
                "aliasList": [
                    "10234"
                ],
                "NMKEDPFEKBH": 110080910,
                "JLCHMAJCAPA": 0.5
            },
            {
                "$type": "ILCGAGEGDJI",
                "type": "BODY_LANG",
                "delayTime": 1.436919927597046,
                "aliasList": [
                    "10234"
                ],
                "JLABKFNJCNP": true,
                "KACOEDHDAMC": false,
                "FNDLJGEAMGI": ""
            },
            {
                "$type": "ILCGAGEGDJI",
                "type": "BODY_LANG",
                "delayTime": 3.0070810317993164,
                "aliasList": [
                    "10234"
                ],
                "FLBOOPHHFJP": 1150,
                "PMJAMGLAJGK": true,
                "FNDLJGEAMGI": ""
            },
            {
                "$type": "ILCGAGEGDJI",
                "type": "BODY_LANG",
                "delayTime": 7.509033203125,
                "aliasList": [
                    "10234"
                ],
                "FLBOOPHHFJP": 1170,
                "PMJAMGLAJGK": true,
                "FNDLJGEAMGI": ""
            },
            {
                "$type": "ILCGAGEGDJI",
                "type": "BODY_LANG",
                "delayTime": 9.098907470703125,
                "aliasList": [
                    "10234"
                ],
                "JLABKFNJCNP": true,
                "KACOEDHDAMC": false,
                "FNDLJGEAMGI": ""
            },
            {
                "$type": "EAMBKPBOPIC",
                "type": "LOOK_AT",
                "delayTime": 8.055480003356934,
                "aliasList": [
                    "10234"
                ],
                "FIDJDPAIFDN": true,
                "EFHJCGEOHAF": {
                    "x": 325.8877258300781,
                    "y": 3.289447069168091
                },
                "BCHGCKLKNEH": 0.4000000059604645,
                "OMCCMPHDLOO": "",
                "KPCALFDIHMC": "",
                "DBLNLMOPEBP": ""
            },
            {
                "$type": "EAMBKPBOPIC",
                "type": "LOOK_AT",
                "delayTime": 6.389069080352783,
                "aliasList": [
                    "10234"
                ],
                "FIDJDPAIFDN": true,
                "EFHJCGEOHAF": {
                    "x": 345.77825927734375,
                    "y": 0.5136964917182922
                },
                "BCHGCKLKNEH": 0.4000000059604645,
                "OMCCMPHDLOO": "",
                "KPCALFDIHMC": "",
                "DBLNLMOPEBP": ""
            },
            {
                "$type": "CJKIHIFAALJ",
                "type": "LOOK_AT_EYECTRL",
                "delayTime": 8.018446922302246,
                "aliasList": [
                    "10234"
                ],
                "useTargetPos": false,
                "KOPLMCFNFEH": {
                    "z": 2.0
                },
                "DONDAIFPGMK": {
                    "z": 2.0
                },
                "BJMEKPDGMPA": 0.10000000149011612,
                "OMCCMPHDLOO": "",
                "OPPBKKOPIOB": "Face"
            },
            {
                "$type": "CJKIHIFAALJ",
                "type": "LOOK_AT_EYECTRL",
                "delayTime": 6.389069080352783,
                "aliasList": [
                    "10234"
                ],
                "useTargetPos": false,
                "KOPLMCFNFEH": {
                    "x": 10.0,
                    "z": 1.0
                },
                "DONDAIFPGMK": {
                    "x": 10.0,
                    "z": 1.0
                },
                "BJMEKPDGMPA": 0.10000000149011612,
                "OMCCMPHDLOO": "",
                "OPPBKKOPIOB": "Face"
            },
            {
                "$type": "CJKIHIFAALJ",
                "type": "LOOK_AT_EYECTRL",
                "delayTime": 1.4071907997131348,
                "aliasList": [
                    "10234"
                ],
                "useTargetPos": false,
                "KOPLMCFNFEH": {
                    "x": 1.0,
                    "z": 1.0
                },
                "DONDAIFPGMK": {
                    "x": 1.0,
                    "z": 1.0
                },
                "BJMEKPDGMPA": 0.10000000149011612,
                "OMCCMPHDLOO": "",
                "OPPBKKOPIOB": "Face"
            },
            {
                "$type": "MoleMole.Config.ConfigVisibleInterAction",
                "type": "VISIBLE",
                "aliasList": [
                    "10234"
                ],
                "isVisible": true,
                "extraParam": ""
            },
            {
                "$type": "OPCCDGPJCJI",
                "type": "EMO_SYNC",
                "aliasList": [
                    "10234"
                ],
                "IONNJBCBACJ": "Cs_Emo_Avatar_Simple_Common_Set/Cs_Emo_Avatar_Talk/Cs_Emo_Avatar_Event/Cs_Emo_Homeworld/Cs_Emo_110080910",
                "HLEJKBCMNNJ": "",
                "JGHLJJLNGPP": "",
                "MANNKIIBOFM": "",
                "COMNAAFDEDH": "",
                "CPGCCLNOCDK": "",
                "IGEFGCJKCPM": [
                    17911737952458465904,
                    10751568207911093103,
                    17854123615720303065,
                    2204371586545179097
                ]
            },
            {
                "$type": "ILCGAGEGDJI",
                "type": "BODY_LANG",
                "aliasList": [
                    "1030"
                ],
                "PMJAMGLAJGK": true,
                "FNDLJGEAMGI": ""
            },
            {
                "$type": "EAMBKPBOPIC",
                "type": "LOOK_AT",
                "aliasList": [
                    "1005"
                ],
                "FIDJDPAIFDN": true,
                "EFHJCGEOHAF": {
                    "x": 58.40512466430664
                },
                "BCHGCKLKNEH": 0.20000000298023224,
                "OMCCMPHDLOO": "",
                "KPCALFDIHMC": "",
                "DBLNLMOPEBP": ""
            },
            {
                "$type": "EAMBKPBOPIC",
                "type": "LOOK_AT",
                "delayTime": 1.7231190204620361,
                "aliasList": [
                    "1005"
                ],
                "FIDJDPAIFDN": true,
                "EFHJCGEOHAF": {
                    "x": 355.2123107910156,
                    "y": 339.61590576171875
                },
                "BCHGCKLKNEH": 0.20000000298023224,
                "OMCCMPHDLOO": "",
                "KPCALFDIHMC": "",
                "DBLNLMOPEBP": ""
            }
        ],
        [
            {
                "$type": "MOOOKOKLLEI",
                "type": "CAMERA_MOVE",
                "duration": 1.0,
                "DOKGBCKOLJK": {
                    "x": -427.58453369140625,
                    "y": 240.63775634765625,
                    "z": 434.9900207519531
                },
                "HGKCPMDICGG": {
                    "x": -428.5096130371094,
                    "y": 240.50315856933594,
                    "z": 435.3451843261719
                },
                "AFODHELHCGB": 40.0,
                "MGMFMGNANHH": 6,
                "NDFGFJFGHKL": "EaseOutQuad",
                "IBCBGNHCICN": {},
                "HCPFCAHMGMO": false,
                "OMCCMPHDLOO": "",
                "OCFGGGHIKOO": "",
                "LJFHGGJDPHH": "",
                "LPKDFKLNEHL": ""
            },
            {
                "$type": "MOOOKOKLLEI",
                "type": "CAMERA_MOVE",
                "delayTime": 0.10000000149011612,
                "duration": 10.0,
                "DOKGBCKOLJK": {
                    "x": -427.5701599121094,
                    "y": 240.63763427734375,
                    "z": 435.0274658203125
                },
                "HGKCPMDICGG": {
                    "x": -428.4952392578125,
                    "y": 240.50303649902344,
                    "z": 435.38262939453125
                },
                "AFODHELHCGB": 40.0,
                "NDFGFJFGHKL": "EaseOutQuad",
                "IBCBGNHCICN": {},
                "HCPFCAHMGMO": false,
                "OMCCMPHDLOO": "",
                "OCFGGGHIKOO": "",
                "LJFHGGJDPHH": "",
                "LPKDFKLNEHL": ""
            },
            {
                "$type": "EAMBKPBOPIC",
                "type": "LOOK_AT",
                "delayTime": 1.2089295387268066,
                "aliasList": [
                    "Avatar"
                ],
                "FIDJDPAIFDN": true,
                "useTargetPos": true,
                "GFKIMGBGADJ": true,
                "GMKIJKADNHN": {
                    "x": -427.6807556152344,
                    "y": 240.92950439453125,
                    "z": 435.0921325683594
                },
                "BCHGCKLKNEH": 0.30000001192092896,
                "OMCCMPHDLOO": "",
                "KPCALFDIHMC": "",
                "DBLNLMOPEBP": ""
            },
            {
                "$type": "EAMBKPBOPIC",
                "type": "LOOK_AT",
                "aliasList": [
                    "Avatar"
                ],
                "FIDJDPAIFDN": true,
                "useTargetPos": true,
                "GFKIMGBGADJ": true,
                "GMKIJKADNHN": {
                    "x": -428.6462707519531,
                    "y": 240.92950439453125,
                    "z": 435.6542663574219
                },
                "BCHGCKLKNEH": 0.5,
                "OMCCMPHDLOO": "",
                "KPCALFDIHMC": "",
                "DBLNLMOPEBP": ""
            },
            {
                "$type": "DLPFECMKEKH",
                "type": "DIALOG",
                "aliasList": [
                    "10234"
                ],
                "NMKEDPFEKBH": 110080911,
                "JLCHMAJCAPA": 0.5
            },
            {
                "$type": "MoleMole.Config.ConfigVisibleInterAction",
                "type": "VISIBLE",
                "aliasList": [
                    "10234"
                ],
                "extraParam": ""
            },
            {
                "$type": "OPCCDGPJCJI",
                "type": "EMO_SYNC",
                "aliasList": [
                    "10234"
                ],
                "IONNJBCBACJ": "Cs_Emo_Avatar_Simple_Common_Set/Cs_Emo_Avatar_Talk/Cs_Emo_Avatar_Event/Cs_Emo_Homeworld/Cs_Emo_110080911",
                "HLEJKBCMNNJ": "",
                "JGHLJJLNGPP": "",
                "MANNKIIBOFM": "",
                "COMNAAFDEDH": "",
                "CPGCCLNOCDK": "",
                "IGEFGCJKCPM": [
                    15652382092485715181,
                    14424199273084323592,
                    3692312836866055829,
                    1713229639243349352
                ]
            },
            {
                "$type": "ILCGAGEGDJI",
                "type": "BODY_LANG",
                "aliasList": [
                    "1030"
                ],
                "FLBOOPHHFJP": 1190,
                "PMJAMGLAJGK": true,
                "FNDLJGEAMGI": ""
            },
            {
                "$type": "EAMBKPBOPIC",
                "type": "LOOK_AT",
                "aliasList": [
                    "1005"
                ],
                "FIDJDPAIFDN": true,
                "EFHJCGEOHAF": {
                    "x": 58.40512466430664
                },
                "BCHGCKLKNEH": 0.20000000298023224,
                "OMCCMPHDLOO": "",
                "KPCALFDIHMC": "",
                "DBLNLMOPEBP": ""
            },
            {
                "$type": "EAMBKPBOPIC",
                "type": "LOOK_AT",
                "delayTime": 1.100000023841858,
                "aliasList": [
                    "1005"
                ],
                "FIDJDPAIFDN": true,
                "EFHJCGEOHAF": {
                    "x": 348.8245544433594,
                    "y": 348.3907775878906
                },
                "BCHGCKLKNEH": 0.20000000298023224,
                "OMCCMPHDLOO": "",
                "KPCALFDIHMC": "",
                "DBLNLMOPEBP": ""
            },
            {
                "$type": "ILCGAGEGDJI",
                "type": "BODY_LANG",
                "delayTime": 3.7735743522644043,
                "aliasList": [
                    "1005"
                ],
                "FLBOOPHHFJP": 1190,
                "PMJAMGLAJGK": true,
                "FNDLJGEAMGI": ""
            },
            {
                "$type": "EAMBKPBOPIC",
                "type": "LOOK_AT",
                "delayTime": 3.773574113845825,
                "aliasList": [
                    "1005"
                ],
                "FIDJDPAIFDN": true,
                "EFHJCGEOHAF": {
                    "x": 0.5481163859367371,
                    "y": 23.49420738220215
                },
                "BCHGCKLKNEH": 0.20000000298023224,
                "OMCCMPHDLOO": "",
                "KPCALFDIHMC": "",
                "DBLNLMOPEBP": ""
            },
            {
                "$type": "CJKIHIFAALJ",
                "type": "LOOK_AT_EYECTRL",
                "delayTime": 4.9242024421691895,
                "aliasList": [
                    "1005"
                ],
                "useTargetPos": false,
                "KOPLMCFNFEH": {
                    "x": -8.0,
                    "z": 6.0
                },
                "DONDAIFPGMK": {
                    "x": -8.0,
                    "z": 6.0
                },
                "BJMEKPDGMPA": 0.10000000149011612,
                "OMCCMPHDLOO": "",
                "OPPBKKOPIOB": "Face"
            },
            {
                "$type": "CJKIHIFAALJ",
                "type": "LOOK_AT_EYECTRL",
                "delayTime": 6.0,
                "aliasList": [
                    "1005"
                ],
                "useTargetPos": false,
                "KOPLMCFNFEH": {
                    "x": -16.0,
                    "z": -8.0
                },
                "DONDAIFPGMK": {
                    "x": -16.0,
                    "z": -8.0
                },
                "BJMEKPDGMPA": 0.10000000149011612,
                "OMCCMPHDLOO": "",
                "OPPBKKOPIOB": "Face"
            },
            {
                "$type": "OPCCDGPJCJI",
                "type": "EMO_SYNC",
                "aliasList": [
                    "1005"
                ],
                "IONNJBCBACJ": "",
                "HLEJKBCMNNJ": "Cs_Emo_Pet_Common/Cs_Emo_Paimon_None",
                "JGHLJJLNGPP": "Cs_Emo_Pet_Common/Cs_Emo_Paimon_Sad02",
                "MANNKIIBOFM": "",
                "COMNAAFDEDH": "",
                "CPGCCLNOCDK": "",
                "MFABDGAFKII": [
                    1796869206626684908,
                    2049648015653630001,
                    14015965774222061559,
                    873259039409222856
                ],
                "IPAGHAALIII": [
                    79699632502135402,
                    16884691761580677388,
                    4742872187485414175,
                    1284008518365681284
                ]
            }
        ],
        [
            {
                "$type": "MOOOKOKLLEI",
                "type": "CAMERA_MOVE",
                "delayTime": 0.10000000149011612,
                "duration": 12.0,
                "DOKGBCKOLJK": {
                    "x": -425.9109191894531,
                    "y": 240.8970947265625,
                    "z": 435.4497985839844
                },
                "HGKCPMDICGG": {
                    "x": -426.8877868652344,
                    "y": 240.7773895263672,
                    "z": 435.2726135253906
                },
                "AFODHELHCGB": 34.0,
                "NDFGFJFGHKL": "EaseOutQuad",
                "IBCBGNHCICN": {},
                "HCPFCAHMGMO": false,
                "OMCCMPHDLOO": "",
                "OCFGGGHIKOO": "",
                "LJFHGGJDPHH": "",
                "LPKDFKLNEHL": ""
            },
            {
                "$type": "MOOOKOKLLEI",
                "type": "CAMERA_MOVE",
                "duration": 1.0,
                "DOKGBCKOLJK": {
                    "x": -425.90093994140625,
                    "y": 240.8881072998047,
                    "z": 435.40069580078125
                },
                "HGKCPMDICGG": {
                    "x": -426.8778076171875,
                    "y": 240.76840209960938,
                    "z": 435.2235107421875
                },
                "AFODHELHCGB": 34.0,
                "MGMFMGNANHH": 6,
                "NDFGFJFGHKL": "EaseInOutCubic",
                "IBCBGNHCICN": {},
                "HCPFCAHMGMO": false,
                "OMCCMPHDLOO": "",
                "OCFGGGHIKOO": "",
                "LJFHGGJDPHH": "",
                "LPKDFKLNEHL": ""
            },
            {
                "$type": "EAMBKPBOPIC",
                "type": "LOOK_AT",
                "aliasList": [
                    "Avatar"
                ],
                "FIDJDPAIFDN": true,
                "EFHJCGEOHAF": {
                    "x": 102.69751739501953,
                    "y": 349.62408447265625
                },
                "BCHGCKLKNEH": 0.5,
                "OMCCMPHDLOO": "",
                "KPCALFDIHMC": "",
                "DBLNLMOPEBP": ""
            },
            {
                "$type": "DLPFECMKEKH",
                "type": "DIALOG",
                "aliasList": [
                    "10234"
                ],
                "NMKEDPFEKBH": 110080912,
                "JLCHMAJCAPA": 0.5
            },
            {
                "$type": "ILCGAGEGDJI",
                "type": "BODY_LANG",
                "aliasList": [
                    "10234"
                ],
                "FLBOOPHHFJP": 1171,
                "PMJAMGLAJGK": true,
                "FNDLJGEAMGI": ""
            },
            {
                "$type": "MoleMole.Config.ConfigVisibleInterAction",
                "type": "VISIBLE",
                "aliasList": [
                    "10234"
                ],
                "isVisible": true,
                "extraParam": ""
            },
            {
                "$type": "OPCCDGPJCJI",
                "type": "EMO_SYNC",
                "aliasList": [
                    "10234"
                ],
                "IONNJBCBACJ": "Cs_Emo_Avatar_Simple_Common_Set/Cs_Emo_Avatar_Talk/Cs_Emo_Avatar_Event/Cs_Emo_Homeworld/Cs_Emo_110080912",
                "HLEJKBCMNNJ": "",
                "JGHLJJLNGPP": "",
                "MANNKIIBOFM": "",
                "COMNAAFDEDH": "",
                "CPGCCLNOCDK": "",
                "IGEFGCJKCPM": [
                    16595988550737597835,
                    15417260787735680143,
                    1205625103012892652,
                    2797939069489678176
                ]
            },
            {
                "$type": "ILCGAGEGDJI",
                "type": "BODY_LANG",
                "delayTime": 0.699999988079071,
                "aliasList": [
                    "1030"
                ],
                "JLABKFNJCNP": true,
                "FLBOOPHHFJP": 1040,
                "KACOEDHDAMC": false,
                "FNDLJGEAMGI": ""
            },
            {
                "$type": "EAMBKPBOPIC",
                "type": "LOOK_AT",
                "delayTime": 0.699999988079071,
                "aliasList": [
                    "1030"
                ],
                "FIDJDPAIFDN": true,
                "EFHJCGEOHAF": {
                    "x": 359.7969665527344,
                    "y": 343.9415283203125
                },
                "BCHGCKLKNEH": 0.20000000298023224,
                "OMCCMPHDLOO": "",
                "KPCALFDIHMC": "",
                "DBLNLMOPEBP": ""
            },
            {
                "$type": "CJKIHIFAALJ",
                "type": "LOOK_AT_EYECTRL",
                "delayTime": 0.699999988079071,
                "aliasList": [
                    "1030"
                ],
                "useTargetPos": false,
                "KOPLMCFNFEH": {
                    "z": -2.0
                },
                "DONDAIFPGMK": {
                    "z": -2.0
                },
                "BJMEKPDGMPA": 0.10000000149011612,
                "OMCCMPHDLOO": "",
                "OPPBKKOPIOB": "Face"
            },
            {
                "$type": "CJKIHIFAALJ",
                "type": "LOOK_AT_EYECTRL",
                "aliasList": [
                    "1030"
                ],
                "useTargetPos": false,
                "KOPLMCFNFEH": {
                    "x": 4.0,
                    "z": 10.0
                },
                "DONDAIFPGMK": {
                    "x": 4.0,
                    "z": 10.0
                },
                "BJMEKPDGMPA": 1.0,
                "OMCCMPHDLOO": "",
                "OPPBKKOPIOB": "Face"
            },
            {
                "$type": "ILCGAGEGDJI",
                "type": "BODY_LANG",
                "aliasList": [
                    "1005"
                ],
                "JLABKFNJCNP": true,
                "KACOEDHDAMC": false,
                "FNDLJGEAMGI": ""
            },
            {
                "$type": "EAMBKPBOPIC",
                "type": "LOOK_AT",
                "delayTime": 0.4000000059604645,
                "aliasList": [
                    "1005"
                ],
                "FIDJDPAIFDN": true,
                "EFHJCGEOHAF": {
                    "x": 37.81684494018555,
                    "y": 353.68048095703125
                },
                "BCHGCKLKNEH": 0.20000000298023224,
                "OMCCMPHDLOO": "",
                "KPCALFDIHMC": "",
                "DBLNLMOPEBP": ""
            },
            {
                "$type": "OPCCDGPJCJI",
                "type": "EMO_SYNC",
                "aliasList": [
                    "1005"
                ],
                "IONNJBCBACJ": "",
                "HLEJKBCMNNJ": "Cs_Emo_Pet_Common/Cs_Emo_Paimon_None",
                "JGHLJJLNGPP": "Cs_Emo_Pet_Common/Cs_Emo_Paimon_Normal01",
                "MANNKIIBOFM": "",
                "COMNAAFDEDH": "",
                "CPGCCLNOCDK": "",
                "MFABDGAFKII": [
                    1796869206626684908,
                    2049648015653630001,
                    14015965774222061559,
                    873259039409222856
                ],
                "IPAGHAALIII": [
                    312453201720762420,
                    9562322946389574798,
                    18422542724361145117,
                    17949024460815132449
                ]
            }
        ],
        [
            {
                "$type": "MOOOKOKLLEI",
                "type": "CAMERA_MOVE",
                "delayTime": 0.10000000149011612,
                "duration": 15.153674125671387,
                "DOKGBCKOLJK": {
                    "x": -430.7840270996094,
                    "y": 244.55319213867188,
                    "z": 430.5684814453125
                },
                "HGKCPMDICGG": {
                    "x": -430.40338134765625,
                    "y": 243.91897583007812,
                    "z": 431.2414245605469
                },
                "AFODHELHCGB": 60.0,
                "NDFGFJFGHKL": "EaseOutQuad",
                "IBCBGNHCICN": {},
                "HCPFCAHMGMO": false,
                "OMCCMPHDLOO": "",
                "OCFGGGHIKOO": "",
                "LJFHGGJDPHH": "",
                "LPKDFKLNEHL": ""
            },
            {
                "$type": "MOOOKOKLLEI",
                "type": "CAMERA_MOVE",
                "duration": 1.0,
                "DOKGBCKOLJK": {
                    "x": -430.5242919921875,
                    "y": 244.5585479736328,
                    "z": 430.4266357421875
                },
                "HGKCPMDICGG": {
                    "x": -430.1436462402344,
                    "y": 243.92433166503906,
                    "z": 431.0995788574219
                },
                "AFODHELHCGB": 60.0,
                "MGMFMGNANHH": 6,
                "NDFGFJFGHKL": "EaseOutQuad",
                "IBCBGNHCICN": {},
                "HCPFCAHMGMO": false,
                "OMCCMPHDLOO": "",
                "OCFGGGHIKOO": "",
                "LJFHGGJDPHH": "",
                "LPKDFKLNEHL": ""
            },
            {
                "$type": "EAMBKPBOPIC",
                "type": "LOOK_AT",
                "aliasList": [
                    "10234"
                ],
                "FIDJDPAIFDN": true,
                "EFHJCGEOHAF": {
                    "x": 320.51947021484375,
                    "y": 4.391695499420166
                },
                "BCHGCKLKNEH": 0.5,
                "OMCCMPHDLOO": "",
                "KPCALFDIHMC": "",
                "DBLNLMOPEBP": ""
            },
            {
                "$type": "ILCGAGEGDJI",
                "type": "BODY_LANG",
                "aliasList": [
                    "10234"
                ],
                "JLABKFNJCNP": true,
                "PMJAMGLAJGK": true,
                "FNDLJGEAMGI": ""
            },
            {
                "$type": "DLPFECMKEKH",
                "type": "DIALOG",
                "aliasList": [
                    "1030"
                ],
                "NMKEDPFEKBH": 110080913,
                "JLCHMAJCAPA": 0.5
            },
            {
                "$type": "ILCGAGEGDJI",
                "type": "BODY_LANG",
                "delayTime": 2.7793056964874268,
                "aliasList": [
                    "1030"
                ],
                "FLBOOPHHFJP": 1120,
                "PMJAMGLAJGK": true,
                "FNDLJGEAMGI": ""
            },
            {
                "$type": "ILCGAGEGDJI",
                "type": "BODY_LANG",
                "aliasList": [
                    "1030"
                ],
                "FLBOOPHHFJP": 1030,
                "PMJAMGLAJGK": true,
                "FNDLJGEAMGI": ""
            },
            {
                "$type": "ILCGAGEGDJI",
                "type": "BODY_LANG",
                "delayTime": 5.0493388175964355,
                "aliasList": [
                    "1030"
                ],
                "JLABKFNJCNP": true,
                "FLBOOPHHFJP": 1130,
                "KACOEDHDAMC": false,
                "FNDLJGEAMGI": ""
            },
            {
                "$type": "OPCCDGPJCJI",
                "type": "EMO_SYNC",
                "aliasList": [
                    "1030"
                ],
                "IONNJBCBACJ": "Cs_Emo_Avatar_Simple_Common_Set/Cs_Emo_Avatar_Talk/Cs_Emo_Avatar_Event/Cs_Emo_Homeworld/Cs_Emo_110080913",
                "HLEJKBCMNNJ": "",
                "JGHLJJLNGPP": "",
                "MANNKIIBOFM": "",
                "COMNAAFDEDH": "",
                "CPGCCLNOCDK": "",
                "IGEFGCJKCPM": [
                    16568920644369024204,
                    9230054082218783771,
                    11908405332708581641,
                    11756599851446264837
                ]
            },
            {
                "$type": "EAMBKPBOPIC",
                "type": "LOOK_AT",
                "delayTime": 2.631700277328491,
                "aliasList": [
                    "1005"
                ],
                "FIDJDPAIFDN": true,
                "useTargetPos": true,
                "GFKIMGBGADJ": true,
                "GMKIJKADNHN": {
                    "x": -428.8592529296875,
                    "y": 240.6573028564453,
                    "z": 434.32659912109375
                },
                "BCHGCKLKNEH": 0.5,
                "OMCCMPHDLOO": "",
                "KPCALFDIHMC": "",
                "DBLNLMOPEBP": ""
            }
        ],
        [
            {
                "$type": "OOMFCPJAJGL",
                "type": "STEER_TO",
                "delayTime": 4.676814079284668,
                "duration": 0.800000011920929,
                "aliasList": [
                    "Avatar"
                ],
                "DMGIIHNDNLC": "ABSOLUTE",
                "PLAPKCOMAKJ": {
                    "x": -430.6912841796875,
                    "y": 239.17623901367188,
                    "z": 434.20965576171875
                },
                "HCMINPNPFDF": true,
                "OMCCMPHDLOO": "",
                "DBLNLMOPEBP": ""
            },
            {
                "$type": "EAMBKPBOPIC",
                "type": "LOOK_AT",
                "delayTime": 4.676811218261719,
                "aliasList": [
                    "Avatar"
                ],
                "FIDJDPAIFDN": true,
                "useTargetPos": true,
                "GFKIMGBGADJ": true,
                "GMKIJKADNHN": {
                    "x": -435.25244140625,
                    "y": 240.6209259033203,
                    "z": 434.839599609375
                },
                "BCHGCKLKNEH": 0.5,
                "OMCCMPHDLOO": "",
                "KPCALFDIHMC": "",
                "DBLNLMOPEBP": ""
            },
            {
                "$type": "MoleMole.Config.ConfigMoveToAction",
                "type": "MOVE_TO",
                "delayTime": 6.128541946411133,
                "aliasList": [
                    "Avatar"
                ],
                "moveType": "WALK",
                "routeList": [
                    {
                        "x": -439.2369384765625,
                        "y": 239.25755310058594,
                        "z": 435.54327392578125
                    }
                ],
                "exactlyMove": true,
                "bindMovingTargetKey": ""
            },
            {
                "$type": "DLPFECMKEKH",
                "type": "DIALOG",
                "aliasList": [
                    "10234"
                ],
                "NMKEDPFEKBH": 110080914,
                "JLCHMAJCAPA": 0.5
            },
            {
                "$type": "ILCGAGEGDJI",
                "type": "BODY_LANG",
                "delayTime": 1.3642120361328125,
                "aliasList": [
                    "10234"
                ],
                "FLBOOPHHFJP": 1170,
                "PMJAMGLAJGK": true,
                "FNDLJGEAMGI": ""
            },
            {
                "$type": "ILCGAGEGDJI",
                "type": "BODY_LANG",
                "delayTime": 3.0626611709594727,
                "aliasList": [
                    "10234"
                ],
                "JLABKFNJCNP": true,
                "KACOEDHDAMC": false,
                "FNDLJGEAMGI": ""
            },
            {
                "$type": "EAMBKPBOPIC",
                "type": "LOOK_AT",
                "delayTime": 3.3819620609283447,
                "aliasList": [
                    "10234"
                ],
                "FIDJDPAIFDN": true,
                "EFHJCGEOHAF": {
                    "x": 355.3258972167969,
                    "y": 0.9629663825035095
                },
                "PBEEIPKGGKJ": true,
                "EJJGMGKOEKN": 4.525803565979004,
                "BCHGCKLKNEH": 1.5,
                "OMCCMPHDLOO": "",
                "KPCALFDIHMC": "",
                "DBLNLMOPEBP": ""
            },
            {
                "$type": "OPCCDGPJCJI",
                "type": "EMO_SYNC",
                "aliasList": [
                    "10234"
                ],
                "IONNJBCBACJ": "Cs_Emo_Avatar_Simple_Common_Set/Cs_Emo_Avatar_Talk/Cs_Emo_Avatar_Event/Cs_Emo_Homeworld/Cs_Emo_110080914",
                "HLEJKBCMNNJ": "",
                "JGHLJJLNGPP": "",
                "MANNKIIBOFM": "",
                "COMNAAFDEDH": "",
                "CPGCCLNOCDK": "",
                "IGEFGCJKCPM": [
                    2937044934355146525,
                    17505545250075789027,
                    10973454525288617608,
                    928433295073701089
                ]
            },
            {
                "$type": "EAMBKPBOPIC",
                "type": "LOOK_AT",
                "aliasList": [
                    "10234"
                ],
                "FIDJDPAIFDN": true,
                "EFHJCGEOHAF": {
                    "x": 320.51947021484375,
                    "y": 4.391695499420166
                },
                "BCHGCKLKNEH": 0.5,
                "OMCCMPHDLOO": "",
                "KPCALFDIHMC": "",
                "DBLNLMOPEBP": ""
            },
            {
                "$type": "MoleMole.Config.ConfigMoveToAction",
                "type": "MOVE_TO",
                "delayTime": 2.5986168384552,
                "aliasList": [
                    "1030"
                ],
                "moveType": "WALK",
                "routeList": [
                    {
                        "x": -439.8475036621094,
                        "y": 239.24661254882812,
                        "z": 435.1725158691406
                    }
                ],
                "exactlyMove": true,
                "bindMovingTargetKey": ""
            },
            {
                "$type": "OOMFCPJAJGL",
                "type": "STEER_TO",
                "duration": 1.0,
                "aliasList": [
                    "1030"
                ],
                "DMGIIHNDNLC": "ABSOLUTE",
                "PLAPKCOMAKJ": {
                    "x": -430.3546142578125,
                    "y": 238.90640258789062,
                    "z": 434.707763671875
                },
                "HCMINPNPFDF": true,
                "OMCCMPHDLOO": "",
                "DBLNLMOPEBP": ""
            },
            {
                "$type": "EAMBKPBOPIC",
                "type": "LOOK_AT",
                "aliasList": [
                    "1030"
                ],
                "FIDJDPAIFDN": true,
                "useTargetPos": true,
                "GFKIMGBGADJ": true,
                "GMKIJKADNHN": {
                    "x": -444.60638427734375,
                    "y": 240.37757873535156,
                    "z": 435.7311706542969
                },
                "EFHJCGEOHAF": {
                    "x": 349.9996337890625,
                    "y": 355.0287170410156
                },
                "BCHGCKLKNEH": 0.30000001192092896,
                "OMCCMPHDLOO": "",
                "KPCALFDIHMC": "",
                "DBLNLMOPEBP": ""
            },
            {
                "$type": "ILCGAGEGDJI",
                "type": "BODY_LANG",
                "delayTime": 7.012497901916504,
                "aliasList": [
                    "1030"
                ],
                "JLABKFNJCNP": true,
                "KACOEDHDAMC": false,
                "FNDLJGEAMGI": ""
            },
            {
                "$type": "OOMFCPJAJGL",
                "type": "STEER_TO",
                "delayTime": 3.6055099964141846,
                "duration": 0.800000011920929,
                "aliasList": [
                    "1005"
                ],
                "DMGIIHNDNLC": "ABSOLUTE",
                "PLAPKCOMAKJ": {
                    "x": -430.6057434082031,
                    "y": 239.27630615234375,
                    "z": 435.4527282714844
                },
                "HCMINPNPFDF": true,
                "OMCCMPHDLOO": "",
                "DBLNLMOPEBP": ""
            },
            {
                "$type": "EAMBKPBOPIC",
                "type": "LOOK_AT",
                "delayTime": 3.6054980754852295,
                "aliasList": [
                    "1005"
                ],
                "FIDJDPAIFDN": true,
                "useTargetPos": true,
                "GFKIMGBGADJ": true,
                "GMKIJKADNHN": {
                    "x": -446.1610107421875,
                    "y": 240.6573028564453,
                    "z": 436.99786376953125
                },
                "BCHGCKLKNEH": 0.5,
                "OMCCMPHDLOO": "",
                "KPCALFDIHMC": "",
                "DBLNLMOPEBP": ""
            },
            {
                "$type": "MoleMole.Config.ConfigMoveToAction",
                "type": "MOVE_TO",
                "delayTime": 4.951817989349365,
                "aliasList": [
                    "1005"
                ],
                "moveType": "WALK",
                "routeList": [
                    {
                        "x": -437.4703674316406,
                        "y": 239.27630615234375,
                        "z": 435.719970703125
                    }
                ],
                "exactlyMove": true,
                "bindMovingTargetKey": ""
            }
        ],
        [
            {
                "$type": "MoleMole.Config.ConfigTimeProtectAction",
                "type": "TIME_PROTECT",
                "duration": 0.6000000238418579
            },
            {
                "$type": "MoleMole.Config.ConfigSimpleBlackScreenAction",
                "type": "SIMPLE_BLACK_SCREEN",
                "durationToBlack": 0.5,
                "durationKeepBlack": 1.0,
                "durationFromBlack": 0.5,
                "textMapID": ""
            },
            {
                "$type": "MoleMole.Config.ConfigVisibleInterAction",
                "type": "VISIBLE",
                "delayTime": 0.6000000238418579,
                "aliasList": [
                    "1030"
                ],
                "extraParam": ""
            }
        ]
    ],
    "groupId": [
        {
            "grpId": 1237104945,
            "nextGrpId": 1237104946
        },
        {
            "index": 1,
            "grpId": 1237104946,
            "nextGrpId": 1237104947
        },
        {
            "index": 2,
            "grpId": 1237104947,
            "nextGrpId": 1237104948
        },
        {
            "index": 3,
            "grpId": 1237104948,
            "nextGrpId": 1237104949
        },
        {
            "index": 4,
            "grpId": 1237104949,
            "nextGrpId": 1237104950
        },
        {
            "index": 5,
            "grpId": 1237104950,
            "nextGrpId": 1237104951
        },
        {
            "index": 6,
            "grpId": 1237104951,
            "nextGrpId": 1237104952
        },
        {
            "index": 7,
            "grpId": 1237104952,
            "nextGrpId": 1237104953
        },
        {
            "index": 8,
            "grpId": 1237104953,
            "nextGrpId": 3990514975
        },
        {
            "index": 9,
            "grpId": 3990514975,
            "nextGrpId": 3990514976
        },
        {
            "index": 10,
            "grpId": 3990514976,
            "nextGrpId": 3990514977
        },
        {
            "index": 11,
            "grpId": 3990514977,
            "nextGrpId": 3990514978
        },
        {
            "index": 12,
            "grpId": 3990514978,
            "nextGrpId": 3990514979
        },
        {
            "index": 13,
            "grpId": 3990514979,
            "nextGrpId": 3990514980
        },
        {
            "index": 14,
            "grpId": 3990514980,
            "nextGrpId": 3990514981
        },
        {
            "index": 15,
            "grpId": 3990514981,
            "nextGrpId": 3990514982
        }
    ],
    "freeStyleDic": {
        "10234": [
            1172,
            1190,
            1171,
            1170,
            1150
        ],
        "1030": [
            1150,
            1171,
            1230,
            1130,
            1190,
            1040,
            1120,
            1030
        ],
        "2103": []
    }
}