{
    "luaDataPath": "",
    "dontUseDefaultFinish": true,
    "startBlackKeepTime": 0.5,
    "entityBan": "",
    "disableNpcLod": true,
    "isAutoBanNpc": true,
    "isBanWidgetPet": true,
    "protectNpcMobileLod": true,
    "LIICEPFFGMH": 7,
    "startFade": {
        "startFadeInDuration": 0.5,
        "startFadeOutDuration": 0.5
    },
    "endFade": {
        "startFadeOutDuration": 0.0
    },
    "actors": [
        {
            "alias": "Avatar",
            "visible": true,
            "bornPointName": "[3_7233:3499.357,294.287,4577.042,0.000,349.993,0.000]",
            "relativePosType": "AVATAR_NEW",
            "relativePosNpcAlias": "",
            "bindMovingTargetKey": ""
        },
        {
            "alias": "AvatarNpc",
            "visible": true,
            "bornPointName": "[3_7233:3499.357,294.287,4577.042,0.000,349.993,0.000]",
            "removeActorType": "NEW_REMOVE",
            "relativePosType": "AVATAR_NEW",
            "relativePosNpcAlias": "",
            "bindMovingTargetKey": ""
        },
        {
            "configID": 1005,
            "alias": "1005",
            "visible": true,
            "bornPointName": "[3_7234:3500.037,294.214,4577.533,0.000,328.021,0.000]",
            "removeActorType": "NEW_REMOVE_WITH_DISAPPEAR",
            "relativePosType": "AVATAR_NEW",
            "relativePosNpcAlias": "",
            "bindMovingTargetKey": ""
        },
        {
            "configID": 21167,
            "alias": "21167",
            "visible": true,
            "bornPointName": "[3_7232:3498.918,294.281,4579.168,0.000,161.780,0.000]",
            "removeActorType": "NEW_REMOVE",
            "relativePosType": "AVATAR_NEW",
            "relativePosNpcAlias": "",
            "bindMovingTargetKey": ""
        },
        {
            "configID": 21158,
            "alias": "21158",
            "visible": true,
            "bornPointName": "[3_7235:3498.047,294.215,4577.166,0.000,15.609,0.000]",
            "removeActorType": "NEW_REMOVE",
            "relativePosType": "AVATAR_NEW",
            "relativePosNpcAlias": "",
            "bindMovingTargetKey": ""
        },
        {
            "configID": 21160,
            "alias": "21160",
            "visible": true,
            "bornPointName": "[3_7236:3498.897,294.225,4575.287]",
            "removeActorType": "NEW_REMOVE",
            "relativePosType": "AVATAR_NEW",
            "relativePosNpcAlias": "",
            "bindMovingTargetKey": ""
        }
    ],
    "group": [
        [
            {
                "$type": "MoleMole.Config.ConfigTimeProtectAction",
                "type": "TIME_PROTECT",
                "duration": 1.0,
                "actionId": 104
            },
            {
                "$type": "MoleMole.Config.ConfigBlackScreenAction",
                "type": "BLACK_SCREEN",
                "duration": 1.0,
                "actionId": 252,
                "flag": 2048,
                "blackScreenType": "KEEP_BLACK",
                "durationToBlack": 0.5,
                "durationKeepBlack": 1.0,
                "durationFromBlack": 0.5,
                "inteePos": "",
                "textMapID": "",
                "useTextFade": true,
                "changeAudioState": true
            },
            {
                "$type": "MoleMole.Config.ConfigSitOrStandAction",
                "type": "SIT_OR_STAND",
                "aliasList": [
                    "Avatar"
                ],
                "actionId": 261,
                "flag": 8192,
                "banResetFreestyle": true
            },
            {
                "$type": "MoleMole.Config.ConfigVisibleInterAction",
                "type": "VISIBLE",
                "aliasList": [
                    "Avatar"
                ],
                "actionId": 267,
                "extraParam": ""
            },
            {
                "$type": "MoleMole.Config.ConfigPlayerNPCEnergyTypeAction",
                "type": "SET_PLAYER_NPC_ENERGY_TYPE",
                "aliasList": [
                    "AvatarNpc"
                ],
                "actionId": 262,
                "setHeroEngergyType": true
            },
            {
                "$type": "ILCGAGEGDJI",
                "type": "BODY_LANG",
                "aliasList": [
                    "AvatarNpc"
                ],
                "actionId": 265,
                "JLABKFNJCNP": true,
                "PMJAMGLAJGK": true,
                "LIMPPBIAKGL": false,
                "FNDLJGEAMGI": ""
            },
            {
                "$type": "ILCGAGEGDJI",
                "type": "BODY_LANG",
                "aliasList": [
                    "1005"
                ],
                "actionId": 244,
                "JLABKFNJCNP": true,
                "PMJAMGLAJGK": true,
                "LIMPPBIAKGL": false,
                "FNDLJGEAMGI": ""
            },
            {
                "$type": "ILCGAGEGDJI",
                "type": "BODY_LANG",
                "aliasList": [
                    "21167"
                ],
                "actionId": 246,
                "JLABKFNJCNP": true,
                "PMJAMGLAJGK": true,
                "LIMPPBIAKGL": false,
                "FNDLJGEAMGI": ""
            },
            {
                "$type": "ILCGAGEGDJI",
                "type": "BODY_LANG",
                "aliasList": [
                    "21158"
                ],
                "actionId": 248,
                "JLABKFNJCNP": true,
                "PMJAMGLAJGK": true,
                "LIMPPBIAKGL": false,
                "FNDLJGEAMGI": ""
            },
            {
                "$type": "ILCGAGEGDJI",
                "type": "BODY_LANG",
                "aliasList": [
                    "21160"
                ],
                "actionId": 250,
                "JLABKFNJCNP": true,
                "PMJAMGLAJGK": true,
                "LIMPPBIAKGL": false,
                "FNDLJGEAMGI": ""
            },
            {
                "$type": "MoleMole.Config.ConfigTeleportToAction",
                "type": "TELEPORT_TO",
                "delayTime": 0.17499999701976776,
                "aliasList": [
                    "21167"
                ],
                "actionId": 269,
                "position": {
                    "x": 3499.0009765625,
                    "y": 294.281005859375,
                    "z": 4579.18603515625
                },
                "forward": {
                    "x": 645.1929931640625,
                    "y": -294.281005859375,
                    "z": -4578.18603515625
                },
                "openLongDisTeleport": true,
                "syncForward": true,
                "posBindMovingTargetKey": "",
                "forwardBindMovingTargetKey": ""
            }
        ],
        [
            {
                "$type": "MoleMole.Config.ConfigBlackScreenAction",
                "type": "BLACK_SCREEN",
                "duration": 0.5,
                "actionId": 253,
                "flag": 2048,
                "blackScreenType": "FROM_BLACK",
                "durationToBlack": 0.5,
                "durationKeepBlack": 0.5,
                "durationFromBlack": 0.5,
                "inteePos": "",
                "textMapID": "",
                "useTextFade": true,
                "changeAudioState": true
            },
            {
                "$type": "DLPFECMKEKH",
                "type": "DIALOG",
                "aliasList": [
                    "1005"
                ],
                "actionId": 107,
                "NMKEDPFEKBH": 741151701,
                "JLCHMAJCAPA": 1.0920000076293945
            },
            {
                "$type": "OOMFCPJAJGL",
                "type": "STEER_TO",
                "duration": 1.0,
                "aliasList": [
                    "21167"
                ],
                "actionId": 271,
                "flag": 32,
                "DMGIIHNDNLC": "TO_TARGET",
                "HCMINPNPFDF": true,
                "PENAEBFAHCH": true,
                "CKOEAJFMDON": true,
                "OMCCMPHDLOO": "AvatarNpc",
                "AKKPIOCLGOP": true,
                "PPGPCHDAOJG": true,
                "DBLNLMOPEBP": ""
            },
            {
                "$type": "ILCGAGEGDJI",
                "type": "BODY_LANG",
                "delayTime": 0.20000000298023224,
                "aliasList": [
                    "1005"
                ],
                "actionId": 270,
                "FLBOOPHHFJP": 1060,
                "PMJAMGLAJGK": true,
                "LIMPPBIAKGL": false,
                "FNEGLPPEBBF": true,
                "FNDLJGEAMGI": ""
            }
        ],
        [
            {
                "$type": "DLPFECMKEKH",
                "type": "DIALOG",
                "aliasList": [
                    "21167"
                ],
                "actionId": 109,
                "NMKEDPFEKBH": 741151702,
                "JLCHMAJCAPA": 0.5
            },
            {
                "$type": "ILCGAGEGDJI",
                "type": "BODY_LANG",
                "delayTime": 0.22499999403953552,
                "aliasList": [
                    "21167"
                ],
                "actionId": 272,
                "FLBOOPHHFJP": 1150,
                "PMJAMGLAJGK": true,
                "LIMPPBIAKGL": false,
                "FNEGLPPEBBF": true,
                "FNDLJGEAMGI": ""
            }
        ],
        [
            {
                "$type": "DLPFECMKEKH",
                "type": "DIALOG",
                "aliasList": [
                    "21158"
                ],
                "actionId": 111,
                "NMKEDPFEKBH": 741151703,
                "JLCHMAJCAPA": 0.5
            },
            {
                "$type": "ILCGAGEGDJI",
                "type": "BODY_LANG",
                "delayTime": 0.08900000154972076,
                "aliasList": [
                    "1005"
                ],
                "actionId": 276,
                "JLABKFNJCNP": true,
                "PMJAMGLAJGK": true,
                "LIMPPBIAKGL": false,
                "FNEGLPPEBBF": true,
                "FNDLJGEAMGI": ""
            },
            {
                "$type": "ILCGAGEGDJI",
                "type": "BODY_LANG",
                "delayTime": 0.164000004529953,
                "aliasList": [
                    "21158"
                ],
                "actionId": 273,
                "FLBOOPHHFJP": 1280,
                "PMJAMGLAJGK": true,
                "LIMPPBIAKGL": false,
                "FNEGLPPEBBF": true,
                "FNDLJGEAMGI": ""
            }
        ],
        [
            {
                "$type": "DLPFECMKEKH",
                "type": "DIALOG",
                "aliasList": [
                    "21167"
                ],
                "actionId": 113,
                "NMKEDPFEKBH": 741151704,
                "JLCHMAJCAPA": 0.5
            },
            {
                "$type": "ILCGAGEGDJI",
                "type": "BODY_LANG",
                "aliasList": [
                    "21167"
                ],
                "actionId": 274,
                "JLABKFNJCNP": true,
                "PMJAMGLAJGK": true,
                "LIMPPBIAKGL": false,
                "FNEGLPPEBBF": true,
                "FNDLJGEAMGI": ""
            },
            {
                "$type": "ILCGAGEGDJI",
                "type": "BODY_LANG",
                "delayTime": 0.24199999868869781,
                "aliasList": [
                    "21167"
                ],
                "actionId": 275,
                "FLBOOPHHFJP": 1170,
                "PMJAMGLAJGK": true,
                "LIMPPBIAKGL": false,
                "FNEGLPPEBBF": true,
                "FNDLJGEAMGI": ""
            }
        ],
        [
            {
                "$type": "DLPFECMKEKH",
                "type": "DIALOG",
                "aliasList": [
                    "21158"
                ],
                "actionId": 115,
                "NMKEDPFEKBH": 741151705,
                "JLCHMAJCAPA": 0.5
            },
            {
                "$type": "ILCGAGEGDJI",
                "type": "BODY_LANG",
                "delayTime": 0.11699999868869781,
                "aliasList": [
                    "21158"
                ],
                "actionId": 282,
                "JLABKFNJCNP": true,
                "PMJAMGLAJGK": true,
                "LIMPPBIAKGL": false,
                "FNEGLPPEBBF": true,
                "FNDLJGEAMGI": ""
            }
        ],
        [
            {
                "$type": "DLPFECMKEKH",
                "type": "DIALOG",
                "aliasList": [
                    "21167"
                ],
                "actionId": 117,
                "NMKEDPFEKBH": 741151706,
                "JLCHMAJCAPA": 1.2419999837875366
            },
            {
                "$type": "EAMBKPBOPIC",
                "type": "LOOK_AT",
                "aliasList": [
                    "21167"
                ],
                "actionId": 281,
                "flag": 64,
                "FIDJDPAIFDN": true,
                "BCHGCKLKNEH": 0.5,
                "OMCCMPHDLOO": "AvatarNpc",
                "EOHIIHMKDJC": true,
                "NALDAIJKCML": 10.0,
                "KPCALFDIHMC": "",
                "DBLNLMOPEBP": ""
            },
            {
                "$type": "EAMBKPBOPIC",
                "type": "LOOK_AT",
                "delayTime": 0.019999999552965164,
                "aliasList": [
                    "AvatarNpc"
                ],
                "actionId": 280,
                "flag": 64,
                "FIDJDPAIFDN": true,
                "BCHGCKLKNEH": 0.5,
                "OMCCMPHDLOO": "21167",
                "EOHIIHMKDJC": true,
                "NALDAIJKCML": 10.0,
                "KPCALFDIHMC": "",
                "DBLNLMOPEBP": ""
            },
            {
                "$type": "ILCGAGEGDJI",
                "type": "BODY_LANG",
                "delayTime": 0.0949999988079071,
                "aliasList": [
                    "21167"
                ],
                "actionId": 277,
                "FLBOOPHHFJP": 1230,
                "PMJAMGLAJGK": true,
                "LIMPPBIAKGL": false,
                "FNEGLPPEBBF": true,
                "FNDLJGEAMGI": ""
            },
            {
                "$type": "ECLBLHOENAG",
                "type": "DIALOG_SELECT",
                "delayTime": 1.2419999837875366,
                "aliasList": [
                    "AvatarNpc"
                ],
                "actionId": 255,
                "NDMMOPDPKNF": [
                    741151707
                ],
                "FPDBIEGHMCD": [
                    3032592065
                ],
                "PKBOIGBGDEG": true,
                "GOJJPCDMMLN": 3032592057
            }
        ],
        [
            {
                "$type": "DLPFECMKEKH",
                "type": "DIALOG",
                "aliasList": [
                    "21167"
                ],
                "actionId": 120,
                "NMKEDPFEKBH": 741151708,
                "JLCHMAJCAPA": 0.5
            },
            {
                "$type": "ILCGAGEGDJI",
                "type": "BODY_LANG",
                "aliasList": [
                    "21167"
                ],
                "actionId": 279,
                "JLABKFNJCNP": true,
                "PMJAMGLAJGK": true,
                "LIMPPBIAKGL": false,
                "FNEGLPPEBBF": true,
                "FNDLJGEAMGI": ""
            },
            {
                "$type": "ILCGAGEGDJI",
                "type": "BODY_LANG",
                "delayTime": 0.31700000166893005,
                "aliasList": [
                    "21167"
                ],
                "actionId": 278,
                "FLBOOPHHFJP": 4040,
                "PMJAMGLAJGK": true,
                "LIMPPBIAKGL": false,
                "FNEGLPPEBBF": true,
                "FNDLJGEAMGI": ""
            }
        ],
        [
            {
                "$type": "DLPFECMKEKH",
                "type": "DIALOG",
                "aliasList": [
                    "21158"
                ],
                "actionId": 122,
                "NMKEDPFEKBH": 741151709,
                "JLCHMAJCAPA": 0.5
            },
            {
                "$type": "ILCGAGEGDJI",
                "type": "BODY_LANG",
                "aliasList": [
                    "21158"
                ],
                "actionId": 283,
                "FLBOOPHHFJP": 1171,
                "PMJAMGLAJGK": true,
                "LIMPPBIAKGL": false,
                "FNEGLPPEBBF": true,
                "FNDLJGEAMGI": ""
            }
        ],
        [
            {
                "$type": "DLPFECMKEKH",
                "type": "DIALOG",
                "aliasList": [
                    "21158"
                ],
                "actionId": 124,
                "NMKEDPFEKBH": 741151710,
                "JLCHMAJCAPA": 0.5
            }
        ],
        [
            {
                "$type": "DLPFECMKEKH",
                "type": "DIALOG",
                "aliasList": [
                    "1005"
                ],
                "actionId": 126,
                "NMKEDPFEKBH": 741151711,
                "JLCHMAJCAPA": 0.5
            },
            {
                "$type": "ILCGAGEGDJI",
                "type": "BODY_LANG",
                "delayTime": 0.07400000095367432,
                "aliasList": [
                    "1005"
                ],
                "actionId": 284,
                "FLBOOPHHFJP": 1110,
                "PMJAMGLAJGK": true,
                "LIMPPBIAKGL": false,
                "FNEGLPPEBBF": true,
                "FNDLJGEAMGI": ""
            }
        ],
        [
            {
                "$type": "DLPFECMKEKH",
                "type": "DIALOG",
                "aliasList": [
                    "21167"
                ],
                "actionId": 128,
                "NMKEDPFEKBH": 741151712,
                "JLCHMAJCAPA": 0.5
            },
            {
                "$type": "ILCGAGEGDJI",
                "type": "BODY_LANG",
                "aliasList": [
                    "21167"
                ],
                "actionId": 285,
                "FLBOOPHHFJP": 1150,
                "PMJAMGLAJGK": true,
                "LIMPPBIAKGL": false,
                "FNEGLPPEBBF": true,
                "FNDLJGEAMGI": ""
            },
            {
                "$type": "ILCGAGEGDJI",
                "type": "BODY_LANG",
                "delayTime": 0.40400001406669617,
                "aliasList": [
                    "1005"
                ],
                "actionId": 289,
                "JLABKFNJCNP": true,
                "PMJAMGLAJGK": true,
                "LIMPPBIAKGL": false,
                "FNEGLPPEBBF": true,
                "FNDLJGEAMGI": ""
            }
        ],
        [
            {
                "$type": "DLPFECMKEKH",
                "type": "DIALOG",
                "aliasList": [
                    "21158"
                ],
                "actionId": 130,
                "NMKEDPFEKBH": 741151713,
                "JLCHMAJCAPA": 0.5
            },
            {
                "$type": "ILCGAGEGDJI",
                "type": "BODY_LANG",
                "delayTime": 0.12999999523162842,
                "aliasList": [
                    "21158"
                ],
                "actionId": 286,
                "FLBOOPHHFJP": 1172,
                "PMJAMGLAJGK": true,
                "LIMPPBIAKGL": false,
                "FNEGLPPEBBF": true,
                "FNDLJGEAMGI": ""
            }
        ],
        [
            {
                "$type": "DLPFECMKEKH",
                "type": "DIALOG",
                "aliasList": [
                    "21158"
                ],
                "actionId": 132,
                "NMKEDPFEKBH": 741151714,
                "JLCHMAJCAPA": 0.5
            }
        ],
        [
            {
                "$type": "DLPFECMKEKH",
                "type": "DIALOG",
                "aliasList": [
                    "21167"
                ],
                "actionId": 134,
                "NMKEDPFEKBH": 741151715,
                "JLCHMAJCAPA": 0.5
            },
            {
                "$type": "ILCGAGEGDJI",
                "type": "BODY_LANG",
                "delayTime": 0.1550000011920929,
                "aliasList": [
                    "21167"
                ],
                "actionId": 287,
                "FLBOOPHHFJP": 1160,
                "PMJAMGLAJGK": true,
                "LIMPPBIAKGL": false,
                "FNEGLPPEBBF": true,
                "FNDLJGEAMGI": ""
            }
        ],
        [
            {
                "$type": "DLPFECMKEKH",
                "type": "DIALOG",
                "aliasList": [
                    "21167"
                ],
                "actionId": 136,
                "NMKEDPFEKBH": 741151716,
                "JLCHMAJCAPA": 0.5
            },
            {
                "$type": "ILCGAGEGDJI",
                "type": "BODY_LANG",
                "delayTime": 0.03799999877810478,
                "aliasList": [
                    "21167"
                ],
                "actionId": 288,
                "FLBOOPHHFJP": 1171,
                "PMJAMGLAJGK": true,
                "LIMPPBIAKGL": false,
                "FNEGLPPEBBF": true,
                "FNDLJGEAMGI": ""
            }
        ],
        [
            {
                "$type": "DLPFECMKEKH",
                "type": "DIALOG",
                "aliasList": [
                    "21167"
                ],
                "actionId": 138,
                "NMKEDPFEKBH": 741151717,
                "JLCHMAJCAPA": 0.5
            }
        ],
        [
            {
                "$type": "DLPFECMKEKH",
                "type": "DIALOG",
                "aliasList": [
                    "1005"
                ],
                "actionId": 140,
                "NMKEDPFEKBH": 741151718,
                "JLCHMAJCAPA": 0.5
            },
            {
                "$type": "ILCGAGEGDJI",
                "type": "BODY_LANG",
                "delayTime": 0.10700000077486038,
                "aliasList": [
                    "1005"
                ],
                "actionId": 290,
                "FLBOOPHHFJP": 1190,
                "PMJAMGLAJGK": true,
                "LIMPPBIAKGL": false,
                "FNEGLPPEBBF": true,
                "FNDLJGEAMGI": ""
            }
        ],
        [
            {
                "$type": "DLPFECMKEKH",
                "type": "DIALOG",
                "aliasList": [
                    "21167"
                ],
                "actionId": 142,
                "NMKEDPFEKBH": 741151719,
                "JLCHMAJCAPA": 1.5
            },
            {
                "$type": "ILCGAGEGDJI",
                "type": "BODY_LANG",
                "delayTime": 0.2029999941587448,
                "aliasList": [
                    "21167"
                ],
                "actionId": 293,
                "FLBOOPHHFJP": 1172,
                "PMJAMGLAJGK": true,
                "LIMPPBIAKGL": false,
                "FNEGLPPEBBF": true,
                "FNDLJGEAMGI": ""
            }
        ],
        [
            {
                "$type": "DLPFECMKEKH",
                "type": "DIALOG",
                "aliasList": [
                    "1005"
                ],
                "actionId": 144,
                "NMKEDPFEKBH": 741151720,
                "JLCHMAJCAPA": 0.5
            }
        ],
        [
            {
                "$type": "ILCGAGEGDJI",
                "type": "BODY_LANG",
                "aliasList": [
                    "1005"
                ],
                "actionId": 291,
                "JLABKFNJCNP": true,
                "PMJAMGLAJGK": true,
                "LIMPPBIAKGL": false,
                "FNEGLPPEBBF": true,
                "FNDLJGEAMGI": ""
            },
            {
                "$type": "DLPFECMKEKH",
                "type": "DIALOG",
                "aliasList": [
                    "21167"
                ],
                "actionId": 146,
                "NMKEDPFEKBH": 741151721,
                "JLCHMAJCAPA": 1.0
            },
            {
                "$type": "ILCGAGEGDJI",
                "type": "BODY_LANG",
                "delayTime": 0.4050000011920929,
                "aliasList": [
                    "21167"
                ],
                "actionId": 294,
                "FLBOOPHHFJP": 1120,
                "PMJAMGLAJGK": true,
                "LIMPPBIAKGL": false,
                "FNEGLPPEBBF": true,
                "FNDLJGEAMGI": ""
            }
        ],
        [
            {
                "$type": "DLPFECMKEKH",
                "type": "DIALOG",
                "aliasList": [
                    "1005"
                ],
                "actionId": 148,
                "NMKEDPFEKBH": 741151722,
                "JLCHMAJCAPA": 0.5
            },
            {
                "$type": "ILCGAGEGDJI",
                "type": "BODY_LANG",
                "delayTime": 0.0949999988079071,
                "aliasList": [
                    "1005"
                ],
                "actionId": 292,
                "FLBOOPHHFJP": 1170,
                "PMJAMGLAJGK": true,
                "LIMPPBIAKGL": false,
                "FNEGLPPEBBF": true,
                "FNDLJGEAMGI": ""
            }
        ],
        [
            {
                "$type": "DLPFECMKEKH",
                "type": "DIALOG",
                "aliasList": [
                    "21167"
                ],
                "actionId": 150,
                "NMKEDPFEKBH": 741151723,
                "JLCHMAJCAPA": 0.5
            },
            {
                "$type": "ILCGAGEGDJI",
                "type": "BODY_LANG",
                "delayTime": 0.10000000149011612,
                "aliasList": [
                    "21167"
                ],
                "actionId": 295,
                "JLABKFNJCNP": true,
                "PMJAMGLAJGK": true,
                "LIMPPBIAKGL": false,
                "FNEGLPPEBBF": true,
                "FNDLJGEAMGI": ""
            },
            {
                "$type": "ILCGAGEGDJI",
                "type": "BODY_LANG",
                "delayTime": 0.3409999907016754,
                "aliasList": [
                    "21167"
                ],
                "actionId": 296,
                "FLBOOPHHFJP": 4030,
                "PMJAMGLAJGK": true,
                "LIMPPBIAKGL": false,
                "FNEGLPPEBBF": true,
                "FNDLJGEAMGI": ""
            }
        ],
        [
            {
                "$type": "DLPFECMKEKH",
                "type": "DIALOG",
                "aliasList": [
                    "1005"
                ],
                "actionId": 152,
                "NMKEDPFEKBH": 741151724,
                "JLCHMAJCAPA": 0.5
            },
            {
                "$type": "ILCGAGEGDJI",
                "type": "BODY_LANG",
                "aliasList": [
                    "1005"
                ],
                "actionId": 298,
                "FLBOOPHHFJP": 1300,
                "PMJAMGLAJGK": true,
                "LIMPPBIAKGL": false,
                "FNEGLPPEBBF": true,
                "FNDLJGEAMGI": ""
            }
        ],
        [
            {
                "$type": "DLPFECMKEKH",
                "type": "DIALOG",
                "aliasList": [
                    "21167"
                ],
                "actionId": 154,
                "NMKEDPFEKBH": 741151725,
                "JLCHMAJCAPA": 0.5
            },
            {
                "$type": "ILCGAGEGDJI",
                "type": "BODY_LANG",
                "delayTime": 0.3100000023841858,
                "aliasList": [
                    "21167"
                ],
                "actionId": 297,
                "FLBOOPHHFJP": 1170,
                "PMJAMGLAJGK": true,
                "LIMPPBIAKGL": false,
                "FNEGLPPEBBF": true,
                "FNDLJGEAMGI": ""
            }
        ],
        [
            {
                "$type": "DLPFECMKEKH",
                "type": "DIALOG",
                "aliasList": [
                    "1005"
                ],
                "actionId": 156,
                "NMKEDPFEKBH": 741151726,
                "JLCHMAJCAPA": 0.5
            },
            {
                "$type": "ILCGAGEGDJI",
                "type": "BODY_LANG",
                "delayTime": 0.006000000052154064,
                "aliasList": [
                    "1005"
                ],
                "actionId": 299,
                "FLBOOPHHFJP": 1120,
                "PMJAMGLAJGK": true,
                "LIMPPBIAKGL": false,
                "FNEGLPPEBBF": true,
                "FNDLJGEAMGI": ""
            }
        ],
        [
            {
                "$type": "DLPFECMKEKH",
                "type": "DIALOG",
                "aliasList": [
                    "21167"
                ],
                "actionId": 158,
                "NMKEDPFEKBH": 741151727,
                "JLCHMAJCAPA": 0.5
            },
            {
                "$type": "ILCGAGEGDJI",
                "type": "BODY_LANG",
                "aliasList": [
                    "21167"
                ],
                "actionId": 300,
                "FLBOOPHHFJP": 1090,
                "PMJAMGLAJGK": true,
                "LIMPPBIAKGL": false,
                "FNEGLPPEBBF": true,
                "FNDLJGEAMGI": ""
            }
        ],
        [
            {
                "$type": "DLPFECMKEKH",
                "type": "DIALOG",
                "aliasList": [
                    "21167"
                ],
                "actionId": 160,
                "NMKEDPFEKBH": 741151728,
                "JLCHMAJCAPA": 0.5
            },
            {
                "$type": "ILCGAGEGDJI",
                "type": "BODY_LANG",
                "delayTime": 0.22499999403953552,
                "aliasList": [
                    "21167"
                ],
                "actionId": 301,
                "FLBOOPHHFJP": 1130,
                "PMJAMGLAJGK": true,
                "LIMPPBIAKGL": false,
                "FNEGLPPEBBF": true,
                "FNDLJGEAMGI": ""
            }
        ],
        [
            {
                "$type": "ILCGAGEGDJI",
                "type": "BODY_LANG",
                "aliasList": [
                    "AvatarNpc"
                ],
                "actionId": 302,
                "JLABKFNJCNP": true,
                "PMJAMGLAJGK": true,
                "LIMPPBIAKGL": false,
                "FNEGLPPEBBF": true,
                "FNDLJGEAMGI": ""
            },
            {
                "$type": "DLPFECMKEKH",
                "type": "DIALOG",
                "aliasList": [
                    "1005"
                ],
                "actionId": 162,
                "NMKEDPFEKBH": 741151729,
                "JLCHMAJCAPA": 0.5
            }
        ],
        [
            {
                "$type": "DLPFECMKEKH",
                "type": "DIALOG",
                "aliasList": [
                    "21167"
                ],
                "actionId": 164,
                "NMKEDPFEKBH": 741151730,
                "JLCHMAJCAPA": 0.5
            }
        ],
        [
            {
                "$type": "DLPFECMKEKH",
                "type": "DIALOG",
                "aliasList": [
                    "21158"
                ],
                "actionId": 166,
                "NMKEDPFEKBH": 741151731,
                "JLCHMAJCAPA": 0.5
            },
            {
                "$type": "ILCGAGEGDJI",
                "type": "BODY_LANG",
                "delayTime": 0.20200000703334808,
                "aliasList": [
                    "21158"
                ],
                "actionId": 303,
                "FLBOOPHHFJP": 1060,
                "PMJAMGLAJGK": true,
                "LIMPPBIAKGL": false,
                "FNEGLPPEBBF": true,
                "FNDLJGEAMGI": ""
            }
        ],
        [
            {
                "$type": "DLPFECMKEKH",
                "type": "DIALOG",
                "aliasList": [
                    "21167"
                ],
                "actionId": 168,
                "NMKEDPFEKBH": 741151732,
                "JLCHMAJCAPA": 0.5
            },
            {
                "$type": "ILCGAGEGDJI",
                "type": "BODY_LANG",
                "aliasList": [
                    "21167"
                ],
                "actionId": 305,
                "FLBOOPHHFJP": 4030,
                "PMJAMGLAJGK": true,
                "LIMPPBIAKGL": false,
                "FNEGLPPEBBF": true,
                "FNDLJGEAMGI": ""
            },
            {
                "$type": "ILCGAGEGDJI",
                "type": "BODY_LANG",
                "delayTime": 0.15000000596046448,
                "aliasList": [
                    "21158"
                ],
                "actionId": 304,
                "JLABKFNJCNP": true,
                "PMJAMGLAJGK": true,
                "LIMPPBIAKGL": false,
                "FNEGLPPEBBF": true,
                "FNDLJGEAMGI": ""
            },
            {
                "$type": "ILCGAGEGDJI",
                "type": "BODY_LANG",
                "delayTime": 0.4320000112056732,
                "aliasList": [
                    "21167"
                ],
                "actionId": 306,
                "FLBOOPHHFJP": 1173,
                "PMJAMGLAJGK": true,
                "LIMPPBIAKGL": false,
                "FNEGLPPEBBF": true,
                "FNDLJGEAMGI": ""
            }
        ],
        [
            {
                "$type": "DLPFECMKEKH",
                "type": "DIALOG",
                "aliasList": [
                    "1005"
                ],
                "actionId": 170,
                "NMKEDPFEKBH": 741151733,
                "JLCHMAJCAPA": 0.5
            },
            {
                "$type": "ILCGAGEGDJI",
                "type": "BODY_LANG",
                "delayTime": 0.18000000715255737,
                "aliasList": [
                    "1005"
                ],
                "actionId": 307,
                "FLBOOPHHFJP": 1030,
                "PMJAMGLAJGK": true,
                "LIMPPBIAKGL": false,
                "FNEGLPPEBBF": true,
                "FNDLJGEAMGI": ""
            }
        ],
        [
            {
                "$type": "DLPFECMKEKH",
                "type": "DIALOG",
                "aliasList": [
                    "21167"
                ],
                "actionId": 172,
                "NMKEDPFEKBH": 741151734,
                "JLCHMAJCAPA": 1.0
            },
            {
                "$type": "ILCGAGEGDJI",
                "type": "BODY_LANG",
                "delayTime": 0.125,
                "aliasList": [
                    "1005"
                ],
                "actionId": 308,
                "JLABKFNJCNP": true,
                "PMJAMGLAJGK": true,
                "LIMPPBIAKGL": false,
                "FNEGLPPEBBF": true,
                "FNDLJGEAMGI": ""
            },
            {
                "$type": "ILCGAGEGDJI",
                "type": "BODY_LANG",
                "delayTime": 0.23100000619888306,
                "aliasList": [
                    "21167"
                ],
                "actionId": 309,
                "FLBOOPHHFJP": 1030,
                "PMJAMGLAJGK": true,
                "LIMPPBIAKGL": false,
                "FNEGLPPEBBF": true,
                "FNDLJGEAMGI": ""
            },
            {
                "$type": "MoleMole.Config.ConfigUITriggerInterAction",
                "type": "UI_TRIGGER",
                "delayTime": 0.6119999885559082,
                "actionId": 268,
                "contextName": "QuestReadingDialog",
                "param": "120544"
            }
        ],
        [
            {
                "$type": "DLPFECMKEKH",
                "type": "DIALOG",
                "aliasList": [
                    "21167"
                ],
                "actionId": 174,
                "NMKEDPFEKBH": 741151735,
                "JLCHMAJCAPA": 0.5
            }
        ],
        [
            {
                "$type": "DLPFECMKEKH",
                "type": "DIALOG",
                "aliasList": [
                    "1005"
                ],
                "actionId": 176,
                "NMKEDPFEKBH": 741151736,
                "JLCHMAJCAPA": 0.5
            },
            {
                "$type": "ILCGAGEGDJI",
                "type": "BODY_LANG",
                "delayTime": 0.1420000046491623,
                "aliasList": [
                    "21167"
                ],
                "actionId": 310,
                "JLABKFNJCNP": true,
                "PMJAMGLAJGK": true,
                "LIMPPBIAKGL": false,
                "FNEGLPPEBBF": true,
                "FNDLJGEAMGI": ""
            },
            {
                "$type": "ILCGAGEGDJI",
                "type": "BODY_LANG",
                "delayTime": 0.15800000727176666,
                "aliasList": [
                    "1005"
                ],
                "actionId": 311,
                "FLBOOPHHFJP": 1050,
                "PMJAMGLAJGK": true,
                "LIMPPBIAKGL": false,
                "FNEGLPPEBBF": true,
                "FNDLJGEAMGI": ""
            }
        ],
        [
            {
                "$type": "DLPFECMKEKH",
                "type": "DIALOG",
                "aliasList": [
                    "21167"
                ],
                "actionId": 178,
                "NMKEDPFEKBH": 741151737,
                "JLCHMAJCAPA": 0.5
            },
            {
                "$type": "ILCGAGEGDJI",
                "type": "BODY_LANG",
                "delayTime": 0.14000000059604645,
                "aliasList": [
                    "21167"
                ],
                "actionId": 312,
                "FLBOOPHHFJP": 4030,
                "PMJAMGLAJGK": true,
                "LIMPPBIAKGL": false,
                "FNEGLPPEBBF": true,
                "FNDLJGEAMGI": ""
            }
        ],
        [
            {
                "$type": "DLPFECMKEKH",
                "type": "DIALOG",
                "aliasList": [
                    "21167"
                ],
                "actionId": 180,
                "NMKEDPFEKBH": 741151738,
                "JLCHMAJCAPA": 0.5
            },
            {
                "$type": "ILCGAGEGDJI",
                "type": "BODY_LANG",
                "delayTime": 0.032999999821186066,
                "aliasList": [
                    "21167"
                ],
                "actionId": 313,
                "FLBOOPHHFJP": 1172,
                "PMJAMGLAJGK": true,
                "LIMPPBIAKGL": false,
                "FNEGLPPEBBF": true,
                "FNDLJGEAMGI": ""
            }
        ],
        [
            {
                "$type": "DLPFECMKEKH",
                "type": "DIALOG",
                "aliasList": [
                    "21167"
                ],
                "actionId": 182,
                "NMKEDPFEKBH": 741151739,
                "JLCHMAJCAPA": 1.7419999837875366
            },
            {
                "$type": "ECLBLHOENAG",
                "type": "DIALOG_SELECT",
                "delayTime": 1.6829999685287476,
                "aliasList": [
                    "AvatarNpc"
                ],
                "actionId": 256,
                "NDMMOPDPKNF": [
                    741151740
                ],
                "FPDBIEGHMCD": [
                    3816040723
                ],
                "PKBOIGBGDEG": true,
                "GOJJPCDMMLN": 3032592057
            }
        ],
        [
            {
                "$type": "OOMFCPJAJGL",
                "type": "STEER_TO",
                "duration": 1.0,
                "aliasList": [
                    "AvatarNpc"
                ],
                "actionId": 317,
                "flag": 32,
                "DMGIIHNDNLC": "TO_TARGET",
                "HCMINPNPFDF": true,
                "PENAEBFAHCH": true,
                "CKOEAJFMDON": true,
                "OMCCMPHDLOO": "21158",
                "AKKPIOCLGOP": true,
                "PPGPCHDAOJG": true,
                "DBLNLMOPEBP": ""
            },
            {
                "$type": "DLPFECMKEKH",
                "type": "DIALOG",
                "aliasList": [
                    "1005"
                ],
                "actionId": 185,
                "NMKEDPFEKBH": 741151741,
                "JLCHMAJCAPA": 1.3380000591278076
            },
            {
                "$type": "OOMFCPJAJGL",
                "type": "STEER_TO",
                "duration": 1.0,
                "aliasList": [
                    "1005"
                ],
                "actionId": 314,
                "flag": 32,
                "DMGIIHNDNLC": "TO_TARGET",
                "HCMINPNPFDF": true,
                "PENAEBFAHCH": true,
                "CKOEAJFMDON": true,
                "OMCCMPHDLOO": "21158",
                "AKKPIOCLGOP": true,
                "PPGPCHDAOJG": true,
                "DBLNLMOPEBP": ""
            },
            {
                "$type": "EAMBKPBOPIC",
                "type": "LOOK_AT",
                "delayTime": 0.06300000101327896,
                "aliasList": [
                    "AvatarNpc"
                ],
                "actionId": 318,
                "flag": 64,
                "FIDJDPAIFDN": true,
                "BCHGCKLKNEH": 0.5,
                "OMCCMPHDLOO": "21158",
                "EOHIIHMKDJC": true,
                "NALDAIJKCML": 10.0,
                "KPCALFDIHMC": "",
                "DBLNLMOPEBP": ""
            },
            {
                "$type": "ILCGAGEGDJI",
                "type": "BODY_LANG",
                "delayTime": 0.9359999895095825,
                "aliasList": [
                    "1005"
                ],
                "actionId": 315,
                "FLBOOPHHFJP": 1170,
                "PMJAMGLAJGK": true,
                "LIMPPBIAKGL": false,
                "FNEGLPPEBBF": true,
                "FNDLJGEAMGI": ""
            }
        ],
        [
            {
                "$type": "ILCGAGEGDJI",
                "type": "BODY_LANG",
                "aliasList": [
                    "1005"
                ],
                "actionId": 316,
                "JLABKFNJCNP": true,
                "PMJAMGLAJGK": true,
                "LIMPPBIAKGL": false,
                "FNEGLPPEBBF": true,
                "FNDLJGEAMGI": ""
            },
            {
                "$type": "DLPFECMKEKH",
                "type": "DIALOG",
                "aliasList": [
                    "21158"
                ],
                "actionId": 187,
                "NMKEDPFEKBH": 741151742,
                "JLCHMAJCAPA": 0.5
            },
            {
                "$type": "ILCGAGEGDJI",
                "type": "BODY_LANG",
                "delayTime": 0.20499999821186066,
                "aliasList": [
                    "21158"
                ],
                "actionId": 320,
                "FLBOOPHHFJP": 1160,
                "PMJAMGLAJGK": true,
                "LIMPPBIAKGL": false,
                "FNEGLPPEBBF": true,
                "FNDLJGEAMGI": ""
            }
        ],
        [
            {
                "$type": "DLPFECMKEKH",
                "type": "DIALOG",
                "aliasList": [
                    "21158"
                ],
                "actionId": 189,
                "NMKEDPFEKBH": 741151743,
                "JLCHMAJCAPA": 0.5
            }
        ],
        [
            {
                "$type": "DLPFECMKEKH",
                "type": "DIALOG",
                "aliasList": [
                    "21160"
                ],
                "actionId": 191,
                "NMKEDPFEKBH": 741151744,
                "JLCHMAJCAPA": 0.5
            }
        ],
        [
            {
                "$type": "DLPFECMKEKH",
                "type": "DIALOG",
                "aliasList": [
                    "21158"
                ],
                "actionId": 193,
                "NMKEDPFEKBH": 741151745,
                "JLCHMAJCAPA": 0.5
            },
            {
                "$type": "ILCGAGEGDJI",
                "type": "BODY_LANG",
                "aliasList": [
                    "21158"
                ],
                "actionId": 321,
                "FLBOOPHHFJP": 1360,
                "PMJAMGLAJGK": true,
                "LIMPPBIAKGL": false,
                "FNEGLPPEBBF": true,
                "FNDLJGEAMGI": ""
            }
        ],
        [
            {
                "$type": "DLPFECMKEKH",
                "type": "DIALOG",
                "aliasList": [
                    "1005"
                ],
                "actionId": 195,
                "NMKEDPFEKBH": 741151746,
                "JLCHMAJCAPA": 0.5
            },
            {
                "$type": "ILCGAGEGDJI",
                "type": "BODY_LANG",
                "delayTime": 0.07199999690055847,
                "aliasList": [
                    "1005"
                ],
                "actionId": 319,
                "FLBOOPHHFJP": 4040,
                "PMJAMGLAJGK": true,
                "LIMPPBIAKGL": false,
                "FNEGLPPEBBF": true,
                "FNDLJGEAMGI": ""
            },
            {
                "$type": "ECLBLHOENAG",
                "type": "DIALOG_SELECT",
                "delayTime": 0.4000000059604645,
                "aliasList": [
                    "AvatarNpc"
                ],
                "actionId": 257,
                "NDMMOPDPKNF": [
                    741151747
                ],
                "FPDBIEGHMCD": [
                    3816040729
                ],
                "PKBOIGBGDEG": true,
                "GOJJPCDMMLN": 3032592057
            }
        ],
        [
            {
                "$type": "DLPFECMKEKH",
                "type": "DIALOG",
                "aliasList": [
                    "21158"
                ],
                "actionId": 198,
                "NMKEDPFEKBH": 741151748,
                "JLCHMAJCAPA": 1.1490000486373901
            },
            {
                "$type": "OOMFCPJAJGL",
                "type": "STEER_TO",
                "duration": 1.0,
                "aliasList": [
                    "21158"
                ],
                "actionId": 322,
                "flag": 32,
                "DMGIIHNDNLC": "TO_TARGET",
                "HCMINPNPFDF": true,
                "PENAEBFAHCH": true,
                "CKOEAJFMDON": true,
                "OMCCMPHDLOO": "1005",
                "AKKPIOCLGOP": true,
                "PPGPCHDAOJG": true,
                "DBLNLMOPEBP": ""
            }
        ],
        [
            {
                "$type": "DLPFECMKEKH",
                "type": "DIALOG",
                "aliasList": [
                    "21158"
                ],
                "actionId": 200,
                "NMKEDPFEKBH": 741151749,
                "JLCHMAJCAPA": 0.5
            },
            {
                "$type": "ILCGAGEGDJI",
                "type": "BODY_LANG",
                "aliasList": [
                    "21158"
                ],
                "actionId": 323,
                "FLBOOPHHFJP": 4040,
                "PMJAMGLAJGK": true,
                "LIMPPBIAKGL": false,
                "FNEGLPPEBBF": true,
                "FNDLJGEAMGI": ""
            }
        ],
        [
            {
                "$type": "DLPFECMKEKH",
                "type": "DIALOG",
                "aliasList": [
                    "21160"
                ],
                "actionId": 202,
                "NMKEDPFEKBH": 741151750,
                "JLCHMAJCAPA": 0.5
            },
            {
                "$type": "ECLBLHOENAG",
                "type": "DIALOG_SELECT",
                "delayTime": 0.4000000059604645,
                "aliasList": [
                    "AvatarNpc"
                ],
                "actionId": 258,
                "NDMMOPDPKNF": [
                    741151751
                ],
                "FPDBIEGHMCD": [
                    3816040732
                ],
                "PKBOIGBGDEG": true,
                "GOJJPCDMMLN": 3032592057
            }
        ],
        [
            {
                "$type": "DLPFECMKEKH",
                "type": "DIALOG",
                "aliasList": [
                    "1005"
                ],
                "actionId": 205,
                "NMKEDPFEKBH": 741151752,
                "JLCHMAJCAPA": 0.5
            },
            {
                "$type": "ILCGAGEGDJI",
                "type": "BODY_LANG",
                "delayTime": 0.17499999701976776,
                "aliasList": [
                    "1005"
                ],
                "actionId": 324,
                "FLBOOPHHFJP": 1440,
                "PMJAMGLAJGK": true,
                "LIMPPBIAKGL": false,
                "FNEGLPPEBBF": true,
                "FNDLJGEAMGI": ""
            }
        ],
        [
            {
                "$type": "DLPFECMKEKH",
                "type": "DIALOG",
                "aliasList": [
                    "21167"
                ],
                "actionId": 207,
                "NMKEDPFEKBH": 741151753,
                "JLCHMAJCAPA": 0.5
            },
            {
                "$type": "ILCGAGEGDJI",
                "type": "BODY_LANG",
                "delayTime": 0.21899999678134918,
                "aliasList": [
                    "21167"
                ],
                "actionId": 325,
                "FLBOOPHHFJP": 1130,
                "PMJAMGLAJGK": true,
                "LIMPPBIAKGL": false,
                "FNEGLPPEBBF": true,
                "FNDLJGEAMGI": ""
            }
        ],
        [
            {
                "$type": "DLPFECMKEKH",
                "type": "DIALOG",
                "aliasList": [
                    "21160"
                ],
                "actionId": 209,
                "NMKEDPFEKBH": 741151754,
                "JLCHMAJCAPA": 0.5
            }
        ],
        [
            {
                "$type": "DLPFECMKEKH",
                "type": "DIALOG",
                "aliasList": [
                    "1005"
                ],
                "actionId": 211,
                "NMKEDPFEKBH": 741151755,
                "JLCHMAJCAPA": 0.5
            },
            {
                "$type": "ILCGAGEGDJI",
                "type": "BODY_LANG",
                "aliasList": [
                    "1005"
                ],
                "actionId": 327,
                "FLBOOPHHFJP": 1150,
                "PMJAMGLAJGK": true,
                "LIMPPBIAKGL": false,
                "FNEGLPPEBBF": true,
                "FNDLJGEAMGI": ""
            },
            {
                "$type": "ILCGAGEGDJI",
                "type": "BODY_LANG",
                "delayTime": 0.06499999761581421,
                "aliasList": [
                    "21167"
                ],
                "actionId": 326,
                "JLABKFNJCNP": true,
                "PMJAMGLAJGK": true,
                "LIMPPBIAKGL": false,
                "FNEGLPPEBBF": true,
                "FNDLJGEAMGI": ""
            }
        ],
        [
            {
                "$type": "DLPFECMKEKH",
                "type": "DIALOG",
                "aliasList": [
                    "1005"
                ],
                "actionId": 213,
                "NMKEDPFEKBH": 741151756,
                "JLCHMAJCAPA": 1.375
            },
            {
                "$type": "ILCGAGEGDJI",
                "type": "BODY_LANG",
                "delayTime": 0.041999999433755875,
                "aliasList": [
                    "1005"
                ],
                "actionId": 328,
                "FLBOOPHHFJP": 1180,
                "PMJAMGLAJGK": true,
                "LIMPPBIAKGL": false,
                "FNEGLPPEBBF": true,
                "FNDLJGEAMGI": ""
            },
            {
                "$type": "ECLBLHOENAG",
                "type": "DIALOG_SELECT",
                "delayTime": 1.3329999446868896,
                "aliasList": [
                    "AvatarNpc"
                ],
                "actionId": 259,
                "NDMMOPDPKNF": [
                    741151757,
                    741151758,
                    741151760
                ],
                "FPDBIEGHMCD": [
                    3816040760,
                    3816040758,
                    3816040759
                ],
                "PKBOIGBGDEG": true,
                "GOJJPCDMMLN": 3032592057
            }
        ],
        [
            {
                "$type": "DLPFECMKEKH",
                "type": "DIALOG",
                "aliasList": [
                    "1005"
                ],
                "actionId": 216,
                "NMKEDPFEKBH": 741151759,
                "JLCHMAJCAPA": 0.5
            }
        ],
        [
            {
                "$type": "DLPFECMKEKH",
                "type": "DIALOG",
                "aliasList": [
                    "1005"
                ],
                "actionId": 218,
                "NMKEDPFEKBH": 741151761,
                "JLCHMAJCAPA": 0.5
            }
        ],
        [
            {
                "$type": "DLPFECMKEKH",
                "type": "DIALOG",
                "aliasList": [
                    "21158"
                ],
                "actionId": 220,
                "NMKEDPFEKBH": 741151762,
                "JLCHMAJCAPA": 0.5
            },
            {
                "$type": "ILCGAGEGDJI",
                "type": "BODY_LANG",
                "delayTime": 0.12200000137090683,
                "aliasList": [
                    "1005"
                ],
                "actionId": 329,
                "JLABKFNJCNP": true,
                "PMJAMGLAJGK": true,
                "LIMPPBIAKGL": false,
                "FNEGLPPEBBF": true,
                "FNDLJGEAMGI": ""
            },
            {
                "$type": "ILCGAGEGDJI",
                "type": "BODY_LANG",
                "delayTime": 0.1459999978542328,
                "aliasList": [
                    "21158"
                ],
                "actionId": 332,
                "FLBOOPHHFJP": 1160,
                "PMJAMGLAJGK": true,
                "LIMPPBIAKGL": false,
                "FNEGLPPEBBF": true,
                "FNDLJGEAMGI": ""
            }
        ],
        [
            {
                "$type": "DLPFECMKEKH",
                "type": "DIALOG",
                "aliasList": [
                    "21167"
                ],
                "actionId": 222,
                "NMKEDPFEKBH": 741151763,
                "JLCHMAJCAPA": 0.5
            },
            {
                "$type": "ILCGAGEGDJI",
                "type": "BODY_LANG",
                "delayTime": 0.057999998331069946,
                "aliasList": [
                    "21167"
                ],
                "actionId": 330,
                "FLBOOPHHFJP": 4290,
                "PMJAMGLAJGK": true,
                "LIMPPBIAKGL": false,
                "FNEGLPPEBBF": true,
                "FNDLJGEAMGI": ""
            }
        ],
        [
            {
                "$type": "DLPFECMKEKH",
                "type": "DIALOG",
                "aliasList": [
                    "1005"
                ],
                "actionId": 224,
                "NMKEDPFEKBH": 741151764,
                "JLCHMAJCAPA": 0.5
            },
            {
                "$type": "ILCGAGEGDJI",
                "type": "BODY_LANG",
                "delayTime": 0.014999999664723873,
                "aliasList": [
                    "21167"
                ],
                "actionId": 331,
                "JLABKFNJCNP": true,
                "PMJAMGLAJGK": true,
                "LIMPPBIAKGL": false,
                "FNEGLPPEBBF": true,
                "FNDLJGEAMGI": ""
            },
            {
                "$type": "ILCGAGEGDJI",
                "type": "BODY_LANG",
                "delayTime": 0.06700000166893005,
                "aliasList": [
                    "1005"
                ],
                "actionId": 336,
                "FLBOOPHHFJP": 1170,
                "PMJAMGLAJGK": true,
                "LIMPPBIAKGL": false,
                "FNEGLPPEBBF": true,
                "FNDLJGEAMGI": ""
            }
        ],
        [
            {
                "$type": "DLPFECMKEKH",
                "type": "DIALOG",
                "aliasList": [
                    "21158"
                ],
                "actionId": 226,
                "NMKEDPFEKBH": 741151765,
                "JLCHMAJCAPA": 0.5
            },
            {
                "$type": "ILCGAGEGDJI",
                "type": "BODY_LANG",
                "delayTime": 0.45100000500679016,
                "aliasList": [
                    "21158"
                ],
                "actionId": 333,
                "JLABKFNJCNP": true,
                "PMJAMGLAJGK": true,
                "LIMPPBIAKGL": false,
                "FNEGLPPEBBF": true,
                "FNDLJGEAMGI": ""
            }
        ],
        [
            {
                "$type": "ILCGAGEGDJI",
                "type": "BODY_LANG",
                "aliasList": [
                    "1005"
                ],
                "actionId": 337,
                "JLABKFNJCNP": true,
                "PMJAMGLAJGK": true,
                "LIMPPBIAKGL": false,
                "FNEGLPPEBBF": true,
                "FNDLJGEAMGI": ""
            },
            {
                "$type": "DLPFECMKEKH",
                "type": "DIALOG",
                "aliasList": [
                    "21158"
                ],
                "actionId": 228,
                "NMKEDPFEKBH": 741151766,
                "JLCHMAJCAPA": 0.5
            },
            {
                "$type": "ILCGAGEGDJI",
                "type": "BODY_LANG",
                "delayTime": 0.06700000166893005,
                "aliasList": [
                    "21158"
                ],
                "actionId": 334,
                "FLBOOPHHFJP": 4040,
                "PMJAMGLAJGK": true,
                "LIMPPBIAKGL": false,
                "FNEGLPPEBBF": true,
                "FNDLJGEAMGI": ""
            }
        ],
        [
            {
                "$type": "DLPFECMKEKH",
                "type": "DIALOG",
                "aliasList": [
                    "21158"
                ],
                "actionId": 230,
                "NMKEDPFEKBH": 741151767,
                "JLCHMAJCAPA": 0.5
            },
            {
                "$type": "ILCGAGEGDJI",
                "type": "BODY_LANG",
                "delayTime": 0.23100000619888306,
                "aliasList": [
                    "21158"
                ],
                "actionId": 335,
                "FLBOOPHHFJP": 4040,
                "PMJAMGLAJGK": true,
                "LIMPPBIAKGL": false,
                "FNEGLPPEBBF": true,
                "FNDLJGEAMGI": ""
            }
        ],
        [
            {
                "$type": "DLPFECMKEKH",
                "type": "DIALOG",
                "aliasList": [
                    "1005"
                ],
                "actionId": 232,
                "NMKEDPFEKBH": 741151768,
                "JLCHMAJCAPA": 0.5
            },
            {
                "$type": "ILCGAGEGDJI",
                "type": "BODY_LANG",
                "delayTime": 0.07999999821186066,
                "aliasList": [
                    "1005"
                ],
                "actionId": 338,
                "FLBOOPHHFJP": 1280,
                "PMJAMGLAJGK": true,
                "LIMPPBIAKGL": false,
                "FNEGLPPEBBF": true,
                "FNDLJGEAMGI": ""
            }
        ],
        [
            {
                "$type": "DLPFECMKEKH",
                "type": "DIALOG",
                "aliasList": [
                    "21160"
                ],
                "actionId": 234,
                "NMKEDPFEKBH": 741151769,
                "JLCHMAJCAPA": 0.5
            }
        ],
        [
            {
                "$type": "DLPFECMKEKH",
                "type": "DIALOG",
                "aliasList": [
                    "21158"
                ],
                "actionId": 236,
                "NMKEDPFEKBH": 741151770,
                "JLCHMAJCAPA": 0.5
            }
        ],
        [
            {
                "$type": "EAMBKPBOPIC",
                "type": "LOOK_AT",
                "aliasList": [
                    "AvatarNpc"
                ],
                "actionId": 341,
                "flag": 64,
                "FIDJDPAIFDN": true,
                "BCHGCKLKNEH": 0.5,
                "OMCCMPHDLOO": "1005",
                "EOHIIHMKDJC": true,
                "NALDAIJKCML": 10.0,
                "KPCALFDIHMC": "",
                "DBLNLMOPEBP": ""
            },
            {
                "$type": "DLPFECMKEKH",
                "type": "DIALOG",
                "aliasList": [
                    "1005"
                ],
                "actionId": 238,
                "NMKEDPFEKBH": 741151771,
                "JLCHMAJCAPA": 1.100000023841858
            },
            {
                "$type": "ILCGAGEGDJI",
                "type": "BODY_LANG",
                "aliasList": [
                    "1005"
                ],
                "actionId": 339,
                "FLBOOPHHFJP": 1110,
                "PMJAMGLAJGK": true,
                "LIMPPBIAKGL": false,
                "FNEGLPPEBBF": true,
                "FNDLJGEAMGI": ""
            },
            {
                "$type": "ECLBLHOENAG",
                "type": "DIALOG_SELECT",
                "delayTime": 1.100000023841858,
                "aliasList": [
                    "AvatarNpc"
                ],
                "actionId": 260,
                "NDMMOPDPKNF": [
                    741151772
                ],
                "FPDBIEGHMCD": [
                    3816040791
                ],
                "PKBOIGBGDEG": true,
                "GOJJPCDMMLN": 3032592057
            }
        ],
        [
            {
                "$type": "DLPFECMKEKH",
                "type": "DIALOG",
                "aliasList": [
                    "1005"
                ],
                "actionId": 241,
                "NMKEDPFEKBH": 741151773,
                "JLCHMAJCAPA": 0.5
            },
            {
                "$type": "ILCGAGEGDJI",
                "type": "BODY_LANG",
                "delayTime": 0.032999999821186066,
                "aliasList": [
                    "1005"
                ],
                "actionId": 340,
                "JLABKFNJCNP": true,
                "PMJAMGLAJGK": true,
                "LIMPPBIAKGL": false,
                "FNEGLPPEBBF": true,
                "FNDLJGEAMGI": ""
            }
        ],
        [
            {
                "$type": "MoleMole.Config.ConfigTimeProtectAction",
                "type": "TIME_PROTECT",
                "duration": 0.10000000149011612,
                "actionId": 105
            },
            {
                "$type": "MoleMole.Config.ConfigSimpleBlackScreenAction",
                "type": "SIMPLE_BLACK_SCREEN",
                "actionId": 242,
                "durationToBlack": 0.5,
                "durationKeepBlack": 1.5,
                "durationFromBlack": 0.5,
                "textMapID": ""
            },
            {
                "$type": "MoleMole.Config.ConfigTimeProtectAction",
                "type": "TIME_PROTECT",
                "duration": 0.699999988079071,
                "actionId": 243
            },
            {
                "$type": "MOOOKOKLLEI",
                "type": "CAMERA_MOVE",
                "delayTime": 0.5,
                "duration": 0.10000000149011612,
                "actionId": 254,
                "IPHEFBOANAL": "EXIT",
                "HGKCPMDICGG": {
                    "z": 1.0
                },
                "AFODHELHCGB": 30.0,
                "MGMFMGNANHH": 5,
                "NDFGFJFGHKL": "EaseInOutCubic",
                "IBCBGNHCICN": {},
                "HCPFCAHMGMO": false,
                "OMCCMPHDLOO": "",
                "FEFNBKOHPOG": true,
                "OCFGGGHIKOO": "",
                "LJFHGGJDPHH": "",
                "LPKDFKLNEHL": ""
            },
            {
                "$type": "MoleMole.Config.ConfigVisibleInterAction",
                "type": "VISIBLE",
                "delayTime": 0.6000000238418579,
                "aliasList": [
                    "Avatar"
                ],
                "actionId": 264,
                "isVisible": true,
                "extraParam": ""
            },
            {
                "$type": "MoleMole.Config.ConfigVisibleInterAction",
                "type": "VISIBLE",
                "delayTime": 0.6000000238418579,
                "aliasList": [
                    "AvatarNpc"
                ],
                "actionId": 263,
                "extraParam": ""
            },
            {
                "$type": "ILCGAGEGDJI",
                "type": "BODY_LANG",
                "delayTime": 0.6000000238418579,
                "aliasList": [
                    "AvatarNpc"
                ],
                "actionId": 266,
                "JLABKFNJCNP": true,
                "PMJAMGLAJGK": true,
                "LIMPPBIAKGL": false,
                "FNDLJGEAMGI": ""
            },
            {
                "$type": "ILCGAGEGDJI",
                "type": "BODY_LANG",
                "delayTime": 0.6000000238418579,
                "aliasList": [
                    "1005"
                ],
                "actionId": 245,
                "JLABKFNJCNP": true,
                "PMJAMGLAJGK": true,
                "LIMPPBIAKGL": false,
                "FNDLJGEAMGI": ""
            },
            {
                "$type": "ILCGAGEGDJI",
                "type": "BODY_LANG",
                "delayTime": 0.6000000238418579,
                "aliasList": [
                    "21167"
                ],
                "actionId": 247,
                "JLABKFNJCNP": true,
                "PMJAMGLAJGK": true,
                "LIMPPBIAKGL": false,
                "FNDLJGEAMGI": ""
            },
            {
                "$type": "ILCGAGEGDJI",
                "type": "BODY_LANG",
                "delayTime": 0.6000000238418579,
                "aliasList": [
                    "21158"
                ],
                "actionId": 249,
                "JLABKFNJCNP": true,
                "PMJAMGLAJGK": true,
                "LIMPPBIAKGL": false,
                "FNDLJGEAMGI": ""
            },
            {
                "$type": "ILCGAGEGDJI",
                "type": "BODY_LANG",
                "delayTime": 0.6000000238418579,
                "aliasList": [
                    "21160"
                ],
                "actionId": 251,
                "JLABKFNJCNP": true,
                "PMJAMGLAJGK": true,
                "LIMPPBIAKGL": false,
                "FNDLJGEAMGI": ""
            }
        ]
    ],
    "groupId": [
        {
            "grpId": 3032592058,
            "nextGrpId": 3032592059
        },
        {
            "index": 1,
            "grpId": 3032592059,
            "nextGrpId": 3032592060
        },
        {
            "index": 2,
            "grpId": 3032592060,
            "nextGrpId": 3032592061
        },
        {
            "index": 3,
            "grpId": 3032592061,
            "nextGrpId": 3032592062
        },
        {
            "index": 4,
            "grpId": 3032592062,
            "nextGrpId": 3032592063
        },
        {
            "index": 5,
            "grpId": 3032592063,
            "nextGrpId": 3032592064
        },
        {
            "index": 6,
            "grpId": 3032592064,
            "nextGrpId": 3032592065
        },
        {
            "index": 7,
            "grpId": 3032592065,
            "nextGrpId": 3032592066
        },
        {
            "index": 8,
            "grpId": 3032592066,
            "nextGrpId": 3816040630
        },
        {
            "index": 9,
            "grpId": 3816040630,
            "nextGrpId": 3816040631
        },
        {
            "index": 10,
            "grpId": 3816040631,
            "nextGrpId": 3816040632
        },
        {
            "index": 11,
            "grpId": 3816040632,
            "nextGrpId": 3816040633
        },
        {
            "index": 12,
            "grpId": 3816040633,
            "nextGrpId": 3816040634
        },
        {
            "index": 13,
            "grpId": 3816040634,
            "nextGrpId": 3816040635
        },
        {
            "index": 14,
            "grpId": 3816040635,
            "nextGrpId": 3816040636
        },
        {
            "index": 15,
            "grpId": 3816040636,
            "nextGrpId": 3816040637
        },
        {
            "index": 16,
            "grpId": 3816040637,
            "nextGrpId": 3816040638
        },
        {
            "index": 17,
            "grpId": 3816040638,
            "nextGrpId": 3816040639
        },
        {
            "index": 18,
            "grpId": 3816040639,
            "nextGrpId": 3816040661
        },
        {
            "index": 19,
            "grpId": 3816040661,
            "nextGrpId": 3816040662
        },
        {
            "index": 20,
            "grpId": 3816040662,
            "nextGrpId": 3816040663
        },
        {
            "index": 21,
            "grpId": 3816040663,
            "nextGrpId": 3816040664
        },
        {
            "index": 22,
            "grpId": 3816040664,
            "nextGrpId": 3816040665
        },
        {
            "index": 23,
            "grpId": 3816040665,
            "nextGrpId": 3816040666
        },
        {
            "index": 24,
            "grpId": 3816040666,
            "nextGrpId": 3816040667
        },
        {
            "index": 25,
            "grpId": 3816040667,
            "nextGrpId": 3816040668
        },
        {
            "index": 26,
            "grpId": 3816040668,
            "nextGrpId": 3816040669
        },
        {
            "index": 27,
            "grpId": 3816040669,
            "nextGrpId": 3816040670
        },
        {
            "index": 28,
            "grpId": 3816040670,
            "nextGrpId": 3816040692
        },
        {
            "index": 29,
            "grpId": 3816040692,
            "nextGrpId": 3816040693
        },
        {
            "index": 30,
            "grpId": 3816040693,
            "nextGrpId": 3816040694
        },
        {
            "index": 31,
            "grpId": 3816040694,
            "nextGrpId": 3816040695
        },
        {
            "index": 32,
            "grpId": 3816040695,
            "nextGrpId": 3816040696
        },
        {
            "index": 33,
            "grpId": 3816040696,
            "nextGrpId": 3816040697
        },
        {
            "index": 34,
            "grpId": 3816040697,
            "nextGrpId": 3816040698
        },
        {
            "index": 35,
            "grpId": 3816040698,
            "nextGrpId": 3816040699
        },
        {
            "index": 36,
            "grpId": 3816040699,
            "nextGrpId": 3816040700
        },
        {
            "index": 37,
            "grpId": 3816040700,
            "nextGrpId": 3816040701
        },
        {
            "index": 38,
            "grpId": 3816040701,
            "nextGrpId": 3816040723
        },
        {
            "index": 39,
            "grpId": 3816040723,
            "nextGrpId": 3816040724
        },
        {
            "index": 40,
            "grpId": 3816040724,
            "nextGrpId": 3816040725
        },
        {
            "index": 41,
            "grpId": 3816040725,
            "nextGrpId": 3816040726
        },
        {
            "index": 42,
            "grpId": 3816040726,
            "nextGrpId": 3816040727
        },
        {
            "index": 43,
            "grpId": 3816040727,
            "nextGrpId": 3816040728
        },
        {
            "index": 44,
            "grpId": 3816040728,
            "nextGrpId": 3816040729
        },
        {
            "index": 45,
            "grpId": 3816040729,
            "nextGrpId": 3816040730
        },
        {
            "index": 46,
            "grpId": 3816040730,
            "nextGrpId": 3816040731
        },
        {
            "index": 47,
            "grpId": 3816040731,
            "nextGrpId": 3816040732
        },
        {
            "index": 48,
            "grpId": 3816040732,
            "nextGrpId": 3816040754
        },
        {
            "index": 49,
            "grpId": 3816040754,
            "nextGrpId": 3816040755
        },
        {
            "index": 50,
            "grpId": 3816040755,
            "nextGrpId": 3816040756
        },
        {
            "index": 51,
            "grpId": 3816040756,
            "nextGrpId": 3816040757
        },
        {
            "index": 52,
            "grpId": 3816040757,
            "nextGrpId": 3816040758
        },
        {
            "index": 53,
            "grpId": 3816040758,
            "nextGrpId": 3816040760
        },
        {
            "index": 54,
            "grpId": 3816040759,
            "nextGrpId": 3816040760
        },
        {
            "index": 55,
            "grpId": 3816040760,
            "nextGrpId": 3816040761
        },
        {
            "index": 56,
            "grpId": 3816040761,
            "nextGrpId": 3816040762
        },
        {
            "index": 57,
            "grpId": 3816040762,
            "nextGrpId": 3816040763
        },
        {
            "index": 58,
            "grpId": 3816040763,
            "nextGrpId": 3816040785
        },
        {
            "index": 59,
            "grpId": 3816040785,
            "nextGrpId": 3816040786
        },
        {
            "index": 60,
            "grpId": 3816040786,
            "nextGrpId": 3816040787
        },
        {
            "index": 61,
            "grpId": 3816040787,
            "nextGrpId": 3816040788
        },
        {
            "index": 62,
            "grpId": 3816040788,
            "nextGrpId": 3816040789
        },
        {
            "index": 63,
            "grpId": 3816040789,
            "nextGrpId": 3816040790
        },
        {
            "index": 64,
            "grpId": 3816040790,
            "nextGrpId": 3816040791
        },
        {
            "index": 65,
            "grpId": 3816040791,
            "nextGrpId": 3816040792
        },
        {
            "index": 66,
            "grpId": 3816040792,
            "nextGrpId": 3816040793
        }
    ],
    "freeStyleDic": {
        "1025": [],
        "1026": [],
        "21167": [
            1150,
            1170,
            1230,
            4040,
            1160,
            1171,
            1172,
            1120,
            4030,
            1090,
            1130,
            1173,
            1030,
            4290
        ],
        "21158": [
            1280,
            1171,
            1172,
            1060,
            1160,
            1360,
            4040
        ]
    },
    "NKMHEOFLONH": {
        "AvatarNpc": [
            "SitChat01AS",
            "SitHoldArm01AS",
            "SitShrug01AS",
            "SitThink01AS"
        ],
        "21167": [
            "SitChat01AS",
            "SitHoldArm01AS",
            "SitPutArm01AS",
            "SitRaiseHand01AS",
            "SitRead01AS"
        ]
    }
}