{
    "luaDataPath": "",
    "entityBan": "",
    "actors": [
        {
            "configID": 5120,
            "alias": "Npc5120",
            "visible": true,
            "bornPointName": "",
            "relativePosType": "AVATAR_NEW",
            "relativePosNpcAlias": "",
            "bindMovingTargetKey": ""
        }
    ],
    "group": [
        [
            {
                "$type": "ILCGAGEGDJI",
                "type": "BODY_LANG",
                "delayTime": 1.100000023841858,
                "aliasList": [
                    "Npc5120"
                ],
                "FLBOOPHHFJP": 4420,
                "FNDLJGEAMGI": ""
            }
        ]
    ]
}