{
    "luaDataPath": "",
    "entityBan": "",
    "disableNpcLod": true,
    "startFade": {
        "startFadeInDuration": 0.5,
        "startFadeOutDuration": 0.5
    },
    "endFade": {
        "startFadeOutDuration": 0.0
    },
    "actors": [
        {
            "alias": "Avatar",
            "visible": true,
            "bornPointName": "",
            "relativePosNpcAlias": "",
            "bindMovingTargetKey": ""
        },
        {
            "configID": 30108,
            "alias": "30108",
            "visible": true,
            "bornPointName": "",
            "relativePosNpcAlias": "",
            "bindMovingTargetKey": ""
        }
    ],
    "group": [
        [
            {
                "$type": "MoleMole.Config.ConfigTimeProtectAction",
                "type": "TIME_PROTECT",
                "duration": 0.10000000149011612
            }
        ],
        [
            {
                "$type": "DLPFECMKEKH",
                "type": "DIALOG",
                "aliasList": [
                    "30108"
                ],
                "NMKEDPFEKBH": 722760101,
                "JLCHMAJCAPA": 0.5
            }
        ],
        [
            {
                "$type": "DLPFECMKEKH",
                "type": "DIALOG",
                "aliasList": [
                    "30108"
                ],
                "NMKEDPFEKBH": 722760102,
                "JLCHMAJCAPA": 0.5
            },
            {
                "$type": "ECLBLHOENAG",
                "type": "DIALOG_SELECT",
                "delayTime": 0.4000000059604645,
                "aliasList": [
                    "Avatar"
                ],
                "NDMMOPDPKNF": [
                    722760103
                ],
                "FPDBIEGHMCD": [
                    2742967989
                ],
                "PKBOIGBGDEG": true
            }
        ],
        [
            {
                "$type": "DLPFECMKEKH",
                "type": "DIALOG",
                "aliasList": [
                    "30108"
                ],
                "NMKEDPFEKBH": 722760104,
                "JLCHMAJCAPA": 0.5
            }
        ],
        [
            {
                "$type": "DLPFECMKEKH",
                "type": "DIALOG",
                "aliasList": [
                    "30108"
                ],
                "NMKEDPFEKBH": 722760105,
                "JLCHMAJCAPA": 0.5
            },
            {
                "$type": "ECLBLHOENAG",
                "type": "DIALOG_SELECT",
                "delayTime": 0.4000000059604645,
                "aliasList": [
                    "Avatar"
                ],
                "NDMMOPDPKNF": [
                    722760106
                ],
                "FPDBIEGHMCD": [
                    2742967991
                ],
                "PKBOIGBGDEG": true
            }
        ],
        [
            {
                "$type": "DLPFECMKEKH",
                "type": "DIALOG",
                "aliasList": [
                    "30108"
                ],
                "NMKEDPFEKBH": 722760107,
                "JLCHMAJCAPA": 0.5
            }
        ],
        [
            {
                "$type": "DLPFECMKEKH",
                "type": "DIALOG",
                "aliasList": [
                    "30108"
                ],
                "NMKEDPFEKBH": 722760108,
                "JLCHMAJCAPA": 0.5
            },
            {
                "$type": "ECLBLHOENAG",
                "type": "DIALOG_SELECT",
                "delayTime": 0.4000000059604645,
                "aliasList": [
                    "Avatar"
                ],
                "NDMMOPDPKNF": [
                    722760109
                ],
                "FPDBIEGHMCD": [
                    2742967993
                ],
                "PKBOIGBGDEG": true
            }
        ],
        [
            {
                "$type": "DLPFECMKEKH",
                "type": "DIALOG",
                "aliasList": [
                    "30108"
                ],
                "NMKEDPFEKBH": 722760110,
                "JLCHMAJCAPA": 0.5
            }
        ],
        [
            {
                "$type": "DLPFECMKEKH",
                "type": "DIALOG",
                "aliasList": [
                    "30108"
                ],
                "NMKEDPFEKBH": 722760111,
                "JLCHMAJCAPA": 0.5
            },
            {
                "$type": "ECLBLHOENAG",
                "type": "DIALOG_SELECT",
                "delayTime": 0.4000000059604645,
                "aliasList": [
                    "Avatar"
                ],
                "NDMMOPDPKNF": [
                    722760112
                ],
                "FPDBIEGHMCD": [
                    3427628990
                ],
                "PKBOIGBGDEG": true
            }
        ],
        [
            {
                "$type": "DLPFECMKEKH",
                "type": "DIALOG",
                "aliasList": [
                    "30108"
                ],
                "NMKEDPFEKBH": 722760113,
                "JLCHMAJCAPA": 0.5
            }
        ],
        [
            {
                "$type": "DLPFECMKEKH",
                "type": "DIALOG",
                "aliasList": [
                    "30108"
                ],
                "NMKEDPFEKBH": 722760114,
                "JLCHMAJCAPA": 0.5
            }
        ],
        [
            {
                "$type": "DLPFECMKEKH",
                "type": "DIALOG",
                "aliasList": [
                    "30108"
                ],
                "NMKEDPFEKBH": 722760115,
                "JLCHMAJCAPA": 0.5
            }
        ],
        [
            {
                "$type": "DLPFECMKEKH",
                "type": "DIALOG",
                "aliasList": [
                    "30108"
                ],
                "NMKEDPFEKBH": 722760116,
                "JLCHMAJCAPA": 0.5
            },
            {
                "$type": "ECLBLHOENAG",
                "type": "DIALOG_SELECT",
                "delayTime": 0.4000000059604645,
                "aliasList": [
                    "Avatar"
                ],
                "NDMMOPDPKNF": [
                    722760117
                ],
                "FPDBIEGHMCD": [
                    3427628994
                ],
                "PKBOIGBGDEG": true
            }
        ],
        [
            {
                "$type": "DLPFECMKEKH",
                "type": "DIALOG",
                "aliasList": [
                    "30108"
                ],
                "NMKEDPFEKBH": 722760118,
                "JLCHMAJCAPA": 0.5
            }
        ],
        [
            {
                "$type": "DLPFECMKEKH",
                "type": "DIALOG",
                "aliasList": [
                    "30108"
                ],
                "NMKEDPFEKBH": 722760119,
                "JLCHMAJCAPA": 0.5
            },
            {
                "$type": "ECLBLHOENAG",
                "type": "DIALOG_SELECT",
                "delayTime": 0.4000000059604645,
                "aliasList": [
                    "Avatar"
                ],
                "NDMMOPDPKNF": [
                    722760120
                ],
                "FPDBIEGHMCD": [
                    3427628996
                ],
                "PKBOIGBGDEG": true
            }
        ],
        [
            {
                "$type": "DLPFECMKEKH",
                "type": "DIALOG",
                "aliasList": [
                    "30108"
                ],
                "NMKEDPFEKBH": 722760121,
                "JLCHMAJCAPA": 0.5
            }
        ],
        [
            {
                "$type": "DLPFECMKEKH",
                "type": "DIALOG",
                "aliasList": [
                    "30108"
                ],
                "NMKEDPFEKBH": 722760122,
                "JLCHMAJCAPA": 0.5
            }
        ],
        [
            {
                "$type": "DLPFECMKEKH",
                "type": "DIALOG",
                "aliasList": [
                    "30108"
                ],
                "NMKEDPFEKBH": 722760123,
                "JLCHMAJCAPA": 0.5
            }
        ],
        [
            {
                "$type": "DLPFECMKEKH",
                "type": "DIALOG",
                "aliasList": [
                    "30108"
                ],
                "NMKEDPFEKBH": 722760124,
                "JLCHMAJCAPA": 0.5
            }
        ],
        [
            {
                "$type": "MoleMole.Config.ConfigTimeProtectAction",
                "type": "TIME_PROTECT",
                "duration": 0.699999988079071
            },
            {
                "$type": "MoleMole.Config.ConfigSimpleBlackScreenAction",
                "type": "SIMPLE_BLACK_SCREEN",
                "durationToBlack": 0.5,
                "durationKeepBlack": 1.0,
                "durationFromBlack": 0.5,
                "textMapID": ""
            },
            {
                "$type": "MoleMole.Config.ConfigTimeProtectAction",
                "type": "TIME_PROTECT",
                "duration": 0.10000000149011612
            }
        ]
    ],
    "groupId": [
        {
            "grpId": 2742967986,
            "nextGrpId": 2742967987
        },
        {
            "index": 1,
            "grpId": 2742967987,
            "nextGrpId": 2742967988
        },
        {
            "index": 2,
            "grpId": 2742967988,
            "nextGrpId": 2742967989
        },
        {
            "index": 3,
            "grpId": 2742967989,
            "nextGrpId": 2742967990
        },
        {
            "index": 4,
            "grpId": 2742967990,
            "nextGrpId": 2742967991
        },
        {
            "index": 5,
            "grpId": 2742967991,
            "nextGrpId": 2742967992
        },
        {
            "index": 6,
            "grpId": 2742967992,
            "nextGrpId": 2742967993
        },
        {
            "index": 7,
            "grpId": 2742967993,
            "nextGrpId": 2742967994
        },
        {
            "index": 8,
            "grpId": 2742967994,
            "nextGrpId": 3427628990
        },
        {
            "index": 9,
            "grpId": 3427628990,
            "nextGrpId": 3427628991
        },
        {
            "index": 10,
            "grpId": 3427628991,
            "nextGrpId": 3427628992
        },
        {
            "index": 11,
            "grpId": 3427628992,
            "nextGrpId": 3427628993
        },
        {
            "index": 12,
            "grpId": 3427628993,
            "nextGrpId": 3427628994
        },
        {
            "index": 13,
            "grpId": 3427628994,
            "nextGrpId": 3427628995
        },
        {
            "index": 14,
            "grpId": 3427628995,
            "nextGrpId": 3427628996
        },
        {
            "index": 15,
            "grpId": 3427628996,
            "nextGrpId": 3427628997
        },
        {
            "index": 16,
            "grpId": 3427628997,
            "nextGrpId": 3427628998
        },
        {
            "index": 17,
            "grpId": 3427628998,
            "nextGrpId": 3427628999
        },
        {
            "index": 18,
            "grpId": 3427628999,
            "nextGrpId": 3427629021
        },
        {
            "index": 19,
            "grpId": 3427629021,
            "nextGrpId": 3427629022
        }
    ],
    "freeStyleDic": {
        "30108": []
    }
}