{
    "luaDataPath": "",
    "startBlackKeepTime": 0.5,
    "entityBan": "",
    "disableNpcLod": true,
    "isAutoBanNpc": true,
    "isBanWidgetPet": true,
    "protectNpcMobileLod": true,
    "startFade": {
        "startFadeInDuration": 0.5,
        "startFadeOutDuration": 0.5
    },
    "endFade": {
        "startFadeOutDuration": 0.0
    },
    "actors": [
        {
            "alias": "Avatar",
            "visible": true,
            "bornPointName": "N10000005_T7328716",
            "relativePosType": "AVATAR_NEW",
            "relativePosNpcAlias": "",
            "bindMovingTargetKey": ""
        },
        {
            "configID": 4296,
            "alias": "4296",
            "visible": true,
            "bornPointName": "Q7328716_N4296",
            "forceCreateDaily": true,
            "relativePosType": "AVATAR_NEW",
            "relativePosNpcAlias": "",
            "bindMovingTargetKey": ""
        },
        {
            "configID": 1005,
            "alias": "1005",
            "visible": true,
            "bornPointName": "N1005_T7328716",
            "removeActorType": "REMOVE_WITH_DISAPPEAR",
            "relativePosType": "AVATAR_NEW",
            "relativePosNpcAlias": "",
            "bindMovingTargetKey": ""
        }
    ],
    "group": [
        [
            {
                "$type": "MoleMole.Config.ConfigTimeProtectAction",
                "type": "TIME_PROTECT",
                "duration": 0.10000000149011612,
                "actionId": 104
            }
        ],
        [
            {
                "$type": "DLPFECMKEKH",
                "type": "DIALOG",
                "aliasList": [
                    "4296"
                ],
                "actionId": 107,
                "NMKEDPFEKBH": 732190401,
                "JLCHMAJCAPA": 0.5
            },
            {
                "$type": "ECLBLHOENAG",
                "type": "DIALOG_SELECT",
                "delayTime": 0.4000000059604645,
                "aliasList": [
                    "Avatar"
                ],
                "actionId": 108,
                "NDMMOPDPKNF": [
                    732190402,
                    732190404
                ],
                "FPDBIEGHMCD": [
                    3677027575,
                    3677027576
                ],
                "PKBOIGBGDEG": true
            }
        ],
        [
            {
                "$type": "DLPFECMKEKH",
                "type": "DIALOG",
                "aliasList": [
                    "4296"
                ],
                "actionId": 110,
                "NMKEDPFEKBH": 732190403,
                "JLCHMAJCAPA": 0.5
            }
        ],
        [
            {
                "$type": "DLPFECMKEKH",
                "type": "DIALOG",
                "aliasList": [
                    "4296"
                ],
                "actionId": 112,
                "NMKEDPFEKBH": 732190405,
                "JLCHMAJCAPA": 0.5
            },
            {
                "$type": "ECLBLHOENAG",
                "type": "DIALOG_SELECT",
                "delayTime": 0.4000000059604645,
                "aliasList": [
                    "Avatar"
                ],
                "actionId": 113,
                "NDMMOPDPKNF": [
                    732190406,
                    732190412
                ],
                "FPDBIEGHMCD": [
                    3677027577,
                    2318705115
                ],
                "PKBOIGBGDEG": true
            }
        ],
        [
            {
                "$type": "DLPFECMKEKH",
                "type": "DIALOG",
                "aliasList": [
                    "4296"
                ],
                "actionId": 115,
                "NMKEDPFEKBH": 732190407,
                "JLCHMAJCAPA": 0.5
            }
        ],
        [
            {
                "$type": "DLPFECMKEKH",
                "type": "DIALOG",
                "aliasList": [
                    "4296"
                ],
                "actionId": 117,
                "NMKEDPFEKBH": 732190408,
                "JLCHMAJCAPA": 0.5
            }
        ],
        [
            {
                "$type": "DLPFECMKEKH",
                "type": "DIALOG",
                "aliasList": [
                    "4296"
                ],
                "actionId": 119,
                "NMKEDPFEKBH": 732190409,
                "JLCHMAJCAPA": 0.5
            }
        ],
        [
            {
                "$type": "DLPFECMKEKH",
                "type": "DIALOG",
                "aliasList": [
                    "4296"
                ],
                "actionId": 121,
                "NMKEDPFEKBH": 732190410,
                "JLCHMAJCAPA": 0.5
            }
        ],
        [
            {
                "$type": "DLPFECMKEKH",
                "type": "DIALOG",
                "aliasList": [
                    "4296"
                ],
                "actionId": 123,
                "NMKEDPFEKBH": 732190411,
                "JLCHMAJCAPA": 0.5
            }
        ],
        [
            {
                "$type": "DLPFECMKEKH",
                "type": "DIALOG",
                "aliasList": [
                    "4296"
                ],
                "actionId": 125,
                "NMKEDPFEKBH": 732190413,
                "JLCHMAJCAPA": 0.5
            }
        ],
        [
            {
                "$type": "MoleMole.Config.ConfigTimeProtectAction",
                "type": "TIME_PROTECT",
                "duration": 0.10000000149011612,
                "actionId": 127
            }
        ],
        [
            {
                "$type": "MoleMole.Config.ConfigTimeProtectAction",
                "type": "TIME_PROTECT",
                "duration": 0.10000000149011612,
                "actionId": 105
            },
            {
                "$type": "MoleMole.Config.ConfigSimpleBlackScreenAction",
                "type": "SIMPLE_BLACK_SCREEN",
                "actionId": 128,
                "durationToBlack": 0.5,
                "durationKeepBlack": 1.0,
                "durationFromBlack": 0.5,
                "textMapID": ""
            },
            {
                "$type": "MoleMole.Config.ConfigTimeProtectAction",
                "type": "TIME_PROTECT",
                "duration": 0.699999988079071,
                "actionId": 129
            }
        ]
    ],
    "groupId": [
        {
            "grpId": 3677027573,
            "nextGrpId": 3677027574
        },
        {
            "index": 1,
            "grpId": 3677027574,
            "nextGrpId": 3677027575
        },
        {
            "index": 2,
            "grpId": 3677027575,
            "nextGrpId": 2318705116
        },
        {
            "index": 3,
            "grpId": 3677027576,
            "nextGrpId": 3677027577
        },
        {
            "index": 4,
            "grpId": 3677027577,
            "nextGrpId": 3677027578
        },
        {
            "index": 5,
            "grpId": 3677027578,
            "nextGrpId": 3677027579
        },
        {
            "index": 6,
            "grpId": 3677027579,
            "nextGrpId": 3677027580
        },
        {
            "index": 7,
            "grpId": 3677027580,
            "nextGrpId": 3677027581
        },
        {
            "index": 8,
            "grpId": 3677027581,
            "nextGrpId": 2318705116
        },
        {
            "index": 9,
            "grpId": 2318705115,
            "nextGrpId": 2318705116
        },
        {
            "index": 10,
            "grpId": 2318705116,
            "nextGrpId": 2318705117
        },
        {
            "index": 11,
            "grpId": 2318705117,
            "nextGrpId": 2318705118
        }
    ]
}