{
    "luaDataPath": "",
    "startBlackKeepTime": 0.5,
    "entityBan": "",
    "disableNpcLod": true,
    "startFade": {
        "startFadeInDuration": 0.5,
        "startFadeOutDuration": 0.5
    },
    "endFade": {
        "startFadeOutDuration": 0.0
    },
    "actors": [
        {
            "alias": "Avatar",
            "visible": true,
            "bornPointName": "Q11009KeqingIdle",
            "relativePosNpcAlias": "",
            "bindMovingTargetKey": ""
        },
        {
            "configID": 1016,
            "alias": "1016",
            "visible": true,
            "bornPointName": "Q11009KeqingIdle",
            "relativePosNpcAlias": "",
            "bindMovingTargetKey": ""
        },
        {
            "configID": 1005,
            "alias": "1005",
            "visible": true,
            "bornPointName": "Q11009KeqingIdle",
            "removeActorType": "REMOVE_WITH_DISAPPEAR",
            "relativePosNpcAlias": "",
            "bindMovingTargetKey": ""
        },
        {
            "configID": 12349,
            "alias": "12349",
            "visible": true,
            "bornPointName": "Q11009QianyanjunGuyunge1",
            "relativePosNpcAlias": "",
            "bindMovingTargetKey": ""
        },
        {
            "configID": 12373,
            "alias": "12373",
            "visible": true,
            "bornPointName": "Q11009QianyanjunGuyunge2",
            "relativePosNpcAlias": "",
            "bindMovingTargetKey": ""
        },
        {
            "configID": 1045,
            "alias": "1045",
            "visible": true,
            "bornPointName": "Q11009KeqingIdle",
            "removeActorType": "REMOVE_WITH_DISAPPEAR",
            "relativePosNpcAlias": "",
            "bindMovingTargetKey": ""
        }
    ],
    "group": [
        [
            {
                "$type": "MoleMole.Config.ConfigTeleportToAction",
                "type": "TELEPORT_TO",
                "aliasList": [
                    "12349"
                ],
                "position": {
                    "x": -461.7550048828125,
                    "y": 201.29400634765625,
                    "z": -828.7050170898438
                },
                "forward": {
                    "x": -2.0899999141693115,
                    "y": -0.03700000047683716,
                    "z": 0.7149999737739563
                },
                "openLongDisTeleport": true,
                "posBindMovingTargetKey": "",
                "forwardBindMovingTargetKey": ""
            },
            {
                "$type": "EAMBKPBOPIC",
                "type": "LOOK_AT",
                "aliasList": [
                    "12349"
                ],
                "BCHGCKLKNEH": 0.5,
                "OMCCMPHDLOO": "",
                "KPCALFDIHMC": "",
                "DBLNLMOPEBP": ""
            },
            {
                "$type": "EAMBKPBOPIC",
                "type": "LOOK_AT",
                "aliasList": [
                    "1005"
                ],
                "BCHGCKLKNEH": 0.5,
                "OMCCMPHDLOO": "",
                "KPCALFDIHMC": "",
                "DBLNLMOPEBP": ""
            },
            {
                "$type": "MoleMole.Config.ConfigTeleportToAction",
                "type": "TELEPORT_TO",
                "aliasList": [
                    "1005"
                ],
                "position": {
                    "x": -463.5360107421875,
                    "y": 200.78900146484375,
                    "z": -834.302001953125
                },
                "forward": {
                    "x": 0.14399999380111694,
                    "z": 0.9900000095367432
                },
                "openLongDisTeleport": true,
                "posBindMovingTargetKey": "",
                "forwardBindMovingTargetKey": ""
            },
            {
                "$type": "EAMBKPBOPIC",
                "type": "LOOK_AT",
                "aliasList": [
                    "1045"
                ],
                "BCHGCKLKNEH": 0.5,
                "OMCCMPHDLOO": "",
                "KPCALFDIHMC": "",
                "DBLNLMOPEBP": ""
            },
            {
                "$type": "MoleMole.Config.ConfigTeleportToAction",
                "type": "TELEPORT_TO",
                "aliasList": [
                    "1045"
                ],
                "position": {
                    "x": -464.8089904785156,
                    "y": 200.83900451660156,
                    "z": -833.5009765625
                },
                "forward": {
                    "x": 0.9580000042915344,
                    "z": 0.28600001335144043
                },
                "openLongDisTeleport": true,
                "posBindMovingTargetKey": "",
                "forwardBindMovingTargetKey": ""
            },
            {
                "$type": "MoleMole.Config.ConfigTeleportToAction",
                "type": "TELEPORT_TO",
                "aliasList": [
                    "12373"
                ],
                "position": {
                    "x": -464.8030090332031,
                    "y": 201.2429962158203,
                    "z": -818.27099609375
                },
                "forward": {
                    "x": -5.413000106811523,
                    "y": -0.3880000114440918,
                    "z": -1.0479999780654907
                },
                "openLongDisTeleport": true,
                "posBindMovingTargetKey": "",
                "forwardBindMovingTargetKey": ""
            },
            {
                "$type": "EAMBKPBOPIC",
                "type": "LOOK_AT",
                "aliasList": [
                    "12373"
                ],
                "BCHGCKLKNEH": 0.5,
                "OMCCMPHDLOO": "",
                "KPCALFDIHMC": "",
                "DBLNLMOPEBP": ""
            },
            {
                "$type": "OPCCDGPJCJI",
                "type": "EMO_SYNC",
                "aliasList": [
                    "1016"
                ],
                "IONNJBCBACJ": "",
                "HLEJKBCMNNJ": "Cs_Emo_Avatar_Common/Cs_Emo_Avatar_Normal01",
                "JGHLJJLNGPP": "Cs_Emo_Avatar_Common/Cs_Emo_Avatar_Gentle01",
                "MANNKIIBOFM": "",
                "COMNAAFDEDH": "",
                "CPGCCLNOCDK": "",
                "MFABDGAFKII": [
                    9445916536337636767,
                    14128686126614747219,
                    10779105391569104182,
                    11659242061757756269
                ],
                "IPAGHAALIII": [
                    16936364625734641526,
                    12723692093682084560,
                    7584763146597514602,
                    9115589832287442173
                ]
            },
            {
                "$type": "MoleMole.Config.ConfigBlackScreenAction",
                "type": "BLACK_SCREEN",
                "blackScreenType": "KEEP_BLACK",
                "durationKeepBlack": 0.5,
                "inteePos": "",
                "textMapID": "",
                "useTextFade": true
            },
            {
                "$type": "EAMBKPBOPIC",
                "type": "LOOK_AT",
                "aliasList": [
                    "Avatar"
                ],
                "BCHGCKLKNEH": 0.5,
                "OMCCMPHDLOO": "",
                "KPCALFDIHMC": "",
                "DBLNLMOPEBP": ""
            },
            {
                "$type": "MoleMole.Config.ConfigSimpleBlackScreenAction",
                "type": "SIMPLE_BLACK_SCREEN",
                "duration": 1.0,
                "durationToBlack": 0.5,
                "durationKeepBlack": 0.5,
                "durationFromBlack": 0.5,
                "textMapID": ""
            },
            {
                "$type": "MoleMole.Config.ConfigTimeProtectAction",
                "type": "TIME_PROTECT",
                "duration": 1.0
            },
            {
                "$type": "EAMBKPBOPIC",
                "type": "LOOK_AT",
                "aliasList": [
                    "1016"
                ],
                "BCHGCKLKNEH": 0.5,
                "OMCCMPHDLOO": "",
                "KPCALFDIHMC": "",
                "DBLNLMOPEBP": ""
            },
            {
                "$type": "ILCGAGEGDJI",
                "type": "BODY_LANG",
                "aliasList": [
                    "1016"
                ],
                "FLBOOPHHFJP": 1190,
                "PMJAMGLAJGK": true,
                "LIMPPBIAKGL": false,
                "FNDLJGEAMGI": ""
            },
            {
                "$type": "MoleMole.Config.ConfigTeleportToAction",
                "type": "TELEPORT_TO",
                "aliasList": [
                    "Avatar"
                ],
                "position": {
                    "x": -464.1860046386719,
                    "y": 200.83399963378906,
                    "z": -833.968017578125
                },
                "forward": {
                    "x": 0.8999999761581421,
                    "z": 0.4359999895095825
                },
                "openLongDisTeleport": true,
                "posBindMovingTargetKey": "",
                "forwardBindMovingTargetKey": ""
            },
            {
                "$type": "MoleMole.Config.ConfigTeleportToAction",
                "type": "TELEPORT_TO",
                "aliasList": [
                    "1016"
                ],
                "position": {
                    "x": -463.14599609375,
                    "y": 201.15499877929688,
                    "z": -832.6329956054688
                },
                "forward": {
                    "x": 0.26499998569488525,
                    "y": 0.15600000321865082,
                    "z": 0.777999997138977
                },
                "openLongDisTeleport": true,
                "posBindMovingTargetKey": "",
                "forwardBindMovingTargetKey": ""
            }
        ],
        [
            {
                "$type": "EAMBKPBOPIC",
                "type": "LOOK_AT",
                "aliasList": [
                    "1045"
                ],
                "FIDJDPAIFDN": true,
                "BCHGCKLKNEH": 0.5,
                "OMCCMPHDLOO": "1016",
                "KPCALFDIHMC": "",
                "DBLNLMOPEBP": ""
            },
            {
                "$type": "MoleMole.Config.ConfigTeleportToAction",
                "type": "TELEPORT_TO",
                "aliasList": [
                    "1045"
                ],
                "position": {
                    "x": -464.8089904785156,
                    "y": 200.83900451660156,
                    "z": -833.5009765625
                },
                "forward": {
                    "x": 0.9580000042915344,
                    "z": 0.28600001335144043
                },
                "openLongDisTeleport": true,
                "posBindMovingTargetKey": "",
                "forwardBindMovingTargetKey": ""
            },
            {
                "$type": "MoleMole.Config.ConfigTeleportToAction",
                "type": "TELEPORT_TO",
                "aliasList": [
                    "1005"
                ],
                "position": {
                    "x": -463.5360107421875,
                    "y": 200.78900146484375,
                    "z": -834.302001953125
                },
                "forward": {
                    "x": 0.14399999380111694,
                    "z": 0.9900000095367432
                },
                "openLongDisTeleport": true,
                "posBindMovingTargetKey": "",
                "forwardBindMovingTargetKey": ""
            },
            {
                "$type": "EAMBKPBOPIC",
                "type": "LOOK_AT",
                "aliasList": [
                    "1005"
                ],
                "FIDJDPAIFDN": true,
                "BCHGCKLKNEH": 0.5,
                "OMCCMPHDLOO": "1016",
                "KPCALFDIHMC": "",
                "DBLNLMOPEBP": ""
            },
            {
                "$type": "ILCGAGEGDJI",
                "type": "BODY_LANG",
                "aliasList": [
                    "1016"
                ],
                "JLABKFNJCNP": true,
                "PMJAMGLAJGK": true,
                "LIMPPBIAKGL": false,
                "FNDLJGEAMGI": ""
            },
            {
                "$type": "MoleMole.Config.ConfigTeleportToAction",
                "type": "TELEPORT_TO",
                "aliasList": [
                    "Avatar"
                ],
                "position": {
                    "x": -464.1860046386719,
                    "y": 200.83399963378906,
                    "z": -833.968017578125
                },
                "forward": {
                    "x": 0.8999999761581421,
                    "z": 0.4359999895095825
                },
                "openLongDisTeleport": true,
                "posBindMovingTargetKey": "",
                "forwardBindMovingTargetKey": ""
            },
            {
                "$type": "MOOOKOKLLEI",
                "type": "CAMERA_MOVE",
                "duration": 1.0,
                "DOKGBCKOLJK": {
                    "x": -463.0589904785156,
                    "y": 203.8000030517578,
                    "z": -823.989013671875
                },
                "HGKCPMDICGG": {
                    "x": -463.0429992675781,
                    "y": 203.5500030517578,
                    "z": -824.9569702148438
                },
                "AFODHELHCGB": 25.0,
                "MGMFMGNANHH": 6,
                "NDFGFJFGHKL": "EaseInOutCubic",
                "IBCBGNHCICN": {},
                "BNBBLLBEIDL": true,
                "NHNPMMBMCFC": 0.04399999976158142,
                "HCPFCAHMGMO": false,
                "OMCCMPHDLOO": "",
                "FEFNBKOHPOG": true,
                "OCFGGGHIKOO": "",
                "LJFHGGJDPHH": "",
                "LPKDFKLNEHL": ""
            },
            {
                "$type": "MoleMole.Config.ConfigBlackScreenAction",
                "type": "BLACK_SCREEN",
                "blackScreenType": "FROM_BLACK",
                "durationFromBlack": 0.5,
                "inteePos": "",
                "textMapID": "",
                "useTextFade": true
            },
            {
                "$type": "MoleMole.Config.ConfigTimeProtectAction",
                "type": "TIME_PROTECT",
                "duration": 0.8600000143051147
            },
            {
                "$type": "EAMBKPBOPIC",
                "type": "LOOK_AT",
                "aliasList": [
                    "Avatar"
                ],
                "FIDJDPAIFDN": true,
                "BCHGCKLKNEH": 0.5,
                "OMCCMPHDLOO": "1016",
                "KPCALFDIHMC": "",
                "DBLNLMOPEBP": ""
            },
            {
                "$type": "MOOOKOKLLEI",
                "type": "CAMERA_MOVE",
                "delayTime": 0.10000000149011612,
                "duration": 12.07699966430664,
                "DOKGBCKOLJK": {
                    "x": -463.3280029296875,
                    "y": 203.8090057373047,
                    "z": -823.9959716796875
                },
                "HGKCPMDICGG": {
                    "x": -463.31201171875,
                    "y": 203.5590057373047,
                    "z": -824.9639892578125
                },
                "AFODHELHCGB": 25.0,
                "NDFGFJFGHKL": "EaseOutQuad",
                "IBCBGNHCICN": {},
                "BNBBLLBEIDL": true,
                "NHNPMMBMCFC": 0.04399999976158142,
                "HCPFCAHMGMO": false,
                "OMCCMPHDLOO": "",
                "FEFNBKOHPOG": true,
                "OCFGGGHIKOO": "",
                "LJFHGGJDPHH": "",
                "LPKDFKLNEHL": ""
            },
            {
                "$type": "EAMBKPBOPIC",
                "type": "LOOK_AT",
                "delayTime": 0.4740000069141388,
                "aliasList": [
                    "1016"
                ],
                "BCHGCKLKNEH": 0.5,
                "OMCCMPHDLOO": "",
                "KPCALFDIHMC": "",
                "DBLNLMOPEBP": ""
            },
            {
                "$type": "OPCCDGPJCJI",
                "type": "EMO_SYNC",
                "delayTime": 0.5120000243186951,
                "aliasList": [
                    "1016"
                ],
                "IONNJBCBACJ": "",
                "HLEJKBCMNNJ": "Cs_Emo_Avatar_Common/Cs_Emo_Avatar_Normal01",
                "JGHLJJLNGPP": "Cs_Emo_Avatar_Common/Cs_Emo_Avatar_Default01_B",
                "MANNKIIBOFM": "",
                "COMNAAFDEDH": "",
                "CPGCCLNOCDK": "",
                "MFABDGAFKII": [
                    9445916536337636767,
                    14128686126614747219,
                    10779105391569104182,
                    11659242061757756269
                ],
                "IPAGHAALIII": [
                    12199605016063642592,
                    6659610500948409138,
                    10783156204328777859,
                    13383650154785247612
                ]
            },
            {
                "$type": "EAMBKPBOPIC",
                "type": "LOOK_AT",
                "delayTime": 0.8939999938011169,
                "aliasList": [
                    "1016"
                ],
                "FIDJDPAIFDN": true,
                "BCHGCKLKNEH": 0.5,
                "OMCCMPHDLOO": "Avatar",
                "KPCALFDIHMC": "",
                "DBLNLMOPEBP": ""
            },
            {
                "$type": "DLPFECMKEKH",
                "type": "DIALOG",
                "delayTime": 1.0609999895095825,
                "aliasList": [
                    "1016"
                ],
                "NMKEDPFEKBH": 110133001,
                "JLCHMAJCAPA": 0.5
            },
            {
                "$type": "OPCCDGPJCJI",
                "type": "EMO_SYNC",
                "delayTime": 1.0609999895095825,
                "aliasList": [
                    "1016"
                ],
                "IONNJBCBACJ": "Cs_Emo_Avatar_Simple_Common_Set/Cs_Emo_Avatar_Talk/Cs_Emo_Avatar_MainLine/Cs_Emo_Avatar_LiYue04/Cs_Emo_110133001",
                "HLEJKBCMNNJ": "",
                "JGHLJJLNGPP": "",
                "MANNKIIBOFM": "",
                "COMNAAFDEDH": "",
                "CPGCCLNOCDK": "",
                "IGEFGCJKCPM": [
                    17096507970621752382,
                    15990957435493110756,
                    1506546939595547493,
                    4281155182244662700
                ]
            },
            {
                "$type": "OOMFCPJAJGL",
                "type": "STEER_TO",
                "delayTime": 1.2280000448226929,
                "duration": 0.800000011920929,
                "aliasList": [
                    "1016"
                ],
                "DMGIIHNDNLC": "ABSOLUTE",
                "PLAPKCOMAKJ": {
                    "x": -464.04998779296875,
                    "y": 200.9149932861328,
                    "z": -833.6939697265625
                },
                "HCMINPNPFDF": true,
                "OMCCMPHDLOO": "",
                "DBLNLMOPEBP": ""
            },
            {
                "$type": "ILCGAGEGDJI",
                "type": "BODY_LANG",
                "delayTime": 1.8630000352859497,
                "aliasList": [
                    "1016"
                ],
                "FLBOOPHHFJP": 1171,
                "PMJAMGLAJGK": true,
                "LIMPPBIAKGL": false,
                "FNDLJGEAMGI": ""
            }
        ],
        [
            {
                "$type": "OPCCDGPJCJI",
                "type": "EMO_SYNC",
                "aliasList": [
                    "1016"
                ],
                "IONNJBCBACJ": "Cs_Emo_Avatar_Simple_Common_Set/Cs_Emo_Avatar_Talk/Cs_Emo_Avatar_MainLine/Cs_Emo_Avatar_LiYue04/Cs_Emo_110133002",
                "HLEJKBCMNNJ": "",
                "JGHLJJLNGPP": "",
                "MANNKIIBOFM": "",
                "COMNAAFDEDH": "",
                "CPGCCLNOCDK": "",
                "IGEFGCJKCPM": [
                    14076222782385006902,
                    1448436432101230854,
                    3500742706894304059,
                    101348019192800994
                ]
            },
            {
                "$type": "MoleMole.Config.ConfigTeleportToAction",
                "type": "TELEPORT_TO",
                "aliasList": [
                    "1016"
                ],
                "position": {
                    "x": -463.14599609375,
                    "y": 201.15499877929688,
                    "z": -832.6329956054688
                },
                "forward": {
                    "x": -0.6489999890327454,
                    "z": -0.7609999775886536
                },
                "openLongDisTeleport": true,
                "posBindMovingTargetKey": "",
                "forwardBindMovingTargetKey": ""
            },
            {
                "$type": "ILCGAGEGDJI",
                "type": "BODY_LANG",
                "aliasList": [
                    "1016"
                ],
                "JLABKFNJCNP": true,
                "PMJAMGLAJGK": true,
                "LIMPPBIAKGL": false,
                "FNDLJGEAMGI": ""
            },
            {
                "$type": "MoleMole.Config.ConfigTeleportToAction",
                "type": "TELEPORT_TO",
                "aliasList": [
                    "1045"
                ],
                "position": {
                    "x": -464.8089904785156,
                    "y": 200.83900451660156,
                    "z": -833.5009765625
                },
                "forward": {
                    "x": 0.9580000042915344,
                    "z": 0.28600001335144043
                },
                "openLongDisTeleport": true,
                "posBindMovingTargetKey": "",
                "forwardBindMovingTargetKey": ""
            },
            {
                "$type": "MoleMole.Config.ConfigTeleportToAction",
                "type": "TELEPORT_TO",
                "aliasList": [
                    "1005"
                ],
                "position": {
                    "x": -463.5360107421875,
                    "y": 200.88600158691406,
                    "z": -834.302001953125
                },
                "forward": {
                    "x": 0.14300000667572021,
                    "z": 0.9900000095367432
                },
                "openLongDisTeleport": true,
                "posBindMovingTargetKey": "",
                "forwardBindMovingTargetKey": ""
            },
            {
                "$type": "EAMBKPBOPIC",
                "type": "LOOK_AT",
                "aliasList": [
                    "1016"
                ],
                "FIDJDPAIFDN": true,
                "useTargetPos": true,
                "GFKIMGBGADJ": true,
                "GMKIJKADNHN": {
                    "x": -464.0849914550781,
                    "y": 202.1999969482422,
                    "z": -833.9769897460938
                },
                "BCHGCKLKNEH": 0.5,
                "OMCCMPHDLOO": "",
                "CEBMBGKJACI": "NONE",
                "KPCALFDIHMC": "",
                "DBLNLMOPEBP": ""
            },
            {
                "$type": "DLPFECMKEKH",
                "type": "DIALOG",
                "aliasList": [
                    "1016"
                ],
                "NMKEDPFEKBH": 110133002,
                "JLCHMAJCAPA": 0.5
            },
            {
                "$type": "MOOOKOKLLEI",
                "type": "CAMERA_MOVE",
                "duration": 1.0,
                "DOKGBCKOLJK": {
                    "x": -464.3080139160156,
                    "y": 202.2259979248047,
                    "z": -835.1820068359375
                },
                "HGKCPMDICGG": {
                    "x": -463.91400146484375,
                    "y": 202.18899536132812,
                    "z": -834.2630004882812
                },
                "AFODHELHCGB": 35.0,
                "MGMFMGNANHH": 6,
                "NDFGFJFGHKL": "EaseInOutCubic",
                "IBCBGNHCICN": {},
                "BNBBLLBEIDL": true,
                "NHNPMMBMCFC": 0.0430000014603138,
                "HCPFCAHMGMO": false,
                "OMCCMPHDLOO": "",
                "FEFNBKOHPOG": true,
                "OCFGGGHIKOO": "",
                "LJFHGGJDPHH": "",
                "LPKDFKLNEHL": ""
            },
            {
                "$type": "MoleMole.Config.ConfigTeleportToAction",
                "type": "TELEPORT_TO",
                "aliasList": [
                    "Avatar"
                ],
                "position": {
                    "x": -464.1860046386719,
                    "y": 200.83399963378906,
                    "z": -833.968017578125
                },
                "forward": {
                    "x": 0.8999999761581421,
                    "z": 0.4359999895095825
                },
                "openLongDisTeleport": true,
                "posBindMovingTargetKey": "",
                "forwardBindMovingTargetKey": ""
            },
            {
                "$type": "MOOOKOKLLEI",
                "type": "CAMERA_MOVE",
                "delayTime": 0.10000000149011612,
                "duration": 7.556000232696533,
                "DOKGBCKOLJK": {
                    "x": -464.28399658203125,
                    "y": 202.2239990234375,
                    "z": -835.1259765625
                },
                "HGKCPMDICGG": {
                    "x": -463.8900146484375,
                    "y": 202.18699645996094,
                    "z": -834.2069702148438
                },
                "AFODHELHCGB": 35.0,
                "NDFGFJFGHKL": "EaseOutQuad",
                "IBCBGNHCICN": {},
                "BNBBLLBEIDL": true,
                "NHNPMMBMCFC": 0.0430000014603138,
                "HCPFCAHMGMO": false,
                "OMCCMPHDLOO": "",
                "FEFNBKOHPOG": true,
                "OCFGGGHIKOO": "",
                "LJFHGGJDPHH": "",
                "LPKDFKLNEHL": ""
            },
            {
                "$type": "ECLBLHOENAG",
                "type": "DIALOG_SELECT",
                "delayTime": 0.4000000059604645,
                "aliasList": [
                    "Avatar"
                ],
                "NDMMOPDPKNF": [
                    110133003,
                    110133007
                ],
                "FPDBIEGHMCD": [
                    2659162224,
                    2659162227
                ],
                "PKBOIGBGDEG": true
            },
            {
                "$type": "ILCGAGEGDJI",
                "type": "BODY_LANG",
                "delayTime": 0.4519999921321869,
                "aliasList": [
                    "1016"
                ],
                "FLBOOPHHFJP": 1172,
                "PMJAMGLAJGK": true,
                "LIMPPBIAKGL": false,
                "FNDLJGEAMGI": ""
            },
            {
                "$type": "ILCGAGEGDJI",
                "type": "BODY_LANG",
                "delayTime": 0.6079999804496765,
                "aliasList": [
                    "Avatar"
                ],
                "FLBOOPHHFJP": 1030,
                "PMJAMGLAJGK": true,
                "LIMPPBIAKGL": false,
                "FNDLJGEAMGI": ""
            },
            {
                "$type": "ILCGAGEGDJI",
                "type": "BODY_LANG",
                "delayTime": 1.7699999809265137,
                "aliasList": [
                    "1016"
                ],
                "FLBOOPHHFJP": 4040,
                "PMJAMGLAJGK": true,
                "LIMPPBIAKGL": false,
                "FNDLJGEAMGI": ""
            },
            {
                "$type": "ILCGAGEGDJI",
                "type": "BODY_LANG",
                "delayTime": 2.6740000247955322,
                "aliasList": [
                    "Avatar"
                ],
                "JLABKFNJCNP": true,
                "PMJAMGLAJGK": true,
                "LIMPPBIAKGL": false,
                "FNDLJGEAMGI": ""
            }
        ],
        [
            {
                "$type": "EAMBKPBOPIC",
                "type": "LOOK_AT",
                "aliasList": [
                    "1016"
                ],
                "FIDJDPAIFDN": true,
                "useTargetPos": true,
                "GFKIMGBGADJ": true,
                "GMKIJKADNHN": {
                    "x": -462.8320007324219,
                    "y": 202.48500061035156,
                    "z": -832.1599731445312
                },
                "BCHGCKLKNEH": 0.5,
                "OMCCMPHDLOO": "",
                "CEBMBGKJACI": "NONE",
                "KPCALFDIHMC": "",
                "DBLNLMOPEBP": ""
            },
            {
                "$type": "OOMFCPJAJGL",
                "type": "STEER_TO",
                "duration": 0.800000011920929,
                "aliasList": [
                    "1016"
                ],
                "DMGIIHNDNLC": "ABSOLUTE",
                "PLAPKCOMAKJ": {
                    "x": -463.8420104980469,
                    "y": 201.27200317382812,
                    "z": -832.0980224609375
                },
                "HCMINPNPFDF": true,
                "OMCCMPHDLOO": "",
                "DBLNLMOPEBP": ""
            },
            {
                "$type": "EAMBKPBOPIC",
                "type": "LOOK_AT",
                "aliasList": [
                    "1045"
                ],
                "FIDJDPAIFDN": true,
                "useTargetPos": true,
                "GFKIMGBGADJ": true,
                "GMKIJKADNHN": {
                    "x": -463.2130126953125,
                    "y": 202.58299255371094,
                    "z": -832.718017578125
                },
                "BCHGCKLKNEH": 0.5,
                "OMCCMPHDLOO": "",
                "CEBMBGKJACI": "NONE",
                "KPCALFDIHMC": "",
                "DBLNLMOPEBP": ""
            },
            {
                "$type": "OPCCDGPJCJI",
                "type": "EMO_SYNC",
                "aliasList": [
                    "1016"
                ],
                "IONNJBCBACJ": "",
                "HLEJKBCMNNJ": "Cs_Emo_Avatar_Common/Cs_Emo_Avatar_Normal01",
                "JGHLJJLNGPP": "Cs_Emo_Avatar_Common/Cs_Emo_Avatar_Default01_B",
                "MANNKIIBOFM": "",
                "COMNAAFDEDH": "",
                "CPGCCLNOCDK": "",
                "MFABDGAFKII": [
                    9445916536337636767,
                    14128686126614747219,
                    10779105391569104182,
                    11659242061757756269
                ],
                "IPAGHAALIII": [
                    12199605016063642592,
                    6659610500948409138,
                    10783156204328777859,
                    13383650154785247612
                ]
            },
            {
                "$type": "ILCGAGEGDJI",
                "type": "BODY_LANG",
                "aliasList": [
                    "1016"
                ],
                "JLABKFNJCNP": true,
                "PMJAMGLAJGK": true,
                "LIMPPBIAKGL": false,
                "FNDLJGEAMGI": ""
            },
            {
                "$type": "DLPFECMKEKH",
                "type": "DIALOG_CLEAR",
                "NMKEDPFEKBH": 110133002
            },
            {
                "$type": "MOOOKOKLLEI",
                "type": "CAMERA_MOVE",
                "duration": 1.0,
                "DOKGBCKOLJK": {
                    "x": -464.8630065917969,
                    "y": 202.5449981689453,
                    "z": -832.8590087890625
                },
                "HGKCPMDICGG": {
                    "x": -463.9859924316406,
                    "y": 202.38900756835938,
                    "z": -832.4039916992188
                },
                "MGMFMGNANHH": 6,
                "NDFGFJFGHKL": "EaseInOutCubic",
                "IBCBGNHCICN": {},
                "BNBBLLBEIDL": true,
                "NHNPMMBMCFC": 0.0430000014603138,
                "HCPFCAHMGMO": false,
                "OMCCMPHDLOO": "",
                "FEFNBKOHPOG": true,
                "OCFGGGHIKOO": "",
                "LJFHGGJDPHH": "",
                "LPKDFKLNEHL": ""
            },
            {
                "$type": "MoleMole.Config.ConfigTimeProtectAction",
                "type": "TIME_PROTECT",
                "duration": 1.1139999628067017
            },
            {
                "$type": "ILCGAGEGDJI",
                "type": "BODY_LANG",
                "aliasList": [
                    "Avatar"
                ],
                "JLABKFNJCNP": true,
                "PMJAMGLAJGK": true,
                "LIMPPBIAKGL": false,
                "FNDLJGEAMGI": ""
            },
            {
                "$type": "MOOOKOKLLEI",
                "type": "CAMERA_MOVE",
                "delayTime": 0.10000000149011612,
                "duration": 8.847000122070312,
                "DOKGBCKOLJK": {
                    "x": -464.8949890136719,
                    "y": 202.54600524902344,
                    "z": -832.7960205078125
                },
                "HGKCPMDICGG": {
                    "x": -464.01800537109375,
                    "y": 202.38999938964844,
                    "z": -832.3410034179688
                },
                "NDFGFJFGHKL": "EaseOutQuad",
                "IBCBGNHCICN": {},
                "BNBBLLBEIDL": true,
                "NHNPMMBMCFC": 0.0430000014603138,
                "HCPFCAHMGMO": false,
                "OMCCMPHDLOO": "",
                "FEFNBKOHPOG": true,
                "OCFGGGHIKOO": "",
                "LJFHGGJDPHH": "",
                "LPKDFKLNEHL": ""
            },
            {
                "$type": "CJKIHIFAALJ",
                "type": "LOOK_AT_EYECTRL",
                "delayTime": 0.3140000104904175,
                "aliasList": [
                    "1016"
                ],
                "useTargetPos": false,
                "KOPLMCFNFEH": {
                    "x": 3.0
                },
                "DONDAIFPGMK": {
                    "x": 3.0
                },
                "BJMEKPDGMPA": 0.20000000298023224,
                "OMCCMPHDLOO": "",
                "OPPBKKOPIOB": "Face"
            },
            {
                "$type": "OPCCDGPJCJI",
                "type": "EMO_SYNC",
                "delayTime": 0.871999979019165,
                "aliasList": [
                    "1016"
                ],
                "IONNJBCBACJ": "Cs_Emo_Avatar_Simple_Common_Set/Cs_Emo_Avatar_Talk/Cs_Emo_Avatar_MainLine/Cs_Emo_Avatar_LiYue04/Cs_Emo_110133004",
                "HLEJKBCMNNJ": "",
                "JGHLJJLNGPP": "",
                "MANNKIIBOFM": "",
                "COMNAAFDEDH": "",
                "CPGCCLNOCDK": "",
                "IGEFGCJKCPM": [
                    8118461102034109593,
                    2250759719527523279,
                    699524428851894316,
                    5247044782355890101
                ]
            },
            {
                "$type": "DLPFECMKEKH",
                "type": "DIALOG",
                "delayTime": 0.871999979019165,
                "aliasList": [
                    "1016"
                ],
                "NMKEDPFEKBH": 110133004,
                "JLCHMAJCAPA": 0.5
            },
            {
                "$type": "ILCGAGEGDJI",
                "type": "BODY_LANG",
                "delayTime": 1.0269999504089355,
                "aliasList": [
                    "1016"
                ],
                "FLBOOPHHFJP": 1171,
                "PMJAMGLAJGK": true,
                "LIMPPBIAKGL": false,
                "FNDLJGEAMGI": ""
            },
            {
                "$type": "EAMBKPBOPIC",
                "type": "LOOK_AT",
                "delayTime": 1.99399995803833,
                "aliasList": [
                    "1016"
                ],
                "FIDJDPAIFDN": true,
                "BCHGCKLKNEH": 0.5,
                "OMCCMPHDLOO": "Avatar",
                "KPCALFDIHMC": "",
                "DBLNLMOPEBP": ""
            },
            {
                "$type": "CJKIHIFAALJ",
                "type": "LOOK_AT_EYECTRL",
                "delayTime": 2.38700008392334,
                "aliasList": [
                    "1016"
                ],
                "useTargetPos": false,
                "KOPLMCFNFEH": {
                    "x": -3.0
                },
                "DONDAIFPGMK": {
                    "x": -3.0
                },
                "BJMEKPDGMPA": 0.20000000298023224,
                "OMCCMPHDLOO": "",
                "OPPBKKOPIOB": "Face"
            },
            {
                "$type": "ILCGAGEGDJI",
                "type": "BODY_LANG",
                "delayTime": 4.999000072479248,
                "aliasList": [
                    "1016"
                ],
                "JLABKFNJCNP": true,
                "PMJAMGLAJGK": true,
                "LIMPPBIAKGL": false,
                "FNDLJGEAMGI": ""
            }
        ],
        [
            {
                "$type": "ILCGAGEGDJI",
                "type": "BODY_LANG",
                "aliasList": [
                    "1016"
                ],
                "JLABKFNJCNP": true,
                "PMJAMGLAJGK": true,
                "LIMPPBIAKGL": false,
                "FNDLJGEAMGI": ""
            },
            {
                "$type": "MoleMole.Config.ConfigTeleportToAction",
                "type": "TELEPORT_TO",
                "aliasList": [
                    "1016"
                ],
                "position": {
                    "x": -463.14599609375,
                    "y": 201.15499877929688,
                    "z": -832.6329956054688
                },
                "forward": {
                    "x": -0.8740000128746033,
                    "y": 0.24400000274181366,
                    "z": 0.03200000151991844
                },
                "openLongDisTeleport": true,
                "posBindMovingTargetKey": "",
                "forwardBindMovingTargetKey": ""
            },
            {
                "$type": "OPCCDGPJCJI",
                "type": "EMO_SYNC",
                "aliasList": [
                    "1016"
                ],
                "IONNJBCBACJ": "Cs_Emo_Avatar_Simple_Common_Set/Cs_Emo_Avatar_Talk/Cs_Emo_Avatar_MainLine/Cs_Emo_Avatar_LiYue04/Cs_Emo_110133005",
                "HLEJKBCMNNJ": "",
                "JGHLJJLNGPP": "",
                "MANNKIIBOFM": "",
                "COMNAAFDEDH": "",
                "CPGCCLNOCDK": "",
                "IGEFGCJKCPM": [
                    15208862400788743692,
                    8592336134907976589,
                    3178174927937435055,
                    1091580612508039004
                ]
            },
            {
                "$type": "EAMBKPBOPIC",
                "type": "LOOK_AT",
                "aliasList": [
                    "1016"
                ],
                "FIDJDPAIFDN": true,
                "useTargetPos": true,
                "GFKIMGBGADJ": true,
                "GMKIJKADNHN": {
                    "x": -463.4010009765625,
                    "y": 202.48500061035156,
                    "z": -831.583984375
                },
                "BCHGCKLKNEH": 0.6000000238418579,
                "OMCCMPHDLOO": "Avatar",
                "CEBMBGKJACI": "NONE",
                "KPCALFDIHMC": "",
                "DBLNLMOPEBP": ""
            },
            {
                "$type": "MOOOKOKLLEI",
                "type": "CAMERA_MOVE",
                "duration": 1.0,
                "DOKGBCKOLJK": {
                    "x": -463.0679931640625,
                    "y": 203.02200317382812,
                    "z": -827.2650146484375
                },
                "HGKCPMDICGG": {
                    "x": -462.95098876953125,
                    "y": 202.80099487304688,
                    "z": -828.2329711914062
                },
                "AFODHELHCGB": 35.0,
                "MGMFMGNANHH": 6,
                "NDFGFJFGHKL": "EaseInOutCubic",
                "IBCBGNHCICN": {},
                "BNBBLLBEIDL": true,
                "NHNPMMBMCFC": 0.04399999976158142,
                "HCPFCAHMGMO": false,
                "OMCCMPHDLOO": "",
                "FEFNBKOHPOG": true,
                "OCFGGGHIKOO": "",
                "LJFHGGJDPHH": "",
                "LPKDFKLNEHL": ""
            },
            {
                "$type": "DLPFECMKEKH",
                "type": "DIALOG",
                "aliasList": [
                    "1016"
                ],
                "NMKEDPFEKBH": 110133005,
                "JLCHMAJCAPA": 0.5
            },
            {
                "$type": "MOOOKOKLLEI",
                "type": "CAMERA_MOVE",
                "delayTime": 0.10000000149011612,
                "duration": 14.692999839782715,
                "DOKGBCKOLJK": {
                    "x": -463.38800048828125,
                    "y": 203.0050048828125,
                    "z": -827.2999877929688
                },
                "HGKCPMDICGG": {
                    "x": -463.27099609375,
                    "y": 202.78399658203125,
                    "z": -828.2680053710938
                },
                "AFODHELHCGB": 35.0,
                "NDFGFJFGHKL": "EaseOutQuad",
                "IBCBGNHCICN": {},
                "BNBBLLBEIDL": true,
                "NHNPMMBMCFC": 0.04399999976158142,
                "HCPFCAHMGMO": false,
                "OMCCMPHDLOO": "",
                "FEFNBKOHPOG": true,
                "OCFGGGHIKOO": "",
                "LJFHGGJDPHH": "",
                "LPKDFKLNEHL": ""
            },
            {
                "$type": "CJKIHIFAALJ",
                "type": "LOOK_AT_EYECTRL",
                "delayTime": 0.17399999499320984,
                "aliasList": [
                    "1016"
                ],
                "useTargetPos": false,
                "KOPLMCFNFEH": {
                    "x": 4.0
                },
                "DONDAIFPGMK": {
                    "x": 4.0
                },
                "BJMEKPDGMPA": 0.20000000298023224,
                "OMCCMPHDLOO": "",
                "OPPBKKOPIOB": "Face"
            },
            {
                "$type": "ILCGAGEGDJI",
                "type": "BODY_LANG",
                "delayTime": 0.9290000200271606,
                "aliasList": [
                    "1016"
                ],
                "FLBOOPHHFJP": 1220,
                "PMJAMGLAJGK": true,
                "LIMPPBIAKGL": false,
                "FNDLJGEAMGI": ""
            },
            {
                "$type": "EAMBKPBOPIC",
                "type": "LOOK_AT",
                "delayTime": 2.1600000858306885,
                "aliasList": [
                    "1016"
                ],
                "FIDJDPAIFDN": true,
                "useTargetPos": true,
                "GFKIMGBGADJ": true,
                "GMKIJKADNHN": {
                    "x": -465.2829895019531,
                    "y": 202.48500061035156,
                    "z": -833.4669799804688
                },
                "BCHGCKLKNEH": 1.5,
                "OMCCMPHDLOO": "",
                "CEBMBGKJACI": "NONE",
                "KPCALFDIHMC": "",
                "DBLNLMOPEBP": ""
            },
            {
                "$type": "CJKIHIFAALJ",
                "type": "LOOK_AT_EYECTRL",
                "delayTime": 2.2230000495910645,
                "aliasList": [
                    "1016"
                ],
                "useTargetPos": false,
                "BJMEKPDGMPA": 1.0,
                "OMCCMPHDLOO": "",
                "OPPBKKOPIOB": "Face"
            },
            {
                "$type": "EAMBKPBOPIC",
                "type": "LOOK_AT",
                "delayTime": 4.508999824523926,
                "aliasList": [
                    "1016"
                ],
                "FIDJDPAIFDN": true,
                "BCHGCKLKNEH": 0.6000000238418579,
                "OMCCMPHDLOO": "Avatar",
                "KPCALFDIHMC": "",
                "DBLNLMOPEBP": ""
            }
        ],
        [
            {
                "$type": "OOMFCPJAJGL",
                "type": "STEER_TO",
                "duration": 0.800000011920929,
                "aliasList": [
                    "1016"
                ],
                "DMGIIHNDNLC": "ABSOLUTE",
                "PLAPKCOMAKJ": {
                    "x": -463.9580078125,
                    "y": 200.9499969482422,
                    "z": -833.5679931640625
                },
                "HCMINPNPFDF": true,
                "OMCCMPHDLOO": "",
                "DBLNLMOPEBP": ""
            },
            {
                "$type": "OPCCDGPJCJI",
                "type": "EMO_SYNC",
                "aliasList": [
                    "1016"
                ],
                "IONNJBCBACJ": "Cs_Emo_Avatar_Simple_Common_Set/Cs_Emo_Avatar_Talk/Cs_Emo_Avatar_MainLine/Cs_Emo_Avatar_LiYue04/Cs_Emo_110133006",
                "HLEJKBCMNNJ": "",
                "JGHLJJLNGPP": "",
                "MANNKIIBOFM": "",
                "COMNAAFDEDH": "",
                "CPGCCLNOCDK": "",
                "IGEFGCJKCPM": [
                    8886608132295520973,
                    10225406551543751145,
                    15259852391634188546,
                    18183083466825782325
                ]
            },
            {
                "$type": "CJKIHIFAALJ",
                "type": "LOOK_AT_EYECTRL",
                "aliasList": [
                    "1016"
                ],
                "useTargetPos": false,
                "BJMEKPDGMPA": 1.0,
                "OMCCMPHDLOO": "",
                "OPPBKKOPIOB": "Face"
            },
            {
                "$type": "EAMBKPBOPIC",
                "type": "LOOK_AT",
                "aliasList": [
                    "1016"
                ],
                "FIDJDPAIFDN": true,
                "BCHGCKLKNEH": 0.6000000238418579,
                "OMCCMPHDLOO": "Avatar",
                "KPCALFDIHMC": "",
                "DBLNLMOPEBP": ""
            },
            {
                "$type": "MOOOKOKLLEI",
                "type": "CAMERA_MOVE",
                "duration": 1.0,
                "DOKGBCKOLJK": {
                    "x": -464.3039855957031,
                    "y": 202.44200134277344,
                    "z": -833.0230102539062
                },
                "HGKCPMDICGG": {
                    "x": -463.3380126953125,
                    "y": 202.46800231933594,
                    "z": -832.7659912109375
                },
                "AFODHELHCGB": 25.0,
                "MGMFMGNANHH": 6,
                "NDFGFJFGHKL": "EaseInOutCubic",
                "IBCBGNHCICN": {},
                "BNBBLLBEIDL": true,
                "NHNPMMBMCFC": 0.0430000014603138,
                "HCPFCAHMGMO": false,
                "OMCCMPHDLOO": "",
                "FEFNBKOHPOG": true,
                "OCFGGGHIKOO": "",
                "LJFHGGJDPHH": "",
                "LPKDFKLNEHL": ""
            },
            {
                "$type": "DLPFECMKEKH",
                "type": "DIALOG",
                "aliasList": [
                    "1016"
                ],
                "NMKEDPFEKBH": 110133006,
                "JLCHMAJCAPA": 0.5
            },
            {
                "$type": "MOOOKOKLLEI",
                "type": "CAMERA_MOVE",
                "delayTime": 0.10000000149011612,
                "duration": 5.394000053405762,
                "DOKGBCKOLJK": {
                    "x": -464.23199462890625,
                    "y": 202.44400024414062,
                    "z": -833.0040283203125
                },
                "HGKCPMDICGG": {
                    "x": -463.2659912109375,
                    "y": 202.47000122070312,
                    "z": -832.7470092773438
                },
                "AFODHELHCGB": 25.0,
                "NDFGFJFGHKL": "EaseOutQuad",
                "IBCBGNHCICN": {},
                "BNBBLLBEIDL": true,
                "NHNPMMBMCFC": 0.0430000014603138,
                "HCPFCAHMGMO": false,
                "OMCCMPHDLOO": "",
                "FEFNBKOHPOG": true,
                "OCFGGGHIKOO": "",
                "LJFHGGJDPHH": "",
                "LPKDFKLNEHL": ""
            },
            {
                "$type": "ILCGAGEGDJI",
                "type": "BODY_LANG",
                "delayTime": 0.22599999606609344,
                "aliasList": [
                    "1016"
                ],
                "JLABKFNJCNP": true,
                "PMJAMGLAJGK": true,
                "LIMPPBIAKGL": false,
                "FNDLJGEAMGI": ""
            }
        ],
        [
            {
                "$type": "ILCGAGEGDJI",
                "type": "BODY_LANG",
                "aliasList": [
                    "1016"
                ],
                "JLABKFNJCNP": true,
                "PMJAMGLAJGK": true,
                "LIMPPBIAKGL": false,
                "FNDLJGEAMGI": ""
            },
            {
                "$type": "ILCGAGEGDJI",
                "type": "BODY_LANG",
                "aliasList": [
                    "Avatar"
                ],
                "JLABKFNJCNP": true,
                "PMJAMGLAJGK": true,
                "LIMPPBIAKGL": false,
                "FNDLJGEAMGI": ""
            },
            {
                "$type": "OPCCDGPJCJI",
                "type": "EMO_SYNC",
                "aliasList": [
                    "1016"
                ],
                "IONNJBCBACJ": "",
                "HLEJKBCMNNJ": "Cs_Emo_Avatar_Common/Cs_Emo_Avatar_Default01",
                "JGHLJJLNGPP": "Cs_Emo_Avatar_Common/Cs_Emo_Avatar_Default01_B",
                "MANNKIIBOFM": "",
                "COMNAAFDEDH": "",
                "CPGCCLNOCDK": "",
                "MFABDGAFKII": [
                    1010565500959774114,
                    17914558573000180712,
                    14498871351621154070,
                    14348654671849899985
                ],
                "IPAGHAALIII": [
                    12199605016063642592,
                    6659610500948409138,
                    10783156204328777859,
                    13383650154785247612
                ]
            },
            {
                "$type": "EAMBKPBOPIC",
                "type": "LOOK_AT",
                "aliasList": [
                    "1016"
                ],
                "FIDJDPAIFDN": true,
                "useTargetPos": true,
                "GFKIMGBGADJ": true,
                "GMKIJKADNHN": {
                    "x": -462.8320007324219,
                    "y": 202.48500061035156,
                    "z": -832.1599731445312
                },
                "BCHGCKLKNEH": 0.5,
                "OMCCMPHDLOO": "",
                "CEBMBGKJACI": "NONE",
                "KPCALFDIHMC": "",
                "DBLNLMOPEBP": ""
            },
            {
                "$type": "OOMFCPJAJGL",
                "type": "STEER_TO",
                "duration": 0.800000011920929,
                "aliasList": [
                    "1016"
                ],
                "DMGIIHNDNLC": "ABSOLUTE",
                "PLAPKCOMAKJ": {
                    "x": -463.8420104980469,
                    "y": 201.27200317382812,
                    "z": -832.0980224609375
                },
                "HCMINPNPFDF": true,
                "OMCCMPHDLOO": "",
                "DBLNLMOPEBP": ""
            },
            {
                "$type": "MoleMole.Config.ConfigTimeProtectAction",
                "type": "TIME_PROTECT",
                "duration": 1.1139999628067017
            },
            {
                "$type": "DLPFECMKEKH",
                "type": "DIALOG_CLEAR",
                "NMKEDPFEKBH": 110133002
            },
            {
                "$type": "MOOOKOKLLEI",
                "type": "CAMERA_MOVE",
                "duration": 1.0,
                "DOKGBCKOLJK": {
                    "x": -464.8630065917969,
                    "y": 202.5449981689453,
                    "z": -832.8590087890625
                },
                "HGKCPMDICGG": {
                    "x": -463.9859924316406,
                    "y": 202.38900756835938,
                    "z": -832.4039916992188
                },
                "MGMFMGNANHH": 6,
                "NDFGFJFGHKL": "EaseInOutCubic",
                "IBCBGNHCICN": {},
                "BNBBLLBEIDL": true,
                "NHNPMMBMCFC": 0.0430000014603138,
                "HCPFCAHMGMO": false,
                "OMCCMPHDLOO": "",
                "FEFNBKOHPOG": true,
                "OCFGGGHIKOO": "",
                "LJFHGGJDPHH": "",
                "LPKDFKLNEHL": ""
            },
            {
                "$type": "MOOOKOKLLEI",
                "type": "CAMERA_MOVE",
                "delayTime": 0.10000000149011612,
                "duration": 8.847000122070312,
                "DOKGBCKOLJK": {
                    "x": -464.8949890136719,
                    "y": 202.54600524902344,
                    "z": -832.7960205078125
                },
                "HGKCPMDICGG": {
                    "x": -464.01800537109375,
                    "y": 202.38999938964844,
                    "z": -832.3410034179688
                },
                "NDFGFJFGHKL": "EaseOutQuad",
                "IBCBGNHCICN": {},
                "BNBBLLBEIDL": true,
                "NHNPMMBMCFC": 0.0430000014603138,
                "HCPFCAHMGMO": false,
                "OMCCMPHDLOO": "",
                "FEFNBKOHPOG": true,
                "OCFGGGHIKOO": "",
                "LJFHGGJDPHH": "",
                "LPKDFKLNEHL": ""
            },
            {
                "$type": "CJKIHIFAALJ",
                "type": "LOOK_AT_EYECTRL",
                "delayTime": 0.3230000138282776,
                "aliasList": [
                    "1016"
                ],
                "useTargetPos": false,
                "KOPLMCFNFEH": {
                    "x": 3.0
                },
                "DONDAIFPGMK": {
                    "x": 3.0
                },
                "BJMEKPDGMPA": 0.30000001192092896,
                "OMCCMPHDLOO": "",
                "OPPBKKOPIOB": "Face"
            },
            {
                "$type": "DLPFECMKEKH",
                "type": "DIALOG",
                "delayTime": 0.871999979019165,
                "aliasList": [
                    "1016"
                ],
                "NMKEDPFEKBH": 110133008,
                "JLCHMAJCAPA": 0.5
            },
            {
                "$type": "OPCCDGPJCJI",
                "type": "EMO_SYNC",
                "delayTime": 0.871999979019165,
                "aliasList": [
                    "1016"
                ],
                "IONNJBCBACJ": "Cs_Emo_Avatar_Simple_Common_Set/Cs_Emo_Avatar_Talk/Cs_Emo_Avatar_MainLine/Cs_Emo_Avatar_LiYue04/Cs_Emo_110133008",
                "HLEJKBCMNNJ": "",
                "JGHLJJLNGPP": "",
                "MANNKIIBOFM": "",
                "COMNAAFDEDH": "",
                "CPGCCLNOCDK": "",
                "IGEFGCJKCPM": [
                    8778947510613100160,
                    15724706811086971859,
                    11662112467220328959,
                    8630973922476545181
                ]
            },
            {
                "$type": "ILCGAGEGDJI",
                "type": "BODY_LANG",
                "delayTime": 1.0269999504089355,
                "aliasList": [
                    "1016"
                ],
                "FLBOOPHHFJP": 1171,
                "PMJAMGLAJGK": true,
                "LIMPPBIAKGL": false,
                "FNDLJGEAMGI": ""
            },
            {
                "$type": "MoleMole.Config.ConfigTimeProtectAction",
                "type": "TIME_PROTECT",
                "delayTime": 1.1720000505447388,
                "duration": 0.5
            },
            {
                "$type": "EAMBKPBOPIC",
                "type": "LOOK_AT",
                "delayTime": 1.5740000009536743,
                "aliasList": [
                    "1016"
                ],
                "FIDJDPAIFDN": true,
                "BCHGCKLKNEH": 0.5,
                "OMCCMPHDLOO": "Avatar",
                "KPCALFDIHMC": "",
                "DBLNLMOPEBP": ""
            },
            {
                "$type": "CJKIHIFAALJ",
                "type": "LOOK_AT_EYECTRL",
                "delayTime": 2.384000062942505,
                "aliasList": [
                    "1016"
                ],
                "useTargetPos": false,
                "KOPLMCFNFEH": {
                    "x": -3.0
                },
                "DONDAIFPGMK": {
                    "x": -3.0
                },
                "BJMEKPDGMPA": 0.30000001192092896,
                "OMCCMPHDLOO": "",
                "OPPBKKOPIOB": "Face"
            },
            {
                "$type": "ILCGAGEGDJI",
                "type": "BODY_LANG",
                "delayTime": 5.063000202178955,
                "aliasList": [
                    "1016"
                ],
                "JLABKFNJCNP": true,
                "PMJAMGLAJGK": true,
                "LIMPPBIAKGL": false,
                "FNDLJGEAMGI": ""
            }
        ],
        [
            {
                "$type": "ILCGAGEGDJI",
                "type": "BODY_LANG",
                "aliasList": [
                    "1016"
                ],
                "JLABKFNJCNP": true,
                "PMJAMGLAJGK": true,
                "LIMPPBIAKGL": false,
                "FNDLJGEAMGI": ""
            },
            {
                "$type": "OPCCDGPJCJI",
                "type": "EMO_SYNC",
                "aliasList": [
                    "1016"
                ],
                "IONNJBCBACJ": "Cs_Emo_Avatar_Simple_Common_Set/Cs_Emo_Avatar_Talk/Cs_Emo_Avatar_MainLine/Cs_Emo_Avatar_LiYue04/Cs_Emo_110133009",
                "HLEJKBCMNNJ": "",
                "JGHLJJLNGPP": "",
                "MANNKIIBOFM": "",
                "COMNAAFDEDH": "",
                "CPGCCLNOCDK": "",
                "IGEFGCJKCPM": [
                    8366319008753255479,
                    4044832221911065162,
                    2511866080218824030,
                    5047566964633922562
                ]
            },
            {
                "$type": "EAMBKPBOPIC",
                "type": "LOOK_AT",
                "aliasList": [
                    "1016"
                ],
                "FIDJDPAIFDN": true,
                "useTargetPos": true,
                "GFKIMGBGADJ": true,
                "GMKIJKADNHN": {
                    "x": -462.947998046875,
                    "y": 202.48500061035156,
                    "z": -832.2310180664062
                },
                "BCHGCKLKNEH": 0.5,
                "OMCCMPHDLOO": "",
                "CEBMBGKJACI": "NONE",
                "KPCALFDIHMC": "",
                "DBLNLMOPEBP": ""
            },
            {
                "$type": "CJKIHIFAALJ",
                "type": "LOOK_AT_EYECTRL",
                "aliasList": [
                    "1016"
                ],
                "useTargetPos": false,
                "KOPLMCFNFEH": {
                    "x": 4.0
                },
                "DONDAIFPGMK": {
                    "x": 4.0
                },
                "BJMEKPDGMPA": 0.20000000298023224,
                "OMCCMPHDLOO": "",
                "OPPBKKOPIOB": "Face"
            },
            {
                "$type": "MOOOKOKLLEI",
                "type": "CAMERA_MOVE",
                "duration": 1.0,
                "DOKGBCKOLJK": {
                    "x": -463.0679931640625,
                    "y": 203.02200317382812,
                    "z": -827.2650146484375
                },
                "HGKCPMDICGG": {
                    "x": -462.95098876953125,
                    "y": 202.80099487304688,
                    "z": -828.2329711914062
                },
                "AFODHELHCGB": 35.0,
                "MGMFMGNANHH": 6,
                "NDFGFJFGHKL": "EaseInOutCubic",
                "IBCBGNHCICN": {},
                "BNBBLLBEIDL": true,
                "NHNPMMBMCFC": 0.04399999976158142,
                "HCPFCAHMGMO": false,
                "OMCCMPHDLOO": "",
                "FEFNBKOHPOG": true,
                "OCFGGGHIKOO": "",
                "LJFHGGJDPHH": "",
                "LPKDFKLNEHL": ""
            },
            {
                "$type": "DLPFECMKEKH",
                "type": "DIALOG",
                "aliasList": [
                    "1016"
                ],
                "NMKEDPFEKBH": 110133009,
                "JLCHMAJCAPA": 0.5
            },
            {
                "$type": "MOOOKOKLLEI",
                "type": "CAMERA_MOVE",
                "delayTime": 0.10000000149011612,
                "duration": 14.692999839782715,
                "DOKGBCKOLJK": {
                    "x": -463.38800048828125,
                    "y": 203.0050048828125,
                    "z": -827.2999877929688
                },
                "HGKCPMDICGG": {
                    "x": -463.27099609375,
                    "y": 202.78399658203125,
                    "z": -828.2680053710938
                },
                "AFODHELHCGB": 35.0,
                "NDFGFJFGHKL": "EaseOutQuad",
                "IBCBGNHCICN": {},
                "BNBBLLBEIDL": true,
                "NHNPMMBMCFC": 0.04399999976158142,
                "HCPFCAHMGMO": false,
                "OMCCMPHDLOO": "",
                "FEFNBKOHPOG": true,
                "OCFGGGHIKOO": "",
                "LJFHGGJDPHH": "",
                "LPKDFKLNEHL": ""
            },
            {
                "$type": "ILCGAGEGDJI",
                "type": "BODY_LANG",
                "delayTime": 0.6370000243186951,
                "aliasList": [
                    "1016"
                ],
                "FLBOOPHHFJP": 1220,
                "PMJAMGLAJGK": true,
                "LIMPPBIAKGL": false,
                "FNDLJGEAMGI": ""
            },
            {
                "$type": "CJKIHIFAALJ",
                "type": "LOOK_AT_EYECTRL",
                "delayTime": 2.072999954223633,
                "aliasList": [
                    "1016"
                ],
                "useTargetPos": false,
                "BJMEKPDGMPA": 0.20000000298023224,
                "OMCCMPHDLOO": "",
                "OPPBKKOPIOB": "Face"
            },
            {
                "$type": "EAMBKPBOPIC",
                "type": "LOOK_AT",
                "delayTime": 2.11299991607666,
                "aliasList": [
                    "1016"
                ],
                "FIDJDPAIFDN": true,
                "BCHGCKLKNEH": 0.5,
                "OMCCMPHDLOO": "Avatar",
                "KPCALFDIHMC": "",
                "DBLNLMOPEBP": ""
            },
            {
                "$type": "ILCGAGEGDJI",
                "type": "BODY_LANG",
                "delayTime": 2.575000047683716,
                "aliasList": [
                    "1016"
                ],
                "FLBOOPHHFJP": 1221,
                "PMJAMGLAJGK": true,
                "LIMPPBIAKGL": false,
                "FNDLJGEAMGI": ""
            },
            {
                "$type": "ILCGAGEGDJI",
                "type": "BODY_LANG",
                "delayTime": 5.125999927520752,
                "aliasList": [
                    "1016"
                ],
                "JLABKFNJCNP": true,
                "PMJAMGLAJGK": true,
                "LIMPPBIAKGL": false,
                "FNDLJGEAMGI": ""
            }
        ],
        [
            {
                "$type": "MoleMole.Config.ConfigVisibleInterAction",
                "type": "VISIBLE",
                "aliasList": [
                    "1016"
                ],
                "extraParam": ""
            },
            {
                "$type": "OPCCDGPJCJI",
                "type": "EMO_SYNC",
                "aliasList": [
                    "1016"
                ],
                "IONNJBCBACJ": "Cs_Emo_Avatar_Simple_Common_Set/Cs_Emo_Avatar_Talk/Cs_Emo_Avatar_MainLine/Cs_Emo_Avatar_LiYue04/Cs_Emo_110133010",
                "HLEJKBCMNNJ": "",
                "JGHLJJLNGPP": "",
                "MANNKIIBOFM": "",
                "COMNAAFDEDH": "",
                "CPGCCLNOCDK": "",
                "IGEFGCJKCPM": [
                    10868076561187564433,
                    15193113405509113939,
                    16682369300502367530,
                    2929479348309021193
                ]
            },
            {
                "$type": "CJKIHIFAALJ",
                "type": "LOOK_AT_EYECTRL",
                "aliasList": [
                    "1016"
                ],
                "useTargetPos": false,
                "BJMEKPDGMPA": 0.20000000298023224,
                "OMCCMPHDLOO": "",
                "OPPBKKOPIOB": "Face"
            },
            {
                "$type": "MOOOKOKLLEI",
                "type": "CAMERA_MOVE",
                "duration": 1.0,
                "DOKGBCKOLJK": {
                    "x": -464.302001953125,
                    "y": 203.8249969482422,
                    "z": -831.3670043945312
                },
                "HGKCPMDICGG": {
                    "x": -463.4339904785156,
                    "y": 203.36500549316406,
                    "z": -831.1810302734375
                },
                "MGMFMGNANHH": 6,
                "NDFGFJFGHKL": "EaseInOutCubic",
                "IBCBGNHCICN": {},
                "BNBBLLBEIDL": true,
                "NHNPMMBMCFC": 0.04800000041723251,
                "HCPFCAHMGMO": false,
                "OMCCMPHDLOO": "",
                "FEFNBKOHPOG": true,
                "OCFGGGHIKOO": "",
                "LJFHGGJDPHH": "",
                "LPKDFKLNEHL": ""
            },
            {
                "$type": "DLPFECMKEKH",
                "type": "DIALOG",
                "aliasList": [
                    "1016"
                ],
                "NMKEDPFEKBH": 110133010,
                "JLCHMAJCAPA": 0.5
            },
            {
                "$type": "MOOOKOKLLEI",
                "type": "CAMERA_MOVE",
                "delayTime": 0.10000000149011612,
                "duration": 27.006000518798828,
                "DOKGBCKOLJK": {
                    "x": -464.1669921875,
                    "y": 203.0850067138672,
                    "z": -832.1580200195312
                },
                "HGKCPMDICGG": {
                    "x": -463.2950134277344,
                    "y": 202.7949981689453,
                    "z": -831.7639770507812
                },
                "NDFGFJFGHKL": "EaseOutQuad",
                "IBCBGNHCICN": {},
                "BNBBLLBEIDL": true,
                "NHNPMMBMCFC": 0.04500000178813934,
                "HCPFCAHMGMO": false,
                "OMCCMPHDLOO": "",
                "FEFNBKOHPOG": true,
                "OCFGGGHIKOO": "",
                "LJFHGGJDPHH": "",
                "LPKDFKLNEHL": ""
            }
        ],
        [
            {
                "$type": "OPCCDGPJCJI",
                "type": "EMO_SYNC",
                "aliasList": [
                    "1016"
                ],
                "IONNJBCBACJ": "Cs_Emo_Avatar_Simple_Common_Set/Cs_Emo_Avatar_Talk/Cs_Emo_Avatar_MainLine/Cs_Emo_Avatar_LiYue04/Cs_Emo_110133011",
                "HLEJKBCMNNJ": "",
                "JGHLJJLNGPP": "",
                "MANNKIIBOFM": "",
                "COMNAAFDEDH": "",
                "CPGCCLNOCDK": "",
                "IGEFGCJKCPM": [
                    11890374700659570859,
                    3864518228814195155,
                    6806651207483369753,
                    16640045774957795953
                ]
            },
            {
                "$type": "OOMFCPJAJGL",
                "type": "STEER_TO",
                "duration": 0.800000011920929,
                "aliasList": [
                    "1016"
                ],
                "DMGIIHNDNLC": "ABSOLUTE",
                "PLAPKCOMAKJ": {
                    "x": -463.5480041503906,
                    "y": 201.0469970703125,
                    "z": -833.1279907226562
                },
                "HCMINPNPFDF": true,
                "OMCCMPHDLOO": "",
                "DBLNLMOPEBP": ""
            },
            {
                "$type": "MoleMole.Config.ConfigVisibleInterAction",
                "type": "VISIBLE",
                "aliasList": [
                    "1016"
                ],
                "isVisible": true,
                "extraParam": ""
            },
            {
                "$type": "EAMBKPBOPIC",
                "type": "LOOK_AT",
                "aliasList": [
                    "1016"
                ],
                "BCHGCKLKNEH": 0.5,
                "OMCCMPHDLOO": "",
                "KPCALFDIHMC": "",
                "DBLNLMOPEBP": ""
            },
            {
                "$type": "MOOOKOKLLEI",
                "type": "CAMERA_MOVE",
                "duration": 1.0,
                "DOKGBCKOLJK": {
                    "x": -463.12298583984375,
                    "y": 202.78399658203125,
                    "z": -836.0659790039062
                },
                "HGKCPMDICGG": {
                    "x": -463.2130126953125,
                    "y": 202.531005859375,
                    "z": -835.10302734375
                },
                "MGMFMGNANHH": 6,
                "NDFGFJFGHKL": "EaseInOutCubic",
                "IBCBGNHCICN": {},
                "BNBBLLBEIDL": true,
                "NHNPMMBMCFC": 0.04399999976158142,
                "HCPFCAHMGMO": false,
                "OMCCMPHDLOO": "",
                "FEFNBKOHPOG": true,
                "OCFGGGHIKOO": "",
                "LJFHGGJDPHH": "",
                "LPKDFKLNEHL": ""
            },
            {
                "$type": "DLPFECMKEKH",
                "type": "DIALOG",
                "aliasList": [
                    "1016"
                ],
                "NMKEDPFEKBH": 110133011,
                "JLCHMAJCAPA": 0.5
            },
            {
                "$type": "ILCGAGEGDJI",
                "type": "BODY_LANG",
                "aliasList": [
                    "1016"
                ],
                "JLABKFNJCNP": true,
                "PMJAMGLAJGK": true,
                "LIMPPBIAKGL": false,
                "FNDLJGEAMGI": ""
            },
            {
                "$type": "MOOOKOKLLEI",
                "type": "CAMERA_MOVE",
                "delayTime": 0.10000000149011612,
                "duration": 13.39799976348877,
                "DOKGBCKOLJK": {
                    "x": -463.36199951171875,
                    "y": 202.7790069580078,
                    "z": -836.0889892578125
                },
                "HGKCPMDICGG": {
                    "x": -463.4519958496094,
                    "y": 202.5260009765625,
                    "z": -835.1259765625
                },
                "NDFGFJFGHKL": "EaseOutQuad",
                "IBCBGNHCICN": {},
                "BNBBLLBEIDL": true,
                "NHNPMMBMCFC": 0.04399999976158142,
                "HCPFCAHMGMO": false,
                "OMCCMPHDLOO": "",
                "FEFNBKOHPOG": true,
                "OCFGGGHIKOO": "",
                "LJFHGGJDPHH": "",
                "LPKDFKLNEHL": ""
            },
            {
                "$type": "EAMBKPBOPIC",
                "type": "LOOK_AT",
                "delayTime": 0.546999990940094,
                "aliasList": [
                    "1016"
                ],
                "FIDJDPAIFDN": true,
                "BCHGCKLKNEH": 0.5,
                "OMCCMPHDLOO": "Avatar",
                "KPCALFDIHMC": "",
                "DBLNLMOPEBP": ""
            },
            {
                "$type": "ILCGAGEGDJI",
                "type": "BODY_LANG",
                "delayTime": 1.1990000009536743,
                "aliasList": [
                    "1016"
                ],
                "FLBOOPHHFJP": 1173,
                "PMJAMGLAJGK": true,
                "LIMPPBIAKGL": false,
                "FNDLJGEAMGI": ""
            },
            {
                "$type": "ILCGAGEGDJI",
                "type": "BODY_LANG",
                "delayTime": 5.067999839782715,
                "aliasList": [
                    "1016"
                ],
                "JLABKFNJCNP": true,
                "PMJAMGLAJGK": true,
                "LIMPPBIAKGL": false,
                "FNDLJGEAMGI": ""
            }
        ],
        [
            {
                "$type": "ILCGAGEGDJI",
                "type": "BODY_LANG",
                "aliasList": [
                    "1016"
                ],
                "JLABKFNJCNP": true,
                "PMJAMGLAJGK": true,
                "LIMPPBIAKGL": false,
                "FNDLJGEAMGI": ""
            },
            {
                "$type": "OPCCDGPJCJI",
                "type": "EMO_SYNC",
                "aliasList": [
                    "1016"
                ],
                "IONNJBCBACJ": "Cs_Emo_Avatar_Simple_Common_Set/Cs_Emo_Avatar_Talk/Cs_Emo_Avatar_MainLine/Cs_Emo_Avatar_LiYue04/Cs_Emo_110133012",
                "HLEJKBCMNNJ": "",
                "JGHLJJLNGPP": "",
                "MANNKIIBOFM": "",
                "COMNAAFDEDH": "",
                "CPGCCLNOCDK": "",
                "IGEFGCJKCPM": [
                    2479580651502642370,
                    9282225586677773567,
                    12192161502930786755,
                    15520384417042224506
                ]
            },
            {
                "$type": "DLPFECMKEKH",
                "type": "DIALOG",
                "aliasList": [
                    "1016"
                ],
                "NMKEDPFEKBH": 110133012,
                "JLCHMAJCAPA": 0.5
            },
            {
                "$type": "MOOOKOKLLEI",
                "type": "CAMERA_MOVE",
                "duration": 1.0,
                "DOKGBCKOLJK": {
                    "x": -463.5270080566406,
                    "y": 202.56399536132812,
                    "z": -834.0800170898438
                },
                "HGKCPMDICGG": {
                    "x": -463.33099365234375,
                    "y": 202.5,
                    "z": -833.1019897460938
                },
                "AFODHELHCGB": 25.0,
                "MGMFMGNANHH": 6,
                "NDFGFJFGHKL": "EaseInOutCubic",
                "IBCBGNHCICN": {},
                "BNBBLLBEIDL": true,
                "NHNPMMBMCFC": 0.0430000014603138,
                "HCPFCAHMGMO": false,
                "OMCCMPHDLOO": "",
                "FEFNBKOHPOG": true,
                "OCFGGGHIKOO": "",
                "LJFHGGJDPHH": "",
                "LPKDFKLNEHL": ""
            },
            {
                "$type": "MOOOKOKLLEI",
                "type": "CAMERA_MOVE",
                "delayTime": 0.10000000149011612,
                "duration": 11.1899995803833,
                "DOKGBCKOLJK": {
                    "x": -463.5069885253906,
                    "y": 202.55799865722656,
                    "z": -833.9819946289062
                },
                "HGKCPMDICGG": {
                    "x": -463.3110046386719,
                    "y": 202.49400329589844,
                    "z": -833.0040283203125
                },
                "AFODHELHCGB": 25.0,
                "NDFGFJFGHKL": "EaseOutQuad",
                "IBCBGNHCICN": {},
                "BNBBLLBEIDL": true,
                "NHNPMMBMCFC": 0.0430000014603138,
                "HCPFCAHMGMO": false,
                "OMCCMPHDLOO": "",
                "FEFNBKOHPOG": true,
                "OCFGGGHIKOO": "",
                "LJFHGGJDPHH": "",
                "LPKDFKLNEHL": ""
            },
            {
                "$type": "CJKIHIFAALJ",
                "type": "LOOK_AT_EYECTRL",
                "delayTime": 0.7400000095367432,
                "aliasList": [
                    "1016"
                ],
                "useTargetPos": false,
                "KOPLMCFNFEH": {
                    "x": 2.0,
                    "y": -2.0
                },
                "DONDAIFPGMK": {
                    "x": 2.0,
                    "y": 2.0
                },
                "BJMEKPDGMPA": 0.20000000298023224,
                "OMCCMPHDLOO": "",
                "OPPBKKOPIOB": "Face"
            },
            {
                "$type": "ILCGAGEGDJI",
                "type": "BODY_LANG",
                "delayTime": 0.7710000276565552,
                "aliasList": [
                    "1016"
                ],
                "FLBOOPHHFJP": 1171,
                "PMJAMGLAJGK": true,
                "LIMPPBIAKGL": false,
                "FNDLJGEAMGI": ""
            },
            {
                "$type": "ILCGAGEGDJI",
                "type": "BODY_LANG",
                "delayTime": 4.685999870300293,
                "aliasList": [
                    "1016"
                ],
                "JLABKFNJCNP": true,
                "PMJAMGLAJGK": true,
                "LIMPPBIAKGL": false,
                "FNDLJGEAMGI": ""
            }
        ],
        [
            {
                "$type": "MoleMole.Config.ConfigTimeProtectAction",
                "type": "TIME_PROTECT",
                "duration": 0.10000000149011612
            }
        ],
        [
            {
                "$type": "DLPFECMKEKH",
                "type": "DIALOG_CLEAR",
                "NMKEDPFEKBH": 110133012
            },
            {
                "$type": "MoleMole.Config.ConfigTimeProtectAction",
                "type": "TIME_PROTECT",
                "duration": 0.699999988079071
            },
            {
                "$type": "MoleMole.Config.ConfigSimpleBlackScreenAction",
                "type": "SIMPLE_BLACK_SCREEN",
                "durationToBlack": 0.5,
                "durationKeepBlack": 1.0,
                "durationFromBlack": 0.5,
                "textMapID": "",
                "useTextFade": true
            },
            {
                "$type": "MoleMole.Config.ConfigVisibleInterAction",
                "type": "VISIBLE",
                "delayTime": 0.6000000238418579,
                "aliasList": [
                    "1045"
                ],
                "extraParam": ""
            },
            {
                "$type": "ILCGAGEGDJI",
                "type": "BODY_LANG",
                "delayTime": 0.6000000238418579,
                "aliasList": [
                    "1016"
                ],
                "PMJAMGLAJGK": true,
                "LIMPPBIAKGL": false,
                "FNDLJGEAMGI": ""
            },
            {
                "$type": "MOOOKOKLLEI",
                "type": "CAMERA_MOVE",
                "delayTime": 0.6000000238418579,
                "duration": 0.10000000149011612,
                "DOKGBCKOLJK": {
                    "x": -465.5010070800781,
                    "y": 202.3249969482422,
                    "z": -835.781005859375
                },
                "HGKCPMDICGG": {
                    "x": -464.96099853515625,
                    "y": 202.06300354003906,
                    "z": -834.9810180664062
                },
                "MGMFMGNANHH": 6,
                "NDFGFJFGHKL": "EaseInOutCubic",
                "IBCBGNHCICN": {},
                "BNBBLLBEIDL": true,
                "NHNPMMBMCFC": 0.04399999976158142,
                "HCPFCAHMGMO": false,
                "OMCCMPHDLOO": "",
                "FEFNBKOHPOG": true,
                "OCFGGGHIKOO": "",
                "LJFHGGJDPHH": "",
                "LPKDFKLNEHL": ""
            }
        ]
    ],
    "groupId": [
        {
            "grpId": 2659162221,
            "nextGrpId": 2659162222
        },
        {
            "index": 1,
            "grpId": 2659162222,
            "nextGrpId": 2659162223
        },
        {
            "index": 2,
            "grpId": 2659162223,
            "nextGrpId": 2659162224
        },
        {
            "index": 3,
            "grpId": 2659162224,
            "nextGrpId": 2659162225
        },
        {
            "index": 4,
            "grpId": 2659162225,
            "nextGrpId": 2659162226
        },
        {
            "index": 5,
            "grpId": 2659162226,
            "nextGrpId": 829650277
        },
        {
            "index": 6,
            "grpId": 2659162227,
            "nextGrpId": 2659162228
        },
        {
            "index": 7,
            "grpId": 2659162228,
            "nextGrpId": 2659162229
        },
        {
            "index": 8,
            "grpId": 2659162229,
            "nextGrpId": 829650275
        },
        {
            "index": 9,
            "grpId": 829650275,
            "nextGrpId": 829650276
        },
        {
            "index": 10,
            "grpId": 829650276,
            "nextGrpId": 829650277
        },
        {
            "index": 11,
            "grpId": 829650277,
            "nextGrpId": 829650278
        },
        {
            "index": 12,
            "grpId": 829650278,
            "nextGrpId": 829650279
        }
    ],
    "freeStyleDic": {
        "1016": [
            1190,
            1171,
            1172,
            4040,
            1220,
            1221,
            1173
        ],
        "12349": [],
        "12373": [],
        "1045": []
    }
}