{
    "luaDataPath": "",
    "entityBan": "",
    "disableNpcLod": true,
    "startFade": {
        "startFadeOutDuration": 0.0
    },
    "endFade": {
        "startFadeOutDuration": 0.0
    },
    "actors": [
        {
            "alias": "Avatar",
            "visible": true,
            "bornPointName": "",
            "relativePosNpcAlias": "",
            "bindMovingTargetKey": ""
        },
        {
            "configID": 30120,
            "alias": "30120",
            "visible": true,
            "bornPointName": "",
            "relativePosNpcAlias": "",
            "bindMovingTargetKey": ""
        }
    ],
    "group": [
        [
            {
                "$type": "OOMFCPJAJGL",
                "type": "STEER_TO",
                "duration": 0.800000011920929,
                "aliasList": [
                    "Avatar"
                ],
                "DMGIIHNDNLC": "TO_TARGET_ADVANCED",
                "HCMINPNPFDF": true,
                "PENAEBFAHCH": true,
                "CKOEAJFMDON": true,
                "OMCCMPHDLOO": "30120",
                "DBLNLMOPEBP": ""
            },
            {
                "$type": "EAMBKPBOPIC",
                "type": "LOOK_AT",
                "aliasList": [
                    "30120"
                ],
                "FIDJDPAIFDN": true,
                "BCHGCKLKNEH": 0.5,
                "OMCCMPHDLOO": "Avatar",
                "KPCALFDIHMC": "",
                "DBLNLMOPEBP": ""
            },
            {
                "$type": "OOMFCPJAJGL",
                "type": "STEER_TO",
                "duration": 0.800000011920929,
                "aliasList": [
                    "30120"
                ],
                "DMGIIHNDNLC": "TO_TARGET_ADVANCED",
                "HCMINPNPFDF": true,
                "PENAEBFAHCH": true,
                "CKOEAJFMDON": true,
                "OMCCMPHDLOO": "Avatar",
                "DBLNLMOPEBP": ""
            },
            {
                "$type": "MOOOKOKLLEI",
                "type": "CAMERA_FOCUS",
                "duration": 0.10000000149011612,
                "OMCCMPHDLOO": "",
                "OCFGGGHIKOO": "",
                "LJFHGGJDPHH": "",
                "LPKDFKLNEHL": ""
            },
            {
                "$type": "MoleMole.Config.ConfigTimeProtectAction",
                "type": "TIME_PROTECT",
                "duration": 0.5
            },
            {
                "$type": "EAMBKPBOPIC",
                "type": "LOOK_AT",
                "aliasList": [
                    "Avatar"
                ],
                "FIDJDPAIFDN": true,
                "BCHGCKLKNEH": 0.5,
                "OMCCMPHDLOO": "30120",
                "KPCALFDIHMC": "",
                "DBLNLMOPEBP": ""
            }
        ],
        [
            {
                "$type": "OPCCDGPJCJI",
                "type": "EMO_SYNC",
                "aliasList": [
                    "30120"
                ],
                "IONNJBCBACJ": "Cs_Emo_Avatar_Simple_Common_Set/Cs_Emo_Avatar_Talk/Cs_Emo_Avatar_Event/Cs_Emo_Avatar_HaiDeng02/Cs_Emo_716581101",
                "HLEJKBCMNNJ": "",
                "JGHLJJLNGPP": "",
                "MANNKIIBOFM": "",
                "COMNAAFDEDH": "",
                "CPGCCLNOCDK": "",
                "IGEFGCJKCPM": [
                    16967439697486958603,
                    16243234968968280995,
                    18287758620055108558,
                    14467573373499981935
                ]
            },
            {
                "$type": "ILCGAGEGDJI",
                "type": "BODY_LANG",
                "aliasList": [
                    "30120"
                ],
                "FLBOOPHHFJP": 1190,
                "PMJAMGLAJGK": true,
                "LIMPPBIAKGL": false,
                "FNDLJGEAMGI": ""
            },
            {
                "$type": "DLPFECMKEKH",
                "type": "DIALOG",
                "aliasList": [
                    "30120"
                ],
                "NMKEDPFEKBH": 716581101,
                "JLCHMAJCAPA": 0.5
            }
        ],
        [
            {
                "$type": "OPCCDGPJCJI",
                "type": "EMO_SYNC",
                "aliasList": [
                    "30120"
                ],
                "IONNJBCBACJ": "Cs_Emo_Avatar_Simple_Common_Set/Cs_Emo_Avatar_Talk/Cs_Emo_Avatar_Event/Cs_Emo_Avatar_HaiDeng02/Cs_Emo_716581102",
                "HLEJKBCMNNJ": "",
                "JGHLJJLNGPP": "",
                "MANNKIIBOFM": "",
                "COMNAAFDEDH": "",
                "CPGCCLNOCDK": "",
                "IGEFGCJKCPM": [
                    7067878588233517373,
                    15478151314126046547,
                    12531721787227220976,
                    11783220713775186434
                ]
            },
            {
                "$type": "ILCGAGEGDJI",
                "type": "BODY_LANG",
                "aliasList": [
                    "30120"
                ],
                "JLABKFNJCNP": true,
                "PMJAMGLAJGK": true,
                "LIMPPBIAKGL": false,
                "FNDLJGEAMGI": ""
            },
            {
                "$type": "DLPFECMKEKH",
                "type": "DIALOG",
                "aliasList": [
                    "30120"
                ],
                "NMKEDPFEKBH": 716581102,
                "JLCHMAJCAPA": 0.5
            },
            {
                "$type": "ILCGAGEGDJI",
                "type": "BODY_LANG",
                "delayTime": 1.003999948501587,
                "aliasList": [
                    "30120"
                ],
                "FLBOOPHHFJP": 1171,
                "PMJAMGLAJGK": true,
                "LIMPPBIAKGL": false,
                "FNDLJGEAMGI": ""
            },
            {
                "$type": "ILCGAGEGDJI",
                "type": "BODY_LANG",
                "delayTime": 4.381999969482422,
                "aliasList": [
                    "30120"
                ],
                "FLBOOPHHFJP": 1172,
                "PMJAMGLAJGK": true,
                "LIMPPBIAKGL": false,
                "FNDLJGEAMGI": ""
            },
            {
                "$type": "ILCGAGEGDJI",
                "type": "BODY_LANG",
                "delayTime": 7.422999858856201,
                "aliasList": [
                    "30120"
                ],
                "FLBOOPHHFJP": 1120,
                "PMJAMGLAJGK": true,
                "LIMPPBIAKGL": false,
                "FNDLJGEAMGI": ""
            }
        ],
        [
            {
                "$type": "ILCGAGEGDJI",
                "type": "BODY_LANG",
                "aliasList": [
                    "30120"
                ],
                "JLABKFNJCNP": true,
                "PMJAMGLAJGK": true,
                "LIMPPBIAKGL": false,
                "FNDLJGEAMGI": ""
            },
            {
                "$type": "OPCCDGPJCJI",
                "type": "EMO_SYNC",
                "aliasList": [
                    "30120"
                ],
                "IONNJBCBACJ": "Cs_Emo_Avatar_Simple_Common_Set/Cs_Emo_Avatar_Talk/Cs_Emo_Avatar_Event/Cs_Emo_Avatar_HaiDeng02/Cs_Emo_716581103",
                "HLEJKBCMNNJ": "",
                "JGHLJJLNGPP": "",
                "MANNKIIBOFM": "",
                "COMNAAFDEDH": "",
                "CPGCCLNOCDK": "",
                "HINHCFHAMDI": false,
                "IGEFGCJKCPM": [
                    13687072469091348050,
                    2469107044393560647,
                    9574664679034174486,
                    15345252086550862815
                ]
            },
            {
                "$type": "DLPFECMKEKH",
                "type": "DIALOG",
                "aliasList": [
                    "30120"
                ],
                "NMKEDPFEKBH": 716581103,
                "JLCHMAJCAPA": 0.5
            },
            {
                "$type": "ECLBLHOENAG",
                "type": "DIALOG_SELECT",
                "delayTime": 0.4000000059604645,
                "aliasList": [
                    "Avatar"
                ],
                "NDMMOPDPKNF": [
                    716581104
                ],
                "FPDBIEGHMCD": [
                    3717617172
                ],
                "PKBOIGBGDEG": true
            }
        ],
        [
            {
                "$type": "ILCGAGEGDJI",
                "type": "BODY_LANG",
                "aliasList": [
                    "30120"
                ],
                "FLBOOPHHFJP": 1030,
                "PMJAMGLAJGK": true,
                "LIMPPBIAKGL": false,
                "FNDLJGEAMGI": ""
            },
            {
                "$type": "OPCCDGPJCJI",
                "type": "EMO_SYNC",
                "aliasList": [
                    "30120"
                ],
                "IONNJBCBACJ": "Cs_Emo_Avatar_Simple_Common_Set/Cs_Emo_Avatar_Talk/Cs_Emo_Avatar_Event/Cs_Emo_Avatar_HaiDeng02/Cs_Emo_716581105",
                "HLEJKBCMNNJ": "",
                "JGHLJJLNGPP": "",
                "MANNKIIBOFM": "",
                "COMNAAFDEDH": "",
                "CPGCCLNOCDK": "",
                "IGEFGCJKCPM": [
                    8475829855257445690,
                    11899769993892821032,
                    4880957505030995716,
                    8246801341963276929
                ]
            },
            {
                "$type": "DLPFECMKEKH",
                "type": "DIALOG",
                "aliasList": [
                    "30120"
                ],
                "NMKEDPFEKBH": 716581105,
                "JLCHMAJCAPA": 0.5
            },
            {
                "$type": "ECLBLHOENAG",
                "type": "DIALOG_SELECT",
                "delayTime": 0.4000000059604645,
                "aliasList": [
                    "Avatar"
                ],
                "NDMMOPDPKNF": [
                    716581106
                ],
                "FPDBIEGHMCD": [
                    3717617173
                ],
                "PKBOIGBGDEG": true
            }
        ],
        [
            {
                "$type": "OPCCDGPJCJI",
                "type": "EMO_SYNC",
                "aliasList": [
                    "30120"
                ],
                "IONNJBCBACJ": "Cs_Emo_Avatar_Simple_Common_Set/Cs_Emo_Avatar_Talk/Cs_Emo_Avatar_Event/Cs_Emo_Avatar_HaiDeng02/Cs_Emo_716581107",
                "HLEJKBCMNNJ": "",
                "JGHLJJLNGPP": "",
                "MANNKIIBOFM": "",
                "COMNAAFDEDH": "",
                "CPGCCLNOCDK": "",
                "IGEFGCJKCPM": [
                    10073174745133071855,
                    5039380270456509545,
                    5155422315240447402,
                    10622552654489292940
                ]
            },
            {
                "$type": "ILCGAGEGDJI",
                "type": "BODY_LANG",
                "aliasList": [
                    "30120"
                ],
                "JLABKFNJCNP": true,
                "PMJAMGLAJGK": true,
                "LIMPPBIAKGL": false,
                "FNDLJGEAMGI": ""
            },
            {
                "$type": "DLPFECMKEKH",
                "type": "DIALOG",
                "aliasList": [
                    "30120"
                ],
                "NMKEDPFEKBH": 716581107,
                "JLCHMAJCAPA": 0.5
            }
        ],
        [
            {
                "$type": "OPCCDGPJCJI",
                "type": "EMO_SYNC",
                "aliasList": [
                    "30120"
                ],
                "IONNJBCBACJ": "Cs_Emo_Avatar_Simple_Common_Set/Cs_Emo_Avatar_Talk/Cs_Emo_Avatar_Event/Cs_Emo_Avatar_HaiDeng02/Cs_Emo_716581108",
                "HLEJKBCMNNJ": "",
                "JGHLJJLNGPP": "",
                "MANNKIIBOFM": "",
                "COMNAAFDEDH": "",
                "CPGCCLNOCDK": "",
                "HINHCFHAMDI": false,
                "IGEFGCJKCPM": [
                    8045372572905012285,
                    8310839687928297514,
                    11063401002504881261,
                    12533796160141728077
                ]
            },
            {
                "$type": "ILCGAGEGDJI",
                "type": "BODY_LANG",
                "aliasList": [
                    "30120"
                ],
                "FLBOOPHHFJP": 1090,
                "PMJAMGLAJGK": true,
                "LIMPPBIAKGL": false,
                "FNDLJGEAMGI": ""
            },
            {
                "$type": "DLPFECMKEKH",
                "type": "DIALOG",
                "aliasList": [
                    "30120"
                ],
                "NMKEDPFEKBH": 716581108,
                "JLCHMAJCAPA": 0.5
            }
        ],
        [
            {
                "$type": "OPCCDGPJCJI",
                "type": "EMO_SYNC",
                "aliasList": [
                    "30120"
                ],
                "IONNJBCBACJ": "Cs_Emo_Avatar_Simple_Common_Set/Cs_Emo_Avatar_Talk/Cs_Emo_Avatar_Event/Cs_Emo_Avatar_HaiDeng02/Cs_Emo_716581109",
                "HLEJKBCMNNJ": "",
                "JGHLJJLNGPP": "",
                "MANNKIIBOFM": "",
                "COMNAAFDEDH": "",
                "CPGCCLNOCDK": "",
                "IGEFGCJKCPM": [
                    1172361951732289595,
                    7770381350333723577,
                    91612744901729560,
                    13913078321042241378
                ]
            },
            {
                "$type": "ILCGAGEGDJI",
                "type": "BODY_LANG",
                "aliasList": [
                    "30120"
                ],
                "JLABKFNJCNP": true,
                "PMJAMGLAJGK": true,
                "LIMPPBIAKGL": false,
                "FNDLJGEAMGI": ""
            },
            {
                "$type": "DLPFECMKEKH",
                "type": "DIALOG",
                "aliasList": [
                    "30120"
                ],
                "NMKEDPFEKBH": 716581109,
                "JLCHMAJCAPA": 0.5
            }
        ],
        [
            {
                "$type": "EAMBKPBOPIC",
                "type": "LOOK_AT",
                "aliasList": [
                    "30120"
                ],
                "BCHGCKLKNEH": 0.5,
                "OMCCMPHDLOO": "",
                "KPCALFDIHMC": "",
                "DBLNLMOPEBP": ""
            },
            {
                "$type": "OOMFCPJAJGL",
                "type": "STEER_TO",
                "duration": 0.800000011920929,
                "aliasList": [
                    "30120"
                ],
                "DMGIIHNDNLC": "RETURN",
                "HCMINPNPFDF": true,
                "PENAEBFAHCH": true,
                "CKOEAJFMDON": true,
                "OMCCMPHDLOO": "",
                "DBLNLMOPEBP": ""
            },
            {
                "$type": "MoleMole.Config.ConfigTimeProtectAction",
                "type": "TIME_PROTECT",
                "duration": 0.10000000149011612
            }
        ]
    ],
    "groupId": [
        {
            "grpId": 3717617168,
            "nextGrpId": 3717617169
        },
        {
            "index": 1,
            "grpId": 3717617169,
            "nextGrpId": 3717617170
        },
        {
            "index": 2,
            "grpId": 3717617170,
            "nextGrpId": 3717617171
        },
        {
            "index": 3,
            "grpId": 3717617171,
            "nextGrpId": 3717617172
        },
        {
            "index": 4,
            "grpId": 3717617172,
            "nextGrpId": 3717617173
        },
        {
            "index": 5,
            "grpId": 3717617173,
            "nextGrpId": 3717617174
        },
        {
            "index": 6,
            "grpId": 3717617174,
            "nextGrpId": 3717617175
        },
        {
            "index": 7,
            "grpId": 3717617175,
            "nextGrpId": 3717617176
        },
        {
            "index": 8,
            "grpId": 3717617176,
            "nextGrpId": 3576982560
        }
    ],
    "freeStyleDic": {
        "30120": [
            1190,
            1171,
            1172,
            1120,
            1030,
            1090
        ]
    }
}