{
    "luaDataPath": "",
    "startBlackKeepTime": 0.10000000149011612,
    "entityBan": "",
    "startFade": {
        "startFadeInDuration": 0.30000001192092896,
        "startFadeOutDuration": 0.30000001192092896
    },
    "endFade": {
        "startFadeOutDuration": 0.0
    },
    "actors": [
        {
            "alias": "Avatar",
            "visible": true,
            "bornPointName": "Q37109Player",
            "relativePosNpcAlias": "",
            "bindMovingTargetKey": ""
        },
        {
            "configID": 1243,
            "alias": "1243",
            "visible": true,
            "bornPointName": "Q37109Paimon",
            "relativePosNpcAlias": "",
            "bindMovingTargetKey": ""
        }
    ],
    "group": [
        [
            {
                "$type": "MOOOKOKLLEI",
                "type": "CAMERA_MOVE",
                "duration": 0.10000000149011612,
                "DOKGBCKOLJK": {
                    "x": 2272.94873046875,
                    "y": 230.256103515625,
                    "z": -813.9896240234375
                },
                "HGKCPMDICGG": {
                    "x": 2272.006103515625,
                    "y": 230.06948852539062,
                    "z": -814.2662963867188
                },
                "MGMFMGNANHH": 6,
                "IBCBGNHCICN": {},
                "OMCCMPHDLOO": "",
                "OCFGGGHIKOO": "",
                "LJFHGGJDPHH": "",
                "LPKDFKLNEHL": ""
            },
            {
                "$type": "MOOOKOKLLEI",
                "type": "CAMERA_MOVE",
                "delayTime": 0.10000000149011612,
                "duration": 2.0,
                "DOKGBCKOLJK": {
                    "x": 2271.437255859375,
                    "y": 227.85801696777344,
                    "z": -814.5732421875
                },
                "HGKCPMDICGG": {
                    "x": 2270.5244140625,
                    "y": 227.61572265625,
                    "z": -814.9017944335938
                },
                "AFODHELHCGB": 30.0,
                "IBCBGNHCICN": {},
                "OMCCMPHDLOO": "",
                "OCFGGGHIKOO": "",
                "LJFHGGJDPHH": "",
                "LPKDFKLNEHL": ""
            },
            {
                "$type": "EAMBKPBOPIC",
                "type": "LOOK_AT",
                "delayTime": 0.5,
                "aliasList": [
                    "Avatar"
                ],
                "FIDJDPAIFDN": true,
                "useTargetPos": true,
                "GFKIMGBGADJ": true,
                "GMKIJKADNHN": {
                    "x": 2268.054931640625,
                    "y": 227.35821533203125,
                    "z": -815.0231323242188
                },
                "BCHGCKLKNEH": 0.30000001192092896,
                "OMCCMPHDLOO": "",
                "KPCALFDIHMC": "",
                "DBLNLMOPEBP": ""
            },
            {
                "$type": "EAMBKPBOPIC",
                "type": "LOOK_AT",
                "aliasList": [
                    "Avatar"
                ],
                "FIDJDPAIFDN": true,
                "PBEEIPKGGKJ": true,
                "OMCCMPHDLOO": "",
                "KPCALFDIHMC": "",
                "DBLNLMOPEBP": ""
            },
            {
                "$type": "DLPFECMKEKH",
                "type": "DIALOG",
                "aliasList": [
                    "1243"
                ],
                "NMKEDPFEKBH": 3710901,
                "JLCHMAJCAPA": 0.6000000238418579
            },
            {
                "$type": "MOOOKOKLLEI",
                "type": "CAMERA_MOVE",
                "duration": 1.0,
                "aliasList": [
                    "1243"
                ],
                "DOKGBCKOLJK": {
                    "x": 2270.333984375,
                    "y": 227.96800231933594,
                    "z": -814.9219970703125
                },
                "HGKCPMDICGG": {
                    "x": 2269.448974609375,
                    "y": 227.6338348388672,
                    "z": -815.2464599609375
                },
                "OMPKKAFEHPN": 6.0,
                "MGMFMGNANHH": 6,
                "IBCBGNHCICN": {},
                "OMCCMPHDLOO": "",
                "OCFGGGHIKOO": "",
                "LJFHGGJDPHH": "",
                "LPKDFKLNEHL": ""
            },
            {
                "$type": "ILCGAGEGDJI",
                "type": "BODY_LANG",
                "aliasList": [
                    "1243"
                ],
                "FLBOOPHHFJP": 1090,
                "FNDLJGEAMGI": ""
            },
            {
                "$type": "OPCCDGPJCJI",
                "type": "EMO_SYNC",
                "aliasList": [
                    "1243"
                ],
                "IONNJBCBACJ": "Cs_Emo_Avatar_Simple_Common_Set/Cs_Emo_Avatar_Talk/Cs_Emo_Avatar_MainLine/Cs_Emo_Avatar_MengDe/Cs_Emo_3710901",
                "HLEJKBCMNNJ": "",
                "JGHLJJLNGPP": "",
                "MANNKIIBOFM": "",
                "COMNAAFDEDH": "",
                "CPGCCLNOCDK": "",
                "IGEFGCJKCPM": [
                    3035872812407884685,
                    886074750498728966,
                    2793607785344655066,
                    916707896409220648
                ]
            }
        ],
        [
            {
                "$type": "MOOOKOKLLEI",
                "type": "CAMERA_MOVE",
                "delayTime": 0.34293556213378906,
                "duration": 1.0,
                "DOKGBCKOLJK": {
                    "x": 2270.786865234375,
                    "y": 227.86203002929688,
                    "z": -816.3562622070312
                },
                "HGKCPMDICGG": {
                    "x": 2269.888427734375,
                    "y": 227.61392211914062,
                    "z": -815.9937744140625
                },
                "AFODHELHCGB": 20.0,
                "NDFGFJFGHKL": "EaseInOutCubic",
                "IBCBGNHCICN": {},
                "OMCCMPHDLOO": "",
                "OCFGGGHIKOO": "",
                "LJFHGGJDPHH": "",
                "LPKDFKLNEHL": ""
            },
            {
                "$type": "DLPFECMKEKH",
                "type": "DIALOG",
                "aliasList": [
                    "1243"
                ],
                "NMKEDPFEKBH": 3710902,
                "JLCHMAJCAPA": 0.8115227222442627
            },
            {
                "$type": "ILCGAGEGDJI",
                "type": "BODY_LANG",
                "delayTime": 0.7115226984024048,
                "aliasList": [
                    "1243"
                ],
                "FLBOOPHHFJP": 1300,
                "FNDLJGEAMGI": ""
            },
            {
                "$type": "OOMFCPJAJGL",
                "type": "STEER_TO",
                "duration": 0.800000011920929,
                "aliasList": [
                    "1243"
                ],
                "DMGIIHNDNLC": "ABSOLUTE",
                "PLAPKCOMAKJ": {
                    "x": 2268.933837890625,
                    "y": 227.42259216308594,
                    "z": -815.9105834960938
                },
                "OMCCMPHDLOO": "",
                "DBLNLMOPEBP": ""
            },
            {
                "$type": "EAMBKPBOPIC",
                "type": "LOOK_AT",
                "aliasList": [
                    "1243"
                ],
                "FIDJDPAIFDN": true,
                "useTargetPos": true,
                "GFKIMGBGADJ": true,
                "GMKIJKADNHN": {
                    "x": 2268.962158203125,
                    "y": 227.4010772705078,
                    "z": -815.8766479492188
                },
                "PBEEIPKGGKJ": true,
                "BCHGCKLKNEH": 0.30000001192092896,
                "OMCCMPHDLOO": "",
                "KPCALFDIHMC": "",
                "DBLNLMOPEBP": ""
            },
            {
                "$type": "ILCGAGEGDJI",
                "type": "BODY_LANG",
                "aliasList": [
                    "1243"
                ],
                "JLABKFNJCNP": true,
                "FNDLJGEAMGI": ""
            },
            {
                "$type": "OPCCDGPJCJI",
                "type": "EMO_SYNC",
                "aliasList": [
                    "1243"
                ],
                "IONNJBCBACJ": "Cs_Emo_Avatar_Simple_Common_Set/Cs_Emo_Avatar_Talk/Cs_Emo_Avatar_MainLine/Cs_Emo_Avatar_MengDe/Cs_Emo_3710902",
                "HLEJKBCMNNJ": "",
                "JGHLJJLNGPP": "",
                "MANNKIIBOFM": "",
                "COMNAAFDEDH": "",
                "CPGCCLNOCDK": "",
                "IGEFGCJKCPM": [
                    3376604238834506976,
                    16466557871613459660,
                    13763721055827061375,
                    4858498342343139580
                ]
            }
        ],
        [
            {
                "$type": "MOOOKOKLLEI",
                "type": "CAMERA_MOVE",
                "delayTime": 0.4000000059604645,
                "duration": 0.10000000149011612,
                "DOKGBCKOLJK": {
                    "x": 2271.799560546875,
                    "y": 228.47462463378906,
                    "z": -816.0689086914062
                },
                "HGKCPMDICGG": {
                    "x": 2270.891845703125,
                    "y": 228.05709838867188,
                    "z": -816.0284423828125
                },
                "MGMFMGNANHH": 6,
                "NDFGFJFGHKL": "EaseInOutCubic",
                "IBCBGNHCICN": {},
                "OMCCMPHDLOO": "",
                "OCFGGGHIKOO": "",
                "LJFHGGJDPHH": "",
                "LPKDFKLNEHL": ""
            },
            {
                "$type": "DLPFECMKEKH",
                "type": "DIALOG_CLEAR",
                "delayTime": 0.30000001192092896,
                "JLCHMAJCAPA": 0.19999998807907104
            },
            {
                "$type": "MoleMole.Config.ConfigBlackScreenAction",
                "type": "BLACK_SCREEN",
                "duration": 1.0,
                "durationToBlack": 0.30000001192092896,
                "durationKeepBlack": 0.30000001192092896,
                "durationFromBlack": 0.30000001192092896,
                "inteePos": "",
                "textMapID": ""
            },
            {
                "$type": "MoleMole.Config.ConfigTimeProtectAction",
                "type": "TIME_PROTECT",
                "duration": 1.0
            },
            {
                "$type": "OPCCDGPJCJI",
                "type": "EMO_SYNC",
                "delayTime": 0.4000000059604645,
                "aliasList": [
                    "1243"
                ],
                "IONNJBCBACJ": "Cs_Emo_Avatar_Simple_Common_Set/Cs_Emo_Avatar_Paimon/Cs_Emo_Pet_Paimon_Normal_01",
                "HLEJKBCMNNJ": "",
                "JGHLJJLNGPP": "",
                "MANNKIIBOFM": "",
                "COMNAAFDEDH": "",
                "CPGCCLNOCDK": "",
                "IGEFGCJKCPM": [
                    2327328236696044360,
                    12338418010740210543,
                    5776394525372018320,
                    8916958471179128575
                ]
            }
        ],
        [
            {
                "$type": "EAMBKPBOPIC",
                "type": "LOOK_AT",
                "aliasList": [
                    "Avatar"
                ],
                "OMCCMPHDLOO": "",
                "KPCALFDIHMC": "",
                "DBLNLMOPEBP": ""
            },
            {
                "$type": "EAMBKPBOPIC",
                "type": "LOOK_AT",
                "aliasList": [
                    "1243"
                ],
                "OMCCMPHDLOO": "",
                "KPCALFDIHMC": "",
                "DBLNLMOPEBP": ""
            }
        ]
    ],
    "groupId": [
        {
            "grpId": 3300802351,
            "nextGrpId": 3300802352
        },
        {
            "index": 1,
            "grpId": 3300802352,
            "nextGrpId": 3300802353
        },
        {
            "index": 2,
            "grpId": 3300802353,
            "nextGrpId": 3300802354
        },
        {
            "index": 3,
            "grpId": 3300802354,
            "nextGrpId": 3300802355
        }
    ]
}