{
    "luaDataPath": "",
    "startBlackKeepTime": 0.5,
    "entityBan": "",
    "disableNpcLod": true,
    "isAutoBanNpc": true,
    "isBanWidgetPet": true,
    "protectNpcMobileLod": true,
    "startFade": {
        "startFadeInDuration": 0.5,
        "startFadeOutDuration": 0.5
    },
    "endFade": {
        "startFadeOutDuration": 0.0
    },
    "actors": [
        {
            "alias": "Avatar",
            "visible": true,
            "bornPointName": "N10000005_T7327906",
            "relativePosType": "AVATAR_NEW",
            "relativePosNpcAlias": "",
            "bindMovingTargetKey": ""
        },
        {
            "configID": 20842,
            "alias": "20842",
            "visible": true,
            "bornPointName": "Q7327902_N20842",
            "removeActorType": "REMOVE_WITH_DISAPPEAR",
            "relativePosType": "AVATAR_NEW",
            "relativePosNpcAlias": "",
            "bindMovingTargetKey": ""
        },
        {
            "configID": 20846,
            "alias": "20846",
            "visible": true,
            "bornPointName": "N20846_T7327906",
            "removeActorType": "REMOVE_WITH_DISAPPEAR",
            "relativePosType": "AVATAR_NEW",
            "relativePosNpcAlias": "",
            "bindMovingTargetKey": ""
        },
        {
            "configID": 1005,
            "alias": "1005",
            "visible": true,
            "bornPointName": "",
            "useRelativePos": true,
            "relativePos": {
                "x": 0.5,
                "z": -0.5
            },
            "removeActorType": "REMOVE_WITH_DISAPPEAR",
            "relativePosType": "AVATAR_NEW",
            "relativePosNpcAlias": "",
            "bindMovingTargetKey": ""
        }
    ],
    "group": [
        [
            {
                "$type": "MoleMole.Config.ConfigTimeProtectAction",
                "type": "TIME_PROTECT",
                "duration": 1.0,
                "actionId": 104
            },
            {
                "$type": "MoleMole.Config.ConfigBlackScreenAction",
                "type": "BLACK_SCREEN",
                "duration": 1.0,
                "actionId": 146,
                "blackScreenType": "KEEP_BLACK",
                "durationToBlack": 0.5,
                "durationKeepBlack": 1.0,
                "durationFromBlack": 0.5,
                "inteePos": "",
                "textMapID": "",
                "useTextFade": true
            },
            {
                "$type": "MOOOKOKLLEI",
                "type": "CAMERA_MOVE",
                "actionId": 158,
                "DOKGBCKOLJK": {
                    "x": -1395.612060546875,
                    "y": -28.298999786376953,
                    "z": 5382.89306640625
                },
                "HGKCPMDICGG": {
                    "x": -1394.6319580078125,
                    "y": -28.44300079345703,
                    "z": 5382.7578125
                },
                "MGMFMGNANHH": 7,
                "NDFGFJFGHKL": "Linear",
                "IBCBGNHCICN": {},
                "BNBBLLBEIDL": true,
                "HCPFCAHMGMO": false,
                "OMCCMPHDLOO": "",
                "FEFNBKOHPOG": true,
                "OCFGGGHIKOO": "",
                "LJFHGGJDPHH": "",
                "LPKDFKLNEHL": ""
            },
            {
                "$type": "MoleMole.Config.ConfigTeleportToAction",
                "type": "TELEPORT_TO",
                "aliasList": [
                    "Avatar"
                ],
                "actionId": 280,
                "position": {
                    "x": -1397.759033203125,
                    "y": -29.816999435424805,
                    "z": 5382.626953125
                },
                "forward": {
                    "x": 2.197000026702881,
                    "y": -0.3050000071525574,
                    "z": -0.7649999856948853
                },
                "openLongDisTeleport": true,
                "posBindMovingTargetKey": "",
                "forwardBindMovingTargetKey": ""
            },
            {
                "$type": "ILCGAGEGDJI",
                "type": "BODY_LANG",
                "aliasList": [
                    "20842"
                ],
                "actionId": 176,
                "FLBOOPHHFJP": 4100,
                "PMJAMGLAJGK": true,
                "LIMPPBIAKGL": false,
                "FNEGLPPEBBF": true,
                "FNDLJGEAMGI": ""
            },
            {
                "$type": "EAMBKPBOPIC",
                "type": "LOOK_AT",
                "aliasList": [
                    "20842"
                ],
                "actionId": 255,
                "FIDJDPAIFDN": true,
                "useTargetPos": true,
                "GFKIMGBGADJ": true,
                "GMKIJKADNHN": {
                    "x": -1394.800048828125,
                    "y": -28.7549991607666,
                    "z": 5382.94482421875
                },
                "BCHGCKLKNEH": 0.5,
                "OMCCMPHDLOO": "",
                "CEBMBGKJACI": "NONE",
                "EOHIIHMKDJC": true,
                "KPCALFDIHMC": "",
                "DBLNLMOPEBP": ""
            },
            {
                "$type": "MoleMole.Config.ConfigTeleportToAction",
                "type": "TELEPORT_TO",
                "aliasList": [
                    "20846"
                ],
                "actionId": 282,
                "position": {
                    "x": -1396.0689697265625,
                    "y": -29.160999298095703,
                    "z": 5383.4638671875
                },
                "forward": {
                    "x": 1.7910000085830688,
                    "y": -1.2970000505447388,
                    "z": -0.8889999985694885
                },
                "openLongDisTeleport": true,
                "posBindMovingTargetKey": "",
                "forwardBindMovingTargetKey": ""
            },
            {
                "$type": "MoleMole.Config.ConfigBlackScreenAction",
                "type": "BLACK_SCREEN",
                "delayTime": 1.0,
                "duration": 0.5,
                "actionId": 157,
                "blackScreenType": "FROM_BLACK",
                "durationToBlack": 0.5,
                "durationKeepBlack": 0.5,
                "durationFromBlack": 0.5,
                "inteePos": "",
                "textMapID": "",
                "useTextFade": true
            }
        ],
        [
            {
                "$type": "MOOOKOKLLEI",
                "type": "CAMERA_MOVE",
                "duration": 6.0,
                "actionId": 283,
                "DOKGBCKOLJK": {
                    "x": -1395.6219482421875,
                    "y": -28.298999786376953,
                    "z": 5382.81591796875
                },
                "HGKCPMDICGG": {
                    "x": -1394.6419677734375,
                    "y": -28.44300079345703,
                    "z": 5382.68115234375
                },
                "MGMFMGNANHH": 7,
                "NDFGFJFGHKL": "Linear",
                "IBCBGNHCICN": {},
                "BNBBLLBEIDL": true,
                "HCPFCAHMGMO": false,
                "OMCCMPHDLOO": "",
                "FEFNBKOHPOG": true,
                "OCFGGGHIKOO": "",
                "LJFHGGJDPHH": "",
                "LPKDFKLNEHL": ""
            },
            {
                "$type": "MoleMole.Config.ConfigMoveToAction",
                "type": "MOVE_TO",
                "aliasList": [
                    "Avatar"
                ],
                "actionId": 178,
                "moveType": "WALK",
                "routeList": [
                    {
                        "x": -1396.0360107421875,
                        "y": -29.173999786376953,
                        "z": 5382.77099609375
                    }
                ],
                "exactlyMove": true,
                "closeNavMesh": true,
                "closeAvatarNavMesh": true,
                "openSetPos": true,
                "bindMovingTargetKey": ""
            },
            {
                "$type": "MoleMole.Config.ConfigMoveToAction",
                "type": "MOVE_TO",
                "aliasList": [
                    "20846"
                ],
                "actionId": 281,
                "moveType": "RUN",
                "routeList": [
                    {
                        "x": -1396.2569580078125,
                        "y": -29.160999298095703,
                        "z": 5383.63818359375
                    }
                ],
                "exactlyMove": true,
                "closeNavMesh": true,
                "openSetPos": true,
                "bindMovingTargetKey": ""
            },
            {
                "$type": "MoleMole.Config.ConfigMoveToAction",
                "type": "MOVE_TO",
                "aliasList": [
                    "1005"
                ],
                "actionId": 180,
                "moveType": "WALK",
                "routeList": [
                    {
                        "x": -1396.10205078125,
                        "y": -29.18899917602539,
                        "z": 5382.09912109375
                    }
                ],
                "exactlyMove": true,
                "closeNavMesh": true,
                "openSetPos": true,
                "bindMovingTargetKey": ""
            },
            {
                "$type": "DLPFECMKEKH",
                "type": "DIALOG",
                "delayTime": 1.5,
                "aliasList": [
                    "20842"
                ],
                "actionId": 107,
                "NMKEDPFEKBH": 732790601,
                "JLCHMAJCAPA": 1.0
            }
        ],
        [
            {
                "$type": "MOOOKOKLLEI",
                "type": "CAMERA_MOVE",
                "actionId": 165,
                "DOKGBCKOLJK": {
                    "x": -1394.5570068359375,
                    "y": -28.218000411987305,
                    "z": 5382.66015625
                },
                "HGKCPMDICGG": {
                    "x": -1395.5419921875,
                    "y": -28.04599952697754,
                    "z": 5382.64599609375
                },
                "MGMFMGNANHH": 6,
                "NDFGFJFGHKL": "EaseInOutCubic",
                "IBCBGNHCICN": {},
                "BNBBLLBEIDL": true,
                "HCPFCAHMGMO": false,
                "OMCCMPHDLOO": "",
                "FEFNBKOHPOG": true,
                "OCFGGGHIKOO": "",
                "LJFHGGJDPHH": "",
                "LPKDFKLNEHL": ""
            },
            {
                "$type": "EAMBKPBOPIC",
                "type": "LOOK_AT",
                "aliasList": [
                    "Avatar"
                ],
                "actionId": 254,
                "FIDJDPAIFDN": true,
                "useTargetPos": true,
                "GFKIMGBGADJ": true,
                "GMKIJKADNHN": {
                    "x": -1394.906005859375,
                    "y": -28.200000762939453,
                    "z": 5382.43798828125
                },
                "BCHGCKLKNEH": 0.5,
                "OMCCMPHDLOO": "20842",
                "CEBMBGKJACI": "NONE",
                "EOHIIHMKDJC": true,
                "KPCALFDIHMC": "",
                "DBLNLMOPEBP": ""
            },
            {
                "$type": "DLPFECMKEKH",
                "type": "DIALOG",
                "aliasList": [
                    "1005"
                ],
                "actionId": 109,
                "NMKEDPFEKBH": 732790602,
                "JLCHMAJCAPA": 2.0999999046325684
            },
            {
                "$type": "EAMBKPBOPIC",
                "type": "LOOK_AT",
                "aliasList": [
                    "1005"
                ],
                "actionId": 251,
                "FIDJDPAIFDN": true,
                "useTargetPos": true,
                "GFKIMGBGADJ": true,
                "GMKIJKADNHN": {
                    "x": -1394.906005859375,
                    "y": -28.573999404907227,
                    "z": 5382.43798828125
                },
                "BCHGCKLKNEH": 0.5,
                "OMCCMPHDLOO": "20842",
                "CEBMBGKJACI": "NONE",
                "EOHIIHMKDJC": true,
                "KPCALFDIHMC": "",
                "DBLNLMOPEBP": ""
            },
            {
                "$type": "OOMFCPJAJGL",
                "type": "STEER_TO",
                "duration": 1.0,
                "aliasList": [
                    "1005"
                ],
                "actionId": 252,
                "DMGIIHNDNLC": "ABSOLUTE",
                "PLAPKCOMAKJ": {
                    "x": -1395.1309814453125,
                    "y": -28.988000869750977,
                    "z": 5382.38818359375
                },
                "HCMINPNPFDF": true,
                "PENAEBFAHCH": true,
                "CKOEAJFMDON": true,
                "OMCCMPHDLOO": "",
                "AKKPIOCLGOP": true,
                "PPGPCHDAOJG": true,
                "DBLNLMOPEBP": ""
            },
            {
                "$type": "ILCGAGEGDJI",
                "type": "BODY_LANG",
                "delayTime": 0.800000011920929,
                "aliasList": [
                    "1005"
                ],
                "actionId": 166,
                "FLBOOPHHFJP": 1030,
                "PMJAMGLAJGK": true,
                "LIMPPBIAKGL": false,
                "FNEGLPPEBBF": true,
                "FNDLJGEAMGI": ""
            },
            {
                "$type": "ILCGAGEGDJI",
                "type": "BODY_LANG",
                "delayTime": 2.802000045776367,
                "aliasList": [
                    "1005"
                ],
                "actionId": 192,
                "JLABKFNJCNP": true,
                "PMJAMGLAJGK": true,
                "LIMPPBIAKGL": false,
                "FNEGLPPEBBF": true,
                "FNDLJGEAMGI": ""
            }
        ],
        [
            {
                "$type": "MOOOKOKLLEI",
                "type": "CAMERA_MOVE",
                "actionId": 167,
                "DOKGBCKOLJK": {
                    "x": -1395.863037109375,
                    "y": -28.33099937438965,
                    "z": 5383.06494140625
                },
                "HGKCPMDICGG": {
                    "x": -1394.8909912109375,
                    "y": -28.457000732421875,
                    "z": 5382.8681640625
                },
                "MGMFMGNANHH": 6,
                "NDFGFJFGHKL": "EaseInOutCubic",
                "IBCBGNHCICN": {},
                "BNBBLLBEIDL": true,
                "HCPFCAHMGMO": false,
                "OMCCMPHDLOO": "",
                "FEFNBKOHPOG": true,
                "OCFGGGHIKOO": "",
                "LJFHGGJDPHH": "",
                "LPKDFKLNEHL": ""
            },
            {
                "$type": "DLPFECMKEKH",
                "type": "DIALOG",
                "aliasList": [
                    "20842"
                ],
                "actionId": 111,
                "NMKEDPFEKBH": 732790603,
                "JLCHMAJCAPA": 2.200000047683716
            },
            {
                "$type": "ILCGAGEGDJI",
                "type": "BODY_LANG",
                "aliasList": [
                    "1005"
                ],
                "actionId": 295,
                "JLABKFNJCNP": true,
                "PMJAMGLAJGK": true,
                "LIMPPBIAKGL": false,
                "FNEGLPPEBBF": true,
                "FNDLJGEAMGI": ""
            },
            {
                "$type": "MOOOKOKLLEI",
                "type": "CAMERA_MOVE",
                "delayTime": 0.20000000298023224,
                "duration": 10.0,
                "actionId": 284,
                "DOKGBCKOLJK": {
                    "x": -1395.887939453125,
                    "y": -28.33099937438965,
                    "z": 5382.93798828125
                },
                "HGKCPMDICGG": {
                    "x": -1394.916015625,
                    "y": -28.457000732421875,
                    "z": 5382.7412109375
                },
                "NDFGFJFGHKL": "EaseOutQuad",
                "IBCBGNHCICN": {},
                "BNBBLLBEIDL": true,
                "HCPFCAHMGMO": false,
                "OMCCMPHDLOO": "",
                "FEFNBKOHPOG": true,
                "OCFGGGHIKOO": "",
                "LJFHGGJDPHH": "",
                "LPKDFKLNEHL": ""
            },
            {
                "$type": "EAMBKPBOPIC",
                "type": "LOOK_AT",
                "delayTime": 1.2999999523162842,
                "aliasList": [
                    "20842"
                ],
                "actionId": 210,
                "FIDJDPAIFDN": true,
                "BCHGCKLKNEH": 0.30000001192092896,
                "OMCCMPHDLOO": "Avatar",
                "EOHIIHMKDJC": true,
                "KPCALFDIHMC": "",
                "DBLNLMOPEBP": ""
            }
        ],
        [
            {
                "$type": "DLPFECMKEKH",
                "type": "DIALOG",
                "aliasList": [
                    "20842"
                ],
                "actionId": 113,
                "NMKEDPFEKBH": 732790604,
                "JLCHMAJCAPA": 0.5
            },
            {
                "$type": "ECLBLHOENAG",
                "type": "DIALOG_SELECT",
                "delayTime": 0.4000000059604645,
                "aliasList": [
                    "Avatar"
                ],
                "actionId": 114,
                "NDMMOPDPKNF": [
                    732790605,
                    732790606
                ],
                "FPDBIEGHMCD": [
                    2852687024,
                    2852687024
                ],
                "PKBOIGBGDEG": true,
                "GOJJPCDMMLN": 2852687018
            }
        ],
        [
            {
                "$type": "DLPFECMKEKH",
                "type": "DIALOG",
                "aliasList": [
                    "20842"
                ],
                "actionId": 116,
                "NMKEDPFEKBH": 732790607,
                "JLCHMAJCAPA": 1.1920000314712524
            }
        ],
        [
            {
                "$type": "MOOOKOKLLEI",
                "type": "CAMERA_MOVE",
                "actionId": 286,
                "DOKGBCKOLJK": {
                    "x": -1394.5570068359375,
                    "y": -28.216999053955078,
                    "z": 5382.7080078125
                },
                "HGKCPMDICGG": {
                    "x": -1395.5419921875,
                    "y": -28.045000076293945,
                    "z": 5382.69287109375
                },
                "MGMFMGNANHH": 6,
                "NDFGFJFGHKL": "EaseInOutCubic",
                "IBCBGNHCICN": {},
                "BNBBLLBEIDL": true,
                "HCPFCAHMGMO": false,
                "OMCCMPHDLOO": "",
                "FEFNBKOHPOG": true,
                "OCFGGGHIKOO": "",
                "LJFHGGJDPHH": "",
                "LPKDFKLNEHL": ""
            },
            {
                "$type": "DLPFECMKEKH",
                "type": "DIALOG",
                "aliasList": [
                    "20846"
                ],
                "actionId": 118,
                "NMKEDPFEKBH": 732790608,
                "JLCHMAJCAPA": 1.2000000476837158
            },
            {
                "$type": "ILCGAGEGDJI",
                "type": "BODY_LANG",
                "aliasList": [
                    "20846"
                ],
                "actionId": 287,
                "FLBOOPHHFJP": 2,
                "PMJAMGLAJGK": true,
                "LIMPPBIAKGL": false,
                "FNEGLPPEBBF": true,
                "FNDLJGEAMGI": ""
            },
            {
                "$type": "ILCGAGEGDJI",
                "type": "BODY_LANG",
                "delayTime": 0.9980000257492065,
                "aliasList": [
                    "20846"
                ],
                "actionId": 288,
                "JLABKFNJCNP": true,
                "PMJAMGLAJGK": true,
                "LIMPPBIAKGL": false,
                "FNEGLPPEBBF": true,
                "FNDLJGEAMGI": ""
            }
        ],
        [
            {
                "$type": "ILCGAGEGDJI",
                "type": "BODY_LANG",
                "aliasList": [
                    "20842"
                ],
                "actionId": 279,
                "FLBOOPHHFJP": 1280,
                "PMJAMGLAJGK": true,
                "LIMPPBIAKGL": false,
                "FNEGLPPEBBF": true,
                "FNDLJGEAMGI": ""
            },
            {
                "$type": "ILCGAGEGDJI",
                "type": "BODY_LANG",
                "aliasList": [
                    "20846"
                ],
                "actionId": 296,
                "JLABKFNJCNP": true,
                "PMJAMGLAJGK": true,
                "LIMPPBIAKGL": false,
                "FNEGLPPEBBF": true,
                "FNDLJGEAMGI": ""
            },
            {
                "$type": "DLPFECMKEKH",
                "type": "DIALOG",
                "aliasList": [
                    "1005"
                ],
                "actionId": 120,
                "NMKEDPFEKBH": 732790609,
                "JLCHMAJCAPA": 4.199999809265137
            },
            {
                "$type": "ILCGAGEGDJI",
                "type": "BODY_LANG",
                "aliasList": [
                    "1005"
                ],
                "actionId": 194,
                "FLBOOPHHFJP": 1230,
                "PMJAMGLAJGK": true,
                "LIMPPBIAKGL": false,
                "FNEGLPPEBBF": true,
                "FNDLJGEAMGI": ""
            },
            {
                "$type": "ILCGAGEGDJI",
                "type": "BODY_LANG",
                "delayTime": 3.0,
                "aliasList": [
                    "1005"
                ],
                "actionId": 289,
                "FLBOOPHHFJP": 1190,
                "PMJAMGLAJGK": true,
                "LIMPPBIAKGL": false,
                "FNEGLPPEBBF": true,
                "FNDLJGEAMGI": ""
            }
        ],
        [
            {
                "$type": "ILCGAGEGDJI",
                "type": "BODY_LANG",
                "aliasList": [
                    "20842"
                ],
                "actionId": 266,
                "JLABKFNJCNP": true,
                "LIMPPBIAKGL": false,
                "FNEGLPPEBBF": true,
                "FNDLJGEAMGI": ""
            },
            {
                "$type": "ILCGAGEGDJI",
                "type": "BODY_LANG",
                "delayTime": 0.00800000037997961,
                "aliasList": [
                    "1005"
                ],
                "actionId": 291,
                "JLABKFNJCNP": true,
                "PMJAMGLAJGK": true,
                "LIMPPBIAKGL": false,
                "FNEGLPPEBBF": true,
                "FNDLJGEAMGI": ""
            },
            {
                "$type": "DLPFECMKEKH",
                "type": "DIALOG",
                "delayTime": 0.15000000596046448,
                "aliasList": [
                    "20842"
                ],
                "actionId": 122,
                "NMKEDPFEKBH": 732790610,
                "JLCHMAJCAPA": 2.558000087738037
            },
            {
                "$type": "MOOOKOKLLEI",
                "type": "CAMERA_MOVE",
                "delayTime": 0.20000000298023224,
                "actionId": 265,
                "DOKGBCKOLJK": {
                    "x": -1400.487060546875,
                    "y": -26.583999633789062,
                    "z": 5382.48095703125
                },
                "HGKCPMDICGG": {
                    "x": -1399.52099609375,
                    "y": -26.833999633789062,
                    "z": 5382.54296875
                },
                "MGMFMGNANHH": 6,
                "NDFGFJFGHKL": "EaseInOutCubic",
                "IBCBGNHCICN": {},
                "BNBBLLBEIDL": true,
                "HCPFCAHMGMO": false,
                "OMCCMPHDLOO": "",
                "FEFNBKOHPOG": true,
                "OCFGGGHIKOO": "",
                "LJFHGGJDPHH": "",
                "LPKDFKLNEHL": ""
            },
            {
                "$type": "MOOOKOKLLEI",
                "type": "CAMERA_MOVE",
                "delayTime": 0.4000000059604645,
                "duration": 8.0,
                "actionId": 267,
                "DOKGBCKOLJK": {
                    "x": -1400.47998046875,
                    "y": -26.583999633789062,
                    "z": 5382.369140625
                },
                "HGKCPMDICGG": {
                    "x": -1399.5140380859375,
                    "y": -26.833999633789062,
                    "z": 5382.43115234375
                },
                "MGMFMGNANHH": 7,
                "NDFGFJFGHKL": "Linear",
                "IBCBGNHCICN": {},
                "BNBBLLBEIDL": true,
                "HCPFCAHMGMO": false,
                "OMCCMPHDLOO": "",
                "FEFNBKOHPOG": true,
                "OCFGGGHIKOO": "",
                "LJFHGGJDPHH": "",
                "LPKDFKLNEHL": ""
            }
        ],
        [
            {
                "$type": "MOOOKOKLLEI",
                "type": "CAMERA_MOVE",
                "actionId": 292,
                "DOKGBCKOLJK": {
                    "x": -1394.5570068359375,
                    "y": -28.216999053955078,
                    "z": 5382.7080078125
                },
                "HGKCPMDICGG": {
                    "x": -1395.5419921875,
                    "y": -28.045000076293945,
                    "z": 5382.69287109375
                },
                "MGMFMGNANHH": 6,
                "NDFGFJFGHKL": "EaseInOutCubic",
                "IBCBGNHCICN": {},
                "BNBBLLBEIDL": true,
                "HCPFCAHMGMO": false,
                "OMCCMPHDLOO": "",
                "FEFNBKOHPOG": true,
                "OCFGGGHIKOO": "",
                "LJFHGGJDPHH": "",
                "LPKDFKLNEHL": ""
            },
            {
                "$type": "EAMBKPBOPIC",
                "type": "LOOK_AT",
                "aliasList": [
                    "20842"
                ],
                "actionId": 232,
                "FIDJDPAIFDN": true,
                "BCHGCKLKNEH": 0.5,
                "OMCCMPHDLOO": "1005",
                "EOHIIHMKDJC": true,
                "KPCALFDIHMC": "",
                "DBLNLMOPEBP": ""
            },
            {
                "$type": "DLPFECMKEKH",
                "type": "DIALOG",
                "aliasList": [
                    "1005"
                ],
                "actionId": 124,
                "NMKEDPFEKBH": 732790611,
                "JLCHMAJCAPA": 2.200000047683716
            },
            {
                "$type": "ILCGAGEGDJI",
                "type": "BODY_LANG",
                "aliasList": [
                    "1005"
                ],
                "actionId": 173,
                "FLBOOPHHFJP": 1120,
                "PMJAMGLAJGK": true,
                "LIMPPBIAKGL": false,
                "FNEGLPPEBBF": true,
                "FNDLJGEAMGI": ""
            },
            {
                "$type": "ILCGAGEGDJI",
                "type": "BODY_LANG",
                "delayTime": 1.4079999923706055,
                "aliasList": [
                    "1005"
                ],
                "actionId": 174,
                "FLBOOPHHFJP": 1060,
                "PMJAMGLAJGK": true,
                "LIMPPBIAKGL": false,
                "FNEGLPPEBBF": true,
                "FNDLJGEAMGI": ""
            },
            {
                "$type": "ILCGAGEGDJI",
                "type": "BODY_LANG",
                "delayTime": 2.1630001068115234,
                "aliasList": [
                    "1005"
                ],
                "actionId": 188,
                "JLABKFNJCNP": true,
                "PMJAMGLAJGK": true,
                "LIMPPBIAKGL": false,
                "FNEGLPPEBBF": true,
                "FNDLJGEAMGI": ""
            }
        ],
        [
            {
                "$type": "MOOOKOKLLEI",
                "type": "CAMERA_MOVE",
                "actionId": 268,
                "DOKGBCKOLJK": {
                    "x": -1400.487060546875,
                    "y": -26.583999633789062,
                    "z": 5382.48095703125
                },
                "HGKCPMDICGG": {
                    "x": -1399.52099609375,
                    "y": -26.833999633789062,
                    "z": 5382.54296875
                },
                "MGMFMGNANHH": 6,
                "NDFGFJFGHKL": "EaseInOutCubic",
                "IBCBGNHCICN": {},
                "BNBBLLBEIDL": true,
                "HCPFCAHMGMO": false,
                "OMCCMPHDLOO": "",
                "FEFNBKOHPOG": true,
                "OCFGGGHIKOO": "",
                "LJFHGGJDPHH": "",
                "LPKDFKLNEHL": ""
            },
            {
                "$type": "DLPFECMKEKH",
                "type": "DIALOG",
                "aliasList": [
                    "20842"
                ],
                "actionId": 126,
                "NMKEDPFEKBH": 732790612,
                "JLCHMAJCAPA": 1.2000000476837158
            },
            {
                "$type": "ILCGAGEGDJI",
                "type": "BODY_LANG",
                "aliasList": [
                    "20842"
                ],
                "actionId": 189,
                "FLBOOPHHFJP": 1180,
                "PMJAMGLAJGK": true,
                "LIMPPBIAKGL": false,
                "FNEGLPPEBBF": true,
                "FNDLJGEAMGI": ""
            },
            {
                "$type": "MOOOKOKLLEI",
                "type": "CAMERA_MOVE",
                "delayTime": 0.20000000298023224,
                "duration": 8.0,
                "actionId": 269,
                "DOKGBCKOLJK": {
                    "x": -1400.47998046875,
                    "y": -26.583999633789062,
                    "z": 5382.369140625
                },
                "HGKCPMDICGG": {
                    "x": -1399.5140380859375,
                    "y": -26.833999633789062,
                    "z": 5382.43115234375
                },
                "MGMFMGNANHH": 7,
                "NDFGFJFGHKL": "Linear",
                "IBCBGNHCICN": {},
                "BNBBLLBEIDL": true,
                "HCPFCAHMGMO": false,
                "OMCCMPHDLOO": "",
                "FEFNBKOHPOG": true,
                "OCFGGGHIKOO": "",
                "LJFHGGJDPHH": "",
                "LPKDFKLNEHL": ""
            },
            {
                "$type": "ILCGAGEGDJI",
                "type": "BODY_LANG",
                "delayTime": 1.0290000438690186,
                "aliasList": [
                    "20842"
                ],
                "actionId": 208,
                "JLABKFNJCNP": true,
                "PMJAMGLAJGK": true,
                "LIMPPBIAKGL": false,
                "FNEGLPPEBBF": true,
                "FNDLJGEAMGI": ""
            }
        ],
        [
            {
                "$type": "EAMBKPBOPIC",
                "type": "LOOK_AT",
                "aliasList": [
                    "20842"
                ],
                "actionId": 238,
                "FIDJDPAIFDN": true,
                "BCHGCKLKNEH": 0.5,
                "OMCCMPHDLOO": "20846",
                "EOHIIHMKDJC": true,
                "KPCALFDIHMC": "",
                "DBLNLMOPEBP": ""
            },
            {
                "$type": "DLPFECMKEKH",
                "type": "DIALOG",
                "aliasList": [
                    "20846"
                ],
                "actionId": 128,
                "NMKEDPFEKBH": 732790613,
                "JLCHMAJCAPA": 0.5
            }
        ],
        [
            {
                "$type": "DLPFECMKEKH",
                "type": "DIALOG",
                "aliasList": [
                    "20846"
                ],
                "actionId": 130,
                "NMKEDPFEKBH": 732790614,
                "JLCHMAJCAPA": 0.5
            }
        ],
        [
            {
                "$type": "DLPFECMKEKH",
                "type": "DIALOG",
                "aliasList": [
                    "20842"
                ],
                "actionId": 132,
                "NMKEDPFEKBH": 732790615,
                "JLCHMAJCAPA": 1.2000000476837158
            },
            {
                "$type": "ILCGAGEGDJI",
                "type": "BODY_LANG",
                "aliasList": [
                    "20842"
                ],
                "actionId": 200,
                "FLBOOPHHFJP": 1180,
                "PMJAMGLAJGK": true,
                "LIMPPBIAKGL": false,
                "FNEGLPPEBBF": true,
                "FNDLJGEAMGI": ""
            },
            {
                "$type": "ECLBLHOENAG",
                "type": "DIALOG_SELECT",
                "delayTime": 0.4000000059604645,
                "aliasList": [
                    "Avatar"
                ],
                "actionId": 133,
                "NDMMOPDPKNF": [
                    732790616,
                    732790618
                ],
                "FPDBIEGHMCD": [
                    2533951722,
                    2533951723
                ],
                "PKBOIGBGDEG": true,
                "GOJJPCDMMLN": 2852687018
            },
            {
                "$type": "ILCGAGEGDJI",
                "type": "BODY_LANG",
                "delayTime": 0.9959999918937683,
                "aliasList": [
                    "20842"
                ],
                "actionId": 201,
                "JLABKFNJCNP": true,
                "PMJAMGLAJGK": true,
                "LIMPPBIAKGL": false,
                "FNEGLPPEBBF": true,
                "FNDLJGEAMGI": ""
            }
        ],
        [
            {
                "$type": "MOOOKOKLLEI",
                "type": "CAMERA_MOVE",
                "actionId": 271,
                "DOKGBCKOLJK": {
                    "x": -1395.3740234375,
                    "y": -27.530000686645508,
                    "z": 5382.85302734375
                },
                "HGKCPMDICGG": {
                    "x": -1394.3800048828125,
                    "y": -27.632999420166016,
                    "z": 5382.8271484375
                },
                "MGMFMGNANHH": 6,
                "NDFGFJFGHKL": "EaseInOutCubic",
                "IBCBGNHCICN": {},
                "HCPFCAHMGMO": false,
                "OMCCMPHDLOO": "",
                "FEFNBKOHPOG": true,
                "OCFGGGHIKOO": "",
                "LJFHGGJDPHH": "",
                "LPKDFKLNEHL": ""
            },
            {
                "$type": "DLPFECMKEKH",
                "type": "DIALOG",
                "aliasList": [
                    "20842"
                ],
                "actionId": 135,
                "NMKEDPFEKBH": 732790617,
                "JLCHMAJCAPA": 1.7999999523162842
            },
            {
                "$type": "ILCGAGEGDJI",
                "type": "BODY_LANG",
                "aliasList": [
                    "20842"
                ],
                "actionId": 202,
                "FLBOOPHHFJP": 4040,
                "PMJAMGLAJGK": true,
                "LIMPPBIAKGL": false,
                "FNEGLPPEBBF": true,
                "FNDLJGEAMGI": ""
            },
            {
                "$type": "MOOOKOKLLEI",
                "type": "CAMERA_MOVE",
                "delayTime": 0.20000000298023224,
                "duration": 10.0,
                "actionId": 272,
                "DOKGBCKOLJK": {
                    "x": -1395.3759765625,
                    "y": -27.530000686645508,
                    "z": 5382.76904296875
                },
                "HGKCPMDICGG": {
                    "x": -1394.3819580078125,
                    "y": -27.632999420166016,
                    "z": 5382.7431640625
                },
                "MGMFMGNANHH": 7,
                "NDFGFJFGHKL": "Linear",
                "IBCBGNHCICN": {},
                "HCPFCAHMGMO": false,
                "OMCCMPHDLOO": "",
                "FEFNBKOHPOG": true,
                "OCFGGGHIKOO": "",
                "LJFHGGJDPHH": "",
                "LPKDFKLNEHL": ""
            },
            {
                "$type": "ILCGAGEGDJI",
                "type": "BODY_LANG",
                "delayTime": 1.6710000038146973,
                "aliasList": [
                    "20842"
                ],
                "actionId": 203,
                "JLABKFNJCNP": true,
                "PMJAMGLAJGK": true,
                "LIMPPBIAKGL": false,
                "FNEGLPPEBBF": true,
                "FNDLJGEAMGI": ""
            }
        ],
        [
            {
                "$type": "MOOOKOKLLEI",
                "type": "CAMERA_MOVE",
                "actionId": 293,
                "DOKGBCKOLJK": {
                    "x": -1395.3740234375,
                    "y": -27.530000686645508,
                    "z": 5382.85302734375
                },
                "HGKCPMDICGG": {
                    "x": -1394.3800048828125,
                    "y": -27.632999420166016,
                    "z": 5382.8271484375
                },
                "MGMFMGNANHH": 6,
                "NDFGFJFGHKL": "EaseInOutCubic",
                "IBCBGNHCICN": {},
                "HCPFCAHMGMO": false,
                "OMCCMPHDLOO": "",
                "FEFNBKOHPOG": true,
                "OCFGGGHIKOO": "",
                "LJFHGGJDPHH": "",
                "LPKDFKLNEHL": ""
            },
            {
                "$type": "DLPFECMKEKH",
                "type": "DIALOG",
                "aliasList": [
                    "20842"
                ],
                "actionId": 137,
                "NMKEDPFEKBH": 732790619,
                "JLCHMAJCAPA": 1.7999999523162842
            },
            {
                "$type": "ILCGAGEGDJI",
                "type": "BODY_LANG",
                "aliasList": [
                    "20842"
                ],
                "actionId": 204,
                "FLBOOPHHFJP": 1190,
                "PMJAMGLAJGK": true,
                "LIMPPBIAKGL": false,
                "FNEGLPPEBBF": true,
                "FNDLJGEAMGI": ""
            },
            {
                "$type": "MOOOKOKLLEI",
                "type": "CAMERA_MOVE",
                "delayTime": 0.20000000298023224,
                "duration": 10.0,
                "actionId": 294,
                "DOKGBCKOLJK": {
                    "x": -1395.3759765625,
                    "y": -27.530000686645508,
                    "z": 5382.76904296875
                },
                "HGKCPMDICGG": {
                    "x": -1394.3819580078125,
                    "y": -27.632999420166016,
                    "z": 5382.7431640625
                },
                "MGMFMGNANHH": 7,
                "NDFGFJFGHKL": "Linear",
                "IBCBGNHCICN": {},
                "HCPFCAHMGMO": false,
                "OMCCMPHDLOO": "",
                "FEFNBKOHPOG": true,
                "OCFGGGHIKOO": "",
                "LJFHGGJDPHH": "",
                "LPKDFKLNEHL": ""
            },
            {
                "$type": "ILCGAGEGDJI",
                "type": "BODY_LANG",
                "delayTime": 1.6749999523162842,
                "aliasList": [
                    "20842"
                ],
                "actionId": 205,
                "JLABKFNJCNP": true,
                "PMJAMGLAJGK": true,
                "LIMPPBIAKGL": false,
                "FNEGLPPEBBF": true,
                "FNDLJGEAMGI": ""
            }
        ],
        [
            {
                "$type": "EAMBKPBOPIC",
                "type": "LOOK_AT",
                "aliasList": [
                    "20842"
                ],
                "actionId": 244,
                "FIDJDPAIFDN": true,
                "BCHGCKLKNEH": 0.5,
                "OMCCMPHDLOO": "20846",
                "EOHIIHMKDJC": true,
                "KPCALFDIHMC": "",
                "DBLNLMOPEBP": ""
            },
            {
                "$type": "DLPFECMKEKH",
                "type": "DIALOG",
                "aliasList": [
                    "20846"
                ],
                "actionId": 139,
                "NMKEDPFEKBH": 732790620,
                "JLCHMAJCAPA": 0.5
            }
        ],
        [
            {
                "$type": "DLPFECMKEKH",
                "type": "DIALOG",
                "aliasList": [
                    "20842"
                ],
                "actionId": 141,
                "NMKEDPFEKBH": 732790621,
                "JLCHMAJCAPA": 1.7999999523162842
            },
            {
                "$type": "ILCGAGEGDJI",
                "type": "BODY_LANG",
                "aliasList": [
                    "20842"
                ],
                "actionId": 206,
                "FLBOOPHHFJP": 4040,
                "PMJAMGLAJGK": true,
                "LIMPPBIAKGL": false,
                "FNEGLPPEBBF": true,
                "FNDLJGEAMGI": ""
            },
            {
                "$type": "ILCGAGEGDJI",
                "type": "BODY_LANG",
                "delayTime": 1.6749999523162842,
                "aliasList": [
                    "20842"
                ],
                "actionId": 207,
                "JLABKFNJCNP": true,
                "PMJAMGLAJGK": true,
                "LIMPPBIAKGL": false,
                "FNEGLPPEBBF": true,
                "FNDLJGEAMGI": ""
            }
        ],
        [
            {
                "$type": "MoleMole.Config.ConfigTimeProtectAction",
                "type": "TIME_PROTECT",
                "duration": 0.10000000149011612,
                "actionId": 143
            }
        ],
        [
            {
                "$type": "MoleMole.Config.ConfigTimeProtectAction",
                "type": "TIME_PROTECT",
                "duration": 0.10000000149011612,
                "actionId": 105
            },
            {
                "$type": "MoleMole.Config.ConfigTimeProtectAction",
                "type": "TIME_PROTECT",
                "duration": 0.699999988079071,
                "actionId": 145
            },
            {
                "$type": "MoleMole.Config.ConfigSimpleBlackScreenAction",
                "type": "SIMPLE_BLACK_SCREEN",
                "actionId": 299,
                "durationToBlack": 0.5,
                "durationKeepBlack": 2.0,
                "durationFromBlack": 0.5,
                "textMapID": "",
                "useTextFade": true
            },
            {
                "$type": "DLPFECMKEKH",
                "type": "DIALOG_CLEAR",
                "aliasList": [
                    "20842"
                ],
                "actionId": 297
            },
            {
                "$type": "MOOOKOKLLEI",
                "type": "CAMERA_MOVE",
                "delayTime": 0.5,
                "duration": 0.5,
                "actionId": 298,
                "DOKGBCKOLJK": {
                    "x": 179.0850067138672,
                    "y": -27.194000244140625,
                    "z": 328.17999267578125
                },
                "HGKCPMDICGG": {
                    "x": 178.843994140625,
                    "y": -27.34600067138672,
                    "z": 327.22100830078125
                },
                "MGMFMGNANHH": 5,
                "NDFGFJFGHKL": "EaseInOutCubic",
                "IBCBGNHCICN": {},
                "BNBBLLBEIDL": true,
                "HCPFCAHMGMO": false,
                "OMCCMPHDLOO": "",
                "FEFNBKOHPOG": true,
                "OCFGGGHIKOO": "",
                "LJFHGGJDPHH": "",
                "LPKDFKLNEHL": ""
            },
            {
                "$type": "MoleMole.Config.ConfigVisibleInterAction",
                "type": "VISIBLE",
                "delayTime": 0.6420000195503235,
                "aliasList": [
                    "20842"
                ],
                "actionId": 209,
                "extraParam": ""
            }
        ]
    ],
    "groupId": [
        {
            "grpId": 2852687019,
            "nextGrpId": 2852687020
        },
        {
            "index": 1,
            "grpId": 2852687020,
            "nextGrpId": 2852687021
        },
        {
            "index": 2,
            "grpId": 2852687021,
            "nextGrpId": 2852687022
        },
        {
            "index": 3,
            "grpId": 2852687022,
            "nextGrpId": 2852687023
        },
        {
            "index": 4,
            "grpId": 2852687023,
            "nextGrpId": 2852687024
        },
        {
            "index": 5,
            "grpId": 2852687024,
            "nextGrpId": 2852687025
        },
        {
            "index": 6,
            "grpId": 2852687025,
            "nextGrpId": 2852687026
        },
        {
            "index": 7,
            "grpId": 2852687026,
            "nextGrpId": 2852687027
        },
        {
            "index": 8,
            "grpId": 2852687027,
            "nextGrpId": 2533951717
        },
        {
            "index": 9,
            "grpId": 2533951717,
            "nextGrpId": 2533951718
        },
        {
            "index": 10,
            "grpId": 2533951718,
            "nextGrpId": 2533951719
        },
        {
            "index": 11,
            "grpId": 2533951719,
            "nextGrpId": 2533951720
        },
        {
            "index": 12,
            "grpId": 2533951720,
            "nextGrpId": 2533951721
        },
        {
            "index": 13,
            "grpId": 2533951721,
            "nextGrpId": 2533951722
        },
        {
            "index": 14,
            "grpId": 2533951722,
            "nextGrpId": 2533951726
        },
        {
            "index": 15,
            "grpId": 2533951723,
            "nextGrpId": 2533951724
        },
        {
            "index": 16,
            "grpId": 2533951724,
            "nextGrpId": 2533951725
        },
        {
            "index": 17,
            "grpId": 2533951725,
            "nextGrpId": 2533951726
        },
        {
            "index": 18,
            "grpId": 2533951726,
            "nextGrpId": 2533951748
        },
        {
            "index": 19,
            "grpId": 2533951748,
            "nextGrpId": 2533951749
        }
    ],
    "freeStyleDic": {
        "20842": [
            4100,
            1280,
            1180,
            4040,
            1190
        ]
    }
}