{
    "luaDataPath": "",
    "entityBan": "",
    "disableNpcLod": true,
    "isAutoBanNpc": true,
    "isBanWidgetPet": true,
    "protectNpcMobileLod": true,
    "startFade": {
        "startFadeOutDuration": 0.0
    },
    "endFade": {
        "startFadeOutDuration": 0.0
    },
    "actors": [
        {
            "alias": "Avatar",
            "visible": true,
            "bornPointName": "",
            "relativePosNpcAlias": "",
            "bindMovingTargetKey": ""
        },
        {
            "configID": 3020,
            "alias": "3020",
            "visible": true,
            "bornPointName": "",
            "forceCreateDaily": true,
            "relativePosNpcAlias": "",
            "bindMovingTargetKey": ""
        }
    ],
    "group": [
        [
            {
                "$type": "MoleMole.Config.ConfigTimeProtectAction",
                "type": "TIME_PROTECT",
                "duration": 0.10000000149011612
            }
        ],
        [
            {
                "$type": "DLPFECMKEKH",
                "type": "DIALOG",
                "aliasList": [
                    "3020"
                ],
                "NMKEDPFEKBH": 190603001,
                "JLCHMAJCAPA": 0.5
            },
            {
                "$type": "ECLBLHOENAG",
                "type": "DIALOG_SELECT",
                "delayTime": 0.4000000059604645,
                "aliasList": [
                    "Avatar"
                ],
                "NDMMOPDPKNF": [
                    190603002
                ],
                "FPDBIEGHMCD": [
                    1922390693
                ],
                "PKBOIGBGDEG": true
            }
        ],
        [
            {
                "$type": "DLPFECMKEKH",
                "type": "DIALOG",
                "aliasList": [
                    "3020"
                ],
                "NMKEDPFEKBH": 190603003,
                "JLCHMAJCAPA": 0.5
            }
        ],
        [
            {
                "$type": "DLPFECMKEKH",
                "type": "DIALOG",
                "aliasList": [
                    "3020"
                ],
                "NMKEDPFEKBH": 190603004,
                "JLCHMAJCAPA": 0.5
            }
        ],
        [
            {
                "$type": "DLPFECMKEKH",
                "type": "DIALOG",
                "aliasList": [
                    "3020"
                ],
                "NMKEDPFEKBH": 190603005,
                "JLCHMAJCAPA": 0.5
            }
        ],
        [
            {
                "$type": "DLPFECMKEKH",
                "type": "DIALOG",
                "aliasList": [
                    "3020"
                ],
                "NMKEDPFEKBH": 190603006,
                "JLCHMAJCAPA": 0.5
            },
            {
                "$type": "ECLBLHOENAG",
                "type": "DIALOG_SELECT",
                "delayTime": 0.4000000059604645,
                "aliasList": [
                    "Avatar"
                ],
                "NDMMOPDPKNF": [
                    190603007
                ],
                "FPDBIEGHMCD": [
                    1922390697
                ],
                "PKBOIGBGDEG": true
            }
        ],
        [
            {
                "$type": "DLPFECMKEKH",
                "type": "DIALOG",
                "aliasList": [
                    "3020"
                ],
                "NMKEDPFEKBH": 190603008,
                "JLCHMAJCAPA": 0.5
            }
        ],
        [
            {
                "$type": "DLPFECMKEKH",
                "type": "DIALOG",
                "aliasList": [
                    "3020"
                ],
                "NMKEDPFEKBH": 190603009,
                "JLCHMAJCAPA": 0.5
            }
        ],
        [
            {
                "$type": "DLPFECMKEKH",
                "type": "DIALOG",
                "aliasList": [
                    "3020"
                ],
                "NMKEDPFEKBH": 190603010,
                "JLCHMAJCAPA": 0.5
            }
        ],
        [
            {
                "$type": "MoleMole.Config.ConfigTimeProtectAction",
                "type": "TIME_PROTECT",
                "duration": 0.10000000149011612
            }
        ]
    ],
    "groupId": [
        {
            "grpId": 1922390691,
            "nextGrpId": 1922390692
        },
        {
            "index": 1,
            "grpId": 1922390692,
            "nextGrpId": 1922390693
        },
        {
            "index": 2,
            "grpId": 1922390693,
            "nextGrpId": 1922390694
        },
        {
            "index": 3,
            "grpId": 1922390694,
            "nextGrpId": 1922390695
        },
        {
            "index": 4,
            "grpId": 1922390695,
            "nextGrpId": 1922390696
        },
        {
            "index": 5,
            "grpId": 1922390696,
            "nextGrpId": 1922390697
        },
        {
            "index": 6,
            "grpId": 1922390697,
            "nextGrpId": 1922390698
        },
        {
            "index": 7,
            "grpId": 1922390698,
            "nextGrpId": 1922390699
        },
        {
            "index": 8,
            "grpId": 1922390699,
            "nextGrpId": 3759536621
        },
        {
            "index": 9,
            "grpId": 3759536621,
            "nextGrpId": 3759536622
        }
    ],
    "freeStyleDic": {
        "3020": []
    }
}