{
    "talkId": 6800293,
    "type": "GADGET",
    "dialogList": [
        {
            "id": 680029301,
            "talkRole": {
                "type": "TALK_ROLE_GADGET",
                "id": "70330445"
            },
            "talkContentTextMapHash": 1941788786,
            "talkRoleNameTextMapHash": 475082003,
            "talkAssetPath": "",
            "talkAssetPathAlter": "",
            "talkAudioName": "",
            "actionBefore": "",
            "actionWhile": "",
            "actionAfter": "",
            "optionIcon": ""
        }
    ]
}