{
    "talkId": 6841100,
    "type": "GADGET",
    "dialogList": [
        {
            "id": 684110001,
            "nextDialogs": [
                684110002
            ],
            "talkRole": {
                "type": "TALK_ROLE_GADGET",
                "id": "707111181"
            },
            "talkContentTextMapHash": 1631949538,
            "talkRoleNameTextMapHash": 191516467,
            "talkAssetPath": "",
            "talkAssetPathAlter": "",
            "talkAudioName": "",
            "actionBefore": "",
            "actionWhile": "",
            "actionAfter": "",
            "optionIcon": ""
        },
        {
            "id": 684110002,
            "talkRole": {
                "type": "TALK_ROLE_GADGET",
                "id": "707111181"
            },
            "talkContentTextMapHash": 3546165730,
            "talkRoleNameTextMapHash": 1133793219,
            "talkAssetPath": "",
            "talkAssetPathAlter": "",
            "talkAudioName": "",
            "actionBefore": "",
            "actionWhile": "",
            "actionAfter": "",
            "optionIcon": ""
        }
    ]
}