{
    "luaDataPath": "",
    "isSimpleTalk": true,
    "dontUseDefaultFinish": true,
    "entityBan": "",
    "disableNpcLod": true,
    "startFade": {
        "startFadeOutDuration": 0.0
    },
    "endFade": {
        "startFadeOutDuration": 0.0
    },
    "actors": [
        {
            "alias": "Avatar",
            "visible": true,
            "bornPointName": "",
            "relativePosNpcAlias": "",
            "bindMovingTargetKey": ""
        },
        {
            "configID": 20520,
            "alias": "20520",
            "visible": true,
            "bornPointName": "",
            "forceCreateDaily": true,
            "relativePosNpcAlias": "",
            "bindMovingTargetKey": ""
        },
        {
            "configID": 1005,
            "alias": "1005",
            "visible": true,
            "bornPointName": "",
            "useRelativePos": true,
            "relativePos": {
                "x": -0.5,
                "z": 0.5
            },
            "removeActorType": "REMOVE_WITH_DISAPPEAR",
            "relativePosNpcAlias": "",
            "bindMovingTargetKey": ""
        }
    ],
    "group": [
        [
            {
                "$type": "MoleMole.Config.ConfigTimeProtectAction",
                "type": "TIME_PROTECT",
                "duration": 0.10000000149011612
            },
            {
                "$type": "MOOOKOKLLEI",
                "type": "CAMERA_FOCUS",
                "duration": 0.10000000149011612,
                "OMCCMPHDLOO": "",
                "OCFGGGHIKOO": "",
                "LJFHGGJDPHH": "",
                "LPKDFKLNEHL": ""
            },
            {
                "$type": "OOMFCPJAJGL",
                "type": "STEER_TO",
                "delayTime": 0.30000001192092896,
                "duration": 0.800000011920929,
                "aliasList": [
                    "20520"
                ],
                "DMGIIHNDNLC": "TO_LOCAL_AVATAR_ADVANCED",
                "HCMINPNPFDF": true,
                "PENAEBFAHCH": true,
                "CKOEAJFMDON": true,
                "OMCCMPHDLOO": "",
                "DBLNLMOPEBP": ""
            }
        ],
        [
            {
                "$type": "DLPFECMKEKH",
                "type": "DIALOG",
                "aliasList": [
                    "20520"
                ],
                "NMKEDPFEKBH": 722630502,
                "JLCHMAJCAPA": 0.5
            },
            {
                "$type": "MoleMole.Config.ConfigLuaAction",
                "type": "LUA_ACTION",
                "delayTime": 0.10000000149011612,
                "duration": 0.10000000149011612,
                "invoke": true,
                "invokeAlias": "72263",
                "invokeParam": 722630500
            }
        ],
        [
            {
                "$type": "DLPFECMKEKH",
                "type": "DIALOG",
                "aliasList": [
                    "1005"
                ],
                "NMKEDPFEKBH": 722630503,
                "JLCHMAJCAPA": 0.5
            },
            {
                "$type": "ECLBLHOENAG",
                "type": "DIALOG_SELECT",
                "delayTime": 0.4000000059604645,
                "aliasList": [
                    "Avatar"
                ],
                "NDMMOPDPKNF": [
                    722630504,
                    722630507,
                    722630510
                ],
                "FPDBIEGHMCD": [
                    2617726969,
                    2617726971,
                    3840124736
                ],
                "PKBOIGBGDEG": true
            }
        ],
        [
            {
                "$type": "DLPFECMKEKH",
                "type": "DIALOG",
                "aliasList": [
                    "20520"
                ],
                "NMKEDPFEKBH": 722630505,
                "JLCHMAJCAPA": 0.5
            },
            {
                "$type": "MoleMole.Config.ConfigLuaAction",
                "type": "LUA_ACTION",
                "delayTime": 0.10000000149011612,
                "duration": 0.10000000149011612,
                "invoke": true,
                "invokeAlias": "72263",
                "invokeParam": 722630599
            }
        ],
        [
            {
                "$type": "DLPFECMKEKH",
                "type": "DIALOG",
                "aliasList": [
                    "1005"
                ],
                "NMKEDPFEKBH": 722630506,
                "JLCHMAJCAPA": 0.5
            }
        ],
        [
            {
                "$type": "DLPFECMKEKH",
                "type": "DIALOG",
                "aliasList": [
                    "20520"
                ],
                "NMKEDPFEKBH": 722630508,
                "JLCHMAJCAPA": 0.5
            },
            {
                "$type": "MoleMole.Config.ConfigLuaAction",
                "type": "LUA_ACTION",
                "delayTime": 0.10000000149011612,
                "duration": 0.10000000149011612,
                "invoke": true,
                "invokeAlias": "72263",
                "invokeParam": 722630501
            }
        ],
        [
            {
                "$type": "DLPFECMKEKH",
                "type": "DIALOG",
                "aliasList": [
                    "1005"
                ],
                "NMKEDPFEKBH": 722630509,
                "JLCHMAJCAPA": 0.5
            }
        ],
        [
            {
                "$type": "DLPFECMKEKH",
                "type": "DIALOG",
                "aliasList": [
                    "20520"
                ],
                "NMKEDPFEKBH": 722630513,
                "JLCHMAJCAPA": 0.5
            }
        ],
        [
            {
                "$type": "DLPFECMKEKH",
                "type": "DIALOG",
                "aliasList": [
                    "1005"
                ],
                "NMKEDPFEKBH": 722630514,
                "JLCHMAJCAPA": 0.5
            }
        ],
        [
            {
                "$type": "DLPFECMKEKH",
                "type": "DIALOG",
                "aliasList": [
                    "20520"
                ],
                "NMKEDPFEKBH": 722630515,
                "JLCHMAJCAPA": 0.5
            },
            {
                "$type": "ECLBLHOENAG",
                "type": "DIALOG_SELECT",
                "delayTime": 0.4000000059604645,
                "aliasList": [
                    "Avatar"
                ],
                "NDMMOPDPKNF": [
                    722630516,
                    722630520
                ],
                "FPDBIEGHMCD": [
                    3840124667,
                    3840124734
                ],
                "PKBOIGBGDEG": true
            }
        ],
        [
            {
                "$type": "DLPFECMKEKH",
                "type": "DIALOG",
                "aliasList": [
                    "20520"
                ],
                "NMKEDPFEKBH": 722630517,
                "JLCHMAJCAPA": 0.5
            },
            {
                "$type": "MoleMole.Config.ConfigLuaAction",
                "type": "LUA_ACTION",
                "delayTime": 0.10000000149011612,
                "duration": 0.10000000149011612,
                "invoke": true,
                "invokeAlias": "72263",
                "invokeParam": 722630502
            }
        ],
        [
            {
                "$type": "DLPFECMKEKH",
                "type": "DIALOG",
                "aliasList": [
                    "20520"
                ],
                "NMKEDPFEKBH": 722630518,
                "JLCHMAJCAPA": 0.5
            }
        ],
        [
            {
                "$type": "DLPFECMKEKH",
                "type": "DIALOG",
                "aliasList": [
                    "1005"
                ],
                "NMKEDPFEKBH": 722630519,
                "JLCHMAJCAPA": 0.5
            }
        ],
        [
            {
                "$type": "DLPFECMKEKH",
                "type": "DIALOG",
                "aliasList": [
                    "20520"
                ],
                "NMKEDPFEKBH": 722630523,
                "JLCHMAJCAPA": 0.5
            }
        ],
        [
            {
                "$type": "DLPFECMKEKH",
                "type": "DIALOG",
                "aliasList": [
                    "20520"
                ],
                "NMKEDPFEKBH": 722630524,
                "JLCHMAJCAPA": 0.5
            },
            {
                "$type": "ECLBLHOENAG",
                "type": "DIALOG_SELECT",
                "delayTime": 0.4000000059604645,
                "aliasList": [
                    "Avatar"
                ],
                "NDMMOPDPKNF": [
                    722630525,
                    722630528
                ],
                "FPDBIEGHMCD": [
                    3840124672,
                    3840124674
                ],
                "PKBOIGBGDEG": true
            }
        ],
        [
            {
                "$type": "DLPFECMKEKH",
                "type": "DIALOG",
                "aliasList": [
                    "20520"
                ],
                "NMKEDPFEKBH": 722630526,
                "JLCHMAJCAPA": 0.5
            },
            {
                "$type": "MoleMole.Config.ConfigLuaAction",
                "type": "LUA_ACTION",
                "delayTime": 0.10000000149011612,
                "duration": 0.10000000149011612,
                "invoke": true,
                "invokeAlias": "72263",
                "invokeParam": 722630599
            }
        ],
        [
            {
                "$type": "DLPFECMKEKH",
                "type": "DIALOG",
                "aliasList": [
                    "1005"
                ],
                "NMKEDPFEKBH": 722630527,
                "JLCHMAJCAPA": 0.5
            }
        ],
        [
            {
                "$type": "DLPFECMKEKH",
                "type": "DIALOG",
                "aliasList": [
                    "20520"
                ],
                "NMKEDPFEKBH": 722630529,
                "JLCHMAJCAPA": 0.5
            },
            {
                "$type": "MoleMole.Config.ConfigLuaAction",
                "type": "LUA_ACTION",
                "delayTime": 0.10000000149011612,
                "duration": 0.10000000149011612,
                "invoke": true,
                "invokeAlias": "72263",
                "invokeParam": 722630503
            }
        ],
        [
            {
                "$type": "MoleMole.Config.ConfigBlackScreenAction",
                "type": "BLACK_SCREEN",
                "durationToBlack": 0.5,
                "durationKeepBlack": 1.0,
                "durationFromBlack": 0.5,
                "inteePos": "",
                "textMapID": "",
                "useTextFade": true
            },
            {
                "$type": "MoleMole.Config.ConfigLuaAction",
                "type": "LUA_ACTION",
                "delayTime": 0.5,
                "duration": 0.10000000149011612,
                "invoke": true,
                "invokeAlias": "72263",
                "invokeParam": 722630504
            }
        ],
        [
            {
                "$type": "DLPFECMKEKH",
                "type": "DIALOG",
                "aliasList": [
                    "20520"
                ],
                "NMKEDPFEKBH": 722630532,
                "JLCHMAJCAPA": 0.5
            },
            {
                "$type": "ECLBLHOENAG",
                "type": "DIALOG_SELECT",
                "delayTime": 0.4000000059604645,
                "aliasList": [
                    "Avatar"
                ],
                "NDMMOPDPKNF": [
                    722630533
                ],
                "FPDBIEGHMCD": [
                    3840124698
                ],
                "PKBOIGBGDEG": true
            }
        ],
        [
            {
                "$type": "DLPFECMKEKH",
                "type": "DIALOG",
                "aliasList": [
                    "20520"
                ],
                "NMKEDPFEKBH": 722630534,
                "JLCHMAJCAPA": 0.5
            }
        ],
        [
            {
                "$type": "DLPFECMKEKH",
                "type": "DIALOG",
                "aliasList": [
                    "20520"
                ],
                "NMKEDPFEKBH": 722630535,
                "JLCHMAJCAPA": 0.5
            }
        ],
        [
            {
                "$type": "DLPFECMKEKH",
                "type": "DIALOG",
                "aliasList": [
                    "1005"
                ],
                "NMKEDPFEKBH": 722630536,
                "JLCHMAJCAPA": 0.5
            }
        ],
        [
            {
                "$type": "DLPFECMKEKH",
                "type": "DIALOG",
                "aliasList": [
                    "20520"
                ],
                "NMKEDPFEKBH": 722630537,
                "JLCHMAJCAPA": 0.5
            }
        ],
        [
            {
                "$type": "DLPFECMKEKH",
                "type": "DIALOG",
                "aliasList": [
                    "1005"
                ],
                "NMKEDPFEKBH": 722630538,
                "JLCHMAJCAPA": 0.5
            },
            {
                "$type": "ECLBLHOENAG",
                "type": "DIALOG_SELECT",
                "delayTime": 0.4000000059604645,
                "aliasList": [
                    "Avatar"
                ],
                "NDMMOPDPKNF": [
                    722630539
                ],
                "FPDBIEGHMCD": [
                    3840124703
                ],
                "PKBOIGBGDEG": true
            }
        ],
        [
            {
                "$type": "DLPFECMKEKH",
                "type": "DIALOG",
                "aliasList": [
                    "20520"
                ],
                "NMKEDPFEKBH": 722630540,
                "JLCHMAJCAPA": 0.5
            }
        ],
        [
            {
                "$type": "DLPFECMKEKH",
                "type": "DIALOG",
                "aliasList": [
                    "20520"
                ],
                "NMKEDPFEKBH": 722630541,
                "JLCHMAJCAPA": 0.5
            }
        ],
        [
            {
                "$type": "DLPFECMKEKH",
                "type": "DIALOG",
                "aliasList": [
                    "20520"
                ],
                "NMKEDPFEKBH": 722630542,
                "JLCHMAJCAPA": 0.5
            },
            {
                "$type": "ECLBLHOENAG",
                "type": "DIALOG_SELECT",
                "delayTime": 0.4000000059604645,
                "aliasList": [
                    "Avatar"
                ],
                "NDMMOPDPKNF": [
                    722630543
                ],
                "FPDBIEGHMCD": [
                    3840124706
                ],
                "PKBOIGBGDEG": true
            }
        ],
        [
            {
                "$type": "DLPFECMKEKH",
                "type": "DIALOG",
                "aliasList": [
                    "20520"
                ],
                "NMKEDPFEKBH": 722630544,
                "JLCHMAJCAPA": 0.5
            }
        ],
        [
            {
                "$type": "DLPFECMKEKH",
                "type": "DIALOG",
                "aliasList": [
                    "1005"
                ],
                "NMKEDPFEKBH": 722630545,
                "JLCHMAJCAPA": 0.5
            }
        ],
        [
            {
                "$type": "DLPFECMKEKH",
                "type": "DIALOG",
                "aliasList": [
                    "20520"
                ],
                "NMKEDPFEKBH": 722630546,
                "JLCHMAJCAPA": 0.5
            }
        ],
        [
            {
                "$type": "DLPFECMKEKH",
                "type": "DIALOG",
                "aliasList": [
                    "20520"
                ],
                "NMKEDPFEKBH": 722630547,
                "JLCHMAJCAPA": 0.5
            }
        ],
        [
            {
                "$type": "DLPFECMKEKH",
                "type": "DIALOG",
                "aliasList": [
                    "20520"
                ],
                "NMKEDPFEKBH": 722630548,
                "JLCHMAJCAPA": 0.5
            }
        ],
        [
            {
                "$type": "DLPFECMKEKH",
                "type": "DIALOG",
                "aliasList": [
                    "20520"
                ],
                "NMKEDPFEKBH": 722630549,
                "JLCHMAJCAPA": 0.5
            }
        ],
        [
            {
                "$type": "DLPFECMKEKH",
                "type": "DIALOG",
                "aliasList": [
                    "20520"
                ],
                "NMKEDPFEKBH": 722630550,
                "JLCHMAJCAPA": 0.5
            }
        ],
        [
            {
                "$type": "DLPFECMKEKH",
                "type": "DIALOG",
                "aliasList": [
                    "20520"
                ],
                "NMKEDPFEKBH": 722630521,
                "JLCHMAJCAPA": 0.5
            },
            {
                "$type": "MoleMole.Config.ConfigLuaAction",
                "type": "LUA_ACTION",
                "delayTime": 0.10000000149011612,
                "duration": 0.10000000149011612,
                "invoke": true,
                "invokeAlias": "72263",
                "invokeParam": 722630599
            }
        ],
        [
            {
                "$type": "DLPFECMKEKH",
                "type": "DIALOG",
                "aliasList": [
                    "1005"
                ],
                "NMKEDPFEKBH": 722630522,
                "JLCHMAJCAPA": 0.5
            }
        ],
        [
            {
                "$type": "DLPFECMKEKH",
                "type": "DIALOG",
                "aliasList": [
                    "1005"
                ],
                "NMKEDPFEKBH": 722630511,
                "JLCHMAJCAPA": 0.5
            },
            {
                "$type": "MoleMole.Config.ConfigLuaAction",
                "type": "LUA_ACTION",
                "delayTime": 0.10000000149011612,
                "duration": 0.10000000149011612,
                "invoke": true,
                "invokeAlias": "72263",
                "invokeParam": 722630599
            }
        ],
        [
            {
                "$type": "DLPFECMKEKH",
                "type": "DIALOG",
                "aliasList": [
                    "20520"
                ],
                "NMKEDPFEKBH": 722630512,
                "JLCHMAJCAPA": 0.5
            }
        ],
        [
            {
                "$type": "DLPFECMKEKH",
                "type": "DIALOG",
                "aliasList": [
                    "20520"
                ],
                "NMKEDPFEKBH": 722630530,
                "JLCHMAJCAPA": 0.5
            }
        ],
        [
            {
                "$type": "DLPFECMKEKH",
                "type": "DIALOG",
                "aliasList": [
                    "1005"
                ],
                "NMKEDPFEKBH": 722630531,
                "JLCHMAJCAPA": 0.5
            },
            {
                "$type": "MoleMole.Config.ConfigLuaAction",
                "type": "LUA_ACTION",
                "delayTime": 0.10000000149011612,
                "duration": 0.10000000149011612,
                "invoke": true,
                "invokeAlias": "72263",
                "invokeParam": 722630588
            }
        ],
        [
            {
                "$type": "MoleMole.Config.ConfigTimeProtectAction",
                "type": "TIME_PROTECT",
                "duration": 0.10000000149011612
            }
        ],
        [
            {
                "$type": "MoleMole.Config.ConfigTimeProtectAction",
                "type": "TIME_PROTECT",
                "duration": 0.10000000149011612
            }
        ]
    ],
    "groupId": [
        {
            "grpId": 2617726966,
            "nextGrpId": 2617726967
        },
        {
            "index": 1,
            "grpId": 2617726967,
            "nextGrpId": 2617726968
        },
        {
            "index": 2,
            "grpId": 2617726968,
            "nextGrpId": 2617726969
        },
        {
            "index": 3,
            "grpId": 2617726969,
            "nextGrpId": 2617726970
        },
        {
            "index": 4,
            "grpId": 2617726970,
            "nextGrpId": 3840124759
        },
        {
            "index": 5,
            "grpId": 2617726971,
            "nextGrpId": 2617726972
        },
        {
            "index": 6,
            "grpId": 2617726972,
            "nextGrpId": 2617726973
        },
        {
            "index": 7,
            "grpId": 2617726973,
            "nextGrpId": 2617726974
        },
        {
            "index": 8,
            "grpId": 2617726974,
            "nextGrpId": 3840124666
        },
        {
            "index": 9,
            "grpId": 3840124666,
            "nextGrpId": 3840124667
        },
        {
            "index": 10,
            "grpId": 3840124667,
            "nextGrpId": 3840124668
        },
        {
            "index": 11,
            "grpId": 3840124668,
            "nextGrpId": 3840124669
        },
        {
            "index": 12,
            "grpId": 3840124669,
            "nextGrpId": 3840124670
        },
        {
            "index": 13,
            "grpId": 3840124670,
            "nextGrpId": 3840124671
        },
        {
            "index": 14,
            "grpId": 3840124671,
            "nextGrpId": 3840124672
        },
        {
            "index": 15,
            "grpId": 3840124672,
            "nextGrpId": 3840124673
        },
        {
            "index": 16,
            "grpId": 3840124673,
            "nextGrpId": 3840124759
        },
        {
            "index": 17,
            "grpId": 3840124674,
            "nextGrpId": 3840124675
        },
        {
            "index": 18,
            "grpId": 3840124675,
            "nextGrpId": 3840124697
        },
        {
            "index": 19,
            "grpId": 3840124697,
            "nextGrpId": 3840124698
        },
        {
            "index": 20,
            "grpId": 3840124698,
            "nextGrpId": 3840124699
        },
        {
            "index": 21,
            "grpId": 3840124699,
            "nextGrpId": 3840124700
        },
        {
            "index": 22,
            "grpId": 3840124700,
            "nextGrpId": 3840124701
        },
        {
            "index": 23,
            "grpId": 3840124701,
            "nextGrpId": 3840124702
        },
        {
            "index": 24,
            "grpId": 3840124702,
            "nextGrpId": 3840124703
        },
        {
            "index": 25,
            "grpId": 3840124703,
            "nextGrpId": 3840124704
        },
        {
            "index": 26,
            "grpId": 3840124704,
            "nextGrpId": 3840124705
        },
        {
            "index": 27,
            "grpId": 3840124705,
            "nextGrpId": 3840124706
        },
        {
            "index": 28,
            "grpId": 3840124706,
            "nextGrpId": 3840124728
        },
        {
            "index": 29,
            "grpId": 3840124728,
            "nextGrpId": 3840124729
        },
        {
            "index": 30,
            "grpId": 3840124729,
            "nextGrpId": 3840124730
        },
        {
            "index": 31,
            "grpId": 3840124730,
            "nextGrpId": 3840124731
        },
        {
            "index": 32,
            "grpId": 3840124731,
            "nextGrpId": 3840124732
        },
        {
            "index": 33,
            "grpId": 3840124732,
            "nextGrpId": 3840124733
        },
        {
            "index": 34,
            "grpId": 3840124733,
            "nextGrpId": 3840124761
        },
        {
            "index": 35,
            "grpId": 3840124734,
            "nextGrpId": 3840124735
        },
        {
            "index": 36,
            "grpId": 3840124735,
            "nextGrpId": 3840124759
        },
        {
            "index": 37,
            "grpId": 3840124736,
            "nextGrpId": 3840124737
        },
        {
            "index": 38,
            "grpId": 3840124737,
            "nextGrpId": 3840124759
        },
        {
            "index": 39,
            "grpId": 3840124759,
            "nextGrpId": 3840124760
        },
        {
            "index": 40,
            "grpId": 3840124760,
            "nextGrpId": 3840124761
        },
        {
            "index": 41,
            "grpId": 3840124761,
            "nextGrpId": 3840124762
        },
        {
            "index": 42,
            "grpId": 3840124762,
            "nextGrpId": 3840124763
        }
    ],
    "freeStyleDic": {
        "20520": []
    }
}