{
    "Shinobu_PermanentSkill_1": [
        {
            "$type": "BPBLPCNKLDD",
            "abilityName": "Avatar_Shinobu_PermanentSkill_WhenLowHp"
        },
        {
            "$type": "BLOLBDELNDP",
            "abilityName": "Avatar_Shinobu_PermanentSkill_WhenLowHp",
            "KKNOLKPKHIH": "HpRate_P1",
            "MLANNEPKLMA": "%1",
            "BNENLHBJMIP": 0.0
        },
        {
            "$type": "BLOLBDELNDP",
            "abilityName": "Avatar_Shinobu_PermanentSkill_WhenLowHp",
            "KKNOLKPKHIH": "HealAddDelta_P2",
            "MLANNEPKLMA": "%2",
            "BNENLHBJMIP": 0.0
        }
    ],
    "Shinobu_PermanentSkill_2": [
        {
            "$type": "BLOLBDELNDP",
            "abilityName": "Avatar_Shinobu_ElementalArt_TickLogic",
            "KKNOLKPKHIH": "Shinobu_PermanentSkill_2_P1",
            "MLANNEPKLMA": "%1"
        },
        {
            "$type": "BLOLBDELNDP",
            "abilityName": "Avatar_Shinobu_ElementalArt_TickLogic",
            "KKNOLKPKHIH": "Shinobu_PermanentSkill_2_P2",
            "MLANNEPKLMA": "%2"
        },
        {
            "$type": "BLOLBDELNDP",
            "abilityName": "Avatar_Shinobu_ElementalArt",
            "KKNOLKPKHIH": "Shinobu_PermanentSkill_2_P2",
            "MLANNEPKLMA": "%2"
        }
    ],
    "Shinobu_Constellation_1": [
        {
            "$type": "NKFMFNFJBIA",
            "abilityName": "Avatar_Shinobu_ElementalBurst",
            "FABCANIFKGH": "Shinobu_Constellation_1"
        },
        {
            "$type": "NKFMFNFJBIA",
            "abilityName": "Shinobu_ElementalBurst_Gadget",
            "FABCANIFKGH": "Shinobu_Constellation_1"
        }
    ],
    "Shinobu_Constellation_2": [
        {
            "$type": "BLOLBDELNDP",
            "abilityName": "SkillObj_Shinobu_ElementalArt_LifetimeHandler",
            "KKNOLKPKHIH": "Duration_Add",
            "MLANNEPKLMA": "%1",
            "BNENLHBJMIP": 0.0
        }
    ],
    "Shinobu_Constellation_3": [
        {
            "$type": "CALABGENPGG",
            "CMDDNBCIAOP": "AvatarSkill",
            "LAGMJPKMAHL": 2,
            "CNHMFCFFLPO": 3
        }
    ],
    "Shinobu_Constellation_4": [
        {
            "$type": "NKFMFNFJBIA",
            "abilityName": "SkillObj_Shinobu_ElementalArt_LifetimeHandler",
            "FABCANIFKGH": "Shinobu_Constellation_4"
        },
        {
            "$type": "BPBLPCNKLDD",
            "abilityName": "Avatar_Shinobu_Constellation_AddAttack"
        },
        {
            "$type": "BLOLBDELNDP",
            "abilityName": "Avatar_Shinobu_Constellation_AddAttack",
            "KKNOLKPKHIH": "Shinobu_Constellation_4_Dmg_P1",
            "MLANNEPKLMA": "%1",
            "BNENLHBJMIP": 0.0
        },
        {
            "$type": "BLOLBDELNDP",
            "abilityName": "Avatar_Shinobu_Constellation_AddAttack",
            "KKNOLKPKHIH": "Shinobu_Constellation_4_CD_P2",
            "MLANNEPKLMA": "%2",
            "BNENLHBJMIP": 0.0
        }
    ],
    "Shinobu_Constellation_5": [
        {
            "$type": "CALABGENPGG",
            "CMDDNBCIAOP": "AvatarSkill",
            "LAGMJPKMAHL": 9,
            "CNHMFCFFLPO": 3
        }
    ],
    "Shinobu_Constellation_6": [
        {
            "$type": "BPBLPCNKLDD",
            "abilityName": "Avatar_Shinobu_Constellation6_Limbo"
        },
        {
            "$type": "BPBLPCNKLDD",
            "abilityName": "Avatar_Shinobu_Constellation6_Limbo_Trigger_Protect"
        },
        {
            "$type": "BPBLPCNKLDD",
            "abilityName": "Avatar_Shinobu_Constellation6_Limbo_Trigger_ElemMastery"
        },
        {
            "$type": "BLOLBDELNDP",
            "abilityName": "Avatar_Shinobu_Constellation6_Limbo",
            "KKNOLKPKHIH": "Shinobu_Constellation_6_HpRate_P1",
            "MLANNEPKLMA": "%1"
        },
        {
            "$type": "BLOLBDELNDP",
            "abilityName": "Avatar_Shinobu_Constellation6_Limbo_Trigger_Protect",
            "KKNOLKPKHIH": "Shinobu_Constellation6_BuffDuration_P2",
            "MLANNEPKLMA": "%2"
        },
        {
            "$type": "BLOLBDELNDP",
            "abilityName": "Avatar_Shinobu_Constellation6_Limbo_Trigger_ElemMastery",
            "KKNOLKPKHIH": "Shinobu_Constellation6_BuffDuration_P2",
            "MLANNEPKLMA": "%2"
        },
        {
            "$type": "BLOLBDELNDP",
            "abilityName": "Avatar_Shinobu_Constellation6_Limbo_Trigger_ElemMastery",
            "KKNOLKPKHIH": "Shinobu_Constellation6_ElemMasteryDelta_P3",
            "MLANNEPKLMA": "%3"
        }
    ],
    "Shinobu_SkillUpgrade_1": [
        {
            "$type": "BLOLBDELNDP",
            "abilityName": "Avatar_Shinobu_NormalAttack_DamageHandler",
            "KKNOLKPKHIH": "NormalAttack_01_DamagePercentage",
            "MLANNEPKLMA": "%1",
            "BNENLHBJMIP": 0.0
        },
        {
            "$type": "BLOLBDELNDP",
            "abilityName": "Avatar_Shinobu_NormalAttack_DamageHandler",
            "KKNOLKPKHIH": "NormalAttack_02_DamagePercentage",
            "MLANNEPKLMA": "%2",
            "BNENLHBJMIP": 0.0
        },
        {
            "$type": "BLOLBDELNDP",
            "abilityName": "Avatar_Shinobu_NormalAttack_DamageHandler",
            "KKNOLKPKHIH": "NormalAttack_03_DamagePercentage",
            "MLANNEPKLMA": "%3",
            "BNENLHBJMIP": 0.0
        },
        {
            "$type": "BLOLBDELNDP",
            "abilityName": "Avatar_Shinobu_NormalAttack_DamageHandler",
            "KKNOLKPKHIH": "NormalAttack_04_DamagePercentage",
            "MLANNEPKLMA": "%4",
            "BNENLHBJMIP": 0.0
        },
        {
            "$type": "BLOLBDELNDP",
            "abilityName": "Avatar_Shinobu_NormalAttack_DamageHandler",
            "KKNOLKPKHIH": "ExtraAttack1_DamagePercentag",
            "MLANNEPKLMA": "%5"
        },
        {
            "$type": "BLOLBDELNDP",
            "abilityName": "Avatar_Shinobu_NormalAttack_DamageHandler",
            "KKNOLKPKHIH": "ExtraAttack2_DamagePercentag",
            "MLANNEPKLMA": "%6"
        },
        {
            "$type": "BLOLBDELNDP",
            "abilityName": "Avatar_Shinobu_ExtraAttack",
            "KKNOLKPKHIH": "ExtraAttack_Sword_Stamina_Cost",
            "MLANNEPKLMA": "%7",
            "BNENLHBJMIP": 0.0
        },
        {
            "$type": "BLOLBDELNDP",
            "abilityName": "Avatar_Shinobu_FallingAnthem",
            "KKNOLKPKHIH": "FallingAnthem_Normal_Loop_Damage",
            "MLANNEPKLMA": "%8",
            "BNENLHBJMIP": 0.0
        },
        {
            "$type": "BLOLBDELNDP",
            "abilityName": "Avatar_Shinobu_FallingAnthem",
            "KKNOLKPKHIH": "FallingAnthem_Normal_Rank_1_Damage",
            "MLANNEPKLMA": "%9",
            "BNENLHBJMIP": 0.0
        },
        {
            "$type": "BLOLBDELNDP",
            "abilityName": "Avatar_Shinobu_FallingAnthem",
            "KKNOLKPKHIH": "FallingAnthem_Normal_Rank_2_Damage",
            "MLANNEPKLMA": "%10",
            "BNENLHBJMIP": 0.0
        }
    ],
    "Shinobu_SkillUpgrade_2": [
        {
            "$type": "BLOLBDELNDP",
            "abilityName": "Avatar_Shinobu_ElementalArt",
            "KKNOLKPKHIH": "ElementalArt_OnceAttack_Damage",
            "MLANNEPKLMA": "%1",
            "BNENLHBJMIP": 0.0
        },
        {
            "$type": "BLOLBDELNDP",
            "abilityName": "Avatar_Shinobu_ElementalArt_TickLogic",
            "KKNOLKPKHIH": "ElementalArt_Heal_MaxHP_Percentage",
            "MLANNEPKLMA": "%2",
            "BNENLHBJMIP": 0.0
        },
        {
            "$type": "BLOLBDELNDP",
            "abilityName": "Avatar_Shinobu_ElementalArt_TickLogic",
            "KKNOLKPKHIH": "ElementalArt_Heal_Amount",
            "MLANNEPKLMA": "%3",
            "BNENLHBJMIP": 0.0
        },
        {
            "$type": "BLOLBDELNDP",
            "abilityName": "Avatar_Shinobu_ElementalArt_TickLogic",
            "KKNOLKPKHIH": "Elemental_Art_TickDamage",
            "MLANNEPKLMA": "%4",
            "BNENLHBJMIP": 0.0
        }
    ],
    "Shinobu_SkillUpgrade_3": [
        {
            "$type": "BLOLBDELNDP",
            "abilityName": "Shinobu_ElementalBurst_Gadget",
            "KKNOLKPKHIH": "ElementalBurst_Damage_Percentage",
            "MLANNEPKLMA": "%1",
            "BNENLHBJMIP": 0.0
        }
    ]
}