{
    "Freminet_SkillUpgrade_1": [
        {
            "$type": "BLOLBDELNDP",
            "abilityName": "Avatar_Freminet_DamageHandler",
            "KKNOLKPKHIH": "Freminet_NormalAttack_01",
            "MLANNEPKLMA": "%1"
        },
        {
            "$type": "BLOLBDELNDP",
            "abilityName": "Avatar_Freminet_DamageHandler",
            "KKNOLKPKHIH": "Freminet_NormalAttack_02",
            "MLANNEPKLMA": "%2"
        },
        {
            "$type": "BLOLBDELNDP",
            "abilityName": "Avatar_Freminet_DamageHandler",
            "KKNOLKPKHIH": "Freminet_NormalAttack_03",
            "MLANNEPKLMA": "%3"
        },
        {
            "$type": "BLOLBDELNDP",
            "abilityName": "Avatar_Freminet_DamageHandler",
            "KKNOLKPKHIH": "Freminet_NormalAttack_04",
            "MLANNEPKLMA": "%4"
        },
        {
            "$type": "BLOLBDELNDP",
            "abilityName": "Avatar_Freminet_DamageHandler",
            "KKNOLKPKHIH": "Freminet_ExtraAttack_01",
            "MLANNEPKLMA": "%5"
        },
        {
            "$type": "BLOLBDELNDP",
            "abilityName": "Avatar_Freminet_DamageHandler",
            "KKNOLKPKHIH": "Freminet_ExtraAttack_02",
            "MLANNEPKLMA": "%6"
        },
        {
            "$type": "BLOLBDELNDP",
            "abilityName": "Avatar_Freminet_ExtraAttack",
            "KKNOLKPKHIH": "StaminaCost",
            "MLANNEPKLMA": "%7"
        },
        {
            "$type": "BLOLBDELNDP",
            "abilityName": "Avatar_Freminet_ExtraAttack",
            "KKNOLKPKHIH": "Max_Dura",
            "MLANNEPKLMA": "%8"
        },
        {
            "$type": "BLOLBDELNDP",
            "abilityName": "Avatar_Freminet_FallingAnthem",
            "KKNOLKPKHIH": "FallingAnthem_Normal_Loop_Damage",
            "MLANNEPKLMA": "%9"
        },
        {
            "$type": "BLOLBDELNDP",
            "abilityName": "Avatar_Freminet_FallingAnthem",
            "KKNOLKPKHIH": "FallingAnthem_Normal_Rank_1_Damage",
            "MLANNEPKLMA": "%10"
        },
        {
            "$type": "BLOLBDELNDP",
            "abilityName": "Avatar_Freminet_FallingAnthem",
            "KKNOLKPKHIH": "FallingAnthem_Normal_Rank_2_Damage",
            "MLANNEPKLMA": "%11"
        }
    ],
    "Freminet_SkillUpgrade_2": [
        {
            "$type": "BLOLBDELNDP",
            "abilityName": "Avatar_Freminet_ElementalArt_Strike",
            "KKNOLKPKHIH": "Damage",
            "MLANNEPKLMA": "%1"
        },
        {
            "$type": "BLOLBDELNDP",
            "abilityName": "Avatar_Freminet_ArkheGrade",
            "KKNOLKPKHIH": "Arkhe_Damage",
            "MLANNEPKLMA": "%2"
        },
        {
            "$type": "BLOLBDELNDP",
            "abilityName": "Avatar_Freminet_ArkheGrade",
            "KKNOLKPKHIH": "Arkhe_CD",
            "MLANNEPKLMA": "%13"
        },
        {
            "$type": "BLOLBDELNDP",
            "abilityName": "SkillObj_Freminet_Additional_01_Material",
            "KKNOLKPKHIH": "Art_01",
            "MLANNEPKLMA": "%3"
        },
        {
            "$type": "BLOLBDELNDP",
            "abilityName": "SkillObj_Freminet_Additional_02_Material",
            "KKNOLKPKHIH": "Art_02",
            "MLANNEPKLMA": "%3"
        },
        {
            "$type": "BLOLBDELNDP",
            "abilityName": "SkillObj_Freminet_Additional_03_Material",
            "KKNOLKPKHIH": "Art_03",
            "MLANNEPKLMA": "%3"
        },
        {
            "$type": "BLOLBDELNDP",
            "abilityName": "SkillObj_Freminet_Additional_04_Material",
            "KKNOLKPKHIH": "Art_04",
            "MLANNEPKLMA": "%3"
        },
        {
            "$type": "BLOLBDELNDP",
            "abilityName": "SkillObj_Freminet_Additional_01_Material_Big",
            "KKNOLKPKHIH": "Art_01_Big",
            "MLANNEPKLMA": "%3"
        },
        {
            "$type": "BLOLBDELNDP",
            "abilityName": "SkillObj_Freminet_Additional_02_Material_Big",
            "KKNOLKPKHIH": "Art_02_Big",
            "MLANNEPKLMA": "%3"
        },
        {
            "$type": "BLOLBDELNDP",
            "abilityName": "SkillObj_Freminet_Additional_03_Material_Big",
            "KKNOLKPKHIH": "Art_03_Big",
            "MLANNEPKLMA": "%3"
        },
        {
            "$type": "BLOLBDELNDP",
            "abilityName": "SkillObj_Freminet_Additional_04_Material_Big",
            "KKNOLKPKHIH": "Art_04_Big",
            "MLANNEPKLMA": "%3"
        },
        {
            "$type": "BLOLBDELNDP",
            "abilityName": "Avatar_Freminet_ElementalArt_2",
            "KKNOLKPKHIH": "Ice4",
            "MLANNEPKLMA": "%4"
        },
        {
            "$type": "BLOLBDELNDP",
            "abilityName": "Avatar_Freminet_ElementalArt_2",
            "KKNOLKPKHIH": "Ice3",
            "MLANNEPKLMA": "%5"
        },
        {
            "$type": "BLOLBDELNDP",
            "abilityName": "Avatar_Freminet_ElementalArt_2",
            "KKNOLKPKHIH": "Ice2",
            "MLANNEPKLMA": "%7"
        },
        {
            "$type": "BLOLBDELNDP",
            "abilityName": "Avatar_Freminet_ElementalArt_2",
            "KKNOLKPKHIH": "Ice1",
            "MLANNEPKLMA": "%9"
        },
        {
            "$type": "BLOLBDELNDP",
            "abilityName": "SkillObj_Freminet_ElementalArt_SecondAttack",
            "KKNOLKPKHIH": "Phy3",
            "MLANNEPKLMA": "%6"
        },
        {
            "$type": "BLOLBDELNDP",
            "abilityName": "SkillObj_Freminet_ElementalArt_SecondAttack",
            "KKNOLKPKHIH": "Phy2",
            "MLANNEPKLMA": "%8"
        },
        {
            "$type": "BLOLBDELNDP",
            "abilityName": "SkillObj_Freminet_ElementalArt_SecondAttack",
            "KKNOLKPKHIH": "Phy1",
            "MLANNEPKLMA": "%10"
        },
        {
            "$type": "BLOLBDELNDP",
            "abilityName": "Avatar_Freminet_ElementalArt_3",
            "KKNOLKPKHIH": "Phy0",
            "MLANNEPKLMA": "%11"
        }
    ],
    "Freminet_SkillUpgrade_3": [
        {
            "$type": "BLOLBDELNDP",
            "abilityName": "Avatar_Freminet_ElementalBurst_Strike",
            "KKNOLKPKHIH": "Damage",
            "MLANNEPKLMA": "%1"
        },
        {
            "$type": "BLOLBDELNDP",
            "abilityName": "Avatar_Freminet_ElementalBurst",
            "KKNOLKPKHIH": "Dura",
            "MLANNEPKLMA": "%2"
        }
    ],
    "Freminet_PermanentSkill_1": [
        {
            "$type": "NKFMFNFJBIA",
            "abilityName": "Avatar_Freminet_ElementalArt_2",
            "FABCANIFKGH": "Freminet_ReduceCD"
        },
        {
            "$type": "BLOLBDELNDP",
            "abilityName": "Avatar_Freminet_ElementalArt_2",
            "KKNOLKPKHIH": "ReduceCD",
            "MLANNEPKLMA": "%1"
        }
    ],
    "Freminet_PermanentSkill_2": [
        {
            "$type": "BPBLPCNKLDD",
            "abilityName": "Avatar_Freminet_PermanentSkill_2"
        },
        {
            "$type": "BLOLBDELNDP",
            "abilityName": "Avatar_Freminet_PermanentSkill_2",
            "KKNOLKPKHIH": "Rate",
            "MLANNEPKLMA": "%1"
        },
        {
            "$type": "BLOLBDELNDP",
            "abilityName": "Avatar_Freminet_PermanentSkill_2",
            "KKNOLKPKHIH": "Time",
            "MLANNEPKLMA": "%2"
        }
    ],
    "Freminet_PermanentSkill_3": [
        {
            "$type": "BPBLPCNKLDD",
            "abilityName": "Avatar_Freminet_DivingStamina_Reduction"
        }
    ],
    "Freminet_Constellation_1": [
        {
            "$type": "BLOLBDELNDP",
            "abilityName": "Avatar_Freminet_ElementalArt_2",
            "KKNOLKPKHIH": "Crit",
            "MLANNEPKLMA": "%1"
        },
        {
            "$type": "BLOLBDELNDP",
            "abilityName": "SkillObj_Freminet_ElementalArt_SecondAttack",
            "KKNOLKPKHIH": "Crit",
            "MLANNEPKLMA": "%1"
        },
        {
            "$type": "BLOLBDELNDP",
            "abilityName": "Avatar_Freminet_ElementalArt_3",
            "KKNOLKPKHIH": "Crit",
            "MLANNEPKLMA": "%1"
        }
    ],
    "Freminet_Constellation_2": [
        {
            "$type": "NKFMFNFJBIA",
            "abilityName": "Avatar_Freminet_ElementalArt_2",
            "FABCANIFKGH": "Freminet_ReviveEnergy"
        },
        {
            "$type": "NKFMFNFJBIA",
            "abilityName": "Avatar_Freminet_ElementalArt_3",
            "FABCANIFKGH": "Freminet_ReviveEnergy"
        },
        {
            "$type": "BLOLBDELNDP",
            "abilityName": "Avatar_Freminet_ElementalArt_2",
            "KKNOLKPKHIH": "ReviveEnergy",
            "MLANNEPKLMA": "%1"
        },
        {
            "$type": "BLOLBDELNDP",
            "abilityName": "Avatar_Freminet_ElementalArt_3",
            "KKNOLKPKHIH": "ReviveEnergy",
            "MLANNEPKLMA": "%2"
        }
    ],
    "Freminet_Constellation_3": [
        {
            "$type": "CALABGENPGG",
            "CMDDNBCIAOP": "AvatarSkill",
            "LAGMJPKMAHL": 1,
            "CNHMFCFFLPO": 3
        }
    ],
    "Freminet_Constellation_4": [
        {
            "$type": "BPBLPCNKLDD",
            "abilityName": "Avatar_Freminet_Constellation_4"
        },
        {
            "$type": "BLOLBDELNDP",
            "abilityName": "Avatar_Freminet_Constellation_4",
            "KKNOLKPKHIH": "AttackUp",
            "MLANNEPKLMA": "%1"
        },
        {
            "$type": "BLOLBDELNDP",
            "abilityName": "Avatar_Freminet_Constellation_4",
            "KKNOLKPKHIH": "Dura",
            "MLANNEPKLMA": "%2"
        },
        {
            "$type": "BLOLBDELNDP",
            "abilityName": "Avatar_Freminet_Constellation_4",
            "KKNOLKPKHIH": "Stack",
            "MLANNEPKLMA": "%3"
        },
        {
            "$type": "BLOLBDELNDP",
            "abilityName": "Avatar_Freminet_Constellation_4",
            "KKNOLKPKHIH": "CD_Time",
            "MLANNEPKLMA": "%4"
        }
    ],
    "Freminet_Constellation_5": [
        {
            "$type": "CALABGENPGG",
            "CMDDNBCIAOP": "AvatarSkill",
            "LAGMJPKMAHL": 2,
            "CNHMFCFFLPO": 3
        }
    ],
    "Freminet_Constellation_6": [
        {
            "$type": "BPBLPCNKLDD",
            "abilityName": "Avatar_Freminet_Constellation_6"
        },
        {
            "$type": "BLOLBDELNDP",
            "abilityName": "Avatar_Freminet_Constellation_6",
            "KKNOLKPKHIH": "Up",
            "MLANNEPKLMA": "%1"
        },
        {
            "$type": "BLOLBDELNDP",
            "abilityName": "Avatar_Freminet_Constellation_6",
            "KKNOLKPKHIH": "Dura",
            "MLANNEPKLMA": "%2"
        },
        {
            "$type": "BLOLBDELNDP",
            "abilityName": "Avatar_Freminet_Constellation_6",
            "KKNOLKPKHIH": "Stack",
            "MLANNEPKLMA": "%3"
        },
        {
            "$type": "BLOLBDELNDP",
            "abilityName": "Avatar_Freminet_Constellation_6",
            "KKNOLKPKHIH": "CD_Time",
            "MLANNEPKLMA": "%4"
        }
    ]
}