{
    "Nilou_SkillUpgrade_1": [
        {
            "$type": "BLOLBDELNDP",
            "abilityName": "Avatar_Nilou_NormalAttack_DamageHandler",
            "KKNOLKPKHIH": "Attack_01",
            "MLANNEPKLMA": "%1",
            "BNENLHBJMIP": 0.0
        },
        {
            "$type": "BLOLBDELNDP",
            "abilityName": "Avatar_Nilou_NormalAttack_DamageHandler",
            "KKNOLKPKHIH": "Attack_02",
            "MLANNEPKLMA": "%2",
            "BNENLHBJMIP": 0.0
        },
        {
            "$type": "BLOLBDELNDP",
            "abilityName": "Avatar_Nilou_NormalAttack_DamageHandler",
            "KKNOLKPKHIH": "Attack_03",
            "MLANNEPKLMA": "%3",
            "BNENLHBJMIP": 0.0
        },
        {
            "$type": "BLOLBDELNDP",
            "abilityName": "Avatar_Nilou_NormalAttack_DamageHandler",
            "KKNOLKPKHIH": "ExtraAttack1",
            "MLANNEPKLMA": "%4",
            "BNENLHBJMIP": 0.0
        },
        {
            "$type": "BLOLBDELNDP",
            "abilityName": "Avatar_Nilou_NormalAttack_DamageHandler",
            "KKNOLKPKHIH": "ExtraAttack2",
            "MLANNEPKLMA": "%5",
            "BNENLHBJMIP": 0.0
        },
        {
            "$type": "BLOLBDELNDP",
            "abilityName": "Avatar_Nilou_ExtraAttack",
            "KKNOLKPKHIH": "ExtraAttack_Sword_Stamina_Cost",
            "MLANNEPKLMA": "%6",
            "BNENLHBJMIP": 0.0
        },
        {
            "$type": "BLOLBDELNDP",
            "abilityName": "Avatar_Nilou_FallingAnthem",
            "KKNOLKPKHIH": "FallingAnthem_Normal_Loop_Damage",
            "MLANNEPKLMA": "%7"
        },
        {
            "$type": "BLOLBDELNDP",
            "abilityName": "Avatar_Nilou_FallingAnthem",
            "KKNOLKPKHIH": "FallingAnthem_Normal_Rank_1_Damage",
            "MLANNEPKLMA": "%8"
        },
        {
            "$type": "BLOLBDELNDP",
            "abilityName": "Avatar_Nilou_FallingAnthem",
            "KKNOLKPKHIH": "FallingAnthem_Normal_Rank_2_Damage",
            "MLANNEPKLMA": "%9"
        }
    ],
    "Nilou_SkillUpgrade_2": [
        {
            "$type": "BLOLBDELNDP",
            "abilityName": "Avatar_Nilou_ElementalDance",
            "KKNOLKPKHIH": "Damage_MaxHP_Percentage",
            "MLANNEPKLMA": "%1",
            "BNENLHBJMIP": 0.0
        },
        {
            "$type": "BLOLBDELNDP",
            "abilityName": "Avatar_Nilou_ElementalDanceFake",
            "KKNOLKPKHIH": "Damage_MaxHP_Percentage",
            "MLANNEPKLMA": "%1",
            "BNENLHBJMIP": 0.0
        },
        {
            "$type": "BLOLBDELNDP",
            "abilityName": "Avatar_Nilou_Attack_01_Spec",
            "KKNOLKPKHIH": "ExtraAttack_MaxHP_Percentage",
            "MLANNEPKLMA": "%6",
            "BNENLHBJMIP": 0.0
        },
        {
            "$type": "BLOLBDELNDP",
            "abilityName": "Avatar_Nilou_Attack_02_Spec",
            "KKNOLKPKHIH": "ExtraAttack_MaxHP_Percentage",
            "MLANNEPKLMA": "%7",
            "BNENLHBJMIP": 0.0
        },
        {
            "$type": "BLOLBDELNDP",
            "abilityName": "Avatar_Nilou_Spec_E_2",
            "KKNOLKPKHIH": "Damage_MaxHP_Percentage",
            "MLANNEPKLMA": "%2",
            "BNENLHBJMIP": 0.0
        },
        {
            "$type": "BLOLBDELNDP",
            "abilityName": "Avatar_Nilou_Spec_E_3",
            "KKNOLKPKHIH": "Damage_MaxHP_Percentage",
            "MLANNEPKLMA": "%3",
            "BNENLHBJMIP": 0.0
        },
        {
            "$type": "BLOLBDELNDP",
            "abilityName": "Avatar_Nilou_Water_Bubble_Bullet",
            "KKNOLKPKHIH": "Damage_MaxHP_Percentage",
            "MLANNEPKLMA": "%4",
            "BNENLHBJMIP": 0.0
        },
        {
            "$type": "BLOLBDELNDP",
            "abilityName": "Avatar_Nilou_Spec_EArt_Over",
            "KKNOLKPKHIH": "Damage_MaxHP_Percentage",
            "MLANNEPKLMA": "%5",
            "BNENLHBJMIP": 0.0
        },
        {
            "$type": "BLOLBDELNDP",
            "abilityName": "Avatar_Nilou_Spec_EArt_Over",
            "KKNOLKPKHIH": "Water_Ring_Duration",
            "MLANNEPKLMA": "%8",
            "BNENLHBJMIP": 0.0
        },
        {
            "$type": "BLOLBDELNDP",
            "abilityName": "Avatar_Nilou_Spec_Attack_Over",
            "KKNOLKPKHIH": "DanceDuration",
            "MLANNEPKLMA": "%10",
            "BNENLHBJMIP": 0.0
        },
        {
            "$type": "BLOLBDELNDP",
            "abilityName": "Avatar_Nilou_ElementalDance",
            "KKNOLKPKHIH": "Duration",
            "MLANNEPKLMA": "%11",
            "BNENLHBJMIP": 0.0
        }
    ],
    "Nilou_SkillUpgrade_3": [
        {
            "$type": "BLOLBDELNDP",
            "abilityName": "Avatar_Nilou_Burst_Attacker",
            "KKNOLKPKHIH": "Damage_MaxHP_Percentage1",
            "MLANNEPKLMA": "%1",
            "BNENLHBJMIP": 0.0
        },
        {
            "$type": "BLOLBDELNDP",
            "abilityName": "Avatar_Nilou_Burst_Attacker",
            "KKNOLKPKHIH": "Damage_MaxHP_Percentage2",
            "MLANNEPKLMA": "%2",
            "BNENLHBJMIP": 0.0
        }
    ],
    "Nilou_Constellation_1": [
        {
            "$type": "NKFMFNFJBIA",
            "abilityName": "Avatar_Nilou_Water_Bubble_Bullet",
            "FABCANIFKGH": "Nilou_Talent_1"
        },
        {
            "$type": "NKFMFNFJBIA",
            "abilityName": "Avatar_Nilou_Spec_EArt_Over",
            "FABCANIFKGH": "Nilou_Talent_1"
        },
        {
            "$type": "BLOLBDELNDP",
            "abilityName": "Avatar_Nilou_Water_Bubble_Bullet",
            "KKNOLKPKHIH": "Water_Damage_Up",
            "MLANNEPKLMA": "%1"
        },
        {
            "$type": "BLOLBDELNDP",
            "abilityName": "Avatar_Nilou_Spec_EArt_Over",
            "KKNOLKPKHIH": "Water_Ring_Duration",
            "MLANNEPKLMA": "%2"
        }
    ],
    "Nilou_Constellation_2": [
        {
            "$type": "NKFMFNFJBIA",
            "abilityName": "Avatar_Nilou_ElementalArt_Buff_Controller",
            "FABCANIFKGH": "Nilou_Talent_2"
        },
        {
            "$type": "BLOLBDELNDP",
            "abilityName": "Avatar_Nilou_ElementalArt_Buff_Controller",
            "KKNOLKPKHIH": "Water_DefenseDown",
            "MLANNEPKLMA": "%1"
        },
        {
            "$type": "BLOLBDELNDP",
            "abilityName": "Avatar_Nilou_ElementalArt_Buff_Controller",
            "KKNOLKPKHIH": "Grass_DefenseDown",
            "MLANNEPKLMA": "%2"
        },
        {
            "$type": "BLOLBDELNDP",
            "abilityName": "Avatar_Nilou_ElementalArt_Buff_Controller",
            "KKNOLKPKHIH": "DefenseDownDuration",
            "MLANNEPKLMA": "%3"
        }
    ],
    "Nilou_Constellation_3": [
        {
            "$type": "CALABGENPGG",
            "CMDDNBCIAOP": "AvatarSkill",
            "LAGMJPKMAHL": 9,
            "CNHMFCFFLPO": 3
        }
    ],
    "Nilou_Constellation_4": [
        {
            "$type": "NKFMFNFJBIA",
            "abilityName": "Avatar_Nilou_Water_Bubble_Bullet",
            "FABCANIFKGH": "Nilou_Talent_4"
        },
        {
            "$type": "BPBLPCNKLDD",
            "abilityName": "Avatar_Nilou_SpecE_Energy_Revive"
        },
        {
            "$type": "BLOLBDELNDP",
            "abilityName": "Avatar_Nilou_SpecE_Energy_Revive",
            "KKNOLKPKHIH": "ReviveEnergy",
            "MLANNEPKLMA": "%1"
        },
        {
            "$type": "BLOLBDELNDP",
            "abilityName": "Avatar_Nilou_SpecE_Energy_Revive",
            "KKNOLKPKHIH": "BurstDamageUpRatio",
            "MLANNEPKLMA": "%2"
        },
        {
            "$type": "BLOLBDELNDP",
            "abilityName": "Avatar_Nilou_SpecE_Energy_Revive",
            "KKNOLKPKHIH": "Duration",
            "MLANNEPKLMA": "%3"
        }
    ],
    "Nilou_Constellation_5": [
        {
            "$type": "CALABGENPGG",
            "CMDDNBCIAOP": "AvatarSkill",
            "LAGMJPKMAHL": 2,
            "CNHMFCFFLPO": 3
        }
    ],
    "Nilou_Constellation_6": [
        {
            "$type": "BPBLPCNKLDD",
            "abilityName": "Avatar_Nilou_MaxHP_Trans_Crit"
        },
        {
            "$type": "BLOLBDELNDP",
            "abilityName": "Avatar_Nilou_MaxHP_Trans_Crit",
            "KKNOLKPKHIH": "MaxHP_Trans_Critical_Rate",
            "MLANNEPKLMA": "%1"
        },
        {
            "$type": "BLOLBDELNDP",
            "abilityName": "Avatar_Nilou_MaxHP_Trans_Crit",
            "KKNOLKPKHIH": "MaxHP_Trans_Critical_Damage",
            "MLANNEPKLMA": "%2"
        },
        {
            "$type": "BLOLBDELNDP",
            "abilityName": "Avatar_Nilou_MaxHP_Trans_Crit",
            "KKNOLKPKHIH": "Max_Critical_Rate",
            "MLANNEPKLMA": "%3"
        },
        {
            "$type": "BLOLBDELNDP",
            "abilityName": "Avatar_Nilou_MaxHP_Trans_Crit",
            "KKNOLKPKHIH": "Max_Critical_Damage",
            "MLANNEPKLMA": "%4"
        }
    ],
    "Nilou_PermanentSkill_1": [
        {
            "$type": "NKFMFNFJBIA",
            "abilityName": "Avatar_Nilou_Spec_Attack_Over",
            "FABCANIFKGH": "Nilou_PermanentSkill_1"
        },
        {
            "$type": "NKFMFNFJBIA",
            "abilityName": "Avatar_Nilou_Spec_EArt_Over",
            "FABCANIFKGH": "Nilou_PermanentSkill_1"
        },
        {
            "$type": "BLOLBDELNDP",
            "abilityName": "Avatar_Nilou_ElementalArt_Buff_Controller",
            "KKNOLKPKHIH": "Duration",
            "MLANNEPKLMA": "%1"
        },
        {
            "$type": "BLOLBDELNDP",
            "abilityName": "Avatar_Nilou_ElementalArt_Buff_Controller",
            "KKNOLKPKHIH": "MasteryUp",
            "MLANNEPKLMA": "%2"
        },
        {
            "$type": "BLOLBDELNDP",
            "abilityName": "Avatar_Nilou_ElementalArt_Buff_Controller",
            "KKNOLKPKHIH": "MasteryUpDuration",
            "MLANNEPKLMA": "%3"
        }
    ],
    "Nilou_PermanentSkill_2": [
        {
            "$type": "NKFMFNFJBIA",
            "abilityName": "Avatar_Nilou_ElementalArt_Buff_Controller",
            "FABCANIFKGH": "Nilou_PermanentSkill_2"
        },
        {
            "$type": "BLOLBDELNDP",
            "abilityName": "Avatar_Nilou_ElementalArt_Buff_Controller",
            "KKNOLKPKHIH": "MaxHP_Trans_To_Overgrow_Ratio",
            "MLANNEPKLMA": "%1"
        },
        {
            "$type": "BLOLBDELNDP",
            "abilityName": "Avatar_Nilou_ElementalArt_Buff_Controller",
            "KKNOLKPKHIH": "MaxHP_Lower_Limit",
            "MLANNEPKLMA": "%2"
        },
        {
            "$type": "BLOLBDELNDP",
            "abilityName": "Avatar_Nilou_ElementalArt_Buff_Controller",
            "KKNOLKPKHIH": "Max_Overgrow_Damage_Ratio",
            "MLANNEPKLMA": "%3"
        }
    ],
    "Nilou_PermanentSkill_3": []
}