{
    "Ayaka_Constellation_1": [
        {
            "$type": "BPBLPCNKLDD",
            "abilityName": "Avatar_Ayaka_Constellation_1"
        },
        {
            "$type": "BLOLBDELNDP",
            "abilityName": "Avatar_Ayaka_Constellation_1",
            "KKNOLKPKHIH": "Constellation_1_Chance",
            "MLANNEPKLMA": "%1",
            "BNENLHBJMIP": 0.0
        },
        {
            "$type": "BLOLBDELNDP",
            "abilityName": "Avatar_Ayaka_Constellation_1",
            "KKNOLKPKHIH": "cdDelta",
            "MLANNEPKLMA": "-%2",
            "BNENLHBJMIP": 0.0
        },
        {
            "$type": "BLOLBDELNDP",
            "abilityName": "Avatar_Ayaka_Constellation_1",
            "KKNOLKPKHIH": "ReduceElementalArt_CD",
            "MLANNEPKLMA": "%3",
            "BNENLHBJMIP": 0.0
        }
    ],
    "Ayaka_Constellation_2": [
        {
            "$type": "NKFMFNFJBIA",
            "abilityName": "Avatar_Ayaka_FrozenWindmill",
            "FABCANIFKGH": "Avatar_Ayaka_Oboro"
        }
    ],
    "Ayaka_Constellation_3": [
        {
            "$type": "CALABGENPGG",
            "CMDDNBCIAOP": "AvatarSkill",
            "LAGMJPKMAHL": 9,
            "CNHMFCFFLPO": 3
        }
    ],
    "Ayaka_Constellation_4": [
        {
            "$type": "BPBLPCNKLDD",
            "abilityName": "Avatar_Ayaka_Constellation_4"
        },
        {
            "$type": "BLOLBDELNDP",
            "abilityName": "Avatar_Ayaka_Constellation_4",
            "KKNOLKPKHIH": "Constellation_4_Duration",
            "MLANNEPKLMA": "%2",
            "BNENLHBJMIP": 0.0
        },
        {
            "$type": "BLOLBDELNDP",
            "abilityName": "Avatar_Ayaka_Constellation_4",
            "KKNOLKPKHIH": "Constellation_4_DefenceDown_Ratio",
            "MLANNEPKLMA": "-%1",
            "BNENLHBJMIP": 0.0
        }
    ],
    "Ayaka_Constellation_5": [
        {
            "$type": "CALABGENPGG",
            "CMDDNBCIAOP": "AvatarSkill",
            "LAGMJPKMAHL": 2,
            "CNHMFCFFLPO": 3
        }
    ],
    "Ayaka_Constellation_6": [
        {
            "$type": "BPBLPCNKLDD",
            "abilityName": "Avatar_Ayaka_Constellation_6"
        },
        {
            "$type": "BLOLBDELNDP",
            "abilityName": "Avatar_Ayaka_Constellation_6",
            "KKNOLKPKHIH": "Constellation_6_Period",
            "MLANNEPKLMA": "%1",
            "BNENLHBJMIP": 0.0
        },
        {
            "$type": "BLOLBDELNDP",
            "abilityName": "Avatar_Ayaka_Constellation_6",
            "KKNOLKPKHIH": "Constellation_6_DamagePercentageRatio",
            "MLANNEPKLMA": "%2",
            "BNENLHBJMIP": 0.0
        },
        {
            "$type": "NKFMFNFJBIA",
            "abilityName": "Avatar_Ayaka_ExtraAttack_Damage_Gadget",
            "FABCANIFKGH": "Ayaka_Constellation_6"
        }
    ],
    "Ayaka_PermanentSkill_1": [
        {
            "$type": "NKFMFNFJBIA",
            "abilityName": "Avatar_Ayaka_Talent_IceDance",
            "FABCANIFKGH": "Ayaka_Talent_IceDance"
        },
        {
            "$type": "BLOLBDELNDP",
            "abilityName": "Avatar_Ayaka_Talent_IceDance",
            "KKNOLKPKHIH": "IceDance_AttackUp_Ratio",
            "MLANNEPKLMA": "%1",
            "BNENLHBJMIP": 0.0
        },
        {
            "$type": "BLOLBDELNDP",
            "abilityName": "Avatar_Ayaka_Talent_IceDance",
            "KKNOLKPKHIH": "IceDance_AttackUp_Duration",
            "MLANNEPKLMA": "%2",
            "BNENLHBJMIP": 0.0
        }
    ],
    "Ayaka_PermanentSkill_2": [
        {
            "$type": "BPBLPCNKLDD",
            "abilityName": "Avatar_Ayaka_PermanentSkill_2"
        },
        {
            "$type": "BLOLBDELNDP",
            "abilityName": "Avatar_Ayaka_PermanentSkill_2",
            "KKNOLKPKHIH": "ReviveStaminaValue",
            "MLANNEPKLMA": "%1",
            "BNENLHBJMIP": 0.0
        },
        {
            "$type": "BLOLBDELNDP",
            "abilityName": "Avatar_Ayaka_PermanentSkill_2",
            "KKNOLKPKHIH": "Actor_IceAddHurtDelta",
            "MLANNEPKLMA": "%2",
            "BNENLHBJMIP": 0.0
        },
        {
            "$type": "BLOLBDELNDP",
            "abilityName": "Avatar_Ayaka_PermanentSkill_2",
            "KKNOLKPKHIH": "IceAddHurt_Duration",
            "MLANNEPKLMA": "%3",
            "BNENLHBJMIP": 0.0
        }
    ],
    "Ayaka_SkillUpgrade_1": [
        {
            "$type": "BLOLBDELNDP",
            "abilityName": "Avatar_Ayaka_NormalAttack_DamageHandler",
            "KKNOLKPKHIH": "NormalAttack_01_DamagePercentage",
            "MLANNEPKLMA": "%1",
            "BNENLHBJMIP": 0.0
        },
        {
            "$type": "BLOLBDELNDP",
            "abilityName": "Avatar_Ayaka_NormalAttack_DamageHandler",
            "KKNOLKPKHIH": "NormalAttack_02_DamagePercentage",
            "MLANNEPKLMA": "%2",
            "BNENLHBJMIP": 0.0
        },
        {
            "$type": "BLOLBDELNDP",
            "abilityName": "Avatar_Ayaka_NormalAttack_DamageHandler",
            "KKNOLKPKHIH": "NormalAttack_03_DamagePercentage",
            "MLANNEPKLMA": "%3",
            "BNENLHBJMIP": 0.0
        },
        {
            "$type": "BLOLBDELNDP",
            "abilityName": "Avatar_Ayaka_NormalAttack_DamageHandler",
            "KKNOLKPKHIH": "NormalAttack_04_1_DamagePercentage",
            "MLANNEPKLMA": "%4",
            "BNENLHBJMIP": 0.0
        },
        {
            "$type": "BLOLBDELNDP",
            "abilityName": "Avatar_Ayaka_NormalAttack_DamageHandler",
            "KKNOLKPKHIH": "NormalAttack_04_2_DamagePercentage",
            "MLANNEPKLMA": "%4",
            "BNENLHBJMIP": 0.0
        },
        {
            "$type": "BLOLBDELNDP",
            "abilityName": "Avatar_Ayaka_NormalAttack_DamageHandler",
            "KKNOLKPKHIH": "NormalAttack_04_3_DamagePercentage",
            "MLANNEPKLMA": "%4",
            "BNENLHBJMIP": 0.0
        },
        {
            "$type": "BLOLBDELNDP",
            "abilityName": "Avatar_Ayaka_NormalAttack_DamageHandler",
            "KKNOLKPKHIH": "NormalAttack_05_DamagePercentage",
            "MLANNEPKLMA": "%7",
            "BNENLHBJMIP": 0.0
        },
        {
            "$type": "BLOLBDELNDP",
            "abilityName": "Avatar_Ayaka_ExtraAttack_Damage_Gadget",
            "KKNOLKPKHIH": "Ayaka_ExtraAttack_Damage",
            "MLANNEPKLMA": "%8",
            "BNENLHBJMIP": 0.0
        },
        {
            "$type": "BLOLBDELNDP",
            "abilityName": "Avatar_Ayaka_ExtraAttack",
            "KKNOLKPKHIH": "ExtraAttack_Sword_Stamina_Cost",
            "MLANNEPKLMA": "%9",
            "BNENLHBJMIP": 0.0
        },
        {
            "$type": "BLOLBDELNDP",
            "abilityName": "Avatar_Ayaka_FallingAnthem",
            "KKNOLKPKHIH": "FallingAnthem_Normal_Loop_Damage",
            "MLANNEPKLMA": "%10"
        },
        {
            "$type": "BLOLBDELNDP",
            "abilityName": "Avatar_Ayaka_FallingAnthem",
            "KKNOLKPKHIH": "FallingAnthem_Normal_Rank_1_Damage",
            "MLANNEPKLMA": "%11"
        },
        {
            "$type": "BLOLBDELNDP",
            "abilityName": "Avatar_Ayaka_FallingAnthem",
            "KKNOLKPKHIH": "FallingAnthem_Normal_Rank_2_Damage",
            "MLANNEPKLMA": "%12"
        }
    ],
    "Ayaka_SkillUpgrade_2": [
        {
            "$type": "BLOLBDELNDP",
            "abilityName": "Avatar_Ayaka_Icespine_Strike_New",
            "KKNOLKPKHIH": "Icespine_Damage",
            "MLANNEPKLMA": "%1",
            "BNENLHBJMIP": 0.0
        }
    ],
    "Ayaka_SkillMove": [
        {
            "$type": "BLOLBDELNDP",
            "abilityName": "Avatar_Ayaka_Liquid_TriggerAbility",
            "KKNOLKPKHIH": "StaminaStartCost",
            "MLANNEPKLMA": "%1",
            "BNENLHBJMIP": 0.0
        },
        {
            "$type": "BLOLBDELNDP",
            "abilityName": "Avatar_Ayaka_LiquidStrike",
            "KKNOLKPKHIH": "StaminaCost",
            "MLANNEPKLMA": "%2",
            "BNENLHBJMIP": 0.0
        },
        {
            "$type": "BLOLBDELNDP",
            "abilityName": "Avatar_Ayaka_LiquidStrike",
            "KKNOLKPKHIH": "IceModifier_Duration",
            "MLANNEPKLMA": "%3",
            "BNENLHBJMIP": 0.0
        }
    ],
    "Ayaka_SkillUpgrade_3": [
        {
            "$type": "BLOLBDELNDP",
            "abilityName": "Avatar_Ayaka_FrozenWindmillDamage",
            "KKNOLKPKHIH": "FrozenWindmill_SliceDamage",
            "MLANNEPKLMA": "%1",
            "BNENLHBJMIP": 0.0
        },
        {
            "$type": "BLOLBDELNDP",
            "abilityName": "Avatar_Ayaka_FrozenWindmill_Sub_Damage",
            "KKNOLKPKHIH": "FrozenWindmill_SliceDamage",
            "MLANNEPKLMA": "%1",
            "BNENLHBJMIP": 0.0
        },
        {
            "$type": "BLOLBDELNDP",
            "abilityName": "Avatar_Ayaka_FrozenWindmillDissipate",
            "KKNOLKPKHIH": "FrozenWindmill_BlastDamage",
            "MLANNEPKLMA": "%2",
            "BNENLHBJMIP": 0.0
        },
        {
            "$type": "BLOLBDELNDP",
            "abilityName": "Avatar_Ayaka_FrozenWindmill_Sub_Dissipate",
            "KKNOLKPKHIH": "FrozenWindmill_BlastDamage",
            "MLANNEPKLMA": "%2",
            "BNENLHBJMIP": 0.0
        }
    ],
    "Ayaka_RinRenka_1": [
        {
            "$type": "BLOLBDELNDP",
            "abilityName": "Avatar_Ayaka_LiquidStrike",
            "KKNOLKPKHIH": "LiquidStrike_MoveSpeedRatio",
            "MLANNEPKLMA": 0.10000000149011612,
            "BNENLHBJMIP": 0.0
        }
    ],
    "Ayaka_RinRenka_2": [
        {
            "$type": "BLOLBDELNDP",
            "abilityName": "Avatar_Ayaka_LiquidStrike",
            "KKNOLKPKHIH": "LiquidStrike_MoveSpeedRatio",
            "MLANNEPKLMA": 0.10000000149011612,
            "BNENLHBJMIP": 0.0
        },
        {
            "$type": "BLOLBDELNDP",
            "abilityName": "Avatar_Ayaka_LiquidStrike",
            "KKNOLKPKHIH": "Ice_Bloom_Radius",
            "MLANNEPKLMA": 0.0,
            "BNENLHBJMIP": 0.15000000596046448
        }
    ],
    "Ayaka_RinRenka_3": [
        {
            "$type": "BLOLBDELNDP",
            "abilityName": "Avatar_Ayaka_LiquidStrike",
            "KKNOLKPKHIH": "LiquidStrike_MoveSpeedRatio",
            "MLANNEPKLMA": 0.10000000149011612,
            "BNENLHBJMIP": 0.0
        },
        {
            "$type": "BLOLBDELNDP",
            "abilityName": "Avatar_Ayaka_LiquidStrike",
            "KKNOLKPKHIH": "Ice_Bloom_Radius",
            "MLANNEPKLMA": 0.0,
            "BNENLHBJMIP": 0.15000000596046448
        }
    ]
}