{
    "luaDataPath": "",
    "startBlackKeepTime": 1.0,
    "entityBan": "",
    "startFade": {
        "startFadeInDuration": 0.30000001192092896,
        "startFadeOutDuration": 0.30000001192092896
    },
    "endFade": {
        "startFadeOutDuration": 0.0
    },
    "actors": [
        {
            "alias": "Avatar",
            "visible": true,
            "bornPointName": "",
            "relativePosNpcAlias": "",
            "bindMovingTargetKey": ""
        },
        {
            "configID": 10090,
            "alias": "10090",
            "visible": true,
            "bornPointName": "Q10502KleeSpawn",
            "relativePosNpcAlias": "",
            "bindMovingTargetKey": ""
        },
        {
            "configID": 1005,
            "alias": "1005",
            "visible": true,
            "bornPointName": "Q10502PaimonSpawn2",
            "relativePosNpcAlias": "",
            "bindMovingTargetKey": ""
        },
        {
            "configID": 10111,
            "alias": "10111",
            "visible": true,
            "bornPointName": "Q10502Fengqidi",
            "relativePosNpcAlias": "",
            "bindMovingTargetKey": ""
        }
    ],
    "group": [
        [
            {
                "$type": "MOOOKOKLLEI",
                "type": "CAMERA_MOVE",
                "duration": 1.0,
                "DOKGBCKOLJK": {
                    "x": 1944.096923828125,
                    "y": 200.19140625,
                    "z": -1364.97119140625
                },
                "HGKCPMDICGG": {
                    "x": 1943.201171875,
                    "y": 199.8162078857422,
                    "z": -1365.2098388671875
                },
                "AFODHELHCGB": 35.0,
                "MGMFMGNANHH": 6,
                "NDFGFJFGHKL": "EaseInOutCubic",
                "IBCBGNHCICN": {},
                "OMCCMPHDLOO": "",
                "OCFGGGHIKOO": "",
                "LJFHGGJDPHH": "",
                "LPKDFKLNEHL": ""
            },
            {
                "$type": "MOOOKOKLLEI",
                "type": "CAMERA_MOVE",
                "delayTime": 12.600000381469727,
                "duration": 30.0,
                "DOKGBCKOLJK": {
                    "x": 1944.4710693359375,
                    "y": 198.9651336669922,
                    "z": -1364.9716796875
                },
                "HGKCPMDICGG": {
                    "x": 1943.5184326171875,
                    "y": 198.77664184570312,
                    "z": -1365.2103271484375
                },
                "AFODHELHCGB": 35.0,
                "MGMFMGNANHH": 1,
                "NDFGFJFGHKL": "EaseOutQuad",
                "IBCBGNHCICN": {},
                "OMCCMPHDLOO": "",
                "OCFGGGHIKOO": "",
                "LJFHGGJDPHH": "",
                "LPKDFKLNEHL": ""
            },
            {
                "$type": "MOOOKOKLLEI",
                "type": "CAMERA_MOVE",
                "delayTime": 0.6000000238418579,
                "duration": 15.0,
                "DOKGBCKOLJK": {
                    "x": 1944.4306640625,
                    "y": 199.1709442138672,
                    "z": -1364.9818115234375
                },
                "HGKCPMDICGG": {
                    "x": 1943.4820556640625,
                    "y": 198.96188354492188,
                    "z": -1365.2193603515625
                },
                "AFODHELHCGB": 35.0,
                "MGMFMGNANHH": 1,
                "NDFGFJFGHKL": "EaseOutQuad",
                "IBCBGNHCICN": {},
                "OMCCMPHDLOO": "",
                "OCFGGGHIKOO": "",
                "LJFHGGJDPHH": "",
                "LPKDFKLNEHL": ""
            },
            {
                "$type": "MoleMole.Config.ConfigTimeProtectAction",
                "type": "TIME_PROTECT",
                "duration": 1.5
            },
            {
                "$type": "ECLBLHOENAG",
                "type": "DIALOG_SELECT",
                "delayTime": 1.0,
                "aliasList": [
                    "Avatar"
                ],
                "NDMMOPDPKNF": [
                    105020202,
                    105020203
                ],
                "FPDBIEGHMCD": [
                    2476480632,
                    2476480632
                ],
                "PKBOIGBGDEG": true
            },
            {
                "$type": "MoleMole.Config.ConfigMoveToAction",
                "type": "MOVE_TO",
                "aliasList": [
                    "Avatar"
                ],
                "routeList": [
                    {
                        "x": 1942.060791015625,
                        "y": 197.9991912841797,
                        "z": -1365.138427734375
                    }
                ],
                "bindMovingTargetKey": ""
            },
            {
                "$type": "OOMFCPJAJGL",
                "type": "STEER_TO",
                "aliasList": [
                    "Avatar"
                ],
                "PLAPKCOMAKJ": {
                    "x": -0.14384940266609192,
                    "z": -0.9895995855331421
                },
                "OMCCMPHDLOO": "",
                "DBLNLMOPEBP": ""
            },
            {
                "$type": "ILCGAGEGDJI",
                "type": "BODY_LANG",
                "delayTime": 0.30000001192092896,
                "aliasList": [
                    "Avatar"
                ],
                "JLABKFNJCNP": true,
                "FNDLJGEAMGI": ""
            },
            {
                "$type": "DLPFECMKEKH",
                "type": "DIALOG",
                "delayTime": 0.6000000238418579,
                "aliasList": [
                    "10090"
                ],
                "NMKEDPFEKBH": 105020201,
                "JLCHMAJCAPA": 1.0
            },
            {
                "$type": "MoleMole.Config.ConfigMoveToAction",
                "type": "MOVE_TO",
                "aliasList": [
                    "10090"
                ],
                "routeList": [
                    {
                        "x": 1941.8309326171875,
                        "y": 197.03477478027344,
                        "z": -1366.9544677734375
                    }
                ],
                "bindMovingTargetKey": ""
            },
            {
                "$type": "OOMFCPJAJGL",
                "type": "STEER_TO",
                "aliasList": [
                    "10090"
                ],
                "PLAPKCOMAKJ": {
                    "x": 0.04316162317991257,
                    "z": 0.9990680813789368
                },
                "OMCCMPHDLOO": "",
                "DBLNLMOPEBP": ""
            },
            {
                "$type": "ILCGAGEGDJI",
                "type": "BODY_LANG",
                "delayTime": 2.019087553024292,
                "aliasList": [
                    "10090"
                ],
                "FLBOOPHHFJP": 1142,
                "FNDLJGEAMGI": ""
            },
            {
                "$type": "ILCGAGEGDJI",
                "type": "BODY_LANG",
                "delayTime": 0.47676587104797363,
                "aliasList": [
                    "10090"
                ],
                "FLBOOPHHFJP": 1270,
                "FNDLJGEAMGI": ""
            },
            {
                "$type": "ILCGAGEGDJI",
                "type": "BODY_LANG",
                "delayTime": 1.674124836921692,
                "aliasList": [
                    "10090"
                ],
                "JLABKFNJCNP": true,
                "FNDLJGEAMGI": ""
            },
            {
                "$type": "ILCGAGEGDJI",
                "type": "BODY_LANG",
                "delayTime": 3.784130096435547,
                "aliasList": [
                    "10090"
                ],
                "FLBOOPHHFJP": 1060,
                "FNDLJGEAMGI": ""
            },
            {
                "$type": "EAMBKPBOPIC",
                "type": "LOOK_AT",
                "aliasList": [
                    "10090"
                ],
                "FIDJDPAIFDN": true,
                "BCHGCKLKNEH": 0.30000001192092896,
                "OMCCMPHDLOO": "1005",
                "KPCALFDIHMC": "",
                "DBLNLMOPEBP": ""
            },
            {
                "$type": "ILCGAGEGDJI",
                "type": "BODY_LANG",
                "delayTime": 3.414520502090454,
                "aliasList": [
                    "10090"
                ],
                "JLABKFNJCNP": true,
                "FNDLJGEAMGI": ""
            },
            {
                "$type": "OPCCDGPJCJI",
                "type": "EMO_SYNC",
                "delayTime": 0.6000000238418579,
                "aliasList": [
                    "10090"
                ],
                "IONNJBCBACJ": "Cs_Emo_Avatar_Simple_Common_Set/Cs_Emo_Avatar_Talk/Cs_Emo_Avatar_PersonalLine/Cs_Emo_Avatar_MoNa/Cs_Emo_105020201",
                "HLEJKBCMNNJ": "",
                "JGHLJJLNGPP": "",
                "MANNKIIBOFM": "",
                "COMNAAFDEDH": "",
                "CPGCCLNOCDK": "",
                "IGEFGCJKCPM": [
                    3278160207063610672,
                    15584355397562671648,
                    2145085791593327912,
                    14936838730995015347
                ]
            },
            {
                "$type": "MoleMole.Config.ConfigMoveToAction",
                "type": "MOVE_TO",
                "delayTime": 0.031009074300527573,
                "aliasList": [
                    "1005"
                ],
                "routeList": [
                    {
                        "x": 1941.1993408203125,
                        "y": 197.03477478027344,
                        "z": -1364.56298828125
                    }
                ],
                "bindMovingTargetKey": ""
            },
            {
                "$type": "OOMFCPJAJGL",
                "type": "STEER_TO",
                "aliasList": [
                    "1005"
                ],
                "PLAPKCOMAKJ": {
                    "x": -0.02608962170779705,
                    "z": -0.9996596574783325
                },
                "OMCCMPHDLOO": "",
                "DBLNLMOPEBP": ""
            },
            {
                "$type": "OOMFCPJAJGL",
                "type": "STEER_TO",
                "aliasList": [
                    "10111"
                ],
                "PLAPKCOMAKJ": {
                    "x": 0.9746641516685486,
                    "y": 0.11052632331848145,
                    "z": 0.19445738196372986
                },
                "OMCCMPHDLOO": "",
                "DBLNLMOPEBP": ""
            },
            {
                "$type": "MoleMole.Config.ConfigMoveToAction",
                "type": "MOVE_TO",
                "aliasList": [
                    "10111"
                ],
                "routeList": [
                    {
                        "x": 1935.1246337890625,
                        "y": 196.92449951171875,
                        "z": -1367.1795654296875
                    }
                ],
                "bindMovingTargetKey": ""
            }
        ],
        [
            {
                "$type": "DLPFECMKEKH",
                "type": "DIALOG",
                "aliasList": [
                    "10090"
                ],
                "NMKEDPFEKBH": 105020204,
                "JLCHMAJCAPA": 1.0
            },
            {
                "$type": "ILCGAGEGDJI",
                "type": "BODY_LANG",
                "delayTime": 2.451486349105835,
                "aliasList": [
                    "10090"
                ],
                "FLBOOPHHFJP": 1130,
                "FNDLJGEAMGI": ""
            },
            {
                "$type": "ILCGAGEGDJI",
                "type": "BODY_LANG",
                "aliasList": [
                    "10090"
                ],
                "FLBOOPHHFJP": 1150,
                "FNDLJGEAMGI": ""
            },
            {
                "$type": "OPCCDGPJCJI",
                "type": "EMO_SYNC",
                "aliasList": [
                    "10090"
                ],
                "IONNJBCBACJ": "Cs_Emo_Avatar_Simple_Common_Set/Cs_Emo_Avatar_Talk/Cs_Emo_Avatar_PersonalLine/Cs_Emo_Avatar_MoNa/Cs_Emo_105020204",
                "HLEJKBCMNNJ": "",
                "JGHLJJLNGPP": "",
                "MANNKIIBOFM": "",
                "COMNAAFDEDH": "",
                "CPGCCLNOCDK": "",
                "IGEFGCJKCPM": [
                    3629219403074599006,
                    10303195636490885417,
                    9057255040928115964,
                    6637212829967863825
                ]
            }
        ],
        [
            {
                "$type": "MoleMole.Config.ConfigTimeProtectAction",
                "type": "TIME_PROTECT",
                "duration": 2.5
            },
            {
                "$type": "ECLBLHOENAG",
                "type": "DIALOG_SELECT",
                "delayTime": 2.5,
                "aliasList": [
                    "Avatar"
                ],
                "NDMMOPDPKNF": [
                    105020206
                ],
                "FPDBIEGHMCD": [
                    2476480634
                ],
                "PKBOIGBGDEG": true
            },
            {
                "$type": "OOMFCPJAJGL",
                "type": "STEER_TO",
                "delayTime": 1.399999976158142,
                "duration": 0.5,
                "aliasList": [
                    "Avatar"
                ],
                "PLAPKCOMAKJ": {
                    "x": -0.974931001663208,
                    "z": -0.2225075513124466
                },
                "HCMINPNPFDF": true,
                "OMCCMPHDLOO": "",
                "DBLNLMOPEBP": ""
            },
            {
                "$type": "ILCGAGEGDJI",
                "type": "BODY_LANG",
                "delayTime": 1.899999976158142,
                "aliasList": [
                    "Avatar"
                ],
                "FLBOOPHHFJP": 1080,
                "FNDLJGEAMGI": ""
            },
            {
                "$type": "EAMBKPBOPIC",
                "type": "LOOK_AT",
                "delayTime": 1.399999976158142,
                "aliasList": [
                    "Avatar"
                ],
                "FIDJDPAIFDN": true,
                "BCHGCKLKNEH": 0.30000001192092896,
                "OMCCMPHDLOO": "10111",
                "KPCALFDIHMC": "",
                "DBLNLMOPEBP": ""
            },
            {
                "$type": "DLPFECMKEKH",
                "type": "DIALOG",
                "delayTime": 1.899999976158142,
                "aliasList": [
                    "10090"
                ],
                "NMKEDPFEKBH": 105020205
            },
            {
                "$type": "OOMFCPJAJGL",
                "type": "STEER_TO",
                "delayTime": 1.399999976158142,
                "duration": 0.5,
                "aliasList": [
                    "10090"
                ],
                "PLAPKCOMAKJ": {
                    "x": -0.9834272861480713,
                    "z": 0.18130271136760712
                },
                "HCMINPNPFDF": true,
                "OMCCMPHDLOO": "",
                "DBLNLMOPEBP": ""
            },
            {
                "$type": "ILCGAGEGDJI",
                "type": "BODY_LANG",
                "delayTime": 1.899999976158142,
                "aliasList": [
                    "10090"
                ],
                "FLBOOPHHFJP": 1060,
                "FNDLJGEAMGI": ""
            },
            {
                "$type": "OPCCDGPJCJI",
                "type": "EMO_SYNC",
                "delayTime": 1.899999976158142,
                "aliasList": [
                    "10090"
                ],
                "IONNJBCBACJ": "Cs_Emo_Avatar_Simple_Common_Set/Cs_Emo_Avatar_Talk/Cs_Emo_Avatar_PersonalLine/Cs_Emo_Avatar_MoNa/Cs_Emo_105020205",
                "HLEJKBCMNNJ": "",
                "JGHLJJLNGPP": "",
                "MANNKIIBOFM": "",
                "COMNAAFDEDH": "",
                "CPGCCLNOCDK": "",
                "IGEFGCJKCPM": [
                    8229350884290631950,
                    5317227434348416772,
                    12869428026001968246,
                    16318580262661379452
                ]
            },
            {
                "$type": "EAMBKPBOPIC",
                "type": "LOOK_AT",
                "delayTime": 1.399999976158142,
                "aliasList": [
                    "10090"
                ],
                "FIDJDPAIFDN": true,
                "BCHGCKLKNEH": 0.30000001192092896,
                "OMCCMPHDLOO": "10111",
                "KPCALFDIHMC": "",
                "DBLNLMOPEBP": ""
            },
            {
                "$type": "OOMFCPJAJGL",
                "type": "STEER_TO",
                "delayTime": 1.2639509439468384,
                "duration": 0.5,
                "aliasList": [
                    "1005"
                ],
                "PLAPKCOMAKJ": {
                    "x": -0.8985191583633423,
                    "z": -0.4389343857765198
                },
                "HCMINPNPFDF": true,
                "OMCCMPHDLOO": "",
                "DBLNLMOPEBP": ""
            },
            {
                "$type": "ILCGAGEGDJI",
                "type": "BODY_LANG",
                "delayTime": 1.7659744024276733,
                "aliasList": [
                    "1005"
                ],
                "FLBOOPHHFJP": 1040,
                "FNDLJGEAMGI": ""
            },
            {
                "$type": "EAMBKPBOPIC",
                "type": "LOOK_AT",
                "delayTime": 1.267306923866272,
                "aliasList": [
                    "1005"
                ],
                "FIDJDPAIFDN": true,
                "BCHGCKLKNEH": 0.30000001192092896,
                "OMCCMPHDLOO": "10111",
                "KPCALFDIHMC": "",
                "DBLNLMOPEBP": ""
            },
            {
                "$type": "ILCGAGEGDJI",
                "type": "BODY_LANG",
                "aliasList": [
                    "10111"
                ],
                "FLBOOPHHFJP": 1,
                "FNDLJGEAMGI": ""
            }
        ],
        [
            {
                "$type": "DLPFECMKEKH",
                "type": "DIALOG",
                "aliasList": [
                    "1005"
                ],
                "NMKEDPFEKBH": 105020207,
                "JLCHMAJCAPA": 1.0
            },
            {
                "$type": "ILCGAGEGDJI",
                "type": "BODY_LANG",
                "delayTime": 0.625911295413971,
                "aliasList": [
                    "1005"
                ],
                "FLBOOPHHFJP": 1100,
                "FNDLJGEAMGI": ""
            },
            {
                "$type": "ILCGAGEGDJI",
                "type": "BODY_LANG",
                "aliasList": [
                    "1005"
                ],
                "JLABKFNJCNP": true,
                "FNDLJGEAMGI": ""
            }
        ],
        [
            {
                "$type": "MoleMole.Config.ConfigSimpleBlackScreenAction",
                "type": "SIMPLE_BLACK_SCREEN",
                "durationToBlack": 0.4000000059604645,
                "durationKeepBlack": 0.4000000059604645,
                "durationFromBlack": 0.699999988079071,
                "textMapID": ""
            },
            {
                "$type": "MoleMole.Config.ConfigTimeProtectAction",
                "type": "TIME_PROTECT",
                "duration": 1.5
            },
            {
                "$type": "MOOOKOKLLEI",
                "type": "CAMERA_MOVE",
                "delayTime": 0.5,
                "duration": 0.5,
                "IPHEFBOANAL": "EXIT",
                "DOKGBCKOLJK": {
                    "x": 1943.8621826171875,
                    "y": 198.9228515625,
                    "z": -1364.1495361328125
                },
                "HGKCPMDICGG": {
                    "x": 1943.052001953125,
                    "y": 198.7020721435547,
                    "z": -1364.6925048828125
                },
                "MGMFMGNANHH": 6,
                "NDFGFJFGHKL": "EaseInOutCubic",
                "IBCBGNHCICN": {},
                "OMCCMPHDLOO": "",
                "OCFGGGHIKOO": "",
                "LJFHGGJDPHH": "",
                "LPKDFKLNEHL": ""
            },
            {
                "$type": "MoleMole.Config.ConfigVisibleInterAction",
                "type": "VISIBLE",
                "delayTime": 0.5,
                "aliasList": [
                    "10090"
                ],
                "extraParam": ""
            },
            {
                "$type": "MoleMole.Config.ConfigVisibleInterAction",
                "type": "VISIBLE",
                "delayTime": 0.5,
                "aliasList": [
                    "10111"
                ],
                "extraParam": ""
            }
        ]
    ],
    "groupId": [
        {
            "grpId": 2476480631,
            "nextGrpId": 2476480632
        },
        {
            "index": 1,
            "grpId": 2476480632,
            "nextGrpId": 2476480633
        },
        {
            "index": 2,
            "grpId": 2476480633,
            "nextGrpId": 2476480634
        },
        {
            "index": 3,
            "grpId": 2476480634,
            "nextGrpId": 2476480635
        },
        {
            "index": 4,
            "grpId": 2476480635,
            "nextGrpId": 2476480636
        }
    ],
    "freeStyleDic": {
        "10090": [
            1142,
            1270,
            1060,
            1130,
            1150
        ]
    }
}