[
    {
        "Default": {
            "$type": "ConfigAbility",
            "abilityName": "SceneObj_Activity_UseLamp",
            "abilitySpecials": {
                "RandomTimer": 0.0
            },
            "modifiers": {
                "Delay": {
                    "modifierName": "",
                    "duration": 0.5,
                    "bonusCriticalHurt": 100.0,
                    "onAdded": [
                        {
                            "$type": "Randomed",
                            "chance": 0.30000001192092896,
                            "successActions": [
                                {
                                    "$type": "TriggerBullet",
                                    "bulletID": 70800022,
                                    "born": {
                                        "$type": "ALJGHOOKOAP",
                                        "offset": {
                                            "EMBMLEBGFOI": 0.0,
                                            "NABPJFNICAE": 1.0,
                                            "MLOLIKEJCKB": 0.0
                                        },
                                        "NLICIODEGDO": {
                                            "$type": "PCMBCGKKKGE",
                                            "JOEDEGAHBHC": {
                                                "EMBMLEBGFOI": -90.0,
                                                "NABPJFNICAE": 0.0,
                                                "MLOLIKEJCKB": 0.0
                                            },
                                            "LEKMGEAEPLG": 30.0
                                        }
                                    }
                                }
                            ],
                            "failActions": [
                                {
                                    "$type": "Randomed",
                                    "chance": 0.5,
                                    "successActions": [
                                        {
                                            "$type": "TriggerBullet",
                                            "bulletID": 70800023,
                                            "born": {
                                                "$type": "ALJGHOOKOAP",
                                                "offset": {
                                                    "EMBMLEBGFOI": 0.0,
                                                    "NABPJFNICAE": 1.0,
                                                    "MLOLIKEJCKB": 0.0
                                                },
                                                "NLICIODEGDO": {
                                                    "$type": "PCMBCGKKKGE",
                                                    "JOEDEGAHBHC": {
                                                        "EMBMLEBGFOI": -90.0,
                                                        "NABPJFNICAE": 0.0,
                                                        "MLOLIKEJCKB": 0.0
                                                    },
                                                    "LEKMGEAEPLG": 30.0
                                                }
                                            }
                                        }
                                    ],
                                    "failActions": [
                                        {
                                            "$type": "TriggerBullet",
                                            "bulletID": 70800024,
                                            "born": {
                                                "$type": "ALJGHOOKOAP",
                                                "offset": {
                                                    "EMBMLEBGFOI": 0.0,
                                                    "NABPJFNICAE": 1.0,
                                                    "MLOLIKEJCKB": 0.0
                                                },
                                                "NLICIODEGDO": {
                                                    "$type": "PCMBCGKKKGE",
                                                    "JOEDEGAHBHC": {
                                                        "EMBMLEBGFOI": -90.0,
                                                        "NABPJFNICAE": 0.0,
                                                        "MLOLIKEJCKB": 0.0
                                                    },
                                                    "LEKMGEAEPLG": 30.0
                                                }
                                            }
                                        }
                                    ]
                                }
                            ]
                        },
                        {
                            "$type": "KillSelf"
                        }
                    ]
                }
            },
            "onAdded": [
                {
                    "$type": "SetRandomOverrideMapValue",
                    "overrideMapKey": "RandomTimer"
                },
                {
                    "$type": "ApplyModifier",
                    "modifierName": "Delay"
                }
            ]
        }
    },
    {
        "Default": {
            "$type": "ConfigAbility",
            "abilityName": "SceneObj_Activity_Lamp_Bullet",
            "modifiers": {
                "Delay": {
                    "modifierName": "",
                    "duration": 15.0,
                    "bonusCriticalHurt": 100.0,
                    "onRemoved": [
                        {
                            "$type": "SendEffectTrigger",
                            "parameter": "Disappear",
                            "attachPoint": ""
                        },
                        {
                            "$type": "KillSelf"
                        }
                    ]
                }
            },
            "onAdded": [
                {
                    "$type": "AttachEffect",
                    "shieldHP": "Eff_Stages_Ly_Hdj_LightFly",
                    "born": {
                        "$type": "AJCFIBNMGKO",
                        "NLICIODEGDO": {
                            "$type": "PCMBCGKKKGE"
                        }
                    },
                    "effectTempleteID": -1.0
                },
                {
                    "$type": "ApplyModifier",
                    "modifierName": "Delay"
                }
            ]
        }
    },
    {
        "Default": {
            "$type": "ConfigAbility",
            "abilityName": "SceneObj_Area_Common_Property_Prop_BattleHalo_01_Ability",
            "modifiers": {
                "GoTo201": {
                    "modifierName": "",
                    "bonusCriticalHurt": 100.0,
                    "onAdded": [
                        {
                            "$type": "ExecuteGadgetLua",
                            "param1": 201
                        }
                    ]
                }
            },
            "onFieldExit": [
                {
                    "$type": "ApplyModifier",
                    "predicates": [
                        {
                            "$type": "LAEHCOBNNDC",
                            "target": "CurLocalAvatar",
                            "logic": "GreaterOrEqual",
                            "ratio": 12.5
                        },
                        {
                            "$type": "LCDGEGBCACB",
                            "target": "Self"
                        }
                    ],
                    "modifierName": "GoTo201"
                }
            ]
        }
    },
    {
        "Default": {
            "$type": "ConfigAbility",
            "abilityName": "SceneObj_Stages_Property_Prop_BallonWidget_01_Ability",
            "modifiers": {
                "Delay": {
                    "modifierName": "",
                    "duration": 0.5,
                    "bonusCriticalHurt": 100.0,
                    "onAdded": [
                        {
                            "$type": "Randomed",
                            "chance": 0.5,
                            "successActions": [
                                {
                                    "$type": "TriggerBullet",
                                    "bulletID": 70500023,
                                    "born": {
                                        "$type": "ALJGHOOKOAP",
                                        "OCACHEEBJCE": {
                                            "$type": "EOKEDICAOIL",
                                            "PBLLHJAOIIG": 0.0,
                                            "KMBNDMHDCJG": 2.0
                                        },
                                        "NLICIODEGDO": {
                                            "$type": "PCMBCGKKKGE",
                                            "JOEDEGAHBHC": {
                                                "EMBMLEBGFOI": -90.0,
                                                "NABPJFNICAE": 0.0,
                                                "MLOLIKEJCKB": 0.0
                                            },
                                            "LEKMGEAEPLG": 30.0
                                        }
                                    }
                                }
                            ],
                            "failActions": [
                                {
                                    "$type": "TriggerBullet",
                                    "bulletID": 70500024,
                                    "born": {
                                        "$type": "ALJGHOOKOAP",
                                        "OCACHEEBJCE": {
                                            "$type": "EOKEDICAOIL",
                                            "PBLLHJAOIIG": 0.0,
                                            "KMBNDMHDCJG": 2.0
                                        },
                                        "NLICIODEGDO": {
                                            "$type": "PCMBCGKKKGE",
                                            "JOEDEGAHBHC": {
                                                "EMBMLEBGFOI": -90.0,
                                                "NABPJFNICAE": 0.0,
                                                "MLOLIKEJCKB": 0.0
                                            },
                                            "LEKMGEAEPLG": 30.0
                                        }
                                    }
                                }
                            ]
                        },
                        {
                            "$type": "KillSelf"
                        }
                    ]
                }
            },
            "onAdded": [
                {
                    "$type": "ApplyModifier",
                    "modifierName": "Delay"
                }
            ]
        }
    },
    {
        "Default": {
            "$type": "ConfigAbility",
            "abilityName": "SceneObj_Stages_Property_Prop_BallonWidgetBullet_01_Ability",
            "modifiers": {
                "Balloon01_Boom": {
                    "modifierName": "",
                    "bonusCriticalHurt": 100.0,
                    "onBeingHit": [
                        {
                            "$type": "KillSelf"
                        }
                    ]
                }
            },
            "onAdded": [
                {
                    "$type": "ApplyModifier",
                    "modifierName": "Balloon01_Boom"
                },
                {
                    "$type": "FireEffect",
                    "shieldHP": "Eff_SceneObj_Ballon_Born",
                    "effectTempleteID": -1.0
                }
            ],
            "onAbilityStart": [
                {
                    "$type": "KillSelf"
                }
            ]
        }
    },
    {
        "Default": {
            "$type": "ConfigAbility",
            "abilityName": "SceneObj_Stages_Property_Prop_BallonWidgetBullet_02_Ability",
            "modifiers": {
                "Balloon02_Boom": {
                    "modifierName": "",
                    "bonusCriticalHurt": 100.0,
                    "onBeingHit": [
                        {
                            "$type": "KillSelf"
                        }
                    ]
                }
            },
            "onAdded": [
                {
                    "$type": "ApplyModifier",
                    "modifierName": "Balloon02_Boom"
                },
                {
                    "$type": "FireEffect",
                    "shieldHP": "Eff_SceneObj_Ballon_Born",
                    "effectTempleteID": -1.0
                }
            ],
            "onAbilityStart": [
                {
                    "$type": "KillSelf"
                }
            ]
        }
    }
]