{
    "luaDataPath": "",
    "isSimpleTalk": true,
    "entityBan": "",
    "disableNpcLod": true,
    "startFade": {
        "startFadeOutDuration": 0.0
    },
    "endFade": {
        "startFadeOutDuration": 0.0
    },
    "actors": [
        {
            "alias": "Avatar",
            "visible": true,
            "bornPointName": "Q2202903PLAYER",
            "relativePosNpcAlias": "",
            "bindMovingTargetKey": ""
        },
        {
            "configID": 3060,
            "alias": "3060",
            "visible": true,
            "bornPointName": "Q2202903NPC3060",
            "relativePosNpcAlias": "",
            "bindMovingTargetKey": ""
        }
    ],
    "group": [
        [
            {
                "$type": "MOOOKOKLLEI",
                "type": "CAMERA_FOCUS",
                "duration": 0.10000000149011612,
                "OMCCMPHDLOO": "",
                "OCFGGGHIKOO": "",
                "LJFHGGJDPHH": "",
                "LPKDFKLNEHL": ""
            },
            {
                "$type": "MoleMole.Config.ConfigTimeProtectAction",
                "type": "TIME_PROTECT",
                "duration": 0.10000000149011612
            }
        ],
        [
            {
                "$type": "DLPFECMKEKH",
                "type": "DIALOG",
                "aliasList": [
                    "3060"
                ],
                "NMKEDPFEKBH": 220290301,
                "JLCHMAJCAPA": 0.5
            }
        ],
        [
            {
                "$type": "ECLBLHOENAG",
                "type": "DIALOG_SELECT",
                "delayTime": 0.4000000059604645,
                "aliasList": [
                    "Avatar"
                ],
                "NDMMOPDPKNF": [
                    220290303,
                    220290304
                ],
                "FPDBIEGHMCD": [
                    1820314761,
                    1820314761
                ],
                "PKBOIGBGDEG": true
            },
            {
                "$type": "DLPFECMKEKH",
                "type": "DIALOG",
                "aliasList": [
                    "3060"
                ],
                "NMKEDPFEKBH": 220290302,
                "JLCHMAJCAPA": 0.5
            }
        ],
        [
            {
                "$type": "DLPFECMKEKH",
                "type": "DIALOG",
                "aliasList": [
                    "3060"
                ],
                "NMKEDPFEKBH": 220290305,
                "JLCHMAJCAPA": 0.5
            }
        ],
        [
            {
                "$type": "ECLBLHOENAG",
                "type": "DIALOG_SELECT",
                "delayTime": 0.4000000059604645,
                "aliasList": [
                    "Avatar"
                ],
                "NDMMOPDPKNF": [
                    220290307
                ],
                "FPDBIEGHMCD": [
                    1820314763
                ],
                "PKBOIGBGDEG": true
            },
            {
                "$type": "DLPFECMKEKH",
                "type": "DIALOG",
                "aliasList": [
                    "3060"
                ],
                "NMKEDPFEKBH": 220290306,
                "JLCHMAJCAPA": 0.5
            }
        ],
        [
            {
                "$type": "DLPFECMKEKH",
                "type": "DIALOG",
                "aliasList": [
                    "3060"
                ],
                "NMKEDPFEKBH": 220290308,
                "JLCHMAJCAPA": 0.5
            }
        ],
        [
            {
                "$type": "ECLBLHOENAG",
                "type": "DIALOG_SELECT",
                "delayTime": 0.4000000059604645,
                "aliasList": [
                    "Avatar"
                ],
                "NDMMOPDPKNF": [
                    220290310
                ],
                "FPDBIEGHMCD": [
                    1820314765
                ],
                "PKBOIGBGDEG": true
            },
            {
                "$type": "DLPFECMKEKH",
                "type": "DIALOG",
                "aliasList": [
                    "3060"
                ],
                "NMKEDPFEKBH": 220290309,
                "JLCHMAJCAPA": 0.5
            }
        ],
        [
            {
                "$type": "DLPFECMKEKH",
                "type": "DIALOG",
                "aliasList": [
                    "3060"
                ],
                "NMKEDPFEKBH": 220290311,
                "JLCHMAJCAPA": 0.5
            }
        ],
        [
            {
                "$type": "DLPFECMKEKH",
                "type": "DIALOG",
                "aliasList": [
                    "3060"
                ],
                "NMKEDPFEKBH": 220290312,
                "JLCHMAJCAPA": 0.5
            }
        ],
        [
            {
                "$type": "MoleMole.Config.ConfigTimeProtectAction",
                "type": "TIME_PROTECT",
                "duration": 0.10000000149011612
            }
        ]
    ],
    "groupId": [
        {
            "grpId": 1820314758,
            "nextGrpId": 1820314759
        },
        {
            "index": 1,
            "grpId": 1820314759,
            "nextGrpId": 1820314760
        },
        {
            "index": 2,
            "grpId": 1820314760,
            "nextGrpId": 1820314761
        },
        {
            "index": 3,
            "grpId": 1820314761,
            "nextGrpId": 1820314762
        },
        {
            "index": 4,
            "grpId": 1820314762,
            "nextGrpId": 1820314763
        },
        {
            "index": 5,
            "grpId": 1820314763,
            "nextGrpId": 1820314764
        },
        {
            "index": 6,
            "grpId": 1820314764,
            "nextGrpId": 1820314765
        },
        {
            "index": 7,
            "grpId": 1820314765,
            "nextGrpId": 1820314766
        },
        {
            "index": 8,
            "grpId": 1820314766,
            "nextGrpId": 595182698
        },
        {
            "index": 9,
            "grpId": 595182698,
            "nextGrpId": 595182699
        }
    ],
    "freeStyleDic": {
        "3060": []
    }
}