{
    "luaDataPath": "",
    "dontUseDefaultFinish": true,
    "startBlackKeepTime": 0.5,
    "entityBan": "",
    "disableNpcLod": true,
    "isAutoBanNpc": true,
    "isBanWidgetPet": true,
    "protectNpcMobileLod": true,
    "LIICEPFFGMH": 7,
    "startFade": {
        "startFadeInDuration": 0.5,
        "startFadeOutDuration": 0.5
    },
    "endFade": {
        "startFadeOutDuration": 0.0
    },
    "actors": [
        {
            "alias": "Avatar",
            "visible": true,
            "bornPointName": "[3_4911:4729.793,683.073,3890.561,0.000,163.256,0.000]",
            "relativePosType": "AVATAR_NEW",
            "relativePosNpcAlias": "",
            "notDestroyInTalk": true,
            "bindMovingTargetKey": ""
        },
        {
            "alias": "AvatarNpc",
            "visible": true,
            "bornPointName": "[3_4911:4729.793,683.073,3890.561,0.000,163.256,0.000]",
            "removeActorType": "NEW_REMOVE",
            "relativePosType": "AVATAR_NEW",
            "relativePosNpcAlias": "",
            "notDestroyInTalk": true,
            "bindMovingTargetKey": ""
        },
        {
            "configID": 5257,
            "alias": "5257",
            "visible": true,
            "bornPointName": "[3_4912:4732.001,683.115,3889.447,0.000,226.077,0.000]",
            "forceCreateDaily": true,
            "relativePosType": "AVATAR_NEW",
            "relativePosNpcAlias": "",
            "notDestroyInTalk": true,
            "bindMovingTargetKey": ""
        },
        {
            "configID": 21293,
            "alias": "21293",
            "visible": true,
            "bornPointName": "[3_6092:4728.634,683.073,3889.991,0.000,124.444,0.000]",
            "removeActorType": "NEW_REMOVE_WITH_DISAPPEAR",
            "relativePosType": "AVATAR_NEW",
            "relativePosNpcAlias": "",
            "notDestroyInTalk": true,
            "bindMovingTargetKey": ""
        }
    ],
    "group": [
        [
            {
                "$type": "MoleMole.Config.ConfigTimeProtectAction",
                "type": "TIME_PROTECT",
                "duration": 1.0,
                "actionId": 104
            },
            {
                "$type": "MoleMole.Config.ConfigBlackScreenAction",
                "type": "BLACK_SCREEN",
                "duration": 1.0,
                "actionId": 165,
                "flag": 2048,
                "blackScreenType": "KEEP_BLACK",
                "durationToBlack": 0.5,
                "durationKeepBlack": 1.0,
                "durationFromBlack": 0.5,
                "inteePos": "",
                "textMapID": "",
                "useTextFade": true,
                "changeAudioState": true
            },
            {
                "$type": "MoleMole.Config.ConfigSitOrStandAction",
                "type": "SIT_OR_STAND",
                "aliasList": [
                    "Avatar"
                ],
                "actionId": 172,
                "banResetFreestyle": true
            },
            {
                "$type": "MoleMole.Config.ConfigVisibleInterAction",
                "type": "VISIBLE",
                "aliasList": [
                    "Avatar"
                ],
                "actionId": 177,
                "extraParam": ""
            },
            {
                "$type": "MoleMole.Config.ConfigPlayerNPCEnergyTypeAction",
                "type": "SET_PLAYER_NPC_ENERGY_TYPE",
                "aliasList": [
                    "AvatarNpc"
                ],
                "actionId": 173,
                "setHeroEngergyType": true
            },
            {
                "$type": "ILCGAGEGDJI",
                "type": "BODY_LANG",
                "aliasList": [
                    "AvatarNpc"
                ],
                "actionId": 174,
                "JLABKFNJCNP": true,
                "PMJAMGLAJGK": true,
                "LIMPPBIAKGL": false,
                "FNDLJGEAMGI": ""
            },
            {
                "$type": "ILCGAGEGDJI",
                "type": "BODY_LANG",
                "aliasList": [
                    "5257"
                ],
                "actionId": 161,
                "JLABKFNJCNP": true,
                "PMJAMGLAJGK": true,
                "LIMPPBIAKGL": false,
                "FNDLJGEAMGI": ""
            },
            {
                "$type": "ILCGAGEGDJI",
                "type": "BODY_LANG",
                "aliasList": [
                    "21293"
                ],
                "actionId": 163,
                "JLABKFNJCNP": true,
                "PMJAMGLAJGK": true,
                "LIMPPBIAKGL": false,
                "FNDLJGEAMGI": ""
            }
        ],
        [
            {
                "$type": "MoleMole.Config.ConfigBlackScreenAction",
                "type": "BLACK_SCREEN",
                "duration": 0.5,
                "actionId": 166,
                "flag": 2048,
                "blackScreenType": "FROM_BLACK",
                "durationToBlack": 0.5,
                "durationKeepBlack": 0.5,
                "durationFromBlack": 0.5,
                "inteePos": "",
                "textMapID": "",
                "useTextFade": true,
                "changeAudioState": true
            },
            {
                "$type": "DLPFECMKEKH",
                "type": "DIALOG",
                "aliasList": [
                    "5257"
                ],
                "actionId": 107,
                "NMKEDPFEKBH": 740535501,
                "JLCHMAJCAPA": 0.5
            }
        ],
        [
            {
                "$type": "DLPFECMKEKH",
                "type": "DIALOG",
                "aliasList": [
                    "5257"
                ],
                "actionId": 109,
                "NMKEDPFEKBH": 740535502,
                "JLCHMAJCAPA": 0.5
            }
        ],
        [
            {
                "$type": "DLPFECMKEKH",
                "type": "DIALOG",
                "aliasList": [
                    "21293"
                ],
                "actionId": 111,
                "NMKEDPFEKBH": 740535503,
                "JLCHMAJCAPA": 0.5
            }
        ],
        [
            {
                "$type": "DLPFECMKEKH",
                "type": "DIALOG",
                "aliasList": [
                    "5257"
                ],
                "actionId": 113,
                "NMKEDPFEKBH": 740535504,
                "JLCHMAJCAPA": 0.5
            }
        ],
        [
            {
                "$type": "MoleMole.Config.ConfigBlackScreenAction",
                "type": "BLACK_SCREEN",
                "actionId": 115,
                "flag": 2048,
                "durationToBlack": 0.5,
                "durationKeepBlack": 3.0,
                "durationFromBlack": 0.5,
                "inteePos": "",
                "textMapID": "",
                "useTextFade": true,
                "dialogID": 740535505,
                "needWaitClick": true,
                "changeAudioState": true
            },
            {
                "$type": "DLPFECMKEKH",
                "type": "DIALOG_CLEAR",
                "actionId": 116
            }
        ],
        [
            {
                "$type": "DLPFECMKEKH",
                "type": "DIALOG",
                "aliasList": [
                    "5257"
                ],
                "actionId": 118,
                "NMKEDPFEKBH": 740535506,
                "JLCHMAJCAPA": 0.5
            }
        ],
        [
            {
                "$type": "DLPFECMKEKH",
                "type": "DIALOG",
                "aliasList": [
                    "21293"
                ],
                "actionId": 120,
                "NMKEDPFEKBH": 740535507,
                "JLCHMAJCAPA": 0.5
            }
        ],
        [
            {
                "$type": "DLPFECMKEKH",
                "type": "DIALOG",
                "aliasList": [
                    "21293"
                ],
                "actionId": 122,
                "NMKEDPFEKBH": 740535508,
                "JLCHMAJCAPA": 0.5
            },
            {
                "$type": "ECLBLHOENAG",
                "type": "DIALOG_SELECT",
                "delayTime": 0.4000000059604645,
                "aliasList": [
                    "AvatarNpc"
                ],
                "actionId": 168,
                "NDMMOPDPKNF": [
                    740535509,
                    740535510
                ],
                "FPDBIEGHMCD": [
                    2626640924,
                    2626640924
                ],
                "PKBOIGBGDEG": true,
                "GOJJPCDMMLN": 1331656339
            }
        ],
        [
            {
                "$type": "DLPFECMKEKH",
                "type": "DIALOG",
                "aliasList": [
                    "5257"
                ],
                "actionId": 125,
                "NMKEDPFEKBH": 740535511,
                "JLCHMAJCAPA": 0.5
            }
        ],
        [
            {
                "$type": "DLPFECMKEKH",
                "type": "DIALOG",
                "aliasList": [
                    "5257"
                ],
                "actionId": 127,
                "NMKEDPFEKBH": 740535512,
                "JLCHMAJCAPA": 0.5
            }
        ],
        [
            {
                "$type": "DLPFECMKEKH",
                "type": "DIALOG",
                "aliasList": [
                    "21293"
                ],
                "actionId": 129,
                "NMKEDPFEKBH": 740535513,
                "JLCHMAJCAPA": 0.5
            },
            {
                "$type": "ECLBLHOENAG",
                "type": "DIALOG_SELECT",
                "delayTime": 0.4000000059604645,
                "aliasList": [
                    "AvatarNpc"
                ],
                "actionId": 169,
                "NDMMOPDPKNF": [
                    740535514
                ],
                "FPDBIEGHMCD": [
                    2626640927
                ],
                "PKBOIGBGDEG": true,
                "GOJJPCDMMLN": 1331656339
            }
        ],
        [
            {
                "$type": "DLPFECMKEKH",
                "type": "DIALOG",
                "aliasList": [
                    "5257"
                ],
                "actionId": 132,
                "NMKEDPFEKBH": 740535515,
                "JLCHMAJCAPA": 0.5
            }
        ],
        [
            {
                "$type": "DLPFECMKEKH",
                "type": "DIALOG",
                "aliasList": [
                    "5257"
                ],
                "actionId": 134,
                "NMKEDPFEKBH": 740535516,
                "JLCHMAJCAPA": 0.5
            }
        ],
        [
            {
                "$type": "DLPFECMKEKH",
                "type": "DIALOG",
                "aliasList": [
                    "5257"
                ],
                "actionId": 136,
                "NMKEDPFEKBH": 740535517,
                "JLCHMAJCAPA": 0.5
            }
        ],
        [
            {
                "$type": "DLPFECMKEKH",
                "type": "DIALOG",
                "aliasList": [
                    "5257"
                ],
                "actionId": 138,
                "NMKEDPFEKBH": 740535518,
                "JLCHMAJCAPA": 0.5
            }
        ],
        [
            {
                "$type": "DLPFECMKEKH",
                "type": "DIALOG",
                "aliasList": [
                    "5257"
                ],
                "actionId": 140,
                "NMKEDPFEKBH": 740535529,
                "JLCHMAJCAPA": 0.5
            }
        ],
        [
            {
                "$type": "DLPFECMKEKH",
                "type": "DIALOG",
                "aliasList": [
                    "21293"
                ],
                "actionId": 142,
                "NMKEDPFEKBH": 740535519,
                "JLCHMAJCAPA": 0.5
            },
            {
                "$type": "ECLBLHOENAG",
                "type": "DIALOG_SELECT",
                "delayTime": 0.4000000059604645,
                "aliasList": [
                    "AvatarNpc"
                ],
                "actionId": 170,
                "NDMMOPDPKNF": [
                    740535520
                ],
                "FPDBIEGHMCD": [
                    2626640933
                ],
                "PKBOIGBGDEG": true,
                "GOJJPCDMMLN": 1331656339
            }
        ],
        [
            {
                "$type": "DLPFECMKEKH",
                "type": "DIALOG",
                "aliasList": [
                    "21293"
                ],
                "actionId": 145,
                "NMKEDPFEKBH": 740535521,
                "JLCHMAJCAPA": 0.5
            }
        ],
        [
            {
                "$type": "DLPFECMKEKH",
                "type": "DIALOG",
                "aliasList": [
                    "5257"
                ],
                "actionId": 147,
                "NMKEDPFEKBH": 740535522,
                "JLCHMAJCAPA": 0.5
            }
        ],
        [
            {
                "$type": "DLPFECMKEKH",
                "type": "DIALOG",
                "aliasList": [
                    "5257"
                ],
                "actionId": 149,
                "NMKEDPFEKBH": 740535523,
                "JLCHMAJCAPA": 0.5
            }
        ],
        [
            {
                "$type": "DLPFECMKEKH",
                "type": "DIALOG",
                "aliasList": [
                    "5257"
                ],
                "actionId": 151,
                "NMKEDPFEKBH": 740535524,
                "JLCHMAJCAPA": 0.5
            }
        ],
        [
            {
                "$type": "DLPFECMKEKH",
                "type": "DIALOG",
                "aliasList": [
                    "5257"
                ],
                "actionId": 153,
                "NMKEDPFEKBH": 740535525,
                "JLCHMAJCAPA": 0.5
            },
            {
                "$type": "ECLBLHOENAG",
                "type": "DIALOG_SELECT",
                "delayTime": 0.4000000059604645,
                "aliasList": [
                    "AvatarNpc"
                ],
                "actionId": 171,
                "NDMMOPDPKNF": [
                    740535526
                ],
                "FPDBIEGHMCD": [
                    2626640959
                ],
                "PKBOIGBGDEG": true,
                "GOJJPCDMMLN": 1331656339
            }
        ],
        [
            {
                "$type": "DLPFECMKEKH",
                "type": "DIALOG",
                "aliasList": [
                    "21293"
                ],
                "actionId": 156,
                "NMKEDPFEKBH": 740535527,
                "JLCHMAJCAPA": 0.5
            }
        ],
        [
            {
                "$type": "DLPFECMKEKH",
                "type": "DIALOG",
                "aliasList": [
                    "5257"
                ],
                "actionId": 158,
                "NMKEDPFEKBH": 740535528,
                "JLCHMAJCAPA": 0.5
            }
        ],
        [
            {
                "$type": "MoleMole.Config.ConfigTimeProtectAction",
                "type": "TIME_PROTECT",
                "duration": 0.10000000149011612,
                "actionId": 105
            },
            {
                "$type": "MoleMole.Config.ConfigSimpleBlackScreenAction",
                "type": "SIMPLE_BLACK_SCREEN",
                "actionId": 159,
                "durationToBlack": 0.5,
                "durationKeepBlack": 1.5,
                "durationFromBlack": 0.5,
                "textMapID": ""
            },
            {
                "$type": "MoleMole.Config.ConfigTimeProtectAction",
                "type": "TIME_PROTECT",
                "duration": 0.699999988079071,
                "actionId": 160
            },
            {
                "$type": "MOOOKOKLLEI",
                "type": "CAMERA_MOVE",
                "delayTime": 0.5,
                "duration": 0.10000000149011612,
                "actionId": 167,
                "IPHEFBOANAL": "EXIT",
                "HGKCPMDICGG": {
                    "z": 1.0
                },
                "AFODHELHCGB": 30.0,
                "MGMFMGNANHH": 5,
                "NDFGFJFGHKL": "EaseInOutCubic",
                "IBCBGNHCICN": {},
                "HCPFCAHMGMO": false,
                "OMCCMPHDLOO": "",
                "FEFNBKOHPOG": true,
                "OCFGGGHIKOO": "",
                "LJFHGGJDPHH": "",
                "LPKDFKLNEHL": ""
            },
            {
                "$type": "MoleMole.Config.ConfigVisibleInterAction",
                "type": "VISIBLE",
                "delayTime": 0.6000000238418579,
                "aliasList": [
                    "Avatar"
                ],
                "actionId": 176,
                "isVisible": true,
                "extraParam": ""
            },
            {
                "$type": "ILCGAGEGDJI",
                "type": "BODY_LANG",
                "delayTime": 0.6000000238418579,
                "aliasList": [
                    "AvatarNpc"
                ],
                "actionId": 175,
                "JLABKFNJCNP": true,
                "PMJAMGLAJGK": true,
                "LIMPPBIAKGL": false,
                "FNDLJGEAMGI": ""
            },
            {
                "$type": "MoleMole.Config.ConfigVisibleInterAction",
                "type": "VISIBLE",
                "delayTime": 0.6000000238418579,
                "aliasList": [
                    "AvatarNpc"
                ],
                "actionId": 178,
                "extraParam": ""
            },
            {
                "$type": "ILCGAGEGDJI",
                "type": "BODY_LANG",
                "delayTime": 0.6000000238418579,
                "aliasList": [
                    "5257"
                ],
                "actionId": 162,
                "JLABKFNJCNP": true,
                "PMJAMGLAJGK": true,
                "LIMPPBIAKGL": false,
                "FNDLJGEAMGI": ""
            },
            {
                "$type": "ILCGAGEGDJI",
                "type": "BODY_LANG",
                "delayTime": 0.6000000238418579,
                "aliasList": [
                    "21293"
                ],
                "actionId": 164,
                "JLABKFNJCNP": true,
                "PMJAMGLAJGK": true,
                "LIMPPBIAKGL": false,
                "FNDLJGEAMGI": ""
            }
        ]
    ],
    "groupId": [
        {
            "grpId": 1331656340,
            "nextGrpId": 1331656341
        },
        {
            "index": 1,
            "grpId": 1331656341,
            "nextGrpId": 1331656342
        },
        {
            "index": 2,
            "grpId": 1331656342,
            "nextGrpId": 1331656343
        },
        {
            "index": 3,
            "grpId": 1331656343,
            "nextGrpId": 1331656344
        },
        {
            "index": 4,
            "grpId": 1331656344,
            "nextGrpId": 1331656345
        },
        {
            "index": 5,
            "grpId": 1331656345,
            "nextGrpId": 1331656346
        },
        {
            "index": 6,
            "grpId": 1331656346,
            "nextGrpId": 1331656347
        },
        {
            "index": 7,
            "grpId": 1331656347,
            "nextGrpId": 1331656348
        },
        {
            "index": 8,
            "grpId": 1331656348,
            "nextGrpId": 2626640924
        },
        {
            "index": 9,
            "grpId": 2626640924,
            "nextGrpId": 2626640925
        },
        {
            "index": 10,
            "grpId": 2626640925,
            "nextGrpId": 2626640926
        },
        {
            "index": 11,
            "grpId": 2626640926,
            "nextGrpId": 2626640927
        },
        {
            "index": 12,
            "grpId": 2626640927,
            "nextGrpId": 2626640928
        },
        {
            "index": 13,
            "grpId": 2626640928,
            "nextGrpId": 2626640929
        },
        {
            "index": 14,
            "grpId": 2626640929,
            "nextGrpId": 2626640930
        },
        {
            "index": 15,
            "grpId": 2626640930,
            "nextGrpId": 2626640931
        },
        {
            "index": 16,
            "grpId": 2626640931,
            "nextGrpId": 2626640932
        },
        {
            "index": 17,
            "grpId": 2626640932,
            "nextGrpId": 2626640933
        },
        {
            "index": 18,
            "grpId": 2626640933,
            "nextGrpId": 2626640955
        },
        {
            "index": 19,
            "grpId": 2626640955,
            "nextGrpId": 2626640956
        },
        {
            "index": 20,
            "grpId": 2626640956,
            "nextGrpId": 2626640957
        },
        {
            "index": 21,
            "grpId": 2626640957,
            "nextGrpId": 2626640958
        },
        {
            "index": 22,
            "grpId": 2626640958,
            "nextGrpId": 2626640959
        },
        {
            "index": 23,
            "grpId": 2626640959,
            "nextGrpId": 2626640960
        },
        {
            "index": 24,
            "grpId": 2626640960,
            "nextGrpId": 2626640961
        },
        {
            "index": 25,
            "grpId": 2626640961,
            "nextGrpId": 2626640962
        }
    ],
    "freeStyleDic": {
        "1025": [],
        "1026": [],
        "5257": []
    }
}