{
    "luaDataPath": "",
    "dontUseDefaultFinish": true,
    "startBlackKeepTime": 0.5,
    "entityBan": "",
    "disableNpcLod": true,
    "CHEEOGPONFB": true,
    "ODJLIKHADCH": true,
    "KODBKMIEKIF": true,
    "PHPKFCGNPGO": 7,
    "startFade": {
        "startFadeInDuration": 0.5,
        "startFadeOutDuration": 0.5
    },
    "endFade": {
        "startFadeOutDuration": 0.0
    },
    "actors": [
        {
            "alias": "Avatar",
            "visible": true,
            "bornPointName": "[3_6093:4729.810,683.073,3889.830,0.000,237.594,0.000]",
            "relativePosType": "AVATAR_NEW",
            "relativePosNpcAlias": "",
            "notDestroyInTalk": true,
            "bindMovingTargetKey": ""
        },
        {
            "alias": "AvatarNpc",
            "visible": true,
            "bornPointName": "[3_6093:4729.810,683.073,3889.830,0.000,237.594,0.000]",
            "removeActorType": "NEW_REMOVE",
            "relativePosType": "AVATAR_NEW",
            "relativePosNpcAlias": "",
            "notDestroyInTalk": true,
            "bindMovingTargetKey": ""
        },
        {
            "configID": 5257,
            "alias": "5257",
            "visible": true,
            "bornPointName": "[3_6094:4725.861,683.104,3888.615,0.000,66.007,0.000]",
            "forceCreateDaily": true,
            "relativePosType": "AVATAR_NEW",
            "relativePosNpcAlias": "",
            "notDestroyInTalk": true,
            "bindMovingTargetKey": ""
        },
        {
            "configID": 21293,
            "alias": "21293",
            "visible": true,
            "bornPointName": "[3_6095:4728.480,683.072,3891.247,0.000,213.961,0.000]",
            "removeActorType": "NEW_REMOVE_WITH_DISAPPEAR",
            "relativePosType": "AVATAR_NEW",
            "relativePosNpcAlias": "",
            "notDestroyInTalk": true,
            "bindMovingTargetKey": ""
        }
    ],
    "group": [
        [
            {
                "$type": "MoleMole.Config.ConfigTimeProtectAction",
                "type": "TIME_PROTECT",
                "duration": 1.0,
                "actionId": 104
            },
            {
                "$type": "MoleMole.Config.ConfigBlackScreenAction",
                "type": "BLACK_SCREEN",
                "duration": 1.0,
                "actionId": 129,
                "blackScreenType": "KEEP_BLACK",
                "durationToBlack": 0.5,
                "durationKeepBlack": 1.0,
                "durationFromBlack": 0.5,
                "inteePos": "",
                "textMapID": "",
                "useTextFade": true,
                "changeAudioState": true
            },
            {
                "$type": "MoleMole.Config.ConfigSitOrStandAction",
                "type": "SIT_OR_STAND",
                "aliasList": [
                    "Avatar"
                ],
                "actionId": 133,
                "banResetFreestyle": true
            },
            {
                "$type": "MoleMole.Config.ConfigVisibleInterAction",
                "type": "VISIBLE",
                "aliasList": [
                    "Avatar"
                ],
                "actionId": 138,
                "extraParam": ""
            },
            {
                "$type": "MoleMole.Config.ConfigPlayerNPCEnergyTypeAction",
                "type": "SET_PLAYER_NPC_ENERGY_TYPE",
                "aliasList": [
                    "AvatarNpc"
                ],
                "actionId": 134,
                "setHeroEngergyType": true
            },
            {
                "$type": "APJLFMIMFFO",
                "type": "BODY_LANG",
                "aliasList": [
                    "AvatarNpc"
                ],
                "actionId": 135,
                "AHGLNLOAIJI": true,
                "MFOBCHEJMND": true,
                "NLPOIBJICLG": false,
                "INODNBLIIOL": ""
            },
            {
                "$type": "APJLFMIMFFO",
                "type": "BODY_LANG",
                "aliasList": [
                    "5257"
                ],
                "actionId": 125,
                "AHGLNLOAIJI": true,
                "MFOBCHEJMND": true,
                "NLPOIBJICLG": false,
                "INODNBLIIOL": ""
            },
            {
                "$type": "APJLFMIMFFO",
                "type": "BODY_LANG",
                "aliasList": [
                    "21293"
                ],
                "actionId": 127,
                "AHGLNLOAIJI": true,
                "MFOBCHEJMND": true,
                "NLPOIBJICLG": false,
                "INODNBLIIOL": ""
            }
        ],
        [
            {
                "$type": "MoleMole.Config.ConfigBlackScreenAction",
                "type": "BLACK_SCREEN",
                "duration": 0.5,
                "actionId": 130,
                "blackScreenType": "FROM_BLACK",
                "durationToBlack": 0.5,
                "durationKeepBlack": 0.5,
                "durationFromBlack": 0.5,
                "inteePos": "",
                "textMapID": "",
                "useTextFade": true,
                "changeAudioState": true
            },
            {
                "$type": "ABNGLLOIMLC",
                "type": "DIALOG",
                "aliasList": [
                    "5257"
                ],
                "actionId": 107,
                "GBAPKLGILDP": 740537701,
                "HJNIELBGKIE": 0.5
            }
        ],
        [
            {
                "$type": "ABNGLLOIMLC",
                "type": "DIALOG",
                "aliasList": [
                    "5257"
                ],
                "actionId": 109,
                "GBAPKLGILDP": 740537702,
                "HJNIELBGKIE": 0.5
            }
        ],
        [
            {
                "$type": "ABNGLLOIMLC",
                "type": "DIALOG",
                "aliasList": [
                    "21293"
                ],
                "actionId": 111,
                "GBAPKLGILDP": 740537703,
                "HJNIELBGKIE": 0.5
            }
        ],
        [
            {
                "$type": "ABNGLLOIMLC",
                "type": "DIALOG",
                "aliasList": [
                    "5257"
                ],
                "actionId": 113,
                "GBAPKLGILDP": 740537704,
                "HJNIELBGKIE": 0.5
            }
        ],
        [
            {
                "$type": "ABNGLLOIMLC",
                "type": "DIALOG",
                "aliasList": [
                    "21293"
                ],
                "actionId": 115,
                "GBAPKLGILDP": 740537705,
                "HJNIELBGKIE": 0.5
            },
            {
                "$type": "FPLLLIIPNCN",
                "type": "DIALOG_SELECT",
                "delayTime": 0.4000000059604645,
                "aliasList": [
                    "AvatarNpc"
                ],
                "actionId": 132,
                "CIOBDALMHGN": [
                    740537706
                ],
                "MCAHMAIKDKH": [
                    1331717850
                ],
                "HHHLOGOFPBI": true,
                "HLAHNHMMLMA": 1331717843
            }
        ],
        [
            {
                "$type": "ABNGLLOIMLC",
                "type": "DIALOG",
                "aliasList": [
                    "5257"
                ],
                "actionId": 118,
                "GBAPKLGILDP": 740537707,
                "HJNIELBGKIE": 0.5
            }
        ],
        [
            {
                "$type": "ABNGLLOIMLC",
                "type": "DIALOG",
                "aliasList": [
                    "5257"
                ],
                "actionId": 120,
                "GBAPKLGILDP": 740537708,
                "HJNIELBGKIE": 0.5
            }
        ],
        [
            {
                "$type": "ABNGLLOIMLC",
                "type": "DIALOG",
                "aliasList": [
                    "5257"
                ],
                "actionId": 122,
                "GBAPKLGILDP": 740537709,
                "HJNIELBGKIE": 0.5
            }
        ],
        [
            {
                "$type": "MoleMole.Config.ConfigTimeProtectAction",
                "type": "TIME_PROTECT",
                "duration": 0.10000000149011612,
                "actionId": 105
            },
            {
                "$type": "MoleMole.Config.ConfigSimpleBlackScreenAction",
                "type": "SIMPLE_BLACK_SCREEN",
                "actionId": 123,
                "durationToBlack": 0.5,
                "durationKeepBlack": 1.5,
                "durationFromBlack": 0.5,
                "textMapID": ""
            },
            {
                "$type": "MoleMole.Config.ConfigTimeProtectAction",
                "type": "TIME_PROTECT",
                "duration": 0.699999988079071,
                "actionId": 124
            },
            {
                "$type": "PEBNPAFCPDC",
                "type": "CAMERA_MOVE",
                "delayTime": 0.5,
                "duration": 0.10000000149011612,
                "actionId": 131,
                "ABOEPDCCINO": "EXIT",
                "MGOKOLENDJE": {
                    "z": 1.0
                },
                "ICCIIMLMMJF": 30.0,
                "FOPHJAHABPI": 5,
                "OGEBDBMOHAP": "EaseInOutCubic",
                "MMOMBJAODDL": {},
                "GHCANGFLOAG": false,
                "FPHAIFHJDOL": "",
                "IGIEIALINNO": true,
                "LMKMMKJOBIB": "",
                "EPIJJMOOAOC": "",
                "EMGNMHHFPJC": ""
            },
            {
                "$type": "MoleMole.Config.ConfigVisibleInterAction",
                "type": "VISIBLE",
                "delayTime": 0.6000000238418579,
                "aliasList": [
                    "Avatar"
                ],
                "actionId": 137,
                "isVisible": true,
                "extraParam": ""
            },
            {
                "$type": "APJLFMIMFFO",
                "type": "BODY_LANG",
                "delayTime": 0.6000000238418579,
                "aliasList": [
                    "AvatarNpc"
                ],
                "actionId": 136,
                "AHGLNLOAIJI": true,
                "MFOBCHEJMND": true,
                "NLPOIBJICLG": false,
                "INODNBLIIOL": ""
            },
            {
                "$type": "APJLFMIMFFO",
                "type": "BODY_LANG",
                "delayTime": 0.6000000238418579,
                "aliasList": [
                    "5257"
                ],
                "actionId": 126,
                "AHGLNLOAIJI": true,
                "MFOBCHEJMND": true,
                "NLPOIBJICLG": false,
                "INODNBLIIOL": ""
            },
            {
                "$type": "APJLFMIMFFO",
                "type": "BODY_LANG",
                "delayTime": 0.6000000238418579,
                "aliasList": [
                    "21293"
                ],
                "actionId": 128,
                "AHGLNLOAIJI": true,
                "MFOBCHEJMND": true,
                "NLPOIBJICLG": false,
                "INODNBLIIOL": ""
            }
        ]
    ],
    "groupId": [
        {
            "grpId": 1331717844,
            "nextGrpId": 1331717845
        },
        {
            "index": 1,
            "grpId": 1331717845,
            "nextGrpId": 1331717846
        },
        {
            "index": 2,
            "grpId": 1331717846,
            "nextGrpId": 1331717847
        },
        {
            "index": 3,
            "grpId": 1331717847,
            "nextGrpId": 1331717848
        },
        {
            "index": 4,
            "grpId": 1331717848,
            "nextGrpId": 1331717849
        },
        {
            "index": 5,
            "grpId": 1331717849,
            "nextGrpId": 1331717850
        },
        {
            "index": 6,
            "grpId": 1331717850,
            "nextGrpId": 1331717851
        },
        {
            "index": 7,
            "grpId": 1331717851,
            "nextGrpId": 1331717852
        },
        {
            "index": 8,
            "grpId": 1331717852,
            "nextGrpId": 2628547548
        },
        {
            "index": 9,
            "grpId": 2628547548,
            "nextGrpId": 2628547549
        }
    ],
    "freeStyleDic": {
        "1025": [],
        "1026": [],
        "5257": []
    }
}