{
    "talkId": 1400807,
    "dialogList": [
        {
            "id": 140080701,
            "nextDialogs": [
                140080702
            ],
            "talkRole": {
                "type": "TALK_ROLE_NPC",
                "id": "13657"
            },
            "talkContentTextMapHash": 314264866,
            "talkAssetPath": "",
            "talkAssetPathAlter": "",
            "talkAudioName": "",
            "actionBefore": "",
            "actionWhile": "",
            "actionAfter": "",
            "optionIcon": ""
        },
        {
            "id": 140080702,
            "nextDialogs": [
                140080703
            ],
            "talkRole": {
                "type": "TALK_ROLE_NPC",
                "id": "1076"
            },
            "talkContentTextMapHash": 42635674,
            "talkAssetPath": "",
            "talkAssetPathAlter": "",
            "talkAudioName": "",
            "actionBefore": "",
            "actionWhile": "",
            "actionAfter": "",
            "optionIcon": ""
        },
        {
            "id": 140080703,
            "nextDialogs": [
                140080704
            ],
            "talkRole": {
                "type": "TALK_ROLE_NPC",
                "id": "1076"
            },
            "talkContentTextMapHash": 4151732882,
            "talkAssetPath": "",
            "talkAssetPathAlter": "",
            "talkAudioName": "",
            "actionBefore": "",
            "actionWhile": "",
            "actionAfter": "",
            "optionIcon": ""
        },
        {
            "id": 140080704,
            "nextDialogs": [
                140080705
            ],
            "talkRole": {
                "type": "TALK_ROLE_NPC",
                "id": "13658"
            },
            "talkContentTextMapHash": 1692449386,
            "talkAssetPath": "",
            "talkAssetPathAlter": "",
            "talkAudioName": "",
            "actionBefore": "",
            "actionWhile": "",
            "actionAfter": "",
            "optionIcon": ""
        },
        {
            "id": 140080705,
            "nextDialogs": [
                140080706
            ],
            "talkRole": {
                "type": "TALK_ROLE_NPC",
                "id": "13657"
            },
            "talkContentTextMapHash": 1544861538,
            "talkAssetPath": "",
            "talkAssetPathAlter": "",
            "talkAudioName": "",
            "actionBefore": "",
            "actionWhile": "",
            "actionAfter": "",
            "optionIcon": ""
        },
        {
            "id": 140080706,
            "nextDialogs": [
                140080707
            ],
            "talkRole": {
                "type": "TALK_ROLE_NPC",
                "id": "13657"
            },
            "talkContentTextMapHash": 2841723994,
            "talkAssetPath": "",
            "talkAssetPathAlter": "",
            "talkAudioName": "",
            "actionBefore": "",
            "actionWhile": "",
            "actionAfter": "",
            "optionIcon": ""
        },
        {
            "id": 140080707,
            "nextDialogs": [
                140080708
            ],
            "talkRole": {
                "type": "TALK_ROLE_NPC",
                "id": "13658"
            },
            "talkContentTextMapHash": 1547271762,
            "talkAssetPath": "",
            "talkAssetPathAlter": "",
            "talkAudioName": "",
            "actionBefore": "",
            "actionWhile": "",
            "actionAfter": "",
            "optionIcon": ""
        },
        {
            "id": 140080708,
            "nextDialogs": [
                140080709
            ],
            "talkRole": {
                "type": "TALK_ROLE_NPC",
                "id": "13657"
            },
            "talkContentTextMapHash": 4239009402,
            "talkAssetPath": "",
            "talkAssetPathAlter": "",
            "talkAudioName": "",
            "actionBefore": "",
            "actionWhile": "",
            "actionAfter": "",
            "optionIcon": ""
        },
        {
            "id": 140080709,
            "nextDialogs": [
                140080710
            ],
            "talkRole": {
                "type": "TALK_ROLE_NPC",
                "id": "1076"
            },
            "talkContentTextMapHash": 1093929010,
            "talkAssetPath": "",
            "talkAssetPathAlter": "",
            "talkAudioName": "",
            "actionBefore": "",
            "actionWhile": "",
            "actionAfter": "",
            "optionIcon": ""
        },
        {
            "id": 140080710,
            "nextDialogs": [
                140080711
            ],
            "talkRole": {
                "type": "TALK_ROLE_NPC",
                "id": "1076"
            },
            "talkContentTextMapHash": 1419309546,
            "talkAssetPath": "",
            "talkAssetPathAlter": "",
            "talkAudioName": "",
            "actionBefore": "",
            "actionWhile": "",
            "actionAfter": "",
            "optionIcon": ""
        },
        {
            "id": 140080711,
            "nextDialogs": [
                140080712
            ],
            "talkRole": {
                "type": "TALK_ROLE_NPC",
                "id": "13658"
            },
            "talkContentTextMapHash": 1064293194,
            "talkAssetPath": "",
            "talkAssetPathAlter": "",
            "talkAudioName": "",
            "actionBefore": "",
            "actionWhile": "",
            "actionAfter": "",
            "optionIcon": ""
        },
        {
            "id": 140080712,
            "nextDialogs": [
                140080713
            ],
            "talkRole": {
                "type": "TALK_ROLE_NPC",
                "id": "13657"
            },
            "talkContentTextMapHash": 1413940778,
            "talkAssetPath": "",
            "talkAssetPathAlter": "",
            "talkAudioName": "",
            "actionBefore": "",
            "actionWhile": "",
            "actionAfter": "",
            "optionIcon": ""
        },
        {
            "id": 140080713,
            "nextDialogs": [
                140080714
            ],
            "talkRole": {
                "type": "TALK_ROLE_NPC",
                "id": "13564"
            },
            "talkContentTextMapHash": 1927066418,
            "talkAssetPath": "",
            "talkAssetPathAlter": "",
            "talkAudioName": "",
            "actionBefore": "",
            "actionWhile": "",
            "actionAfter": "",
            "optionIcon": ""
        },
        {
            "id": 140080714,
            "nextDialogs": [
                140080715
            ],
            "talkRole": {
                "type": "TALK_ROLE_NPC",
                "id": "13565"
            },
            "talkContentTextMapHash": 2350570914,
            "talkAssetPath": "",
            "talkAssetPathAlter": "",
            "talkAudioName": "",
            "actionBefore": "",
            "actionWhile": "",
            "actionAfter": "",
            "optionIcon": ""
        },
        {
            "id": 140080715,
            "nextDialogs": [
                140080716
            ],
            "talkRole": {
                "type": "TALK_ROLE_NPC",
                "id": "13564"
            },
            "talkContentTextMapHash": 2178167290,
            "talkAssetPath": "",
            "talkAssetPathAlter": "",
            "talkAudioName": "",
            "actionBefore": "",
            "actionWhile": "",
            "actionAfter": "",
            "optionIcon": ""
        },
        {
            "id": 140080716,
            "nextDialogs": [
                140080717
            ],
            "talkRole": {
                "type": "TALK_ROLE_NPC",
                "id": "13564"
            },
            "talkContentTextMapHash": 2629187122,
            "talkAssetPath": "",
            "talkAssetPathAlter": "",
            "talkAudioName": "",
            "actionBefore": "",
            "actionWhile": "",
            "actionAfter": "",
            "optionIcon": ""
        },
        {
            "id": 140080717,
            "nextDialogs": [
                140080718
            ],
            "talkRole": {
                "type": "TALK_ROLE_NPC",
                "id": "13564"
            },
            "talkContentTextMapHash": 1346942386,
            "talkAssetPath": "",
            "talkAssetPathAlter": "",
            "talkAudioName": "",
            "actionBefore": "",
            "actionWhile": "",
            "actionAfter": "",
            "optionIcon": ""
        },
        {
            "id": 140080718,
            "talkRole": {
                "type": "TALK_ROLE_NPC",
                "id": "13565"
            },
            "talkContentTextMapHash": 1020957962,
            "talkAssetPath": "",
            "talkAssetPathAlter": "",
            "talkAudioName": "",
            "actionBefore": "",
            "actionWhile": "",
            "actionAfter": "",
            "optionIcon": ""
        }
    ]
}