{
    "talkId": 1400129,
    "dialogList": [
        {
            "id": 140012901,
            "nextDialogs": [
                140012902
            ],
            "talkRole": {
                "type": "TALK_ROLE_NPC",
                "id": "13453"
            },
            "talkContentTextMapHash": 2544116818,
            "talkAssetPath": "",
            "talkAssetPathAlter": "",
            "talkAudioName": "",
            "actionBefore": "",
            "actionWhile": "",
            "actionAfter": "",
            "optionIcon": ""
        },
        {
            "id": 140012902,
            "nextDialogs": [
                140012903
            ],
            "talkRole": {
                "type": "TALK_ROLE_NPC",
                "id": "13453"
            },
            "talkContentTextMapHash": 1445812370,
            "talkAssetPath": "",
            "talkAssetPathAlter": "",
            "talkAudioName": "",
            "actionBefore": "",
            "actionWhile": "",
            "actionAfter": "",
            "optionIcon": ""
        },
        {
            "id": 140012903,
            "nextDialogs": [
                140012904
            ],
            "talkRole": {
                "type": "TALK_ROLE_NPC",
                "id": "13453"
            },
            "talkContentTextMapHash": 661824530,
            "talkAssetPath": "",
            "talkAssetPathAlter": "",
            "talkAudioName": "",
            "actionBefore": "",
            "actionWhile": "",
            "actionAfter": "",
            "optionIcon": ""
        },
        {
            "id": 140012904,
            "talkRole": {
                "type": "TALK_ROLE_NPC",
                "id": "13453"
            },
            "talkContentTextMapHash": 4033049722,
            "talkAssetPath": "",
            "talkAssetPathAlter": "",
            "talkAudioName": "",
            "actionBefore": "",
            "actionWhile": "",
            "actionAfter": "",
            "optionIcon": ""
        }
    ]
}