{
    "talkId": 1400706,
    "dialogList": [
        {
            "id": 140070601,
            "nextDialogs": [
                140070602
            ],
            "talkRole": {
                "type": "TALK_ROLE_NPC",
                "id": "1005"
            },
            "talkContentTextMapHash": 2657071474,
            "talkAssetPath": "",
            "talkAssetPathAlter": "",
            "talkAudioName": "",
            "actionBefore": "",
            "actionWhile": "",
            "actionAfter": "",
            "optionIcon": ""
        },
        {
            "id": 140070602,
            "nextDialogs": [
                140070603
            ],
            "talkRole": {
                "type": "TALK_ROLE_NPC",
                "id": "13503"
            },
            "talkContentTextMapHash": 2214341282,
            "talkAssetPath": "",
            "talkAssetPathAlter": "",
            "talkAudioName": "",
            "actionBefore": "",
            "actionWhile": "",
            "actionAfter": "",
            "optionIcon": ""
        },
        {
            "id": 140070603,
            "nextDialogs": [
                140070604
            ],
            "talkRole": {
                "type": "TALK_ROLE_NPC",
                "id": "5037"
            },
            "talkContentTextMapHash": 1096847050,
            "talkAssetPath": "",
            "talkAssetPathAlter": "",
            "talkAudioName": "",
            "actionBefore": "",
            "actionWhile": "",
            "actionAfter": "",
            "optionIcon": ""
        },
        {
            "id": 140070604,
            "nextDialogs": [
                140070605
            ],
            "talkRole": {
                "type": "TALK_ROLE_NPC",
                "id": "13503"
            },
            "talkContentTextMapHash": 2031546578,
            "talkAssetPath": "",
            "talkAssetPathAlter": "",
            "talkAudioName": "",
            "actionBefore": "",
            "actionWhile": "",
            "actionAfter": "",
            "optionIcon": ""
        },
        {
            "id": 140070605,
            "nextDialogs": [
                140070606,
                140070608
            ],
            "talkRole": {
                "type": "TALK_ROLE_NPC",
                "id": "5037"
            },
            "talkContentTextMapHash": 2741403666,
            "talkAssetPath": "",
            "talkAssetPathAlter": "",
            "talkAudioName": "",
            "actionBefore": "",
            "actionWhile": "",
            "actionAfter": "",
            "optionIcon": ""
        },
        {
            "id": 140070606,
            "nextDialogs": [
                140070607
            ],
            "talkRole": {
                "type": "TALK_ROLE_PLAYER",
                "id": ""
            },
            "talkContentTextMapHash": 388119330,
            "talkAssetPath": "",
            "talkAssetPathAlter": "",
            "talkAudioName": "",
            "actionBefore": "",
            "actionWhile": "",
            "actionAfter": "",
            "optionIcon": ""
        },
        {
            "id": 140070607,
            "nextDialogs": [
                140070611
            ],
            "talkRole": {
                "type": "TALK_ROLE_NPC",
                "id": "5037"
            },
            "talkContentTextMapHash": 3397783370,
            "talkAssetPath": "",
            "talkAssetPathAlter": "",
            "talkAudioName": "",
            "actionBefore": "",
            "actionWhile": "",
            "actionAfter": "",
            "optionIcon": ""
        },
        {
            "id": 140070611,
            "nextDialogs": [
                140070612
            ],
            "talkRole": {
                "type": "TALK_ROLE_NPC",
                "id": "13503"
            },
            "talkContentTextMapHash": 4099619050,
            "talkAssetPath": "",
            "talkAssetPathAlter": "",
            "talkAudioName": "",
            "actionBefore": "",
            "actionWhile": "",
            "actionAfter": "",
            "optionIcon": ""
        },
        {
            "id": 140070612,
            "nextDialogs": [
                140070613
            ],
            "talkRole": {
                "type": "TALK_ROLE_NPC",
                "id": "5037"
            },
            "talkContentTextMapHash": 3766625690,
            "talkAssetPath": "",
            "talkAssetPathAlter": "",
            "talkAudioName": "",
            "actionBefore": "",
            "actionWhile": "",
            "actionAfter": "",
            "optionIcon": ""
        },
        {
            "id": 140070613,
            "nextDialogs": [
                140070614
            ],
            "talkRole": {
                "type": "TALK_ROLE_NPC",
                "id": "13503"
            },
            "talkContentTextMapHash": 2769024322,
            "talkAssetPath": "",
            "talkAssetPathAlter": "",
            "talkAudioName": "",
            "actionBefore": "",
            "actionWhile": "",
            "actionAfter": "",
            "optionIcon": ""
        },
        {
            "id": 140070614,
            "nextDialogs": [
                140070615
            ],
            "talkRole": {
                "type": "TALK_ROLE_NPC",
                "id": "1005"
            },
            "talkContentTextMapHash": 2615318562,
            "talkAssetPath": "",
            "talkAssetPathAlter": "",
            "talkAudioName": "",
            "actionBefore": "",
            "actionWhile": "",
            "actionAfter": "",
            "optionIcon": ""
        },
        {
            "id": 140070615,
            "nextDialogs": [
                140070616
            ],
            "talkRole": {
                "type": "TALK_ROLE_NPC",
                "id": "13503"
            },
            "talkContentTextMapHash": 3970571226,
            "talkAssetPath": "",
            "talkAssetPathAlter": "",
            "talkAudioName": "",
            "actionBefore": "",
            "actionWhile": "",
            "actionAfter": "",
            "optionIcon": ""
        },
        {
            "id": 140070616,
            "nextDialogs": [
                140070617
            ],
            "talkRole": {
                "type": "TALK_ROLE_NPC",
                "id": "13503"
            },
            "talkContentTextMapHash": 91323826,
            "talkAssetPath": "",
            "talkAssetPathAlter": "",
            "talkAudioName": "",
            "actionBefore": "",
            "actionWhile": "",
            "actionAfter": "",
            "optionIcon": ""
        },
        {
            "id": 140070617,
            "nextDialogs": [
                140070618
            ],
            "talkRole": {
                "type": "TALK_ROLE_NPC",
                "id": "5037"
            },
            "talkContentTextMapHash": 4188305002,
            "talkAssetPath": "",
            "talkAssetPathAlter": "",
            "talkAudioName": "",
            "actionBefore": "",
            "actionWhile": "",
            "actionAfter": "",
            "optionIcon": ""
        },
        {
            "id": 140070618,
            "nextDialogs": [
                140070619
            ],
            "talkRole": {
                "type": "TALK_ROLE_NPC",
                "id": "5037"
            },
            "talkContentTextMapHash": 1952176762,
            "talkAssetPath": "",
            "talkAssetPathAlter": "",
            "talkAudioName": "",
            "actionBefore": "",
            "actionWhile": "",
            "actionAfter": "",
            "optionIcon": ""
        },
        {
            "id": 140070619,
            "nextDialogs": [
                140070620
            ],
            "talkRole": {
                "type": "TALK_ROLE_NPC",
                "id": "13503"
            },
            "talkContentTextMapHash": 4114453394,
            "talkAssetPath": "",
            "talkAssetPathAlter": "",
            "talkAudioName": "",
            "actionBefore": "",
            "actionWhile": "",
            "actionAfter": "",
            "optionIcon": ""
        },
        {
            "id": 140070620,
            "nextDialogs": [
                140070621
            ],
            "talkRole": {
                "type": "TALK_ROLE_NPC",
                "id": "5037"
            },
            "talkContentTextMapHash": 1147289650,
            "talkAssetPath": "",
            "talkAssetPathAlter": "",
            "talkAudioName": "",
            "actionBefore": "",
            "actionWhile": "",
            "actionAfter": "",
            "optionIcon": ""
        },
        {
            "id": 140070621,
            "nextDialogs": [
                140070622
            ],
            "talkRole": {
                "type": "TALK_ROLE_NPC",
                "id": "1005"
            },
            "talkContentTextMapHash": 2429741866,
            "talkAssetPath": "",
            "talkAssetPathAlter": "",
            "talkAudioName": "",
            "actionBefore": "",
            "actionWhile": "",
            "actionAfter": "",
            "optionIcon": ""
        },
        {
            "id": 140070622,
            "nextDialogs": [
                140070623
            ],
            "talkRole": {
                "type": "TALK_ROLE_NPC",
                "id": "1005"
            },
            "talkContentTextMapHash": 734841442,
            "talkAssetPath": "",
            "talkAssetPathAlter": "",
            "talkAudioName": "",
            "actionBefore": "",
            "actionWhile": "",
            "actionAfter": "",
            "optionIcon": ""
        },
        {
            "id": 140070623,
            "nextDialogs": [
                140070624
            ],
            "talkShowType": "TALK_SHOW_FORCE_SELECT",
            "talkRole": {
                "type": "TALK_ROLE_PLAYER",
                "id": ""
            },
            "talkContentTextMapHash": 4055541418,
            "talkAssetPath": "",
            "talkAssetPathAlter": "",
            "talkAudioName": "",
            "actionBefore": "",
            "actionWhile": "",
            "actionAfter": "",
            "optionIcon": ""
        },
        {
            "id": 140070624,
            "talkRole": {
                "type": "TALK_ROLE_NPC",
                "id": "1005"
            },
            "talkContentTextMapHash": 3040047962,
            "talkAssetPath": "",
            "talkAssetPathAlter": "",
            "talkAudioName": "",
            "actionBefore": "",
            "actionWhile": "",
            "actionAfter": "",
            "optionIcon": ""
        },
        {
            "id": 140070608,
            "nextDialogs": [
                140070609
            ],
            "talkRole": {
                "type": "TALK_ROLE_PLAYER",
                "id": ""
            },
            "talkContentTextMapHash": 1213831714,
            "talkAssetPath": "",
            "talkAssetPathAlter": "",
            "talkAudioName": "",
            "actionBefore": "",
            "actionWhile": "",
            "actionAfter": "",
            "optionIcon": ""
        },
        {
            "id": 140070609,
            "nextDialogs": [
                140070610
            ],
            "talkRole": {
                "type": "TALK_ROLE_NPC",
                "id": "5037"
            },
            "talkContentTextMapHash": 71334170,
            "talkAssetPath": "",
            "talkAssetPathAlter": "",
            "talkAudioName": "",
            "actionBefore": "",
            "actionWhile": "",
            "actionAfter": "",
            "optionIcon": ""
        },
        {
            "id": 140070610,
            "nextDialogs": [
                140070611
            ],
            "talkRole": {
                "type": "TALK_ROLE_NPC",
                "id": "1005"
            },
            "talkContentTextMapHash": 1791941098,
            "talkAssetPath": "",
            "talkAssetPathAlter": "",
            "talkAudioName": "",
            "actionBefore": "",
            "actionWhile": "",
            "actionAfter": "",
            "optionIcon": ""
        }
    ]
}