{
    "talkId": 1400123,
    "dialogList": [
        {
            "id": 140012301,
            "nextDialogs": [
                140012302
            ],
            "talkRole": {
                "type": "TALK_ROLE_NPC",
                "id": "13459"
            },
            "talkContentTextMapHash": 841330242,
            "talkAssetPath": "",
            "talkAssetPathAlter": "",
            "talkAudioName": "",
            "actionBefore": "",
            "actionWhile": "",
            "actionAfter": "",
            "optionIcon": ""
        },
        {
            "id": 140012302,
            "nextDialogs": [
                140012303
            ],
            "talkShowType": "TALK_SHOW_FORCE_SELECT",
            "talkRole": {
                "type": "TALK_ROLE_PLAYER",
                "id": ""
            },
            "talkContentTextMapHash": 4256780058,
            "talkAssetPath": "",
            "talkAssetPathAlter": "",
            "talkAudioName": "",
            "actionBefore": "",
            "actionWhile": "",
            "actionAfter": "",
            "optionIcon": ""
        },
        {
            "id": 140012303,
            "nextDialogs": [
                140012304
            ],
            "talkRole": {
                "type": "TALK_ROLE_NPC",
                "id": "13459"
            },
            "talkContentTextMapHash": 2198920954,
            "talkAssetPath": "",
            "talkAssetPathAlter": "",
            "talkAudioName": "",
            "actionBefore": "",
            "actionWhile": "",
            "actionAfter": "",
            "optionIcon": ""
        },
        {
            "id": 140012304,
            "talkRole": {
                "type": "TALK_ROLE_NPC",
                "id": "13459"
            },
            "talkContentTextMapHash": 574855482,
            "talkAssetPath": "",
            "talkAssetPathAlter": "",
            "talkAudioName": "",
            "actionBefore": "",
            "actionWhile": "",
            "actionAfter": "",
            "optionIcon": ""
        }
    ]
}