{
    "talkId": 2102145,
    "dialogList": [
        {
            "id": 210214501,
            "nextDialogs": [
                210214502
            ],
            "talkRole": {
                "type": "TALK_ROLE_NPC",
                "id": "2139"
            },
            "talkContentTextMapHash": 227400936,
            "talkAssetPath": "",
            "talkAssetPathAlter": "",
            "talkAudioName": "",
            "actionBefore": "",
            "actionWhile": "",
            "actionAfter": "",
            "optionIcon": "UI_Icon_Quest_Once"
        },
        {
            "id": 210214502,
            "nextDialogs": [
                210214503
            ],
            "talkRole": {
                "type": "TALK_ROLE_NPC",
                "id": "2139"
            },
            "talkContentTextMapHash": 3425448944,
            "talkAssetPath": "",
            "talkAssetPathAlter": "",
            "talkAudioName": "",
            "actionBefore": "",
            "actionWhile": "",
            "actionAfter": "",
            "optionIcon": ""
        },
        {
            "id": 210214503,
            "talkRole": {
                "type": "TALK_ROLE_NPC",
                "id": "2139"
            },
            "talkContentTextMapHash": 1647140104,
            "talkAssetPath": "",
            "talkAssetPathAlter": "",
            "talkAudioName": "",
            "actionBefore": "",
            "actionWhile": "",
            "actionAfter": "",
            "optionIcon": ""
        }
    ]
}