{
    "talkId": 2401825,
    "dialogList": [
        {
            "id": 240182501,
            "nextDialogs": [
                240182502
            ],
            "talkRole": {
                "type": "TALK_ROLE_PLAYER",
                "id": ""
            },
            "talkContentTextMapHash": 731149930,
            "talkAssetPath": "",
            "talkAssetPathAlter": "",
            "talkAudioName": "",
            "actionBefore": "",
            "actionWhile": "",
            "actionAfter": "",
            "optionIcon": ""
        },
        {
            "id": 240182502,
            "talkRole": {
                "type": "TALK_ROLE_NPC",
                "id": "5027"
            },
            "talkContentTextMapHash": 1704118562,
            "talkAssetPath": "",
            "talkAssetPathAlter": "",
            "talkAudioName": "",
            "actionBefore": "",
            "actionWhile": "",
            "actionAfter": "",
            "optionIcon": ""
        }
    ]
}