{
    "talkId": 2401601,
    "dialogList": [
        {
            "id": 240160101,
            "nextDialogs": [
                240160102
            ],
            "talkRole": {
                "type": "TALK_ROLE_NPC",
                "id": "5256"
            },
            "talkContentTextMapHash": 2605992250,
            "talkAssetPath": "",
            "talkAssetPathAlter": "",
            "talkAudioName": "",
            "actionBefore": "",
            "actionWhile": "",
            "actionAfter": "",
            "optionIcon": ""
        },
        {
            "id": 240160102,
            "nextDialogs": [
                240160103
            ],
            "talkShowType": "TALK_SHOW_FORCE_SELECT",
            "talkRole": {
                "type": "TALK_ROLE_PLAYER",
                "id": ""
            },
            "talkContentTextMapHash": 1219605586,
            "talkAssetPath": "",
            "talkAssetPathAlter": "",
            "talkAudioName": "",
            "actionBefore": "",
            "actionWhile": "",
            "actionAfter": "",
            "optionIcon": ""
        },
        {
            "id": 240160103,
            "nextDialogs": [
                240160104
            ],
            "talkRole": {
                "type": "TALK_ROLE_NPC",
                "id": "5256"
            },
            "talkContentTextMapHash": 3318969706,
            "talkAssetPath": "",
            "talkAssetPathAlter": "",
            "talkAudioName": "",
            "actionBefore": "",
            "actionWhile": "",
            "actionAfter": "",
            "optionIcon": ""
        },
        {
            "id": 240160104,
            "nextDialogs": [
                240160105
            ],
            "talkRole": {
                "type": "TALK_ROLE_NPC",
                "id": "5256"
            },
            "talkContentTextMapHash": 4092854506,
            "talkAssetPath": "",
            "talkAssetPathAlter": "",
            "talkAudioName": "",
            "actionBefore": "",
            "actionWhile": "",
            "actionAfter": "",
            "optionIcon": ""
        },
        {
            "id": 240160105,
            "nextDialogs": [
                240160106
            ],
            "talkRole": {
                "type": "TALK_ROLE_NPC",
                "id": "1005"
            },
            "talkContentTextMapHash": 3829374258,
            "talkAssetPath": "",
            "talkAssetPathAlter": "",
            "talkAudioName": "",
            "actionBefore": "",
            "actionWhile": "",
            "actionAfter": "",
            "optionIcon": ""
        },
        {
            "id": 240160106,
            "nextDialogs": [
                240160107
            ],
            "talkRole": {
                "type": "TALK_ROLE_NPC",
                "id": "5256"
            },
            "talkContentTextMapHash": 3457237954,
            "talkAssetPath": "",
            "talkAssetPathAlter": "",
            "talkAudioName": "",
            "actionBefore": "",
            "actionWhile": "",
            "actionAfter": "",
            "optionIcon": ""
        },
        {
            "id": 240160107,
            "nextDialogs": [
                240160108
            ],
            "talkShowType": "TALK_SHOW_FORCE_SELECT",
            "talkRole": {
                "type": "TALK_ROLE_PLAYER",
                "id": ""
            },
            "talkContentTextMapHash": 763310042,
            "talkAssetPath": "",
            "talkAssetPathAlter": "",
            "talkAudioName": "",
            "actionBefore": "",
            "actionWhile": "",
            "actionAfter": "",
            "optionIcon": ""
        },
        {
            "id": 240160108,
            "nextDialogs": [
                240160109
            ],
            "talkRole": {
                "type": "TALK_ROLE_NPC",
                "id": "5256"
            },
            "talkContentTextMapHash": 373122762,
            "talkAssetPath": "",
            "talkAssetPathAlter": "",
            "talkAudioName": "",
            "actionBefore": "",
            "actionWhile": "",
            "actionAfter": "",
            "optionIcon": ""
        },
        {
            "id": 240160109,
            "nextDialogs": [
                240160110
            ],
            "talkRole": {
                "type": "TALK_ROLE_NPC",
                "id": "5256"
            },
            "talkContentTextMapHash": 4173609026,
            "talkAssetPath": "",
            "talkAssetPathAlter": "",
            "talkAudioName": "",
            "actionBefore": "",
            "actionWhile": "",
            "actionAfter": "",
            "optionIcon": ""
        },
        {
            "id": 240160110,
            "nextDialogs": [
                240160111
            ],
            "talkRole": {
                "type": "TALK_ROLE_NPC",
                "id": "5256"
            },
            "talkContentTextMapHash": 1266505626,
            "talkAssetPath": "",
            "talkAssetPathAlter": "",
            "talkAudioName": "",
            "actionBefore": "",
            "actionWhile": "",
            "actionAfter": "",
            "optionIcon": ""
        },
        {
            "id": 240160111,
            "nextDialogs": [
                240160112
            ],
            "talkRole": {
                "type": "TALK_ROLE_NPC",
                "id": "5256"
            },
            "talkContentTextMapHash": 2538489458,
            "talkAssetPath": "",
            "talkAssetPathAlter": "",
            "talkAudioName": "",
            "actionBefore": "",
            "actionWhile": "",
            "actionAfter": "",
            "optionIcon": ""
        },
        {
            "id": 240160112,
            "nextDialogs": [
                240160113
            ],
            "talkRole": {
                "type": "TALK_ROLE_NPC",
                "id": "5256"
            },
            "talkContentTextMapHash": 385171434,
            "talkAssetPath": "",
            "talkAssetPathAlter": "",
            "talkAudioName": "",
            "actionBefore": "",
            "actionWhile": "",
            "actionAfter": "",
            "optionIcon": ""
        },
        {
            "id": 240160113,
            "nextDialogs": [
                240160114
            ],
            "talkShowType": "TALK_SHOW_FORCE_SELECT",
            "talkRole": {
                "type": "TALK_ROLE_PLAYER",
                "id": ""
            },
            "talkContentTextMapHash": 4244064170,
            "talkAssetPath": "",
            "talkAssetPathAlter": "",
            "talkAudioName": "",
            "actionBefore": "",
            "actionWhile": "",
            "actionAfter": "",
            "optionIcon": ""
        },
        {
            "id": 240160114,
            "nextDialogs": [
                240160115
            ],
            "talkRole": {
                "type": "TALK_ROLE_NPC",
                "id": "1005"
            },
            "talkContentTextMapHash": 4284430202,
            "talkAssetPath": "",
            "talkAssetPathAlter": "",
            "talkAudioName": "",
            "actionBefore": "",
            "actionWhile": "",
            "actionAfter": "",
            "optionIcon": ""
        },
        {
            "id": 240160115,
            "nextDialogs": [
                240160116,
                240160117
            ],
            "talkRole": {
                "type": "TALK_ROLE_NPC",
                "id": "1005"
            },
            "talkContentTextMapHash": 4052443634,
            "talkAssetPath": "",
            "talkAssetPathAlter": "",
            "talkAudioName": "",
            "actionBefore": "",
            "actionWhile": "",
            "actionAfter": "",
            "optionIcon": ""
        },
        {
            "id": 240160116,
            "nextDialogs": [
                240160118
            ],
            "talkShowType": "TALK_SHOW_FORCE_SELECT",
            "talkRole": {
                "type": "TALK_ROLE_PLAYER",
                "id": ""
            },
            "talkContentTextMapHash": 103863002,
            "talkAssetPath": "",
            "talkAssetPathAlter": "",
            "talkAudioName": "",
            "actionBefore": "",
            "actionWhile": "",
            "actionAfter": "",
            "optionIcon": ""
        },
        {
            "id": 240160118,
            "nextDialogs": [
                240160119
            ],
            "talkRole": {
                "type": "TALK_ROLE_NPC",
                "id": "5256"
            },
            "talkContentTextMapHash": 4247479074,
            "talkAssetPath": "",
            "talkAssetPathAlter": "",
            "talkAudioName": "",
            "actionBefore": "",
            "actionWhile": "",
            "actionAfter": "",
            "optionIcon": ""
        },
        {
            "id": 240160119,
            "nextDialogs": [
                240160120
            ],
            "talkRole": {
                "type": "TALK_ROLE_NPC",
                "id": "5256"
            },
            "talkContentTextMapHash": 167343498,
            "talkAssetPath": "",
            "talkAssetPathAlter": "",
            "talkAudioName": "",
            "actionBefore": "",
            "actionWhile": "",
            "actionAfter": "",
            "optionIcon": ""
        },
        {
            "id": 240160120,
            "nextDialogs": [
                240160121,
                240160122
            ],
            "talkRole": {
                "type": "TALK_ROLE_NPC",
                "id": "5256"
            },
            "talkContentTextMapHash": 3634508890,
            "talkAssetPath": "",
            "talkAssetPathAlter": "",
            "talkAudioName": "",
            "actionBefore": "",
            "actionWhile": "",
            "actionAfter": "",
            "optionIcon": ""
        },
        {
            "id": 240160121,
            "nextDialogs": [
                240160124
            ],
            "talkShowType": "TALK_SHOW_FORCE_SELECT",
            "talkRole": {
                "type": "TALK_ROLE_PLAYER",
                "id": ""
            },
            "talkContentTextMapHash": 1648901266,
            "talkAssetPath": "",
            "talkAssetPathAlter": "",
            "talkAudioName": "",
            "actionBefore": "",
            "actionWhile": "",
            "actionAfter": "",
            "optionIcon": ""
        },
        {
            "id": 240160124,
            "nextDialogs": [
                240160125
            ],
            "talkRole": {
                "type": "TALK_ROLE_NPC",
                "id": "5256"
            },
            "talkContentTextMapHash": 3501606578,
            "talkAssetPath": "",
            "talkAssetPathAlter": "",
            "talkAudioName": "",
            "actionBefore": "",
            "actionWhile": "",
            "actionAfter": "",
            "optionIcon": ""
        },
        {
            "id": 240160125,
            "nextDialogs": [
                240160126
            ],
            "talkRole": {
                "type": "TALK_ROLE_NPC",
                "id": "5256"
            },
            "talkContentTextMapHash": 2259764322,
            "talkAssetPath": "",
            "talkAssetPathAlter": "",
            "talkAudioName": "",
            "actionBefore": "",
            "actionWhile": "",
            "actionAfter": "",
            "optionIcon": ""
        },
        {
            "id": 240160126,
            "talkRole": {
                "type": "TALK_ROLE_NPC",
                "id": "5256"
            },
            "talkContentTextMapHash": 3259268242,
            "talkAssetPath": "",
            "talkAssetPathAlter": "",
            "talkAudioName": "",
            "actionBefore": "",
            "actionWhile": "",
            "actionAfter": "",
            "optionIcon": ""
        },
        {
            "id": 240160122,
            "nextDialogs": [
                240160123
            ],
            "talkShowType": "TALK_SHOW_FORCE_SELECT",
            "talkRole": {
                "type": "TALK_ROLE_PLAYER",
                "id": ""
            },
            "talkContentTextMapHash": 2628665146,
            "talkAssetPath": "",
            "talkAssetPathAlter": "",
            "talkAudioName": "",
            "actionBefore": "",
            "actionWhile": "",
            "actionAfter": "",
            "optionIcon": ""
        },
        {
            "id": 240160123,
            "nextDialogs": [
                240160124
            ],
            "talkRole": {
                "type": "TALK_ROLE_NPC",
                "id": "5256"
            },
            "talkContentTextMapHash": 2040853378,
            "talkAssetPath": "",
            "talkAssetPathAlter": "",
            "talkAudioName": "",
            "actionBefore": "",
            "actionWhile": "",
            "actionAfter": "",
            "optionIcon": ""
        },
        {
            "id": 240160117,
            "nextDialogs": [
                240160118
            ],
            "talkShowType": "TALK_SHOW_FORCE_SELECT",
            "talkRole": {
                "type": "TALK_ROLE_PLAYER",
                "id": ""
            },
            "talkContentTextMapHash": 3655502562,
            "talkAssetPath": "",
            "talkAssetPathAlter": "",
            "talkAudioName": "",
            "actionBefore": "",
            "actionWhile": "",
            "actionAfter": "",
            "optionIcon": ""
        }
    ]
}