{
    "talkId": 2402211,
    "dialogList": [
        {
            "id": 240221101,
            "nextDialogs": [
                240221102
            ],
            "talkShowType": "TALK_SHOW_FORCE_SELECT",
            "talkRole": {
                "type": "TALK_ROLE_PLAYER",
                "id": ""
            },
            "talkContentTextMapHash": 2514834346,
            "talkAssetPath": "",
            "talkAssetPathAlter": "",
            "talkAudioName": "",
            "actionBefore": "",
            "actionWhile": "",
            "actionAfter": "",
            "optionIcon": ""
        },
        {
            "id": 240221102,
            "nextDialogs": [
                240221103
            ],
            "talkRole": {
                "type": "TALK_ROLE_NPC",
                "id": "5209"
            },
            "talkContentTextMapHash": 3735993738,
            "talkAssetPath": "",
            "talkAssetPathAlter": "",
            "talkAudioName": "",
            "actionBefore": "",
            "actionWhile": "",
            "actionAfter": "",
            "optionIcon": ""
        },
        {
            "id": 240221103,
            "nextDialogs": [
                240221104
            ],
            "talkRole": {
                "type": "TALK_ROLE_NPC",
                "id": "5209"
            },
            "talkContentTextMapHash": 3846779762,
            "talkAssetPath": "",
            "talkAssetPathAlter": "",
            "talkAudioName": "",
            "actionBefore": "",
            "actionWhile": "",
            "actionAfter": "",
            "optionIcon": ""
        },
        {
            "id": 240221104,
            "talkRole": {
                "type": "TALK_ROLE_NPC",
                "id": "5209"
            },
            "talkContentTextMapHash": 940614850,
            "talkAssetPath": "",
            "talkAssetPathAlter": "",
            "talkAudioName": "",
            "actionBefore": "",
            "actionWhile": "",
            "actionAfter": "",
            "optionIcon": ""
        }
    ]
}