{
    "talkId": 400256,
    "dialogList": [
        {
            "id": 40025601,
            "talkRole": {
                "type": "TALK_ROLE_NPC",
                "id": "13412"
            },
            "talkContentTextMapHash": 745511730,
            "talkAssetPath": "",
            "talkAssetPathAlter": "",
            "talkAudioName": "",
            "actionBefore": "",
            "actionWhile": "",
            "actionAfter": "",
            "optionIcon": ""
        }
    ]
}