{
    "talkId": 400605,
    "dialogList": [
        {
            "id": 40060501,
            "nextDialogs": [
                40060502
            ],
            "talkRole": {
                "type": "TALK_ROLE_NPC",
                "id": "1005"
            },
            "talkContentTextMapHash": 4264666130,
            "talkAssetPath": "",
            "talkAssetPathAlter": "",
            "talkAudioName": "",
            "actionBefore": "",
            "actionWhile": "",
            "actionAfter": "",
            "optionIcon": ""
        },
        {
            "id": 40060502,
            "nextDialogs": [
                40060503
            ],
            "talkRole": {
                "type": "TALK_ROLE_NPC",
                "id": "13370"
            },
            "talkContentTextMapHash": 1504937026,
            "talkAssetPath": "",
            "talkAssetPathAlter": "",
            "talkAudioName": "",
            "actionBefore": "",
            "actionWhile": "",
            "actionAfter": "",
            "optionIcon": ""
        },
        {
            "id": 40060503,
            "nextDialogs": [
                40060504,
                40060505
            ],
            "talkRole": {
                "type": "TALK_ROLE_NPC",
                "id": "13370"
            },
            "talkContentTextMapHash": 2859648842,
            "talkAssetPath": "",
            "talkAssetPathAlter": "",
            "talkAudioName": "",
            "actionBefore": "",
            "actionWhile": "",
            "actionAfter": "",
            "optionIcon": ""
        },
        {
            "id": 40060504,
            "nextDialogs": [
                40060506
            ],
            "talkRole": {
                "type": "TALK_ROLE_PLAYER",
                "id": ""
            },
            "talkContentTextMapHash": 3564928138,
            "talkAssetPath": "",
            "talkAssetPathAlter": "",
            "talkAudioName": "",
            "actionBefore": "",
            "actionWhile": "",
            "actionAfter": "",
            "optionIcon": ""
        },
        {
            "id": 40060506,
            "nextDialogs": [
                40060507
            ],
            "talkRole": {
                "type": "TALK_ROLE_NPC",
                "id": "13370"
            },
            "talkContentTextMapHash": 914664034,
            "talkAssetPath": "",
            "talkAssetPathAlter": "",
            "talkAudioName": "",
            "actionBefore": "",
            "actionWhile": "",
            "actionAfter": "",
            "optionIcon": ""
        },
        {
            "id": 40060507,
            "nextDialogs": [
                40060508
            ],
            "talkRole": {
                "type": "TALK_ROLE_NPC",
                "id": "13370"
            },
            "talkContentTextMapHash": 4077648674,
            "talkAssetPath": "",
            "talkAssetPathAlter": "",
            "talkAudioName": "",
            "actionBefore": "",
            "actionWhile": "",
            "actionAfter": "",
            "optionIcon": ""
        },
        {
            "id": 40060508,
            "nextDialogs": [
                40060509
            ],
            "talkRole": {
                "type": "TALK_ROLE_NPC",
                "id": "13370"
            },
            "talkContentTextMapHash": 1946836922,
            "talkAssetPath": "",
            "talkAssetPathAlter": "",
            "talkAudioName": "",
            "actionBefore": "",
            "actionWhile": "",
            "actionAfter": "",
            "optionIcon": ""
        },
        {
            "id": 40060509,
            "nextDialogs": [
                40060510
            ],
            "talkRole": {
                "type": "TALK_ROLE_NPC",
                "id": "13370"
            },
            "talkContentTextMapHash": 3775465914,
            "talkAssetPath": "",
            "talkAssetPathAlter": "",
            "talkAudioName": "",
            "actionBefore": "",
            "actionWhile": "",
            "actionAfter": "",
            "optionIcon": ""
        },
        {
            "id": 40060510,
            "nextDialogs": [
                40060511
            ],
            "talkRole": {
                "type": "TALK_ROLE_NPC",
                "id": "13370"
            },
            "talkContentTextMapHash": 3970497610,
            "talkAssetPath": "",
            "talkAssetPathAlter": "",
            "talkAudioName": "",
            "actionBefore": "",
            "actionWhile": "",
            "actionAfter": "",
            "optionIcon": ""
        },
        {
            "id": 40060511,
            "nextDialogs": [
                40060512
            ],
            "talkRole": {
                "type": "TALK_ROLE_NPC",
                "id": "1005"
            },
            "talkContentTextMapHash": 3601878378,
            "talkAssetPath": "",
            "talkAssetPathAlter": "",
            "talkAudioName": "",
            "actionBefore": "",
            "actionWhile": "",
            "actionAfter": "",
            "optionIcon": ""
        },
        {
            "id": 40060512,
            "nextDialogs": [
                40060513
            ],
            "talkRole": {
                "type": "TALK_ROLE_NPC",
                "id": "13370"
            },
            "talkContentTextMapHash": 3552746618,
            "talkAssetPath": "",
            "talkAssetPathAlter": "",
            "talkAudioName": "",
            "actionBefore": "",
            "actionWhile": "",
            "actionAfter": "",
            "optionIcon": ""
        },
        {
            "id": 40060513,
            "nextDialogs": [
                40060514
            ],
            "talkRole": {
                "type": "TALK_ROLE_NPC",
                "id": "1005"
            },
            "talkContentTextMapHash": 1942540058,
            "talkAssetPath": "",
            "talkAssetPathAlter": "",
            "talkAudioName": "",
            "actionBefore": "",
            "actionWhile": "",
            "actionAfter": "",
            "optionIcon": ""
        },
        {
            "id": 40060514,
            "nextDialogs": [
                40060515
            ],
            "talkShowType": "TALK_SHOW_FORCE_SELECT",
            "talkRole": {
                "type": "TALK_ROLE_PLAYER",
                "id": ""
            },
            "talkContentTextMapHash": 1129624570,
            "talkAssetPath": "",
            "talkAssetPathAlter": "",
            "talkAudioName": "",
            "actionBefore": "",
            "actionWhile": "",
            "actionAfter": "",
            "optionIcon": ""
        },
        {
            "id": 40060515,
            "nextDialogs": [
                40060516
            ],
            "talkRole": {
                "type": "TALK_ROLE_NPC",
                "id": "13370"
            },
            "talkContentTextMapHash": 1628498794,
            "talkAssetPath": "",
            "talkAssetPathAlter": "",
            "talkAudioName": "",
            "actionBefore": "",
            "actionWhile": "",
            "actionAfter": "",
            "optionIcon": ""
        },
        {
            "id": 40060516,
            "talkRole": {
                "type": "TALK_ROLE_NPC",
                "id": "13370"
            },
            "talkContentTextMapHash": 1411150978,
            "talkAssetPath": "",
            "talkAssetPathAlter": "",
            "talkAudioName": "",
            "actionBefore": "",
            "actionWhile": "",
            "actionAfter": "",
            "optionIcon": ""
        },
        {
            "id": 40060505,
            "nextDialogs": [
                40060506
            ],
            "talkRole": {
                "type": "TALK_ROLE_PLAYER",
                "id": ""
            },
            "talkContentTextMapHash": 2333497634,
            "talkAssetPath": "",
            "talkAssetPathAlter": "",
            "talkAudioName": "",
            "actionBefore": "",
            "actionWhile": "",
            "actionAfter": "",
            "optionIcon": ""
        }
    ]
}