{
    "talkId": 400734,
    "dialogList": [
        {
            "id": 40073401,
            "nextDialogs": [
                40073402
            ],
            "talkRole": {
                "type": "TALK_ROLE_NPC",
                "id": "13530"
            },
            "talkContentTextMapHash": 4081191626,
            "talkAssetPath": "",
            "talkAssetPathAlter": "",
            "talkAudioName": "",
            "actionBefore": "",
            "actionWhile": "",
            "actionAfter": "",
            "optionIcon": ""
        },
        {
            "id": 40073402,
            "nextDialogs": [
                40073403
            ],
            "talkRole": {
                "type": "TALK_ROLE_NPC",
                "id": "13531"
            },
            "talkContentTextMapHash": 3455443378,
            "talkAssetPath": "",
            "talkAssetPathAlter": "",
            "talkAudioName": "",
            "actionBefore": "",
            "actionWhile": "",
            "actionAfter": "",
            "optionIcon": ""
        },
        {
            "id": 40073403,
            "talkRole": {
                "type": "TALK_ROLE_NPC",
                "id": "13530"
            },
            "talkContentTextMapHash": 332778818,
            "talkAssetPath": "",
            "talkAssetPathAlter": "",
            "talkAudioName": "",
            "actionBefore": "",
            "actionWhile": "",
            "actionAfter": "",
            "optionIcon": ""
        }
    ]
}