{
    "talkId": 400821,
    "dialogList": [
        {
            "id": 40082101,
            "talkRole": {
                "type": "TALK_ROLE_NPC",
                "id": "1071"
            },
            "talkContentTextMapHash": 383512418,
            "talkAssetPath": "",
            "talkAssetPathAlter": "",
            "talkAudioName": "",
            "actionBefore": "",
            "actionWhile": "",
            "actionAfter": "",
            "optionIcon": ""
        }
    ]
}