{
    "talkId": 4012412,
    "dialogList": [
        {
            "id": 401241201,
            "nextDialogs": [
                401241202
            ],
            "talkRole": {
                "type": "TALK_ROLE_BLACK_SCREEN",
                "id": ""
            },
            "talkContentTextMapHash": 1385147730,
            "talkAssetPath": "",
            "talkAssetPathAlter": "",
            "talkAudioName": "",
            "actionBefore": "",
            "actionWhile": "",
            "actionAfter": "",
            "optionIcon": ""
        },
        {
            "id": 401241202,
            "nextDialogs": [
                401241203
            ],
            "talkRole": {
                "type": "TALK_ROLE_NPC",
                "id": "1005"
            },
            "talkContentTextMapHash": 3837920034,
            "talkAssetPath": "",
            "talkAssetPathAlter": "",
            "talkAudioName": "",
            "actionBefore": "",
            "actionWhile": "",
            "actionAfter": "",
            "optionIcon": ""
        },
        {
            "id": 401241203,
            "nextDialogs": [
                401241204
            ],
            "talkRole": {
                "type": "TALK_ROLE_NPC",
                "id": "1027"
            },
            "talkContentTextMapHash": 105327594,
            "talkAssetPath": "",
            "talkAssetPathAlter": "",
            "talkAudioName": "",
            "actionBefore": "",
            "actionWhile": "",
            "actionAfter": "",
            "optionIcon": ""
        },
        {
            "id": 401241204,
            "nextDialogs": [
                401241205
            ],
            "talkRole": {
                "type": "TALK_ROLE_NPC",
                "id": "1005"
            },
            "talkContentTextMapHash": 1933987890,
            "talkAssetPath": "",
            "talkAssetPathAlter": "",
            "talkAudioName": "",
            "actionBefore": "",
            "actionWhile": "",
            "actionAfter": "",
            "optionIcon": ""
        },
        {
            "id": 401241205,
            "nextDialogs": [
                401241206
            ],
            "talkRole": {
                "type": "TALK_ROLE_NPC",
                "id": "1005"
            },
            "talkContentTextMapHash": 3537714402,
            "talkAssetPath": "",
            "talkAssetPathAlter": "",
            "talkAudioName": "",
            "actionBefore": "",
            "actionWhile": "",
            "actionAfter": "",
            "optionIcon": ""
        },
        {
            "id": 401241206,
            "nextDialogs": [
                401241207
            ],
            "talkRole": {
                "type": "TALK_ROLE_NPC",
                "id": "13431"
            },
            "talkContentTextMapHash": 1149105978,
            "talkAssetPath": "",
            "talkAssetPathAlter": "",
            "talkAudioName": "",
            "actionBefore": "",
            "actionWhile": "",
            "actionAfter": "",
            "optionIcon": ""
        },
        {
            "id": 401241207,
            "nextDialogs": [
                401241208
            ],
            "talkShowType": "TALK_SHOW_FORCE_SELECT",
            "talkRole": {
                "type": "TALK_ROLE_PLAYER",
                "id": ""
            },
            "talkContentTextMapHash": 3469318074,
            "talkAssetPath": "",
            "talkAssetPathAlter": "",
            "talkAudioName": "",
            "actionBefore": "",
            "actionWhile": "",
            "actionAfter": "",
            "optionIcon": ""
        },
        {
            "id": 401241208,
            "nextDialogs": [
                401241209
            ],
            "talkRole": {
                "type": "TALK_ROLE_NPC",
                "id": "10045"
            },
            "talkContentTextMapHash": 1871367362,
            "talkAssetPath": "",
            "talkAssetPathAlter": "",
            "talkAudioName": "",
            "actionBefore": "",
            "actionWhile": "",
            "actionAfter": "",
            "optionIcon": ""
        },
        {
            "id": 401241209,
            "nextDialogs": [
                401241210
            ],
            "talkRole": {
                "type": "TALK_ROLE_NPC",
                "id": "13431"
            },
            "talkContentTextMapHash": 1258495690,
            "talkAssetPath": "",
            "talkAssetPathAlter": "",
            "talkAudioName": "",
            "actionBefore": "",
            "actionWhile": "",
            "actionAfter": "",
            "optionIcon": ""
        },
        {
            "id": 401241210,
            "nextDialogs": [
                401241211
            ],
            "talkRole": {
                "type": "TALK_ROLE_NPC",
                "id": "13431"
            },
            "talkContentTextMapHash": 795887154,
            "talkAssetPath": "",
            "talkAssetPathAlter": "",
            "talkAudioName": "",
            "actionBefore": "",
            "actionWhile": "",
            "actionAfter": "",
            "optionIcon": ""
        },
        {
            "id": 401241211,
            "nextDialogs": [
                401241212,
                401241213
            ],
            "talkRole": {
                "type": "TALK_ROLE_NPC",
                "id": "13431"
            },
            "talkContentTextMapHash": 1467193186,
            "talkAssetPath": "",
            "talkAssetPathAlter": "",
            "talkAudioName": "",
            "actionBefore": "",
            "actionWhile": "",
            "actionAfter": "",
            "optionIcon": ""
        },
        {
            "id": 401241212,
            "nextDialogs": [
                401241214
            ],
            "talkRole": {
                "type": "TALK_ROLE_PLAYER",
                "id": ""
            },
            "talkContentTextMapHash": 2525554034,
            "talkAssetPath": "",
            "talkAssetPathAlter": "",
            "talkAudioName": "",
            "actionBefore": "",
            "actionWhile": "",
            "actionAfter": "",
            "optionIcon": ""
        },
        {
            "id": 401241214,
            "nextDialogs": [
                401241215
            ],
            "talkRole": {
                "type": "TALK_ROLE_NPC",
                "id": "1023"
            },
            "talkContentTextMapHash": 3957660274,
            "talkAssetPath": "",
            "talkAssetPathAlter": "",
            "talkAudioName": "",
            "actionBefore": "",
            "actionWhile": "",
            "actionAfter": "",
            "optionIcon": ""
        },
        {
            "id": 401241215,
            "nextDialogs": [
                401241216
            ],
            "talkRole": {
                "type": "TALK_ROLE_NPC",
                "id": "1061"
            },
            "talkContentTextMapHash": 4263720738,
            "talkAssetPath": "",
            "talkAssetPathAlter": "",
            "talkAudioName": "",
            "actionBefore": "",
            "actionWhile": "",
            "actionAfter": "",
            "optionIcon": ""
        },
        {
            "id": 401241216,
            "nextDialogs": [
                401241217
            ],
            "talkRole": {
                "type": "TALK_ROLE_NPC",
                "id": "1027"
            },
            "talkContentTextMapHash": 2630331154,
            "talkAssetPath": "",
            "talkAssetPathAlter": "",
            "talkAudioName": "",
            "actionBefore": "",
            "actionWhile": "",
            "actionAfter": "",
            "optionIcon": ""
        },
        {
            "id": 401241217,
            "nextDialogs": [
                401241218
            ],
            "talkRole": {
                "type": "TALK_ROLE_NPC",
                "id": "1027"
            },
            "talkContentTextMapHash": 1005196698,
            "talkAssetPath": "",
            "talkAssetPathAlter": "",
            "talkAudioName": "",
            "actionBefore": "",
            "actionWhile": "",
            "actionAfter": "",
            "optionIcon": ""
        },
        {
            "id": 401241218,
            "nextDialogs": [
                401241219
            ],
            "talkRole": {
                "type": "TALK_ROLE_NPC",
                "id": "1027"
            },
            "talkContentTextMapHash": 1494032602,
            "talkAssetPath": "",
            "talkAssetPathAlter": "",
            "talkAudioName": "",
            "actionBefore": "",
            "actionWhile": "",
            "actionAfter": "",
            "optionIcon": ""
        },
        {
            "id": 401241219,
            "nextDialogs": [
                401241220
            ],
            "talkRole": {
                "type": "TALK_ROLE_NPC",
                "id": "1027"
            },
            "talkContentTextMapHash": 2752546810,
            "talkAssetPath": "",
            "talkAssetPathAlter": "",
            "talkAudioName": "",
            "actionBefore": "",
            "actionWhile": "",
            "actionAfter": "",
            "optionIcon": ""
        },
        {
            "id": 401241220,
            "nextDialogs": [
                401241221
            ],
            "talkRole": {
                "type": "TALK_ROLE_NPC",
                "id": "1061"
            },
            "talkContentTextMapHash": 328117458,
            "talkAssetPath": "",
            "talkAssetPathAlter": "",
            "talkAudioName": "",
            "actionBefore": "",
            "actionWhile": "",
            "actionAfter": "",
            "optionIcon": ""
        },
        {
            "id": 401241221,
            "nextDialogs": [
                401241222
            ],
            "talkRole": {
                "type": "TALK_ROLE_NPC",
                "id": "1027"
            },
            "talkContentTextMapHash": 2245792866,
            "talkAssetPath": "",
            "talkAssetPathAlter": "",
            "talkAudioName": "",
            "actionBefore": "",
            "actionWhile": "",
            "actionAfter": "",
            "optionIcon": ""
        },
        {
            "id": 401241222,
            "nextDialogs": [
                401241223
            ],
            "talkRole": {
                "type": "TALK_ROLE_NPC",
                "id": "1023"
            },
            "talkContentTextMapHash": 4227407474,
            "talkAssetPath": "",
            "talkAssetPathAlter": "",
            "talkAudioName": "",
            "actionBefore": "",
            "actionWhile": "",
            "actionAfter": "",
            "optionIcon": ""
        },
        {
            "id": 401241223,
            "nextDialogs": [
                401241224
            ],
            "talkRole": {
                "type": "TALK_ROLE_NPC",
                "id": "13431"
            },
            "talkContentTextMapHash": 2188384938,
            "talkAssetPath": "",
            "talkAssetPathAlter": "",
            "talkAudioName": "",
            "actionBefore": "",
            "actionWhile": "",
            "actionAfter": "",
            "optionIcon": ""
        },
        {
            "id": 401241224,
            "nextDialogs": [
                401241225
            ],
            "talkRole": {
                "type": "TALK_ROLE_NPC",
                "id": "10045"
            },
            "talkContentTextMapHash": 2063913450,
            "talkAssetPath": "",
            "talkAssetPathAlter": "",
            "talkAudioName": "",
            "actionBefore": "",
            "actionWhile": "",
            "actionAfter": "",
            "optionIcon": ""
        },
        {
            "id": 401241225,
            "nextDialogs": [
                401241226
            ],
            "talkRole": {
                "type": "TALK_ROLE_NPC",
                "id": "13431"
            },
            "talkContentTextMapHash": 540574458,
            "talkAssetPath": "",
            "talkAssetPathAlter": "",
            "talkAudioName": "",
            "actionBefore": "",
            "actionWhile": "",
            "actionAfter": "",
            "optionIcon": ""
        },
        {
            "id": 401241226,
            "nextDialogs": [
                401241227
            ],
            "talkRole": {
                "type": "TALK_ROLE_NPC",
                "id": "1005"
            },
            "talkContentTextMapHash": 112470082,
            "talkAssetPath": "",
            "talkAssetPathAlter": "",
            "talkAudioName": "",
            "actionBefore": "",
            "actionWhile": "",
            "actionAfter": "",
            "optionIcon": ""
        },
        {
            "id": 401241227,
            "nextDialogs": [
                401241228
            ],
            "talkRole": {
                "type": "TALK_ROLE_NPC",
                "id": "1060"
            },
            "talkContentTextMapHash": 2950727250,
            "talkAssetPath": "",
            "talkAssetPathAlter": "",
            "talkAudioName": "",
            "actionBefore": "",
            "actionWhile": "",
            "actionAfter": "",
            "optionIcon": ""
        },
        {
            "id": 401241228,
            "nextDialogs": [
                401241229
            ],
            "talkRole": {
                "type": "TALK_ROLE_NPC",
                "id": "1060"
            },
            "talkContentTextMapHash": 1359507338,
            "talkAssetPath": "",
            "talkAssetPathAlter": "",
            "talkAudioName": "",
            "actionBefore": "",
            "actionWhile": "",
            "actionAfter": "",
            "optionIcon": ""
        },
        {
            "id": 401241229,
            "nextDialogs": [
                401241230
            ],
            "talkRole": {
                "type": "TALK_ROLE_NPC",
                "id": "1005"
            },
            "talkContentTextMapHash": 2724443530,
            "talkAssetPath": "",
            "talkAssetPathAlter": "",
            "talkAudioName": "",
            "actionBefore": "",
            "actionWhile": "",
            "actionAfter": "",
            "optionIcon": ""
        },
        {
            "id": 401241230,
            "nextDialogs": [
                401241231
            ],
            "talkRole": {
                "type": "TALK_ROLE_NPC",
                "id": "13431"
            },
            "talkContentTextMapHash": 57504618,
            "talkAssetPath": "",
            "talkAssetPathAlter": "",
            "talkAudioName": "",
            "actionBefore": "",
            "actionWhile": "",
            "actionAfter": "",
            "optionIcon": ""
        },
        {
            "id": 401241231,
            "nextDialogs": [
                401241232
            ],
            "talkRole": {
                "type": "TALK_ROLE_NPC",
                "id": "1001"
            },
            "talkContentTextMapHash": 2195435586,
            "talkAssetPath": "",
            "talkAssetPathAlter": "",
            "talkAudioName": "",
            "actionBefore": "",
            "actionWhile": "",
            "actionAfter": "",
            "optionIcon": ""
        },
        {
            "id": 401241232,
            "nextDialogs": [
                401241233
            ],
            "talkRole": {
                "type": "TALK_ROLE_NPC",
                "id": "1005"
            },
            "talkContentTextMapHash": 3189413354,
            "talkAssetPath": "",
            "talkAssetPathAlter": "",
            "talkAudioName": "",
            "actionBefore": "",
            "actionWhile": "",
            "actionAfter": "",
            "optionIcon": ""
        },
        {
            "id": 401241233,
            "nextDialogs": [
                401241234
            ],
            "talkRole": {
                "type": "TALK_ROLE_NPC",
                "id": "1001"
            },
            "talkContentTextMapHash": 1380154298,
            "talkAssetPath": "",
            "talkAssetPathAlter": "",
            "talkAudioName": "",
            "actionBefore": "",
            "actionWhile": "",
            "actionAfter": "",
            "optionIcon": ""
        },
        {
            "id": 401241234,
            "nextDialogs": [
                401241235
            ],
            "talkRole": {
                "type": "TALK_ROLE_NPC",
                "id": "1001"
            },
            "talkContentTextMapHash": 3878481282,
            "talkAssetPath": "",
            "talkAssetPathAlter": "",
            "talkAudioName": "",
            "actionBefore": "",
            "actionWhile": "",
            "actionAfter": "",
            "optionIcon": ""
        },
        {
            "id": 401241235,
            "nextDialogs": [
                401241236
            ],
            "talkRole": {
                "type": "TALK_ROLE_NPC",
                "id": "1060"
            },
            "talkContentTextMapHash": 1206592138,
            "talkAssetPath": "",
            "talkAssetPathAlter": "",
            "talkAudioName": "",
            "actionBefore": "",
            "actionWhile": "",
            "actionAfter": "",
            "optionIcon": ""
        },
        {
            "id": 401241236,
            "nextDialogs": [
                401241237
            ],
            "talkRole": {
                "type": "TALK_ROLE_NPC",
                "id": "1001"
            },
            "talkContentTextMapHash": 1649671858,
            "talkAssetPath": "",
            "talkAssetPathAlter": "",
            "talkAudioName": "",
            "actionBefore": "",
            "actionWhile": "",
            "actionAfter": "",
            "optionIcon": ""
        },
        {
            "id": 401241237,
            "nextDialogs": [
                401241238
            ],
            "talkRole": {
                "type": "TALK_ROLE_NPC",
                "id": "1027"
            },
            "talkContentTextMapHash": 3305637538,
            "talkAssetPath": "",
            "talkAssetPathAlter": "",
            "talkAudioName": "",
            "actionBefore": "",
            "actionWhile": "",
            "actionAfter": "",
            "optionIcon": ""
        },
        {
            "id": 401241238,
            "nextDialogs": [
                401241239
            ],
            "talkRole": {
                "type": "TALK_ROLE_NPC",
                "id": "1060"
            },
            "talkContentTextMapHash": 271431530,
            "talkAssetPath": "",
            "talkAssetPathAlter": "",
            "talkAudioName": "",
            "actionBefore": "",
            "actionWhile": "",
            "actionAfter": "",
            "optionIcon": ""
        },
        {
            "id": 401241239,
            "nextDialogs": [
                401241240
            ],
            "talkRole": {
                "type": "TALK_ROLE_NPC",
                "id": "1005"
            },
            "talkContentTextMapHash": 1508680050,
            "talkAssetPath": "",
            "talkAssetPathAlter": "",
            "talkAudioName": "",
            "actionBefore": "",
            "actionWhile": "",
            "actionAfter": "",
            "optionIcon": ""
        },
        {
            "id": 401241240,
            "nextDialogs": [
                401241241
            ],
            "talkRole": {
                "type": "TALK_ROLE_NPC",
                "id": "1001"
            },
            "talkContentTextMapHash": 2141043690,
            "talkAssetPath": "",
            "talkAssetPathAlter": "",
            "talkAudioName": "",
            "actionBefore": "",
            "actionWhile": "",
            "actionAfter": "",
            "optionIcon": ""
        },
        {
            "id": 401241241,
            "nextDialogs": [
                401241242
            ],
            "talkRole": {
                "type": "TALK_ROLE_NPC",
                "id": "1001"
            },
            "talkContentTextMapHash": 1921817434,
            "talkAssetPath": "",
            "talkAssetPathAlter": "",
            "talkAudioName": "",
            "actionBefore": "",
            "actionWhile": "",
            "actionAfter": "",
            "optionIcon": ""
        },
        {
            "id": 401241242,
            "nextDialogs": [
                401241243
            ],
            "talkRole": {
                "type": "TALK_ROLE_NPC",
                "id": "1005"
            },
            "talkContentTextMapHash": 1681347570,
            "talkAssetPath": "",
            "talkAssetPathAlter": "",
            "talkAudioName": "",
            "actionBefore": "",
            "actionWhile": "",
            "actionAfter": "",
            "optionIcon": ""
        },
        {
            "id": 401241243,
            "nextDialogs": [
                401241244
            ],
            "talkRole": {
                "type": "TALK_ROLE_NPC",
                "id": "1005"
            },
            "talkContentTextMapHash": 2382602546,
            "talkAssetPath": "",
            "talkAssetPathAlter": "",
            "talkAudioName": "",
            "actionBefore": "",
            "actionWhile": "",
            "actionAfter": "",
            "optionIcon": ""
        },
        {
            "id": 401241244,
            "nextDialogs": [
                401241245
            ],
            "talkRole": {
                "type": "TALK_ROLE_NPC",
                "id": "13431"
            },
            "talkContentTextMapHash": 3995550810,
            "talkAssetPath": "",
            "talkAssetPathAlter": "",
            "talkAudioName": "",
            "actionBefore": "",
            "actionWhile": "",
            "actionAfter": "",
            "optionIcon": ""
        },
        {
            "id": 401241245,
            "nextDialogs": [
                401241246
            ],
            "talkRole": {
                "type": "TALK_ROLE_NPC",
                "id": "1001"
            },
            "talkContentTextMapHash": 3336699170,
            "talkAssetPath": "",
            "talkAssetPathAlter": "",
            "talkAudioName": "",
            "actionBefore": "",
            "actionWhile": "",
            "actionAfter": "",
            "optionIcon": ""
        },
        {
            "id": 401241246,
            "talkRole": {
                "type": "TALK_ROLE_BLACK_SCREEN",
                "id": ""
            },
            "talkContentTextMapHash": 1347286858,
            "talkAssetPath": "",
            "talkAssetPathAlter": "",
            "talkAudioName": "",
            "actionBefore": "",
            "actionWhile": "",
            "actionAfter": "",
            "optionIcon": ""
        },
        {
            "id": 401241213,
            "nextDialogs": [
                401241214
            ],
            "talkRole": {
                "type": "TALK_ROLE_PLAYER",
                "id": ""
            },
            "talkContentTextMapHash": 2923276114,
            "talkAssetPath": "",
            "talkAssetPathAlter": "",
            "talkAudioName": "",
            "actionBefore": "",
            "actionWhile": "",
            "actionAfter": "",
            "optionIcon": ""
        }
    ]
}