{
    "talkId": 4012411,
    "dialogList": [
        {
            "id": 401241101,
            "nextDialogs": [
                401241102
            ],
            "talkRole": {
                "type": "TALK_ROLE_NPC",
                "id": "1001"
            },
            "talkContentTextMapHash": 4099688954,
            "talkAssetPath": "",
            "talkAssetPathAlter": "",
            "talkAudioName": "",
            "actionBefore": "",
            "actionWhile": "",
            "actionAfter": "",
            "optionIcon": ""
        },
        {
            "id": 401241102,
            "nextDialogs": [
                401241103
            ],
            "talkRole": {
                "type": "TALK_ROLE_NPC",
                "id": "10045"
            },
            "talkContentTextMapHash": 2527757202,
            "talkAssetPath": "",
            "talkAssetPathAlter": "",
            "talkAudioName": "",
            "actionBefore": "",
            "actionWhile": "",
            "actionAfter": "",
            "optionIcon": ""
        },
        {
            "id": 401241103,
            "nextDialogs": [
                401241104
            ],
            "talkRole": {
                "type": "TALK_ROLE_NPC",
                "id": "1005"
            },
            "talkContentTextMapHash": 2685300522,
            "talkAssetPath": "",
            "talkAssetPathAlter": "",
            "talkAudioName": "",
            "actionBefore": "",
            "actionWhile": "",
            "actionAfter": "",
            "optionIcon": ""
        },
        {
            "id": 401241104,
            "nextDialogs": [
                401241105
            ],
            "talkRole": {
                "type": "TALK_ROLE_NPC",
                "id": "1023"
            },
            "talkContentTextMapHash": 2192852546,
            "talkAssetPath": "",
            "talkAssetPathAlter": "",
            "talkAudioName": "",
            "actionBefore": "",
            "actionWhile": "",
            "actionAfter": "",
            "optionIcon": ""
        },
        {
            "id": 401241105,
            "nextDialogs": [
                401241106
            ],
            "talkRole": {
                "type": "TALK_ROLE_NPC",
                "id": "10045"
            },
            "talkContentTextMapHash": 879577930,
            "talkAssetPath": "",
            "talkAssetPathAlter": "",
            "talkAudioName": "",
            "actionBefore": "",
            "actionWhile": "",
            "actionAfter": "",
            "optionIcon": ""
        },
        {
            "id": 401241106,
            "nextDialogs": [
                401241107
            ],
            "talkRole": {
                "type": "TALK_ROLE_NPC",
                "id": "1001"
            },
            "talkContentTextMapHash": 343268978,
            "talkAssetPath": "",
            "talkAssetPathAlter": "",
            "talkAudioName": "",
            "actionBefore": "",
            "actionWhile": "",
            "actionAfter": "",
            "optionIcon": ""
        },
        {
            "id": 401241107,
            "nextDialogs": [
                401241108
            ],
            "talkRole": {
                "type": "TALK_ROLE_NPC",
                "id": "1005"
            },
            "talkContentTextMapHash": 3562430034,
            "talkAssetPath": "",
            "talkAssetPathAlter": "",
            "talkAudioName": "",
            "actionBefore": "",
            "actionWhile": "",
            "actionAfter": "",
            "optionIcon": ""
        },
        {
            "id": 401241108,
            "nextDialogs": [
                401241109
            ],
            "talkShowType": "TALK_SHOW_FORCE_SELECT",
            "talkRole": {
                "type": "TALK_ROLE_PLAYER",
                "id": ""
            },
            "talkContentTextMapHash": 3853666226,
            "talkAssetPath": "",
            "talkAssetPathAlter": "",
            "talkAudioName": "",
            "actionBefore": "",
            "actionWhile": "",
            "actionAfter": "",
            "optionIcon": ""
        },
        {
            "id": 401241109,
            "nextDialogs": [
                401241110
            ],
            "talkRole": {
                "type": "TALK_ROLE_NPC",
                "id": "1005"
            },
            "talkContentTextMapHash": 3904598130,
            "talkAssetPath": "",
            "talkAssetPathAlter": "",
            "talkAudioName": "",
            "actionBefore": "",
            "actionWhile": "",
            "actionAfter": "",
            "optionIcon": ""
        },
        {
            "id": 401241110,
            "nextDialogs": [
                401241111
            ],
            "talkRole": {
                "type": "TALK_ROLE_NPC",
                "id": "1005"
            },
            "talkContentTextMapHash": 1011191202,
            "talkAssetPath": "",
            "talkAssetPathAlter": "",
            "talkAudioName": "",
            "actionBefore": "",
            "actionWhile": "",
            "actionAfter": "",
            "optionIcon": ""
        },
        {
            "id": 401241111,
            "nextDialogs": [
                401241112
            ],
            "talkRole": {
                "type": "TALK_ROLE_NPC",
                "id": "1061"
            },
            "talkContentTextMapHash": 3781389386,
            "talkAssetPath": "",
            "talkAssetPathAlter": "",
            "talkAudioName": "",
            "actionBefore": "",
            "actionWhile": "",
            "actionAfter": "",
            "optionIcon": ""
        },
        {
            "id": 401241112,
            "nextDialogs": [
                401241113
            ],
            "talkRole": {
                "type": "TALK_ROLE_NPC",
                "id": "1005"
            },
            "talkContentTextMapHash": 4180227514,
            "talkAssetPath": "",
            "talkAssetPathAlter": "",
            "talkAudioName": "",
            "actionBefore": "",
            "actionWhile": "",
            "actionAfter": "",
            "optionIcon": ""
        },
        {
            "id": 401241113,
            "nextDialogs": [
                401241114
            ],
            "talkRole": {
                "type": "TALK_ROLE_NPC",
                "id": "10045"
            },
            "talkContentTextMapHash": 4124403626,
            "talkAssetPath": "",
            "talkAssetPathAlter": "",
            "talkAudioName": "",
            "actionBefore": "",
            "actionWhile": "",
            "actionAfter": "",
            "optionIcon": ""
        },
        {
            "id": 401241114,
            "nextDialogs": [
                401241115
            ],
            "talkRole": {
                "type": "TALK_ROLE_NPC",
                "id": "13431"
            },
            "talkContentTextMapHash": 2481342010,
            "talkAssetPath": "",
            "talkAssetPathAlter": "",
            "talkAudioName": "",
            "actionBefore": "",
            "actionWhile": "",
            "actionAfter": "",
            "optionIcon": ""
        },
        {
            "id": 401241115,
            "nextDialogs": [
                401241116
            ],
            "talkRole": {
                "type": "TALK_ROLE_NPC",
                "id": "1005"
            },
            "talkContentTextMapHash": 62797730,
            "talkAssetPath": "",
            "talkAssetPathAlter": "",
            "talkAudioName": "",
            "actionBefore": "",
            "actionWhile": "",
            "actionAfter": "",
            "optionIcon": ""
        },
        {
            "id": 401241116,
            "nextDialogs": [
                401241117
            ],
            "talkRole": {
                "type": "TALK_ROLE_NPC",
                "id": "1005"
            },
            "talkContentTextMapHash": 1570800994,
            "talkAssetPath": "",
            "talkAssetPathAlter": "",
            "talkAudioName": "",
            "actionBefore": "",
            "actionWhile": "",
            "actionAfter": "",
            "optionIcon": ""
        },
        {
            "id": 401241117,
            "nextDialogs": [
                401241118
            ],
            "talkRole": {
                "type": "TALK_ROLE_NPC",
                "id": "1005"
            },
            "talkContentTextMapHash": 2590000602,
            "talkAssetPath": "",
            "talkAssetPathAlter": "",
            "talkAudioName": "",
            "actionBefore": "",
            "actionWhile": "",
            "actionAfter": "",
            "optionIcon": ""
        },
        {
            "id": 401241118,
            "nextDialogs": [
                401241119
            ],
            "talkRole": {
                "type": "TALK_ROLE_NPC",
                "id": "10204"
            },
            "talkContentTextMapHash": 431206922,
            "talkAssetPath": "",
            "talkAssetPathAlter": "",
            "talkAudioName": "",
            "actionBefore": "",
            "actionWhile": "",
            "actionAfter": "",
            "optionIcon": ""
        },
        {
            "id": 401241119,
            "nextDialogs": [
                401241120
            ],
            "talkRole": {
                "type": "TALK_ROLE_NPC",
                "id": "1001"
            },
            "talkContentTextMapHash": 123246714,
            "talkAssetPath": "",
            "talkAssetPathAlter": "",
            "talkAudioName": "",
            "actionBefore": "",
            "actionWhile": "",
            "actionAfter": "",
            "optionIcon": ""
        },
        {
            "id": 401241120,
            "nextDialogs": [
                401241121
            ],
            "talkRole": {
                "type": "TALK_ROLE_NPC",
                "id": "1021"
            },
            "talkContentTextMapHash": 16612402,
            "talkAssetPath": "",
            "talkAssetPathAlter": "",
            "talkAudioName": "",
            "actionBefore": "",
            "actionWhile": "",
            "actionAfter": "",
            "optionIcon": ""
        },
        {
            "id": 401241121,
            "nextDialogs": [
                401241122
            ],
            "talkRole": {
                "type": "TALK_ROLE_NPC",
                "id": "1005"
            },
            "talkContentTextMapHash": 2804392266,
            "talkAssetPath": "",
            "talkAssetPathAlter": "",
            "talkAudioName": "",
            "actionBefore": "",
            "actionWhile": "",
            "actionAfter": "",
            "optionIcon": ""
        },
        {
            "id": 401241122,
            "nextDialogs": [
                401241123
            ],
            "talkRole": {
                "type": "TALK_ROLE_NPC",
                "id": "1021"
            },
            "talkContentTextMapHash": 985039826,
            "talkAssetPath": "",
            "talkAssetPathAlter": "",
            "talkAudioName": "",
            "actionBefore": "",
            "actionWhile": "",
            "actionAfter": "",
            "optionIcon": ""
        },
        {
            "id": 401241123,
            "nextDialogs": [
                401241124
            ],
            "talkRole": {
                "type": "TALK_ROLE_NPC",
                "id": "10232"
            },
            "talkContentTextMapHash": 1380207522,
            "talkAssetPath": "",
            "talkAssetPathAlter": "",
            "talkAudioName": "",
            "actionBefore": "",
            "actionWhile": "",
            "actionAfter": "",
            "optionIcon": ""
        },
        {
            "id": 401241124,
            "nextDialogs": [
                401241125
            ],
            "talkRole": {
                "type": "TALK_ROLE_NPC",
                "id": "1001"
            },
            "talkContentTextMapHash": 780936626,
            "talkAssetPath": "",
            "talkAssetPathAlter": "",
            "talkAudioName": "",
            "actionBefore": "",
            "actionWhile": "",
            "actionAfter": "",
            "optionIcon": ""
        },
        {
            "id": 401241125,
            "nextDialogs": [
                401241126
            ],
            "talkRole": {
                "type": "TALK_ROLE_NPC",
                "id": "10045"
            },
            "talkContentTextMapHash": 3706792458,
            "talkAssetPath": "",
            "talkAssetPathAlter": "",
            "talkAudioName": "",
            "actionBefore": "",
            "actionWhile": "",
            "actionAfter": "",
            "optionIcon": ""
        },
        {
            "id": 401241126,
            "nextDialogs": [
                401241127
            ],
            "talkRole": {
                "type": "TALK_ROLE_NPC",
                "id": "1027"
            },
            "talkContentTextMapHash": 252508738,
            "talkAssetPath": "",
            "talkAssetPathAlter": "",
            "talkAudioName": "",
            "actionBefore": "",
            "actionWhile": "",
            "actionAfter": "",
            "optionIcon": ""
        },
        {
            "id": 401241127,
            "nextDialogs": [
                401241128
            ],
            "talkRole": {
                "type": "TALK_ROLE_NPC",
                "id": "10045"
            },
            "talkContentTextMapHash": 1653491138,
            "talkAssetPath": "",
            "talkAssetPathAlter": "",
            "talkAudioName": "",
            "actionBefore": "",
            "actionWhile": "",
            "actionAfter": "",
            "optionIcon": ""
        },
        {
            "id": 401241128,
            "nextDialogs": [
                401241129
            ],
            "talkRole": {
                "type": "TALK_ROLE_NPC",
                "id": "1021"
            },
            "talkContentTextMapHash": 2600974554,
            "talkAssetPath": "",
            "talkAssetPathAlter": "",
            "talkAudioName": "",
            "actionBefore": "",
            "actionWhile": "",
            "actionAfter": "",
            "optionIcon": ""
        },
        {
            "id": 401241129,
            "nextDialogs": [
                401241130
            ],
            "talkRole": {
                "type": "TALK_ROLE_NPC",
                "id": "1021"
            },
            "talkContentTextMapHash": 595046154,
            "talkAssetPath": "",
            "talkAssetPathAlter": "",
            "talkAudioName": "",
            "actionBefore": "",
            "actionWhile": "",
            "actionAfter": "",
            "optionIcon": ""
        },
        {
            "id": 401241130,
            "nextDialogs": [
                401241131
            ],
            "talkRole": {
                "type": "TALK_ROLE_NPC",
                "id": "1021"
            },
            "talkContentTextMapHash": 1987505426,
            "talkAssetPath": "",
            "talkAssetPathAlter": "",
            "talkAudioName": "",
            "actionBefore": "",
            "actionWhile": "",
            "actionAfter": "",
            "optionIcon": ""
        },
        {
            "id": 401241131,
            "nextDialogs": [
                401241132
            ],
            "talkRole": {
                "type": "TALK_ROLE_NPC",
                "id": "10232"
            },
            "talkContentTextMapHash": 1945184338,
            "talkAssetPath": "",
            "talkAssetPathAlter": "",
            "talkAudioName": "",
            "actionBefore": "",
            "actionWhile": "",
            "actionAfter": "",
            "optionIcon": ""
        },
        {
            "id": 401241132,
            "nextDialogs": [
                401241133
            ],
            "talkRole": {
                "type": "TALK_ROLE_NPC",
                "id": "1021"
            },
            "talkContentTextMapHash": 3593610298,
            "talkAssetPath": "",
            "talkAssetPathAlter": "",
            "talkAudioName": "",
            "actionBefore": "",
            "actionWhile": "",
            "actionAfter": "",
            "optionIcon": ""
        },
        {
            "id": 401241133,
            "nextDialogs": [
                401241134
            ],
            "talkRole": {
                "type": "TALK_ROLE_NPC",
                "id": "10232"
            },
            "talkContentTextMapHash": 3857316890,
            "talkAssetPath": "",
            "talkAssetPathAlter": "",
            "talkAudioName": "",
            "actionBefore": "",
            "actionWhile": "",
            "actionAfter": "",
            "optionIcon": ""
        },
        {
            "id": 401241134,
            "nextDialogs": [
                401241135
            ],
            "talkRole": {
                "type": "TALK_ROLE_NPC",
                "id": "1021"
            },
            "talkContentTextMapHash": 2377193938,
            "talkAssetPath": "",
            "talkAssetPathAlter": "",
            "talkAudioName": "",
            "actionBefore": "",
            "actionWhile": "",
            "actionAfter": "",
            "optionIcon": ""
        },
        {
            "id": 401241135,
            "nextDialogs": [
                401241136,
                401241137
            ],
            "talkRole": {
                "type": "TALK_ROLE_NPC",
                "id": "1061"
            },
            "talkContentTextMapHash": 982927418,
            "talkAssetPath": "",
            "talkAssetPathAlter": "",
            "talkAudioName": "",
            "actionBefore": "",
            "actionWhile": "",
            "actionAfter": "",
            "optionIcon": ""
        },
        {
            "id": 401241136,
            "nextDialogs": [
                401241138
            ],
            "talkRole": {
                "type": "TALK_ROLE_PLAYER",
                "id": ""
            },
            "talkContentTextMapHash": 2446394450,
            "talkAssetPath": "",
            "talkAssetPathAlter": "",
            "talkAudioName": "",
            "actionBefore": "",
            "actionWhile": "",
            "actionAfter": "",
            "optionIcon": ""
        },
        {
            "id": 401241138,
            "nextDialogs": [
                401241139
            ],
            "talkRole": {
                "type": "TALK_ROLE_NPC",
                "id": "1061"
            },
            "talkContentTextMapHash": 3430549730,
            "talkAssetPath": "",
            "talkAssetPathAlter": "",
            "talkAudioName": "",
            "actionBefore": "",
            "actionWhile": "",
            "actionAfter": "",
            "optionIcon": ""
        },
        {
            "id": 401241139,
            "nextDialogs": [
                401241140
            ],
            "talkRole": {
                "type": "TALK_ROLE_NPC",
                "id": "1021"
            },
            "talkContentTextMapHash": 3845507610,
            "talkAssetPath": "",
            "talkAssetPathAlter": "",
            "talkAudioName": "",
            "actionBefore": "",
            "actionWhile": "",
            "actionAfter": "",
            "optionIcon": ""
        },
        {
            "id": 401241140,
            "nextDialogs": [
                401241141
            ],
            "talkRole": {
                "type": "TALK_ROLE_NPC",
                "id": "1021"
            },
            "talkContentTextMapHash": 1464204018,
            "talkAssetPath": "",
            "talkAssetPathAlter": "",
            "talkAudioName": "",
            "actionBefore": "",
            "actionWhile": "",
            "actionAfter": "",
            "optionIcon": ""
        },
        {
            "id": 401241141,
            "nextDialogs": [
                401241142
            ],
            "talkRole": {
                "type": "TALK_ROLE_NPC",
                "id": "1021"
            },
            "talkContentTextMapHash": 2262325890,
            "talkAssetPath": "",
            "talkAssetPathAlter": "",
            "talkAudioName": "",
            "actionBefore": "",
            "actionWhile": "",
            "actionAfter": "",
            "optionIcon": ""
        },
        {
            "id": 401241142,
            "nextDialogs": [
                401241143
            ],
            "talkRole": {
                "type": "TALK_ROLE_NPC",
                "id": "10045"
            },
            "talkContentTextMapHash": 4161222898,
            "talkAssetPath": "",
            "talkAssetPathAlter": "",
            "talkAudioName": "",
            "actionBefore": "",
            "actionWhile": "",
            "actionAfter": "",
            "optionIcon": ""
        },
        {
            "id": 401241143,
            "nextDialogs": [
                401241144
            ],
            "talkRole": {
                "type": "TALK_ROLE_NPC",
                "id": "1021"
            },
            "talkContentTextMapHash": 573916898,
            "talkAssetPath": "",
            "talkAssetPathAlter": "",
            "talkAudioName": "",
            "actionBefore": "",
            "actionWhile": "",
            "actionAfter": "",
            "optionIcon": ""
        },
        {
            "id": 401241144,
            "nextDialogs": [
                401241145
            ],
            "talkRole": {
                "type": "TALK_ROLE_NPC",
                "id": "1001"
            },
            "talkContentTextMapHash": 3898649202,
            "talkAssetPath": "",
            "talkAssetPathAlter": "",
            "talkAudioName": "",
            "actionBefore": "",
            "actionWhile": "",
            "actionAfter": "",
            "optionIcon": ""
        },
        {
            "id": 401241145,
            "nextDialogs": [
                401241146
            ],
            "talkRole": {
                "type": "TALK_ROLE_NPC",
                "id": "1021"
            },
            "talkContentTextMapHash": 2736480714,
            "talkAssetPath": "",
            "talkAssetPathAlter": "",
            "talkAudioName": "",
            "actionBefore": "",
            "actionWhile": "",
            "actionAfter": "",
            "optionIcon": ""
        },
        {
            "id": 401241146,
            "nextDialogs": [
                401241147
            ],
            "talkRole": {
                "type": "TALK_ROLE_NPC",
                "id": "10232"
            },
            "talkContentTextMapHash": 57685314,
            "talkAssetPath": "",
            "talkAssetPathAlter": "",
            "talkAudioName": "",
            "actionBefore": "",
            "actionWhile": "",
            "actionAfter": "",
            "optionIcon": ""
        },
        {
            "id": 401241147,
            "nextDialogs": [
                401241148
            ],
            "talkRole": {
                "type": "TALK_ROLE_NPC",
                "id": "10232"
            },
            "talkContentTextMapHash": 294038378,
            "talkAssetPath": "",
            "talkAssetPathAlter": "",
            "talkAudioName": "",
            "actionBefore": "",
            "actionWhile": "",
            "actionAfter": "",
            "optionIcon": ""
        },
        {
            "id": 401241148,
            "nextDialogs": [
                401241149
            ],
            "talkRole": {
                "type": "TALK_ROLE_NPC",
                "id": "1060"
            },
            "talkContentTextMapHash": 1441887930,
            "talkAssetPath": "",
            "talkAssetPathAlter": "",
            "talkAudioName": "",
            "actionBefore": "",
            "actionWhile": "",
            "actionAfter": "",
            "optionIcon": ""
        },
        {
            "id": 401241149,
            "nextDialogs": [
                401241150
            ],
            "talkRole": {
                "type": "TALK_ROLE_NPC",
                "id": "1021"
            },
            "talkContentTextMapHash": 1716737354,
            "talkAssetPath": "",
            "talkAssetPathAlter": "",
            "talkAudioName": "",
            "actionBefore": "",
            "actionWhile": "",
            "actionAfter": "",
            "optionIcon": ""
        },
        {
            "id": 401241150,
            "nextDialogs": [
                401241151
            ],
            "talkRole": {
                "type": "TALK_ROLE_NPC",
                "id": "1001"
            },
            "talkContentTextMapHash": 3452951410,
            "talkAssetPath": "",
            "talkAssetPathAlter": "",
            "talkAudioName": "",
            "actionBefore": "",
            "actionWhile": "",
            "actionAfter": "",
            "optionIcon": ""
        },
        {
            "id": 401241151,
            "nextDialogs": [
                401241152
            ],
            "talkRole": {
                "type": "TALK_ROLE_NPC",
                "id": "1001"
            },
            "talkContentTextMapHash": 2072689058,
            "talkAssetPath": "",
            "talkAssetPathAlter": "",
            "talkAudioName": "",
            "actionBefore": "",
            "actionWhile": "",
            "actionAfter": "",
            "optionIcon": ""
        },
        {
            "id": 401241152,
            "nextDialogs": [
                401241153
            ],
            "talkRole": {
                "type": "TALK_ROLE_NPC",
                "id": "10045"
            },
            "talkContentTextMapHash": 1633994026,
            "talkAssetPath": "",
            "talkAssetPathAlter": "",
            "talkAudioName": "",
            "actionBefore": "",
            "actionWhile": "",
            "actionAfter": "",
            "optionIcon": ""
        },
        {
            "id": 401241153,
            "nextDialogs": [
                401241154
            ],
            "talkRole": {
                "type": "TALK_ROLE_NPC",
                "id": "10045"
            },
            "talkContentTextMapHash": 3073022274,
            "talkAssetPath": "",
            "talkAssetPathAlter": "",
            "talkAudioName": "",
            "actionBefore": "",
            "actionWhile": "",
            "actionAfter": "",
            "optionIcon": ""
        },
        {
            "id": 401241154,
            "nextDialogs": [
                401241155
            ],
            "talkRole": {
                "type": "TALK_ROLE_NPC",
                "id": "1060"
            },
            "talkContentTextMapHash": 3428751994,
            "talkAssetPath": "",
            "talkAssetPathAlter": "",
            "talkAudioName": "",
            "actionBefore": "",
            "actionWhile": "",
            "actionAfter": "",
            "optionIcon": ""
        },
        {
            "id": 401241155,
            "nextDialogs": [
                401241156
            ],
            "talkRole": {
                "type": "TALK_ROLE_NPC",
                "id": "1005"
            },
            "talkContentTextMapHash": 2126754154,
            "talkAssetPath": "",
            "talkAssetPathAlter": "",
            "talkAudioName": "",
            "actionBefore": "",
            "actionWhile": "",
            "actionAfter": "",
            "optionIcon": ""
        },
        {
            "id": 401241156,
            "nextDialogs": [
                401241157
            ],
            "talkRole": {
                "type": "TALK_ROLE_NPC",
                "id": "1023"
            },
            "talkContentTextMapHash": 3028313162,
            "talkAssetPath": "",
            "talkAssetPathAlter": "",
            "talkAudioName": "",
            "actionBefore": "",
            "actionWhile": "",
            "actionAfter": "",
            "optionIcon": ""
        },
        {
            "id": 401241157,
            "nextDialogs": [
                401241158
            ],
            "talkRole": {
                "type": "TALK_ROLE_NPC",
                "id": "1023"
            },
            "talkContentTextMapHash": 995332674,
            "talkAssetPath": "",
            "talkAssetPathAlter": "",
            "talkAudioName": "",
            "actionBefore": "",
            "actionWhile": "",
            "actionAfter": "",
            "optionIcon": ""
        },
        {
            "id": 401241158,
            "nextDialogs": [
                401241159
            ],
            "talkRole": {
                "type": "TALK_ROLE_NPC",
                "id": "1023"
            },
            "talkContentTextMapHash": 1326369146,
            "talkAssetPath": "",
            "talkAssetPathAlter": "",
            "talkAudioName": "",
            "actionBefore": "",
            "actionWhile": "",
            "actionAfter": "",
            "optionIcon": ""
        },
        {
            "id": 401241159,
            "nextDialogs": [
                401241160
            ],
            "talkRole": {
                "type": "TALK_ROLE_NPC",
                "id": "1005"
            },
            "talkContentTextMapHash": 235062282,
            "talkAssetPath": "",
            "talkAssetPathAlter": "",
            "talkAudioName": "",
            "actionBefore": "",
            "actionWhile": "",
            "actionAfter": "",
            "optionIcon": ""
        },
        {
            "id": 401241160,
            "nextDialogs": [
                401241161
            ],
            "talkRole": {
                "type": "TALK_ROLE_NPC",
                "id": "10232"
            },
            "talkContentTextMapHash": 1444105762,
            "talkAssetPath": "",
            "talkAssetPathAlter": "",
            "talkAudioName": "",
            "actionBefore": "",
            "actionWhile": "",
            "actionAfter": "",
            "optionIcon": ""
        },
        {
            "id": 401241161,
            "nextDialogs": [
                401241162
            ],
            "talkRole": {
                "type": "TALK_ROLE_NPC",
                "id": "10232"
            },
            "talkContentTextMapHash": 3545419506,
            "talkAssetPath": "",
            "talkAssetPathAlter": "",
            "talkAudioName": "",
            "actionBefore": "",
            "actionWhile": "",
            "actionAfter": "",
            "optionIcon": ""
        },
        {
            "id": 401241162,
            "nextDialogs": [
                401241163
            ],
            "talkRole": {
                "type": "TALK_ROLE_NPC",
                "id": "1023"
            },
            "talkContentTextMapHash": 274289882,
            "talkAssetPath": "",
            "talkAssetPathAlter": "",
            "talkAudioName": "",
            "actionBefore": "",
            "actionWhile": "",
            "actionAfter": "",
            "optionIcon": ""
        },
        {
            "id": 401241163,
            "nextDialogs": [
                401241164
            ],
            "talkRole": {
                "type": "TALK_ROLE_NPC",
                "id": "1023"
            },
            "talkContentTextMapHash": 3293527794,
            "talkAssetPath": "",
            "talkAssetPathAlter": "",
            "talkAudioName": "",
            "actionBefore": "",
            "actionWhile": "",
            "actionAfter": "",
            "optionIcon": ""
        },
        {
            "id": 401241164,
            "nextDialogs": [
                401241165
            ],
            "talkRole": {
                "type": "TALK_ROLE_NPC",
                "id": "1023"
            },
            "talkContentTextMapHash": 4081117386,
            "talkAssetPath": "",
            "talkAssetPathAlter": "",
            "talkAudioName": "",
            "actionBefore": "",
            "actionWhile": "",
            "actionAfter": "",
            "optionIcon": ""
        },
        {
            "id": 401241165,
            "nextDialogs": [
                401241166
            ],
            "talkRole": {
                "type": "TALK_ROLE_NPC",
                "id": "10045"
            },
            "talkContentTextMapHash": 1729410074,
            "talkAssetPath": "",
            "talkAssetPathAlter": "",
            "talkAudioName": "",
            "actionBefore": "",
            "actionWhile": "",
            "actionAfter": "",
            "optionIcon": ""
        },
        {
            "id": 401241166,
            "nextDialogs": [
                401241167
            ],
            "talkRole": {
                "type": "TALK_ROLE_NPC",
                "id": "10232"
            },
            "talkContentTextMapHash": 2092724210,
            "talkAssetPath": "",
            "talkAssetPathAlter": "",
            "talkAudioName": "",
            "actionBefore": "",
            "actionWhile": "",
            "actionAfter": "",
            "optionIcon": ""
        },
        {
            "id": 401241167,
            "nextDialogs": [
                401241168
            ],
            "talkRole": {
                "type": "TALK_ROLE_NPC",
                "id": "1027"
            },
            "talkContentTextMapHash": 3184426522,
            "talkAssetPath": "",
            "talkAssetPathAlter": "",
            "talkAudioName": "",
            "actionBefore": "",
            "actionWhile": "",
            "actionAfter": "",
            "optionIcon": ""
        },
        {
            "id": 401241168,
            "nextDialogs": [
                401241169
            ],
            "talkRole": {
                "type": "TALK_ROLE_NPC",
                "id": "1027"
            },
            "talkContentTextMapHash": 972149282,
            "talkAssetPath": "",
            "talkAssetPathAlter": "",
            "talkAudioName": "",
            "actionBefore": "",
            "actionWhile": "",
            "actionAfter": "",
            "optionIcon": ""
        },
        {
            "id": 401241169,
            "nextDialogs": [
                401241170
            ],
            "talkRole": {
                "type": "TALK_ROLE_NPC",
                "id": "1005"
            },
            "talkContentTextMapHash": 2137966114,
            "talkAssetPath": "",
            "talkAssetPathAlter": "",
            "talkAudioName": "",
            "actionBefore": "",
            "actionWhile": "",
            "actionAfter": "",
            "optionIcon": ""
        },
        {
            "id": 401241170,
            "nextDialogs": [
                401241171
            ],
            "talkRole": {
                "type": "TALK_ROLE_NPC",
                "id": "10232"
            },
            "talkContentTextMapHash": 3588163578,
            "talkAssetPath": "",
            "talkAssetPathAlter": "",
            "talkAudioName": "",
            "actionBefore": "",
            "actionWhile": "",
            "actionAfter": "",
            "optionIcon": ""
        },
        {
            "id": 401241171,
            "nextDialogs": [
                401241172
            ],
            "talkRole": {
                "type": "TALK_ROLE_NPC",
                "id": "10045"
            },
            "talkContentTextMapHash": 1308718442,
            "talkAssetPath": "",
            "talkAssetPathAlter": "",
            "talkAudioName": "",
            "actionBefore": "",
            "actionWhile": "",
            "actionAfter": "",
            "optionIcon": ""
        },
        {
            "id": 401241172,
            "nextDialogs": [
                401241173
            ],
            "talkRole": {
                "type": "TALK_ROLE_NPC",
                "id": "1027"
            },
            "talkContentTextMapHash": 1113622490,
            "talkAssetPath": "",
            "talkAssetPathAlter": "",
            "talkAudioName": "",
            "actionBefore": "",
            "actionWhile": "",
            "actionAfter": "",
            "optionIcon": ""
        },
        {
            "id": 401241173,
            "nextDialogs": [
                401241174
            ],
            "talkRole": {
                "type": "TALK_ROLE_NPC",
                "id": "13431"
            },
            "talkContentTextMapHash": 2717195490,
            "talkAssetPath": "",
            "talkAssetPathAlter": "",
            "talkAudioName": "",
            "actionBefore": "",
            "actionWhile": "",
            "actionAfter": "",
            "optionIcon": ""
        },
        {
            "id": 401241174,
            "nextDialogs": [
                401241175
            ],
            "talkRole": {
                "type": "TALK_ROLE_NPC",
                "id": "13431"
            },
            "talkContentTextMapHash": 3340399186,
            "talkAssetPath": "",
            "talkAssetPathAlter": "",
            "talkAudioName": "",
            "actionBefore": "",
            "actionWhile": "",
            "actionAfter": "",
            "optionIcon": ""
        },
        {
            "id": 401241175,
            "nextDialogs": [
                401241176
            ],
            "talkRole": {
                "type": "TALK_ROLE_NPC",
                "id": "1061"
            },
            "talkContentTextMapHash": 2253208634,
            "talkAssetPath": "",
            "talkAssetPathAlter": "",
            "talkAudioName": "",
            "actionBefore": "",
            "actionWhile": "",
            "actionAfter": "",
            "optionIcon": ""
        },
        {
            "id": 401241176,
            "nextDialogs": [
                401241177
            ],
            "talkRole": {
                "type": "TALK_ROLE_NPC",
                "id": "1005"
            },
            "talkContentTextMapHash": 814883082,
            "talkAssetPath": "",
            "talkAssetPathAlter": "",
            "talkAudioName": "",
            "actionBefore": "",
            "actionWhile": "",
            "actionAfter": "",
            "optionIcon": ""
        },
        {
            "id": 401241177,
            "nextDialogs": [
                401241178
            ],
            "talkRole": {
                "type": "TALK_ROLE_NPC",
                "id": "1061"
            },
            "talkContentTextMapHash": 3258178202,
            "talkAssetPath": "",
            "talkAssetPathAlter": "",
            "talkAudioName": "",
            "actionBefore": "",
            "actionWhile": "",
            "actionAfter": "",
            "optionIcon": ""
        },
        {
            "id": 401241178,
            "nextDialogs": [
                401241179,
                401241180
            ],
            "talkRole": {
                "type": "TALK_ROLE_NPC",
                "id": "1061"
            },
            "talkContentTextMapHash": 170772186,
            "talkAssetPath": "",
            "talkAssetPathAlter": "",
            "talkAudioName": "",
            "actionBefore": "",
            "actionWhile": "",
            "actionAfter": "",
            "optionIcon": ""
        },
        {
            "id": 401241179,
            "nextDialogs": [
                401241181
            ],
            "talkRole": {
                "type": "TALK_ROLE_PLAYER",
                "id": ""
            },
            "talkContentTextMapHash": 2055475746,
            "talkAssetPath": "",
            "talkAssetPathAlter": "",
            "talkAudioName": "",
            "actionBefore": "",
            "actionWhile": "",
            "actionAfter": "",
            "optionIcon": ""
        },
        {
            "id": 401241181,
            "nextDialogs": [
                401241182
            ],
            "talkRole": {
                "type": "TALK_ROLE_PLAYER",
                "id": ""
            },
            "talkContentTextMapHash": 1249042938,
            "talkAssetPath": "",
            "talkAssetPathAlter": "",
            "talkAudioName": "",
            "actionBefore": "",
            "actionWhile": "",
            "actionAfter": "",
            "optionIcon": ""
        },
        {
            "id": 401241182,
            "nextDialogs": [
                401241183
            ],
            "talkRole": {
                "type": "TALK_ROLE_NPC",
                "id": "13431"
            },
            "talkContentTextMapHash": 1384541458,
            "talkAssetPath": "",
            "talkAssetPathAlter": "",
            "talkAudioName": "",
            "actionBefore": "",
            "actionWhile": "",
            "actionAfter": "",
            "optionIcon": ""
        },
        {
            "id": 401241183,
            "nextDialogs": [
                401241184
            ],
            "talkRole": {
                "type": "TALK_ROLE_NPC",
                "id": "10232"
            },
            "talkContentTextMapHash": 1958933650,
            "talkAssetPath": "",
            "talkAssetPathAlter": "",
            "talkAudioName": "",
            "actionBefore": "",
            "actionWhile": "",
            "actionAfter": "",
            "optionIcon": ""
        },
        {
            "id": 401241184,
            "nextDialogs": [
                401241185,
                401241186
            ],
            "talkRole": {
                "type": "TALK_ROLE_NPC",
                "id": "1061"
            },
            "talkContentTextMapHash": 777929114,
            "talkAssetPath": "",
            "talkAssetPathAlter": "",
            "talkAudioName": "",
            "actionBefore": "",
            "actionWhile": "",
            "actionAfter": "",
            "optionIcon": ""
        },
        {
            "id": 401241185,
            "nextDialogs": [
                401241187
            ],
            "talkRole": {
                "type": "TALK_ROLE_PLAYER",
                "id": ""
            },
            "talkContentTextMapHash": 3343694378,
            "talkAssetPath": "",
            "talkAssetPathAlter": "",
            "talkAudioName": "",
            "actionBefore": "",
            "actionWhile": "",
            "actionAfter": "",
            "optionIcon": ""
        },
        {
            "id": 401241187,
            "nextDialogs": [
                401241188
            ],
            "talkRole": {
                "type": "TALK_ROLE_NPC",
                "id": "1021"
            },
            "talkContentTextMapHash": 2438210594,
            "talkAssetPath": "",
            "talkAssetPathAlter": "",
            "talkAudioName": "",
            "actionBefore": "",
            "actionWhile": "",
            "actionAfter": "",
            "optionIcon": ""
        },
        {
            "id": 401241188,
            "nextDialogs": [
                401241189
            ],
            "talkRole": {
                "type": "TALK_ROLE_NPC",
                "id": "13431"
            },
            "talkContentTextMapHash": 950785410,
            "talkAssetPath": "",
            "talkAssetPathAlter": "",
            "talkAudioName": "",
            "actionBefore": "",
            "actionWhile": "",
            "actionAfter": "",
            "optionIcon": ""
        },
        {
            "id": 401241189,
            "nextDialogs": [
                401241190
            ],
            "talkRole": {
                "type": "TALK_ROLE_NPC",
                "id": "13431"
            },
            "talkContentTextMapHash": 1881762794,
            "talkAssetPath": "",
            "talkAssetPathAlter": "",
            "talkAudioName": "",
            "actionBefore": "",
            "actionWhile": "",
            "actionAfter": "",
            "optionIcon": ""
        },
        {
            "id": 401241190,
            "nextDialogs": [
                401241191
            ],
            "talkRole": {
                "type": "TALK_ROLE_NPC",
                "id": "1023"
            },
            "talkContentTextMapHash": 3804053370,
            "talkAssetPath": "",
            "talkAssetPathAlter": "",
            "talkAudioName": "",
            "actionBefore": "",
            "actionWhile": "",
            "actionAfter": "",
            "optionIcon": ""
        },
        {
            "id": 401241191,
            "nextDialogs": [
                401241192
            ],
            "talkRole": {
                "type": "TALK_ROLE_PLAYER",
                "id": ""
            },
            "talkContentTextMapHash": 3877408674,
            "talkAssetPath": "",
            "talkAssetPathAlter": "",
            "talkAudioName": "",
            "actionBefore": "",
            "actionWhile": "",
            "actionAfter": "",
            "optionIcon": ""
        },
        {
            "id": 401241192,
            "nextDialogs": [
                401241193,
                401241194
            ],
            "talkRole": {
                "type": "TALK_ROLE_PLAYER",
                "id": ""
            },
            "talkContentTextMapHash": 80485898,
            "talkAssetPath": "",
            "talkAssetPathAlter": "",
            "talkAudioName": "",
            "actionBefore": "",
            "actionWhile": "",
            "actionAfter": "",
            "optionIcon": ""
        },
        {
            "id": 401241193,
            "nextDialogs": [
                401241195
            ],
            "talkRole": {
                "type": "TALK_ROLE_PLAYER",
                "id": ""
            },
            "talkContentTextMapHash": 1639117658,
            "talkAssetPath": "",
            "talkAssetPathAlter": "",
            "talkAudioName": "",
            "actionBefore": "",
            "actionWhile": "",
            "actionAfter": "",
            "optionIcon": ""
        },
        {
            "id": 401241195,
            "nextDialogs": [
                401241196
            ],
            "talkRole": {
                "type": "TALK_ROLE_PLAYER",
                "id": ""
            },
            "talkContentTextMapHash": 4087867154,
            "talkAssetPath": "",
            "talkAssetPathAlter": "",
            "talkAudioName": "",
            "actionBefore": "",
            "actionWhile": "",
            "actionAfter": "",
            "optionIcon": ""
        },
        {
            "id": 401241196,
            "nextDialogs": [
                401241197
            ],
            "talkRole": {
                "type": "TALK_ROLE_NPC",
                "id": "30396"
            },
            "talkContentTextMapHash": 3494094834,
            "talkAssetPath": "",
            "talkAssetPathAlter": "",
            "talkAudioName": "",
            "actionBefore": "",
            "actionWhile": "",
            "actionAfter": "",
            "optionIcon": ""
        },
        {
            "id": 401241197,
            "nextDialogs": [
                401241198
            ],
            "talkRole": {
                "type": "TALK_ROLE_NPC",
                "id": "10232"
            },
            "talkContentTextMapHash": 648729162,
            "talkAssetPath": "",
            "talkAssetPathAlter": "",
            "talkAudioName": "",
            "actionBefore": "",
            "actionWhile": "",
            "actionAfter": "",
            "optionIcon": ""
        },
        {
            "id": 401241198,
            "nextDialogs": [
                401241199
            ],
            "talkShowType": "TALK_SHOW_FORCE_SELECT",
            "talkRole": {
                "type": "TALK_ROLE_PLAYER",
                "id": ""
            },
            "talkContentTextMapHash": 3699341058,
            "talkAssetPath": "",
            "talkAssetPathAlter": "",
            "talkAudioName": "",
            "actionBefore": "",
            "actionWhile": "",
            "actionAfter": "",
            "optionIcon": ""
        },
        {
            "id": 401241199,
            "nextDialogs": [
                401241200
            ],
            "talkRole": {
                "type": "TALK_ROLE_NPC",
                "id": "10204"
            },
            "talkContentTextMapHash": 200947770,
            "talkAssetPath": "",
            "talkAssetPathAlter": "",
            "talkAudioName": "",
            "actionBefore": "",
            "actionWhile": "",
            "actionAfter": "",
            "optionIcon": ""
        },
        {
            "id": 401241200,
            "nextDialogs": [
                401240001
            ],
            "talkRole": {
                "type": "TALK_ROLE_NPC",
                "id": "1005"
            },
            "talkContentTextMapHash": 3771153818,
            "talkAssetPath": "",
            "talkAssetPathAlter": "",
            "talkAudioName": "",
            "actionBefore": "",
            "actionWhile": "",
            "actionAfter": "",
            "optionIcon": ""
        },
        {
            "id": 401240001,
            "nextDialogs": [
                401240002
            ],
            "talkRole": {
                "type": "TALK_ROLE_PLAYER",
                "id": ""
            },
            "talkContentTextMapHash": 373732610,
            "talkAssetPath": "",
            "talkAssetPathAlter": "",
            "talkAudioName": "",
            "actionBefore": "",
            "actionWhile": "",
            "actionAfter": "",
            "optionIcon": ""
        },
        {
            "id": 401240002,
            "nextDialogs": [
                401240003
            ],
            "talkRole": {
                "type": "TALK_ROLE_NPC",
                "id": "10232"
            },
            "talkContentTextMapHash": 1571991074,
            "talkAssetPath": "",
            "talkAssetPathAlter": "",
            "talkAudioName": "",
            "actionBefore": "",
            "actionWhile": "",
            "actionAfter": "",
            "optionIcon": ""
        },
        {
            "id": 401240003,
            "nextDialogs": [
                401240004
            ],
            "talkRole": {
                "type": "TALK_ROLE_NPC",
                "id": "1021"
            },
            "talkContentTextMapHash": 1312968402,
            "talkAssetPath": "",
            "talkAssetPathAlter": "",
            "talkAudioName": "",
            "actionBefore": "",
            "actionWhile": "",
            "actionAfter": "",
            "optionIcon": ""
        },
        {
            "id": 401240004,
            "nextDialogs": [
                401240005
            ],
            "talkRole": {
                "type": "TALK_ROLE_NPC",
                "id": "1021"
            },
            "talkContentTextMapHash": 3708416258,
            "talkAssetPath": "",
            "talkAssetPathAlter": "",
            "talkAudioName": "",
            "actionBefore": "",
            "actionWhile": "",
            "actionAfter": "",
            "optionIcon": ""
        },
        {
            "id": 401240005,
            "nextDialogs": [
                401240006
            ],
            "talkRole": {
                "type": "TALK_ROLE_NPC",
                "id": "10045"
            },
            "talkContentTextMapHash": 982343834,
            "talkAssetPath": "",
            "talkAssetPathAlter": "",
            "talkAudioName": "",
            "actionBefore": "",
            "actionWhile": "",
            "actionAfter": "",
            "optionIcon": ""
        },
        {
            "id": 401240006,
            "nextDialogs": [
                401240007
            ],
            "talkRole": {
                "type": "TALK_ROLE_NPC",
                "id": "10045"
            },
            "talkContentTextMapHash": 439183402,
            "talkAssetPath": "",
            "talkAssetPathAlter": "",
            "talkAudioName": "",
            "actionBefore": "",
            "actionWhile": "",
            "actionAfter": "",
            "optionIcon": ""
        },
        {
            "id": 401240007,
            "nextDialogs": [
                401240008
            ],
            "talkRole": {
                "type": "TALK_ROLE_NPC",
                "id": "1021"
            },
            "talkContentTextMapHash": 3588514778,
            "talkAssetPath": "",
            "talkAssetPathAlter": "",
            "talkAudioName": "",
            "actionBefore": "",
            "actionWhile": "",
            "actionAfter": "",
            "optionIcon": ""
        },
        {
            "id": 401240008,
            "nextDialogs": [
                401240009
            ],
            "talkRole": {
                "type": "TALK_ROLE_NPC",
                "id": "10045"
            },
            "talkContentTextMapHash": 1734609338,
            "talkAssetPath": "",
            "talkAssetPathAlter": "",
            "talkAudioName": "",
            "actionBefore": "",
            "actionWhile": "",
            "actionAfter": "",
            "optionIcon": ""
        },
        {
            "id": 401240009,
            "nextDialogs": [
                401240010
            ],
            "talkRole": {
                "type": "TALK_ROLE_NPC",
                "id": "10232"
            },
            "talkContentTextMapHash": 1867764570,
            "talkAssetPath": "",
            "talkAssetPathAlter": "",
            "talkAudioName": "",
            "actionBefore": "",
            "actionWhile": "",
            "actionAfter": "",
            "optionIcon": ""
        },
        {
            "id": 401240010,
            "nextDialogs": [
                401240011
            ],
            "talkRole": {
                "type": "TALK_ROLE_NPC",
                "id": "10232"
            },
            "talkContentTextMapHash": 1900378970,
            "talkAssetPath": "",
            "talkAssetPathAlter": "",
            "talkAudioName": "",
            "actionBefore": "",
            "actionWhile": "",
            "actionAfter": "",
            "optionIcon": ""
        },
        {
            "id": 401240011,
            "nextDialogs": [
                401240012
            ],
            "talkRole": {
                "type": "TALK_ROLE_NPC",
                "id": "1021"
            },
            "talkContentTextMapHash": 1090433330,
            "talkAssetPath": "",
            "talkAssetPathAlter": "",
            "talkAudioName": "",
            "actionBefore": "",
            "actionWhile": "",
            "actionAfter": "",
            "optionIcon": ""
        },
        {
            "id": 401240012,
            "nextDialogs": [
                401240013
            ],
            "talkRole": {
                "type": "TALK_ROLE_NPC",
                "id": "10232"
            },
            "talkContentTextMapHash": 4164005602,
            "talkAssetPath": "",
            "talkAssetPathAlter": "",
            "talkAudioName": "",
            "actionBefore": "",
            "actionWhile": "",
            "actionAfter": "",
            "optionIcon": ""
        },
        {
            "id": 401240013,
            "nextDialogs": [
                401240014
            ],
            "talkRole": {
                "type": "TALK_ROLE_NPC",
                "id": "10045"
            },
            "talkContentTextMapHash": 1320493242,
            "talkAssetPath": "",
            "talkAssetPathAlter": "",
            "talkAudioName": "",
            "actionBefore": "",
            "actionWhile": "",
            "actionAfter": "",
            "optionIcon": ""
        },
        {
            "id": 401240014,
            "nextDialogs": [
                401240015
            ],
            "talkRole": {
                "type": "TALK_ROLE_NPC",
                "id": "1021"
            },
            "talkContentTextMapHash": 1091508738,
            "talkAssetPath": "",
            "talkAssetPathAlter": "",
            "talkAudioName": "",
            "actionBefore": "",
            "actionWhile": "",
            "actionAfter": "",
            "optionIcon": ""
        },
        {
            "id": 401240015,
            "nextDialogs": [
                401240016
            ],
            "talkRole": {
                "type": "TALK_ROLE_NPC",
                "id": "10045"
            },
            "talkContentTextMapHash": 3481164218,
            "talkAssetPath": "",
            "talkAssetPathAlter": "",
            "talkAudioName": "",
            "actionBefore": "",
            "actionWhile": "",
            "actionAfter": "",
            "optionIcon": ""
        },
        {
            "id": 401240016,
            "nextDialogs": [
                401240017
            ],
            "talkRole": {
                "type": "TALK_ROLE_NPC",
                "id": "1005"
            },
            "talkContentTextMapHash": 1335500450,
            "talkAssetPath": "",
            "talkAssetPathAlter": "",
            "talkAudioName": "",
            "actionBefore": "",
            "actionWhile": "",
            "actionAfter": "",
            "optionIcon": ""
        },
        {
            "id": 401240017,
            "nextDialogs": [
                401240018
            ],
            "talkRole": {
                "type": "TALK_ROLE_NPC",
                "id": "1061"
            },
            "talkContentTextMapHash": 4264133450,
            "talkAssetPath": "",
            "talkAssetPathAlter": "",
            "talkAudioName": "",
            "actionBefore": "",
            "actionWhile": "",
            "actionAfter": "",
            "optionIcon": ""
        },
        {
            "id": 401240018,
            "nextDialogs": [
                401240019
            ],
            "talkRole": {
                "type": "TALK_ROLE_NPC",
                "id": "1061"
            },
            "talkContentTextMapHash": 3484041626,
            "talkAssetPath": "",
            "talkAssetPathAlter": "",
            "talkAudioName": "",
            "actionBefore": "",
            "actionWhile": "",
            "actionAfter": "",
            "optionIcon": ""
        },
        {
            "id": 401240019,
            "nextDialogs": [
                401240020
            ],
            "talkRole": {
                "type": "TALK_ROLE_NPC",
                "id": "1005"
            },
            "talkContentTextMapHash": 3845340442,
            "talkAssetPath": "",
            "talkAssetPathAlter": "",
            "talkAudioName": "",
            "actionBefore": "",
            "actionWhile": "",
            "actionAfter": "",
            "optionIcon": ""
        },
        {
            "id": 401240020,
            "nextDialogs": [
                401240021
            ],
            "talkRole": {
                "type": "TALK_ROLE_NPC",
                "id": "30397"
            },
            "talkContentTextMapHash": 2542872498,
            "talkAssetPath": "",
            "talkAssetPathAlter": "",
            "talkAudioName": "",
            "actionBefore": "",
            "actionWhile": "",
            "actionAfter": "",
            "optionIcon": ""
        },
        {
            "id": 401240021,
            "nextDialogs": [
                401240022
            ],
            "talkRole": {
                "type": "TALK_ROLE_NPC",
                "id": "1005"
            },
            "talkContentTextMapHash": 1792292386,
            "talkAssetPath": "",
            "talkAssetPathAlter": "",
            "talkAudioName": "",
            "actionBefore": "",
            "actionWhile": "",
            "actionAfter": "",
            "optionIcon": ""
        },
        {
            "id": 401240022,
            "nextDialogs": [
                401240023
            ],
            "talkRole": {
                "type": "TALK_ROLE_NPC",
                "id": "1001"
            },
            "talkContentTextMapHash": 1266467242,
            "talkAssetPath": "",
            "talkAssetPathAlter": "",
            "talkAudioName": "",
            "actionBefore": "",
            "actionWhile": "",
            "actionAfter": "",
            "optionIcon": ""
        },
        {
            "id": 401240023,
            "nextDialogs": [
                401240024
            ],
            "talkRole": {
                "type": "TALK_ROLE_NPC",
                "id": "1060"
            },
            "talkContentTextMapHash": 3082219394,
            "talkAssetPath": "",
            "talkAssetPathAlter": "",
            "talkAudioName": "",
            "actionBefore": "",
            "actionWhile": "",
            "actionAfter": "",
            "optionIcon": ""
        },
        {
            "id": 401240024,
            "nextDialogs": [
                401240025
            ],
            "talkRole": {
                "type": "TALK_ROLE_NPC",
                "id": "1060"
            },
            "talkContentTextMapHash": 12691818,
            "talkAssetPath": "",
            "talkAssetPathAlter": "",
            "talkAudioName": "",
            "actionBefore": "",
            "actionWhile": "",
            "actionAfter": "",
            "optionIcon": ""
        },
        {
            "id": 401240025,
            "nextDialogs": [
                401240026
            ],
            "talkRole": {
                "type": "TALK_ROLE_NPC",
                "id": "1021"
            },
            "talkContentTextMapHash": 54748514,
            "talkAssetPath": "",
            "talkAssetPathAlter": "",
            "talkAudioName": "",
            "actionBefore": "",
            "actionWhile": "",
            "actionAfter": "",
            "optionIcon": ""
        },
        {
            "id": 401240026,
            "nextDialogs": [
                401240027
            ],
            "talkRole": {
                "type": "TALK_ROLE_NPC",
                "id": "1060"
            },
            "talkContentTextMapHash": 4037960442,
            "talkAssetPath": "",
            "talkAssetPathAlter": "",
            "talkAudioName": "",
            "actionBefore": "",
            "actionWhile": "",
            "actionAfter": "",
            "optionIcon": ""
        },
        {
            "id": 401240027,
            "nextDialogs": [
                401240028
            ],
            "talkRole": {
                "type": "TALK_ROLE_NPC",
                "id": "1027"
            },
            "talkContentTextMapHash": 3604387458,
            "talkAssetPath": "",
            "talkAssetPathAlter": "",
            "talkAudioName": "",
            "actionBefore": "",
            "actionWhile": "",
            "actionAfter": "",
            "optionIcon": ""
        },
        {
            "id": 401240028,
            "nextDialogs": [
                401240029
            ],
            "talkRole": {
                "type": "TALK_ROLE_NPC",
                "id": "1027"
            },
            "talkContentTextMapHash": 1628918018,
            "talkAssetPath": "",
            "talkAssetPathAlter": "",
            "talkAudioName": "",
            "actionBefore": "",
            "actionWhile": "",
            "actionAfter": "",
            "optionIcon": ""
        },
        {
            "id": 401240029,
            "nextDialogs": [
                401240030
            ],
            "talkRole": {
                "type": "TALK_ROLE_NPC",
                "id": "13431"
            },
            "talkContentTextMapHash": 618409682,
            "talkAssetPath": "",
            "talkAssetPathAlter": "",
            "talkAudioName": "",
            "actionBefore": "",
            "actionWhile": "",
            "actionAfter": "",
            "optionIcon": ""
        },
        {
            "id": 401240030,
            "nextDialogs": [
                401240031
            ],
            "talkRole": {
                "type": "TALK_ROLE_NPC",
                "id": "1005"
            },
            "talkContentTextMapHash": 800906826,
            "talkAssetPath": "",
            "talkAssetPathAlter": "",
            "talkAudioName": "",
            "actionBefore": "",
            "actionWhile": "",
            "actionAfter": "",
            "optionIcon": ""
        },
        {
            "id": 401240031,
            "nextDialogs": [
                401240032
            ],
            "talkRole": {
                "type": "TALK_ROLE_NPC",
                "id": "1005"
            },
            "talkContentTextMapHash": 2274939498,
            "talkAssetPath": "",
            "talkAssetPathAlter": "",
            "talkAudioName": "",
            "actionBefore": "",
            "actionWhile": "",
            "actionAfter": "",
            "optionIcon": ""
        },
        {
            "id": 401240032,
            "nextDialogs": [
                401240033
            ],
            "talkShowType": "TALK_SHOW_FORCE_SELECT",
            "talkRole": {
                "type": "TALK_ROLE_PLAYER",
                "id": ""
            },
            "talkContentTextMapHash": 242118258,
            "talkAssetPath": "",
            "talkAssetPathAlter": "",
            "talkAudioName": "",
            "actionBefore": "",
            "actionWhile": "",
            "actionAfter": "",
            "optionIcon": ""
        },
        {
            "id": 401240033,
            "nextDialogs": [
                401240034,
                401240035
            ],
            "talkRole": {
                "type": "TALK_ROLE_NPC",
                "id": "1005"
            },
            "talkContentTextMapHash": 1994469378,
            "talkAssetPath": "",
            "talkAssetPathAlter": "",
            "talkAudioName": "",
            "actionBefore": "",
            "actionWhile": "",
            "actionAfter": "",
            "optionIcon": ""
        },
        {
            "id": 401240034,
            "nextDialogs": [
                401240036
            ],
            "talkRole": {
                "type": "TALK_ROLE_PLAYER",
                "id": ""
            },
            "talkContentTextMapHash": 286178738,
            "talkAssetPath": "",
            "talkAssetPathAlter": "",
            "talkAudioName": "",
            "actionBefore": "",
            "actionWhile": "",
            "actionAfter": "",
            "optionIcon": ""
        },
        {
            "id": 401240036,
            "nextDialogs": [
                401240037
            ],
            "talkRole": {
                "type": "TALK_ROLE_NPC",
                "id": "1005"
            },
            "talkContentTextMapHash": 1926205298,
            "talkAssetPath": "",
            "talkAssetPathAlter": "",
            "talkAudioName": "",
            "actionBefore": "",
            "actionWhile": "",
            "actionAfter": "",
            "optionIcon": ""
        },
        {
            "id": 401240037,
            "nextDialogs": [
                401240038
            ],
            "talkRole": {
                "type": "TALK_ROLE_NPC",
                "id": "1005"
            },
            "talkContentTextMapHash": 3748467010,
            "talkAssetPath": "",
            "talkAssetPathAlter": "",
            "talkAudioName": "",
            "actionBefore": "",
            "actionWhile": "",
            "actionAfter": "",
            "optionIcon": ""
        },
        {
            "id": 401240038,
            "nextDialogs": [
                401240039
            ],
            "talkRole": {
                "type": "TALK_ROLE_NPC",
                "id": "1005"
            },
            "talkContentTextMapHash": 3972253298,
            "talkAssetPath": "",
            "talkAssetPathAlter": "",
            "talkAudioName": "",
            "actionBefore": "",
            "actionWhile": "",
            "actionAfter": "",
            "optionIcon": ""
        },
        {
            "id": 401240039,
            "nextDialogs": [
                401240040
            ],
            "talkShowType": "TALK_SHOW_FORCE_SELECT",
            "talkRole": {
                "type": "TALK_ROLE_PLAYER",
                "id": ""
            },
            "talkContentTextMapHash": 1043504714,
            "talkAssetPath": "",
            "talkAssetPathAlter": "",
            "talkAudioName": "",
            "actionBefore": "",
            "actionWhile": "",
            "actionAfter": "",
            "optionIcon": ""
        },
        {
            "id": 401240040,
            "nextDialogs": [
                401240041
            ],
            "talkRole": {
                "type": "TALK_ROLE_NPC",
                "id": "1005"
            },
            "talkContentTextMapHash": 4189177450,
            "talkAssetPath": "",
            "talkAssetPathAlter": "",
            "talkAudioName": "",
            "actionBefore": "",
            "actionWhile": "",
            "actionAfter": "",
            "optionIcon": ""
        },
        {
            "id": 401240041,
            "nextDialogs": [
                401240042
            ],
            "talkRole": {
                "type": "TALK_ROLE_NPC",
                "id": "1021"
            },
            "talkContentTextMapHash": 1853505682,
            "talkAssetPath": "",
            "talkAssetPathAlter": "",
            "talkAudioName": "",
            "actionBefore": "",
            "actionWhile": "",
            "actionAfter": "",
            "optionIcon": ""
        },
        {
            "id": 401240042,
            "nextDialogs": [
                401240043
            ],
            "talkRole": {
                "type": "TALK_ROLE_NPC",
                "id": "1005"
            },
            "talkContentTextMapHash": 306328850,
            "talkAssetPath": "",
            "talkAssetPathAlter": "",
            "talkAudioName": "",
            "actionBefore": "",
            "actionWhile": "",
            "actionAfter": "",
            "optionIcon": ""
        },
        {
            "id": 401240043,
            "talkRole": {
                "type": "TALK_ROLE_NPC",
                "id": "10232"
            },
            "talkContentTextMapHash": 2893763178,
            "talkAssetPath": "",
            "talkAssetPathAlter": "",
            "talkAudioName": "",
            "actionBefore": "",
            "actionWhile": "",
            "actionAfter": "",
            "optionIcon": ""
        },
        {
            "id": 401240035,
            "nextDialogs": [
                401240036
            ],
            "talkRole": {
                "type": "TALK_ROLE_PLAYER",
                "id": ""
            },
            "talkContentTextMapHash": 225000618,
            "talkAssetPath": "",
            "talkAssetPathAlter": "",
            "talkAudioName": "",
            "actionBefore": "",
            "actionWhile": "",
            "actionAfter": "",
            "optionIcon": ""
        },
        {
            "id": 401241194,
            "nextDialogs": [
                401241195
            ],
            "talkRole": {
                "type": "TALK_ROLE_PLAYER",
                "id": ""
            },
            "talkContentTextMapHash": 891270754,
            "talkAssetPath": "",
            "talkAssetPathAlter": "",
            "talkAudioName": "",
            "actionBefore": "",
            "actionWhile": "",
            "actionAfter": "",
            "optionIcon": ""
        },
        {
            "id": 401241186,
            "nextDialogs": [
                401241187
            ],
            "talkRole": {
                "type": "TALK_ROLE_PLAYER",
                "id": ""
            },
            "talkContentTextMapHash": 4095554178,
            "talkAssetPath": "",
            "talkAssetPathAlter": "",
            "talkAudioName": "",
            "actionBefore": "",
            "actionWhile": "",
            "actionAfter": "",
            "optionIcon": ""
        },
        {
            "id": 401241180,
            "nextDialogs": [
                401241181
            ],
            "talkRole": {
                "type": "TALK_ROLE_PLAYER",
                "id": ""
            },
            "talkContentTextMapHash": 1987796930,
            "talkAssetPath": "",
            "talkAssetPathAlter": "",
            "talkAudioName": "",
            "actionBefore": "",
            "actionWhile": "",
            "actionAfter": "",
            "optionIcon": ""
        },
        {
            "id": 401241137,
            "nextDialogs": [
                401241138
            ],
            "talkRole": {
                "type": "TALK_ROLE_PLAYER",
                "id": ""
            },
            "talkContentTextMapHash": 530226778,
            "talkAssetPath": "",
            "talkAssetPathAlter": "",
            "talkAudioName": "",
            "actionBefore": "",
            "actionWhile": "",
            "actionAfter": "",
            "optionIcon": ""
        }
    ]
}