{
    "FEOACBMDCKJ": 4013505,
    "AAOAAFLLOJI": [
        {
            "CCFPGAKINNB": 401350501,
            "FNNPCGIAELE": [
                401350502
            ],
            "HJLEMJIGNFE": {
                "type": "TALK_ROLE_NPC",
                "id": "1005"
            },
            "BDOKCLNNDGN": 101868370,
            "LBIALGEBDEF": "",
            "OHKKBEPEBKH": "",
            "AMNGMAPONHL": "",
            "IANGBGFBILD": "",
            "ADGDAEPIILL": "",
            "DGJCJLLDMON": "",
            "DOCDFJJIDNG": ""
        },
        {
            "CCFPGAKINNB": 401350502,
            "FNNPCGIAELE": [
                401350503
            ],
            "HJLEMJIGNFE": {
                "type": "TALK_ROLE_NPC",
                "id": "1073"
            },
            "BDOKCLNNDGN": 3903529290,
            "LBIALGEBDEF": "",
            "OHKKBEPEBKH": "",
            "AMNGMAPONHL": "",
            "IANGBGFBILD": "",
            "ADGDAEPIILL": "",
            "DGJCJLLDMON": "",
            "DOCDFJJIDNG": ""
        },
        {
            "CCFPGAKINNB": 401350503,
            "FNNPCGIAELE": [
                401350504
            ],
            "HJLEMJIGNFE": {
                "type": "TALK_ROLE_NPC",
                "id": "1005"
            },
            "BDOKCLNNDGN": 1392880330,
            "LBIALGEBDEF": "",
            "OHKKBEPEBKH": "",
            "AMNGMAPONHL": "",
            "IANGBGFBILD": "",
            "ADGDAEPIILL": "",
            "DGJCJLLDMON": "",
            "DOCDFJJIDNG": ""
        },
        {
            "CCFPGAKINNB": 401350504,
            "FNNPCGIAELE": [
                401350505
            ],
            "HJLEMJIGNFE": {
                "type": "TALK_ROLE_NPC",
                "id": "1005"
            },
            "BDOKCLNNDGN": 2072818674,
            "LBIALGEBDEF": "",
            "OHKKBEPEBKH": "",
            "AMNGMAPONHL": "",
            "IANGBGFBILD": "",
            "ADGDAEPIILL": "",
            "DGJCJLLDMON": "",
            "DOCDFJJIDNG": ""
        },
        {
            "CCFPGAKINNB": 401350505,
            "FNNPCGIAELE": [
                401350506
            ],
            "HJLEMJIGNFE": {
                "type": "TALK_ROLE_NPC",
                "id": "1073"
            },
            "BDOKCLNNDGN": 1779480794,
            "LBIALGEBDEF": "",
            "OHKKBEPEBKH": "",
            "AMNGMAPONHL": "",
            "IANGBGFBILD": "",
            "ADGDAEPIILL": "",
            "DGJCJLLDMON": "",
            "DOCDFJJIDNG": ""
        },
        {
            "CCFPGAKINNB": 401350506,
            "FNNPCGIAELE": [
                401350507
            ],
            "HJLEMJIGNFE": {
                "type": "TALK_ROLE_NPC",
                "id": "1005"
            },
            "BDOKCLNNDGN": 3228554922,
            "LBIALGEBDEF": "",
            "OHKKBEPEBKH": "",
            "AMNGMAPONHL": "",
            "IANGBGFBILD": "",
            "ADGDAEPIILL": "",
            "DGJCJLLDMON": "",
            "DOCDFJJIDNG": ""
        },
        {
            "CCFPGAKINNB": 401350507,
            "FNNPCGIAELE": [
                401350508
            ],
            "HJLEMJIGNFE": {
                "type": "TALK_ROLE_NPC",
                "id": "1073"
            },
            "BDOKCLNNDGN": 2762573578,
            "LBIALGEBDEF": "",
            "OHKKBEPEBKH": "",
            "AMNGMAPONHL": "",
            "IANGBGFBILD": "",
            "ADGDAEPIILL": "",
            "DGJCJLLDMON": "",
            "DOCDFJJIDNG": ""
        },
        {
            "CCFPGAKINNB": 401350508,
            "FNNPCGIAELE": [
                401350509
            ],
            "ICCDGHCECJG": "TALK_SHOW_FORCE_SELECT",
            "HJLEMJIGNFE": {
                "type": "TALK_ROLE_PLAYER",
                "id": ""
            },
            "BDOKCLNNDGN": 3859185810,
            "LBIALGEBDEF": "",
            "OHKKBEPEBKH": "",
            "AMNGMAPONHL": "",
            "IANGBGFBILD": "",
            "ADGDAEPIILL": "",
            "DGJCJLLDMON": "",
            "DOCDFJJIDNG": ""
        },
        {
            "CCFPGAKINNB": 401350509,
            "FNNPCGIAELE": [
                401350510
            ],
            "HJLEMJIGNFE": {
                "type": "TALK_ROLE_NPC",
                "id": "1073"
            },
            "BDOKCLNNDGN": 463888490,
            "LBIALGEBDEF": "",
            "OHKKBEPEBKH": "",
            "AMNGMAPONHL": "",
            "IANGBGFBILD": "",
            "ADGDAEPIILL": "",
            "DGJCJLLDMON": "",
            "DOCDFJJIDNG": ""
        },
        {
            "CCFPGAKINNB": 401350510,
            "FNNPCGIAELE": [
                401350511
            ],
            "HJLEMJIGNFE": {
                "type": "TALK_ROLE_NPC",
                "id": "1005"
            },
            "BDOKCLNNDGN": 2156813346,
            "LBIALGEBDEF": "",
            "OHKKBEPEBKH": "",
            "AMNGMAPONHL": "",
            "IANGBGFBILD": "",
            "ADGDAEPIILL": "",
            "DGJCJLLDMON": "",
            "DOCDFJJIDNG": ""
        },
        {
            "CCFPGAKINNB": 401350511,
            "FNNPCGIAELE": [
                401350512
            ],
            "HJLEMJIGNFE": {
                "type": "TALK_ROLE_NPC",
                "id": "1073"
            },
            "BDOKCLNNDGN": 1177084106,
            "LBIALGEBDEF": "",
            "OHKKBEPEBKH": "",
            "AMNGMAPONHL": "",
            "IANGBGFBILD": "",
            "ADGDAEPIILL": "",
            "DGJCJLLDMON": "",
            "DOCDFJJIDNG": ""
        },
        {
            "CCFPGAKINNB": 401350512,
            "FNNPCGIAELE": [
                401350513
            ],
            "HJLEMJIGNFE": {
                "type": "TALK_ROLE_NPC",
                "id": "1005"
            },
            "BDOKCLNNDGN": 2959987298,
            "LBIALGEBDEF": "",
            "OHKKBEPEBKH": "",
            "AMNGMAPONHL": "",
            "IANGBGFBILD": "",
            "ADGDAEPIILL": "",
            "DGJCJLLDMON": "",
            "DOCDFJJIDNG": ""
        },
        {
            "CCFPGAKINNB": 401350513,
            "HJLEMJIGNFE": {
                "type": "TALK_ROLE_NPC",
                "id": "1073"
            },
            "BDOKCLNNDGN": 1265575274,
            "LBIALGEBDEF": "",
            "OHKKBEPEBKH": "",
            "AMNGMAPONHL": "",
            "IANGBGFBILD": "",
            "ADGDAEPIILL": "",
            "DGJCJLLDMON": "",
            "DOCDFJJIDNG": ""
        }
    ]
}