{
    "FEOACBMDCKJ": 4013524,
    "AAOAAFLLOJI": [
        {
            "CCFPGAKINNB": 401352401,
            "HJLEMJIGNFE": {
                "type": "TALK_ROLE_NPC",
                "id": "1073"
            },
            "BDOKCLNNDGN": 568461538,
            "LBIALGEBDEF": "",
            "OHKKBEPEBKH": "",
            "AMNGMAPONHL": "",
            "IANGBGFBILD": "",
            "ADGDAEPIILL": "",
            "DGJCJLLDMON": "",
            "DOCDFJJIDNG": ""
        }
    ]
}