{
    "talkId": 4013934,
    "dialogList": [
        {
            "id": 401393401,
            "nextDialogs": [
                401393402
            ],
            "talkRole": {
                "type": "TALK_ROLE_NPC",
                "id": "13890"
            },
            "talkContentTextMapHash": 3386636194,
            "talkAssetPath": "",
            "talkAssetPathAlter": "",
            "talkAudioName": "",
            "actionBefore": "",
            "actionWhile": "",
            "actionAfter": "",
            "optionIcon": ""
        },
        {
            "id": 401393402,
            "talkRole": {
                "type": "TALK_ROLE_NPC",
                "id": "13890"
            },
            "talkContentTextMapHash": 2255030042,
            "talkAssetPath": "",
            "talkAssetPathAlter": "",
            "talkAudioName": "",
            "actionBefore": "",
            "actionWhile": "",
            "actionAfter": "",
            "optionIcon": ""
        }
    ]
}