{
    "talkId": 402206,
    "dialogList": [
        {
            "id": 40220601,
            "nextDialogs": [
                40220602
            ],
            "talkRole": {
                "type": "TALK_ROLE_NPC",
                "id": "1005"
            },
            "talkContentTextMapHash": 1121578818,
            "talkAssetPath": "",
            "talkAssetPathAlter": "",
            "talkAudioName": "",
            "actionBefore": "",
            "actionWhile": "",
            "actionAfter": "",
            "optionIcon": ""
        },
        {
            "id": 40220602,
            "nextDialogs": [
                40220603
            ],
            "talkRole": {
                "type": "TALK_ROLE_NPC",
                "id": "1005"
            },
            "talkContentTextMapHash": 2391324858,
            "talkAssetPath": "",
            "talkAssetPathAlter": "",
            "talkAudioName": "",
            "actionBefore": "",
            "actionWhile": "",
            "actionAfter": "",
            "optionIcon": ""
        },
        {
            "id": 40220603,
            "nextDialogs": [
                40220604,
                40220605
            ],
            "talkRole": {
                "type": "TALK_ROLE_NPC",
                "id": "1076"
            },
            "talkContentTextMapHash": 1046297690,
            "talkAssetPath": "",
            "talkAssetPathAlter": "",
            "talkAudioName": "",
            "actionBefore": "",
            "actionWhile": "",
            "actionAfter": "",
            "optionIcon": ""
        },
        {
            "id": 40220604,
            "nextDialogs": [
                40220606
            ],
            "talkRole": {
                "type": "TALK_ROLE_PLAYER",
                "id": ""
            },
            "talkContentTextMapHash": 1633340610,
            "talkAssetPath": "",
            "talkAssetPathAlter": "",
            "talkAudioName": "",
            "actionBefore": "",
            "actionWhile": "",
            "actionAfter": "",
            "optionIcon": ""
        },
        {
            "id": 40220606,
            "nextDialogs": [
                40220607
            ],
            "talkRole": {
                "type": "TALK_ROLE_NPC",
                "id": "1072"
            },
            "talkContentTextMapHash": 1090496730,
            "talkAssetPath": "",
            "talkAssetPathAlter": "",
            "talkAudioName": "",
            "actionBefore": "",
            "actionWhile": "",
            "actionAfter": "",
            "optionIcon": ""
        },
        {
            "id": 40220607,
            "nextDialogs": [
                40220608
            ],
            "talkRole": {
                "type": "TALK_ROLE_NPC",
                "id": "1071"
            },
            "talkContentTextMapHash": 2812046818,
            "talkAssetPath": "",
            "talkAssetPathAlter": "",
            "talkAudioName": "",
            "actionBefore": "",
            "actionWhile": "",
            "actionAfter": "",
            "optionIcon": ""
        },
        {
            "id": 40220608,
            "nextDialogs": [
                40220609
            ],
            "talkRole": {
                "type": "TALK_ROLE_NPC",
                "id": "1005"
            },
            "talkContentTextMapHash": 4093497234,
            "talkAssetPath": "",
            "talkAssetPathAlter": "",
            "talkAudioName": "",
            "actionBefore": "",
            "actionWhile": "",
            "actionAfter": "",
            "optionIcon": ""
        },
        {
            "id": 40220609,
            "nextDialogs": [
                40220610
            ],
            "talkRole": {
                "type": "TALK_ROLE_NPC",
                "id": "1005"
            },
            "talkContentTextMapHash": 1273253290,
            "talkAssetPath": "",
            "talkAssetPathAlter": "",
            "talkAudioName": "",
            "actionBefore": "",
            "actionWhile": "",
            "actionAfter": "",
            "optionIcon": ""
        },
        {
            "id": 40220610,
            "nextDialogs": [
                40220611
            ],
            "talkRole": {
                "type": "TALK_ROLE_NPC",
                "id": "1005"
            },
            "talkContentTextMapHash": 4156617746,
            "talkAssetPath": "",
            "talkAssetPathAlter": "",
            "talkAudioName": "",
            "actionBefore": "",
            "actionWhile": "",
            "actionAfter": "",
            "optionIcon": ""
        },
        {
            "id": 40220611,
            "nextDialogs": [
                40220612,
                40220613
            ],
            "talkRole": {
                "type": "TALK_ROLE_NPC",
                "id": "1076"
            },
            "talkContentTextMapHash": 1800284906,
            "talkAssetPath": "",
            "talkAssetPathAlter": "",
            "talkAudioName": "",
            "actionBefore": "",
            "actionWhile": "",
            "actionAfter": "",
            "optionIcon": ""
        },
        {
            "id": 40220612,
            "nextDialogs": [
                40220614
            ],
            "talkRole": {
                "type": "TALK_ROLE_PLAYER",
                "id": ""
            },
            "talkContentTextMapHash": 2278770218,
            "talkAssetPath": "",
            "talkAssetPathAlter": "",
            "talkAudioName": "",
            "actionBefore": "",
            "actionWhile": "",
            "actionAfter": "",
            "optionIcon": ""
        },
        {
            "id": 40220614,
            "nextDialogs": [
                40220615
            ],
            "talkRole": {
                "type": "TALK_ROLE_NPC",
                "id": "1005"
            },
            "talkContentTextMapHash": 820809594,
            "talkAssetPath": "",
            "talkAssetPathAlter": "",
            "talkAudioName": "",
            "actionBefore": "",
            "actionWhile": "",
            "actionAfter": "",
            "optionIcon": ""
        },
        {
            "id": 40220615,
            "nextDialogs": [
                40220616
            ],
            "talkRole": {
                "type": "TALK_ROLE_NPC",
                "id": "1005"
            },
            "talkContentTextMapHash": 4161763338,
            "talkAssetPath": "",
            "talkAssetPathAlter": "",
            "talkAudioName": "",
            "actionBefore": "",
            "actionWhile": "",
            "actionAfter": "",
            "optionIcon": ""
        },
        {
            "id": 40220616,
            "nextDialogs": [
                40220617
            ],
            "talkRole": {
                "type": "TALK_ROLE_NPC",
                "id": "1075"
            },
            "talkContentTextMapHash": 147480314,
            "talkAssetPath": "",
            "talkAssetPathAlter": "",
            "talkAudioName": "",
            "actionBefore": "",
            "actionWhile": "",
            "actionAfter": "",
            "optionIcon": ""
        },
        {
            "id": 40220617,
            "nextDialogs": [
                40220618,
                40220619
            ],
            "talkRole": {
                "type": "TALK_ROLE_NPC",
                "id": "1076"
            },
            "talkContentTextMapHash": 923710498,
            "talkAssetPath": "",
            "talkAssetPathAlter": "",
            "talkAudioName": "",
            "actionBefore": "",
            "actionWhile": "",
            "actionAfter": "",
            "optionIcon": ""
        },
        {
            "id": 40220618,
            "nextDialogs": [
                40220620
            ],
            "talkRole": {
                "type": "TALK_ROLE_PLAYER",
                "id": ""
            },
            "talkContentTextMapHash": 1049887730,
            "talkAssetPath": "",
            "talkAssetPathAlter": "",
            "talkAudioName": "",
            "actionBefore": "",
            "actionWhile": "",
            "actionAfter": "",
            "optionIcon": ""
        },
        {
            "id": 40220620,
            "nextDialogs": [
                40220621
            ],
            "talkRole": {
                "type": "TALK_ROLE_NPC",
                "id": "1005"
            },
            "talkContentTextMapHash": 2755979722,
            "talkAssetPath": "",
            "talkAssetPathAlter": "",
            "talkAudioName": "",
            "actionBefore": "",
            "actionWhile": "",
            "actionAfter": "",
            "optionIcon": ""
        },
        {
            "id": 40220621,
            "nextDialogs": [
                40220622,
                40220623
            ],
            "talkRole": {
                "type": "TALK_ROLE_NPC",
                "id": "1005"
            },
            "talkContentTextMapHash": 2538608130,
            "talkAssetPath": "",
            "talkAssetPathAlter": "",
            "talkAudioName": "",
            "actionBefore": "",
            "actionWhile": "",
            "actionAfter": "",
            "optionIcon": ""
        },
        {
            "id": 40220622,
            "nextDialogs": [
                40220624
            ],
            "talkRole": {
                "type": "TALK_ROLE_PLAYER",
                "id": ""
            },
            "talkContentTextMapHash": 2949360898,
            "talkAssetPath": "",
            "talkAssetPathAlter": "",
            "talkAudioName": "",
            "actionBefore": "",
            "actionWhile": "",
            "actionAfter": "",
            "optionIcon": ""
        },
        {
            "id": 40220624,
            "nextDialogs": [
                40220625
            ],
            "talkRole": {
                "type": "TALK_ROLE_NPC",
                "id": "1005"
            },
            "talkContentTextMapHash": 4072768346,
            "talkAssetPath": "",
            "talkAssetPathAlter": "",
            "talkAudioName": "",
            "actionBefore": "",
            "actionWhile": "",
            "actionAfter": "",
            "optionIcon": ""
        },
        {
            "id": 40220625,
            "nextDialogs": [
                40220626
            ],
            "talkRole": {
                "type": "TALK_ROLE_NPC",
                "id": "1005"
            },
            "talkContentTextMapHash": 1902539970,
            "talkAssetPath": "",
            "talkAssetPathAlter": "",
            "talkAudioName": "",
            "actionBefore": "",
            "actionWhile": "",
            "actionAfter": "",
            "optionIcon": ""
        },
        {
            "id": 40220626,
            "nextDialogs": [
                40220627
            ],
            "talkRole": {
                "type": "TALK_ROLE_NPC",
                "id": "1076"
            },
            "talkContentTextMapHash": 3434247626,
            "talkAssetPath": "",
            "talkAssetPathAlter": "",
            "talkAudioName": "",
            "actionBefore": "",
            "actionWhile": "",
            "actionAfter": "",
            "optionIcon": ""
        },
        {
            "id": 40220627,
            "nextDialogs": [
                40220628
            ],
            "talkRole": {
                "type": "TALK_ROLE_NPC",
                "id": "1076"
            },
            "talkContentTextMapHash": 1366785050,
            "talkAssetPath": "",
            "talkAssetPathAlter": "",
            "talkAudioName": "",
            "actionBefore": "",
            "actionWhile": "",
            "actionAfter": "",
            "optionIcon": ""
        },
        {
            "id": 40220628,
            "nextDialogs": [
                40220629
            ],
            "talkRole": {
                "type": "TALK_ROLE_NPC",
                "id": "1076"
            },
            "talkContentTextMapHash": 1419301986,
            "talkAssetPath": "",
            "talkAssetPathAlter": "",
            "talkAudioName": "",
            "actionBefore": "",
            "actionWhile": "",
            "actionAfter": "",
            "optionIcon": ""
        },
        {
            "id": 40220629,
            "nextDialogs": [
                40220630
            ],
            "talkRole": {
                "type": "TALK_ROLE_NPC",
                "id": "1076"
            },
            "talkContentTextMapHash": 2716754338,
            "talkAssetPath": "",
            "talkAssetPathAlter": "",
            "talkAudioName": "",
            "actionBefore": "",
            "actionWhile": "",
            "actionAfter": "",
            "optionIcon": ""
        },
        {
            "id": 40220630,
            "nextDialogs": [
                40220631
            ],
            "talkRole": {
                "type": "TALK_ROLE_NPC",
                "id": "1076"
            },
            "talkContentTextMapHash": 3521768170,
            "talkAssetPath": "",
            "talkAssetPathAlter": "",
            "talkAudioName": "",
            "actionBefore": "",
            "actionWhile": "",
            "actionAfter": "",
            "optionIcon": ""
        },
        {
            "id": 40220631,
            "nextDialogs": [
                40220632
            ],
            "talkRole": {
                "type": "TALK_ROLE_NPC",
                "id": "1005"
            },
            "talkContentTextMapHash": 1420427506,
            "talkAssetPath": "",
            "talkAssetPathAlter": "",
            "talkAudioName": "",
            "actionBefore": "",
            "actionWhile": "",
            "actionAfter": "",
            "optionIcon": ""
        },
        {
            "id": 40220632,
            "nextDialogs": [
                40220633
            ],
            "talkRole": {
                "type": "TALK_ROLE_NPC",
                "id": "1076"
            },
            "talkContentTextMapHash": 3459493682,
            "talkAssetPath": "",
            "talkAssetPathAlter": "",
            "talkAudioName": "",
            "actionBefore": "",
            "actionWhile": "",
            "actionAfter": "",
            "optionIcon": ""
        },
        {
            "id": 40220633,
            "nextDialogs": [
                40220634
            ],
            "talkRole": {
                "type": "TALK_ROLE_NPC",
                "id": "1076"
            },
            "talkContentTextMapHash": 1093672930,
            "talkAssetPath": "",
            "talkAssetPathAlter": "",
            "talkAudioName": "",
            "actionBefore": "",
            "actionWhile": "",
            "actionAfter": "",
            "optionIcon": ""
        },
        {
            "id": 40220634,
            "nextDialogs": [
                40220635
            ],
            "talkRole": {
                "type": "TALK_ROLE_NPC",
                "id": "1076"
            },
            "talkContentTextMapHash": 4035990514,
            "talkAssetPath": "",
            "talkAssetPathAlter": "",
            "talkAudioName": "",
            "actionBefore": "",
            "actionWhile": "",
            "actionAfter": "",
            "optionIcon": ""
        },
        {
            "id": 40220635,
            "nextDialogs": [
                40220636
            ],
            "talkRole": {
                "type": "TALK_ROLE_NPC",
                "id": "1076"
            },
            "talkContentTextMapHash": 4111531778,
            "talkAssetPath": "",
            "talkAssetPathAlter": "",
            "talkAudioName": "",
            "actionBefore": "",
            "actionWhile": "",
            "actionAfter": "",
            "optionIcon": ""
        },
        {
            "id": 40220636,
            "nextDialogs": [
                40220637
            ],
            "talkRole": {
                "type": "TALK_ROLE_NPC",
                "id": "1076"
            },
            "talkContentTextMapHash": 3306190234,
            "talkAssetPath": "",
            "talkAssetPathAlter": "",
            "talkAudioName": "",
            "actionBefore": "",
            "actionWhile": "",
            "actionAfter": "",
            "optionIcon": ""
        },
        {
            "id": 40220637,
            "nextDialogs": [
                40220638
            ],
            "talkRole": {
                "type": "TALK_ROLE_NPC",
                "id": "1076"
            },
            "talkContentTextMapHash": 3294880386,
            "talkAssetPath": "",
            "talkAssetPathAlter": "",
            "talkAudioName": "",
            "actionBefore": "",
            "actionWhile": "",
            "actionAfter": "",
            "optionIcon": ""
        },
        {
            "id": 40220638,
            "nextDialogs": [
                40220639
            ],
            "talkRole": {
                "type": "TALK_ROLE_NPC",
                "id": "1076"
            },
            "talkContentTextMapHash": 560836706,
            "talkAssetPath": "",
            "talkAssetPathAlter": "",
            "talkAudioName": "",
            "actionBefore": "",
            "actionWhile": "",
            "actionAfter": "",
            "optionIcon": ""
        },
        {
            "id": 40220639,
            "nextDialogs": [
                40220640
            ],
            "talkRole": {
                "type": "TALK_ROLE_NPC",
                "id": "1076"
            },
            "talkContentTextMapHash": 1504872162,
            "talkAssetPath": "",
            "talkAssetPathAlter": "",
            "talkAudioName": "",
            "actionBefore": "",
            "actionWhile": "",
            "actionAfter": "",
            "optionIcon": ""
        },
        {
            "id": 40220640,
            "nextDialogs": [
                40220641
            ],
            "talkRole": {
                "type": "TALK_ROLE_NPC",
                "id": "1076"
            },
            "talkContentTextMapHash": 2941817274,
            "talkAssetPath": "",
            "talkAssetPathAlter": "",
            "talkAudioName": "",
            "actionBefore": "",
            "actionWhile": "",
            "actionAfter": "",
            "optionIcon": ""
        },
        {
            "id": 40220641,
            "nextDialogs": [
                40220642
            ],
            "talkRole": {
                "type": "TALK_ROLE_NPC",
                "id": "1076"
            },
            "talkContentTextMapHash": 261582178,
            "talkAssetPath": "",
            "talkAssetPathAlter": "",
            "talkAudioName": "",
            "actionBefore": "",
            "actionWhile": "",
            "actionAfter": "",
            "optionIcon": ""
        },
        {
            "id": 40220642,
            "nextDialogs": [
                40220643
            ],
            "talkRole": {
                "type": "TALK_ROLE_NPC",
                "id": "1076"
            },
            "talkContentTextMapHash": 4116382874,
            "talkAssetPath": "",
            "talkAssetPathAlter": "",
            "talkAudioName": "",
            "actionBefore": "",
            "actionWhile": "",
            "actionAfter": "",
            "optionIcon": ""
        },
        {
            "id": 40220643,
            "nextDialogs": [
                40220644
            ],
            "talkRole": {
                "type": "TALK_ROLE_NPC",
                "id": "13762"
            },
            "talkContentTextMapHash": 2326530426,
            "talkAssetPath": "",
            "talkAssetPathAlter": "",
            "talkAudioName": "",
            "actionBefore": "",
            "actionWhile": "",
            "actionAfter": "",
            "optionIcon": ""
        },
        {
            "id": 40220644,
            "nextDialogs": [
                40220645
            ],
            "talkRole": {
                "type": "TALK_ROLE_NPC",
                "id": "13763"
            },
            "talkContentTextMapHash": 2966478450,
            "talkAssetPath": "",
            "talkAssetPathAlter": "",
            "talkAudioName": "",
            "actionBefore": "",
            "actionWhile": "",
            "actionAfter": "",
            "optionIcon": ""
        },
        {
            "id": 40220645,
            "nextDialogs": [
                40220646
            ],
            "talkRole": {
                "type": "TALK_ROLE_NPC",
                "id": "13764"
            },
            "talkContentTextMapHash": 4262331082,
            "talkAssetPath": "",
            "talkAssetPathAlter": "",
            "talkAudioName": "",
            "actionBefore": "",
            "actionWhile": "",
            "actionAfter": "",
            "optionIcon": ""
        },
        {
            "id": 40220646,
            "nextDialogs": [
                40220647
            ],
            "talkRole": {
                "type": "TALK_ROLE_NPC",
                "id": "1005"
            },
            "talkContentTextMapHash": 4293256946,
            "talkAssetPath": "",
            "talkAssetPathAlter": "",
            "talkAudioName": "",
            "actionBefore": "",
            "actionWhile": "",
            "actionAfter": "",
            "optionIcon": ""
        },
        {
            "id": 40220647,
            "nextDialogs": [
                40220648,
                40220649
            ],
            "talkRole": {
                "type": "TALK_ROLE_NPC",
                "id": "1076"
            },
            "talkContentTextMapHash": 1318893458,
            "talkAssetPath": "",
            "talkAssetPathAlter": "",
            "talkAudioName": "",
            "actionBefore": "",
            "actionWhile": "",
            "actionAfter": "",
            "optionIcon": ""
        },
        {
            "id": 40220648,
            "nextDialogs": [
                40220650
            ],
            "talkRole": {
                "type": "TALK_ROLE_PLAYER",
                "id": ""
            },
            "talkContentTextMapHash": 403109474,
            "talkAssetPath": "",
            "talkAssetPathAlter": "",
            "talkAudioName": "",
            "actionBefore": "",
            "actionWhile": "",
            "actionAfter": "",
            "optionIcon": ""
        },
        {
            "id": 40220650,
            "nextDialogs": [
                40220651
            ],
            "talkRole": {
                "type": "TALK_ROLE_NPC",
                "id": "1076"
            },
            "talkContentTextMapHash": 3380023834,
            "talkAssetPath": "",
            "talkAssetPathAlter": "",
            "talkAudioName": "",
            "actionBefore": "",
            "actionWhile": "",
            "actionAfter": "",
            "optionIcon": ""
        },
        {
            "id": 40220651,
            "nextDialogs": [
                40220652
            ],
            "talkRole": {
                "type": "TALK_ROLE_NPC",
                "id": "1076"
            },
            "talkContentTextMapHash": 3121483962,
            "talkAssetPath": "",
            "talkAssetPathAlter": "",
            "talkAudioName": "",
            "actionBefore": "",
            "actionWhile": "",
            "actionAfter": "",
            "optionIcon": ""
        },
        {
            "id": 40220652,
            "nextDialogs": [
                40220653
            ],
            "talkRole": {
                "type": "TALK_ROLE_NPC",
                "id": "1076"
            },
            "talkContentTextMapHash": 409613706,
            "talkAssetPath": "",
            "talkAssetPathAlter": "",
            "talkAudioName": "",
            "actionBefore": "",
            "actionWhile": "",
            "actionAfter": "",
            "optionIcon": ""
        },
        {
            "id": 40220653,
            "nextDialogs": [
                40220654
            ],
            "talkRole": {
                "type": "TALK_ROLE_NPC",
                "id": "1076"
            },
            "talkContentTextMapHash": 3871166138,
            "talkAssetPath": "",
            "talkAssetPathAlter": "",
            "talkAudioName": "",
            "actionBefore": "",
            "actionWhile": "",
            "actionAfter": "",
            "optionIcon": ""
        },
        {
            "id": 40220654,
            "nextDialogs": [
                40220655
            ],
            "talkRole": {
                "type": "TALK_ROLE_NPC",
                "id": "1076"
            },
            "talkContentTextMapHash": 649562170,
            "talkAssetPath": "",
            "talkAssetPathAlter": "",
            "talkAudioName": "",
            "actionBefore": "",
            "actionWhile": "",
            "actionAfter": "",
            "optionIcon": ""
        },
        {
            "id": 40220655,
            "nextDialogs": [
                40220656,
                40220657
            ],
            "talkRole": {
                "type": "TALK_ROLE_NPC",
                "id": "1076"
            },
            "talkContentTextMapHash": 4234514706,
            "talkAssetPath": "",
            "talkAssetPathAlter": "",
            "talkAudioName": "",
            "actionBefore": "",
            "actionWhile": "",
            "actionAfter": "",
            "optionIcon": ""
        },
        {
            "id": 40220656,
            "nextDialogs": [
                40220658
            ],
            "talkRole": {
                "type": "TALK_ROLE_PLAYER",
                "id": ""
            },
            "talkContentTextMapHash": 3184347226,
            "talkAssetPath": "",
            "talkAssetPathAlter": "",
            "talkAudioName": "",
            "actionBefore": "",
            "actionWhile": "",
            "actionAfter": "",
            "optionIcon": ""
        },
        {
            "id": 40220658,
            "nextDialogs": [
                40220659
            ],
            "talkRole": {
                "type": "TALK_ROLE_NPC",
                "id": "1076"
            },
            "talkContentTextMapHash": 894711178,
            "talkAssetPath": "",
            "talkAssetPathAlter": "",
            "talkAudioName": "",
            "actionBefore": "",
            "actionWhile": "",
            "actionAfter": "",
            "optionIcon": ""
        },
        {
            "id": 40220659,
            "nextDialogs": [
                40220660
            ],
            "talkRole": {
                "type": "TALK_ROLE_NPC",
                "id": "1075"
            },
            "talkContentTextMapHash": 4231101210,
            "talkAssetPath": "",
            "talkAssetPathAlter": "",
            "talkAudioName": "",
            "actionBefore": "",
            "actionWhile": "",
            "actionAfter": "",
            "optionIcon": ""
        },
        {
            "id": 40220660,
            "nextDialogs": [
                40220661
            ],
            "talkRole": {
                "type": "TALK_ROLE_NPC",
                "id": "1075"
            },
            "talkContentTextMapHash": 940191674,
            "talkAssetPath": "",
            "talkAssetPathAlter": "",
            "talkAudioName": "",
            "actionBefore": "",
            "actionWhile": "",
            "actionAfter": "",
            "optionIcon": ""
        },
        {
            "id": 40220661,
            "nextDialogs": [
                40220662,
                40220663
            ],
            "talkRole": {
                "type": "TALK_ROLE_NPC",
                "id": "1005"
            },
            "talkContentTextMapHash": 2273999562,
            "talkAssetPath": "",
            "talkAssetPathAlter": "",
            "talkAudioName": "",
            "actionBefore": "",
            "actionWhile": "",
            "actionAfter": "",
            "optionIcon": ""
        },
        {
            "id": 40220662,
            "nextDialogs": [
                40220664
            ],
            "talkRole": {
                "type": "TALK_ROLE_PLAYER",
                "id": ""
            },
            "talkContentTextMapHash": 549922394,
            "talkAssetPath": "",
            "talkAssetPathAlter": "",
            "talkAudioName": "",
            "actionBefore": "",
            "actionWhile": "",
            "actionAfter": "",
            "optionIcon": ""
        },
        {
            "id": 40220664,
            "nextDialogs": [
                40220665
            ],
            "talkRole": {
                "type": "TALK_ROLE_NPC",
                "id": "1077"
            },
            "talkContentTextMapHash": 593584690,
            "talkAssetPath": "",
            "talkAssetPathAlter": "",
            "talkAudioName": "",
            "actionBefore": "",
            "actionWhile": "",
            "actionAfter": "",
            "optionIcon": ""
        },
        {
            "id": 40220665,
            "nextDialogs": [
                40220666
            ],
            "talkRole": {
                "type": "TALK_ROLE_NPC",
                "id": "1005"
            },
            "talkContentTextMapHash": 3381538098,
            "talkAssetPath": "",
            "talkAssetPathAlter": "",
            "talkAudioName": "",
            "actionBefore": "",
            "actionWhile": "",
            "actionAfter": "",
            "optionIcon": ""
        },
        {
            "id": 40220666,
            "nextDialogs": [
                40220667
            ],
            "talkRole": {
                "type": "TALK_ROLE_NPC",
                "id": "1076"
            },
            "talkContentTextMapHash": 3814691298,
            "talkAssetPath": "",
            "talkAssetPathAlter": "",
            "talkAudioName": "",
            "actionBefore": "",
            "actionWhile": "",
            "actionAfter": "",
            "optionIcon": ""
        },
        {
            "id": 40220667,
            "nextDialogs": [
                40220668
            ],
            "talkRole": {
                "type": "TALK_ROLE_NPC",
                "id": "1076"
            },
            "talkContentTextMapHash": 2015200578,
            "talkAssetPath": "",
            "talkAssetPathAlter": "",
            "talkAudioName": "",
            "actionBefore": "",
            "actionWhile": "",
            "actionAfter": "",
            "optionIcon": ""
        },
        {
            "id": 40220668,
            "nextDialogs": [
                40220669
            ],
            "talkRole": {
                "type": "TALK_ROLE_NPC",
                "id": "1076"
            },
            "talkContentTextMapHash": 209786442,
            "talkAssetPath": "",
            "talkAssetPathAlter": "",
            "talkAudioName": "",
            "actionBefore": "",
            "actionWhile": "",
            "actionAfter": "",
            "optionIcon": ""
        },
        {
            "id": 40220669,
            "nextDialogs": [
                40220670,
                40220671
            ],
            "talkRole": {
                "type": "TALK_ROLE_NPC",
                "id": "1076"
            },
            "talkContentTextMapHash": 1336986850,
            "talkAssetPath": "",
            "talkAssetPathAlter": "",
            "talkAudioName": "",
            "actionBefore": "",
            "actionWhile": "",
            "actionAfter": "",
            "optionIcon": ""
        },
        {
            "id": 40220670,
            "talkRole": {
                "type": "TALK_ROLE_PLAYER",
                "id": ""
            },
            "talkContentTextMapHash": 3446002146,
            "talkAssetPath": "",
            "talkAssetPathAlter": "",
            "talkAudioName": "",
            "actionBefore": "",
            "actionWhile": "",
            "actionAfter": "",
            "optionIcon": ""
        },
        {
            "id": 40220671,
            "talkRole": {
                "type": "TALK_ROLE_PLAYER",
                "id": ""
            },
            "talkContentTextMapHash": 3872268434,
            "talkAssetPath": "",
            "talkAssetPathAlter": "",
            "talkAudioName": "",
            "actionBefore": "",
            "actionWhile": "",
            "actionAfter": "",
            "optionIcon": ""
        },
        {
            "id": 40220663,
            "nextDialogs": [
                40220664
            ],
            "talkRole": {
                "type": "TALK_ROLE_PLAYER",
                "id": ""
            },
            "talkContentTextMapHash": 2552779666,
            "talkAssetPath": "",
            "talkAssetPathAlter": "",
            "talkAudioName": "",
            "actionBefore": "",
            "actionWhile": "",
            "actionAfter": "",
            "optionIcon": ""
        },
        {
            "id": 40220657,
            "nextDialogs": [
                40220658
            ],
            "talkRole": {
                "type": "TALK_ROLE_PLAYER",
                "id": ""
            },
            "talkContentTextMapHash": 979113074,
            "talkAssetPath": "",
            "talkAssetPathAlter": "",
            "talkAudioName": "",
            "actionBefore": "",
            "actionWhile": "",
            "actionAfter": "",
            "optionIcon": ""
        },
        {
            "id": 40220649,
            "nextDialogs": [
                40220650
            ],
            "talkRole": {
                "type": "TALK_ROLE_PLAYER",
                "id": ""
            },
            "talkContentTextMapHash": 2724664770,
            "talkAssetPath": "",
            "talkAssetPathAlter": "",
            "talkAudioName": "",
            "actionBefore": "",
            "actionWhile": "",
            "actionAfter": "",
            "optionIcon": ""
        },
        {
            "id": 40220623,
            "nextDialogs": [
                40220624
            ],
            "talkRole": {
                "type": "TALK_ROLE_PLAYER",
                "id": ""
            },
            "talkContentTextMapHash": 3774213002,
            "talkAssetPath": "",
            "talkAssetPathAlter": "",
            "talkAudioName": "",
            "actionBefore": "",
            "actionWhile": "",
            "actionAfter": "",
            "optionIcon": ""
        },
        {
            "id": 40220619,
            "nextDialogs": [
                40220620
            ],
            "talkRole": {
                "type": "TALK_ROLE_PLAYER",
                "id": ""
            },
            "talkContentTextMapHash": 1887907402,
            "talkAssetPath": "",
            "talkAssetPathAlter": "",
            "talkAudioName": "",
            "actionBefore": "",
            "actionWhile": "",
            "actionAfter": "",
            "optionIcon": ""
        },
        {
            "id": 40220613,
            "nextDialogs": [
                40220614
            ],
            "talkRole": {
                "type": "TALK_ROLE_PLAYER",
                "id": ""
            },
            "talkContentTextMapHash": 3865679762,
            "talkAssetPath": "",
            "talkAssetPathAlter": "",
            "talkAudioName": "",
            "actionBefore": "",
            "actionWhile": "",
            "actionAfter": "",
            "optionIcon": ""
        },
        {
            "id": 40220605,
            "nextDialogs": [
                40220606
            ],
            "talkRole": {
                "type": "TALK_ROLE_PLAYER",
                "id": ""
            },
            "talkContentTextMapHash": 2357473002,
            "talkAssetPath": "",
            "talkAssetPathAlter": "",
            "talkAudioName": "",
            "actionBefore": "",
            "actionWhile": "",
            "actionAfter": "",
            "optionIcon": ""
        }
    ]
}