{
    "talkId": 402213,
    "dialogList": [
        {
            "id": 40221301,
            "nextDialogs": [
                40221302
            ],
            "talkRole": {
                "type": "TALK_ROLE_NPC",
                "id": "1005"
            },
            "talkContentTextMapHash": 1251021498,
            "talkAssetPath": "",
            "talkAssetPathAlter": "",
            "talkAudioName": "",
            "actionBefore": "",
            "actionWhile": "",
            "actionAfter": "",
            "optionIcon": ""
        },
        {
            "id": 40221302,
            "nextDialogs": [
                40221303
            ],
            "talkRole": {
                "type": "TALK_ROLE_NPC",
                "id": "13316"
            },
            "talkContentTextMapHash": 3468663506,
            "talkAssetPath": "",
            "talkAssetPathAlter": "",
            "talkAudioName": "",
            "actionBefore": "",
            "actionWhile": "",
            "actionAfter": "",
            "optionIcon": ""
        },
        {
            "id": 40221303,
            "nextDialogs": [
                40221304
            ],
            "talkRole": {
                "type": "TALK_ROLE_NPC",
                "id": "1076"
            },
            "talkContentTextMapHash": 3971959578,
            "talkAssetPath": "",
            "talkAssetPathAlter": "",
            "talkAudioName": "",
            "actionBefore": "",
            "actionWhile": "",
            "actionAfter": "",
            "optionIcon": ""
        },
        {
            "id": 40221304,
            "nextDialogs": [
                40221305
            ],
            "talkRole": {
                "type": "TALK_ROLE_NPC",
                "id": "1076"
            },
            "talkContentTextMapHash": 3760229146,
            "talkAssetPath": "",
            "talkAssetPathAlter": "",
            "talkAudioName": "",
            "actionBefore": "",
            "actionWhile": "",
            "actionAfter": "",
            "optionIcon": ""
        },
        {
            "id": 40221305,
            "nextDialogs": [
                40221306
            ],
            "talkRole": {
                "type": "TALK_ROLE_NPC",
                "id": "1076"
            },
            "talkContentTextMapHash": 1583654378,
            "talkAssetPath": "",
            "talkAssetPathAlter": "",
            "talkAudioName": "",
            "actionBefore": "",
            "actionWhile": "",
            "actionAfter": "",
            "optionIcon": ""
        },
        {
            "id": 40221306,
            "nextDialogs": [
                40221307
            ],
            "talkRole": {
                "type": "TALK_ROLE_NPC",
                "id": "13316"
            },
            "talkContentTextMapHash": 1608490634,
            "talkAssetPath": "",
            "talkAssetPathAlter": "",
            "talkAudioName": "",
            "actionBefore": "",
            "actionWhile": "",
            "actionAfter": "",
            "optionIcon": ""
        },
        {
            "id": 40221307,
            "nextDialogs": [
                40221308
            ],
            "talkRole": {
                "type": "TALK_ROLE_NPC",
                "id": "1076"
            },
            "talkContentTextMapHash": 4223313498,
            "talkAssetPath": "",
            "talkAssetPathAlter": "",
            "talkAudioName": "",
            "actionBefore": "",
            "actionWhile": "",
            "actionAfter": "",
            "optionIcon": ""
        },
        {
            "id": 40221308,
            "nextDialogs": [
                40221309
            ],
            "talkRole": {
                "type": "TALK_ROLE_NPC",
                "id": "13316"
            },
            "talkContentTextMapHash": 3996274602,
            "talkAssetPath": "",
            "talkAssetPathAlter": "",
            "talkAudioName": "",
            "actionBefore": "",
            "actionWhile": "",
            "actionAfter": "",
            "optionIcon": ""
        },
        {
            "id": 40221309,
            "nextDialogs": [
                40221310
            ],
            "talkRole": {
                "type": "TALK_ROLE_NPC",
                "id": "1005"
            },
            "talkContentTextMapHash": 1760230866,
            "talkAssetPath": "",
            "talkAssetPathAlter": "",
            "talkAudioName": "",
            "actionBefore": "",
            "actionWhile": "",
            "actionAfter": "",
            "optionIcon": ""
        },
        {
            "id": 40221310,
            "nextDialogs": [
                40221311
            ],
            "talkRole": {
                "type": "TALK_ROLE_NPC",
                "id": "1005"
            },
            "talkContentTextMapHash": 3164265330,
            "talkAssetPath": "",
            "talkAssetPathAlter": "",
            "talkAudioName": "",
            "actionBefore": "",
            "actionWhile": "",
            "actionAfter": "",
            "optionIcon": ""
        },
        {
            "id": 40221311,
            "nextDialogs": [
                40221312
            ],
            "talkRole": {
                "type": "TALK_ROLE_NPC",
                "id": "13316"
            },
            "talkContentTextMapHash": 3253383386,
            "talkAssetPath": "",
            "talkAssetPathAlter": "",
            "talkAudioName": "",
            "actionBefore": "",
            "actionWhile": "",
            "actionAfter": "",
            "optionIcon": ""
        },
        {
            "id": 40221312,
            "nextDialogs": [
                40221313
            ],
            "talkRole": {
                "type": "TALK_ROLE_NPC",
                "id": "13316"
            },
            "talkContentTextMapHash": 1076929130,
            "talkAssetPath": "",
            "talkAssetPathAlter": "",
            "talkAudioName": "",
            "actionBefore": "",
            "actionWhile": "",
            "actionAfter": "",
            "optionIcon": ""
        },
        {
            "id": 40221313,
            "nextDialogs": [
                40221314
            ],
            "talkRole": {
                "type": "TALK_ROLE_NPC",
                "id": "13316"
            },
            "talkContentTextMapHash": 31177050,
            "talkAssetPath": "",
            "talkAssetPathAlter": "",
            "talkAudioName": "",
            "actionBefore": "",
            "actionWhile": "",
            "actionAfter": "",
            "optionIcon": ""
        },
        {
            "id": 40221314,
            "nextDialogs": [
                40221315
            ],
            "talkRole": {
                "type": "TALK_ROLE_NPC",
                "id": "13316"
            },
            "talkContentTextMapHash": 3645105586,
            "talkAssetPath": "",
            "talkAssetPathAlter": "",
            "talkAudioName": "",
            "actionBefore": "",
            "actionWhile": "",
            "actionAfter": "",
            "optionIcon": ""
        },
        {
            "id": 40221315,
            "nextDialogs": [
                40221316,
                40221317
            ],
            "talkRole": {
                "type": "TALK_ROLE_NPC",
                "id": "1005"
            },
            "talkContentTextMapHash": 4121363010,
            "talkAssetPath": "",
            "talkAssetPathAlter": "",
            "talkAudioName": "",
            "actionBefore": "",
            "actionWhile": "",
            "actionAfter": "",
            "optionIcon": ""
        },
        {
            "id": 40221316,
            "nextDialogs": [
                40221318
            ],
            "talkRole": {
                "type": "TALK_ROLE_PLAYER",
                "id": ""
            },
            "talkContentTextMapHash": 4094430378,
            "talkAssetPath": "",
            "talkAssetPathAlter": "",
            "talkAudioName": "",
            "actionBefore": "",
            "actionWhile": "",
            "actionAfter": "",
            "optionIcon": ""
        },
        {
            "id": 40221318,
            "nextDialogs": [
                40221319
            ],
            "talkRole": {
                "type": "TALK_ROLE_NPC",
                "id": "13316"
            },
            "talkContentTextMapHash": 1827599202,
            "talkAssetPath": "",
            "talkAssetPathAlter": "",
            "talkAudioName": "",
            "actionBefore": "",
            "actionWhile": "",
            "actionAfter": "",
            "optionIcon": ""
        },
        {
            "id": 40221319,
            "nextDialogs": [
                40221320
            ],
            "talkRole": {
                "type": "TALK_ROLE_NPC",
                "id": "1076"
            },
            "talkContentTextMapHash": 1251573162,
            "talkAssetPath": "",
            "talkAssetPathAlter": "",
            "talkAudioName": "",
            "actionBefore": "",
            "actionWhile": "",
            "actionAfter": "",
            "optionIcon": ""
        },
        {
            "id": 40221320,
            "nextDialogs": [
                40221321,
                40221322
            ],
            "talkRole": {
                "type": "TALK_ROLE_NPC",
                "id": "13316"
            },
            "talkContentTextMapHash": 292539506,
            "talkAssetPath": "",
            "talkAssetPathAlter": "",
            "talkAudioName": "",
            "actionBefore": "",
            "actionWhile": "",
            "actionAfter": "",
            "optionIcon": ""
        },
        {
            "id": 40221321,
            "nextDialogs": [
                40221323
            ],
            "talkRole": {
                "type": "TALK_ROLE_PLAYER",
                "id": ""
            },
            "talkContentTextMapHash": 1929738258,
            "talkAssetPath": "",
            "talkAssetPathAlter": "",
            "talkAudioName": "",
            "actionBefore": "",
            "actionWhile": "",
            "actionAfter": "",
            "optionIcon": ""
        },
        {
            "id": 40221323,
            "nextDialogs": [
                40221324
            ],
            "talkRole": {
                "type": "TALK_ROLE_NPC",
                "id": "13316"
            },
            "talkContentTextMapHash": 1944178546,
            "talkAssetPath": "",
            "talkAssetPathAlter": "",
            "talkAudioName": "",
            "actionBefore": "",
            "actionWhile": "",
            "actionAfter": "",
            "optionIcon": ""
        },
        {
            "id": 40221324,
            "nextDialogs": [
                40221325
            ],
            "talkRole": {
                "type": "TALK_ROLE_NPC",
                "id": "1005"
            },
            "talkContentTextMapHash": 3236458450,
            "talkAssetPath": "",
            "talkAssetPathAlter": "",
            "talkAudioName": "",
            "actionBefore": "",
            "actionWhile": "",
            "actionAfter": "",
            "optionIcon": ""
        },
        {
            "id": 40221325,
            "nextDialogs": [
                40221326
            ],
            "talkRole": {
                "type": "TALK_ROLE_NPC",
                "id": "13316"
            },
            "talkContentTextMapHash": 144735994,
            "talkAssetPath": "",
            "talkAssetPathAlter": "",
            "talkAudioName": "",
            "actionBefore": "",
            "actionWhile": "",
            "actionAfter": "",
            "optionIcon": ""
        },
        {
            "id": 40221326,
            "nextDialogs": [
                40221327
            ],
            "talkRole": {
                "type": "TALK_ROLE_NPC",
                "id": "13316"
            },
            "talkContentTextMapHash": 1059328386,
            "talkAssetPath": "",
            "talkAssetPathAlter": "",
            "talkAudioName": "",
            "actionBefore": "",
            "actionWhile": "",
            "actionAfter": "",
            "optionIcon": ""
        },
        {
            "id": 40221327,
            "nextDialogs": [
                40221328
            ],
            "talkRole": {
                "type": "TALK_ROLE_NPC",
                "id": "13749"
            },
            "talkContentTextMapHash": 2458675146,
            "talkAssetPath": "",
            "talkAssetPathAlter": "",
            "talkAudioName": "",
            "actionBefore": "",
            "actionWhile": "",
            "actionAfter": "",
            "optionIcon": ""
        },
        {
            "id": 40221328,
            "nextDialogs": [
                40221329
            ],
            "talkRole": {
                "type": "TALK_ROLE_NPC",
                "id": "13743"
            },
            "talkContentTextMapHash": 3658860938,
            "talkAssetPath": "",
            "talkAssetPathAlter": "",
            "talkAudioName": "",
            "actionBefore": "",
            "actionWhile": "",
            "actionAfter": "",
            "optionIcon": ""
        },
        {
            "id": 40221329,
            "nextDialogs": [
                40221330
            ],
            "talkRole": {
                "type": "TALK_ROLE_NPC",
                "id": "1005"
            },
            "talkContentTextMapHash": 3113801986,
            "talkAssetPath": "",
            "talkAssetPathAlter": "",
            "talkAudioName": "",
            "actionBefore": "",
            "actionWhile": "",
            "actionAfter": "",
            "optionIcon": ""
        },
        {
            "id": 40221330,
            "nextDialogs": [
                40221331
            ],
            "talkRole": {
                "type": "TALK_ROLE_NPC",
                "id": "13316"
            },
            "talkContentTextMapHash": 291211122,
            "talkAssetPath": "",
            "talkAssetPathAlter": "",
            "talkAudioName": "",
            "actionBefore": "",
            "actionWhile": "",
            "actionAfter": "",
            "optionIcon": ""
        },
        {
            "id": 40221331,
            "nextDialogs": [
                40221332
            ],
            "talkRole": {
                "type": "TALK_ROLE_NPC",
                "id": "13316"
            },
            "talkContentTextMapHash": 786049370,
            "talkAssetPath": "",
            "talkAssetPathAlter": "",
            "talkAudioName": "",
            "actionBefore": "",
            "actionWhile": "",
            "actionAfter": "",
            "optionIcon": ""
        },
        {
            "id": 40221332,
            "nextDialogs": [
                40221333
            ],
            "talkRole": {
                "type": "TALK_ROLE_NPC",
                "id": "13316"
            },
            "talkContentTextMapHash": 2152048082,
            "talkAssetPath": "",
            "talkAssetPathAlter": "",
            "talkAudioName": "",
            "actionBefore": "",
            "actionWhile": "",
            "actionAfter": "",
            "optionIcon": ""
        },
        {
            "id": 40221333,
            "nextDialogs": [
                40221334
            ],
            "talkRole": {
                "type": "TALK_ROLE_NPC",
                "id": "13744"
            },
            "talkContentTextMapHash": 3042773170,
            "talkAssetPath": "",
            "talkAssetPathAlter": "",
            "talkAudioName": "",
            "actionBefore": "",
            "actionWhile": "",
            "actionAfter": "",
            "optionIcon": ""
        },
        {
            "id": 40221334,
            "nextDialogs": [
                40221335
            ],
            "talkRole": {
                "type": "TALK_ROLE_NPC",
                "id": "13745"
            },
            "talkContentTextMapHash": 536387930,
            "talkAssetPath": "",
            "talkAssetPathAlter": "",
            "talkAudioName": "",
            "actionBefore": "",
            "actionWhile": "",
            "actionAfter": "",
            "optionIcon": ""
        },
        {
            "id": 40221335,
            "nextDialogs": [
                40221336
            ],
            "talkRole": {
                "type": "TALK_ROLE_NPC",
                "id": "13316"
            },
            "talkContentTextMapHash": 3929251810,
            "talkAssetPath": "",
            "talkAssetPathAlter": "",
            "talkAudioName": "",
            "actionBefore": "",
            "actionWhile": "",
            "actionAfter": "",
            "optionIcon": ""
        },
        {
            "id": 40221336,
            "nextDialogs": [
                40221337
            ],
            "talkRole": {
                "type": "TALK_ROLE_NPC",
                "id": "13316"
            },
            "talkContentTextMapHash": 1401654514,
            "talkAssetPath": "",
            "talkAssetPathAlter": "",
            "talkAudioName": "",
            "actionBefore": "",
            "actionWhile": "",
            "actionAfter": "",
            "optionIcon": ""
        },
        {
            "id": 40221337,
            "nextDialogs": [
                40221338
            ],
            "talkRole": {
                "type": "TALK_ROLE_NPC",
                "id": "13316"
            },
            "talkContentTextMapHash": 3820491138,
            "talkAssetPath": "",
            "talkAssetPathAlter": "",
            "talkAudioName": "",
            "actionBefore": "",
            "actionWhile": "",
            "actionAfter": "",
            "optionIcon": ""
        },
        {
            "id": 40221338,
            "nextDialogs": [
                40221339
            ],
            "talkRole": {
                "type": "TALK_ROLE_NPC",
                "id": "1005"
            },
            "talkContentTextMapHash": 1692412194,
            "talkAssetPath": "",
            "talkAssetPathAlter": "",
            "talkAudioName": "",
            "actionBefore": "",
            "actionWhile": "",
            "actionAfter": "",
            "optionIcon": ""
        },
        {
            "id": 40221339,
            "talkRole": {
                "type": "TALK_ROLE_PLAYER",
                "id": ""
            },
            "talkContentTextMapHash": 2061510826,
            "talkAssetPath": "",
            "talkAssetPathAlter": "",
            "talkAudioName": "",
            "actionBefore": "",
            "actionWhile": "",
            "actionAfter": "",
            "optionIcon": ""
        },
        {
            "id": 40221322,
            "nextDialogs": [
                40221323
            ],
            "talkRole": {
                "type": "TALK_ROLE_PLAYER",
                "id": ""
            },
            "talkContentTextMapHash": 212870594,
            "talkAssetPath": "",
            "talkAssetPathAlter": "",
            "talkAudioName": "",
            "actionBefore": "",
            "actionWhile": "",
            "actionAfter": "",
            "optionIcon": ""
        },
        {
            "id": 40221317,
            "nextDialogs": [
                40221318
            ],
            "talkRole": {
                "type": "TALK_ROLE_PLAYER",
                "id": ""
            },
            "talkContentTextMapHash": 3880881266,
            "talkAssetPath": "",
            "talkAssetPathAlter": "",
            "talkAudioName": "",
            "actionBefore": "",
            "actionWhile": "",
            "actionAfter": "",
            "optionIcon": ""
        }
    ]
}