{
    "talkId": 7110055,
    "dialogList": [
        {
            "id": 711005501,
            "nextDialogs": [
                711005502
            ],
            "talkRole": {
                "type": "TALK_ROLE_NPC",
                "id": "21094"
            },
            "talkContentTextMapHash": 17112314,
            "talkAssetPath": "",
            "talkAssetPathAlter": "",
            "talkAudioName": "",
            "actionBefore": "",
            "actionWhile": "",
            "actionAfter": "",
            "optionIcon": ""
        },
        {
            "id": 711005502,
            "nextDialogs": [
                711005503,
                711005505
            ],
            "talkRole": {
                "type": "TALK_ROLE_NPC",
                "id": "21094"
            },
            "talkContentTextMapHash": 2888153290,
            "talkAssetPath": "",
            "talkAssetPathAlter": "",
            "talkAudioName": "",
            "actionBefore": "",
            "actionWhile": "",
            "actionAfter": "",
            "optionIcon": ""
        },
        {
            "id": 711005503,
            "nextDialogs": [
                711005504
            ],
            "talkRole": {
                "type": "TALK_ROLE_PLAYER",
                "id": ""
            },
            "talkContentTextMapHash": 3901000922,
            "talkAssetPath": "",
            "talkAssetPathAlter": "",
            "talkAudioName": "",
            "actionBefore": "",
            "actionWhile": "",
            "actionAfter": "",
            "optionIcon": ""
        },
        {
            "id": 711005504,
            "nextDialogs": [
                711005506
            ],
            "talkRole": {
                "type": "TALK_ROLE_NPC",
                "id": "1005"
            },
            "talkContentTextMapHash": 1397151434,
            "talkAssetPath": "",
            "talkAssetPathAlter": "",
            "talkAudioName": "",
            "actionBefore": "",
            "actionWhile": "",
            "actionAfter": "",
            "optionIcon": ""
        },
        {
            "id": 711005506,
            "nextDialogs": [
                711005507
            ],
            "talkRole": {
                "type": "TALK_ROLE_NPC",
                "id": "21094"
            },
            "talkContentTextMapHash": 3836198074,
            "talkAssetPath": "",
            "talkAssetPathAlter": "",
            "talkAudioName": "",
            "actionBefore": "",
            "actionWhile": "",
            "actionAfter": "",
            "optionIcon": ""
        },
        {
            "id": 711005507,
            "nextDialogs": [
                711005508
            ],
            "talkRole": {
                "type": "TALK_ROLE_NPC",
                "id": "2501"
            },
            "talkContentTextMapHash": 948146634,
            "talkAssetPath": "",
            "talkAssetPathAlter": "",
            "talkAudioName": "",
            "actionBefore": "",
            "actionWhile": "",
            "actionAfter": "",
            "optionIcon": ""
        },
        {
            "id": 711005508,
            "nextDialogs": [
                711005509
            ],
            "talkRole": {
                "type": "TALK_ROLE_NPC",
                "id": "21094"
            },
            "talkContentTextMapHash": 341079378,
            "talkAssetPath": "",
            "talkAssetPathAlter": "",
            "talkAudioName": "",
            "actionBefore": "",
            "actionWhile": "",
            "actionAfter": "",
            "optionIcon": ""
        },
        {
            "id": 711005509,
            "nextDialogs": [
                711005510
            ],
            "talkRole": {
                "type": "TALK_ROLE_NPC",
                "id": "21094"
            },
            "talkContentTextMapHash": 4162075370,
            "talkAssetPath": "",
            "talkAssetPathAlter": "",
            "talkAudioName": "",
            "actionBefore": "",
            "actionWhile": "",
            "actionAfter": "",
            "optionIcon": ""
        },
        {
            "id": 711005510,
            "nextDialogs": [
                711005511
            ],
            "talkRole": {
                "type": "TALK_ROLE_NPC",
                "id": "21094"
            },
            "talkContentTextMapHash": 1815928570,
            "talkAssetPath": "",
            "talkAssetPathAlter": "",
            "talkAudioName": "",
            "actionBefore": "",
            "actionWhile": "",
            "actionAfter": "",
            "optionIcon": ""
        },
        {
            "id": 711005511,
            "talkRole": {
                "type": "TALK_ROLE_NPC",
                "id": "21094"
            },
            "talkContentTextMapHash": 93780370,
            "talkAssetPath": "",
            "talkAssetPathAlter": "",
            "talkAudioName": "",
            "actionBefore": "",
            "actionWhile": "",
            "actionAfter": "",
            "optionIcon": ""
        },
        {
            "id": 711005505,
            "nextDialogs": [
                711005506
            ],
            "talkRole": {
                "type": "TALK_ROLE_PLAYER",
                "id": ""
            },
            "talkContentTextMapHash": 1981239618,
            "talkAssetPath": "",
            "talkAssetPathAlter": "",
            "talkAudioName": "",
            "actionBefore": "",
            "actionWhile": "",
            "actionAfter": "",
            "optionIcon": ""
        }
    ]
}