{
    "talkId": 7110321,
    "dialogList": [
        {
            "id": 711032101,
            "nextDialogs": [
                711032102
            ],
            "talkRole": {
                "type": "TALK_ROLE_NPC",
                "id": "2501"
            },
            "talkContentTextMapHash": 2060885050,
            "talkAssetPath": "",
            "talkAssetPathAlter": "",
            "talkAudioName": "",
            "actionBefore": "",
            "actionWhile": "",
            "actionAfter": "",
            "optionIcon": ""
        },
        {
            "id": 711032102,
            "nextDialogs": [
                711032103
            ],
            "talkRole": {
                "type": "TALK_ROLE_NPC",
                "id": "1005"
            },
            "talkContentTextMapHash": 2497053554,
            "talkAssetPath": "",
            "talkAssetPathAlter": "",
            "talkAudioName": "",
            "actionBefore": "",
            "actionWhile": "",
            "actionAfter": "",
            "optionIcon": ""
        },
        {
            "id": 711032103,
            "talkRole": {
                "type": "TALK_ROLE_NPC",
                "id": "2501"
            },
            "talkContentTextMapHash": 519828562,
            "talkAssetPath": "",
            "talkAssetPathAlter": "",
            "talkAudioName": "",
            "actionBefore": "",
            "actionWhile": "",
            "actionAfter": "",
            "optionIcon": ""
        }
    ]
}