{
    "talkId": 7111515,
    "dialogList": [
        {
            "id": 711151501,
            "nextDialogs": [
                711151502
            ],
            "talkRole": {
                "type": "TALK_ROLE_NPC",
                "id": "21344"
            },
            "talkContentTextMapHash": 4224803994,
            "talkAssetPath": "",
            "talkAssetPathAlter": "",
            "talkAudioName": "",
            "actionBefore": "",
            "actionWhile": "",
            "actionAfter": "",
            "optionIcon": ""
        },
        {
            "id": 711151502,
            "nextDialogs": [
                711151503
            ],
            "talkRole": {
                "type": "TALK_ROLE_NPC",
                "id": "21344"
            },
            "talkContentTextMapHash": 3371582042,
            "talkAssetPath": "",
            "talkAssetPathAlter": "",
            "talkAudioName": "",
            "actionBefore": "",
            "actionWhile": "",
            "actionAfter": "",
            "optionIcon": ""
        },
        {
            "id": 711151503,
            "nextDialogs": [
                711151504
            ],
            "talkRole": {
                "type": "TALK_ROLE_NPC",
                "id": "21344"
            },
            "talkContentTextMapHash": 1502156706,
            "talkAssetPath": "",
            "talkAssetPathAlter": "",
            "talkAudioName": "",
            "actionBefore": "",
            "actionWhile": "",
            "actionAfter": "",
            "optionIcon": ""
        },
        {
            "id": 711151504,
            "talkRole": {
                "type": "TALK_ROLE_NPC",
                "id": "21344"
            },
            "talkContentTextMapHash": 1199386466,
            "talkAssetPath": "",
            "talkAssetPathAlter": "",
            "talkAudioName": "",
            "actionBefore": "",
            "actionWhile": "",
            "actionAfter": "",
            "optionIcon": ""
        }
    ]
}