{
    "talkId": 7112001,
    "dialogList": [
        {
            "id": 711200101,
            "nextDialogs": [
                711200102
            ],
            "talkRole": {
                "type": "TALK_ROLE_NPC",
                "id": "21397"
            },
            "talkContentTextMapHash": 3265919178,
            "talkAssetPath": "",
            "talkAssetPathAlter": "",
            "talkAudioName": "",
            "actionBefore": "",
            "actionWhile": "",
            "actionAfter": "",
            "optionIcon": ""
        },
        {
            "id": 711200102,
            "nextDialogs": [
                711200103,
                711200106
            ],
            "talkRole": {
                "type": "TALK_ROLE_NPC",
                "id": "1005"
            },
            "talkContentTextMapHash": 1518757834,
            "talkAssetPath": "",
            "talkAssetPathAlter": "",
            "talkAudioName": "",
            "actionBefore": "",
            "actionWhile": "",
            "actionAfter": "",
            "optionIcon": ""
        },
        {
            "id": 711200103,
            "nextDialogs": [
                711200104
            ],
            "talkShowType": "TALK_SHOW_FORCE_SELECT",
            "talkRole": {
                "type": "TALK_ROLE_PLAYER",
                "id": ""
            },
            "talkContentTextMapHash": 800086466,
            "talkAssetPath": "",
            "talkAssetPathAlter": "",
            "talkAudioName": "",
            "actionBefore": "",
            "actionWhile": "",
            "actionAfter": "",
            "optionIcon": ""
        },
        {
            "id": 711200104,
            "nextDialogs": [
                711200105
            ],
            "talkRole": {
                "type": "TALK_ROLE_NPC",
                "id": "21413"
            },
            "talkContentTextMapHash": 3948925498,
            "talkAssetPath": "",
            "talkAssetPathAlter": "",
            "talkAudioName": "",
            "actionBefore": "",
            "actionWhile": "",
            "actionAfter": "",
            "optionIcon": ""
        },
        {
            "id": 711200105,
            "nextDialogs": [
                711200109
            ],
            "talkRole": {
                "type": "TALK_ROLE_NPC",
                "id": "21397"
            },
            "talkContentTextMapHash": 1962205266,
            "talkAssetPath": "",
            "talkAssetPathAlter": "",
            "talkAudioName": "",
            "actionBefore": "",
            "actionWhile": "",
            "actionAfter": "",
            "optionIcon": ""
        },
        {
            "id": 711200109,
            "nextDialogs": [
                711200110
            ],
            "talkRole": {
                "type": "TALK_ROLE_NPC",
                "id": "1005"
            },
            "talkContentTextMapHash": 2156101114,
            "talkAssetPath": "",
            "talkAssetPathAlter": "",
            "talkAudioName": "",
            "actionBefore": "",
            "actionWhile": "",
            "actionAfter": "",
            "optionIcon": ""
        },
        {
            "id": 711200110,
            "nextDialogs": [
                711200111
            ],
            "talkRole": {
                "type": "TALK_ROLE_NPC",
                "id": "21413"
            },
            "talkContentTextMapHash": 2602489074,
            "talkAssetPath": "",
            "talkAssetPathAlter": "",
            "talkAudioName": "",
            "actionBefore": "",
            "actionWhile": "",
            "actionAfter": "",
            "optionIcon": ""
        },
        {
            "id": 711200111,
            "talkRole": {
                "type": "TALK_ROLE_NPC",
                "id": "21397"
            },
            "talkContentTextMapHash": 2894944562,
            "talkAssetPath": "",
            "talkAssetPathAlter": "",
            "talkAudioName": "",
            "actionBefore": "",
            "actionWhile": "",
            "actionAfter": "",
            "optionIcon": ""
        },
        {
            "id": 711200106,
            "nextDialogs": [
                711200107
            ],
            "talkShowType": "TALK_SHOW_FORCE_SELECT",
            "talkRole": {
                "type": "TALK_ROLE_PLAYER",
                "id": ""
            },
            "talkContentTextMapHash": 1010184698,
            "talkAssetPath": "",
            "talkAssetPathAlter": "",
            "talkAudioName": "",
            "actionBefore": "",
            "actionWhile": "",
            "actionAfter": "",
            "optionIcon": ""
        },
        {
            "id": 711200107,
            "nextDialogs": [
                711200108
            ],
            "talkRole": {
                "type": "TALK_ROLE_NPC",
                "id": "21397"
            },
            "talkContentTextMapHash": 1969791858,
            "talkAssetPath": "",
            "talkAssetPathAlter": "",
            "talkAudioName": "",
            "actionBefore": "",
            "actionWhile": "",
            "actionAfter": "",
            "optionIcon": ""
        },
        {
            "id": 711200108,
            "nextDialogs": [
                711200109
            ],
            "talkRole": {
                "type": "TALK_ROLE_NPC",
                "id": "21413"
            },
            "talkContentTextMapHash": 3290262130,
            "talkAssetPath": "",
            "talkAssetPathAlter": "",
            "talkAudioName": "",
            "actionBefore": "",
            "actionWhile": "",
            "actionAfter": "",
            "optionIcon": ""
        }
    ]
}