{
    "talkId": 7400553,
    "dialogList": [
        {
            "id": 740055301,
            "nextDialogs": [
                740055302
            ],
            "talkRole": {
                "type": "TALK_ROLE_PLAYER",
                "id": ""
            },
            "talkContentTextMapHash": 2180835154,
            "talkAssetPath": "",
            "talkAssetPathAlter": "",
            "talkAudioName": "",
            "actionBefore": "",
            "actionWhile": "",
            "actionAfter": "",
            "optionIcon": ""
        },
        {
            "id": 740055302,
            "nextDialogs": [
                740055303
            ],
            "talkRole": {
                "type": "TALK_ROLE_NPC",
                "id": "21026"
            },
            "talkContentTextMapHash": 3749761642,
            "talkAssetPath": "",
            "talkAssetPathAlter": "",
            "talkAudioName": "",
            "actionBefore": "",
            "actionWhile": "",
            "actionAfter": "",
            "optionIcon": ""
        },
        {
            "id": 740055303,
            "nextDialogs": [
                740055304
            ],
            "talkRole": {
                "type": "TALK_ROLE_NPC",
                "id": "21025"
            },
            "talkContentTextMapHash": 980894146,
            "talkAssetPath": "",
            "talkAssetPathAlter": "",
            "talkAudioName": "",
            "actionBefore": "",
            "actionWhile": "",
            "actionAfter": "",
            "optionIcon": ""
        },
        {
            "id": 740055304,
            "nextDialogs": [
                740055305
            ],
            "talkRole": {
                "type": "TALK_ROLE_NPC",
                "id": "21026"
            },
            "talkContentTextMapHash": 1546923546,
            "talkAssetPath": "",
            "talkAssetPathAlter": "",
            "talkAudioName": "",
            "actionBefore": "",
            "actionWhile": "",
            "actionAfter": "",
            "optionIcon": ""
        },
        {
            "id": 740055305,
            "nextDialogs": [
                740055306
            ],
            "talkRole": {
                "type": "TALK_ROLE_NPC",
                "id": "21026"
            },
            "talkContentTextMapHash": 4011932690,
            "talkAssetPath": "",
            "talkAssetPathAlter": "",
            "talkAudioName": "",
            "actionBefore": "",
            "actionWhile": "",
            "actionAfter": "",
            "optionIcon": ""
        },
        {
            "id": 740055306,
            "nextDialogs": [
                740055307
            ],
            "talkRole": {
                "type": "TALK_ROLE_NPC",
                "id": "1005"
            },
            "talkContentTextMapHash": 4144433898,
            "talkAssetPath": "",
            "talkAssetPathAlter": "",
            "talkAudioName": "",
            "actionBefore": "",
            "actionWhile": "",
            "actionAfter": "",
            "optionIcon": ""
        },
        {
            "id": 740055307,
            "nextDialogs": [
                740055308
            ],
            "talkRole": {
                "type": "TALK_ROLE_NPC",
                "id": "21026"
            },
            "talkContentTextMapHash": 1684747882,
            "talkAssetPath": "",
            "talkAssetPathAlter": "",
            "talkAudioName": "",
            "actionBefore": "",
            "actionWhile": "",
            "actionAfter": "",
            "optionIcon": ""
        },
        {
            "id": 740055308,
            "nextDialogs": [
                740055309
            ],
            "talkRole": {
                "type": "TALK_ROLE_NPC",
                "id": "21026"
            },
            "talkContentTextMapHash": 3325704490,
            "talkAssetPath": "",
            "talkAssetPathAlter": "",
            "talkAudioName": "",
            "actionBefore": "",
            "actionWhile": "",
            "actionAfter": "",
            "optionIcon": ""
        },
        {
            "id": 740055309,
            "talkRole": {
                "type": "TALK_ROLE_NPC",
                "id": "21025"
            },
            "talkContentTextMapHash": 52771378,
            "talkAssetPath": "",
            "talkAssetPathAlter": "",
            "talkAudioName": "",
            "actionBefore": "",
            "actionWhile": "",
            "actionAfter": "",
            "optionIcon": ""
        }
    ]
}