{
    "talkId": 7400134,
    "dialogList": [
        {
            "id": 740013401,
            "talkRole": {
                "type": "TALK_ROLE_NPC",
                "id": "20995"
            },
            "talkContentTextMapHash": 2926287546,
            "talkAssetPath": "",
            "talkAssetPathAlter": "",
            "talkAudioName": "",
            "actionBefore": "",
            "actionWhile": "",
            "actionAfter": "",
            "optionIcon": ""
        }
    ]
}