{
    "talkId": 7401812,
    "dialogList": [
        {
            "id": 740181201,
            "nextDialogs": [
                740181202
            ],
            "talkRole": {
                "type": "TALK_ROLE_NPC",
                "id": "21042"
            },
            "talkContentTextMapHash": 4053433922,
            "talkRoleNameTextMapHash": 1823141307,
            "talkAssetPath": "",
            "talkAssetPathAlter": "",
            "talkAudioName": "",
            "actionBefore": "",
            "actionWhile": "",
            "actionAfter": "",
            "optionIcon": ""
        },
        {
            "id": 740181202,
            "nextDialogs": [
                740181203
            ],
            "talkRole": {
                "type": "TALK_ROLE_NPC",
                "id": "1005"
            },
            "talkContentTextMapHash": 4039167642,
            "talkAssetPath": "",
            "talkAssetPathAlter": "",
            "talkAudioName": "",
            "actionBefore": "",
            "actionWhile": "",
            "actionAfter": "",
            "optionIcon": ""
        },
        {
            "id": 740181203,
            "nextDialogs": [
                740181204
            ],
            "talkRole": {
                "type": "TALK_ROLE_NPC",
                "id": "21042"
            },
            "talkContentTextMapHash": 2558969154,
            "talkRoleNameTextMapHash": 3049626131,
            "talkAssetPath": "",
            "talkAssetPathAlter": "",
            "talkAudioName": "",
            "actionBefore": "",
            "actionWhile": "",
            "actionAfter": "",
            "optionIcon": ""
        },
        {
            "id": 740181204,
            "nextDialogs": [
                740181205
            ],
            "talkRole": {
                "type": "TALK_ROLE_NPC",
                "id": "1005"
            },
            "talkContentTextMapHash": 2691190962,
            "talkAssetPath": "",
            "talkAssetPathAlter": "",
            "talkAudioName": "",
            "actionBefore": "",
            "actionWhile": "",
            "actionAfter": "",
            "optionIcon": ""
        },
        {
            "id": 740181205,
            "nextDialogs": [
                740181206
            ],
            "talkRole": {
                "type": "TALK_ROLE_NPC",
                "id": "21042"
            },
            "talkContentTextMapHash": 3172217690,
            "talkAssetPath": "",
            "talkAssetPathAlter": "",
            "talkAudioName": "",
            "actionBefore": "",
            "actionWhile": "",
            "actionAfter": "",
            "optionIcon": ""
        },
        {
            "id": 740181206,
            "nextDialogs": [
                740181207
            ],
            "talkRole": {
                "type": "TALK_ROLE_NPC",
                "id": "21039"
            },
            "talkContentTextMapHash": 2836283962,
            "talkAssetPath": "",
            "talkAssetPathAlter": "",
            "talkAudioName": "",
            "actionBefore": "",
            "actionWhile": "",
            "actionAfter": "",
            "optionIcon": ""
        },
        {
            "id": 740181207,
            "nextDialogs": [
                740181208
            ],
            "talkRole": {
                "type": "TALK_ROLE_NPC",
                "id": "21042"
            },
            "talkContentTextMapHash": 3577071418,
            "talkAssetPath": "",
            "talkAssetPathAlter": "",
            "talkAudioName": "",
            "actionBefore": "",
            "actionWhile": "",
            "actionAfter": "",
            "optionIcon": ""
        },
        {
            "id": 740181208,
            "nextDialogs": [
                740181209
            ],
            "talkRole": {
                "type": "TALK_ROLE_NPC",
                "id": "21042"
            },
            "talkContentTextMapHash": 3889246850,
            "talkAssetPath": "",
            "talkAssetPathAlter": "",
            "talkAudioName": "",
            "actionBefore": "",
            "actionWhile": "",
            "actionAfter": "",
            "optionIcon": ""
        },
        {
            "id": 740181209,
            "nextDialogs": [
                740181210
            ],
            "talkRole": {
                "type": "TALK_ROLE_NPC",
                "id": "1005"
            },
            "talkContentTextMapHash": 2047182970,
            "talkAssetPath": "",
            "talkAssetPathAlter": "",
            "talkAudioName": "",
            "actionBefore": "",
            "actionWhile": "",
            "actionAfter": "",
            "optionIcon": ""
        },
        {
            "id": 740181210,
            "nextDialogs": [
                740181211
            ],
            "talkRole": {
                "type": "TALK_ROLE_NPC",
                "id": "21042"
            },
            "talkContentTextMapHash": 3947710570,
            "talkAssetPath": "",
            "talkAssetPathAlter": "",
            "talkAudioName": "",
            "actionBefore": "",
            "actionWhile": "",
            "actionAfter": "",
            "optionIcon": ""
        },
        {
            "id": 740181211,
            "nextDialogs": [
                740181212
            ],
            "talkRole": {
                "type": "TALK_ROLE_NPC",
                "id": "1005"
            },
            "talkContentTextMapHash": 3315306274,
            "talkAssetPath": "",
            "talkAssetPathAlter": "",
            "talkAudioName": "",
            "actionBefore": "",
            "actionWhile": "",
            "actionAfter": "",
            "optionIcon": ""
        },
        {
            "id": 740181212,
            "nextDialogs": [
                740181213
            ],
            "talkRole": {
                "type": "TALK_ROLE_NPC",
                "id": "21042"
            },
            "talkContentTextMapHash": 1182520106,
            "talkAssetPath": "",
            "talkAssetPathAlter": "",
            "talkAudioName": "",
            "actionBefore": "",
            "actionWhile": "",
            "actionAfter": "",
            "optionIcon": ""
        },
        {
            "id": 740181213,
            "nextDialogs": [
                740181214
            ],
            "talkRole": {
                "type": "TALK_ROLE_NPC",
                "id": "21042"
            },
            "talkContentTextMapHash": 3079484178,
            "talkAssetPath": "",
            "talkAssetPathAlter": "",
            "talkAudioName": "",
            "actionBefore": "",
            "actionWhile": "",
            "actionAfter": "",
            "optionIcon": ""
        },
        {
            "id": 740181214,
            "talkRole": {
                "type": "TALK_ROLE_NPC",
                "id": "1005"
            },
            "talkContentTextMapHash": 61679914,
            "talkAssetPath": "",
            "talkAssetPathAlter": "",
            "talkAudioName": "",
            "actionBefore": "",
            "actionWhile": "",
            "actionAfter": "",
            "optionIcon": ""
        }
    ]
}