{
    "talkId": 7401209,
    "dialogList": [
        {
            "id": 740120901,
            "talkRole": {
                "type": "TALK_ROLE_NPC",
                "id": "21226"
            },
            "talkContentTextMapHash": 3049663322,
            "talkAssetPath": "",
            "talkAssetPathAlter": "",
            "talkAudioName": "",
            "actionBefore": "",
            "actionWhile": "",
            "actionAfter": "",
            "optionIcon": ""
        }
    ]
}