{
    "talkId": 7402615,
    "dialogList": [
        {
            "id": 740261501,
            "talkRole": {
                "type": "TALK_ROLE_NPC",
                "id": "21107"
            },
            "talkContentTextMapHash": 40848970,
            "talkAssetPath": "",
            "talkAssetPathAlter": "",
            "talkAudioName": "",
            "actionBefore": "",
            "actionWhile": "",
            "actionAfter": "",
            "optionIcon": ""
        }
    ]
}