{
    "talkId": 7403206,
    "dialogList": [
        {
            "id": 740320601,
            "talkRole": {
                "type": "TALK_ROLE_NPC",
                "id": "5250"
            },
            "talkContentTextMapHash": 1545370226,
            "talkAssetPath": "",
            "talkAssetPathAlter": "",
            "talkAudioName": "",
            "actionBefore": "",
            "actionWhile": "",
            "actionAfter": "",
            "optionIcon": ""
        }
    ]
}