{
    "talkId": 7403304,
    "dialogList": [
        {
            "id": 740330401,
            "nextDialogs": [
                740330402
            ],
            "talkRole": {
                "type": "TALK_ROLE_NPC",
                "id": "21048"
            },
            "talkContentTextMapHash": 437915978,
            "talkAssetPath": "",
            "talkAssetPathAlter": "",
            "talkAudioName": "",
            "actionBefore": "",
            "actionWhile": "",
            "actionAfter": "",
            "optionIcon": ""
        },
        {
            "id": 740330402,
            "nextDialogs": [
                740330403
            ],
            "talkRole": {
                "type": "TALK_ROLE_NPC",
                "id": "21076"
            },
            "talkContentTextMapHash": 179104322,
            "talkAssetPath": "",
            "talkAssetPathAlter": "",
            "talkAudioName": "",
            "actionBefore": "",
            "actionWhile": "",
            "actionAfter": "",
            "optionIcon": ""
        },
        {
            "id": 740330403,
            "nextDialogs": [
                740330404
            ],
            "talkRole": {
                "type": "TALK_ROLE_NPC",
                "id": "21076"
            },
            "talkContentTextMapHash": 1558762146,
            "talkAssetPath": "",
            "talkAssetPathAlter": "",
            "talkAudioName": "",
            "actionBefore": "",
            "actionWhile": "",
            "actionAfter": "",
            "optionIcon": ""
        },
        {
            "id": 740330404,
            "nextDialogs": [
                740330405
            ],
            "talkRole": {
                "type": "TALK_ROLE_NPC",
                "id": "21048"
            },
            "talkContentTextMapHash": 386726922,
            "talkAssetPath": "",
            "talkAssetPathAlter": "",
            "talkAudioName": "",
            "actionBefore": "",
            "actionWhile": "",
            "actionAfter": "",
            "optionIcon": ""
        },
        {
            "id": 740330405,
            "nextDialogs": [
                740330406
            ],
            "talkRole": {
                "type": "TALK_ROLE_NPC",
                "id": "21076"
            },
            "talkContentTextMapHash": 634737986,
            "talkAssetPath": "",
            "talkAssetPathAlter": "",
            "talkAudioName": "",
            "actionBefore": "",
            "actionWhile": "",
            "actionAfter": "",
            "optionIcon": ""
        },
        {
            "id": 740330406,
            "nextDialogs": [
                740330407
            ],
            "talkRole": {
                "type": "TALK_ROLE_NPC",
                "id": "21076"
            },
            "talkContentTextMapHash": 4195305170,
            "talkAssetPath": "",
            "talkAssetPathAlter": "",
            "talkAudioName": "",
            "actionBefore": "",
            "actionWhile": "",
            "actionAfter": "",
            "optionIcon": ""
        },
        {
            "id": 740330407,
            "nextDialogs": [
                740330408
            ],
            "talkRole": {
                "type": "TALK_ROLE_NPC",
                "id": "21076"
            },
            "talkContentTextMapHash": 2029486026,
            "talkAssetPath": "",
            "talkAssetPathAlter": "",
            "talkAudioName": "",
            "actionBefore": "",
            "actionWhile": "",
            "actionAfter": "",
            "optionIcon": ""
        },
        {
            "id": 740330408,
            "nextDialogs": [
                740330409
            ],
            "talkRole": {
                "type": "TALK_ROLE_NPC",
                "id": "21076"
            },
            "talkContentTextMapHash": 3084262730,
            "talkAssetPath": "",
            "talkAssetPathAlter": "",
            "talkAudioName": "",
            "actionBefore": "",
            "actionWhile": "",
            "actionAfter": "",
            "optionIcon": ""
        },
        {
            "id": 740330409,
            "nextDialogs": [
                740330410
            ],
            "talkRole": {
                "type": "TALK_ROLE_NPC",
                "id": "1005"
            },
            "talkContentTextMapHash": 2484625930,
            "talkAssetPath": "",
            "talkAssetPathAlter": "",
            "talkAudioName": "",
            "actionBefore": "",
            "actionWhile": "",
            "actionAfter": "",
            "optionIcon": ""
        },
        {
            "id": 740330410,
            "nextDialogs": [
                740330411,
                740330413
            ],
            "talkRole": {
                "type": "TALK_ROLE_NPC",
                "id": "21076"
            },
            "talkContentTextMapHash": 3773004442,
            "talkAssetPath": "",
            "talkAssetPathAlter": "",
            "talkAudioName": "",
            "actionBefore": "",
            "actionWhile": "",
            "actionAfter": "",
            "optionIcon": ""
        },
        {
            "id": 740330411,
            "nextDialogs": [
                740330412
            ],
            "talkShowType": "TALK_SHOW_FORCE_SELECT",
            "talkRole": {
                "type": "TALK_ROLE_PLAYER",
                "id": ""
            },
            "talkContentTextMapHash": 418454362,
            "talkAssetPath": "",
            "talkAssetPathAlter": "",
            "talkAudioName": "",
            "actionBefore": "",
            "actionWhile": "",
            "actionAfter": "",
            "optionIcon": ""
        },
        {
            "id": 740330412,
            "nextDialogs": [
                740330415
            ],
            "talkRole": {
                "type": "TALK_ROLE_NPC",
                "id": "21076"
            },
            "talkContentTextMapHash": 1756857642,
            "talkAssetPath": "",
            "talkAssetPathAlter": "",
            "talkAudioName": "",
            "actionBefore": "",
            "actionWhile": "",
            "actionAfter": "",
            "optionIcon": ""
        },
        {
            "id": 740330415,
            "nextDialogs": [
                740330416
            ],
            "talkRole": {
                "type": "TALK_ROLE_NPC",
                "id": "21076"
            },
            "talkContentTextMapHash": 3990684690,
            "talkAssetPath": "",
            "talkAssetPathAlter": "",
            "talkAudioName": "",
            "actionBefore": "",
            "actionWhile": "",
            "actionAfter": "",
            "optionIcon": ""
        },
        {
            "id": 740330416,
            "nextDialogs": [
                740330417
            ],
            "talkRole": {
                "type": "TALK_ROLE_NPC",
                "id": "21048"
            },
            "talkContentTextMapHash": 3017477834,
            "talkAssetPath": "",
            "talkAssetPathAlter": "",
            "talkAudioName": "",
            "actionBefore": "",
            "actionWhile": "",
            "actionAfter": "",
            "optionIcon": ""
        },
        {
            "id": 740330417,
            "nextDialogs": [
                740330418
            ],
            "talkRole": {
                "type": "TALK_ROLE_NPC",
                "id": "21076"
            },
            "talkContentTextMapHash": 2886291370,
            "talkAssetPath": "",
            "talkAssetPathAlter": "",
            "talkAudioName": "",
            "actionBefore": "",
            "actionWhile": "",
            "actionAfter": "",
            "optionIcon": ""
        },
        {
            "id": 740330418,
            "nextDialogs": [
                740330419
            ],
            "talkRole": {
                "type": "TALK_ROLE_NPC",
                "id": "21048"
            },
            "talkContentTextMapHash": 627101042,
            "talkAssetPath": "",
            "talkAssetPathAlter": "",
            "talkAudioName": "",
            "actionBefore": "",
            "actionWhile": "",
            "actionAfter": "",
            "optionIcon": ""
        },
        {
            "id": 740330419,
            "nextDialogs": [
                740330420
            ],
            "talkRole": {
                "type": "TALK_ROLE_NPC",
                "id": "1005"
            },
            "talkContentTextMapHash": 1663964586,
            "talkAssetPath": "",
            "talkAssetPathAlter": "",
            "talkAudioName": "",
            "actionBefore": "",
            "actionWhile": "",
            "actionAfter": "",
            "optionIcon": ""
        },
        {
            "id": 740330420,
            "nextDialogs": [
                740330421
            ],
            "talkRole": {
                "type": "TALK_ROLE_NPC",
                "id": "21048"
            },
            "talkContentTextMapHash": 3290725410,
            "talkAssetPath": "",
            "talkAssetPathAlter": "",
            "talkAudioName": "",
            "actionBefore": "",
            "actionWhile": "",
            "actionAfter": "",
            "optionIcon": ""
        },
        {
            "id": 740330421,
            "nextDialogs": [
                740330422
            ],
            "talkRole": {
                "type": "TALK_ROLE_NPC",
                "id": "1005"
            },
            "talkContentTextMapHash": 3732399762,
            "talkAssetPath": "",
            "talkAssetPathAlter": "",
            "talkAudioName": "",
            "actionBefore": "",
            "actionWhile": "",
            "actionAfter": "",
            "optionIcon": ""
        },
        {
            "id": 740330422,
            "nextDialogs": [
                740330423
            ],
            "talkRole": {
                "type": "TALK_ROLE_NPC",
                "id": "21076"
            },
            "talkContentTextMapHash": 1871481834,
            "talkAssetPath": "",
            "talkAssetPathAlter": "",
            "talkAudioName": "",
            "actionBefore": "",
            "actionWhile": "",
            "actionAfter": "",
            "optionIcon": ""
        },
        {
            "id": 740330423,
            "nextDialogs": [
                740330424
            ],
            "talkRole": {
                "type": "TALK_ROLE_NPC",
                "id": "1005"
            },
            "talkContentTextMapHash": 3972883610,
            "talkAssetPath": "",
            "talkAssetPathAlter": "",
            "talkAudioName": "",
            "actionBefore": "",
            "actionWhile": "",
            "actionAfter": "",
            "optionIcon": ""
        },
        {
            "id": 740330424,
            "nextDialogs": [
                740330425,
                740330428
            ],
            "talkRole": {
                "type": "TALK_ROLE_NPC",
                "id": "21076"
            },
            "talkContentTextMapHash": 2109374858,
            "talkAssetPath": "",
            "talkAssetPathAlter": "",
            "talkAudioName": "",
            "actionBefore": "",
            "actionWhile": "",
            "actionAfter": "",
            "optionIcon": ""
        },
        {
            "id": 740330425,
            "nextDialogs": [
                740330426
            ],
            "talkShowType": "TALK_SHOW_FORCE_SELECT",
            "talkRole": {
                "type": "TALK_ROLE_PLAYER",
                "id": ""
            },
            "talkContentTextMapHash": 1577289690,
            "talkAssetPath": "",
            "talkAssetPathAlter": "",
            "talkAudioName": "",
            "actionBefore": "",
            "actionWhile": "",
            "actionAfter": "",
            "optionIcon": ""
        },
        {
            "id": 740330426,
            "nextDialogs": [
                740330427
            ],
            "talkRole": {
                "type": "TALK_ROLE_NPC",
                "id": "1005"
            },
            "talkContentTextMapHash": 3998789354,
            "talkAssetPath": "",
            "talkAssetPathAlter": "",
            "talkAudioName": "",
            "actionBefore": "",
            "actionWhile": "",
            "actionAfter": "",
            "optionIcon": ""
        },
        {
            "id": 740330427,
            "nextDialogs": [
                740330431
            ],
            "talkRole": {
                "type": "TALK_ROLE_NPC",
                "id": "1005"
            },
            "talkContentTextMapHash": 4118604122,
            "talkAssetPath": "",
            "talkAssetPathAlter": "",
            "talkAudioName": "",
            "actionBefore": "",
            "actionWhile": "",
            "actionAfter": "",
            "optionIcon": ""
        },
        {
            "id": 740330431,
            "nextDialogs": [
                740330432
            ],
            "talkRole": {
                "type": "TALK_ROLE_NPC",
                "id": "1005"
            },
            "talkContentTextMapHash": 2330239858,
            "talkAssetPath": "",
            "talkAssetPathAlter": "",
            "talkAudioName": "",
            "actionBefore": "",
            "actionWhile": "",
            "actionAfter": "",
            "optionIcon": ""
        },
        {
            "id": 740330432,
            "nextDialogs": [
                740330433
            ],
            "talkRole": {
                "type": "TALK_ROLE_NPC",
                "id": "21076"
            },
            "talkContentTextMapHash": 1924908130,
            "talkAssetPath": "",
            "talkAssetPathAlter": "",
            "talkAudioName": "",
            "actionBefore": "",
            "actionWhile": "",
            "actionAfter": "",
            "optionIcon": ""
        },
        {
            "id": 740330433,
            "nextDialogs": [
                740330434
            ],
            "talkRole": {
                "type": "TALK_ROLE_NPC",
                "id": "21076"
            },
            "talkContentTextMapHash": 3413812474,
            "talkAssetPath": "",
            "talkAssetPathAlter": "",
            "talkAudioName": "",
            "actionBefore": "",
            "actionWhile": "",
            "actionAfter": "",
            "optionIcon": ""
        },
        {
            "id": 740330434,
            "nextDialogs": [
                740330435
            ],
            "talkRole": {
                "type": "TALK_ROLE_NPC",
                "id": "21048"
            },
            "talkContentTextMapHash": 765517826,
            "talkAssetPath": "",
            "talkAssetPathAlter": "",
            "talkAudioName": "",
            "actionBefore": "",
            "actionWhile": "",
            "actionAfter": "",
            "optionIcon": ""
        },
        {
            "id": 740330435,
            "talkRole": {
                "type": "TALK_ROLE_NPC",
                "id": "1005"
            },
            "talkContentTextMapHash": 1438308394,
            "talkAssetPath": "",
            "talkAssetPathAlter": "",
            "talkAudioName": "",
            "actionBefore": "",
            "actionWhile": "",
            "actionAfter": "",
            "optionIcon": ""
        },
        {
            "id": 740330428,
            "nextDialogs": [
                740330429
            ],
            "talkShowType": "TALK_SHOW_FORCE_SELECT",
            "talkRole": {
                "type": "TALK_ROLE_PLAYER",
                "id": ""
            },
            "talkContentTextMapHash": 2350475458,
            "talkAssetPath": "",
            "talkAssetPathAlter": "",
            "talkAudioName": "",
            "actionBefore": "",
            "actionWhile": "",
            "actionAfter": "",
            "optionIcon": ""
        },
        {
            "id": 740330429,
            "nextDialogs": [
                740330430
            ],
            "talkRole": {
                "type": "TALK_ROLE_NPC",
                "id": "21076"
            },
            "talkContentTextMapHash": 87845946,
            "talkAssetPath": "",
            "talkAssetPathAlter": "",
            "talkAudioName": "",
            "actionBefore": "",
            "actionWhile": "",
            "actionAfter": "",
            "optionIcon": ""
        },
        {
            "id": 740330430,
            "nextDialogs": [
                740330431
            ],
            "talkRole": {
                "type": "TALK_ROLE_NPC",
                "id": "1005"
            },
            "talkContentTextMapHash": 3379227034,
            "talkAssetPath": "",
            "talkAssetPathAlter": "",
            "talkAudioName": "",
            "actionBefore": "",
            "actionWhile": "",
            "actionAfter": "",
            "optionIcon": ""
        },
        {
            "id": 740330413,
            "nextDialogs": [
                740330414
            ],
            "talkShowType": "TALK_SHOW_FORCE_SELECT",
            "talkRole": {
                "type": "TALK_ROLE_PLAYER",
                "id": ""
            },
            "talkContentTextMapHash": 1166074954,
            "talkAssetPath": "",
            "talkAssetPathAlter": "",
            "talkAudioName": "",
            "actionBefore": "",
            "actionWhile": "",
            "actionAfter": "",
            "optionIcon": ""
        },
        {
            "id": 740330414,
            "nextDialogs": [
                740330415
            ],
            "talkRole": {
                "type": "TALK_ROLE_NPC",
                "id": "21076"
            },
            "talkContentTextMapHash": 2455272690,
            "talkAssetPath": "",
            "talkAssetPathAlter": "",
            "talkAudioName": "",
            "actionBefore": "",
            "actionWhile": "",
            "actionAfter": "",
            "optionIcon": ""
        }
    ]
}