{
    "talkId": 7404208,
    "dialogList": [
        {
            "id": 740420801,
            "talkRole": {
                "type": "TALK_ROLE_NPC",
                "id": "21046"
            },
            "talkContentTextMapHash": 2981066850,
            "talkAssetPath": "",
            "talkAssetPathAlter": "",
            "talkAudioName": "",
            "actionBefore": "",
            "actionWhile": "",
            "actionAfter": "UI/open_giving_page",
            "optionIcon": ""
        }
    ]
}