{
    "talkId": 7405380,
    "dialogList": [
        {
            "id": 740538001,
            "talkRole": {
                "type": "TALK_ROLE_NPC",
                "id": "21308"
            },
            "talkContentTextMapHash": 2872904730,
            "talkRoleNameTextMapHash": 3743599971,
            "talkAssetPath": "",
            "talkAssetPathAlter": "",
            "talkAudioName": "",
            "actionBefore": "",
            "actionWhile": "",
            "actionAfter": "",
            "optionIcon": ""
        }
    ]
}