{
    "talkId": 7405322,
    "dialogList": [
        {
            "id": 740532201,
            "nextDialogs": [
                740532202
            ],
            "talkRole": {
                "type": "TALK_ROLE_NPC",
                "id": "21084"
            },
            "talkContentTextMapHash": 1855723242,
            "talkAssetPath": "",
            "talkAssetPathAlter": "",
            "talkAudioName": "",
            "actionBefore": "",
            "actionWhile": "",
            "actionAfter": "",
            "optionIcon": ""
        },
        {
            "id": 740532202,
            "nextDialogs": [
                740532203
            ],
            "talkRole": {
                "type": "TALK_ROLE_NPC",
                "id": "21084"
            },
            "talkContentTextMapHash": 4218465514,
            "talkAssetPath": "",
            "talkAssetPathAlter": "",
            "talkAudioName": "",
            "actionBefore": "",
            "actionWhile": "",
            "actionAfter": "",
            "optionIcon": ""
        },
        {
            "id": 740532203,
            "nextDialogs": [
                740532204
            ],
            "talkRole": {
                "type": "TALK_ROLE_NPC",
                "id": "5259"
            },
            "talkContentTextMapHash": 3759614322,
            "talkAssetPath": "",
            "talkAssetPathAlter": "",
            "talkAudioName": "",
            "actionBefore": "",
            "actionWhile": "",
            "actionAfter": "",
            "optionIcon": ""
        },
        {
            "id": 740532204,
            "nextDialogs": [
                740532205
            ],
            "talkRole": {
                "type": "TALK_ROLE_NPC",
                "id": "21084"
            },
            "talkContentTextMapHash": 3299488226,
            "talkAssetPath": "",
            "talkAssetPathAlter": "",
            "talkAudioName": "",
            "actionBefore": "",
            "actionWhile": "",
            "actionAfter": "",
            "optionIcon": ""
        },
        {
            "id": 740532205,
            "nextDialogs": [
                740532206
            ],
            "talkRole": {
                "type": "TALK_ROLE_NPC",
                "id": "5259"
            },
            "talkContentTextMapHash": 1762772242,
            "talkAssetPath": "",
            "talkAssetPathAlter": "",
            "talkAudioName": "",
            "actionBefore": "",
            "actionWhile": "",
            "actionAfter": "",
            "optionIcon": ""
        },
        {
            "id": 740532206,
            "nextDialogs": [
                740532207
            ],
            "talkRole": {
                "type": "TALK_ROLE_NPC",
                "id": "21084"
            },
            "talkContentTextMapHash": 2517996594,
            "talkAssetPath": "",
            "talkAssetPathAlter": "",
            "talkAudioName": "",
            "actionBefore": "",
            "actionWhile": "",
            "actionAfter": "",
            "optionIcon": ""
        },
        {
            "id": 740532207,
            "nextDialogs": [
                740532208
            ],
            "talkRole": {
                "type": "TALK_ROLE_NPC",
                "id": "21084"
            },
            "talkContentTextMapHash": 1187658706,
            "talkAssetPath": "",
            "talkAssetPathAlter": "",
            "talkAudioName": "",
            "actionBefore": "",
            "actionWhile": "",
            "actionAfter": "",
            "optionIcon": ""
        },
        {
            "id": 740532208,
            "nextDialogs": [
                740532209
            ],
            "talkRole": {
                "type": "TALK_ROLE_NPC",
                "id": "21084"
            },
            "talkContentTextMapHash": 782988234,
            "talkAssetPath": "",
            "talkAssetPathAlter": "",
            "talkAudioName": "",
            "actionBefore": "",
            "actionWhile": "",
            "actionAfter": "",
            "optionIcon": ""
        },
        {
            "id": 740532209,
            "nextDialogs": [
                740532210
            ],
            "talkRole": {
                "type": "TALK_ROLE_NPC",
                "id": "21293"
            },
            "talkContentTextMapHash": 1507019346,
            "talkAssetPath": "",
            "talkAssetPathAlter": "",
            "talkAudioName": "",
            "actionBefore": "",
            "actionWhile": "",
            "actionAfter": "",
            "optionIcon": ""
        },
        {
            "id": 740532210,
            "nextDialogs": [
                740532211
            ],
            "talkShowType": "TALK_SHOW_FORCE_SELECT",
            "talkRole": {
                "type": "TALK_ROLE_PLAYER",
                "id": ""
            },
            "talkContentTextMapHash": 2742207354,
            "talkAssetPath": "",
            "talkAssetPathAlter": "",
            "talkAudioName": "",
            "actionBefore": "",
            "actionWhile": "",
            "actionAfter": "",
            "optionIcon": ""
        },
        {
            "id": 740532211,
            "nextDialogs": [
                740532212
            ],
            "talkRole": {
                "type": "TALK_ROLE_NPC",
                "id": "5259"
            },
            "talkContentTextMapHash": 4099963962,
            "talkAssetPath": "",
            "talkAssetPathAlter": "",
            "talkAudioName": "",
            "actionBefore": "",
            "actionWhile": "",
            "actionAfter": "",
            "optionIcon": ""
        },
        {
            "id": 740532212,
            "nextDialogs": [
                740532213
            ],
            "talkRole": {
                "type": "TALK_ROLE_NPC",
                "id": "5259"
            },
            "talkContentTextMapHash": 2618919650,
            "talkAssetPath": "",
            "talkAssetPathAlter": "",
            "talkAudioName": "",
            "actionBefore": "",
            "actionWhile": "",
            "actionAfter": "",
            "optionIcon": ""
        },
        {
            "id": 740532213,
            "nextDialogs": [
                740532214
            ],
            "talkRole": {
                "type": "TALK_ROLE_NPC",
                "id": "5259"
            },
            "talkContentTextMapHash": 2780431458,
            "talkAssetPath": "",
            "talkAssetPathAlter": "",
            "talkAudioName": "",
            "actionBefore": "",
            "actionWhile": "",
            "actionAfter": "",
            "optionIcon": ""
        },
        {
            "id": 740532214,
            "nextDialogs": [
                740532215
            ],
            "talkRole": {
                "type": "TALK_ROLE_NPC",
                "id": "5259"
            },
            "talkContentTextMapHash": 3833042778,
            "talkAssetPath": "",
            "talkAssetPathAlter": "",
            "talkAudioName": "",
            "actionBefore": "",
            "actionWhile": "",
            "actionAfter": "",
            "optionIcon": ""
        },
        {
            "id": 740532215,
            "nextDialogs": [
                740532216
            ],
            "talkRole": {
                "type": "TALK_ROLE_NPC",
                "id": "5259"
            },
            "talkContentTextMapHash": 1537372858,
            "talkAssetPath": "",
            "talkAssetPathAlter": "",
            "talkAudioName": "",
            "actionBefore": "",
            "actionWhile": "",
            "actionAfter": "",
            "optionIcon": ""
        },
        {
            "id": 740532216,
            "nextDialogs": [
                740532217
            ],
            "talkRole": {
                "type": "TALK_ROLE_NPC",
                "id": "21084"
            },
            "talkContentTextMapHash": 177419554,
            "talkAssetPath": "",
            "talkAssetPathAlter": "",
            "talkAudioName": "",
            "actionBefore": "",
            "actionWhile": "",
            "actionAfter": "",
            "optionIcon": ""
        },
        {
            "id": 740532217,
            "talkRole": {
                "type": "TALK_ROLE_NPC",
                "id": "5259"
            },
            "talkContentTextMapHash": 1288831602,
            "talkAssetPath": "",
            "talkAssetPathAlter": "",
            "talkAudioName": "",
            "actionBefore": "",
            "actionWhile": "",
            "actionAfter": "",
            "optionIcon": ""
        }
    ]
}