{
    "talkId": 7405103,
    "dialogList": [
        {
            "id": 740510301,
            "nextDialogs": [
                740510328
            ],
            "talkRole": {
                "type": "TALK_ROLE_NPC",
                "id": "13489"
            },
            "talkContentTextMapHash": 2895567698,
            "talkAssetPath": "",
            "talkAssetPathAlter": "",
            "talkAudioName": "",
            "actionBefore": "",
            "actionWhile": "",
            "actionAfter": "",
            "optionIcon": ""
        },
        {
            "id": 740510328,
            "nextDialogs": [
                740510302,
                740510303
            ],
            "talkRole": {
                "type": "TALK_ROLE_NPC",
                "id": "13489"
            },
            "talkContentTextMapHash": 3734387954,
            "talkAssetPath": "",
            "talkAssetPathAlter": "",
            "talkAudioName": "",
            "actionBefore": "",
            "actionWhile": "",
            "actionAfter": "",
            "optionIcon": ""
        },
        {
            "id": 740510302,
            "nextDialogs": [
                740510329
            ],
            "talkShowType": "TALK_SHOW_FORCE_SELECT",
            "talkRole": {
                "type": "TALK_ROLE_PLAYER",
                "id": ""
            },
            "talkContentTextMapHash": 1746717714,
            "talkAssetPath": "",
            "talkAssetPathAlter": "",
            "talkAudioName": "",
            "actionBefore": "",
            "actionWhile": "",
            "actionAfter": "",
            "optionIcon": ""
        },
        {
            "id": 740510303,
            "nextDialogs": [
                740510329
            ],
            "talkShowType": "TALK_SHOW_FORCE_SELECT",
            "talkRole": {
                "type": "TALK_ROLE_PLAYER",
                "id": ""
            },
            "talkContentTextMapHash": 4083106434,
            "talkAssetPath": "",
            "talkAssetPathAlter": "",
            "talkAudioName": "",
            "actionBefore": "",
            "actionWhile": "",
            "actionAfter": "",
            "optionIcon": ""
        },
        {
            "id": 740510329,
            "nextDialogs": [
                740510305
            ],
            "talkRole": {
                "type": "TALK_ROLE_NPC",
                "id": "13489"
            },
            "talkContentTextMapHash": 3401506346,
            "talkAssetPath": "",
            "talkAssetPathAlter": "",
            "talkAudioName": "",
            "actionBefore": "",
            "actionWhile": "",
            "actionAfter": "",
            "optionIcon": ""
        },
        {
            "id": 740510304,
            "nextDialogs": [
                740510305
            ],
            "talkRole": {
                "type": "TALK_ROLE_NPC",
                "id": "13489"
            },
            "talkContentTextMapHash": 2354786802,
            "talkAssetPath": "",
            "talkAssetPathAlter": "",
            "talkAudioName": "",
            "actionBefore": "",
            "actionWhile": "",
            "actionAfter": "",
            "optionIcon": ""
        },
        {
            "id": 740510305,
            "nextDialogs": [
                740510306
            ],
            "talkRole": {
                "type": "TALK_ROLE_NPC",
                "id": "13489"
            },
            "talkContentTextMapHash": 1969142890,
            "talkAssetPath": "",
            "talkAssetPathAlter": "",
            "talkAudioName": "",
            "actionBefore": "",
            "actionWhile": "",
            "actionAfter": "",
            "optionIcon": ""
        },
        {
            "id": 740510306,
            "nextDialogs": [
                740510307
            ],
            "talkRole": {
                "type": "TALK_ROLE_NPC",
                "id": "13489"
            },
            "talkContentTextMapHash": 3654123426,
            "talkAssetPath": "",
            "talkAssetPathAlter": "",
            "talkAudioName": "",
            "actionBefore": "",
            "actionWhile": "",
            "actionAfter": "",
            "optionIcon": ""
        },
        {
            "id": 740510307,
            "nextDialogs": [
                740510308
            ],
            "talkRole": {
                "type": "TALK_ROLE_NPC",
                "id": "13491"
            },
            "talkContentTextMapHash": 1056186930,
            "talkAssetPath": "",
            "talkAssetPathAlter": "",
            "talkAudioName": "",
            "actionBefore": "",
            "actionWhile": "",
            "actionAfter": "",
            "optionIcon": ""
        },
        {
            "id": 740510308,
            "nextDialogs": [
                740510309
            ],
            "talkRole": {
                "type": "TALK_ROLE_NPC",
                "id": "13490"
            },
            "talkContentTextMapHash": 1951241202,
            "talkAssetPath": "",
            "talkAssetPathAlter": "",
            "talkAudioName": "",
            "actionBefore": "",
            "actionWhile": "",
            "actionAfter": "",
            "optionIcon": ""
        },
        {
            "id": 740510309,
            "nextDialogs": [
                740510310
            ],
            "talkRole": {
                "type": "TALK_ROLE_NPC",
                "id": "13489"
            },
            "talkContentTextMapHash": 159610058,
            "talkAssetPath": "",
            "talkAssetPathAlter": "",
            "talkAudioName": "",
            "actionBefore": "",
            "actionWhile": "",
            "actionAfter": "",
            "optionIcon": ""
        },
        {
            "id": 740510310,
            "nextDialogs": [
                740510311
            ],
            "talkRole": {
                "type": "TALK_ROLE_NPC",
                "id": "13489"
            },
            "talkContentTextMapHash": 1951713890,
            "talkAssetPath": "",
            "talkAssetPathAlter": "",
            "talkAudioName": "",
            "actionBefore": "",
            "actionWhile": "",
            "actionAfter": "",
            "optionIcon": ""
        },
        {
            "id": 740510311,
            "nextDialogs": [
                740510312
            ],
            "talkRole": {
                "type": "TALK_ROLE_NPC",
                "id": "13491"
            },
            "talkContentTextMapHash": 61797730,
            "talkAssetPath": "",
            "talkAssetPathAlter": "",
            "talkAudioName": "",
            "actionBefore": "",
            "actionWhile": "",
            "actionAfter": "",
            "optionIcon": ""
        },
        {
            "id": 740510312,
            "nextDialogs": [
                740510313
            ],
            "talkRole": {
                "type": "TALK_ROLE_NPC",
                "id": "13490"
            },
            "talkContentTextMapHash": 3177685770,
            "talkAssetPath": "",
            "talkAssetPathAlter": "",
            "talkAudioName": "",
            "actionBefore": "",
            "actionWhile": "",
            "actionAfter": "",
            "optionIcon": ""
        },
        {
            "id": 740510313,
            "nextDialogs": [
                740510314
            ],
            "talkRole": {
                "type": "TALK_ROLE_NPC",
                "id": "13489"
            },
            "talkContentTextMapHash": 2775420946,
            "talkAssetPath": "",
            "talkAssetPathAlter": "",
            "talkAudioName": "",
            "actionBefore": "",
            "actionWhile": "",
            "actionAfter": "",
            "optionIcon": ""
        },
        {
            "id": 740510314,
            "nextDialogs": [
                740510315
            ],
            "talkShowType": "TALK_SHOW_FORCE_SELECT",
            "talkRole": {
                "type": "TALK_ROLE_PLAYER",
                "id": ""
            },
            "talkContentTextMapHash": 1416505034,
            "talkAssetPath": "",
            "talkAssetPathAlter": "",
            "talkAudioName": "",
            "actionBefore": "",
            "actionWhile": "",
            "actionAfter": "",
            "optionIcon": ""
        },
        {
            "id": 740510315,
            "nextDialogs": [
                740510316
            ],
            "talkRole": {
                "type": "TALK_ROLE_NPC",
                "id": "13489"
            },
            "talkContentTextMapHash": 774186426,
            "talkAssetPath": "",
            "talkAssetPathAlter": "",
            "talkAudioName": "",
            "actionBefore": "",
            "actionWhile": "",
            "actionAfter": "",
            "optionIcon": ""
        },
        {
            "id": 740510316,
            "nextDialogs": [
                740510317
            ],
            "talkRole": {
                "type": "TALK_ROLE_NPC",
                "id": "13489"
            },
            "talkContentTextMapHash": 554110946,
            "talkAssetPath": "",
            "talkAssetPathAlter": "",
            "talkAudioName": "",
            "actionBefore": "",
            "actionWhile": "",
            "actionAfter": "",
            "optionIcon": ""
        },
        {
            "id": 740510317,
            "nextDialogs": [
                740510318
            ],
            "talkRole": {
                "type": "TALK_ROLE_NPC",
                "id": "13491"
            },
            "talkContentTextMapHash": 161516138,
            "talkAssetPath": "",
            "talkAssetPathAlter": "",
            "talkAudioName": "",
            "actionBefore": "",
            "actionWhile": "",
            "actionAfter": "",
            "optionIcon": ""
        },
        {
            "id": 740510318,
            "nextDialogs": [
                740510319
            ],
            "talkRole": {
                "type": "TALK_ROLE_NPC",
                "id": "13489"
            },
            "talkContentTextMapHash": 4177414938,
            "talkAssetPath": "",
            "talkAssetPathAlter": "",
            "talkAudioName": "",
            "actionBefore": "",
            "actionWhile": "",
            "actionAfter": "",
            "optionIcon": ""
        },
        {
            "id": 740510319,
            "nextDialogs": [
                740510320
            ],
            "talkRole": {
                "type": "TALK_ROLE_NPC",
                "id": "13489"
            },
            "talkContentTextMapHash": 3134499298,
            "talkAssetPath": "",
            "talkAssetPathAlter": "",
            "talkAudioName": "",
            "actionBefore": "",
            "actionWhile": "",
            "actionAfter": "",
            "optionIcon": ""
        },
        {
            "id": 740510320,
            "nextDialogs": [
                740510321
            ],
            "talkRole": {
                "type": "TALK_ROLE_NPC",
                "id": "13490"
            },
            "talkContentTextMapHash": 2863200994,
            "talkAssetPath": "",
            "talkAssetPathAlter": "",
            "talkAudioName": "",
            "actionBefore": "",
            "actionWhile": "",
            "actionAfter": "",
            "optionIcon": ""
        },
        {
            "id": 740510321,
            "nextDialogs": [
                740510322
            ],
            "talkRole": {
                "type": "TALK_ROLE_NPC",
                "id": "13489"
            },
            "talkContentTextMapHash": 2270014410,
            "talkAssetPath": "",
            "talkAssetPathAlter": "",
            "talkAudioName": "",
            "actionBefore": "",
            "actionWhile": "",
            "actionAfter": "",
            "optionIcon": ""
        },
        {
            "id": 740510322,
            "nextDialogs": [
                740510323
            ],
            "talkRole": {
                "type": "TALK_ROLE_NPC",
                "id": "13489"
            },
            "talkContentTextMapHash": 738726514,
            "talkAssetPath": "",
            "talkAssetPathAlter": "",
            "talkAudioName": "",
            "actionBefore": "",
            "actionWhile": "",
            "actionAfter": "",
            "optionIcon": ""
        },
        {
            "id": 740510323,
            "nextDialogs": [
                740510324
            ],
            "talkRole": {
                "type": "TALK_ROLE_NPC",
                "id": "13489"
            },
            "talkContentTextMapHash": 2738443930,
            "talkAssetPath": "",
            "talkAssetPathAlter": "",
            "talkAudioName": "",
            "actionBefore": "",
            "actionWhile": "",
            "actionAfter": "",
            "optionIcon": ""
        },
        {
            "id": 740510324,
            "nextDialogs": [
                740510325
            ],
            "talkRole": {
                "type": "TALK_ROLE_NPC",
                "id": "13489"
            },
            "talkContentTextMapHash": 1856159618,
            "talkAssetPath": "",
            "talkAssetPathAlter": "",
            "talkAudioName": "",
            "actionBefore": "",
            "actionWhile": "",
            "actionAfter": "",
            "optionIcon": ""
        },
        {
            "id": 740510325,
            "nextDialogs": [
                740510326
            ],
            "talkRole": {
                "type": "TALK_ROLE_NPC",
                "id": "13489"
            },
            "talkContentTextMapHash": 747182738,
            "talkAssetPath": "",
            "talkAssetPathAlter": "",
            "talkAudioName": "",
            "actionBefore": "",
            "actionWhile": "",
            "actionAfter": "",
            "optionIcon": ""
        },
        {
            "id": 740510326,
            "nextDialogs": [
                740510327
            ],
            "talkRole": {
                "type": "TALK_ROLE_NPC",
                "id": "13490"
            },
            "talkContentTextMapHash": 3491579450,
            "talkAssetPath": "",
            "talkAssetPathAlter": "",
            "talkAudioName": "",
            "actionBefore": "",
            "actionWhile": "",
            "actionAfter": "",
            "optionIcon": ""
        },
        {
            "id": 740510327,
            "talkRole": {
                "type": "TALK_ROLE_NPC",
                "id": "13491"
            },
            "talkContentTextMapHash": 1847110346,
            "talkAssetPath": "",
            "talkAssetPathAlter": "",
            "talkAudioName": "",
            "actionBefore": "",
            "actionWhile": "",
            "actionAfter": "",
            "optionIcon": ""
        }
    ]
}