{
    "talkId": 7406013,
    "dialogList": [
        {
            "id": 740601301,
            "nextDialogs": [
                740601302
            ],
            "talkRole": {
                "type": "TALK_ROLE_NPC",
                "id": "5262"
            },
            "talkContentTextMapHash": 1891306282,
            "talkAssetPath": "",
            "talkAssetPathAlter": "",
            "talkAudioName": "",
            "actionBefore": "",
            "actionWhile": "",
            "actionAfter": "",
            "optionIcon": ""
        },
        {
            "id": 740601302,
            "talkRole": {
                "type": "TALK_ROLE_NPC",
                "id": "5262"
            },
            "talkContentTextMapHash": 6559482,
            "talkAssetPath": "",
            "talkAssetPathAlter": "",
            "talkAudioName": "",
            "actionBefore": "",
            "actionWhile": "",
            "actionAfter": "",
            "optionIcon": ""
        }
    ]
}