{
    "talkId": 7408110,
    "dialogList": [
        {
            "id": 740811001,
            "nextDialogs": [
                740811002
            ],
            "talkRole": {
                "type": "TALK_ROLE_NPC",
                "id": "5223"
            },
            "talkContentTextMapHash": 947825002,
            "talkAssetPath": "",
            "talkAssetPathAlter": "",
            "talkAudioName": "",
            "actionBefore": "",
            "actionWhile": "",
            "actionAfter": "",
            "optionIcon": ""
        },
        {
            "id": 740811002,
            "talkRole": {
                "type": "TALK_ROLE_NPC",
                "id": "5223"
            },
            "talkContentTextMapHash": 4140916818,
            "talkAssetPath": "",
            "talkAssetPathAlter": "",
            "talkAudioName": "",
            "actionBefore": "",
            "actionWhile": "",
            "actionAfter": "",
            "optionIcon": ""
        }
    ]
}