{
    "talkId": 7408117,
    "dialogList": [
        {
            "id": 740811701,
            "nextDialogs": [
                740811702
            ],
            "talkRole": {
                "type": "TALK_ROLE_NPC",
                "id": "1005"
            },
            "talkContentTextMapHash": 1003917130,
            "talkAssetPath": "",
            "talkAssetPathAlter": "",
            "talkAudioName": "",
            "actionBefore": "",
            "actionWhile": "",
            "actionAfter": "",
            "optionIcon": ""
        },
        {
            "id": 740811702,
            "nextDialogs": [
                740811703,
                740811704
            ],
            "talkRole": {
                "type": "TALK_ROLE_NPC",
                "id": "5223"
            },
            "talkContentTextMapHash": 288705242,
            "talkRoleNameTextMapHash": 1135161707,
            "talkAssetPath": "",
            "talkAssetPathAlter": "",
            "talkAudioName": "",
            "actionBefore": "",
            "actionWhile": "",
            "actionAfter": "",
            "optionIcon": ""
        },
        {
            "id": 740811703,
            "nextDialogs": [
                740811705
            ],
            "talkShowType": "TALK_SHOW_FORCE_SELECT",
            "talkRole": {
                "type": "TALK_ROLE_PLAYER",
                "id": ""
            },
            "talkContentTextMapHash": 2237961514,
            "talkAssetPath": "",
            "talkAssetPathAlter": "",
            "talkAudioName": "",
            "actionBefore": "",
            "actionWhile": "",
            "actionAfter": "",
            "optionIcon": ""
        },
        {
            "id": 740811705,
            "nextDialogs": [
                740811706
            ],
            "talkRole": {
                "type": "TALK_ROLE_NPC",
                "id": "1005"
            },
            "talkContentTextMapHash": 597472602,
            "talkAssetPath": "",
            "talkAssetPathAlter": "",
            "talkAudioName": "",
            "actionBefore": "",
            "actionWhile": "",
            "actionAfter": "",
            "optionIcon": ""
        },
        {
            "id": 740811706,
            "nextDialogs": [
                740811707,
                740811708
            ],
            "talkRole": {
                "type": "TALK_ROLE_NPC",
                "id": "5223"
            },
            "talkContentTextMapHash": 1912207330,
            "talkRoleNameTextMapHash": 4254947939,
            "talkAssetPath": "",
            "talkAssetPathAlter": "",
            "talkAudioName": "",
            "actionBefore": "",
            "actionWhile": "",
            "actionAfter": "",
            "optionIcon": ""
        },
        {
            "id": 740811707,
            "nextDialogs": [
                740811709
            ],
            "talkShowType": "TALK_SHOW_FORCE_SELECT",
            "talkRole": {
                "type": "TALK_ROLE_PLAYER",
                "id": ""
            },
            "talkContentTextMapHash": 3969338146,
            "talkAssetPath": "",
            "talkAssetPathAlter": "",
            "talkAudioName": "",
            "actionBefore": "",
            "actionWhile": "",
            "actionAfter": "",
            "optionIcon": ""
        },
        {
            "id": 740811709,
            "nextDialogs": [
                740811710
            ],
            "talkRole": {
                "type": "TALK_ROLE_NPC",
                "id": "1005"
            },
            "talkContentTextMapHash": 219394554,
            "talkAssetPath": "",
            "talkAssetPathAlter": "",
            "talkAudioName": "",
            "actionBefore": "",
            "actionWhile": "",
            "actionAfter": "",
            "optionIcon": ""
        },
        {
            "id": 740811710,
            "nextDialogs": [
                740811711
            ],
            "talkRole": {
                "type": "TALK_ROLE_NPC",
                "id": "5223"
            },
            "talkContentTextMapHash": 2668768018,
            "talkRoleNameTextMapHash": 2246163627,
            "talkAssetPath": "",
            "talkAssetPathAlter": "",
            "talkAudioName": "",
            "actionBefore": "",
            "actionWhile": "",
            "actionAfter": "",
            "optionIcon": ""
        },
        {
            "id": 740811711,
            "nextDialogs": [
                740811712
            ],
            "talkRole": {
                "type": "TALK_ROLE_NPC",
                "id": "5223"
            },
            "talkContentTextMapHash": 2388683338,
            "talkRoleNameTextMapHash": 480772467,
            "talkAssetPath": "",
            "talkAssetPathAlter": "",
            "talkAudioName": "",
            "actionBefore": "",
            "actionWhile": "",
            "actionAfter": "",
            "optionIcon": ""
        },
        {
            "id": 740811712,
            "nextDialogs": [
                740811713
            ],
            "talkRole": {
                "type": "TALK_ROLE_NPC",
                "id": "5223"
            },
            "talkContentTextMapHash": 4238609738,
            "talkRoleNameTextMapHash": 2375258251,
            "talkAssetPath": "",
            "talkAssetPathAlter": "",
            "talkAudioName": "",
            "actionBefore": "",
            "actionWhile": "",
            "actionAfter": "",
            "optionIcon": ""
        },
        {
            "id": 740811713,
            "nextDialogs": [
                740811714
            ],
            "talkRole": {
                "type": "TALK_ROLE_NPC",
                "id": "5223"
            },
            "talkContentTextMapHash": 1119306850,
            "talkRoleNameTextMapHash": 2594598243,
            "talkAssetPath": "",
            "talkAssetPathAlter": "",
            "talkAudioName": "",
            "actionBefore": "",
            "actionWhile": "",
            "actionAfter": "",
            "optionIcon": ""
        },
        {
            "id": 740811714,
            "nextDialogs": [
                740811715,
                740811716
            ],
            "talkRole": {
                "type": "TALK_ROLE_NPC",
                "id": "5223"
            },
            "talkContentTextMapHash": 1264528458,
            "talkRoleNameTextMapHash": 3596757011,
            "talkAssetPath": "",
            "talkAssetPathAlter": "",
            "talkAudioName": "",
            "actionBefore": "",
            "actionWhile": "",
            "actionAfter": "",
            "optionIcon": ""
        },
        {
            "id": 740811715,
            "nextDialogs": [
                740811718
            ],
            "talkShowType": "TALK_SHOW_FORCE_SELECT",
            "talkRole": {
                "type": "TALK_ROLE_PLAYER",
                "id": ""
            },
            "talkContentTextMapHash": 2290601858,
            "talkAssetPath": "",
            "talkAssetPathAlter": "",
            "talkAudioName": "",
            "actionBefore": "",
            "actionWhile": "",
            "actionAfter": "",
            "optionIcon": ""
        },
        {
            "id": 740811718,
            "nextDialogs": [
                740811719
            ],
            "talkRole": {
                "type": "TALK_ROLE_NPC",
                "id": "1005"
            },
            "talkContentTextMapHash": 3493585954,
            "talkAssetPath": "",
            "talkAssetPathAlter": "",
            "talkAudioName": "",
            "actionBefore": "",
            "actionWhile": "",
            "actionAfter": "",
            "optionIcon": ""
        },
        {
            "id": 740811719,
            "nextDialogs": [
                740811720
            ],
            "talkRole": {
                "type": "TALK_ROLE_NPC",
                "id": "5223"
            },
            "talkContentTextMapHash": 297184002,
            "talkRoleNameTextMapHash": 2736475339,
            "talkAssetPath": "",
            "talkAssetPathAlter": "",
            "talkAudioName": "",
            "actionBefore": "",
            "actionWhile": "",
            "actionAfter": "",
            "optionIcon": ""
        },
        {
            "id": 740811720,
            "nextDialogs": [
                740811721
            ],
            "talkRole": {
                "type": "TALK_ROLE_NPC",
                "id": "5223"
            },
            "talkContentTextMapHash": 1163012874,
            "talkRoleNameTextMapHash": 3456007235,
            "talkAssetPath": "",
            "talkAssetPathAlter": "",
            "talkAudioName": "",
            "actionBefore": "",
            "actionWhile": "",
            "actionAfter": "",
            "optionIcon": ""
        },
        {
            "id": 740811721,
            "nextDialogs": [
                740811722
            ],
            "talkRole": {
                "type": "TALK_ROLE_NPC",
                "id": "5223"
            },
            "talkContentTextMapHash": 1996688866,
            "talkRoleNameTextMapHash": 3342746691,
            "talkAssetPath": "",
            "talkAssetPathAlter": "",
            "talkAudioName": "",
            "actionBefore": "",
            "actionWhile": "",
            "actionAfter": "",
            "optionIcon": ""
        },
        {
            "id": 740811722,
            "nextDialogs": [
                740811723,
                740811725
            ],
            "talkRole": {
                "type": "TALK_ROLE_NPC",
                "id": "1005"
            },
            "talkContentTextMapHash": 3422708098,
            "talkAssetPath": "",
            "talkAssetPathAlter": "",
            "talkAudioName": "",
            "actionBefore": "",
            "actionWhile": "",
            "actionAfter": "",
            "optionIcon": ""
        },
        {
            "id": 740811723,
            "nextDialogs": [
                740811724
            ],
            "talkShowType": "TALK_SHOW_FORCE_SELECT",
            "talkRole": {
                "type": "TALK_ROLE_PLAYER",
                "id": ""
            },
            "talkContentTextMapHash": 4285401146,
            "talkAssetPath": "",
            "talkAssetPathAlter": "",
            "talkAudioName": "",
            "actionBefore": "",
            "actionWhile": "",
            "actionAfter": "",
            "optionIcon": ""
        },
        {
            "id": 740811724,
            "nextDialogs": [
                740811726
            ],
            "talkRole": {
                "type": "TALK_ROLE_NPC",
                "id": "1005"
            },
            "talkContentTextMapHash": 2776236842,
            "talkAssetPath": "",
            "talkAssetPathAlter": "",
            "talkAudioName": "",
            "actionBefore": "",
            "actionWhile": "",
            "actionAfter": "",
            "optionIcon": ""
        },
        {
            "id": 740811726,
            "nextDialogs": [
                740811727
            ],
            "talkRole": {
                "type": "TALK_ROLE_NPC",
                "id": "5223"
            },
            "talkContentTextMapHash": 1044005586,
            "talkRoleNameTextMapHash": 2282664291,
            "talkAssetPath": "",
            "talkAssetPathAlter": "",
            "talkAudioName": "",
            "actionBefore": "",
            "actionWhile": "",
            "actionAfter": "",
            "optionIcon": ""
        },
        {
            "id": 740811727,
            "nextDialogs": [
                740811728
            ],
            "talkRole": {
                "type": "TALK_ROLE_NPC",
                "id": "5223"
            },
            "talkContentTextMapHash": 915253506,
            "talkRoleNameTextMapHash": 1055612011,
            "talkAssetPath": "",
            "talkAssetPathAlter": "",
            "talkAudioName": "",
            "actionBefore": "",
            "actionWhile": "",
            "actionAfter": "",
            "optionIcon": ""
        },
        {
            "id": 740811728,
            "nextDialogs": [
                740811729
            ],
            "talkRole": {
                "type": "TALK_ROLE_NPC",
                "id": "1005"
            },
            "talkContentTextMapHash": 3948565290,
            "talkAssetPath": "",
            "talkAssetPathAlter": "",
            "talkAudioName": "",
            "actionBefore": "",
            "actionWhile": "",
            "actionAfter": "",
            "optionIcon": ""
        },
        {
            "id": 740811729,
            "nextDialogs": [
                740811730,
                740811731
            ],
            "talkRole": {
                "type": "TALK_ROLE_NPC",
                "id": "5223"
            },
            "talkContentTextMapHash": 430554826,
            "talkRoleNameTextMapHash": 682671371,
            "talkAssetPath": "",
            "talkAssetPathAlter": "",
            "talkAudioName": "",
            "actionBefore": "",
            "actionWhile": "",
            "actionAfter": "",
            "optionIcon": ""
        },
        {
            "id": 740811730,
            "nextDialogs": [
                740811732
            ],
            "talkShowType": "TALK_SHOW_FORCE_SELECT",
            "talkRole": {
                "type": "TALK_ROLE_PLAYER",
                "id": ""
            },
            "talkContentTextMapHash": 1415686442,
            "talkAssetPath": "",
            "talkAssetPathAlter": "",
            "talkAudioName": "",
            "actionBefore": "",
            "actionWhile": "",
            "actionAfter": "",
            "optionIcon": ""
        },
        {
            "id": 740811732,
            "nextDialogs": [
                740811733
            ],
            "talkRole": {
                "type": "TALK_ROLE_NPC",
                "id": "5223"
            },
            "talkContentTextMapHash": 456473810,
            "talkRoleNameTextMapHash": 3483203667,
            "talkAssetPath": "",
            "talkAssetPathAlter": "",
            "talkAudioName": "",
            "actionBefore": "",
            "actionWhile": "",
            "actionAfter": "",
            "optionIcon": ""
        },
        {
            "id": 740811733,
            "nextDialogs": [
                740811734
            ],
            "talkRole": {
                "type": "TALK_ROLE_NPC",
                "id": "1005"
            },
            "talkContentTextMapHash": 1175932730,
            "talkAssetPath": "",
            "talkAssetPathAlter": "",
            "talkAudioName": "",
            "actionBefore": "",
            "actionWhile": "",
            "actionAfter": "",
            "optionIcon": ""
        },
        {
            "id": 740811734,
            "nextDialogs": [
                740811735,
                740811736
            ],
            "talkRole": {
                "type": "TALK_ROLE_NPC",
                "id": "5223"
            },
            "talkContentTextMapHash": 3209299858,
            "talkRoleNameTextMapHash": 4145963043,
            "talkAssetPath": "",
            "talkAssetPathAlter": "",
            "talkAudioName": "",
            "actionBefore": "",
            "actionWhile": "",
            "actionAfter": "",
            "optionIcon": ""
        },
        {
            "id": 740811735,
            "nextDialogs": [
                740811746
            ],
            "talkShowType": "TALK_SHOW_FORCE_SELECT",
            "talkRole": {
                "type": "TALK_ROLE_PLAYER",
                "id": ""
            },
            "talkContentTextMapHash": 3502301570,
            "talkAssetPath": "",
            "talkAssetPathAlter": "",
            "talkAudioName": "",
            "actionBefore": "",
            "actionWhile": "",
            "actionAfter": "",
            "optionIcon": ""
        },
        {
            "id": 740811746,
            "nextDialogs": [
                740811737
            ],
            "talkRole": {
                "type": "TALK_ROLE_NPC",
                "id": "5223"
            },
            "talkContentTextMapHash": 3869962354,
            "talkRoleNameTextMapHash": 2046783995,
            "talkAssetPath": "",
            "talkAssetPathAlter": "",
            "talkAudioName": "",
            "actionBefore": "",
            "actionWhile": "",
            "actionAfter": "",
            "optionIcon": ""
        },
        {
            "id": 740811737,
            "nextDialogs": [
                740811738
            ],
            "talkRole": {
                "type": "TALK_ROLE_NPC",
                "id": "5223"
            },
            "talkContentTextMapHash": 203205562,
            "talkRoleNameTextMapHash": 3971359123,
            "talkAssetPath": "",
            "talkAssetPathAlter": "",
            "talkAudioName": "",
            "actionBefore": "",
            "actionWhile": "",
            "actionAfter": "",
            "optionIcon": ""
        },
        {
            "id": 740811738,
            "nextDialogs": [
                740811739
            ],
            "talkRole": {
                "type": "TALK_ROLE_NPC",
                "id": "1005"
            },
            "talkContentTextMapHash": 3500788394,
            "talkAssetPath": "",
            "talkAssetPathAlter": "",
            "talkAudioName": "",
            "actionBefore": "",
            "actionWhile": "",
            "actionAfter": "",
            "optionIcon": ""
        },
        {
            "id": 740811739,
            "nextDialogs": [
                740811740
            ],
            "talkRole": {
                "type": "TALK_ROLE_NPC",
                "id": "5223"
            },
            "talkContentTextMapHash": 1532553970,
            "talkRoleNameTextMapHash": 1964446251,
            "talkAssetPath": "",
            "talkAssetPathAlter": "",
            "talkAudioName": "",
            "actionBefore": "",
            "actionWhile": "",
            "actionAfter": "",
            "optionIcon": ""
        },
        {
            "id": 740811740,
            "nextDialogs": [
                740811741
            ],
            "talkRole": {
                "type": "TALK_ROLE_NPC",
                "id": "5223"
            },
            "talkContentTextMapHash": 2796878026,
            "talkRoleNameTextMapHash": 3784656523,
            "talkAssetPath": "",
            "talkAssetPathAlter": "",
            "talkAudioName": "",
            "actionBefore": "",
            "actionWhile": "",
            "actionAfter": "",
            "optionIcon": ""
        },
        {
            "id": 740811741,
            "nextDialogs": [
                740811742
            ],
            "talkShowType": "TALK_SHOW_FORCE_SELECT",
            "talkRole": {
                "type": "TALK_ROLE_PLAYER",
                "id": ""
            },
            "talkContentTextMapHash": 2369678194,
            "talkAssetPath": "",
            "talkAssetPathAlter": "",
            "talkAudioName": "",
            "actionBefore": "",
            "actionWhile": "",
            "actionAfter": "",
            "optionIcon": ""
        },
        {
            "id": 740811742,
            "nextDialogs": [
                740811743
            ],
            "talkRole": {
                "type": "TALK_ROLE_NPC",
                "id": "5223"
            },
            "talkContentTextMapHash": 3972298050,
            "talkRoleNameTextMapHash": 1966910475,
            "talkAssetPath": "",
            "talkAssetPathAlter": "",
            "talkAudioName": "",
            "actionBefore": "",
            "actionWhile": "",
            "actionAfter": "",
            "optionIcon": ""
        },
        {
            "id": 740811743,
            "nextDialogs": [
                740811744
            ],
            "talkRole": {
                "type": "TALK_ROLE_NPC",
                "id": "5223"
            },
            "talkContentTextMapHash": 664236682,
            "talkRoleNameTextMapHash": 1079491395,
            "talkAssetPath": "",
            "talkAssetPathAlter": "",
            "talkAudioName": "",
            "actionBefore": "",
            "actionWhile": "",
            "actionAfter": "",
            "optionIcon": ""
        },
        {
            "id": 740811744,
            "nextDialogs": [
                740811745
            ],
            "talkRole": {
                "type": "TALK_ROLE_NPC",
                "id": "5223"
            },
            "talkContentTextMapHash": 1789435394,
            "talkRoleNameTextMapHash": 2036563299,
            "talkAssetPath": "",
            "talkAssetPathAlter": "",
            "talkAudioName": "",
            "actionBefore": "",
            "actionWhile": "",
            "actionAfter": "",
            "optionIcon": ""
        },
        {
            "id": 740811745,
            "talkRole": {
                "type": "TALK_ROLE_NPC",
                "id": "1005"
            },
            "talkContentTextMapHash": 381307498,
            "talkAssetPath": "",
            "talkAssetPathAlter": "",
            "talkAudioName": "",
            "actionBefore": "",
            "actionWhile": "",
            "actionAfter": "",
            "optionIcon": ""
        },
        {
            "id": 740811736,
            "nextDialogs": [
                740811737
            ],
            "talkShowType": "TALK_SHOW_FORCE_SELECT",
            "talkRole": {
                "type": "TALK_ROLE_PLAYER",
                "id": ""
            },
            "talkContentTextMapHash": 2592314994,
            "talkAssetPath": "",
            "talkAssetPathAlter": "",
            "talkAudioName": "",
            "actionBefore": "",
            "actionWhile": "",
            "actionAfter": "",
            "optionIcon": ""
        },
        {
            "id": 740811731,
            "nextDialogs": [
                740811732
            ],
            "talkShowType": "TALK_SHOW_FORCE_SELECT",
            "talkRole": {
                "type": "TALK_ROLE_PLAYER",
                "id": ""
            },
            "talkContentTextMapHash": 1386705522,
            "talkAssetPath": "",
            "talkAssetPathAlter": "",
            "talkAudioName": "",
            "actionBefore": "",
            "actionWhile": "",
            "actionAfter": "",
            "optionIcon": ""
        },
        {
            "id": 740811725,
            "nextDialogs": [
                740811726
            ],
            "talkShowType": "TALK_SHOW_FORCE_SELECT",
            "talkRole": {
                "type": "TALK_ROLE_PLAYER",
                "id": ""
            },
            "talkContentTextMapHash": 2711924762,
            "talkAssetPath": "",
            "talkAssetPathAlter": "",
            "talkAudioName": "",
            "actionBefore": "",
            "actionWhile": "",
            "actionAfter": "",
            "optionIcon": ""
        },
        {
            "id": 740811716,
            "nextDialogs": [
                740811717
            ],
            "talkShowType": "TALK_SHOW_FORCE_SELECT",
            "talkRole": {
                "type": "TALK_ROLE_PLAYER",
                "id": ""
            },
            "talkContentTextMapHash": 868151074,
            "talkAssetPath": "",
            "talkAssetPathAlter": "",
            "talkAudioName": "",
            "actionBefore": "",
            "actionWhile": "",
            "actionAfter": "",
            "optionIcon": ""
        },
        {
            "id": 740811717,
            "nextDialogs": [
                740811718
            ],
            "talkRole": {
                "type": "TALK_ROLE_NPC",
                "id": "5223"
            },
            "talkContentTextMapHash": 1527629690,
            "talkRoleNameTextMapHash": 3471072795,
            "talkAssetPath": "",
            "talkAssetPathAlter": "",
            "talkAudioName": "",
            "actionBefore": "",
            "actionWhile": "",
            "actionAfter": "",
            "optionIcon": ""
        },
        {
            "id": 740811708,
            "nextDialogs": [
                740811709
            ],
            "talkShowType": "TALK_SHOW_FORCE_SELECT",
            "talkRole": {
                "type": "TALK_ROLE_PLAYER",
                "id": ""
            },
            "talkContentTextMapHash": 2071448234,
            "talkAssetPath": "",
            "talkAssetPathAlter": "",
            "talkAudioName": "",
            "actionBefore": "",
            "actionWhile": "",
            "actionAfter": "",
            "optionIcon": ""
        },
        {
            "id": 740811704,
            "nextDialogs": [
                740811705
            ],
            "talkShowType": "TALK_SHOW_FORCE_SELECT",
            "talkRole": {
                "type": "TALK_ROLE_PLAYER",
                "id": ""
            },
            "talkContentTextMapHash": 2639062978,
            "talkAssetPath": "",
            "talkAssetPathAlter": "",
            "talkAudioName": "",
            "actionBefore": "",
            "actionWhile": "",
            "actionAfter": "",
            "optionIcon": ""
        }
    ]
}