{
    "talkId": 7411316,
    "dialogList": [
        {
            "id": 741131601,
            "talkRole": {
                "type": "TALK_ROLE_NPC",
                "id": "21160"
            },
            "talkContentTextMapHash": 1057361154,
            "talkAssetPath": "",
            "talkAssetPathAlter": "",
            "talkAudioName": "",
            "actionBefore": "",
            "actionWhile": "",
            "actionAfter": "",
            "optionIcon": ""
        }
    ]
}