{
    "talkId": 7411525,
    "dialogList": [
        {
            "id": 741152501,
            "talkRole": {
                "type": "TALK_ROLE_NPC",
                "id": "21289"
            },
            "talkAssetPath": "",
            "talkAssetPathAlter": "",
            "talkAudioName": "",
            "actionBefore": "",
            "actionWhile": "",
            "actionAfter": "",
            "optionIcon": ""
        }
    ]
}