{
    "talkId": 7411371,
    "dialogList": [
        {
            "id": 741137101,
            "talkRole": {
                "type": "TALK_ROLE_NPC",
                "id": "21169"
            },
            "talkContentTextMapHash": 1079162754,
            "talkAssetPath": "",
            "talkAssetPathAlter": "",
            "talkAudioName": "",
            "actionBefore": "",
            "actionWhile": "",
            "actionAfter": "",
            "optionIcon": ""
        }
    ]
}