{
    "talkId": 7415301,
    "dialogList": [
        {
            "id": 741530101,
            "nextDialogs": [
                741530102
            ],
            "talkRole": {
                "type": "TALK_ROLE_NPC",
                "id": "21258"
            },
            "talkContentTextMapHash": 3777011538,
            "talkAssetPath": "",
            "talkAssetPathAlter": "",
            "talkAudioName": "",
            "actionBefore": "",
            "actionWhile": "",
            "actionAfter": "",
            "optionIcon": ""
        },
        {
            "id": 741530102,
            "nextDialogs": [
                741530103
            ],
            "talkShowType": "TALK_SHOW_FORCE_SELECT",
            "talkRole": {
                "type": "TALK_ROLE_PLAYER",
                "id": ""
            },
            "talkContentTextMapHash": 3137042802,
            "talkAssetPath": "",
            "talkAssetPathAlter": "",
            "talkAudioName": "",
            "actionBefore": "",
            "actionWhile": "",
            "actionAfter": "",
            "optionIcon": ""
        },
        {
            "id": 741530103,
            "nextDialogs": [
                741530104
            ],
            "talkRole": {
                "type": "TALK_ROLE_PLAYER",
                "id": ""
            },
            "talkContentTextMapHash": 3493829226,
            "talkAssetPath": "",
            "talkAssetPathAlter": "",
            "talkAudioName": "",
            "actionBefore": "",
            "actionWhile": "",
            "actionAfter": "",
            "optionIcon": ""
        },
        {
            "id": 741530104,
            "nextDialogs": [
                741530105
            ],
            "talkRole": {
                "type": "TALK_ROLE_NPC",
                "id": "21258"
            },
            "talkContentTextMapHash": 1943313938,
            "talkAssetPath": "",
            "talkAssetPathAlter": "",
            "talkAudioName": "",
            "actionBefore": "",
            "actionWhile": "",
            "actionAfter": "",
            "optionIcon": ""
        },
        {
            "id": 741530105,
            "nextDialogs": [
                741530106
            ],
            "talkRole": {
                "type": "TALK_ROLE_NPC",
                "id": "21258"
            },
            "talkContentTextMapHash": 1470205362,
            "talkAssetPath": "",
            "talkAssetPathAlter": "",
            "talkAudioName": "",
            "actionBefore": "",
            "actionWhile": "",
            "actionAfter": "",
            "optionIcon": ""
        },
        {
            "id": 741530106,
            "nextDialogs": [
                741530107
            ],
            "talkRole": {
                "type": "TALK_ROLE_NPC",
                "id": "21258"
            },
            "talkContentTextMapHash": 1042398442,
            "talkAssetPath": "",
            "talkAssetPathAlter": "",
            "talkAudioName": "",
            "actionBefore": "",
            "actionWhile": "",
            "actionAfter": "",
            "optionIcon": ""
        },
        {
            "id": 741530107,
            "nextDialogs": [
                741530108
            ],
            "talkRole": {
                "type": "TALK_ROLE_NPC",
                "id": "1005"
            },
            "talkContentTextMapHash": 4168369802,
            "talkAssetPath": "",
            "talkAssetPathAlter": "",
            "talkAudioName": "",
            "actionBefore": "",
            "actionWhile": "",
            "actionAfter": "",
            "optionIcon": ""
        },
        {
            "id": 741530108,
            "nextDialogs": [
                741530109,
                741530110
            ],
            "talkRole": {
                "type": "TALK_ROLE_NPC",
                "id": "21258"
            },
            "talkContentTextMapHash": 139803546,
            "talkAssetPath": "",
            "talkAssetPathAlter": "",
            "talkAudioName": "",
            "actionBefore": "",
            "actionWhile": "",
            "actionAfter": "",
            "optionIcon": ""
        },
        {
            "id": 741530109,
            "nextDialogs": [
                741530111
            ],
            "talkRole": {
                "type": "TALK_ROLE_PLAYER",
                "id": ""
            },
            "talkContentTextMapHash": 3555791042,
            "talkAssetPath": "",
            "talkAssetPathAlter": "",
            "talkAudioName": "",
            "actionBefore": "",
            "actionWhile": "",
            "actionAfter": "",
            "optionIcon": ""
        },
        {
            "id": 741530111,
            "nextDialogs": [
                741530112
            ],
            "talkRole": {
                "type": "TALK_ROLE_NPC",
                "id": "21258"
            },
            "talkContentTextMapHash": 3912168562,
            "talkAssetPath": "",
            "talkAssetPathAlter": "",
            "talkAudioName": "",
            "actionBefore": "",
            "actionWhile": "",
            "actionAfter": "",
            "optionIcon": ""
        },
        {
            "id": 741530112,
            "nextDialogs": [
                741530113
            ],
            "talkRole": {
                "type": "TALK_ROLE_NPC",
                "id": "1005"
            },
            "talkContentTextMapHash": 828543986,
            "talkAssetPath": "",
            "talkAssetPathAlter": "",
            "talkAudioName": "",
            "actionBefore": "",
            "actionWhile": "",
            "actionAfter": "",
            "optionIcon": ""
        },
        {
            "id": 741530113,
            "nextDialogs": [
                741530114
            ],
            "talkRole": {
                "type": "TALK_ROLE_NPC",
                "id": "21258"
            },
            "talkContentTextMapHash": 1369341938,
            "talkAssetPath": "",
            "talkAssetPathAlter": "",
            "talkAudioName": "",
            "actionBefore": "",
            "actionWhile": "",
            "actionAfter": "",
            "optionIcon": ""
        },
        {
            "id": 741530114,
            "nextDialogs": [
                741530115
            ],
            "talkShowType": "TALK_SHOW_FORCE_SELECT",
            "talkRole": {
                "type": "TALK_ROLE_PLAYER",
                "id": ""
            },
            "talkContentTextMapHash": 267277634,
            "talkAssetPath": "",
            "talkAssetPathAlter": "",
            "talkAudioName": "",
            "actionBefore": "",
            "actionWhile": "",
            "actionAfter": "",
            "optionIcon": ""
        },
        {
            "id": 741530115,
            "nextDialogs": [
                741530116
            ],
            "talkRole": {
                "type": "TALK_ROLE_NPC",
                "id": "21258"
            },
            "talkContentTextMapHash": 1491561234,
            "talkAssetPath": "",
            "talkAssetPathAlter": "",
            "talkAudioName": "",
            "actionBefore": "",
            "actionWhile": "",
            "actionAfter": "",
            "optionIcon": ""
        },
        {
            "id": 741530116,
            "nextDialogs": [
                741530117
            ],
            "talkRole": {
                "type": "TALK_ROLE_NPC",
                "id": "1005"
            },
            "talkContentTextMapHash": 506152594,
            "talkAssetPath": "",
            "talkAssetPathAlter": "",
            "talkAudioName": "",
            "actionBefore": "",
            "actionWhile": "",
            "actionAfter": "",
            "optionIcon": ""
        },
        {
            "id": 741530117,
            "nextDialogs": [
                741530118
            ],
            "talkRole": {
                "type": "TALK_ROLE_NPC",
                "id": "21258"
            },
            "talkContentTextMapHash": 424456986,
            "talkAssetPath": "",
            "talkAssetPathAlter": "",
            "talkAudioName": "",
            "actionBefore": "",
            "actionWhile": "",
            "actionAfter": "",
            "optionIcon": ""
        },
        {
            "id": 741530118,
            "nextDialogs": [
                741530119
            ],
            "talkRole": {
                "type": "TALK_ROLE_NPC",
                "id": "1005"
            },
            "talkContentTextMapHash": 328393874,
            "talkAssetPath": "",
            "talkAssetPathAlter": "",
            "talkAudioName": "",
            "actionBefore": "",
            "actionWhile": "",
            "actionAfter": "",
            "optionIcon": ""
        },
        {
            "id": 741530119,
            "nextDialogs": [
                741530120
            ],
            "talkRole": {
                "type": "TALK_ROLE_NPC",
                "id": "21258"
            },
            "talkContentTextMapHash": 3135660762,
            "talkAssetPath": "",
            "talkAssetPathAlter": "",
            "talkAudioName": "",
            "actionBefore": "",
            "actionWhile": "",
            "actionAfter": "",
            "optionIcon": ""
        },
        {
            "id": 741530120,
            "nextDialogs": [
                741530121
            ],
            "talkRole": {
                "type": "TALK_ROLE_NPC",
                "id": "21258"
            },
            "talkContentTextMapHash": 1422456218,
            "talkAssetPath": "",
            "talkAssetPathAlter": "",
            "talkAudioName": "",
            "actionBefore": "",
            "actionWhile": "",
            "actionAfter": "",
            "optionIcon": ""
        },
        {
            "id": 741530121,
            "nextDialogs": [
                741530122,
                741530123
            ],
            "talkRole": {
                "type": "TALK_ROLE_NPC",
                "id": "1005"
            },
            "talkContentTextMapHash": 1469568482,
            "talkAssetPath": "",
            "talkAssetPathAlter": "",
            "talkAudioName": "",
            "actionBefore": "",
            "actionWhile": "",
            "actionAfter": "",
            "optionIcon": ""
        },
        {
            "id": 741530122,
            "nextDialogs": [
                741530124
            ],
            "talkRole": {
                "type": "TALK_ROLE_PLAYER",
                "id": ""
            },
            "talkContentTextMapHash": 1010187602,
            "talkAssetPath": "",
            "talkAssetPathAlter": "",
            "talkAudioName": "",
            "actionBefore": "",
            "actionWhile": "",
            "actionAfter": "",
            "optionIcon": ""
        },
        {
            "id": 741530124,
            "nextDialogs": [
                741530125
            ],
            "talkRole": {
                "type": "TALK_ROLE_NPC",
                "id": "1005"
            },
            "talkContentTextMapHash": 2449531690,
            "talkAssetPath": "",
            "talkAssetPathAlter": "",
            "talkAudioName": "",
            "actionBefore": "",
            "actionWhile": "",
            "actionAfter": "",
            "optionIcon": ""
        },
        {
            "id": 741530125,
            "talkRole": {
                "type": "TALK_ROLE_NPC",
                "id": "1005"
            },
            "talkContentTextMapHash": 3536621474,
            "talkAssetPath": "",
            "talkAssetPathAlter": "",
            "talkAudioName": "",
            "actionBefore": "",
            "actionWhile": "",
            "actionAfter": "",
            "optionIcon": ""
        },
        {
            "id": 741530123,
            "nextDialogs": [
                741530124
            ],
            "talkRole": {
                "type": "TALK_ROLE_PLAYER",
                "id": ""
            },
            "talkContentTextMapHash": 1789096418,
            "talkAssetPath": "",
            "talkAssetPathAlter": "",
            "talkAudioName": "",
            "actionBefore": "",
            "actionWhile": "",
            "actionAfter": "",
            "optionIcon": ""
        },
        {
            "id": 741530110,
            "nextDialogs": [
                741530111
            ],
            "talkRole": {
                "type": "TALK_ROLE_PLAYER",
                "id": ""
            },
            "talkContentTextMapHash": 679061882,
            "talkAssetPath": "",
            "talkAssetPathAlter": "",
            "talkAudioName": "",
            "actionBefore": "",
            "actionWhile": "",
            "actionAfter": "",
            "optionIcon": ""
        }
    ]
}