{
    "talkId": 7415604,
    "dialogList": [
        {
            "id": 741560401,
            "nextDialogs": [
                741560402,
                741560403
            ],
            "talkRole": {
                "type": "TALK_ROLE_NPC",
                "id": "1005"
            },
            "talkContentTextMapHash": 4053769098,
            "talkAssetPath": "",
            "talkAssetPathAlter": "",
            "talkAudioName": "",
            "actionBefore": "",
            "actionWhile": "",
            "actionAfter": "",
            "optionIcon": ""
        },
        {
            "id": 741560402,
            "nextDialogs": [
                741560404
            ],
            "talkRole": {
                "type": "TALK_ROLE_PLAYER",
                "id": ""
            },
            "talkContentTextMapHash": 2809337722,
            "talkAssetPath": "",
            "talkAssetPathAlter": "",
            "talkAudioName": "",
            "actionBefore": "",
            "actionWhile": "",
            "actionAfter": "",
            "optionIcon": ""
        },
        {
            "id": 741560404,
            "nextDialogs": [
                741560405
            ],
            "talkRole": {
                "type": "TALK_ROLE_NPC",
                "id": "1005"
            },
            "talkContentTextMapHash": 3855434994,
            "talkAssetPath": "",
            "talkAssetPathAlter": "",
            "talkAudioName": "",
            "actionBefore": "",
            "actionWhile": "",
            "actionAfter": "",
            "optionIcon": ""
        },
        {
            "id": 741560405,
            "nextDialogs": [
                741560406
            ],
            "talkRole": {
                "type": "TALK_ROLE_NEED_CLICK_BLACK_SCREEN",
                "id": ""
            },
            "talkContentTextMapHash": 2288620362,
            "talkAssetPath": "",
            "talkAssetPathAlter": "",
            "talkAudioName": "",
            "actionBefore": "",
            "actionWhile": "",
            "actionAfter": "",
            "optionIcon": ""
        },
        {
            "id": 741560406,
            "nextDialogs": [
                741560407
            ],
            "talkRole": {
                "type": "TALK_ROLE_NPC",
                "id": "1005"
            },
            "talkContentTextMapHash": 2959558946,
            "talkAssetPath": "",
            "talkAssetPathAlter": "",
            "talkAudioName": "",
            "actionBefore": "",
            "actionWhile": "",
            "actionAfter": "",
            "optionIcon": ""
        },
        {
            "id": 741560407,
            "talkRole": {
                "type": "TALK_ROLE_NPC",
                "id": "21249"
            },
            "talkContentTextMapHash": 3559676322,
            "talkAssetPath": "",
            "talkAssetPathAlter": "",
            "talkAudioName": "",
            "actionBefore": "",
            "actionWhile": "",
            "actionAfter": "",
            "optionIcon": ""
        },
        {
            "id": 741560403,
            "nextDialogs": [
                741560404
            ],
            "talkRole": {
                "type": "TALK_ROLE_PLAYER",
                "id": ""
            },
            "talkContentTextMapHash": 1609105386,
            "talkAssetPath": "",
            "talkAssetPathAlter": "",
            "talkAudioName": "",
            "actionBefore": "",
            "actionWhile": "",
            "actionAfter": "",
            "optionIcon": ""
        }
    ]
}