{
    "talkId": 7416604,
    "dialogList": [
        {
            "id": 741660401,
            "nextDialogs": [
                741660402
            ],
            "talkRole": {
                "type": "TALK_ROLE_NPC",
                "id": "13791"
            },
            "talkContentTextMapHash": 175631306,
            "talkAssetPath": "",
            "talkAssetPathAlter": "",
            "talkAudioName": "",
            "actionBefore": "",
            "actionWhile": "",
            "actionAfter": "",
            "optionIcon": ""
        },
        {
            "id": 741660402,
            "nextDialogs": [
                741660403
            ],
            "talkRole": {
                "type": "TALK_ROLE_NPC",
                "id": "13791"
            },
            "talkContentTextMapHash": 2846038778,
            "talkAssetPath": "",
            "talkAssetPathAlter": "",
            "talkAudioName": "",
            "actionBefore": "",
            "actionWhile": "",
            "actionAfter": "",
            "optionIcon": ""
        },
        {
            "id": 741660403,
            "nextDialogs": [
                741660404
            ],
            "talkRole": {
                "type": "TALK_ROLE_NPC",
                "id": "1005"
            },
            "talkContentTextMapHash": 167282642,
            "talkAssetPath": "",
            "talkAssetPathAlter": "",
            "talkAudioName": "",
            "actionBefore": "",
            "actionWhile": "",
            "actionAfter": "",
            "optionIcon": ""
        },
        {
            "id": 741660404,
            "nextDialogs": [
                741660405
            ],
            "talkRole": {
                "type": "TALK_ROLE_NPC",
                "id": "13791"
            },
            "talkContentTextMapHash": 2808910850,
            "talkAssetPath": "",
            "talkAssetPathAlter": "",
            "talkAudioName": "",
            "actionBefore": "",
            "actionWhile": "",
            "actionAfter": "",
            "optionIcon": ""
        },
        {
            "id": 741660405,
            "nextDialogs": [
                741660406
            ],
            "talkRole": {
                "type": "TALK_ROLE_NPC",
                "id": "1005"
            },
            "talkContentTextMapHash": 1820614034,
            "talkAssetPath": "",
            "talkAssetPathAlter": "",
            "talkAudioName": "",
            "actionBefore": "",
            "actionWhile": "",
            "actionAfter": "",
            "optionIcon": ""
        },
        {
            "id": 741660406,
            "nextDialogs": [
                741660407
            ],
            "talkRole": {
                "type": "TALK_ROLE_NPC",
                "id": "13791"
            },
            "talkContentTextMapHash": 548660722,
            "talkAssetPath": "",
            "talkAssetPathAlter": "",
            "talkAudioName": "",
            "actionBefore": "",
            "actionWhile": "",
            "actionAfter": "",
            "optionIcon": ""
        },
        {
            "id": 741660407,
            "nextDialogs": [
                741660408
            ],
            "talkRole": {
                "type": "TALK_ROLE_NPC",
                "id": "1005"
            },
            "talkContentTextMapHash": 3465678338,
            "talkAssetPath": "",
            "talkAssetPathAlter": "",
            "talkAudioName": "",
            "actionBefore": "",
            "actionWhile": "",
            "actionAfter": "",
            "optionIcon": ""
        },
        {
            "id": 741660408,
            "talkRole": {
                "type": "TALK_ROLE_NPC",
                "id": "13791"
            },
            "talkContentTextMapHash": 2362268034,
            "talkAssetPath": "",
            "talkAssetPathAlter": "",
            "talkAudioName": "",
            "actionBefore": "",
            "actionWhile": "",
            "actionAfter": "",
            "optionIcon": ""
        }
    ]
}