{
    "talkId": 7418903,
    "dialogList": [
        {
            "id": 741890301,
            "nextDialogs": [
                741890302
            ],
            "talkRole": {
                "type": "TALK_ROLE_NPC",
                "id": "5285"
            },
            "talkContentTextMapHash": 3831391706,
            "talkAssetPath": "",
            "talkAssetPathAlter": "",
            "talkAudioName": "",
            "actionBefore": "",
            "actionWhile": "",
            "actionAfter": "",
            "optionIcon": ""
        },
        {
            "id": 741890302,
            "talkRole": {
                "type": "TALK_ROLE_NPC",
                "id": "5285"
            },
            "talkContentTextMapHash": 2884145354,
            "talkAssetPath": "",
            "talkAssetPathAlter": "",
            "talkAudioName": "",
            "actionBefore": "",
            "actionWhile": "",
            "actionAfter": "",
            "optionIcon": ""
        }
    ]
}