{
    "talkId": 7419201,
    "dialogList": [
        {
            "id": 741920101,
            "nextDialogs": [
                741920102
            ],
            "talkRole": {
                "type": "TALK_ROLE_NPC",
                "id": "21236"
            },
            "talkContentTextMapHash": 1293591154,
            "talkAssetPath": "",
            "talkAssetPathAlter": "",
            "talkAudioName": "",
            "actionBefore": "",
            "actionWhile": "",
            "actionAfter": "",
            "optionIcon": ""
        },
        {
            "id": 741920102,
            "nextDialogs": [
                741920103
            ],
            "talkRole": {
                "type": "TALK_ROLE_NPC",
                "id": "21236"
            },
            "talkContentTextMapHash": 3184789274,
            "talkAssetPath": "",
            "talkAssetPathAlter": "",
            "talkAudioName": "",
            "actionBefore": "",
            "actionWhile": "",
            "actionAfter": "",
            "optionIcon": ""
        },
        {
            "id": 741920103,
            "nextDialogs": [
                741920104
            ],
            "talkShowType": "TALK_SHOW_FORCE_SELECT",
            "talkRole": {
                "type": "TALK_ROLE_PLAYER",
                "id": ""
            },
            "talkContentTextMapHash": 1725340410,
            "talkAssetPath": "",
            "talkAssetPathAlter": "",
            "talkAudioName": "",
            "actionBefore": "",
            "actionWhile": "",
            "actionAfter": "",
            "optionIcon": ""
        },
        {
            "id": 741920104,
            "nextDialogs": [
                741920105
            ],
            "talkRole": {
                "type": "TALK_ROLE_NPC",
                "id": "21236"
            },
            "talkContentTextMapHash": 3034217666,
            "talkAssetPath": "",
            "talkAssetPathAlter": "",
            "talkAudioName": "",
            "actionBefore": "",
            "actionWhile": "",
            "actionAfter": "",
            "optionIcon": ""
        },
        {
            "id": 741920105,
            "talkRole": {
                "type": "TALK_ROLE_NPC",
                "id": "21236"
            },
            "talkContentTextMapHash": 2161548394,
            "talkAssetPath": "",
            "talkAssetPathAlter": "",
            "talkAudioName": "",
            "actionBefore": "",
            "actionWhile": "",
            "actionAfter": "",
            "optionIcon": ""
        }
    ]
}