{
    "talkId": 7480002,
    "dialogList": [
        {
            "id": 748000201,
            "talkRole": {
                "type": "TALK_ROLE_NPC",
                "id": "5268"
            },
            "talkContentTextMapHash": 4070721210,
            "talkAssetPath": "",
            "talkAssetPathAlter": "",
            "talkAudioName": "",
            "actionBefore": "",
            "actionWhile": "",
            "actionAfter": "",
            "optionIcon": ""
        }
    ]
}