{
    "talkId": 7480006,
    "dialogList": [
        {
            "id": 748000501,
            "nextDialogs": [
                748000502,
                748000503
            ],
            "talkRole": {
                "type": "TALK_ROLE_NPC",
                "id": "5268"
            },
            "talkContentTextMapHash": 4224674370,
            "talkAssetPath": "",
            "talkAssetPathAlter": "",
            "talkAudioName": "",
            "actionBefore": "",
            "actionWhile": "",
            "actionAfter": "",
            "optionIcon": ""
        },
        {
            "id": 748000502,
            "nextDialogs": [
                748000504
            ],
            "talkRole": {
                "type": "TALK_ROLE_PLAYER",
                "id": ""
            },
            "talkContentTextMapHash": 2383460218,
            "talkAssetPath": "",
            "talkAssetPathAlter": "",
            "talkAudioName": "",
            "actionBefore": "",
            "actionWhile": "",
            "actionAfter": "",
            "optionIcon": ""
        },
        {
            "id": 748000503,
            "nextDialogs": [
                748000504
            ],
            "talkRole": {
                "type": "TALK_ROLE_PLAYER",
                "id": ""
            },
            "talkContentTextMapHash": 1219891858,
            "talkAssetPath": "",
            "talkAssetPathAlter": "",
            "talkAudioName": "",
            "actionBefore": "",
            "actionWhile": "",
            "actionAfter": "",
            "optionIcon": ""
        },
        {
            "id": 748000504,
            "nextDialogs": [
                748000505
            ],
            "talkRole": {
                "type": "TALK_ROLE_NPC",
                "id": "5268"
            },
            "talkContentTextMapHash": 4019702258,
            "talkAssetPath": "",
            "talkAssetPathAlter": "",
            "talkAudioName": "",
            "actionBefore": "",
            "actionWhile": "",
            "actionAfter": "",
            "optionIcon": ""
        },
        {
            "id": 748000505,
            "nextDialogs": [
                748000506,
                748000507
            ],
            "talkRole": {
                "type": "TALK_ROLE_NPC",
                "id": "1005"
            },
            "talkContentTextMapHash": 2497802026,
            "talkAssetPath": "",
            "talkAssetPathAlter": "",
            "talkAudioName": "",
            "actionBefore": "",
            "actionWhile": "",
            "actionAfter": "",
            "optionIcon": ""
        },
        {
            "id": 748000506,
            "nextDialogs": [
                748000508
            ],
            "talkRole": {
                "type": "TALK_ROLE_PLAYER",
                "id": ""
            },
            "talkContentTextMapHash": 4207665330,
            "talkAssetPath": "",
            "talkAssetPathAlter": "",
            "talkAudioName": "",
            "actionBefore": "",
            "actionWhile": "",
            "actionAfter": "",
            "optionIcon": ""
        },
        {
            "id": 748000507,
            "nextDialogs": [
                748000508
            ],
            "talkRole": {
                "type": "TALK_ROLE_PLAYER",
                "id": ""
            },
            "talkContentTextMapHash": 4164723410,
            "talkAssetPath": "",
            "talkAssetPathAlter": "",
            "talkAudioName": "",
            "actionBefore": "",
            "actionWhile": "",
            "actionAfter": "",
            "optionIcon": ""
        },
        {
            "id": 748000508,
            "nextDialogs": [
                748000509
            ],
            "talkRole": {
                "type": "TALK_ROLE_NPC",
                "id": "5268"
            },
            "talkContentTextMapHash": 115476082,
            "talkAssetPath": "",
            "talkAssetPathAlter": "",
            "talkAudioName": "",
            "actionBefore": "",
            "actionWhile": "",
            "actionAfter": "",
            "optionIcon": ""
        },
        {
            "id": 748000509,
            "nextDialogs": [
                748000510
            ],
            "talkRole": {
                "type": "TALK_ROLE_NPC",
                "id": "5268"
            },
            "talkContentTextMapHash": 2698402018,
            "talkAssetPath": "",
            "talkAssetPathAlter": "",
            "talkAudioName": "",
            "actionBefore": "",
            "actionWhile": "",
            "actionAfter": "",
            "optionIcon": ""
        },
        {
            "id": 748000510,
            "nextDialogs": [
                748000511,
                748000512
            ],
            "talkRole": {
                "type": "TALK_ROLE_NPC",
                "id": "5268"
            },
            "talkContentTextMapHash": 932681186,
            "talkAssetPath": "",
            "talkAssetPathAlter": "",
            "talkAudioName": "",
            "actionBefore": "",
            "actionWhile": "",
            "actionAfter": "",
            "optionIcon": ""
        },
        {
            "id": 748000511,
            "nextDialogs": [
                748000513
            ],
            "talkRole": {
                "type": "TALK_ROLE_PLAYER",
                "id": ""
            },
            "talkContentTextMapHash": 3674920218,
            "talkAssetPath": "",
            "talkAssetPathAlter": "",
            "talkAudioName": "",
            "actionBefore": "",
            "actionWhile": "",
            "actionAfter": "",
            "optionIcon": ""
        },
        {
            "id": 748000512,
            "nextDialogs": [
                748000513
            ],
            "talkRole": {
                "type": "TALK_ROLE_PLAYER",
                "id": ""
            },
            "talkContentTextMapHash": 247611226,
            "talkAssetPath": "",
            "talkAssetPathAlter": "",
            "talkAudioName": "",
            "actionBefore": "",
            "actionWhile": "",
            "actionAfter": "",
            "optionIcon": ""
        },
        {
            "id": 748000513,
            "nextDialogs": [
                748000514
            ],
            "talkRole": {
                "type": "TALK_ROLE_NPC",
                "id": "1005"
            },
            "talkContentTextMapHash": 1491434026,
            "talkAssetPath": "",
            "talkAssetPathAlter": "",
            "talkAudioName": "",
            "actionBefore": "",
            "actionWhile": "",
            "actionAfter": "",
            "optionIcon": ""
        },
        {
            "id": 748000514,
            "nextDialogs": [
                748000515
            ],
            "talkRole": {
                "type": "TALK_ROLE_NPC",
                "id": "5268"
            },
            "talkContentTextMapHash": 873278442,
            "talkAssetPath": "",
            "talkAssetPathAlter": "",
            "talkAudioName": "",
            "actionBefore": "",
            "actionWhile": "",
            "actionAfter": "",
            "optionIcon": ""
        },
        {
            "id": 748000515,
            "nextDialogs": [
                748000516
            ],
            "talkRole": {
                "type": "TALK_ROLE_NPC",
                "id": "5268"
            },
            "talkContentTextMapHash": 3625883474,
            "talkAssetPath": "",
            "talkAssetPathAlter": "",
            "talkAudioName": "",
            "actionBefore": "",
            "actionWhile": "",
            "actionAfter": "",
            "optionIcon": ""
        },
        {
            "id": 748000516,
            "nextDialogs": [
                748000517
            ],
            "talkRole": {
                "type": "TALK_ROLE_NPC",
                "id": "5268"
            },
            "talkContentTextMapHash": 349418762,
            "talkAssetPath": "",
            "talkAssetPathAlter": "",
            "talkAudioName": "",
            "actionBefore": "",
            "actionWhile": "",
            "actionAfter": "",
            "optionIcon": ""
        },
        {
            "id": 748000517,
            "nextDialogs": [
                748000518
            ],
            "talkRole": {
                "type": "TALK_ROLE_NPC",
                "id": "5268"
            },
            "talkContentTextMapHash": 4204209602,
            "talkAssetPath": "",
            "talkAssetPathAlter": "",
            "talkAudioName": "",
            "actionBefore": "",
            "actionWhile": "",
            "actionAfter": "",
            "optionIcon": ""
        },
        {
            "id": 748000518,
            "nextDialogs": [
                748000519
            ],
            "talkRole": {
                "type": "TALK_ROLE_NPC",
                "id": "5268"
            },
            "talkContentTextMapHash": 3162428274,
            "talkAssetPath": "",
            "talkAssetPathAlter": "",
            "talkAudioName": "",
            "actionBefore": "",
            "actionWhile": "",
            "actionAfter": "",
            "optionIcon": ""
        },
        {
            "id": 748000519,
            "nextDialogs": [
                748000520
            ],
            "talkRole": {
                "type": "TALK_ROLE_NPC",
                "id": "5268"
            },
            "talkContentTextMapHash": 1791645842,
            "talkAssetPath": "",
            "talkAssetPathAlter": "",
            "talkAudioName": "",
            "actionBefore": "",
            "actionWhile": "",
            "actionAfter": "",
            "optionIcon": ""
        },
        {
            "id": 748000520,
            "nextDialogs": [
                748000521
            ],
            "talkRole": {
                "type": "TALK_ROLE_NPC",
                "id": "5268"
            },
            "talkContentTextMapHash": 3409951698,
            "talkAssetPath": "",
            "talkAssetPathAlter": "",
            "talkAudioName": "",
            "actionBefore": "",
            "actionWhile": "",
            "actionAfter": "",
            "optionIcon": ""
        },
        {
            "id": 748000699,
            "talkRole": {
                "type": "TALK_ROLE_NEED_CLICK_BLACK_SCREEN",
                "id": ""
            },
            "talkContentTextMapHash": 2480319146,
            "talkAssetPath": "",
            "talkAssetPathAlter": "",
            "talkAudioName": "",
            "actionBefore": "",
            "actionWhile": "",
            "actionAfter": "",
            "optionIcon": ""
        },
        {
            "id": 748000521,
            "nextDialogs": [
                748000522
            ],
            "talkRole": {
                "type": "TALK_ROLE_NPC",
                "id": "5053"
            },
            "talkContentTextMapHash": 4207992986,
            "talkAssetPath": "",
            "talkAssetPathAlter": "",
            "talkAudioName": "",
            "actionBefore": "",
            "actionWhile": "",
            "actionAfter": "",
            "optionIcon": ""
        },
        {
            "id": 748000522,
            "nextDialogs": [
                748000523
            ],
            "talkRole": {
                "type": "TALK_ROLE_NPC",
                "id": "5053"
            },
            "talkContentTextMapHash": 3534551050,
            "talkAssetPath": "",
            "talkAssetPathAlter": "",
            "talkAudioName": "",
            "actionBefore": "",
            "actionWhile": "",
            "actionAfter": "",
            "optionIcon": ""
        },
        {
            "id": 748000523,
            "nextDialogs": [
                748000524,
                748000525
            ],
            "talkRole": {
                "type": "TALK_ROLE_NPC",
                "id": "5053"
            },
            "talkContentTextMapHash": 488772738,
            "talkAssetPath": "",
            "talkAssetPathAlter": "",
            "talkAudioName": "",
            "actionBefore": "",
            "actionWhile": "",
            "actionAfter": "",
            "optionIcon": ""
        },
        {
            "id": 748000624,
            "nextDialogs": [
                748000625
            ],
            "talkRole": {
                "type": "TALK_ROLE_BLACK_SCREEN",
                "id": ""
            },
            "talkContentTextMapHash": 1450778682,
            "talkAssetPath": "",
            "talkAssetPathAlter": "",
            "talkAudioName": "",
            "actionBefore": "",
            "actionWhile": "",
            "actionAfter": "",
            "optionIcon": ""
        },
        {
            "id": 748000527,
            "nextDialogs": [
                748000528
            ],
            "talkRole": {
                "type": "TALK_ROLE_BLACK_SCREEN",
                "id": ""
            },
            "talkContentTextMapHash": 3591651834,
            "talkAssetPath": "",
            "talkAssetPathAlter": "",
            "talkAudioName": "",
            "actionBefore": "",
            "actionWhile": "",
            "actionAfter": "",
            "optionIcon": ""
        },
        {
            "id": 748000528,
            "nextDialogs": [
                748000529
            ],
            "talkRole": {
                "type": "TALK_ROLE_NPC",
                "id": "1005"
            },
            "talkContentTextMapHash": 2889213970,
            "talkAssetPath": "",
            "talkAssetPathAlter": "",
            "talkAudioName": "",
            "actionBefore": "",
            "actionWhile": "",
            "actionAfter": "",
            "optionIcon": ""
        },
        {
            "id": 748000529,
            "nextDialogs": [
                748000530
            ],
            "talkShowType": "TALK_SHOW_FORCE_SELECT",
            "talkRole": {
                "type": "TALK_ROLE_PLAYER",
                "id": ""
            },
            "talkContentTextMapHash": 2076380586,
            "talkAssetPath": "",
            "talkAssetPathAlter": "",
            "talkAudioName": "",
            "actionBefore": "",
            "actionWhile": "",
            "actionAfter": "",
            "optionIcon": ""
        },
        {
            "id": 748000530,
            "nextDialogs": [
                748000531
            ],
            "talkRole": {
                "type": "TALK_ROLE_NPC",
                "id": "5268"
            },
            "talkContentTextMapHash": 2549144090,
            "talkAssetPath": "",
            "talkAssetPathAlter": "",
            "talkAudioName": "",
            "actionBefore": "",
            "actionWhile": "",
            "actionAfter": "",
            "optionIcon": ""
        },
        {
            "id": 748000531,
            "nextDialogs": [
                748000532
            ],
            "talkRole": {
                "type": "TALK_ROLE_NPC",
                "id": "5268"
            },
            "talkContentTextMapHash": 936880962,
            "talkAssetPath": "",
            "talkAssetPathAlter": "",
            "talkAudioName": "",
            "actionBefore": "",
            "actionWhile": "",
            "actionAfter": "",
            "optionIcon": ""
        },
        {
            "id": 748000532,
            "nextDialogs": [
                748000533
            ],
            "talkRole": {
                "type": "TALK_ROLE_NPC",
                "id": "5268"
            },
            "talkContentTextMapHash": 3014461834,
            "talkAssetPath": "",
            "talkAssetPathAlter": "",
            "talkAudioName": "",
            "actionBefore": "",
            "actionWhile": "",
            "actionAfter": "",
            "optionIcon": ""
        },
        {
            "id": 748000533,
            "nextDialogs": [
                748000534
            ],
            "talkRole": {
                "type": "TALK_ROLE_NPC",
                "id": "5268"
            },
            "talkContentTextMapHash": 2131499114,
            "talkAssetPath": "",
            "talkAssetPathAlter": "",
            "talkAudioName": "",
            "actionBefore": "",
            "actionWhile": "",
            "actionAfter": "",
            "optionIcon": ""
        },
        {
            "id": 748000534,
            "nextDialogs": [
                748000535,
                748000536
            ],
            "talkRole": {
                "type": "TALK_ROLE_NPC",
                "id": "5268"
            },
            "talkContentTextMapHash": 1453961146,
            "talkAssetPath": "",
            "talkAssetPathAlter": "",
            "talkAudioName": "",
            "actionBefore": "",
            "actionWhile": "",
            "actionAfter": "",
            "optionIcon": ""
        },
        {
            "id": 748000535,
            "nextDialogs": [
                748000537
            ],
            "talkRole": {
                "type": "TALK_ROLE_PLAYER",
                "id": ""
            },
            "talkContentTextMapHash": 2546479394,
            "talkAssetPath": "",
            "talkAssetPathAlter": "",
            "talkAudioName": "",
            "actionBefore": "",
            "actionWhile": "",
            "actionAfter": "",
            "optionIcon": ""
        },
        {
            "id": 748000536,
            "nextDialogs": [
                748000537
            ],
            "talkRole": {
                "type": "TALK_ROLE_PLAYER",
                "id": ""
            },
            "talkContentTextMapHash": 2961586418,
            "talkAssetPath": "",
            "talkAssetPathAlter": "",
            "talkAudioName": "",
            "actionBefore": "",
            "actionWhile": "",
            "actionAfter": "",
            "optionIcon": ""
        },
        {
            "id": 748000537,
            "talkRole": {
                "type": "TALK_ROLE_NPC",
                "id": "5268"
            },
            "talkContentTextMapHash": 343540290,
            "talkAssetPath": "",
            "talkAssetPathAlter": "",
            "talkAudioName": "",
            "actionBefore": "",
            "actionWhile": "",
            "actionAfter": "",
            "optionIcon": ""
        }
    ]
}