{
    "talkId": 7904101,
    "dialogList": [
        {
            "id": 790410101,
            "nextDialogs": [
                790410102
            ],
            "talkRole": {
                "type": "TALK_ROLE_NPC",
                "id": "13247"
            },
            "talkContentTextMapHash": 166426498,
            "talkAssetPath": "",
            "talkAssetPathAlter": "",
            "talkAudioName": "",
            "actionBefore": "SimpleTalk/Greet_Start",
            "actionWhile": "",
            "actionAfter": "",
            "optionIcon": ""
        },
        {
            "id": 790410102,
            "nextDialogs": [
                790410103
            ],
            "talkRole": {
                "type": "TALK_ROLE_NPC",
                "id": "13247"
            },
            "talkContentTextMapHash": 2614603322,
            "talkAssetPath": "",
            "talkAssetPathAlter": "",
            "talkAudioName": "",
            "actionBefore": "",
            "actionWhile": "",
            "actionAfter": "",
            "optionIcon": ""
        },
        {
            "id": 790410103,
            "nextDialogs": [
                790410104
            ],
            "talkRole": {
                "type": "TALK_ROLE_NPC",
                "id": "13247"
            },
            "talkContentTextMapHash": 3936115266,
            "talkAssetPath": "",
            "talkAssetPathAlter": "",
            "talkAudioName": "",
            "actionBefore": "",
            "actionWhile": "",
            "actionAfter": "",
            "optionIcon": ""
        },
        {
            "id": 790410104,
            "nextDialogs": [
                790410105
            ],
            "talkRole": {
                "type": "TALK_ROLE_NPC",
                "id": "1005"
            },
            "talkContentTextMapHash": 2296651786,
            "talkAssetPath": "",
            "talkAssetPathAlter": "",
            "talkAudioName": "",
            "actionBefore": "",
            "actionWhile": "",
            "actionAfter": "",
            "optionIcon": ""
        },
        {
            "id": 790410105,
            "nextDialogs": [
                790410106
            ],
            "talkRole": {
                "type": "TALK_ROLE_NPC",
                "id": "1005"
            },
            "talkContentTextMapHash": 675493634,
            "talkAssetPath": "",
            "talkAssetPathAlter": "",
            "talkAudioName": "",
            "actionBefore": "",
            "actionWhile": "",
            "actionAfter": "",
            "optionIcon": ""
        },
        {
            "id": 790410106,
            "nextDialogs": [
                790410107
            ],
            "talkRole": {
                "type": "TALK_ROLE_NPC",
                "id": "13247"
            },
            "talkContentTextMapHash": 1996464890,
            "talkAssetPath": "",
            "talkAssetPathAlter": "",
            "talkAudioName": "",
            "actionBefore": "",
            "actionWhile": "SimpleTalk/RandomTalk",
            "actionAfter": "",
            "optionIcon": ""
        },
        {
            "id": 790410107,
            "nextDialogs": [
                790410108
            ],
            "talkRole": {
                "type": "TALK_ROLE_NPC",
                "id": "1005"
            },
            "talkContentTextMapHash": 1186141154,
            "talkAssetPath": "",
            "talkAssetPathAlter": "",
            "talkAudioName": "",
            "actionBefore": "",
            "actionWhile": "",
            "actionAfter": "",
            "optionIcon": ""
        },
        {
            "id": 790410108,
            "nextDialogs": [
                790410109
            ],
            "talkRole": {
                "type": "TALK_ROLE_NPC",
                "id": "1005"
            },
            "talkContentTextMapHash": 234234810,
            "talkAssetPath": "",
            "talkAssetPathAlter": "",
            "talkAudioName": "",
            "actionBefore": "",
            "actionWhile": "",
            "actionAfter": "",
            "optionIcon": ""
        },
        {
            "id": 790410109,
            "nextDialogs": [
                790410110,
                790410111
            ],
            "talkRole": {
                "type": "TALK_ROLE_NPC",
                "id": "1005"
            },
            "talkContentTextMapHash": 2788315266,
            "talkAssetPath": "",
            "talkAssetPathAlter": "",
            "talkAudioName": "",
            "actionBefore": "",
            "actionWhile": "",
            "actionAfter": "",
            "optionIcon": ""
        },
        {
            "id": 790410110,
            "nextDialogs": [
                790410112
            ],
            "talkRole": {
                "type": "TALK_ROLE_PLAYER",
                "id": ""
            },
            "talkContentTextMapHash": 79273994,
            "talkAssetPath": "",
            "talkAssetPathAlter": "",
            "talkAudioName": "",
            "actionBefore": "",
            "actionWhile": "",
            "actionAfter": "",
            "optionIcon": ""
        },
        {
            "id": 790410112,
            "nextDialogs": [
                790410113
            ],
            "talkRole": {
                "type": "TALK_ROLE_NPC",
                "id": "1005"
            },
            "talkContentTextMapHash": 2530285538,
            "talkAssetPath": "",
            "talkAssetPathAlter": "",
            "talkAudioName": "",
            "actionBefore": "",
            "actionWhile": "",
            "actionAfter": "",
            "optionIcon": ""
        },
        {
            "id": 790410113,
            "nextDialogs": [
                790410114
            ],
            "talkRole": {
                "type": "TALK_ROLE_NPC",
                "id": "1005"
            },
            "talkContentTextMapHash": 1089039274,
            "talkAssetPath": "",
            "talkAssetPathAlter": "",
            "talkAudioName": "",
            "actionBefore": "",
            "actionWhile": "",
            "actionAfter": "",
            "optionIcon": ""
        },
        {
            "id": 790410114,
            "nextDialogs": [
                790410115
            ],
            "talkRole": {
                "type": "TALK_ROLE_NPC",
                "id": "13247"
            },
            "talkContentTextMapHash": 225421394,
            "talkAssetPath": "",
            "talkAssetPathAlter": "",
            "talkAudioName": "",
            "actionBefore": "",
            "actionWhile": "SimpleTalk/Happy",
            "actionAfter": "",
            "optionIcon": ""
        },
        {
            "id": 790410115,
            "nextDialogs": [
                790410116
            ],
            "talkRole": {
                "type": "TALK_ROLE_NPC",
                "id": "13247"
            },
            "talkContentTextMapHash": 2514605474,
            "talkAssetPath": "",
            "talkAssetPathAlter": "",
            "talkAudioName": "",
            "actionBefore": "",
            "actionWhile": "",
            "actionAfter": "",
            "optionIcon": ""
        },
        {
            "id": 790410116,
            "nextDialogs": [
                790410117
            ],
            "talkRole": {
                "type": "TALK_ROLE_NPC",
                "id": "1005"
            },
            "talkContentTextMapHash": 1945375266,
            "talkAssetPath": "",
            "talkAssetPathAlter": "",
            "talkAudioName": "",
            "actionBefore": "",
            "actionWhile": "",
            "actionAfter": "",
            "optionIcon": ""
        },
        {
            "id": 790410117,
            "nextDialogs": [
                790410118
            ],
            "talkRole": {
                "type": "TALK_ROLE_NPC",
                "id": "13247"
            },
            "talkContentTextMapHash": 2569333946,
            "talkAssetPath": "",
            "talkAssetPathAlter": "",
            "talkAudioName": "",
            "actionBefore": "",
            "actionWhile": "SimpleTalk/RandomTalk",
            "actionAfter": "",
            "optionIcon": ""
        },
        {
            "id": 790410118,
            "nextDialogs": [
                790410119
            ],
            "talkRole": {
                "type": "TALK_ROLE_NPC",
                "id": "13247"
            },
            "talkContentTextMapHash": 3303438282,
            "talkAssetPath": "",
            "talkAssetPathAlter": "",
            "talkAudioName": "",
            "actionBefore": "",
            "actionWhile": "",
            "actionAfter": "",
            "optionIcon": ""
        },
        {
            "id": 790410119,
            "nextDialogs": [
                790410120
            ],
            "talkRole": {
                "type": "TALK_ROLE_NPC",
                "id": "13247"
            },
            "talkContentTextMapHash": 2827986042,
            "talkAssetPath": "",
            "talkAssetPathAlter": "",
            "talkAudioName": "",
            "actionBefore": "",
            "actionWhile": "",
            "actionAfter": "",
            "optionIcon": ""
        },
        {
            "id": 790410120,
            "nextDialogs": [
                790410121
            ],
            "talkRole": {
                "type": "TALK_ROLE_NPC",
                "id": "13247"
            },
            "talkContentTextMapHash": 4181419482,
            "talkAssetPath": "",
            "talkAssetPathAlter": "",
            "talkAudioName": "",
            "actionBefore": "",
            "actionWhile": "SimpleTalk/RandomTalk",
            "actionAfter": "",
            "optionIcon": ""
        },
        {
            "id": 790410121,
            "nextDialogs": [
                790410122
            ],
            "talkRole": {
                "type": "TALK_ROLE_NPC",
                "id": "13247"
            },
            "talkContentTextMapHash": 36145978,
            "talkAssetPath": "",
            "talkAssetPathAlter": "",
            "talkAudioName": "",
            "actionBefore": "",
            "actionWhile": "",
            "actionAfter": "",
            "optionIcon": ""
        },
        {
            "id": 790410122,
            "nextDialogs": [
                790410123
            ],
            "talkRole": {
                "type": "TALK_ROLE_NPC",
                "id": "1005"
            },
            "talkContentTextMapHash": 3757620066,
            "talkAssetPath": "",
            "talkAssetPathAlter": "",
            "talkAudioName": "",
            "actionBefore": "",
            "actionWhile": "",
            "actionAfter": "",
            "optionIcon": ""
        },
        {
            "id": 790410123,
            "nextDialogs": [
                790410124
            ],
            "talkRole": {
                "type": "TALK_ROLE_NPC",
                "id": "13247"
            },
            "talkContentTextMapHash": 2286043098,
            "talkAssetPath": "",
            "talkAssetPathAlter": "",
            "talkAudioName": "",
            "actionBefore": "",
            "actionWhile": "SimpleTalk/RandomTalk",
            "actionAfter": "",
            "optionIcon": ""
        },
        {
            "id": 790410124,
            "nextDialogs": [
                790410125
            ],
            "talkRole": {
                "type": "TALK_ROLE_NPC",
                "id": "13247"
            },
            "talkContentTextMapHash": 3415989890,
            "talkAssetPath": "",
            "talkAssetPathAlter": "",
            "talkAudioName": "",
            "actionBefore": "",
            "actionWhile": "",
            "actionAfter": "",
            "optionIcon": ""
        },
        {
            "id": 790410125,
            "nextDialogs": [
                790410126
            ],
            "talkRole": {
                "type": "TALK_ROLE_NPC",
                "id": "13247"
            },
            "talkContentTextMapHash": 3781937282,
            "talkAssetPath": "",
            "talkAssetPathAlter": "",
            "talkAudioName": "",
            "actionBefore": "",
            "actionWhile": "",
            "actionAfter": "",
            "optionIcon": ""
        },
        {
            "id": 790410126,
            "nextDialogs": [
                790410127
            ],
            "talkRole": {
                "type": "TALK_ROLE_NPC",
                "id": "13247"
            },
            "talkContentTextMapHash": 1942723882,
            "talkAssetPath": "",
            "talkAssetPathAlter": "",
            "talkAudioName": "",
            "actionBefore": "",
            "actionWhile": "",
            "actionAfter": "",
            "optionIcon": ""
        },
        {
            "id": 790410127,
            "nextDialogs": [
                790410128
            ],
            "talkRole": {
                "type": "TALK_ROLE_NPC",
                "id": "13247"
            },
            "talkContentTextMapHash": 1651050586,
            "talkAssetPath": "",
            "talkAssetPathAlter": "",
            "talkAudioName": "",
            "actionBefore": "",
            "actionWhile": "SimpleTalk/RandomTalk",
            "actionAfter": "",
            "optionIcon": ""
        },
        {
            "id": 790410128,
            "nextDialogs": [
                790410129,
                790410130
            ],
            "talkRole": {
                "type": "TALK_ROLE_NPC",
                "id": "13247"
            },
            "talkContentTextMapHash": 2236152226,
            "talkAssetPath": "",
            "talkAssetPathAlter": "",
            "talkAudioName": "",
            "actionBefore": "",
            "actionWhile": "",
            "actionAfter": "",
            "optionIcon": ""
        },
        {
            "id": 790410129,
            "nextDialogs": [
                790410131
            ],
            "talkRole": {
                "type": "TALK_ROLE_PLAYER",
                "id": ""
            },
            "talkContentTextMapHash": 1981371154,
            "talkAssetPath": "",
            "talkAssetPathAlter": "",
            "talkAudioName": "",
            "actionBefore": "",
            "actionWhile": "",
            "actionAfter": "",
            "optionIcon": ""
        },
        {
            "id": 790410131,
            "nextDialogs": [
                790410132
            ],
            "talkRole": {
                "type": "TALK_ROLE_NPC",
                "id": "13247"
            },
            "talkContentTextMapHash": 3072053346,
            "talkAssetPath": "",
            "talkAssetPathAlter": "",
            "talkAudioName": "",
            "actionBefore": "",
            "actionWhile": "SimpleTalk/Think",
            "actionAfter": "",
            "optionIcon": ""
        },
        {
            "id": 790410132,
            "nextDialogs": [
                790410133
            ],
            "talkRole": {
                "type": "TALK_ROLE_NPC",
                "id": "13247"
            },
            "talkContentTextMapHash": 163823026,
            "talkAssetPath": "",
            "talkAssetPathAlter": "",
            "talkAudioName": "",
            "actionBefore": "",
            "actionWhile": "",
            "actionAfter": "",
            "optionIcon": ""
        },
        {
            "id": 790410133,
            "nextDialogs": [
                790410134
            ],
            "talkRole": {
                "type": "TALK_ROLE_NPC",
                "id": "1005"
            },
            "talkContentTextMapHash": 3914199306,
            "talkAssetPath": "",
            "talkAssetPathAlter": "",
            "talkAudioName": "",
            "actionBefore": "",
            "actionWhile": "",
            "actionAfter": "",
            "optionIcon": ""
        },
        {
            "id": 790410134,
            "nextDialogs": [
                790410135
            ],
            "talkRole": {
                "type": "TALK_ROLE_NPC",
                "id": "13247"
            },
            "talkContentTextMapHash": 3971595106,
            "talkAssetPath": "",
            "talkAssetPathAlter": "",
            "talkAudioName": "",
            "actionBefore": "",
            "actionWhile": "SimpleTalk/Refuse",
            "actionAfter": "",
            "optionIcon": ""
        },
        {
            "id": 790410135,
            "nextDialogs": [
                790410136
            ],
            "talkRole": {
                "type": "TALK_ROLE_NPC",
                "id": "13247"
            },
            "talkContentTextMapHash": 334961658,
            "talkAssetPath": "",
            "talkAssetPathAlter": "",
            "talkAudioName": "",
            "actionBefore": "",
            "actionWhile": "",
            "actionAfter": "",
            "optionIcon": ""
        },
        {
            "id": 790410136,
            "nextDialogs": [
                790410137
            ],
            "talkRole": {
                "type": "TALK_ROLE_NPC",
                "id": "13247"
            },
            "talkContentTextMapHash": 4037427890,
            "talkAssetPath": "",
            "talkAssetPathAlter": "",
            "talkAudioName": "",
            "actionBefore": "",
            "actionWhile": "",
            "actionAfter": "",
            "optionIcon": ""
        },
        {
            "id": 790410137,
            "nextDialogs": [
                790410138
            ],
            "talkRole": {
                "type": "TALK_ROLE_NPC",
                "id": "13247"
            },
            "talkContentTextMapHash": 2619803122,
            "talkAssetPath": "",
            "talkAssetPathAlter": "",
            "talkAudioName": "",
            "actionBefore": "",
            "actionWhile": "SimpleTalk/RandomTalk",
            "actionAfter": "",
            "optionIcon": ""
        },
        {
            "id": 790410138,
            "nextDialogs": [
                790410139
            ],
            "talkRole": {
                "type": "TALK_ROLE_NPC",
                "id": "13247"
            },
            "talkContentTextMapHash": 342970762,
            "talkAssetPath": "",
            "talkAssetPathAlter": "",
            "talkAudioName": "",
            "actionBefore": "",
            "actionWhile": "",
            "actionAfter": "",
            "optionIcon": ""
        },
        {
            "id": 790410139,
            "nextDialogs": [
                790410140
            ],
            "talkRole": {
                "type": "TALK_ROLE_NPC",
                "id": "1005"
            },
            "talkContentTextMapHash": 3576111698,
            "talkAssetPath": "",
            "talkAssetPathAlter": "",
            "talkAudioName": "",
            "actionBefore": "",
            "actionWhile": "",
            "actionAfter": "",
            "optionIcon": ""
        },
        {
            "id": 790410140,
            "nextDialogs": [
                790410141,
                790410142
            ],
            "talkRole": {
                "type": "TALK_ROLE_NPC",
                "id": "1005"
            },
            "talkContentTextMapHash": 3940419474,
            "talkAssetPath": "",
            "talkAssetPathAlter": "",
            "talkAudioName": "",
            "actionBefore": "",
            "actionWhile": "",
            "actionAfter": "",
            "optionIcon": ""
        },
        {
            "id": 790410141,
            "nextDialogs": [
                790410143
            ],
            "talkRole": {
                "type": "TALK_ROLE_PLAYER",
                "id": ""
            },
            "talkContentTextMapHash": 4225662586,
            "talkAssetPath": "",
            "talkAssetPathAlter": "",
            "talkAudioName": "",
            "actionBefore": "",
            "actionWhile": "",
            "actionAfter": "",
            "optionIcon": ""
        },
        {
            "id": 790410143,
            "nextDialogs": [
                790410144
            ],
            "talkRole": {
                "type": "TALK_ROLE_NPC",
                "id": "13247"
            },
            "talkContentTextMapHash": 3026257386,
            "talkAssetPath": "",
            "talkAssetPathAlter": "",
            "talkAudioName": "",
            "actionBefore": "",
            "actionWhile": "SimpleTalk/RandomTalk",
            "actionAfter": "",
            "optionIcon": ""
        },
        {
            "id": 790410144,
            "nextDialogs": [
                790410145
            ],
            "talkRole": {
                "type": "TALK_ROLE_NPC",
                "id": "13247"
            },
            "talkContentTextMapHash": 1861475578,
            "talkAssetPath": "",
            "talkAssetPathAlter": "",
            "talkAudioName": "",
            "actionBefore": "",
            "actionWhile": "",
            "actionAfter": "",
            "optionIcon": ""
        },
        {
            "id": 790410145,
            "nextDialogs": [
                790410146
            ],
            "talkRole": {
                "type": "TALK_ROLE_NPC",
                "id": "1005"
            },
            "talkContentTextMapHash": 2163776338,
            "talkAssetPath": "",
            "talkAssetPathAlter": "",
            "talkAudioName": "",
            "actionBefore": "",
            "actionWhile": "",
            "actionAfter": "",
            "optionIcon": ""
        },
        {
            "id": 790410146,
            "nextDialogs": [
                790410147
            ],
            "talkRole": {
                "type": "TALK_ROLE_NPC",
                "id": "1005"
            },
            "talkContentTextMapHash": 1158992490,
            "talkAssetPath": "",
            "talkAssetPathAlter": "",
            "talkAudioName": "",
            "actionBefore": "",
            "actionWhile": "",
            "actionAfter": "",
            "optionIcon": ""
        },
        {
            "id": 790410147,
            "nextDialogs": [
                790410148
            ],
            "talkRole": {
                "type": "TALK_ROLE_NPC",
                "id": "1005"
            },
            "talkContentTextMapHash": 3247722378,
            "talkAssetPath": "",
            "talkAssetPathAlter": "",
            "talkAudioName": "",
            "actionBefore": "",
            "actionWhile": "",
            "actionAfter": "",
            "optionIcon": ""
        },
        {
            "id": 790410148,
            "nextDialogs": [
                790410149
            ],
            "talkRole": {
                "type": "TALK_ROLE_NPC",
                "id": "13247"
            },
            "talkContentTextMapHash": 2516342034,
            "talkAssetPath": "",
            "talkAssetPathAlter": "",
            "talkAudioName": "",
            "actionBefore": "",
            "actionWhile": "SimpleTalk/RandomTalk",
            "actionAfter": "",
            "optionIcon": ""
        },
        {
            "id": 790410149,
            "nextDialogs": [
                790410150
            ],
            "talkRole": {
                "type": "TALK_ROLE_NPC",
                "id": "13247"
            },
            "talkContentTextMapHash": 496627794,
            "talkAssetPath": "",
            "talkAssetPathAlter": "",
            "talkAudioName": "",
            "actionBefore": "",
            "actionWhile": "",
            "actionAfter": "",
            "optionIcon": ""
        },
        {
            "id": 790410150,
            "talkRole": {
                "type": "TALK_ROLE_NPC",
                "id": "13247"
            },
            "talkContentTextMapHash": 1986642082,
            "talkAssetPath": "",
            "talkAssetPathAlter": "",
            "talkAudioName": "",
            "actionBefore": "",
            "actionWhile": "",
            "actionAfter": "SimpleTalk/Idle_End",
            "optionIcon": ""
        },
        {
            "id": 790410142,
            "nextDialogs": [
                790410143
            ],
            "talkRole": {
                "type": "TALK_ROLE_PLAYER",
                "id": ""
            },
            "talkContentTextMapHash": 39166274,
            "talkAssetPath": "",
            "talkAssetPathAlter": "",
            "talkAudioName": "",
            "actionBefore": "",
            "actionWhile": "",
            "actionAfter": "",
            "optionIcon": ""
        },
        {
            "id": 790410130,
            "nextDialogs": [
                790410131
            ],
            "talkRole": {
                "type": "TALK_ROLE_PLAYER",
                "id": ""
            },
            "talkContentTextMapHash": 1770143018,
            "talkAssetPath": "",
            "talkAssetPathAlter": "",
            "talkAudioName": "",
            "actionBefore": "",
            "actionWhile": "",
            "actionAfter": "",
            "optionIcon": ""
        },
        {
            "id": 790410111,
            "nextDialogs": [
                790410112
            ],
            "talkRole": {
                "type": "TALK_ROLE_PLAYER",
                "id": ""
            },
            "talkContentTextMapHash": 1425063426,
            "talkAssetPath": "",
            "talkAssetPathAlter": "",
            "talkAudioName": "",
            "actionBefore": "",
            "actionWhile": "",
            "actionAfter": "",
            "optionIcon": ""
        }
    ]
}