{
  "FEOACBMDCKJ": 4013601,
  "AAOAAFLLOJI": [
    {
      "CCFPGAKINNB": 401360103,
      "FNNPCGIAELE": [
        401360104
      ],
      "HJLEMJIGNFE": {
        "_type": "TALK_ROLE_NPC",
        "_id": "1005"
      },
      "BDOKCLNNDGN": 3926466866,
      "LBIALGEBDEF": "",
      "OHKKBEPEBKH": "",
      "AMNGMAPONHL": "",
      "IANGBGFBILD": "",
      "ADGDAEPIILL": "",
      "DGJCJLLDMON": "",
      "DOCDFJJIDNG": ""
    },
    {
      "CCFPGAKINNB": 401360104,
      "FNNPCGIAELE": [
        401360105
      ],
      "HJLEMJIGNFE": {
        "_type": "TALK_ROLE_NPC",
        "_id": "30435"
      },
      "BDOKCLNNDGN": 1102374450,
      "LBIALGEBDEF": "",
      "OHKKBEPEBKH": "",
      "AMNGMAPONHL": "",
      "IANGBGFBILD": "",
      "ADGDAEPIILL": "",
      "DGJCJLLDMON": "",
      "DOCDFJJIDNG": ""
    },
    {
      "CCFPGAKINNB": 401360105,
      "FNNPCGIAELE": [
        401360106
      ],
      "HJLEMJIGNFE": {
        "_type": "TALK_ROLE_NPC",
        "_id": "1005"
      },
      "BDOKCLNNDGN": 3280229442,
      "LBIALGEBDEF": "",
      "OHKKBEPEBKH": "",
      "AMNGMAPONHL": "",
      "IANGBGFBILD": "",
      "ADGDAEPIILL": "",
      "DGJCJLLDMON": "",
      "DOCDFJJIDNG": ""
    },
    {
      "CCFPGAKINNB": 401360106,
      "FNNPCGIAELE": [
        401360107
      ],
      "HJLEMJIGNFE": {
        "_type": "TALK_ROLE_NPC",
        "_id": "1073"
      },
      "BDOKCLNNDGN": 645459658,
      "LBIALGEBDEF": "",
      "OHKKBEPEBKH": "",
      "AMNGMAPONHL": "",
      "IANGBGFBILD": "",
      "ADGDAEPIILL": "",
      "DGJCJLLDMON": "",
      "DOCDFJJIDNG": ""
    },
    {
      "CCFPGAKINNB": 401360107,
      "FNNPCGIAELE": [
        401360108
      ],
      "HJLEMJIGNFE": {
        "_type": "TALK_ROLE_NPC",
        "_id": "1005"
      },
      "BDOKCLNNDGN": 3216778834,
      "LBIALGEBDEF": "",
      "OHKKBEPEBKH": "",
      "AMNGMAPONHL": "",
      "IANGBGFBILD": "",
      "ADGDAEPIILL": "",
      "DGJCJLLDMON": "",
      "DOCDFJJIDNG": ""
    },
    {
      "CCFPGAKINNB": 401360108,
      "FNNPCGIAELE": [
        401360109
      ],
      "HJLEMJIGNFE": {
        "_type": "TALK_ROLE_NPC",
        "_id": "1073"
      },
      "BDOKCLNNDGN": 2480726642,
      "LBIALGEBDEF": "",
      "OHKKBEPEBKH": "",
      "AMNGMAPONHL": "",
      "IANGBGFBILD": "",
      "ADGDAEPIILL": "",
      "DGJCJLLDMON": "",
      "DOCDFJJIDNG": ""
    },
    {
      "CCFPGAKINNB": 401360109,
      "FNNPCGIAELE": [
        401360110
      ],
      "HJLEMJIGNFE": {
        "_type": "TALK_ROLE_NPC",
        "_id": "30435"
      },
      "BDOKCLNNDGN": 1978660498,
      "LBIALGEBDEF": "",
      "OHKKBEPEBKH": "",
      "AMNGMAPONHL": "",
      "IANGBGFBILD": "",
      "ADGDAEPIILL": "",
      "DGJCJLLDMON": "",
      "DOCDFJJIDNG": ""
    },
    {
      "CCFPGAKINNB": 401360110,
      "FNNPCGIAELE": [
        401360111
      ],
      "HJLEMJIGNFE": {
        "_type": "TALK_ROLE_NPC",
        "_id": "1073"
      },
      "BDOKCLNNDGN": 56726978,
      "LBIALGEBDEF": "",
      "OHKKBEPEBKH": "",
      "AMNGMAPONHL": "",
      "IANGBGFBILD": "",
      "ADGDAEPIILL": "",
      "DGJCJLLDMON": "",
      "DOCDFJJIDNG": ""
    },
    {
      "CCFPGAKINNB": 401360111,
      "FNNPCGIAELE": [
        401360112
      ],
      "HJLEMJIGNFE": {
        "_type": "TALK_ROLE_NPC",
        "_id": "1073"
      },
      "BDOKCLNNDGN": 821583842,
      "LBIALGEBDEF": "",
      "OHKKBEPEBKH": "",
      "AMNGMAPONHL": "",
      "IANGBGFBILD": "",
      "ADGDAEPIILL": "",
      "DGJCJLLDMON": "",
      "DOCDFJJIDNG": ""
    },
    {
      "CCFPGAKINNB": 401360112,
      "FNNPCGIAELE": [
        401360113
      ],
      "HJLEMJIGNFE": {
        "_type": "TALK_ROLE_NPC",
        "_id": "1073"
      },
      "BDOKCLNNDGN": 3528746226,
      "LBIALGEBDEF": "",
      "OHKKBEPEBKH": "",
      "AMNGMAPONHL": "",
      "IANGBGFBILD": "",
      "ADGDAEPIILL": "",
      "DGJCJLLDMON": "",
      "DOCDFJJIDNG": ""
    },
    {
      "CCFPGAKINNB": 401360113,
      "FNNPCGIAELE": [
        401360114
      ],
      "HJLEMJIGNFE": {
        "_type": "TALK_ROLE_NPC",
        "_id": "30435"
      },
      "BDOKCLNNDGN": 1737201794,
      "LBIALGEBDEF": "",
      "OHKKBEPEBKH": "",
      "AMNGMAPONHL": "",
      "IANGBGFBILD": "",
      "ADGDAEPIILL": "",
      "DGJCJLLDMON": "",
      "DOCDFJJIDNG": ""
    },
    {
      "CCFPGAKINNB": 401360114,
      "FNNPCGIAELE": [
        401360115
      ],
      "HJLEMJIGNFE": {
        "_type": "TALK_ROLE_NPC",
        "_id": "1073"
      },
      "BDOKCLNNDGN": 1999472914,
      "LBIALGEBDEF": "",
      "OHKKBEPEBKH": "",
      "AMNGMAPONHL": "",
      "IANGBGFBILD": "",
      "ADGDAEPIILL": "",
      "DGJCJLLDMON": "",
      "DOCDFJJIDNG": ""
    },
    {
      "CCFPGAKINNB": 401360115,
      "FNNPCGIAELE": [
        401360116
      ],
      "HJLEMJIGNFE": {
        "_type": "TALK_ROLE_NPC",
        "_id": "30435"
      },
      "BDOKCLNNDGN": 3958607978,
      "LBIALGEBDEF": "",
      "OHKKBEPEBKH": "",
      "AMNGMAPONHL": "",
      "IANGBGFBILD": "",
      "ADGDAEPIILL": "",
      "DGJCJLLDMON": "",
      "DOCDFJJIDNG": ""
    },
    {
      "CCFPGAKINNB": 401360116,
      "FNNPCGIAELE": [
        401360117
      ],
      "HJLEMJIGNFE": {
        "_type": "TALK_ROLE_NPC",
        "_id": "1005"
      },
      "BDOKCLNNDGN": 1312030506,
      "LBIALGEBDEF": "",
      "OHKKBEPEBKH": "",
      "AMNGMAPONHL": "",
      "IANGBGFBILD": "",
      "ADGDAEPIILL": "",
      "DGJCJLLDMON": "",
      "DOCDFJJIDNG": ""
    },
    {
      "CCFPGAKINNB": 401360117,
      "FNNPCGIAELE": [
        401360118
      ],
      "HJLEMJIGNFE": {
        "_type": "TALK_ROLE_NPC",
        "_id": "30435"
      },
      "BDOKCLNNDGN": 2721768874,
      "LBIALGEBDEF": "",
      "OHKKBEPEBKH": "",
      "AMNGMAPONHL": "",
      "IANGBGFBILD": "",
      "ADGDAEPIILL": "",
      "DGJCJLLDMON": "",
      "DOCDFJJIDNG": ""
    },
    {
      "CCFPGAKINNB": 401360118,
      "FNNPCGIAELE": [
        401360119
      ],
      "HJLEMJIGNFE": {
        "_type": "TALK_ROLE_NPC",
        "_id": "30435"
      },
      "BDOKCLNNDGN": 3630269266,
      "LBIALGEBDEF": "",
      "OHKKBEPEBKH": "",
      "AMNGMAPONHL": "",
      "IANGBGFBILD": "",
      "ADGDAEPIILL": "",
      "DGJCJLLDMON": "",
      "DOCDFJJIDNG": ""
    },
    {
      "CCFPGAKINNB": 401360119,
      "FNNPCGIAELE": [
        401360120
      ],
      "HJLEMJIGNFE": {
        "_type": "TALK_ROLE_NPC",
        "_id": "30435"
      },
      "BDOKCLNNDGN": 462242010,
      "LBIALGEBDEF": "",
      "OHKKBEPEBKH": "",
      "AMNGMAPONHL": "",
      "IANGBGFBILD": "",
      "ADGDAEPIILL": "",
      "DGJCJLLDMON": "",
      "DOCDFJJIDNG": ""
    },
    {
      "CCFPGAKINNB": 401360120,
      "FNNPCGIAELE": [
        401360121
      ],
      "HJLEMJIGNFE": {
        "_type": "TALK_ROLE_NPC",
        "_id": "1005"
      },
      "BDOKCLNNDGN": 2896562850,
      "LBIALGEBDEF": "",
      "OHKKBEPEBKH": "",
      "AMNGMAPONHL": "",
      "IANGBGFBILD": "",
      "ADGDAEPIILL": "",
      "DGJCJLLDMON": "",
      "DOCDFJJIDNG": ""
    },
    {
      "CCFPGAKINNB": 401360121,
      "FNNPCGIAELE": [
        401360122
      ],
      "ICCDGHCECJG": "TALK_SHOW_FORCE_SELECT",
      "HJLEMJIGNFE": {
        "_type": "TALK_ROLE_PLAYER",
        "_id": ""
      },
      "BDOKCLNNDGN": 4280850842,
      "LBIALGEBDEF": "",
      "OHKKBEPEBKH": "",
      "AMNGMAPONHL": "",
      "IANGBGFBILD": "",
      "ADGDAEPIILL": "",
      "DGJCJLLDMON": "",
      "DOCDFJJIDNG": ""
    },
    {
      "CCFPGAKINNB": 401360122,
      "FNNPCGIAELE": [
        401360123
      ],
      "HJLEMJIGNFE": {
        "_type": "TALK_ROLE_NPC",
        "_id": "1005"
      },
      "BDOKCLNNDGN": 2638665402,
      "LBIALGEBDEF": "",
      "OHKKBEPEBKH": "",
      "AMNGMAPONHL": "",
      "IANGBGFBILD": "",
      "ADGDAEPIILL": "",
      "DGJCJLLDMON": "",
      "DOCDFJJIDNG": ""
    },
    {
      "CCFPGAKINNB": 401360123,
      "HJLEMJIGNFE": {
        "_type": "TALK_ROLE_NPC",
        "_id": "30435"
      },
      "BDOKCLNNDGN": 1080172922,
      "LBIALGEBDEF": "",
      "OHKKBEPEBKH": "",
      "AMNGMAPONHL": "",
      "IANGBGFBILD": "",
      "ADGDAEPIILL": "",
      "DGJCJLLDMON": "",
      "DOCDFJJIDNG": ""
    }
  ]
}