{
    "luaDataPath": "",
    "startBlackKeepTime": 0.5,
    "entityBan": "",
    "disableNpcLod": true,
    "startFade": {
        "startFadeInDuration": 0.5,
        "startFadeOutDuration": 0.5
    },
    "endFade": {
        "startFadeOutDuration": 0.0
    },
    "actors": [
        {
            "alias": "Avatar",
            "visible": true,
            "bornPointName": "Q201709Player",
            "relativePosNpcAlias": "",
            "bindMovingTargetKey": ""
        },
        {
            "configID": 1005,
            "alias": "1005",
            "visible": true,
            "bornPointName": "Q201709Paimon",
            "removeActorType": "REMOVE_WITH_DISAPPEAR",
            "relativePosNpcAlias": "",
            "bindMovingTargetKey": ""
        },
        {
            "configID": 1033,
            "alias": "1033",
            "visible": true,
            "bornPointName": "Q201709Tuoma",
            "relativePosNpcAlias": "",
            "bindMovingTargetKey": ""
        },
        {
            "configID": 1013,
            "alias": "1013",
            "visible": true,
            "bornPointName": "Q201709Shenli",
            "relativePosNpcAlias": "",
            "bindMovingTargetKey": ""
        },
        {
            "configID": 1040,
            "alias": "1040",
            "visible": true,
            "bornPointName": "Q201709Zaoyou",
            "removeActorType": "REMOVE",
            "relativePosNpcAlias": "",
            "bindMovingTargetKey": ""
        }
    ],
    "group": [
        [
            {
                "$type": "MOOOKOKLLEI",
                "type": "CAMERA_MOVE",
                "duration": 1.0,
                "DOKGBCKOLJK": {
                    "x": 1.6399999856948853,
                    "y": 1.5809999704360962,
                    "z": -7.133999824523926
                },
                "HGKCPMDICGG": {
                    "x": 0.6549999713897705,
                    "y": 1.434000015258789,
                    "z": -7.044000148773193
                },
                "AFODHELHCGB": 30.0,
                "MGMFMGNANHH": 6,
                "NDFGFJFGHKL": "EaseInOutCubic",
                "IBCBGNHCICN": {},
                "HCPFCAHMGMO": false,
                "OMCCMPHDLOO": "",
                "FEFNBKOHPOG": true,
                "OCFGGGHIKOO": "",
                "LJFHGGJDPHH": "",
                "LPKDFKLNEHL": ""
            },
            {
                "$type": "MOOOKOKLLEI",
                "type": "CAMERA_MOVE",
                "delayTime": 0.10000000149011612,
                "duration": 5.0,
                "DOKGBCKOLJK": {
                    "x": 1.6679999828338623,
                    "y": 1.3860000371932983,
                    "z": -7.142000198364258
                },
                "HGKCPMDICGG": {
                    "x": 0.6830000281333923,
                    "y": 1.2389999628067017,
                    "z": -7.052000045776367
                },
                "AFODHELHCGB": 30.0,
                "NDFGFJFGHKL": "EaseOutQuad",
                "IBCBGNHCICN": {},
                "HCPFCAHMGMO": false,
                "OMCCMPHDLOO": "",
                "FEFNBKOHPOG": true,
                "OCFGGGHIKOO": "",
                "LJFHGGJDPHH": "",
                "LPKDFKLNEHL": ""
            },
            {
                "$type": "EAMBKPBOPIC",
                "type": "LOOK_AT",
                "aliasList": [
                    "Avatar"
                ],
                "FIDJDPAIFDN": true,
                "BCHGCKLKNEH": 0.5,
                "OMCCMPHDLOO": "1013",
                "KPCALFDIHMC": "",
                "DBLNLMOPEBP": ""
            },
            {
                "$type": "EAMBKPBOPIC",
                "type": "LOOK_AT",
                "aliasList": [
                    "1005"
                ],
                "FIDJDPAIFDN": true,
                "BCHGCKLKNEH": 0.5,
                "OMCCMPHDLOO": "1013",
                "KPCALFDIHMC": "",
                "DBLNLMOPEBP": ""
            },
            {
                "$type": "EAMBKPBOPIC",
                "type": "LOOK_AT",
                "aliasList": [
                    "1033"
                ],
                "FIDJDPAIFDN": true,
                "BCHGCKLKNEH": 0.5,
                "OMCCMPHDLOO": "Avatar",
                "KPCALFDIHMC": "",
                "DBLNLMOPEBP": ""
            },
            {
                "$type": "EAMBKPBOPIC",
                "type": "LOOK_AT",
                "aliasList": [
                    "1013"
                ],
                "FIDJDPAIFDN": true,
                "BCHGCKLKNEH": 0.5,
                "OMCCMPHDLOO": "Avatar",
                "KPCALFDIHMC": "",
                "DBLNLMOPEBP": ""
            },
            {
                "$type": "MoleMole.Config.ConfigVisibleInterAction",
                "type": "VISIBLE",
                "aliasList": [
                    "1040"
                ],
                "extraParam": ""
            }
        ],
        [
            {
                "$type": "MOOOKOKLLEI",
                "type": "CAMERA_MOVE",
                "duration": 5.0,
                "DOKGBCKOLJK": {
                    "x": 1.6679999828338623,
                    "y": 1.3860000371932983,
                    "z": -7.142000198364258
                },
                "HGKCPMDICGG": {
                    "x": 0.6830000281333923,
                    "y": 1.2389999628067017,
                    "z": -7.052000045776367
                },
                "AFODHELHCGB": 30.0,
                "NDFGFJFGHKL": "EaseOutQuad",
                "IBCBGNHCICN": {},
                "HCPFCAHMGMO": false,
                "OMCCMPHDLOO": "",
                "FEFNBKOHPOG": true,
                "OCFGGGHIKOO": "",
                "LJFHGGJDPHH": "",
                "LPKDFKLNEHL": ""
            },
            {
                "$type": "ECLBLHOENAG",
                "type": "DIALOG_SELECT",
                "delayTime": 1.7999999523162842,
                "aliasList": [
                    "Avatar"
                ],
                "NDMMOPDPKNF": [
                    20170902,
                    20170903
                ],
                "FPDBIEGHMCD": [
                    3954034088,
                    3954034088
                ],
                "PKBOIGBGDEG": true
            },
            {
                "$type": "DLPFECMKEKH",
                "type": "DIALOG",
                "aliasList": [
                    "1013"
                ],
                "NMKEDPFEKBH": 20170901,
                "JLCHMAJCAPA": 2.0
            },
            {
                "$type": "OPCCDGPJCJI",
                "type": "EMO_SYNC",
                "aliasList": [
                    "1013"
                ],
                "IONNJBCBACJ": "Cs_Emo_Avatar_Simple_Common_Set/Cs_Emo_Avatar_Talk/Cs_Emo_Avatar_MainLine/Cs_Emo_Avatar_Inazuma/Cs_Emo_20170901",
                "HLEJKBCMNNJ": "",
                "JGHLJJLNGPP": "",
                "MANNKIIBOFM": "",
                "COMNAAFDEDH": "",
                "CPGCCLNOCDK": "",
                "IGEFGCJKCPM": [
                    15105874499944483090,
                    8821470369266212473,
                    16070385019061678284,
                    8549601782887772091
                ]
            },
            {
                "$type": "ILCGAGEGDJI",
                "type": "BODY_LANG",
                "aliasList": [
                    "1013"
                ],
                "FLBOOPHHFJP": 1171,
                "PMJAMGLAJGK": true,
                "LIMPPBIAKGL": false,
                "FNDLJGEAMGI": ""
            }
        ],
        [
            {
                "$type": "MOOOKOKLLEI",
                "type": "CAMERA_MOVE",
                "delayTime": 0.10000000149011612,
                "duration": 5.0,
                "DOKGBCKOLJK": {
                    "x": -1.0789999961853027,
                    "y": 1.246999979019165,
                    "z": -6.86899995803833
                },
                "HGKCPMDICGG": {
                    "x": -2.052000045776367,
                    "y": 1.1710000038146973,
                    "z": -6.651000022888184
                },
                "AFODHELHCGB": 30.0,
                "NDFGFJFGHKL": "EaseOutQuad",
                "IBCBGNHCICN": {},
                "HCPFCAHMGMO": false,
                "OMCCMPHDLOO": "",
                "FEFNBKOHPOG": true,
                "OCFGGGHIKOO": "",
                "LJFHGGJDPHH": "",
                "LPKDFKLNEHL": ""
            },
            {
                "$type": "MOOOKOKLLEI",
                "type": "CAMERA_MOVE",
                "duration": 1.0,
                "DOKGBCKOLJK": {
                    "x": -0.9980000257492065,
                    "y": 1.2400000095367432,
                    "z": -6.88700008392334
                },
                "HGKCPMDICGG": {
                    "x": -1.9709999561309814,
                    "y": 1.1640000343322754,
                    "z": -6.669000148773193
                },
                "AFODHELHCGB": 30.0,
                "MGMFMGNANHH": 6,
                "NDFGFJFGHKL": "EaseInOutCubic",
                "IBCBGNHCICN": {},
                "HCPFCAHMGMO": false,
                "OMCCMPHDLOO": "",
                "FEFNBKOHPOG": true,
                "OCFGGGHIKOO": "",
                "LJFHGGJDPHH": "",
                "LPKDFKLNEHL": ""
            },
            {
                "$type": "DLPFECMKEKH",
                "type": "DIALOG",
                "aliasList": [
                    "1013"
                ],
                "NMKEDPFEKBH": 20170904,
                "JLCHMAJCAPA": 0.5
            },
            {
                "$type": "OPCCDGPJCJI",
                "type": "EMO_SYNC",
                "aliasList": [
                    "1013"
                ],
                "IONNJBCBACJ": "Cs_Emo_Avatar_Simple_Common_Set/Cs_Emo_Avatar_Talk/Cs_Emo_Avatar_MainLine/Cs_Emo_Avatar_Inazuma/Cs_Emo_20170904",
                "HLEJKBCMNNJ": "",
                "JGHLJJLNGPP": "",
                "MANNKIIBOFM": "",
                "COMNAAFDEDH": "",
                "CPGCCLNOCDK": "",
                "IGEFGCJKCPM": [
                    15133048082633000630,
                    14177726783740368667,
                    13856877027566731537,
                    11384524356281696158
                ]
            },
            {
                "$type": "ILCGAGEGDJI",
                "type": "BODY_LANG",
                "aliasList": [
                    "1013"
                ],
                "FLBOOPHHFJP": 1130,
                "PMJAMGLAJGK": true,
                "LIMPPBIAKGL": false,
                "FNDLJGEAMGI": ""
            }
        ],
        [
            {
                "$type": "MoleMole.Config.ConfigBlackScreenAction",
                "type": "BLACK_SCREEN",
                "delayTime": 0.5,
                "duration": 3.0,
                "blackScreenType": "KEEP_BLACK",
                "durationKeepBlack": 3.0,
                "inteePos": "",
                "textMapID": "QUEST_Message_Q2017091",
                "useTextFade": true
            },
            {
                "$type": "DLPFECMKEKH",
                "type": "DIALOG_CLEAR"
            },
            {
                "$type": "MoleMole.Config.ConfigBlackScreenAction",
                "type": "BLACK_SCREEN",
                "duration": 0.5,
                "blackScreenType": "TO_BLACK",
                "durationToBlack": 0.5,
                "inteePos": "",
                "textMapID": "",
                "useTextFade": true
            },
            {
                "$type": "MoleMole.Config.ConfigTimeProtectAction",
                "type": "TIME_PROTECT",
                "duration": 3.5
            },
            {
                "$type": "EAMBKPBOPIC",
                "type": "LOOK_AT",
                "delayTime": 0.699999988079071,
                "aliasList": [
                    "Avatar"
                ],
                "FIDJDPAIFDN": true,
                "BCHGCKLKNEH": 0.5,
                "OMCCMPHDLOO": "1040",
                "KPCALFDIHMC": "",
                "DBLNLMOPEBP": ""
            },
            {
                "$type": "MoleMole.Config.ConfigTeleportToAction",
                "type": "TELEPORT_TO",
                "delayTime": 0.6000000238418579,
                "aliasList": [
                    "Avatar"
                ],
                "position": {
                    "x": -0.5419999957084656,
                    "y": -0.10199999809265137,
                    "z": -7.1620001792907715
                },
                "forward": {
                    "x": -0.6990000009536743,
                    "z": 1.1100000143051147
                },
                "posBindMovingTargetKey": "",
                "forwardBindMovingTargetKey": ""
            },
            {
                "$type": "EAMBKPBOPIC",
                "type": "LOOK_AT",
                "delayTime": 0.699999988079071,
                "aliasList": [
                    "1005"
                ],
                "FIDJDPAIFDN": true,
                "BCHGCKLKNEH": 0.5,
                "OMCCMPHDLOO": "1040",
                "KPCALFDIHMC": "",
                "DBLNLMOPEBP": ""
            },
            {
                "$type": "MoleMole.Config.ConfigTeleportToAction",
                "type": "TELEPORT_TO",
                "delayTime": 0.6000000238418579,
                "aliasList": [
                    "1005"
                ],
                "position": {
                    "x": -0.8040000200271606,
                    "y": -0.10199999809265137,
                    "z": -6.281000137329102
                },
                "forward": {
                    "x": -0.9760000109672546,
                    "z": 1.1150000095367432
                },
                "posBindMovingTargetKey": "",
                "forwardBindMovingTargetKey": ""
            },
            {
                "$type": "ILCGAGEGDJI",
                "type": "BODY_LANG",
                "delayTime": 1.0,
                "aliasList": [
                    "1005"
                ],
                "FLBOOPHHFJP": 1120,
                "PMJAMGLAJGK": true,
                "LIMPPBIAKGL": false,
                "FNDLJGEAMGI": ""
            },
            {
                "$type": "EAMBKPBOPIC",
                "type": "LOOK_AT",
                "delayTime": 0.699999988079071,
                "aliasList": [
                    "1033"
                ],
                "FIDJDPAIFDN": true,
                "BCHGCKLKNEH": 0.5,
                "OMCCMPHDLOO": "1040",
                "KPCALFDIHMC": "",
                "DBLNLMOPEBP": ""
            },
            {
                "$type": "MoleMole.Config.ConfigTeleportToAction",
                "type": "TELEPORT_TO",
                "delayTime": 0.6000000238418579,
                "aliasList": [
                    "1033"
                ],
                "position": {
                    "x": -2.622999906539917,
                    "y": -0.10199999809265137,
                    "z": -7.7170000076293945
                },
                "forward": {
                    "x": 0.5019999742507935,
                    "z": 1.375
                },
                "posBindMovingTargetKey": "",
                "forwardBindMovingTargetKey": ""
            },
            {
                "$type": "MoleMole.Config.ConfigTeleportToAction",
                "type": "TELEPORT_TO",
                "delayTime": 0.6000000238418579,
                "aliasList": [
                    "1013"
                ],
                "position": {
                    "x": -2.3469998836517334,
                    "y": -0.10199999809265137,
                    "z": -6.583000183105469
                },
                "forward": {
                    "x": 0.5839999914169312,
                    "z": 1.3229999542236328
                },
                "posBindMovingTargetKey": "",
                "forwardBindMovingTargetKey": ""
            },
            {
                "$type": "EAMBKPBOPIC",
                "type": "LOOK_AT",
                "delayTime": 0.699999988079071,
                "aliasList": [
                    "1013"
                ],
                "FIDJDPAIFDN": true,
                "BCHGCKLKNEH": 0.5,
                "OMCCMPHDLOO": "1040",
                "KPCALFDIHMC": "",
                "DBLNLMOPEBP": ""
            },
            {
                "$type": "ILCGAGEGDJI",
                "type": "BODY_LANG",
                "delayTime": 1.0,
                "aliasList": [
                    "1013"
                ],
                "JLABKFNJCNP": true,
                "PMJAMGLAJGK": true,
                "LIMPPBIAKGL": false,
                "FNDLJGEAMGI": ""
            },
            {
                "$type": "OPCCDGPJCJI",
                "type": "EMO_SYNC",
                "delayTime": 1.0,
                "aliasList": [
                    "1013"
                ],
                "IONNJBCBACJ": "",
                "HLEJKBCMNNJ": "Cs_Emo_Avatar_Common/Cs_Emo_Avatar_Default01",
                "JGHLJJLNGPP": "Cs_Emo_Avatar_Common/Cs_Emo_Avatar_Default01_B",
                "MANNKIIBOFM": "",
                "COMNAAFDEDH": "",
                "CPGCCLNOCDK": "",
                "MFABDGAFKII": [
                    1010565500959774114,
                    17914558573000180712,
                    14498871351621154070,
                    14348654671849899985
                ],
                "IPAGHAALIII": [
                    12199605016063642592,
                    6659610500948409138,
                    10783156204328777859,
                    13383650154785247612
                ]
            },
            {
                "$type": "MoleMole.Config.ConfigVisibleInterAction",
                "type": "VISIBLE",
                "delayTime": 0.6000000238418579,
                "aliasList": [
                    "1040"
                ],
                "isVisible": true,
                "extraParam": ""
            },
            {
                "$type": "EAMBKPBOPIC",
                "type": "LOOK_AT",
                "delayTime": 0.6000000238418579,
                "aliasList": [
                    "1040"
                ],
                "EFHJCGEOHAF": {
                    "y": 20.0
                },
                "BCHGCKLKNEH": 0.5,
                "OMCCMPHDLOO": "",
                "KPCALFDIHMC": "",
                "DBLNLMOPEBP": ""
            },
            {
                "$type": "ILCGAGEGDJI",
                "type": "BODY_LANG",
                "delayTime": 1.0,
                "aliasList": [
                    "1040"
                ],
                "FLBOOPHHFJP": 1160,
                "PMJAMGLAJGK": true,
                "LIMPPBIAKGL": false,
                "FNDLJGEAMGI": ""
            },
            {
                "$type": "OPCCDGPJCJI",
                "type": "EMO_SYNC",
                "delayTime": 1.0,
                "aliasList": [
                    "1040"
                ],
                "IONNJBCBACJ": "",
                "HLEJKBCMNNJ": "Cs_Emo_Avatar_Common/Cs_Emo_Avatar_Angry01",
                "JGHLJJLNGPP": "Cs_Emo_Avatar_Common/Cs_Emo_Avatar_Doubt04_B",
                "MANNKIIBOFM": "",
                "COMNAAFDEDH": "",
                "CPGCCLNOCDK": "",
                "MFABDGAFKII": [
                    14296606849723709100,
                    5508348580450379567,
                    7627497203169383327,
                    8979581647593659876
                ],
                "IPAGHAALIII": [
                    16930745525615652839,
                    2542324352567732490,
                    14483112185556679613,
                    6735528899415642561
                ]
            }
        ],
        [
            {
                "$type": "MoleMole.Config.ConfigBlackScreenAction",
                "type": "BLACK_SCREEN",
                "duration": 0.5,
                "blackScreenType": "FROM_BLACK",
                "durationFromBlack": 0.5,
                "inteePos": "",
                "textMapID": "",
                "useTextFade": true
            },
            {
                "$type": "MOOOKOKLLEI",
                "type": "CAMERA_MOVE",
                "duration": 1.0,
                "DOKGBCKOLJK": {
                    "x": -1.7000000476837158,
                    "y": 0.6669999957084656,
                    "z": -10.104999542236328
                },
                "HGKCPMDICGG": {
                    "x": -1.694000005722046,
                    "y": 0.7020000219345093,
                    "z": -9.105999946594238
                },
                "AFODHELHCGB": 30.0,
                "MGMFMGNANHH": 6,
                "NDFGFJFGHKL": "EaseOutQuad",
                "IBCBGNHCICN": {},
                "HCPFCAHMGMO": false,
                "OMCCMPHDLOO": "",
                "FEFNBKOHPOG": true,
                "OCFGGGHIKOO": "",
                "LJFHGGJDPHH": "",
                "LPKDFKLNEHL": ""
            },
            {
                "$type": "MOOOKOKLLEI",
                "type": "CAMERA_MOVE",
                "delayTime": 0.10000000149011612,
                "duration": 5.0,
                "DOKGBCKOLJK": {
                    "x": -1.6920000314712524,
                    "y": 0.6309999823570251,
                    "z": -9.532999992370605
                },
                "HGKCPMDICGG": {
                    "x": -1.6890000104904175,
                    "y": 0.6809999942779541,
                    "z": -8.534000396728516
                },
                "AFODHELHCGB": 30.0,
                "NDFGFJFGHKL": "EaseOutQuad",
                "IBCBGNHCICN": {},
                "HCPFCAHMGMO": false,
                "OMCCMPHDLOO": "",
                "FEFNBKOHPOG": true,
                "OCFGGGHIKOO": "",
                "LJFHGGJDPHH": "",
                "LPKDFKLNEHL": ""
            },
            {
                "$type": "DLPFECMKEKH",
                "type": "DIALOG",
                "aliasList": [
                    "1040"
                ],
                "NMKEDPFEKBH": 20170906,
                "JLCHMAJCAPA": 0.5
            },
            {
                "$type": "OPCCDGPJCJI",
                "type": "EMO_SYNC",
                "aliasList": [
                    "1040"
                ],
                "IONNJBCBACJ": "Cs_Emo_Avatar_Simple_Common_Set/Cs_Emo_Avatar_Talk/Cs_Emo_Avatar_MainLine/Cs_Emo_Avatar_Inazuma/Cs_Emo_20170906",
                "HLEJKBCMNNJ": "",
                "JGHLJJLNGPP": "",
                "MANNKIIBOFM": "",
                "COMNAAFDEDH": "",
                "CPGCCLNOCDK": "",
                "IGEFGCJKCPM": [
                    840717451626319817,
                    10639399711233838586,
                    14504740497186272368,
                    16896350028373015548
                ]
            }
        ],
        [
            {
                "$type": "MOOOKOKLLEI",
                "type": "CAMERA_MOVE",
                "delayTime": 0.10000000149011612,
                "duration": 7.0,
                "DOKGBCKOLJK": {
                    "x": -1.7170000076293945,
                    "y": 0.828000009059906,
                    "z": -6.813000202178955
                },
                "HGKCPMDICGG": {
                    "x": -1.6699999570846558,
                    "y": 0.8899999856948853,
                    "z": -5.815999984741211
                },
                "AFODHELHCGB": 30.0,
                "NDFGFJFGHKL": "EaseOutQuad",
                "IBCBGNHCICN": {},
                "HCPFCAHMGMO": false,
                "OMCCMPHDLOO": "",
                "FEFNBKOHPOG": true,
                "OCFGGGHIKOO": "",
                "LJFHGGJDPHH": "",
                "LPKDFKLNEHL": ""
            },
            {
                "$type": "MOOOKOKLLEI",
                "type": "CAMERA_MOVE",
                "duration": 1.0,
                "DOKGBCKOLJK": {
                    "x": -1.722000002861023,
                    "y": 0.8019999861717224,
                    "z": -6.9079999923706055
                },
                "HGKCPMDICGG": {
                    "x": -1.6749999523162842,
                    "y": 0.8640000224113464,
                    "z": -5.910999774932861
                },
                "AFODHELHCGB": 30.0,
                "MGMFMGNANHH": 6,
                "NDFGFJFGHKL": "EaseInOutCubic",
                "IBCBGNHCICN": {},
                "HCPFCAHMGMO": false,
                "OMCCMPHDLOO": "",
                "FEFNBKOHPOG": true,
                "OCFGGGHIKOO": "",
                "LJFHGGJDPHH": "",
                "LPKDFKLNEHL": ""
            },
            {
                "$type": "DLPFECMKEKH",
                "type": "DIALOG",
                "aliasList": [
                    "1040"
                ],
                "NMKEDPFEKBH": 20170907,
                "JLCHMAJCAPA": 0.5
            },
            {
                "$type": "OPCCDGPJCJI",
                "type": "EMO_SYNC",
                "aliasList": [
                    "1040"
                ],
                "IONNJBCBACJ": "Cs_Emo_Avatar_Simple_Common_Set/Cs_Emo_Avatar_Talk/Cs_Emo_Avatar_MainLine/Cs_Emo_Avatar_Inazuma/Cs_Emo_20170907",
                "HLEJKBCMNNJ": "",
                "JGHLJJLNGPP": "",
                "MANNKIIBOFM": "",
                "COMNAAFDEDH": "",
                "CPGCCLNOCDK": "",
                "IGEFGCJKCPM": [
                    5472473574036570439,
                    3895804744856140021,
                    17217986628871589363,
                    2002715743277896495
                ]
            },
            {
                "$type": "ILCGAGEGDJI",
                "type": "BODY_LANG",
                "delayTime": 2.200000047683716,
                "aliasList": [
                    "1040"
                ],
                "JLABKFNJCNP": true,
                "PMJAMGLAJGK": true,
                "LIMPPBIAKGL": false,
                "FNDLJGEAMGI": ""
            },
            {
                "$type": "ILCGAGEGDJI",
                "type": "BODY_LANG",
                "delayTime": 3.200000047683716,
                "aliasList": [
                    "1040"
                ],
                "FLBOOPHHFJP": 1110,
                "PMJAMGLAJGK": true,
                "LIMPPBIAKGL": false,
                "FNDLJGEAMGI": ""
            },
            {
                "$type": "EAMBKPBOPIC",
                "type": "LOOK_AT",
                "delayTime": 3.0999999046325684,
                "aliasList": [
                    "1040"
                ],
                "FIDJDPAIFDN": true,
                "EFHJCGEOHAF": {
                    "y": 15.0
                },
                "BCHGCKLKNEH": 0.5,
                "OMCCMPHDLOO": "",
                "KPCALFDIHMC": "",
                "DBLNLMOPEBP": ""
            }
        ],
        [
            {
                "$type": "MOOOKOKLLEI",
                "type": "CAMERA_MOVE",
                "delayTime": 0.10000000149011612,
                "duration": 15.0,
                "DOKGBCKOLJK": {
                    "x": -1.7350000143051147,
                    "y": 0.25999999046325684,
                    "z": -3.7829999923706055
                },
                "HGKCPMDICGG": {
                    "x": -1.6859999895095825,
                    "y": 0.5519999861717224,
                    "z": -4.73799991607666
                },
                "AFODHELHCGB": 30.0,
                "NDFGFJFGHKL": "EaseOutQuad",
                "IBCBGNHCICN": {},
                "HCPFCAHMGMO": false,
                "OMCCMPHDLOO": "",
                "FEFNBKOHPOG": true,
                "OCFGGGHIKOO": "",
                "LJFHGGJDPHH": "",
                "LPKDFKLNEHL": ""
            },
            {
                "$type": "MOOOKOKLLEI",
                "type": "CAMERA_MOVE",
                "duration": 1.0,
                "DOKGBCKOLJK": {
                    "x": -1.715999960899353,
                    "y": 0.37599998712539673,
                    "z": -4.163000106811523
                },
                "HGKCPMDICGG": {
                    "x": -1.6670000553131104,
                    "y": 0.6679999828338623,
                    "z": -5.118000030517578
                },
                "AFODHELHCGB": 30.0,
                "MGMFMGNANHH": 6,
                "NDFGFJFGHKL": "EaseInOutCubic",
                "IBCBGNHCICN": {},
                "HCPFCAHMGMO": false,
                "OMCCMPHDLOO": "",
                "FEFNBKOHPOG": true,
                "OCFGGGHIKOO": "",
                "LJFHGGJDPHH": "",
                "LPKDFKLNEHL": ""
            },
            {
                "$type": "DLPFECMKEKH",
                "type": "DIALOG",
                "aliasList": [
                    "1040"
                ],
                "NMKEDPFEKBH": 20170908,
                "JLCHMAJCAPA": 1.0
            },
            {
                "$type": "OPCCDGPJCJI",
                "type": "EMO_SYNC",
                "aliasList": [
                    "1040"
                ],
                "IONNJBCBACJ": "Cs_Emo_Avatar_Simple_Common_Set/Cs_Emo_Avatar_Talk/Cs_Emo_Avatar_MainLine/Cs_Emo_Avatar_Inazuma/Cs_Emo_20170908",
                "HLEJKBCMNNJ": "",
                "JGHLJJLNGPP": "",
                "MANNKIIBOFM": "",
                "COMNAAFDEDH": "",
                "CPGCCLNOCDK": "",
                "IGEFGCJKCPM": [
                    11944246329413651006,
                    5813043529364404192,
                    11976782288727001861,
                    8148699604997804902
                ]
            },
            {
                "$type": "ILCGAGEGDJI",
                "type": "BODY_LANG",
                "aliasList": [
                    "1040"
                ],
                "JLABKFNJCNP": true,
                "PMJAMGLAJGK": true,
                "LIMPPBIAKGL": false,
                "FNDLJGEAMGI": ""
            },
            {
                "$type": "ILCGAGEGDJI",
                "type": "BODY_LANG",
                "delayTime": 1.0,
                "aliasList": [
                    "1040"
                ],
                "FLBOOPHHFJP": 1240,
                "PMJAMGLAJGK": true,
                "LIMPPBIAKGL": false,
                "FNDLJGEAMGI": ""
            },
            {
                "$type": "EAMBKPBOPIC",
                "type": "LOOK_AT",
                "aliasList": [
                    "1040"
                ],
                "FIDJDPAIFDN": true,
                "EFHJCGEOHAF": {
                    "y": 15.0
                },
                "BCHGCKLKNEH": 0.5,
                "OMCCMPHDLOO": "",
                "KPCALFDIHMC": "",
                "DBLNLMOPEBP": ""
            },
            {
                "$type": "EAMBKPBOPIC",
                "type": "LOOK_AT",
                "delayTime": 1.0,
                "aliasList": [
                    "1040"
                ],
                "BCHGCKLKNEH": 0.5,
                "OMCCMPHDLOO": "",
                "KPCALFDIHMC": "",
                "DBLNLMOPEBP": ""
            }
        ],
        [
            {
                "$type": "MOOOKOKLLEI",
                "type": "CAMERA_MOVE",
                "delayTime": 8.100000381469727,
                "duration": 5.0,
                "DOKGBCKOLJK": {
                    "x": -2.0910000801086426,
                    "y": 1.031999945640564,
                    "z": -7.486000061035156
                },
                "HGKCPMDICGG": {
                    "x": -1.965999960899353,
                    "y": 0.8999999761581421,
                    "z": -6.502999782562256
                },
                "AFODHELHCGB": 30.0,
                "NDFGFJFGHKL": "EaseOutQuad",
                "IBCBGNHCICN": {},
                "HCPFCAHMGMO": false,
                "OMCCMPHDLOO": "",
                "FEFNBKOHPOG": true,
                "OCFGGGHIKOO": "",
                "LJFHGGJDPHH": "",
                "LPKDFKLNEHL": ""
            },
            {
                "$type": "MOOOKOKLLEI",
                "type": "CAMERA_MOVE",
                "delayTime": 8.0,
                "duration": 1.0,
                "DOKGBCKOLJK": {
                    "x": -2.1570000648498535,
                    "y": 1.0399999618530273,
                    "z": -7.535999774932861
                },
                "HGKCPMDICGG": {
                    "x": -2.010999917984009,
                    "y": 0.9079999923706055,
                    "z": -6.556000232696533
                },
                "AFODHELHCGB": 30.0,
                "MGMFMGNANHH": 6,
                "NDFGFJFGHKL": "EaseInOutCubic",
                "IBCBGNHCICN": {},
                "HCPFCAHMGMO": false,
                "OMCCMPHDLOO": "",
                "FEFNBKOHPOG": true,
                "OCFGGGHIKOO": "",
                "LJFHGGJDPHH": "",
                "LPKDFKLNEHL": ""
            },
            {
                "$type": "DLPFECMKEKH",
                "type": "DIALOG",
                "aliasList": [
                    "1040"
                ],
                "NMKEDPFEKBH": 20170909,
                "JLCHMAJCAPA": 0.5
            },
            {
                "$type": "OPCCDGPJCJI",
                "type": "EMO_SYNC",
                "aliasList": [
                    "1040"
                ],
                "IONNJBCBACJ": "Cs_Emo_Avatar_Simple_Common_Set/Cs_Emo_Avatar_Talk/Cs_Emo_Avatar_MainLine/Cs_Emo_Avatar_Inazuma/Cs_Emo_20170909",
                "HLEJKBCMNNJ": "",
                "JGHLJJLNGPP": "",
                "MANNKIIBOFM": "",
                "COMNAAFDEDH": "",
                "CPGCCLNOCDK": "",
                "IGEFGCJKCPM": [
                    17649177805713169035,
                    1160232371890651948,
                    2880684839623579242,
                    17052435511808431206
                ]
            },
            {
                "$type": "ILCGAGEGDJI",
                "type": "BODY_LANG",
                "delayTime": 8.0,
                "aliasList": [
                    "1040"
                ],
                "FLBOOPHHFJP": 1130,
                "PMJAMGLAJGK": true,
                "LIMPPBIAKGL": false,
                "FNDLJGEAMGI": ""
            },
            {
                "$type": "ILCGAGEGDJI",
                "type": "BODY_LANG",
                "delayTime": 7.0,
                "aliasList": [
                    "1040"
                ],
                "JLABKFNJCNP": true,
                "PMJAMGLAJGK": true,
                "LIMPPBIAKGL": false,
                "FNDLJGEAMGI": ""
            },
            {
                "$type": "EAMBKPBOPIC",
                "type": "LOOK_AT",
                "delayTime": 8.0,
                "aliasList": [
                    "1040"
                ],
                "FIDJDPAIFDN": true,
                "EFHJCGEOHAF": {
                    "x": 10.0,
                    "y": -10.0
                },
                "BCHGCKLKNEH": 0.5,
                "OMCCMPHDLOO": "",
                "KPCALFDIHMC": "",
                "DBLNLMOPEBP": ""
            }
        ],
        [
            {
                "$type": "MOOOKOKLLEI",
                "type": "CAMERA_MOVE",
                "delayTime": 0.10000000149011612,
                "duration": 10.0,
                "DOKGBCKOLJK": {
                    "x": -1.8940000534057617,
                    "y": 1.1100000143051147,
                    "z": -6.868000030517578
                },
                "HGKCPMDICGG": {
                    "x": -1.7610000371932983,
                    "y": 0.9419999718666077,
                    "z": -5.890999794006348
                },
                "AFODHELHCGB": 30.0,
                "NDFGFJFGHKL": "EaseOutQuad",
                "IBCBGNHCICN": {},
                "HCPFCAHMGMO": false,
                "OMCCMPHDLOO": "",
                "FEFNBKOHPOG": true,
                "OCFGGGHIKOO": "",
                "LJFHGGJDPHH": "",
                "LPKDFKLNEHL": ""
            },
            {
                "$type": "MOOOKOKLLEI",
                "type": "CAMERA_MOVE",
                "duration": 1.0,
                "DOKGBCKOLJK": {
                    "x": -1.9329999685287476,
                    "y": 1.121999979019165,
                    "z": -7.125999927520752
                },
                "HGKCPMDICGG": {
                    "x": -1.7999999523162842,
                    "y": 0.9539999961853027,
                    "z": -6.14900016784668
                },
                "AFODHELHCGB": 30.0,
                "MGMFMGNANHH": 6,
                "NDFGFJFGHKL": "EaseInOutCubic",
                "IBCBGNHCICN": {},
                "HCPFCAHMGMO": false,
                "OMCCMPHDLOO": "",
                "FEFNBKOHPOG": true,
                "OCFGGGHIKOO": "",
                "LJFHGGJDPHH": "",
                "LPKDFKLNEHL": ""
            },
            {
                "$type": "DLPFECMKEKH",
                "type": "DIALOG",
                "aliasList": [
                    "1040"
                ],
                "NMKEDPFEKBH": 20170910,
                "JLCHMAJCAPA": 1.0
            },
            {
                "$type": "OPCCDGPJCJI",
                "type": "EMO_SYNC",
                "aliasList": [
                    "1040"
                ],
                "IONNJBCBACJ": "Cs_Emo_Avatar_Simple_Common_Set/Cs_Emo_Avatar_Talk/Cs_Emo_Avatar_MainLine/Cs_Emo_Avatar_Inazuma/Cs_Emo_20170910",
                "HLEJKBCMNNJ": "",
                "JGHLJJLNGPP": "",
                "MANNKIIBOFM": "",
                "COMNAAFDEDH": "",
                "CPGCCLNOCDK": "",
                "IGEFGCJKCPM": [
                    7080630771413787477,
                    4294170639864115685,
                    7417641394811860943,
                    3508003761341273334
                ]
            },
            {
                "$type": "EAMBKPBOPIC",
                "type": "LOOK_AT",
                "aliasList": [
                    "1040"
                ],
                "FIDJDPAIFDN": true,
                "EFHJCGEOHAF": {
                    "x": 10.0,
                    "y": -10.0
                },
                "BCHGCKLKNEH": 0.5,
                "OMCCMPHDLOO": "",
                "KPCALFDIHMC": "",
                "DBLNLMOPEBP": ""
            },
            {
                "$type": "ILCGAGEGDJI",
                "type": "BODY_LANG",
                "aliasList": [
                    "1040"
                ],
                "JLABKFNJCNP": true,
                "PMJAMGLAJGK": true,
                "LIMPPBIAKGL": false,
                "FNDLJGEAMGI": ""
            },
            {
                "$type": "ILCGAGEGDJI",
                "type": "BODY_LANG",
                "delayTime": 1.0,
                "aliasList": [
                    "1040"
                ],
                "FLBOOPHHFJP": 1110,
                "PMJAMGLAJGK": true,
                "LIMPPBIAKGL": false,
                "FNDLJGEAMGI": ""
            },
            {
                "$type": "ILCGAGEGDJI",
                "type": "BODY_LANG",
                "delayTime": 4.599999904632568,
                "aliasList": [
                    "1040"
                ],
                "FLBOOPHHFJP": 1170,
                "PMJAMGLAJGK": true,
                "LIMPPBIAKGL": false,
                "FNDLJGEAMGI": ""
            },
            {
                "$type": "ILCGAGEGDJI",
                "type": "BODY_LANG",
                "delayTime": 3.5999999046325684,
                "aliasList": [
                    "1040"
                ],
                "JLABKFNJCNP": true,
                "PMJAMGLAJGK": true,
                "LIMPPBIAKGL": false,
                "FNDLJGEAMGI": ""
            },
            {
                "$type": "ILCGAGEGDJI",
                "type": "BODY_LANG",
                "delayTime": 8.11299991607666,
                "aliasList": [
                    "1040"
                ],
                "JLABKFNJCNP": true,
                "PMJAMGLAJGK": true,
                "LIMPPBIAKGL": false,
                "FNDLJGEAMGI": ""
            },
            {
                "$type": "EAMBKPBOPIC",
                "type": "LOOK_AT",
                "delayTime": 1.0,
                "aliasList": [
                    "1040"
                ],
                "FIDJDPAIFDN": true,
                "EFHJCGEOHAF": {
                    "x": -10.0,
                    "y": -10.0
                },
                "BCHGCKLKNEH": 0.699999988079071,
                "OMCCMPHDLOO": "",
                "KPCALFDIHMC": "",
                "DBLNLMOPEBP": ""
            }
        ],
        [
            {
                "$type": "MOOOKOKLLEI",
                "type": "CAMERA_MOVE",
                "delayTime": 0.10000000149011612,
                "duration": 7.0,
                "DOKGBCKOLJK": {
                    "x": -1.878000020980835,
                    "y": 0.5860000252723694,
                    "z": -4.184999942779541
                },
                "HGKCPMDICGG": {
                    "x": -1.7929999828338623,
                    "y": 0.8029999732971191,
                    "z": -5.1579999923706055
                },
                "AFODHELHCGB": 30.0,
                "NDFGFJFGHKL": "EaseOutQuad",
                "IBCBGNHCICN": {},
                "HCPFCAHMGMO": false,
                "OMCCMPHDLOO": "",
                "FEFNBKOHPOG": true,
                "OCFGGGHIKOO": "",
                "LJFHGGJDPHH": "",
                "LPKDFKLNEHL": ""
            },
            {
                "$type": "MOOOKOKLLEI",
                "type": "CAMERA_MOVE",
                "duration": 1.0,
                "DOKGBCKOLJK": {
                    "x": -1.8480000495910645,
                    "y": 0.6620000004768372,
                    "z": -4.5269999504089355
                },
                "HGKCPMDICGG": {
                    "x": -1.7630000114440918,
                    "y": 0.8790000081062317,
                    "z": -5.5
                },
                "AFODHELHCGB": 30.0,
                "MGMFMGNANHH": 6,
                "NDFGFJFGHKL": "EaseInOutCubic",
                "IBCBGNHCICN": {},
                "HCPFCAHMGMO": false,
                "OMCCMPHDLOO": "",
                "FEFNBKOHPOG": true,
                "OCFGGGHIKOO": "",
                "LJFHGGJDPHH": "",
                "LPKDFKLNEHL": ""
            },
            {
                "$type": "DLPFECMKEKH",
                "type": "DIALOG",
                "aliasList": [
                    "1040"
                ],
                "NMKEDPFEKBH": 20170911,
                "JLCHMAJCAPA": 1.0
            },
            {
                "$type": "OPCCDGPJCJI",
                "type": "EMO_SYNC",
                "aliasList": [
                    "1040"
                ],
                "IONNJBCBACJ": "Cs_Emo_Avatar_Simple_Common_Set/Cs_Emo_Avatar_Talk/Cs_Emo_Avatar_MainLine/Cs_Emo_Avatar_Inazuma/Cs_Emo_20170911",
                "HLEJKBCMNNJ": "",
                "JGHLJJLNGPP": "",
                "MANNKIIBOFM": "",
                "COMNAAFDEDH": "",
                "CPGCCLNOCDK": "",
                "IGEFGCJKCPM": [
                    9597837306566591631,
                    6558794861668683626,
                    15322391501893386346,
                    2440833601687325232
                ]
            },
            {
                "$type": "ILCGAGEGDJI",
                "type": "BODY_LANG",
                "aliasList": [
                    "1040"
                ],
                "JLABKFNJCNP": true,
                "PMJAMGLAJGK": true,
                "LIMPPBIAKGL": false,
                "FNDLJGEAMGI": ""
            },
            {
                "$type": "ILCGAGEGDJI",
                "type": "BODY_LANG",
                "delayTime": 1.0,
                "aliasList": [
                    "1040"
                ],
                "FLBOOPHHFJP": 1031,
                "PMJAMGLAJGK": true,
                "LIMPPBIAKGL": false,
                "FNDLJGEAMGI": ""
            },
            {
                "$type": "ILCGAGEGDJI",
                "type": "BODY_LANG",
                "delayTime": 4.146999835968018,
                "aliasList": [
                    "1040"
                ],
                "JLABKFNJCNP": true,
                "PMJAMGLAJGK": true,
                "LIMPPBIAKGL": false,
                "FNDLJGEAMGI": ""
            },
            {
                "$type": "EAMBKPBOPIC",
                "type": "LOOK_AT",
                "aliasList": [
                    "1040"
                ],
                "FIDJDPAIFDN": true,
                "BCHGCKLKNEH": 0.699999988079071,
                "OMCCMPHDLOO": "1013",
                "KPCALFDIHMC": "",
                "DBLNLMOPEBP": ""
            }
        ],
        [
            {
                "$type": "MOOOKOKLLEI",
                "type": "CAMERA_MOVE",
                "delayTime": 1.100000023841858,
                "duration": 3.0,
                "DOKGBCKOLJK": {
                    "x": -5.113999843597412,
                    "y": 2.4609999656677246,
                    "z": -9.467000007629395
                },
                "HGKCPMDICGG": {
                    "x": -4.51200008392334,
                    "y": 2.2019999027252197,
                    "z": -8.711000442504883
                },
                "AFODHELHCGB": 30.0,
                "NDFGFJFGHKL": "EaseOutQuad",
                "IBCBGNHCICN": {},
                "HCPFCAHMGMO": false,
                "OMCCMPHDLOO": "",
                "FEFNBKOHPOG": true,
                "OCFGGGHIKOO": "",
                "LJFHGGJDPHH": "",
                "LPKDFKLNEHL": ""
            },
            {
                "$type": "MOOOKOKLLEI",
                "type": "CAMERA_MOVE",
                "delayTime": 1.0,
                "duration": 1.0,
                "DOKGBCKOLJK": {
                    "x": -4.949999809265137,
                    "y": 2.3989999294281006,
                    "z": -9.635000228881836
                },
                "HGKCPMDICGG": {
                    "x": -4.310999870300293,
                    "y": 2.134999990463257,
                    "z": -8.911999702453613
                },
                "AFODHELHCGB": 30.0,
                "MGMFMGNANHH": 6,
                "NDFGFJFGHKL": "EaseInOutCubic",
                "IBCBGNHCICN": {},
                "HCPFCAHMGMO": false,
                "OMCCMPHDLOO": "",
                "FEFNBKOHPOG": true,
                "OCFGGGHIKOO": "",
                "LJFHGGJDPHH": "",
                "LPKDFKLNEHL": ""
            },
            {
                "$type": "DLPFECMKEKH",
                "type": "DIALOG_CLEAR"
            },
            {
                "$type": "MoleMole.Config.ConfigTimeProtectAction",
                "type": "TIME_PROTECT",
                "duration": 4.0
            },
            {
                "$type": "MoleMole.Config.ConfigBlackScreenAction",
                "type": "BLACK_SCREEN",
                "delayTime": 3.5,
                "duration": 1.0,
                "blackScreenType": "KEEP_BLACK",
                "durationKeepBlack": 1.0,
                "inteePos": "",
                "textMapID": "",
                "useTextFade": true
            },
            {
                "$type": "MoleMole.Config.ConfigBlackScreenAction",
                "type": "BLACK_SCREEN",
                "delayTime": 3.0,
                "duration": 0.5,
                "blackScreenType": "TO_BLACK",
                "durationToBlack": 0.5,
                "inteePos": "",
                "textMapID": "",
                "useTextFade": true
            },
            {
                "$type": "MoleMole.Config.ConfigTeleportToAction",
                "type": "TELEPORT_TO",
                "delayTime": 3.5,
                "aliasList": [
                    "Avatar"
                ],
                "position": {
                    "x": -0.5419999957084656,
                    "y": -0.10199999809265137,
                    "z": -7.1620001792907715
                },
                "forward": {
                    "x": -0.984000027179718,
                    "z": 0.18000000715255737
                },
                "posBindMovingTargetKey": "",
                "forwardBindMovingTargetKey": ""
            },
            {
                "$type": "EAMBKPBOPIC",
                "type": "LOOK_AT",
                "delayTime": 3.5,
                "aliasList": [
                    "Avatar"
                ],
                "FIDJDPAIFDN": true,
                "BCHGCKLKNEH": 0.5,
                "OMCCMPHDLOO": "1013",
                "KPCALFDIHMC": "",
                "DBLNLMOPEBP": ""
            },
            {
                "$type": "MoleMole.Config.ConfigTeleportToAction",
                "type": "TELEPORT_TO",
                "delayTime": 3.5,
                "aliasList": [
                    "1005"
                ],
                "position": {
                    "x": -0.8040000200271606,
                    "y": -0.10199999809265137,
                    "z": -6.281000137329102
                },
                "forward": {
                    "x": -0.9539999961853027,
                    "z": -0.3009999990463257
                },
                "posBindMovingTargetKey": "",
                "forwardBindMovingTargetKey": ""
            },
            {
                "$type": "EAMBKPBOPIC",
                "type": "LOOK_AT",
                "delayTime": 3.5,
                "aliasList": [
                    "1005"
                ],
                "FIDJDPAIFDN": true,
                "BCHGCKLKNEH": 0.5,
                "OMCCMPHDLOO": "1013",
                "KPCALFDIHMC": "",
                "DBLNLMOPEBP": ""
            },
            {
                "$type": "ILCGAGEGDJI",
                "type": "BODY_LANG",
                "delayTime": 3.5,
                "aliasList": [
                    "1005"
                ],
                "JLABKFNJCNP": true,
                "PMJAMGLAJGK": true,
                "LIMPPBIAKGL": false,
                "FNDLJGEAMGI": ""
            },
            {
                "$type": "MoleMole.Config.ConfigTeleportToAction",
                "type": "TELEPORT_TO",
                "delayTime": 3.5,
                "aliasList": [
                    "1033"
                ],
                "position": {
                    "x": -2.622999906539917,
                    "y": -0.10199999809265137,
                    "z": -7.7170000076293945
                },
                "forward": {
                    "x": 0.8500000238418579,
                    "z": 0.5789999961853027
                },
                "posBindMovingTargetKey": "",
                "forwardBindMovingTargetKey": ""
            },
            {
                "$type": "EAMBKPBOPIC",
                "type": "LOOK_AT",
                "delayTime": 3.5,
                "aliasList": [
                    "1033"
                ],
                "BCHGCKLKNEH": 0.5,
                "OMCCMPHDLOO": "",
                "KPCALFDIHMC": "",
                "DBLNLMOPEBP": ""
            },
            {
                "$type": "MoleMole.Config.ConfigTeleportToAction",
                "type": "TELEPORT_TO",
                "delayTime": 3.5,
                "aliasList": [
                    "1013"
                ],
                "position": {
                    "x": -2.3469998836517334,
                    "y": -0.10199999809265137,
                    "z": -6.583000183105469
                },
                "forward": {
                    "x": 1.0,
                    "z": -0.003000000026077032
                },
                "posBindMovingTargetKey": "",
                "forwardBindMovingTargetKey": ""
            },
            {
                "$type": "EAMBKPBOPIC",
                "type": "LOOK_AT",
                "delayTime": 3.5,
                "aliasList": [
                    "1013"
                ],
                "BCHGCKLKNEH": 0.5,
                "OMCCMPHDLOO": "",
                "KPCALFDIHMC": "",
                "DBLNLMOPEBP": ""
            },
            {
                "$type": "EAMBKPBOPIC",
                "type": "LOOK_AT",
                "delayTime": 0.6000000238418579,
                "aliasList": [
                    "1040"
                ],
                "BCHGCKLKNEH": 0.5,
                "OMCCMPHDLOO": "",
                "KPCALFDIHMC": "",
                "DBLNLMOPEBP": ""
            },
            {
                "$type": "ILCGAGEGDJI",
                "type": "BODY_LANG",
                "aliasList": [
                    "1040"
                ],
                "JLABKFNJCNP": true,
                "PMJAMGLAJGK": true,
                "LIMPPBIAKGL": false,
                "FNDLJGEAMGI": ""
            },
            {
                "$type": "MoleMole.Config.ConfigMoveToAction",
                "type": "MOVE_TO",
                "delayTime": 1.2000000476837158,
                "aliasList": [
                    "1040"
                ],
                "moveType": "RUN",
                "routeList": [
                    {
                        "x": -1.2020000219345093,
                        "y": -0.06700000166893005,
                        "z": -0.3400000035762787
                    },
                    {
                        "x": 5.829999923706055,
                        "y": -0.06700000166893005,
                        "z": 1.0509999990463257
                    }
                ],
                "bindMovingTargetKey": ""
            },
            {
                "$type": "OOMFCPJAJGL",
                "type": "STEER_TO",
                "delayTime": 0.5,
                "duration": 0.800000011920929,
                "aliasList": [
                    "1040"
                ],
                "DMGIIHNDNLC": "ABSOLUTE",
                "PLAPKCOMAKJ": {
                    "x": -1.6390000581741333,
                    "y": -0.10199999809265137,
                    "z": -3.7639999389648438
                },
                "HCMINPNPFDF": true,
                "PENAEBFAHCH": true,
                "CKOEAJFMDON": true,
                "OMCCMPHDLOO": "",
                "DBLNLMOPEBP": ""
            },
            {
                "$type": "MoleMole.Config.ConfigVisibleInterAction",
                "type": "VISIBLE",
                "delayTime": 3.5,
                "aliasList": [
                    "1040"
                ],
                "extraParam": ""
            }
        ],
        [
            {
                "$type": "MoleMole.Config.ConfigBlackScreenAction",
                "type": "BLACK_SCREEN",
                "duration": 0.5,
                "blackScreenType": "FROM_BLACK",
                "durationFromBlack": 0.5,
                "inteePos": "",
                "textMapID": "",
                "useTextFade": true
            },
            {
                "$type": "MOOOKOKLLEI",
                "type": "CAMERA_MOVE",
                "delayTime": 0.10000000149011612,
                "duration": 5.0,
                "DOKGBCKOLJK": {
                    "x": -1.7869999408721924,
                    "y": 0.8989999890327454,
                    "z": -6.2779998779296875
                },
                "HGKCPMDICGG": {
                    "x": -2.421999931335449,
                    "y": 1.1449999809265137,
                    "z": -7.010000228881836
                },
                "AFODHELHCGB": 30.0,
                "NDFGFJFGHKL": "EaseOutQuad",
                "IBCBGNHCICN": {},
                "HCPFCAHMGMO": false,
                "OMCCMPHDLOO": "",
                "FEFNBKOHPOG": true,
                "OCFGGGHIKOO": "",
                "LJFHGGJDPHH": "",
                "LPKDFKLNEHL": ""
            },
            {
                "$type": "MOOOKOKLLEI",
                "type": "CAMERA_MOVE",
                "duration": 1.0,
                "DOKGBCKOLJK": {
                    "x": -1.815000057220459,
                    "y": 0.902999997138977,
                    "z": -6.251999855041504
                },
                "HGKCPMDICGG": {
                    "x": -2.450000047683716,
                    "y": 1.1490000486373901,
                    "z": -6.984000205993652
                },
                "AFODHELHCGB": 30.0,
                "MGMFMGNANHH": 6,
                "NDFGFJFGHKL": "EaseInOutCubic",
                "IBCBGNHCICN": {},
                "HCPFCAHMGMO": false,
                "OMCCMPHDLOO": "",
                "FEFNBKOHPOG": true,
                "OCFGGGHIKOO": "",
                "LJFHGGJDPHH": "",
                "LPKDFKLNEHL": ""
            },
            {
                "$type": "DLPFECMKEKH",
                "type": "DIALOG",
                "aliasList": [
                    "1033"
                ],
                "NMKEDPFEKBH": 20170912,
                "JLCHMAJCAPA": 0.5
            },
            {
                "$type": "OPCCDGPJCJI",
                "type": "EMO_SYNC",
                "aliasList": [
                    "1033"
                ],
                "IONNJBCBACJ": "Cs_Emo_Avatar_Simple_Common_Set/Cs_Emo_Avatar_Talk/Cs_Emo_Avatar_MainLine/Cs_Emo_Avatar_Inazuma/Cs_Emo_20170912",
                "HLEJKBCMNNJ": "",
                "JGHLJJLNGPP": "",
                "MANNKIIBOFM": "",
                "COMNAAFDEDH": "",
                "CPGCCLNOCDK": "",
                "IGEFGCJKCPM": [
                    18182443778913719267,
                    4255589492584075646,
                    10812897797968537846,
                    1753137514645032428
                ]
            },
            {
                "$type": "ILCGAGEGDJI",
                "type": "BODY_LANG",
                "aliasList": [
                    "1033"
                ],
                "FLBOOPHHFJP": 1190,
                "PMJAMGLAJGK": true,
                "LIMPPBIAKGL": false,
                "FNDLJGEAMGI": ""
            }
        ],
        [
            {
                "$type": "MOOOKOKLLEI",
                "type": "CAMERA_MOVE",
                "delayTime": 0.10000000149011612,
                "duration": 15.0,
                "DOKGBCKOLJK": {
                    "x": -1.2970000505447388,
                    "y": 1.0399999618530273,
                    "z": -6.589000225067139
                },
                "HGKCPMDICGG": {
                    "x": -2.2839999198913574,
                    "y": 1.2039999961853027,
                    "z": -6.585000038146973
                },
                "AFODHELHCGB": 30.0,
                "NDFGFJFGHKL": "EaseOutQuad",
                "IBCBGNHCICN": {},
                "HCPFCAHMGMO": false,
                "OMCCMPHDLOO": "",
                "FEFNBKOHPOG": true,
                "OCFGGGHIKOO": "",
                "LJFHGGJDPHH": "",
                "LPKDFKLNEHL": ""
            },
            {
                "$type": "MOOOKOKLLEI",
                "type": "CAMERA_MOVE",
                "duration": 1.0,
                "DOKGBCKOLJK": {
                    "x": -1.090999960899353,
                    "y": 0.9490000009536743,
                    "z": -6.6020002365112305
                },
                "HGKCPMDICGG": {
                    "x": -2.078000068664551,
                    "y": 1.1130000352859497,
                    "z": -6.5980000495910645
                },
                "AFODHELHCGB": 30.0,
                "MGMFMGNANHH": 6,
                "NDFGFJFGHKL": "EaseInOutCubic",
                "IBCBGNHCICN": {},
                "HCPFCAHMGMO": false,
                "OMCCMPHDLOO": "",
                "FEFNBKOHPOG": true,
                "OCFGGGHIKOO": "",
                "LJFHGGJDPHH": "",
                "LPKDFKLNEHL": ""
            },
            {
                "$type": "DLPFECMKEKH",
                "type": "DIALOG",
                "aliasList": [
                    "1013"
                ],
                "NMKEDPFEKBH": 20170913,
                "JLCHMAJCAPA": 0.5
            },
            {
                "$type": "OPCCDGPJCJI",
                "type": "EMO_SYNC",
                "aliasList": [
                    "1013"
                ],
                "IONNJBCBACJ": "Cs_Emo_Avatar_Simple_Common_Set/Cs_Emo_Avatar_Talk/Cs_Emo_Avatar_MainLine/Cs_Emo_Avatar_Inazuma/Cs_Emo_20170913",
                "HLEJKBCMNNJ": "",
                "JGHLJJLNGPP": "",
                "MANNKIIBOFM": "",
                "COMNAAFDEDH": "",
                "CPGCCLNOCDK": "",
                "IGEFGCJKCPM": [
                    16285276566704503445,
                    8520912709407085207,
                    8614098887406478496,
                    15757261570530930395
                ]
            },
            {
                "$type": "ILCGAGEGDJI",
                "type": "BODY_LANG",
                "aliasList": [
                    "1013"
                ],
                "FLBOOPHHFJP": 1230,
                "PMJAMGLAJGK": true,
                "LIMPPBIAKGL": false,
                "FNDLJGEAMGI": ""
            },
            {
                "$type": "EAMBKPBOPIC",
                "type": "LOOK_AT",
                "aliasList": [
                    "1013"
                ],
                "FIDJDPAIFDN": true,
                "EFHJCGEOHAF": {
                    "y": 20.0
                },
                "BCHGCKLKNEH": 0.5,
                "OMCCMPHDLOO": "",
                "KPCALFDIHMC": "",
                "DBLNLMOPEBP": ""
            }
        ],
        [
            {
                "$type": "DLPFECMKEKH",
                "type": "DIALOG",
                "aliasList": [
                    "1013"
                ],
                "NMKEDPFEKBH": 20170914,
                "JLCHMAJCAPA": 2.0
            },
            {
                "$type": "OPCCDGPJCJI",
                "type": "EMO_SYNC",
                "aliasList": [
                    "1013"
                ],
                "IONNJBCBACJ": "Cs_Emo_Avatar_Simple_Common_Set/Cs_Emo_Avatar_Talk/Cs_Emo_Avatar_MainLine/Cs_Emo_Avatar_Inazuma/Cs_Emo_20170914",
                "HLEJKBCMNNJ": "",
                "JGHLJJLNGPP": "",
                "MANNKIIBOFM": "",
                "COMNAAFDEDH": "",
                "CPGCCLNOCDK": "",
                "IGEFGCJKCPM": [
                    1134982758661621063,
                    8689036055219257923,
                    16798901189631970278,
                    17364263472498545050
                ]
            },
            {
                "$type": "ILCGAGEGDJI",
                "type": "BODY_LANG",
                "aliasList": [
                    "1013"
                ],
                "JLABKFNJCNP": true,
                "PMJAMGLAJGK": true,
                "LIMPPBIAKGL": false,
                "FNDLJGEAMGI": ""
            },
            {
                "$type": "ILCGAGEGDJI",
                "type": "BODY_LANG",
                "delayTime": 2.0,
                "aliasList": [
                    "1013"
                ],
                "FLBOOPHHFJP": 1120,
                "PMJAMGLAJGK": true,
                "LIMPPBIAKGL": false,
                "FNDLJGEAMGI": ""
            },
            {
                "$type": "EAMBKPBOPIC",
                "type": "LOOK_AT",
                "delayTime": 2.0,
                "aliasList": [
                    "1013"
                ],
                "FIDJDPAIFDN": true,
                "EFHJCGEOHAF": {
                    "y": 25.0
                },
                "BCHGCKLKNEH": 0.5,
                "OMCCMPHDLOO": "",
                "KPCALFDIHMC": "",
                "DBLNLMOPEBP": ""
            }
        ],
        [
            {
                "$type": "MOOOKOKLLEI",
                "type": "CAMERA_MOVE",
                "delayTime": 0.10000000149011612,
                "duration": 10.0,
                "DOKGBCKOLJK": {
                    "x": -1.9529999494552612,
                    "y": 1.1579999923706055,
                    "z": -6.927999973297119
                },
                "HGKCPMDICGG": {
                    "x": -2.496999979019165,
                    "y": 1.2079999446868896,
                    "z": -6.091000080108643
                },
                "AFODHELHCGB": 30.0,
                "NDFGFJFGHKL": "EaseOutQuad",
                "IBCBGNHCICN": {},
                "HCPFCAHMGMO": false,
                "OMCCMPHDLOO": "",
                "FEFNBKOHPOG": true,
                "OCFGGGHIKOO": "",
                "LJFHGGJDPHH": "",
                "LPKDFKLNEHL": ""
            },
            {
                "$type": "MOOOKOKLLEI",
                "type": "CAMERA_MOVE",
                "duration": 1.0,
                "DOKGBCKOLJK": {
                    "x": -2.0250000953674316,
                    "y": 1.159000039100647,
                    "z": -6.974999904632568
                },
                "HGKCPMDICGG": {
                    "x": -2.569000005722046,
                    "y": 1.2089999914169312,
                    "z": -6.138000011444092
                },
                "AFODHELHCGB": 30.0,
                "MGMFMGNANHH": 6,
                "NDFGFJFGHKL": "EaseInOutCubic",
                "IBCBGNHCICN": {},
                "HCPFCAHMGMO": false,
                "OMCCMPHDLOO": "",
                "FEFNBKOHPOG": true,
                "OCFGGGHIKOO": "",
                "LJFHGGJDPHH": "",
                "LPKDFKLNEHL": ""
            },
            {
                "$type": "DLPFECMKEKH",
                "type": "DIALOG",
                "aliasList": [
                    "1013"
                ],
                "NMKEDPFEKBH": 20170915,
                "JLCHMAJCAPA": 0.5
            },
            {
                "$type": "OPCCDGPJCJI",
                "type": "EMO_SYNC",
                "aliasList": [
                    "1013"
                ],
                "IONNJBCBACJ": "Cs_Emo_Avatar_Simple_Common_Set/Cs_Emo_Avatar_Talk/Cs_Emo_Avatar_MainLine/Cs_Emo_Avatar_Inazuma/Cs_Emo_20170915",
                "HLEJKBCMNNJ": "",
                "JGHLJJLNGPP": "",
                "MANNKIIBOFM": "",
                "COMNAAFDEDH": "",
                "CPGCCLNOCDK": "",
                "HINHCFHAMDI": false,
                "IGEFGCJKCPM": [
                    11675511867310872725,
                    12608418132449192912,
                    10787832998059651328,
                    8189609063172652140
                ]
            },
            {
                "$type": "EAMBKPBOPIC",
                "type": "LOOK_AT",
                "aliasList": [
                    "1013"
                ],
                "FIDJDPAIFDN": true,
                "EFHJCGEOHAF": {
                    "y": 15.0
                },
                "BCHGCKLKNEH": 0.5,
                "OMCCMPHDLOO": "",
                "KPCALFDIHMC": "",
                "DBLNLMOPEBP": ""
            }
        ],
        [
            {
                "$type": "MOOOKOKLLEI",
                "type": "CAMERA_MOVE",
                "delayTime": 0.10000000149011612,
                "duration": 10.0,
                "DOKGBCKOLJK": {
                    "x": -2.9140000343322754,
                    "y": 1.312000036239624,
                    "z": -6.836999893188477
                },
                "HGKCPMDICGG": {
                    "x": -1.9199999570846558,
                    "y": 1.2039999961853027,
                    "z": -6.8470001220703125
                },
                "AFODHELHCGB": 30.0,
                "NDFGFJFGHKL": "EaseOutQuad",
                "IBCBGNHCICN": {},
                "HCPFCAHMGMO": false,
                "OMCCMPHDLOO": "",
                "FEFNBKOHPOG": true,
                "OCFGGGHIKOO": "",
                "LJFHGGJDPHH": "",
                "LPKDFKLNEHL": ""
            },
            {
                "$type": "MOOOKOKLLEI",
                "type": "CAMERA_MOVE",
                "duration": 1.0,
                "DOKGBCKOLJK": {
                    "x": -2.990999937057495,
                    "y": 1.3200000524520874,
                    "z": -6.828999996185303
                },
                "HGKCPMDICGG": {
                    "x": -2.0,
                    "y": 1.215000033378601,
                    "z": -6.749000072479248
                },
                "AFODHELHCGB": 30.0,
                "MGMFMGNANHH": 6,
                "NDFGFJFGHKL": "EaseInOutCubic",
                "IBCBGNHCICN": {},
                "HCPFCAHMGMO": false,
                "OMCCMPHDLOO": "",
                "FEFNBKOHPOG": true,
                "OCFGGGHIKOO": "",
                "LJFHGGJDPHH": "",
                "LPKDFKLNEHL": ""
            },
            {
                "$type": "ILCGAGEGDJI",
                "type": "BODY_LANG",
                "delayTime": 7.2779998779296875,
                "aliasList": [
                    "Avatar"
                ],
                "FLBOOPHHFJP": 4031,
                "PMJAMGLAJGK": true,
                "LIMPPBIAKGL": false,
                "FNDLJGEAMGI": ""
            },
            {
                "$type": "ILCGAGEGDJI",
                "type": "BODY_LANG",
                "aliasList": [
                    "1033"
                ],
                "JLABKFNJCNP": true,
                "PMJAMGLAJGK": true,
                "LIMPPBIAKGL": false,
                "FNDLJGEAMGI": ""
            },
            {
                "$type": "EAMBKPBOPIC",
                "type": "LOOK_AT",
                "aliasList": [
                    "1033"
                ],
                "FIDJDPAIFDN": true,
                "BCHGCKLKNEH": 0.5,
                "OMCCMPHDLOO": "Avatar",
                "KPCALFDIHMC": "",
                "DBLNLMOPEBP": ""
            },
            {
                "$type": "DLPFECMKEKH",
                "type": "DIALOG",
                "aliasList": [
                    "1013"
                ],
                "NMKEDPFEKBH": 20170916,
                "JLCHMAJCAPA": 0.5
            },
            {
                "$type": "OPCCDGPJCJI",
                "type": "EMO_SYNC",
                "aliasList": [
                    "1013"
                ],
                "IONNJBCBACJ": "Cs_Emo_Avatar_Simple_Common_Set/Cs_Emo_Avatar_Talk/Cs_Emo_Avatar_MainLine/Cs_Emo_Avatar_Inazuma/Cs_Emo_20170916",
                "HLEJKBCMNNJ": "",
                "JGHLJJLNGPP": "",
                "MANNKIIBOFM": "",
                "COMNAAFDEDH": "",
                "CPGCCLNOCDK": "",
                "IGEFGCJKCPM": [
                    1692113719636901977,
                    225941991465049920,
                    10925608766092959141,
                    13158406894091777133
                ]
            },
            {
                "$type": "ILCGAGEGDJI",
                "type": "BODY_LANG",
                "aliasList": [
                    "1013"
                ],
                "JLABKFNJCNP": true,
                "PMJAMGLAJGK": true,
                "LIMPPBIAKGL": false,
                "FNDLJGEAMGI": ""
            },
            {
                "$type": "EAMBKPBOPIC",
                "type": "LOOK_AT",
                "aliasList": [
                    "1013"
                ],
                "FIDJDPAIFDN": true,
                "BCHGCKLKNEH": 0.5,
                "OMCCMPHDLOO": "Avatar",
                "KPCALFDIHMC": "",
                "DBLNLMOPEBP": ""
            }
        ],
        [
            {
                "$type": "MOOOKOKLLEI",
                "type": "CAMERA_MOVE",
                "delayTime": 0.10000000149011612,
                "duration": 5.0,
                "DOKGBCKOLJK": {
                    "x": 0.503000020980835,
                    "y": 1.3109999895095825,
                    "z": -7.034999847412109
                },
                "HGKCPMDICGG": {
                    "x": -0.4869999885559082,
                    "y": 1.2380000352859497,
                    "z": -6.916999816894531
                },
                "AFODHELHCGB": 30.0,
                "NDFGFJFGHKL": "EaseOutQuad",
                "IBCBGNHCICN": {},
                "HCPFCAHMGMO": false,
                "OMCCMPHDLOO": "",
                "FEFNBKOHPOG": true,
                "OCFGGGHIKOO": "",
                "LJFHGGJDPHH": "",
                "LPKDFKLNEHL": ""
            },
            {
                "$type": "MOOOKOKLLEI",
                "type": "CAMERA_MOVE",
                "duration": 1.0,
                "DOKGBCKOLJK": {
                    "x": 0.5910000205039978,
                    "y": 1.3179999589920044,
                    "z": -7.067999839782715
                },
                "HGKCPMDICGG": {
                    "x": -0.39899998903274536,
                    "y": 1.2450000047683716,
                    "z": -6.949999809265137
                },
                "AFODHELHCGB": 30.0,
                "MGMFMGNANHH": 6,
                "NDFGFJFGHKL": "EaseInOutCubic",
                "IBCBGNHCICN": {},
                "HCPFCAHMGMO": false,
                "OMCCMPHDLOO": "",
                "FEFNBKOHPOG": true,
                "OCFGGGHIKOO": "",
                "LJFHGGJDPHH": "",
                "LPKDFKLNEHL": ""
            },
            {
                "$type": "DLPFECMKEKH",
                "type": "DIALOG",
                "aliasList": [
                    "1013"
                ],
                "NMKEDPFEKBH": 20170917,
                "JLCHMAJCAPA": 0.5
            },
            {
                "$type": "OPCCDGPJCJI",
                "type": "EMO_SYNC",
                "aliasList": [
                    "1013"
                ],
                "IONNJBCBACJ": "Cs_Emo_Avatar_Simple_Common_Set/Cs_Emo_Avatar_Talk/Cs_Emo_Avatar_MainLine/Cs_Emo_Avatar_Inazuma/Cs_Emo_20170917",
                "HLEJKBCMNNJ": "",
                "JGHLJJLNGPP": "",
                "MANNKIIBOFM": "",
                "COMNAAFDEDH": "",
                "CPGCCLNOCDK": "",
                "IGEFGCJKCPM": [
                    18317617307100390463,
                    867603933808482590,
                    7048520716400297655,
                    18855428636921149
                ]
            },
            {
                "$type": "ILCGAGEGDJI",
                "type": "BODY_LANG",
                "aliasList": [
                    "1013"
                ],
                "FLBOOPHHFJP": 1130,
                "PMJAMGLAJGK": true,
                "LIMPPBIAKGL": false,
                "FNDLJGEAMGI": ""
            }
        ],
        [
            {
                "$type": "MOOOKOKLLEI",
                "type": "CAMERA_MOVE",
                "delayTime": 0.10000000149011612,
                "duration": 8.0,
                "DOKGBCKOLJK": {
                    "x": -1.4119999408721924,
                    "y": 1.2760000228881836,
                    "z": -7.359000205993652
                },
                "HGKCPMDICGG": {
                    "x": -2.371999979019165,
                    "y": 1.3769999742507935,
                    "z": -7.619999885559082
                },
                "AFODHELHCGB": 30.0,
                "NDFGFJFGHKL": "EaseOutQuad",
                "IBCBGNHCICN": {},
                "HCPFCAHMGMO": false,
                "OMCCMPHDLOO": "",
                "FEFNBKOHPOG": true,
                "OCFGGGHIKOO": "",
                "LJFHGGJDPHH": "",
                "LPKDFKLNEHL": ""
            },
            {
                "$type": "MOOOKOKLLEI",
                "type": "CAMERA_MOVE",
                "duration": 1.0,
                "DOKGBCKOLJK": {
                    "x": -1.2710000276565552,
                    "y": 1.2350000143051147,
                    "z": -7.320000171661377
                },
                "HGKCPMDICGG": {
                    "x": -2.2309999465942383,
                    "y": 1.3359999656677246,
                    "z": -7.580999851226807
                },
                "AFODHELHCGB": 30.0,
                "MGMFMGNANHH": 6,
                "NDFGFJFGHKL": "EaseInOutCubic",
                "IBCBGNHCICN": {},
                "HCPFCAHMGMO": false,
                "OMCCMPHDLOO": "",
                "FEFNBKOHPOG": true,
                "OCFGGGHIKOO": "",
                "LJFHGGJDPHH": "",
                "LPKDFKLNEHL": ""
            },
            {
                "$type": "DLPFECMKEKH",
                "type": "DIALOG",
                "aliasList": [
                    "1033"
                ],
                "NMKEDPFEKBH": 20170918,
                "JLCHMAJCAPA": 0.5
            },
            {
                "$type": "OPCCDGPJCJI",
                "type": "EMO_SYNC",
                "aliasList": [
                    "1033"
                ],
                "IONNJBCBACJ": "Cs_Emo_Avatar_Simple_Common_Set/Cs_Emo_Avatar_Talk/Cs_Emo_Avatar_MainLine/Cs_Emo_Avatar_Inazuma/Cs_Emo_20170918",
                "HLEJKBCMNNJ": "",
                "JGHLJJLNGPP": "",
                "MANNKIIBOFM": "",
                "COMNAAFDEDH": "",
                "CPGCCLNOCDK": "",
                "IGEFGCJKCPM": [
                    16953737137195990643,
                    9949967719884922403,
                    14313070965097625297,
                    17248729419467066298
                ]
            },
            {
                "$type": "ILCGAGEGDJI",
                "type": "BODY_LANG",
                "aliasList": [
                    "1033"
                ],
                "FLBOOPHHFJP": 1171,
                "PMJAMGLAJGK": true,
                "LIMPPBIAKGL": false,
                "FNDLJGEAMGI": ""
            },
            {
                "$type": "ILCGAGEGDJI",
                "type": "BODY_LANG",
                "delayTime": 3.0199999809265137,
                "aliasList": [
                    "1033"
                ],
                "FLBOOPHHFJP": 1120,
                "PMJAMGLAJGK": true,
                "LIMPPBIAKGL": false,
                "FNDLJGEAMGI": ""
            },
            {
                "$type": "EAMBKPBOPIC",
                "type": "LOOK_AT",
                "delayTime": 3.0,
                "aliasList": [
                    "1033"
                ],
                "FIDJDPAIFDN": true,
                "EFHJCGEOHAF": {
                    "y": 15.0
                },
                "BCHGCKLKNEH": 0.5,
                "OMCCMPHDLOO": "",
                "KPCALFDIHMC": "",
                "DBLNLMOPEBP": ""
            },
            {
                "$type": "ILCGAGEGDJI",
                "type": "BODY_LANG",
                "aliasList": [
                    "1013"
                ],
                "JLABKFNJCNP": true,
                "PMJAMGLAJGK": true,
                "LIMPPBIAKGL": false,
                "FNDLJGEAMGI": ""
            },
            {
                "$type": "OPCCDGPJCJI",
                "type": "EMO_SYNC",
                "aliasList": [
                    "1013"
                ],
                "IONNJBCBACJ": "",
                "HLEJKBCMNNJ": "Cs_Emo_Avatar_Common/Cs_Emo_Avatar_Default01",
                "JGHLJJLNGPP": "Cs_Emo_Avatar_Common/Cs_Emo_Avatar_Default01_B",
                "MANNKIIBOFM": "",
                "COMNAAFDEDH": "",
                "CPGCCLNOCDK": "",
                "MFABDGAFKII": [
                    1010565500959774114,
                    17914558573000180712,
                    14498871351621154070,
                    14348654671849899985
                ],
                "IPAGHAALIII": [
                    12199605016063642592,
                    6659610500948409138,
                    10783156204328777859,
                    13383650154785247612
                ]
            }
        ],
        [
            {
                "$type": "MOOOKOKLLEI",
                "type": "CAMERA_MOVE",
                "delayTime": 0.10000000149011612,
                "duration": 10.0,
                "DOKGBCKOLJK": {
                    "x": -2.178999900817871,
                    "y": 1.090000033378601,
                    "z": -8.404000282287598
                },
                "HGKCPMDICGG": {
                    "x": -2.4170000553131104,
                    "y": 1.0889999866485596,
                    "z": -7.433000087738037
                },
                "AFODHELHCGB": 30.0,
                "NDFGFJFGHKL": "EaseOutQuad",
                "IBCBGNHCICN": {},
                "HCPFCAHMGMO": false,
                "OMCCMPHDLOO": "",
                "FEFNBKOHPOG": true,
                "OCFGGGHIKOO": "",
                "LJFHGGJDPHH": "",
                "LPKDFKLNEHL": ""
            },
            {
                "$type": "MOOOKOKLLEI",
                "type": "CAMERA_MOVE",
                "duration": 1.0,
                "DOKGBCKOLJK": {
                    "x": -2.239000082015991,
                    "y": 1.090000033378601,
                    "z": -8.477999687194824
                },
                "HGKCPMDICGG": {
                    "x": -2.4769999980926514,
                    "y": 1.0889999866485596,
                    "z": -7.506999969482422
                },
                "AFODHELHCGB": 30.0,
                "MGMFMGNANHH": 6,
                "NDFGFJFGHKL": "EaseInOutCubic",
                "IBCBGNHCICN": {},
                "HCPFCAHMGMO": false,
                "OMCCMPHDLOO": "",
                "FEFNBKOHPOG": true,
                "OCFGGGHIKOO": "",
                "LJFHGGJDPHH": "",
                "LPKDFKLNEHL": ""
            },
            {
                "$type": "DLPFECMKEKH",
                "type": "DIALOG",
                "aliasList": [
                    "1013"
                ],
                "NMKEDPFEKBH": 20170919,
                "JLCHMAJCAPA": 0.5
            },
            {
                "$type": "OPCCDGPJCJI",
                "type": "EMO_SYNC",
                "aliasList": [
                    "1013"
                ],
                "IONNJBCBACJ": "Cs_Emo_Avatar_Simple_Common_Set/Cs_Emo_Avatar_Talk/Cs_Emo_Avatar_MainLine/Cs_Emo_Avatar_Inazuma/Cs_Emo_20170919",
                "HLEJKBCMNNJ": "",
                "JGHLJJLNGPP": "",
                "MANNKIIBOFM": "",
                "COMNAAFDEDH": "",
                "CPGCCLNOCDK": "",
                "IGEFGCJKCPM": [
                    14973909470225136558,
                    6417847783244729288,
                    11668813054260992252,
                    551306329576613919
                ]
            },
            {
                "$type": "ILCGAGEGDJI",
                "type": "BODY_LANG",
                "aliasList": [
                    "1013"
                ],
                "FLBOOPHHFJP": 1171,
                "PMJAMGLAJGK": true,
                "LIMPPBIAKGL": false,
                "FNDLJGEAMGI": ""
            },
            {
                "$type": "ILCGAGEGDJI",
                "type": "BODY_LANG",
                "delayTime": 3.0,
                "aliasList": [
                    "1013"
                ],
                "FLBOOPHHFJP": 1190,
                "PMJAMGLAJGK": true,
                "LIMPPBIAKGL": false,
                "FNDLJGEAMGI": ""
            }
        ],
        [
            {
                "$type": "MOOOKOKLLEI",
                "type": "CAMERA_MOVE",
                "delayTime": 0.10000000149011612,
                "duration": 5.0,
                "DOKGBCKOLJK": {
                    "x": -1.0449999570846558,
                    "y": 1.3300000429153442,
                    "z": -7.879000186920166
                },
                "HGKCPMDICGG": {
                    "x": -0.7720000147819519,
                    "y": 1.215999960899353,
                    "z": -6.923999786376953
                },
                "AFODHELHCGB": 30.0,
                "NDFGFJFGHKL": "EaseOutQuad",
                "IBCBGNHCICN": {},
                "HCPFCAHMGMO": false,
                "OMCCMPHDLOO": "",
                "FEFNBKOHPOG": true,
                "OCFGGGHIKOO": "",
                "LJFHGGJDPHH": "",
                "LPKDFKLNEHL": ""
            },
            {
                "$type": "MOOOKOKLLEI",
                "type": "CAMERA_MOVE",
                "duration": 1.0,
                "DOKGBCKOLJK": {
                    "x": -1.0770000219345093,
                    "y": 1.3309999704360962,
                    "z": -7.873000144958496
                },
                "HGKCPMDICGG": {
                    "x": -0.6970000267028809,
                    "y": 1.2170000076293945,
                    "z": -6.954999923706055
                },
                "AFODHELHCGB": 30.0,
                "MGMFMGNANHH": 6,
                "NDFGFJFGHKL": "EaseInOutCubic",
                "IBCBGNHCICN": {},
                "HCPFCAHMGMO": false,
                "OMCCMPHDLOO": "",
                "FEFNBKOHPOG": true,
                "OCFGGGHIKOO": "",
                "LJFHGGJDPHH": "",
                "LPKDFKLNEHL": ""
            },
            {
                "$type": "EAMBKPBOPIC",
                "type": "LOOK_AT",
                "delayTime": 0.30000001192092896,
                "aliasList": [
                    "Avatar"
                ],
                "FIDJDPAIFDN": true,
                "BCHGCKLKNEH": 0.699999988079071,
                "OMCCMPHDLOO": "1005",
                "KPCALFDIHMC": "",
                "DBLNLMOPEBP": ""
            },
            {
                "$type": "DLPFECMKEKH",
                "type": "DIALOG",
                "aliasList": [
                    "1005"
                ],
                "NMKEDPFEKBH": 20170920,
                "JLCHMAJCAPA": 1.0
            },
            {
                "$type": "OPCCDGPJCJI",
                "type": "EMO_SYNC",
                "aliasList": [
                    "1005"
                ],
                "IONNJBCBACJ": "Cs_Emo_Avatar_Simple_Common_Set/Cs_Emo_Avatar_Talk/Cs_Emo_Avatar_MainLine/Cs_Emo_Avatar_Inazuma/Cs_Emo_20170920",
                "HLEJKBCMNNJ": "",
                "JGHLJJLNGPP": "",
                "MANNKIIBOFM": "",
                "COMNAAFDEDH": "",
                "CPGCCLNOCDK": "",
                "IGEFGCJKCPM": [
                    14582496711910571113,
                    7022438090435731414,
                    7849580579143438440,
                    14504408508075194846
                ]
            },
            {
                "$type": "EAMBKPBOPIC",
                "type": "LOOK_AT",
                "delayTime": 0.30000001192092896,
                "aliasList": [
                    "1005"
                ],
                "FIDJDPAIFDN": true,
                "BCHGCKLKNEH": 0.5,
                "OMCCMPHDLOO": "Avatar",
                "KPCALFDIHMC": "",
                "DBLNLMOPEBP": ""
            },
            {
                "$type": "OOMFCPJAJGL",
                "type": "STEER_TO",
                "duration": 0.800000011920929,
                "aliasList": [
                    "1005"
                ],
                "DMGIIHNDNLC": "ABSOLUTE",
                "PLAPKCOMAKJ": {
                    "x": -0.878000020980835,
                    "y": -0.10199999809265137,
                    "z": -7.01800012588501
                },
                "PENAEBFAHCH": true,
                "CKOEAJFMDON": true,
                "OMCCMPHDLOO": "",
                "DBLNLMOPEBP": ""
            },
            {
                "$type": "ILCGAGEGDJI",
                "type": "BODY_LANG",
                "delayTime": 0.699999988079071,
                "aliasList": [
                    "1005"
                ],
                "FLBOOPHHFJP": 1170,
                "PMJAMGLAJGK": true,
                "LIMPPBIAKGL": false,
                "FNDLJGEAMGI": ""
            },
            {
                "$type": "ILCGAGEGDJI",
                "type": "BODY_LANG",
                "delayTime": 3.7839999198913574,
                "aliasList": [
                    "1005"
                ],
                "JLABKFNJCNP": true,
                "PMJAMGLAJGK": true,
                "LIMPPBIAKGL": false,
                "FNDLJGEAMGI": ""
            },
            {
                "$type": "ILCGAGEGDJI",
                "type": "BODY_LANG",
                "aliasList": [
                    "1033"
                ],
                "JLABKFNJCNP": true,
                "PMJAMGLAJGK": true,
                "LIMPPBIAKGL": false,
                "FNDLJGEAMGI": ""
            },
            {
                "$type": "OPCCDGPJCJI",
                "type": "EMO_SYNC",
                "aliasList": [
                    "1033"
                ],
                "IONNJBCBACJ": "",
                "HLEJKBCMNNJ": "Cs_Emo_Avatar_Common/Cs_Emo_Avatar_Default01",
                "JGHLJJLNGPP": "Cs_Emo_Avatar_Common/Cs_Emo_Avatar_Default01_B",
                "MANNKIIBOFM": "",
                "COMNAAFDEDH": "",
                "CPGCCLNOCDK": "",
                "MFABDGAFKII": [
                    1010565500959774114,
                    17914558573000180712,
                    14498871351621154070,
                    14348654671849899985
                ],
                "IPAGHAALIII": [
                    12199605016063642592,
                    6659610500948409138,
                    10783156204328777859,
                    13383650154785247612
                ]
            },
            {
                "$type": "OPCCDGPJCJI",
                "type": "EMO_SYNC",
                "aliasList": [
                    "1013"
                ],
                "IONNJBCBACJ": "",
                "HLEJKBCMNNJ": "Cs_Emo_Avatar_Common/Cs_Emo_Avatar_Default01",
                "JGHLJJLNGPP": "Cs_Emo_Avatar_Common/Cs_Emo_Avatar_Default01_B",
                "MANNKIIBOFM": "",
                "COMNAAFDEDH": "",
                "CPGCCLNOCDK": "",
                "MFABDGAFKII": [
                    1010565500959774114,
                    17914558573000180712,
                    14498871351621154070,
                    14348654671849899985
                ],
                "IPAGHAALIII": [
                    12199605016063642592,
                    6659610500948409138,
                    10783156204328777859,
                    13383650154785247612
                ]
            }
        ],
        [
            {
                "$type": "MOOOKOKLLEI",
                "type": "CAMERA_MOVE",
                "delayTime": 0.10000000149011612,
                "duration": 5.0,
                "DOKGBCKOLJK": {
                    "x": -1.1119999885559082,
                    "y": 1.2999999523162842,
                    "z": -7.198999881744385
                },
                "HGKCPMDICGG": {
                    "x": -0.8050000071525574,
                    "y": 1.1859999895095825,
                    "z": -6.254000186920166
                },
                "AFODHELHCGB": 30.0,
                "NDFGFJFGHKL": "EaseOutQuad",
                "IBCBGNHCICN": {},
                "HCPFCAHMGMO": false,
                "OMCCMPHDLOO": "",
                "FEFNBKOHPOG": true,
                "OCFGGGHIKOO": "",
                "LJFHGGJDPHH": "",
                "LPKDFKLNEHL": ""
            },
            {
                "$type": "MOOOKOKLLEI",
                "type": "CAMERA_MOVE",
                "duration": 1.0,
                "DOKGBCKOLJK": {
                    "x": -1.1519999504089355,
                    "y": 1.315000057220459,
                    "z": -7.322000026702881
                },
                "HGKCPMDICGG": {
                    "x": -0.8450000286102295,
                    "y": 1.2009999752044678,
                    "z": -6.376999855041504
                },
                "AFODHELHCGB": 30.0,
                "MGMFMGNANHH": 6,
                "NDFGFJFGHKL": "EaseInOutCubic",
                "IBCBGNHCICN": {},
                "HCPFCAHMGMO": false,
                "OMCCMPHDLOO": "",
                "FEFNBKOHPOG": true,
                "OCFGGGHIKOO": "",
                "LJFHGGJDPHH": "",
                "LPKDFKLNEHL": ""
            },
            {
                "$type": "DLPFECMKEKH",
                "type": "DIALOG",
                "aliasList": [
                    "1005"
                ],
                "NMKEDPFEKBH": 20170921,
                "JLCHMAJCAPA": 0.5
            },
            {
                "$type": "OPCCDGPJCJI",
                "type": "EMO_SYNC",
                "aliasList": [
                    "1005"
                ],
                "IONNJBCBACJ": "Cs_Emo_Avatar_Simple_Common_Set/Cs_Emo_Avatar_Talk/Cs_Emo_Avatar_MainLine/Cs_Emo_Avatar_Inazuma/Cs_Emo_20170921",
                "HLEJKBCMNNJ": "",
                "JGHLJJLNGPP": "",
                "MANNKIIBOFM": "",
                "COMNAAFDEDH": "",
                "CPGCCLNOCDK": "",
                "IGEFGCJKCPM": [
                    14337652124482902048,
                    10317855742294396914,
                    3227861638240102147,
                    490316319787945249
                ]
            },
            {
                "$type": "ILCGAGEGDJI",
                "type": "BODY_LANG",
                "aliasList": [
                    "1005"
                ],
                "FLBOOPHHFJP": 1120,
                "PMJAMGLAJGK": true,
                "LIMPPBIAKGL": false,
                "FNDLJGEAMGI": ""
            }
        ],
        [
            {
                "$type": "DLPFECMKEKH",
                "type": "DIALOG_CLEAR"
            },
            {
                "$type": "MoleMole.Config.ConfigSimpleBlackScreenAction",
                "type": "SIMPLE_BLACK_SCREEN",
                "durationToBlack": 0.5,
                "durationKeepBlack": 1.0,
                "durationFromBlack": 0.5,
                "textMapID": "",
                "useTextFade": true
            },
            {
                "$type": "MoleMole.Config.ConfigTimeProtectAction",
                "type": "TIME_PROTECT",
                "duration": 0.699999988079071
            },
            {
                "$type": "MOOOKOKLLEI",
                "type": "CAMERA_MOVE",
                "delayTime": 0.6000000238418579,
                "duration": 1.0,
                "DOKGBCKOLJK": {
                    "x": 1.9299999475479126,
                    "y": 1.5720000267028809,
                    "z": -8.086000442504883
                },
                "HGKCPMDICGG": {
                    "x": 1.0130000114440918,
                    "y": 1.3539999723434448,
                    "z": -7.751999855041504
                },
                "MGMFMGNANHH": 6,
                "NDFGFJFGHKL": "EaseInOutCubic",
                "IBCBGNHCICN": {},
                "HCPFCAHMGMO": false,
                "OMCCMPHDLOO": "",
                "FEFNBKOHPOG": true,
                "OCFGGGHIKOO": "",
                "LJFHGGJDPHH": "",
                "LPKDFKLNEHL": ""
            },
            {
                "$type": "ILCGAGEGDJI",
                "type": "BODY_LANG",
                "delayTime": 0.5,
                "aliasList": [
                    "1005"
                ],
                "JLABKFNJCNP": true,
                "PMJAMGLAJGK": true,
                "LIMPPBIAKGL": false,
                "FNDLJGEAMGI": ""
            },
            {
                "$type": "OPCCDGPJCJI",
                "type": "EMO_SYNC",
                "delayTime": 0.5,
                "aliasList": [
                    "1005"
                ],
                "IONNJBCBACJ": "",
                "HLEJKBCMNNJ": "Cs_Emo_Pet_Common/Cs_Emo_Paimon_None",
                "JGHLJJLNGPP": "Cs_Emo_Pet_Common/Cs_Emo_Paimon_Normal01_B",
                "MANNKIIBOFM": "",
                "COMNAAFDEDH": "",
                "CPGCCLNOCDK": "",
                "MFABDGAFKII": [
                    1796869206626684908,
                    2049648015653630001,
                    14015965774222061559,
                    873259039409222856
                ],
                "IPAGHAALIII": [
                    14892026956990897578,
                    7647528750435710781,
                    2171559387429051042,
                    15358483104891988261
                ]
            },
            {
                "$type": "MoleMole.Config.ConfigVisibleInterAction",
                "type": "VISIBLE",
                "aliasList": [
                    "1040"
                ],
                "extraParam": ""
            }
        ]
    ],
    "groupId": [
        {
            "grpId": 3954034086,
            "nextGrpId": 3954034087
        },
        {
            "index": 1,
            "grpId": 3954034087,
            "nextGrpId": 3954034088
        },
        {
            "index": 2,
            "grpId": 3954034088,
            "nextGrpId": 3954034089
        },
        {
            "index": 3,
            "grpId": 3954034089,
            "nextGrpId": 3954034090
        },
        {
            "index": 4,
            "grpId": 3954034090,
            "nextGrpId": 3954034091
        },
        {
            "index": 5,
            "grpId": 3954034091,
            "nextGrpId": 3954034092
        },
        {
            "index": 6,
            "grpId": 3954034092,
            "nextGrpId": 3954034093
        },
        {
            "index": 7,
            "grpId": 3954034093,
            "nextGrpId": 3954034094
        },
        {
            "index": 8,
            "grpId": 3954034094,
            "nextGrpId": 2315972426
        },
        {
            "index": 9,
            "grpId": 2315972426,
            "nextGrpId": 2315972427
        },
        {
            "index": 10,
            "grpId": 2315972427,
            "nextGrpId": 2315972428
        },
        {
            "index": 11,
            "grpId": 2315972428,
            "nextGrpId": 2315972429
        },
        {
            "index": 12,
            "grpId": 2315972429,
            "nextGrpId": 2315972430
        },
        {
            "index": 13,
            "grpId": 2315972430,
            "nextGrpId": 2315972431
        },
        {
            "index": 14,
            "grpId": 2315972431,
            "nextGrpId": 2315972432
        },
        {
            "index": 15,
            "grpId": 2315972432,
            "nextGrpId": 2315972433
        },
        {
            "index": 16,
            "grpId": 2315972433,
            "nextGrpId": 2315972434
        },
        {
            "index": 17,
            "grpId": 2315972434,
            "nextGrpId": 2315972435
        },
        {
            "index": 18,
            "grpId": 2315972435,
            "nextGrpId": 2315972457
        },
        {
            "index": 19,
            "grpId": 2315972457,
            "nextGrpId": 2315972458
        },
        {
            "index": 20,
            "grpId": 2315972458,
            "nextGrpId": 2315972459
        },
        {
            "index": 21,
            "grpId": 2315972459,
            "nextGrpId": 2315972460
        }
    ],
    "freeStyleDic": {
        "1033": [
            1190,
            1171,
            1120
        ],
        "1013": [
            1171,
            1130,
            1230,
            1120,
            1190
        ],
        "1040": [
            1160,
            1110,
            1240,
            1130,
            1170,
            1031
        ]
    }
}