{
    "luaDataPath": "",
    "dontUseDefaultFinish": true,
    "entityBan": "",
    "disableNpcLod": true,
    "protectNpcMobileLod": true,
    "LIICEPFFGMH": 1,
    "startFade": {
        "startFadeOutDuration": 0.0
    },
    "endFade": {
        "startFadeOutDuration": 0.0
    },
    "actors": [
        {
            "alias": "Avatar",
            "visible": true,
            "bornPointName": "",
            "relativePosType": "AVATAR_NEW",
            "relativePosNpcAlias": "",
            "bindMovingTargetKey": ""
        },
        {
            "configID": 30319,
            "alias": "30319",
            "visible": true,
            "bornPointName": "",
            "forceCreateDaily": true,
            "relativePosType": "AVATAR_NEW",
            "relativePosNpcAlias": "",
            "bindMovingTargetKey": ""
        },
        {
            "configID": 1005,
            "alias": "1005",
            "visible": true,
            "bornPointName": "",
            "useRelativePos": true,
            "relativePos": {
                "x": -0.6000000238418579
            },
            "removeActorType": "NEW_REMOVE_WITH_DISAPPEAR",
            "relativePosType": "AVATAR_NEW",
            "relativePosNpcAlias": "",
            "bindMovingTargetKey": ""
        }
    ],
    "group": [
        [
            {
                "$type": "MOOOKOKLLEI",
                "type": "CAMERA_FOCUS",
                "duration": 0.10000000149011612,
                "actionId": 103,
                "OMCCMPHDLOO": "",
                "OCFGGGHIKOO": "",
                "LJFHGGJDPHH": "",
                "LPKDFKLNEHL": ""
            },
            {
                "$type": "MoleMole.Config.ConfigTimeProtectAction",
                "type": "TIME_PROTECT",
                "duration": 0.10000000149011612,
                "actionId": 104
            },
            {
                "$type": "EAMBKPBOPIC",
                "type": "LOOK_AT",
                "delayTime": 0.10000000149011612,
                "aliasList": [
                    "1005"
                ],
                "actionId": 146,
                "FIDJDPAIFDN": true,
                "BCHGCKLKNEH": 0.5,
                "OMCCMPHDLOO": "30319",
                "EOHIIHMKDJC": true,
                "KPCALFDIHMC": "",
                "DBLNLMOPEBP": ""
            },
            {
                "$type": "EAMBKPBOPIC",
                "type": "LOOK_AT",
                "delayTime": 0.20000000298023224,
                "aliasList": [
                    "Avatar"
                ],
                "actionId": 147,
                "FIDJDPAIFDN": true,
                "BCHGCKLKNEH": 0.5,
                "OMCCMPHDLOO": "30319",
                "EOHIIHMKDJC": true,
                "KPCALFDIHMC": "",
                "DBLNLMOPEBP": ""
            },
            {
                "$type": "OOMFCPJAJGL",
                "type": "STEER_TO",
                "delayTime": 0.2329999953508377,
                "duration": 1.0,
                "aliasList": [
                    "1005"
                ],
                "actionId": 145,
                "DMGIIHNDNLC": "TO_TARGET_ADVANCED",
                "HCMINPNPFDF": true,
                "PENAEBFAHCH": true,
                "CKOEAJFMDON": true,
                "OMCCMPHDLOO": "30319",
                "AKKPIOCLGOP": true,
                "PPGPCHDAOJG": true,
                "DBLNLMOPEBP": ""
            },
            {
                "$type": "OOMFCPJAJGL",
                "type": "STEER_TO",
                "delayTime": 0.30000001192092896,
                "duration": 0.800000011920929,
                "aliasList": [
                    "Avatar"
                ],
                "actionId": 141,
                "DMGIIHNDNLC": "TO_TARGET_ADVANCED",
                "HCMINPNPFDF": true,
                "PENAEBFAHCH": true,
                "CKOEAJFMDON": true,
                "OMCCMPHDLOO": "30319",
                "PPGPCHDAOJG": true,
                "DBLNLMOPEBP": ""
            },
            {
                "$type": "OOMFCPJAJGL",
                "type": "STEER_TO",
                "delayTime": 0.30000001192092896,
                "duration": 0.800000011920929,
                "aliasList": [
                    "30319"
                ],
                "actionId": 142,
                "DMGIIHNDNLC": "TO_LOCAL_AVATAR_ADVANCED",
                "HCMINPNPFDF": true,
                "PENAEBFAHCH": true,
                "CKOEAJFMDON": true,
                "OMCCMPHDLOO": "",
                "PPGPCHDAOJG": true,
                "DBLNLMOPEBP": ""
            }
        ],
        [
            {
                "$type": "DLPFECMKEKH",
                "type": "DIALOG",
                "aliasList": [
                    "30319"
                ],
                "actionId": 107,
                "NMKEDPFEKBH": 735080201,
                "JLCHMAJCAPA": 0.5
            },
            {
                "$type": "OOMFCPJAJGL",
                "type": "STEER_TO",
                "duration": 1.0,
                "aliasList": [
                    "30319"
                ],
                "actionId": 143,
                "DMGIIHNDNLC": "TO_LOCAL_AVATAR_ADVANCED",
                "HCMINPNPFDF": true,
                "OMCCMPHDLOO": "",
                "PPGPCHDAOJG": true,
                "DBLNLMOPEBP": ""
            },
            {
                "$type": "EAMBKPBOPIC",
                "type": "LOOK_AT",
                "aliasList": [
                    "30319"
                ],
                "actionId": 148,
                "FIDJDPAIFDN": true,
                "BCHGCKLKNEH": 0.5,
                "OMCCMPHDLOO": "Avatar",
                "EOHIIHMKDJC": true,
                "KPCALFDIHMC": "",
                "DBLNLMOPEBP": ""
            }
        ],
        [
            {
                "$type": "DLPFECMKEKH",
                "type": "DIALOG",
                "aliasList": [
                    "30319"
                ],
                "actionId": 109,
                "NMKEDPFEKBH": 735080202,
                "JLCHMAJCAPA": 0.5
            },
            {
                "$type": "ECLBLHOENAG",
                "type": "DIALOG_SELECT",
                "delayTime": 0.4000000059604645,
                "aliasList": [
                    "Avatar"
                ],
                "actionId": 110,
                "NDMMOPDPKNF": [
                    735080203,
                    735080204,
                    735080221
                ],
                "FPDBIEGHMCD": [
                    1286142864,
                    1426961802,
                    1286142863
                ],
                "PKBOIGBGDEG": true,
                "GOJJPCDMMLN": 1426961798
            }
        ],
        [
            {
                "$type": "DLPFECMKEKH",
                "type": "DIALOG",
                "aliasList": [
                    "1005"
                ],
                "actionId": 112,
                "NMKEDPFEKBH": 735080205,
                "JLCHMAJCAPA": 0.5
            }
        ],
        [
            {
                "$type": "DLPFECMKEKH",
                "type": "DIALOG",
                "aliasList": [
                    "1005"
                ],
                "actionId": 114,
                "NMKEDPFEKBH": 735080206,
                "JLCHMAJCAPA": 0.5
            }
        ],
        [
            {
                "$type": "DLPFECMKEKH",
                "type": "DIALOG",
                "aliasList": [
                    "1005"
                ],
                "actionId": 116,
                "NMKEDPFEKBH": 735080207,
                "JLCHMAJCAPA": 0.5
            }
        ],
        [
            {
                "$type": "DLPFECMKEKH",
                "type": "DIALOG",
                "aliasList": [
                    "1005"
                ],
                "actionId": 118,
                "NMKEDPFEKBH": 735080208,
                "JLCHMAJCAPA": 0.5
            }
        ],
        [
            {
                "$type": "DLPFECMKEKH",
                "type": "DIALOG",
                "aliasList": [
                    "30319"
                ],
                "actionId": 120,
                "NMKEDPFEKBH": 735080209,
                "JLCHMAJCAPA": 0.5
            }
        ],
        [
            {
                "$type": "DLPFECMKEKH",
                "type": "DIALOG",
                "aliasList": [
                    "30319"
                ],
                "actionId": 122,
                "NMKEDPFEKBH": 735080210,
                "JLCHMAJCAPA": 0.5
            }
        ],
        [
            {
                "$type": "DLPFECMKEKH",
                "type": "DIALOG",
                "aliasList": [
                    "30319"
                ],
                "actionId": 124,
                "NMKEDPFEKBH": 735080211,
                "JLCHMAJCAPA": 0.5
            },
            {
                "$type": "ECLBLHOENAG",
                "type": "DIALOG_SELECT",
                "delayTime": 0.4000000059604645,
                "aliasList": [
                    "Avatar"
                ],
                "actionId": 125,
                "NDMMOPDPKNF": [
                    735080212,
                    735080213
                ],
                "FPDBIEGHMCD": [
                    1286142858,
                    1286142858
                ],
                "PKBOIGBGDEG": true,
                "GOJJPCDMMLN": 1426961798
            }
        ],
        [
            {
                "$type": "DLPFECMKEKH",
                "type": "DIALOG",
                "aliasList": [
                    "1005"
                ],
                "actionId": 127,
                "NMKEDPFEKBH": 735080214,
                "JLCHMAJCAPA": 0.5
            }
        ],
        [
            {
                "$type": "DLPFECMKEKH",
                "type": "DIALOG",
                "aliasList": [
                    "30319"
                ],
                "actionId": 129,
                "NMKEDPFEKBH": 735080215,
                "JLCHMAJCAPA": 0.5
            }
        ],
        [
            {
                "$type": "DLPFECMKEKH",
                "type": "DIALOG",
                "aliasList": [
                    "30319"
                ],
                "actionId": 131,
                "NMKEDPFEKBH": 735080216,
                "JLCHMAJCAPA": 0.5
            },
            {
                "$type": "ECLBLHOENAG",
                "type": "DIALOG_SELECT",
                "delayTime": 0.4000000059604645,
                "aliasList": [
                    "Avatar"
                ],
                "actionId": 132,
                "NDMMOPDPKNF": [
                    735080217,
                    735080218
                ],
                "FPDBIEGHMCD": [
                    1286142861,
                    1286142861
                ],
                "PKBOIGBGDEG": true,
                "GOJJPCDMMLN": 1426961798
            }
        ],
        [
            {
                "$type": "DLPFECMKEKH",
                "type": "DIALOG",
                "aliasList": [
                    "30319"
                ],
                "actionId": 134,
                "NMKEDPFEKBH": 735080219,
                "JLCHMAJCAPA": 0.5
            }
        ],
        [
            {
                "$type": "DLPFECMKEKH",
                "type": "DIALOG",
                "aliasList": [
                    "1005"
                ],
                "actionId": 156,
                "NMKEDPFEKBH": 735080220,
                "JLCHMAJCAPA": 0.5
            }
        ],
        [
            {
                "$type": "DLPFECMKEKH",
                "type": "DIALOG",
                "aliasList": [
                    "30319"
                ],
                "actionId": 138,
                "NMKEDPFEKBH": 735080222,
                "JLCHMAJCAPA": 0.5
            }
        ],
        [
            {
                "$type": "MOOOKOKLLEI",
                "type": "CAMERA_MOVE",
                "duration": 2.0,
                "actionId": 151,
                "DOKGBCKOLJK": {
                    "x": -1911.2989501953125,
                    "y": 204.86300659179688,
                    "z": 2504.72509765625
                },
                "HGKCPMDICGG": {
                    "x": -1911.260009765625,
                    "y": 203.8780059814453,
                    "z": 2504.55810546875
                },
                "AFODHELHCGB": 55.849998474121094,
                "MGMFMGNANHH": 1,
                "NDFGFJFGHKL": "EaseInOutCubic",
                "IBCBGNHCICN": {},
                "HCPFCAHMGMO": false,
                "OMCCMPHDLOO": "",
                "FEFNBKOHPOG": true,
                "OCFGGGHIKOO": "",
                "LJFHGGJDPHH": "",
                "LPKDFKLNEHL": ""
            },
            {
                "$type": "MoleMole.Config.ConfigTimeProtectAction",
                "type": "TIME_PROTECT",
                "duration": 2.0,
                "actionId": 152
            },
            {
                "$type": "DLPFECMKEKH",
                "type": "DIALOG_CLEAR",
                "actionId": 154
            },
            {
                "$type": "MoleMole.Config.ConfigAudioPlayAction",
                "type": "AUDIO_PLAY",
                "actionId": 159,
                "audioEventStr": "Play_ui_activity_FungusFighterV2_Whoosh_In"
            },
            {
                "$type": "MoleMole.Config.ConfigUITriggerInterAction",
                "type": "UI_TRIGGER",
                "delayTime": 1.5,
                "actionId": 150,
                "contextName": "FungusV2DungeonEntryPage",
                "param": ""
            }
        ],
        [
            {
                "$type": "MoleMole.Config.ConfigTimeProtectAction",
                "type": "TIME_PROTECT",
                "duration": 0.10000000149011612,
                "actionId": 140
            },
            {
                "$type": "DLPFECMKEKH",
                "type": "DIALOG_CLEAR",
                "actionId": 155
            }
        ],
        [
            {
                "$type": "MoleMole.Config.ConfigTimeProtectAction",
                "type": "TIME_PROTECT",
                "duration": 1.0,
                "actionId": 105
            },
            {
                "$type": "MOOOKOKLLEI",
                "type": "CAMERA_MOVE",
                "duration": 1.5,
                "actionId": 153,
                "IPHEFBOANAL": "EXIT",
                "DOKGBCKOLJK": {
                    "x": -1911.7650146484375,
                    "y": 208.90899658203125,
                    "z": 2507.009033203125
                },
                "DGGAJKMNNKE": "Other",
                "HGKCPMDICGG": {
                    "x": 54.18000030517578,
                    "y": 187.5290069580078
                },
                "NDFGFJFGHKL": "EaseInOutCubic",
                "IBCBGNHCICN": {},
                "BNBBLLBEIDL": true,
                "HCPFCAHMGMO": false,
                "OMCCMPHDLOO": "",
                "FEFNBKOHPOG": true,
                "OCFGGGHIKOO": "",
                "LJFHGGJDPHH": "",
                "LPKDFKLNEHL": ""
            },
            {
                "$type": "MoleMole.Config.ConfigAudioPlayAction",
                "type": "AUDIO_PLAY",
                "actionId": 158,
                "audioEventStr": "Play_ui_activity_FungusFighterV2_Whoosh_Out"
            }
        ]
    ],
    "groupId": [
        {
            "grpId": 1426961799,
            "nextGrpId": 1426961800
        },
        {
            "index": 1,
            "grpId": 1426961800,
            "nextGrpId": 1426961801
        },
        {
            "index": 2,
            "grpId": 1426961801,
            "nextGrpId": 1426961802
        },
        {
            "index": 3,
            "grpId": 1426961802,
            "nextGrpId": 1426961803
        },
        {
            "index": 4,
            "grpId": 1426961803,
            "nextGrpId": 1426961804
        },
        {
            "index": 5,
            "grpId": 1426961804,
            "nextGrpId": 1426961805
        },
        {
            "index": 6,
            "grpId": 1426961805,
            "nextGrpId": 1426961806
        },
        {
            "index": 7,
            "grpId": 1426961806,
            "nextGrpId": 1426961807
        },
        {
            "index": 8,
            "grpId": 1426961807,
            "nextGrpId": 1286142857
        },
        {
            "index": 9,
            "grpId": 1286142857,
            "nextGrpId": 1286142858
        },
        {
            "index": 10,
            "grpId": 1286142858,
            "nextGrpId": 1286142859
        },
        {
            "index": 11,
            "grpId": 1286142859,
            "nextGrpId": 1286142860
        },
        {
            "index": 12,
            "grpId": 1286142860,
            "nextGrpId": 1286142861
        },
        {
            "index": 13,
            "grpId": 1286142861,
            "nextGrpId": 1286142862
        },
        {
            "index": 14,
            "grpId": 1286142862,
            "nextGrpId": 1286142865
        },
        {
            "index": 15,
            "grpId": 1286142863,
            "nextGrpId": 1286142865
        },
        {
            "index": 16,
            "grpId": 1286142864,
            "nextGrpId": 1286142865
        },
        {
            "index": 17,
            "grpId": 1286142865,
            "nextGrpId": 1286142866
        },
        {
            "index": 18,
            "grpId": 1286142866,
            "nextGrpId": 1286142888
        }
    ],
    "freeStyleDic": {
        "30319": []
    }
}