{
    "luaDataPath": "",
    "isSimpleTalk": true,
    "entityBan": "",
    "disableNpcLod": true,
    "protectNpcMobileLod": true,
    "startFade": {
        "startFadeOutDuration": 0.0
    },
    "endFade": {
        "startFadeOutDuration": 0.0
    },
    "actors": [
        {
            "alias": "Avatar",
            "visible": true,
            "bornPointName": "",
            "relativePosType": "AVATAR_NEW",
            "relativePosNpcAlias": "",
            "bindMovingTargetKey": ""
        },
        {
            "configID": 4233,
            "alias": "4233",
            "visible": true,
            "bornPointName": "",
            "forceCreateDaily": true,
            "relativePosType": "AVATAR_NEW",
            "relativePosNpcAlias": "",
            "bindMovingTargetKey": ""
        }
    ],
    "group": [
        [
            {
                "$type": "MOOOKOKLLEI",
                "type": "CAMERA_FOCUS",
                "duration": 0.10000000149011612,
                "actionId": 103,
                "OMCCMPHDLOO": "",
                "OCFGGGHIKOO": "",
                "LJFHGGJDPHH": "",
                "LPKDFKLNEHL": ""
            },
            {
                "$type": "MoleMole.Config.ConfigTimeProtectAction",
                "type": "TIME_PROTECT",
                "duration": 0.10000000149011612,
                "actionId": 104
            },
            {
                "$type": "OOMFCPJAJGL",
                "type": "STEER_TO",
                "delayTime": 0.30000001192092896,
                "duration": 0.800000011920929,
                "aliasList": [
                    "Avatar"
                ],
                "actionId": 159,
                "DMGIIHNDNLC": "TO_TARGET_ADVANCED",
                "HCMINPNPFDF": true,
                "PENAEBFAHCH": true,
                "CKOEAJFMDON": true,
                "OMCCMPHDLOO": "4233",
                "DBLNLMOPEBP": ""
            },
            {
                "$type": "OOMFCPJAJGL",
                "type": "STEER_TO",
                "delayTime": 0.30000001192092896,
                "duration": 0.800000011920929,
                "aliasList": [
                    "4233"
                ],
                "actionId": 160,
                "DMGIIHNDNLC": "TO_LOCAL_AVATAR_ADVANCED",
                "HCMINPNPFDF": true,
                "PENAEBFAHCH": true,
                "CKOEAJFMDON": true,
                "OMCCMPHDLOO": "",
                "DBLNLMOPEBP": ""
            }
        ],
        [
            {
                "$type": "DLPFECMKEKH",
                "type": "DIALOG",
                "aliasList": [
                    "4233"
                ],
                "actionId": 107,
                "NMKEDPFEKBH": 732060601,
                "JLCHMAJCAPA": 0.5
            },
            {
                "$type": "ECLBLHOENAG",
                "type": "DIALOG_SELECT",
                "delayTime": 0.4000000059604645,
                "aliasList": [
                    "Avatar"
                ],
                "actionId": 108,
                "NDMMOPDPKNF": [
                    732060602,
                    732060609
                ],
                "FPDBIEGHMCD": [
                    21117997,
                    21118003
                ],
                "PKBOIGBGDEG": true
            }
        ],
        [
            {
                "$type": "DLPFECMKEKH",
                "type": "DIALOG",
                "aliasList": [
                    "4233"
                ],
                "actionId": 110,
                "NMKEDPFEKBH": 732060603,
                "JLCHMAJCAPA": 0.5
            }
        ],
        [
            {
                "$type": "DLPFECMKEKH",
                "type": "DIALOG",
                "aliasList": [
                    "4233"
                ],
                "actionId": 112,
                "NMKEDPFEKBH": 732060604,
                "JLCHMAJCAPA": 0.5
            }
        ],
        [
            {
                "$type": "DLPFECMKEKH",
                "type": "DIALOG",
                "aliasList": [
                    "4233"
                ],
                "actionId": 114,
                "NMKEDPFEKBH": 732060605,
                "JLCHMAJCAPA": 0.5
            }
        ],
        [
            {
                "$type": "DLPFECMKEKH",
                "type": "DIALOG",
                "aliasList": [
                    "4233"
                ],
                "actionId": 116,
                "NMKEDPFEKBH": 732060606,
                "JLCHMAJCAPA": 0.5
            }
        ],
        [
            {
                "$type": "DLPFECMKEKH",
                "type": "DIALOG",
                "aliasList": [
                    "4233"
                ],
                "actionId": 118,
                "NMKEDPFEKBH": 732060607,
                "JLCHMAJCAPA": 0.5
            }
        ],
        [
            {
                "$type": "DLPFECMKEKH",
                "type": "DIALOG",
                "aliasList": [
                    "4233"
                ],
                "actionId": 120,
                "NMKEDPFEKBH": 732060608,
                "JLCHMAJCAPA": 0.5
            },
            {
                "$type": "ECLBLHOENAG",
                "type": "DIALOG_SELECT",
                "delayTime": 0.4000000059604645,
                "aliasList": [
                    "Avatar"
                ],
                "actionId": 121,
                "NDMMOPDPKNF": [
                    732060621
                ],
                "FPDBIEGHMCD": [
                    654657924
                ],
                "PKBOIGBGDEG": true
            }
        ],
        [
            {
                "$type": "DLPFECMKEKH",
                "type": "DIALOG",
                "aliasList": [
                    "4233"
                ],
                "actionId": 123,
                "NMKEDPFEKBH": 732060610,
                "JLCHMAJCAPA": 0.5
            }
        ],
        [
            {
                "$type": "DLPFECMKEKH",
                "type": "DIALOG",
                "aliasList": [
                    "4233"
                ],
                "actionId": 125,
                "NMKEDPFEKBH": 732060611,
                "JLCHMAJCAPA": 0.5
            }
        ],
        [
            {
                "$type": "DLPFECMKEKH",
                "type": "DIALOG",
                "aliasList": [
                    "4233"
                ],
                "actionId": 127,
                "NMKEDPFEKBH": 732060612,
                "JLCHMAJCAPA": 0.5
            }
        ],
        [
            {
                "$type": "DLPFECMKEKH",
                "type": "DIALOG",
                "aliasList": [
                    "4233"
                ],
                "actionId": 129,
                "NMKEDPFEKBH": 732060613,
                "JLCHMAJCAPA": 0.5
            }
        ],
        [
            {
                "$type": "DLPFECMKEKH",
                "type": "DIALOG",
                "aliasList": [
                    "4233"
                ],
                "actionId": 131,
                "NMKEDPFEKBH": 732060614,
                "JLCHMAJCAPA": 0.5
            }
        ],
        [
            {
                "$type": "DLPFECMKEKH",
                "type": "DIALOG",
                "aliasList": [
                    "4233"
                ],
                "actionId": 133,
                "NMKEDPFEKBH": 732060615,
                "JLCHMAJCAPA": 0.5
            }
        ],
        [
            {
                "$type": "DLPFECMKEKH",
                "type": "DIALOG",
                "aliasList": [
                    "4233"
                ],
                "actionId": 135,
                "NMKEDPFEKBH": 732060616,
                "JLCHMAJCAPA": 0.5
            }
        ],
        [
            {
                "$type": "DLPFECMKEKH",
                "type": "DIALOG",
                "aliasList": [
                    "4233"
                ],
                "actionId": 137,
                "NMKEDPFEKBH": 732060617,
                "JLCHMAJCAPA": 0.5
            }
        ],
        [
            {
                "$type": "DLPFECMKEKH",
                "type": "DIALOG",
                "aliasList": [
                    "4233"
                ],
                "actionId": 139,
                "NMKEDPFEKBH": 732060618,
                "JLCHMAJCAPA": 0.5
            }
        ],
        [
            {
                "$type": "DLPFECMKEKH",
                "type": "DIALOG",
                "aliasList": [
                    "4233"
                ],
                "actionId": 141,
                "NMKEDPFEKBH": 732060619,
                "JLCHMAJCAPA": 0.5
            }
        ],
        [
            {
                "$type": "DLPFECMKEKH",
                "type": "DIALOG",
                "aliasList": [
                    "4233"
                ],
                "actionId": 143,
                "NMKEDPFEKBH": 732060620,
                "JLCHMAJCAPA": 0.5
            },
            {
                "$type": "ECLBLHOENAG",
                "type": "DIALOG_SELECT",
                "delayTime": 0.4000000059604645,
                "aliasList": [
                    "Avatar"
                ],
                "actionId": 144,
                "NDMMOPDPKNF": [
                    732060621
                ],
                "FPDBIEGHMCD": [
                    654657924
                ],
                "PKBOIGBGDEG": true
            }
        ],
        [
            {
                "$type": "DLPFECMKEKH",
                "type": "DIALOG",
                "aliasList": [
                    "4233"
                ],
                "actionId": 146,
                "NMKEDPFEKBH": 732060622,
                "JLCHMAJCAPA": 0.5
            }
        ],
        [
            {
                "$type": "DLPFECMKEKH",
                "type": "DIALOG",
                "aliasList": [
                    "4233"
                ],
                "actionId": 148,
                "NMKEDPFEKBH": 732060623,
                "JLCHMAJCAPA": 0.5
            }
        ],
        [
            {
                "$type": "DLPFECMKEKH",
                "type": "DIALOG",
                "aliasList": [
                    "4233"
                ],
                "actionId": 150,
                "NMKEDPFEKBH": 732060624,
                "JLCHMAJCAPA": 0.5
            },
            {
                "$type": "ECLBLHOENAG",
                "type": "DIALOG_SELECT",
                "delayTime": 0.4000000059604645,
                "aliasList": [
                    "Avatar"
                ],
                "actionId": 151,
                "NDMMOPDPKNF": [
                    732060625
                ],
                "FPDBIEGHMCD": [
                    654657927
                ],
                "PKBOIGBGDEG": true
            }
        ],
        [
            {
                "$type": "DLPFECMKEKH",
                "type": "DIALOG",
                "aliasList": [
                    "4233"
                ],
                "actionId": 153,
                "NMKEDPFEKBH": 732060626,
                "JLCHMAJCAPA": 0.5
            }
        ],
        [
            {
                "$type": "DLPFECMKEKH",
                "type": "DIALOG",
                "aliasList": [
                    "4233"
                ],
                "actionId": 155,
                "NMKEDPFEKBH": 732060627,
                "JLCHMAJCAPA": 0.5
            },
            {
                "$type": "ECLBLHOENAG",
                "type": "DIALOG_SELECT",
                "delayTime": 0.4000000059604645,
                "aliasList": [
                    "Avatar"
                ],
                "actionId": 156,
                "NDMMOPDPKNF": [
                    732060628
                ],
                "FPDBIEGHMCD": [
                    654657929
                ],
                "PKBOIGBGDEG": true
            }
        ],
        [
            {
                "$type": "DLPFECMKEKH",
                "type": "DIALOG",
                "aliasList": [
                    "4233"
                ],
                "actionId": 158,
                "NMKEDPFEKBH": 732060629,
                "JLCHMAJCAPA": 0.5
            }
        ],
        [
            {
                "$type": "MoleMole.Config.ConfigTimeProtectAction",
                "type": "TIME_PROTECT",
                "duration": 0.10000000149011612,
                "actionId": 105
            },
            {
                "$type": "OOMFCPJAJGL",
                "type": "STEER_TO",
                "delayTime": 0.375,
                "duration": 0.800000011920929,
                "aliasList": [
                    "4233"
                ],
                "actionId": 161,
                "DMGIIHNDNLC": "RETURN",
                "HCMINPNPFDF": true,
                "PENAEBFAHCH": true,
                "CKOEAJFMDON": true,
                "OMCCMPHDLOO": "",
                "DBLNLMOPEBP": ""
            }
        ]
    ],
    "groupId": [
        {
            "grpId": 21117995,
            "nextGrpId": 21117996
        },
        {
            "index": 1,
            "grpId": 21117996,
            "nextGrpId": 21117997
        },
        {
            "index": 2,
            "grpId": 21117997,
            "nextGrpId": 21117998
        },
        {
            "index": 3,
            "grpId": 21117998,
            "nextGrpId": 21117999
        },
        {
            "index": 4,
            "grpId": 21117999,
            "nextGrpId": 21118000
        },
        {
            "index": 5,
            "grpId": 21118000,
            "nextGrpId": 21118001
        },
        {
            "index": 6,
            "grpId": 21118001,
            "nextGrpId": 21118002
        },
        {
            "index": 7,
            "grpId": 21118002,
            "nextGrpId": 21118003
        },
        {
            "index": 8,
            "grpId": 21118003,
            "nextGrpId": 654657893
        },
        {
            "index": 9,
            "grpId": 654657893,
            "nextGrpId": 654657894
        },
        {
            "index": 10,
            "grpId": 654657894,
            "nextGrpId": 654657895
        },
        {
            "index": 11,
            "grpId": 654657895,
            "nextGrpId": 654657896
        },
        {
            "index": 12,
            "grpId": 654657896,
            "nextGrpId": 654657897
        },
        {
            "index": 13,
            "grpId": 654657897,
            "nextGrpId": 654657898
        },
        {
            "index": 14,
            "grpId": 654657898,
            "nextGrpId": 654657899
        },
        {
            "index": 15,
            "grpId": 654657899,
            "nextGrpId": 654657900
        },
        {
            "index": 16,
            "grpId": 654657900,
            "nextGrpId": 654657901
        },
        {
            "index": 17,
            "grpId": 654657901,
            "nextGrpId": 654657902
        },
        {
            "index": 18,
            "grpId": 654657902,
            "nextGrpId": 654657924
        },
        {
            "index": 19,
            "grpId": 654657924,
            "nextGrpId": 654657925
        },
        {
            "index": 20,
            "grpId": 654657925,
            "nextGrpId": 654657926
        },
        {
            "index": 21,
            "grpId": 654657926,
            "nextGrpId": 654657927
        },
        {
            "index": 22,
            "grpId": 654657927,
            "nextGrpId": 654657928
        },
        {
            "index": 23,
            "grpId": 654657928,
            "nextGrpId": 654657929
        },
        {
            "index": 24,
            "grpId": 654657929,
            "nextGrpId": 654657930
        },
        {
            "index": 25,
            "grpId": 654657930,
            "nextGrpId": 654657931
        }
    ],
    "freeStyleDic": {
        "4233": []
    }
}