{
    "AOOGPAEJDFN": {
        "x": -17.582414627075195,
        "y": 193.0,
        "z": 334.8646545410156
    },
    "ELJHMKDBOIJ": {
        "x": 30.98293685913086,
        "y": 210.0,
        "z": 382.4200744628906
    },
    "DELPMEEHPHO": [
        {
            "x": 13.267766952514648,
            "y": 193.65805053710938,
            "z": 379.7714538574219
        },
        {
            "x": 7.138242244720459,
            "y": 193.71249389648438,
            "z": 382.4200744628906
        },
        {
            "x": 1.2288373708724976,
            "y": 193.7689208984375,
            "z": 379.902099609375
        },
        {
            "x": -3.75120210647583,
            "y": 193.8687744140625,
            "z": 378.8796691894531
        },
        {
            "x": -4.842312812805176,
            "y": 193.7877960205078,
            "z": 380.96112060546875
        },
        {
            "x": -13.000654220581055,
            "y": 193.7877960205078,
            "z": 378.0398864746094
        },
        {
            "x": -16.060924530029297,
            "y": 193.79180908203125,
            "z": 369.854736328125
        },
        {
            "x": -13.97680950164795,
            "y": 193.89083862304688,
            "z": 368.8836364746094
        },
        {
            "x": -14.817309379577637,
            "y": 193.7818603515625,
            "z": 364.0956115722656
        },
        {
            "x": -17.582414627075195,
            "y": 193.65805053710938,
            "z": 357.8824157714844
        },
        {
            "x": -14.877584457397461,
            "y": 193.71241760253906,
            "z": 351.8650207519531
        },
        {
            "x": -13.972603797912598,
            "y": 193.82400512695312,
            "z": 346.9224548339844
        },
        {
            "x": -15.493224143981934,
            "y": 193.7877960205078,
            "z": 346.1688232421875
        },
        {
            "x": -12.598155975341797,
            "y": 193.87588500976562,
            "z": 337.9806213378906
        },
        {
            "x": -4.39422607421875,
            "y": 193.90603637695312,
            "z": 334.9793701171875
        },
        {
            "x": -3.201324939727783,
            "y": 193.84588623046875,
            "z": 337.59759521484375
        },
        {
            "x": 0.9728182554244995,
            "y": 193.71273803710938,
            "z": 336.80548095703125
        },
        {
            "x": 5.6921539306640625,
            "y": 193.83970642089844,
            "z": 334.95721435546875
        },
        {
            "x": 7.631075382232666,
            "y": 193.80250549316406,
            "z": 334.8646545410156
        },
        {
            "x": 9.718709945678711,
            "y": 193.6996307373047,
            "z": 335.1495056152344
        },
        {
            "x": 13.148716926574707,
            "y": 193.7381134033203,
            "z": 336.73388671875
        },
        {
            "x": 17.678518295288086,
            "y": 193.73780822753906,
            "z": 337.8271484375
        },
        {
            "x": 19.03181266784668,
            "y": 193.74732971191406,
            "z": 335.5166015625
        },
        {
            "x": 27.568532943725586,
            "y": 193.82144165039062,
            "z": 338.47845458984375
        },
        {
            "x": 30.260723114013672,
            "y": 193.7869110107422,
            "z": 346.5140380859375
        },
        {
            "x": 27.37154769897461,
            "y": 193.7122802734375,
            "z": 347.96514892578125
        },
        {
            "x": 28.19959259033203,
            "y": 193.8667755126953,
            "z": 351.9028015136719
        },
        {
            "x": 30.98293685913086,
            "y": 193.73373413085938,
            "z": 357.8759765625
        },
        {
            "x": 28.30360984802246,
            "y": 193.71246337890625,
            "z": 363.88665771484375
        },
        {
            "x": 27.373058319091797,
            "y": 193.79212951660156,
            "z": 368.52423095703125
        },
        {
            "x": 30.11039161682129,
            "y": 193.8950958251953,
            "z": 369.925048828125
        },
        {
            "x": 27.328306198120117,
            "y": 193.83563232421875,
            "z": 378.23162841796875
        },
        {
            "x": 19.045732498168945,
            "y": 193.9271240234375,
            "z": 381.0945129394531
        },
        {
            "x": 17.83763313293457,
            "y": 193.7414093017578,
            "z": 378.773681640625
        }
    ]
}