{
    "AOOGPAEJDFN": {
        "x": -2253.712646484375,
        "y": -100.0,
        "z": 5301.73828125
    },
    "ELJHMKDBOIJ": {
        "x": -2082.3388671875,
        "y": 80.0,
        "z": 5429.68359375
    },
    "DELPMEEHPHO": [
        {
            "x": -2116.035400390625,
            "y": -22.660167694091797,
            "z": 5394.98095703125
        },
        {
            "x": -2092.831298828125,
            "y": -23.729032516479492,
            "z": 5392.77734375
        },
        {
            "x": -2082.754150390625,
            "y": -21.920032501220703,
            "z": 5373.94287109375
        },
        {
            "x": -2082.3388671875,
            "y": -16.912559509277344,
            "z": 5364.61865234375
        },
        {
            "x": -2094.837646484375,
            "y": -18.14498519897461,
            "z": 5351.00048828125
        },
        {
            "x": -2102.914306640625,
            "y": -13.500153541564941,
            "z": 5314.259765625
        },
        {
            "x": -2134.832275390625,
            "y": -0.1958913803100586,
            "z": 5301.73828125
        },
        {
            "x": -2186.634521484375,
            "y": 4.955533504486084,
            "z": 5306.0849609375
        },
        {
            "x": -2234.12353515625,
            "y": 1.4643943309783936,
            "z": 5357.77734375
        },
        {
            "x": -2244.99951171875,
            "y": 34.84659194946289,
            "z": 5361.0966796875
        },
        {
            "x": -2253.712646484375,
            "y": 40.8404541015625,
            "z": 5381.14697265625
        },
        {
            "x": -2227.68408203125,
            "y": 36.44369888305664,
            "z": 5412.86767578125
        },
        {
            "x": -2212.146484375,
            "y": 41.42439270019531,
            "z": 5419.46826171875
        },
        {
            "x": -2173.032470703125,
            "y": 33.36824417114258,
            "z": 5429.68359375
        },
        {
            "x": -2136.6337890625,
            "y": -13.16291618347168,
            "z": 5405.578125
        }
    ]
}