{
    "AOOGPAEJDFN": {
        "x": -2566.61669921875,
        "z": -3704.980224609375
    },
    "ELJHMKDBOIJ": {
        "x": -2540.105224609375,
        "z": -3684.1884765625
    },
    "DELPMEEHPHO": [
        {
            "x": -2542.07470703125,
            "y": 200.0,
            "z": -3692.574462890625
        },
        {
            "x": -2540.105224609375,
            "y": 200.0,
            "z": -3689.79150390625
        },
        {
            "x": -2548.283203125,
            "y": 200.0,
            "z": -3684.1884765625
        },
        {
            "x": -2564.046630859375,
            "y": 200.0,
            "z": -3684.91650390625
        },
        {
            "x": -2566.61669921875,
            "y": 200.8517303466797,
            "z": -3696.096923828125
        },
        {
            "x": -2560.812744140625,
            "y": 200.81849670410156,
            "z": -3694.38330078125
        },
        {
            "x": -2561.31201171875,
            "y": 200.81832885742188,
            "z": -3697.32763671875
        },
        {
            "x": -2566.6142578125,
            "y": 200.0,
            "z": -3697.230224609375
        },
        {
            "x": -2566.577880859375,
            "y": 200.8184356689453,
            "z": -3702.431396484375
        },
        {
            "x": -2562.826904296875,
            "y": 200.0,
            "z": -3704.980224609375
        }
    ]
}