{
    "luaDataPath": "",
    "isSimpleTalk": true,
    "entityBan": "",
    "disableNpcLod": true,
    "startFade": {
        "startFadeOutDuration": 0.0
    },
    "endFade": {
        "startFadeOutDuration": 0.0
    },
    "actors": [
        {
            "alias": "Avatar",
            "visible": true,
            "bornPointName": "72208_Player_Point",
            "relativePosNpcAlias": "",
            "bindMovingTargetKey": ""
        },
        {
            "configID": 20430,
            "alias": "20430",
            "visible": true,
            "bornPointName": "72208_FishMan_Point",
            "relativePosNpcAlias": "",
            "bindMovingTargetKey": ""
        },
        {
            "configID": 1005,
            "alias": "1005",
            "visible": true,
            "bornPointName": "Q_72208_Paimon_Pos",
            "useRelativePos": true,
            "relativePos": {
                "x": 0.5,
                "z": 0.5
            },
            "relativePosNpcAlias": "",
            "bindMovingTargetKey": ""
        }
    ],
    "group": [
        [
            {
                "$type": "MoleMole.Config.ConfigTimeProtectAction",
                "type": "TIME_PROTECT",
                "duration": 0.10000000149011612
            },
            {
                "$type": "MOOOKOKLLEI",
                "type": "CAMERA_FOCUS",
                "duration": 0.10000000149011612,
                "OMCCMPHDLOO": "",
                "OCFGGGHIKOO": "",
                "LJFHGGJDPHH": "",
                "LPKDFKLNEHL": ""
            }
        ],
        [
            {
                "$type": "DLPFECMKEKH",
                "type": "DIALOG",
                "aliasList": [
                    "20430"
                ],
                "NMKEDPFEKBH": 722080101,
                "JLCHMAJCAPA": 0.5
            },
            {
                "$type": "ECLBLHOENAG",
                "type": "DIALOG_SELECT",
                "delayTime": 0.4000000059604645,
                "aliasList": [
                    "Avatar"
                ],
                "NDMMOPDPKNF": [
                    722080102,
                    722080103
                ],
                "FPDBIEGHMCD": [
                    561430164,
                    561430164
                ],
                "PKBOIGBGDEG": true
            }
        ],
        [
            {
                "$type": "DLPFECMKEKH",
                "type": "DIALOG",
                "aliasList": [
                    "20430"
                ],
                "NMKEDPFEKBH": 722080104,
                "JLCHMAJCAPA": 0.5
            },
            {
                "$type": "ECLBLHOENAG",
                "type": "DIALOG_SELECT",
                "delayTime": 0.4000000059604645,
                "aliasList": [
                    "Avatar"
                ],
                "NDMMOPDPKNF": [
                    722080105
                ],
                "FPDBIEGHMCD": [
                    561430165
                ],
                "PKBOIGBGDEG": true
            }
        ],
        [
            {
                "$type": "DLPFECMKEKH",
                "type": "DIALOG",
                "aliasList": [
                    "20430"
                ],
                "NMKEDPFEKBH": 722080106,
                "JLCHMAJCAPA": 0.5
            }
        ],
        [
            {
                "$type": "DLPFECMKEKH",
                "type": "DIALOG",
                "aliasList": [
                    "20430"
                ],
                "NMKEDPFEKBH": 722080107,
                "JLCHMAJCAPA": 0.5
            },
            {
                "$type": "ECLBLHOENAG",
                "type": "DIALOG_SELECT",
                "delayTime": 0.4000000059604645,
                "aliasList": [
                    "Avatar"
                ],
                "NDMMOPDPKNF": [
                    722080108,
                    722080109
                ],
                "FPDBIEGHMCD": [
                    561430167,
                    561430167
                ],
                "PKBOIGBGDEG": true
            }
        ],
        [
            {
                "$type": "DLPFECMKEKH",
                "type": "DIALOG",
                "aliasList": [
                    "20430"
                ],
                "NMKEDPFEKBH": 722080110,
                "JLCHMAJCAPA": 0.5
            }
        ],
        [
            {
                "$type": "DLPFECMKEKH",
                "type": "DIALOG",
                "aliasList": [
                    "20430"
                ],
                "NMKEDPFEKBH": 722080111,
                "JLCHMAJCAPA": 0.5
            }
        ],
        [
            {
                "$type": "DLPFECMKEKH",
                "type": "DIALOG",
                "aliasList": [
                    "20430"
                ],
                "NMKEDPFEKBH": 722080112,
                "JLCHMAJCAPA": 0.5
            },
            {
                "$type": "ECLBLHOENAG",
                "type": "DIALOG_SELECT",
                "delayTime": 0.4000000059604645,
                "aliasList": [
                    "Avatar"
                ],
                "NDMMOPDPKNF": [
                    722080113,
                    722080114
                ],
                "FPDBIEGHMCD": [
                    224465886,
                    561430170
                ],
                "PKBOIGBGDEG": true
            }
        ],
        [
            {
                "$type": "DLPFECMKEKH",
                "type": "DIALOG",
                "aliasList": [
                    "20430"
                ],
                "NMKEDPFEKBH": 722080199,
                "JLCHMAJCAPA": 0.5
            }
        ],
        [
            {
                "$type": "DLPFECMKEKH",
                "type": "DIALOG",
                "aliasList": [
                    "20430"
                ],
                "NMKEDPFEKBH": 722080115,
                "JLCHMAJCAPA": 0.5
            },
            {
                "$type": "ECLBLHOENAG",
                "type": "DIALOG_SELECT",
                "delayTime": 0.4000000059604645,
                "aliasList": [
                    "Avatar"
                ],
                "NDMMOPDPKNF": [
                    722080116,
                    722080117
                ],
                "FPDBIEGHMCD": [
                    224465887,
                    224465887
                ],
                "PKBOIGBGDEG": true
            }
        ],
        [
            {
                "$type": "DLPFECMKEKH",
                "type": "DIALOG",
                "aliasList": [
                    "20430"
                ],
                "NMKEDPFEKBH": 722080118,
                "JLCHMAJCAPA": 0.5
            }
        ],
        [
            {
                "$type": "DLPFECMKEKH",
                "type": "DIALOG",
                "aliasList": [
                    "20430"
                ],
                "NMKEDPFEKBH": 722080119,
                "JLCHMAJCAPA": 0.5
            },
            {
                "$type": "ECLBLHOENAG",
                "type": "DIALOG_SELECT",
                "delayTime": 0.4000000059604645,
                "aliasList": [
                    "Avatar"
                ],
                "NDMMOPDPKNF": [
                    722080120
                ],
                "FPDBIEGHMCD": [
                    224465889
                ],
                "PKBOIGBGDEG": true
            }
        ],
        [
            {
                "$type": "DLPFECMKEKH",
                "type": "DIALOG",
                "aliasList": [
                    "20430"
                ],
                "NMKEDPFEKBH": 722080121,
                "JLCHMAJCAPA": 0.5
            },
            {
                "$type": "ECLBLHOENAG",
                "type": "DIALOG_SELECT",
                "delayTime": 0.4000000059604645,
                "aliasList": [
                    "Avatar"
                ],
                "NDMMOPDPKNF": [
                    722080122
                ],
                "FPDBIEGHMCD": [
                    224465890
                ],
                "PKBOIGBGDEG": true
            }
        ],
        [
            {
                "$type": "DLPFECMKEKH",
                "type": "DIALOG",
                "aliasList": [
                    "20430"
                ],
                "NMKEDPFEKBH": 722080123,
                "JLCHMAJCAPA": 0.5
            }
        ],
        [
            {
                "$type": "MoleMole.Config.ConfigTimeProtectAction",
                "type": "TIME_PROTECT",
                "duration": 0.10000000149011612
            }
        ]
    ],
    "groupId": [
        {
            "grpId": 561430162,
            "nextGrpId": 561430163
        },
        {
            "index": 1,
            "grpId": 561430163,
            "nextGrpId": 561430164
        },
        {
            "index": 2,
            "grpId": 561430164,
            "nextGrpId": 561430165
        },
        {
            "index": 3,
            "grpId": 561430165,
            "nextGrpId": 561430166
        },
        {
            "index": 4,
            "grpId": 561430166,
            "nextGrpId": 561430167
        },
        {
            "index": 5,
            "grpId": 561430167,
            "nextGrpId": 561430168
        },
        {
            "index": 6,
            "grpId": 561430168,
            "nextGrpId": 561430169
        },
        {
            "index": 7,
            "grpId": 561430169,
            "nextGrpId": 561430170
        },
        {
            "index": 8,
            "grpId": 561430170,
            "nextGrpId": 224465886
        },
        {
            "index": 9,
            "grpId": 224465886,
            "nextGrpId": 224465887
        },
        {
            "index": 10,
            "grpId": 224465887,
            "nextGrpId": 224465888
        },
        {
            "index": 11,
            "grpId": 224465888,
            "nextGrpId": 224465889
        },
        {
            "index": 12,
            "grpId": 224465889,
            "nextGrpId": 224465890
        },
        {
            "index": 13,
            "grpId": 224465890,
            "nextGrpId": 224465891
        },
        {
            "index": 14,
            "grpId": 224465891,
            "nextGrpId": 224465892
        }
    ]
}