{
    "id": 28,
    "stageCreateEvents": [
        "Play_amb_Dungeon"
    ],
    "stageExitEvents": [
        "Stop_amb_dungeon"
    ],
    "stateValue": "",
    "DPELNMPOPLL": {
        "text": "Play_Music_Dungeon"
    },
    "MGCJFFOOMCI": {
        "text": "Stop_Music_Dungeon"
    }
}