{
    "id": 93,
    "stageMatureEvents": [
        "Play_amb_scene_Homeworld_Exterior_Above",
        "Play_Music_HomeWorld_FurnitureMusic"
    ],
    "stageExitEvents": [
        "Stop_amb_scene_Homeworld_Exterior_Above",
        "State_Music_NonCombat",
        "Stop_Music_HomeWorld_FurnitureMusic"
    ],
    "stateValue": "State_Homeworld_Scene_Above",
    "DPELNMPOPLL": {
        "text": "Play_Music_Scene"
    },
    "MGCJFFOOMCI": {
        "text": "Stop_Music_Scene"
    }
}