{
    "normal": {
        "cutsceneConfig": {
            "type": "TIME_LINE_PREFAB",
            "luaDataPath": "",
            "resPath": "ART/Cutscene/Cs_Sumeru_AQ801210_HM_Convert",
            "castListPath": "Cs_CastList_Q801210",
            "entityBan": "",
            "clearAvatarLocalGadget": true,
            "LKLFIGGEOOO": true,
            "syncLoad": true,
            "fadeOutDuration": 1.5
        }
    }
}