{
    "normal": {
        "type": "VIDEO",
        "videoConfig": {
            "heroDiff": true,
            "videoName": "Cs_Fontaine_AQ40051001_MGS1_Boy.usm",
            "videoNameOther": "Cs_Fontaine_AQ40051001_MGS1_Girl.usm",
            "subtitleId": 300142,
            "subtitleIdOther": 300143,
            "canSkip": true,
            "bgColor": {
                "a": 1.0
            },
            "fadeInDuration": 1.0,
            "fadeOutDuration": 1.0
        }
    }
}