{
    "normal": {
        "cutsceneConfig": {
            "type": "TIME_LINE_PREFAB",
            "luaDataPath": "",
            "resPath": "ART/Cutscene/Cs_Penumbra_EQ4011413_WaterFlowST_Convert",
            "castListPath": "",
            "entityBan": "",
            "clearAvatarLocalGadget": true,
            "syncLoad": true,
            "fadeOutDuration": 1.5
        }
    }
}