{
    "normal": {
        "cutsceneConfig": {
            "type": "TIME_LINE_PREFAB",
            "canSkip": false,
            "luaDataPath": "",
            "resPath": "ART/Cutscene/Cs_LY44_WQ7110059_BAGUAN_Convert",
            "castListPath": "",
            "entityBan": "",
            "clearAvatarLocalGadget": true,
            "LKLFIGGEOOO": true,
            "syncLoad": true,
            "fadeInDuration": 0.5,
            "fadeOutDuration": 0.5
        }
    }
}