{
    "luaDataPath": "",
    "entityBan": "",
    "group": [
        [
            {
                "$type": "ILCGAGEGDJI",
                "type": "BODY_LANG",
                "delayTime": 1.0,
                "FLBOOPHHFJP": 1200,
                "FNDLJGEAMGI": ""
            },
            {
                "$type": "OOMFCPJAJGL",
                "type": "STEER_TO",
                "duration": 1.0,
                "DMGIIHNDNLC": "TO_LOCAL_AVATAR_ADVANCED",
                "HCMINPNPFDF": true,
                "OMCCMPHDLOO": "",
                "DBLNLMOPEBP": ""
            },
            {
                "$type": "MOOOKOKLLEI",
                "type": "CAMERA_FOCUS",
                "duration": 1.0,
                "IPHEFBOANAL": "RELATIVE_TO_INTER",
                "DOKGBCKOLJK": {
                    "y": 0.5
                },
                "JEIFACJKNOB": 2.0,
                "DGGAJKMNNKE": "TO_INTEE",
                "HGKCPMDICGG": {
                    "y": 0.5
                },
                "OMPKKAFEHPN": 5.0,
                "MGMFMGNANHH": 6,
                "OMCCMPHDLOO": "",
                "OCFGGGHIKOO": "",
                "LJFHGGJDPHH": "",
                "LPKDFKLNEHL": ""
            }
        ]
    ]
}