{
    "talkId": 30339,
    "type": "FREE",
    "dialogList": [
        {
            "id": 3033901,
            "talkRole": {
                "type": "TALK_ROLE_NPC",
                "id": "1290"
            },
            "talkContentTextMapHash": 3555391771,
            "talkAssetPath": "",
            "talkAssetPathAlter": "",
            "talkAudioName": "",
            "actionBefore": "TEST/LerpInQueen",
            "actionWhile": "",
            "actionAfter": "",
            "optionIcon": ""
        }
    ]
}