{
  "FEOACBMDCKJ": 6955806,
  "JNMCHAGDLOL": "FREE",
  "AAOAAFLLOJI": [
    {
      "CCFPGAKINNB": 695580601,
      "HJLEMJIGNFE": {
        "_type": "TALK_ROLE_NPC",
        "_id": "9558"
      },
      "BDOKCLNNDGN": 2025214034,
      "LBIALGEBDEF": "",
      "OHKKBEPEBKH": "",
      "AMNGMAPONHL": "",
      "IANGBGFBILD": "",
      "ADGDAEPIILL": "",
      "DGJCJLLDMON": "",
      "DOCDFJJIDNG": ""
    }
  ]
}