{
  "FEOACBMDCKJ": 6972204,
  "JNMCHAGDLOL": "FREE",
  "AAOAAFLLOJI": [
    {
      "CCFPGAKINNB": 697220401,
      "HJLEMJIGNFE": {
        "_type": "TALK_ROLE_NPC",
        "_id": "9722"
      },
      "BDOKCLNNDGN": 2924097362,
      "LBIALGEBDEF": "",
      "OHKKBEPEBKH": "",
      "AMNGMAPONHL": "",
      "IANGBGFBILD": "GCG/ClearWorldChallengeTalk_CatBar",
      "ADGDAEPIILL": "",
      "DGJCJLLDMON": "GCG/open_GcgLevelPage_CatBar_2",
      "DOCDFJJIDNG": ""
    }
  ]
}