{
    "talkId": 6223104,
    "type": "FREE",
    "dialogList": [
        {
            "id": 622310401,
            "nextDialogs": [
                622310402
            ],
            "talkShowType": "TALK_SHOW_FORCE_SELECT",
            "talkRole": {
                "type": "TALK_ROLE_PLAYER",
                "id": ""
            },
            "talkContentTextMapHash": 440497522,
            "talkAssetPath": "",
            "talkAssetPathAlter": "",
            "talkAudioName": "",
            "actionBefore": "",
            "actionWhile": "",
            "actionAfter": "",
            "optionIcon": ""
        },
        {
            "id": 622310402,
            "nextDialogs": [
                622310403
            ],
            "talkRole": {
                "type": "TALK_ROLE_NPC",
                "id": "2231"
            },
            "talkContentTextMapHash": 3723867866,
            "talkAssetPath": "",
            "talkAssetPathAlter": "",
            "talkAudioName": "",
            "actionBefore": "",
            "actionWhile": "",
            "actionAfter": "",
            "optionIcon": ""
        },
        {
            "id": 622310403,
            "nextDialogs": [
                622310404
            ],
            "talkRole": {
                "type": "TALK_ROLE_NPC",
                "id": "2231"
            },
            "talkContentTextMapHash": 2437141130,
            "talkAssetPath": "",
            "talkAssetPathAlter": "",
            "talkAudioName": "",
            "actionBefore": "",
            "actionWhile": "",
            "actionAfter": "",
            "optionIcon": ""
        },
        {
            "id": 622310404,
            "talkRole": {
                "type": "TALK_ROLE_NPC",
                "id": "2231"
            },
            "talkContentTextMapHash": 3259390202,
            "talkAssetPath": "",
            "talkAssetPathAlter": "",
            "talkAudioName": "",
            "actionBefore": "",
            "actionWhile": "",
            "actionAfter": "",
            "optionIcon": ""
        }
    ]
}