{
    "talkId": 6225802,
    "type": "FREE",
    "dialogList": [
        {
            "id": 622580201,
            "nextDialogs": [
                622580202
            ],
            "talkShowType": "TALK_SHOW_FORCE_SELECT",
            "talkRole": {
                "type": "TALK_ROLE_PLAYER",
                "id": ""
            },
            "talkContentTextMapHash": 1427289650,
            "talkAssetPath": "",
            "talkAssetPathAlter": "",
            "talkAudioName": "",
            "actionBefore": "",
            "actionWhile": "",
            "actionAfter": "",
            "optionIcon": ""
        },
        {
            "id": 622580202,
            "nextDialogs": [
                622580203
            ],
            "talkRole": {
                "type": "TALK_ROLE_NPC",
                "id": "2258"
            },
            "talkContentTextMapHash": 1602137722,
            "talkAssetPath": "",
            "talkAssetPathAlter": "",
            "talkAudioName": "",
            "actionBefore": "",
            "actionWhile": "SimpleTalk/RandomTalk",
            "actionAfter": "",
            "optionIcon": ""
        },
        {
            "id": 622580203,
            "nextDialogs": [
                622580204
            ],
            "talkRole": {
                "type": "TALK_ROLE_NPC",
                "id": "2258"
            },
            "talkContentTextMapHash": 3216991746,
            "talkAssetPath": "",
            "talkAssetPathAlter": "",
            "talkAudioName": "",
            "actionBefore": "",
            "actionWhile": "",
            "actionAfter": "",
            "optionIcon": ""
        },
        {
            "id": 622580204,
            "nextDialogs": [
                622580205
            ],
            "talkRole": {
                "type": "TALK_ROLE_NPC",
                "id": "2258"
            },
            "talkContentTextMapHash": 422216802,
            "talkAssetPath": "",
            "talkAssetPathAlter": "",
            "talkAudioName": "",
            "actionBefore": "",
            "actionWhile": "SimpleTalk/RandomTalk",
            "actionAfter": "",
            "optionIcon": ""
        },
        {
            "id": 622580205,
            "nextDialogs": [
                622580206
            ],
            "talkRole": {
                "type": "TALK_ROLE_NPC",
                "id": "2258"
            },
            "talkContentTextMapHash": 987409074,
            "talkAssetPath": "",
            "talkAssetPathAlter": "",
            "talkAudioName": "",
            "actionBefore": "",
            "actionWhile": "",
            "actionAfter": "",
            "optionIcon": ""
        },
        {
            "id": 622580206,
            "nextDialogs": [
                622580207
            ],
            "talkRole": {
                "type": "TALK_ROLE_NPC",
                "id": "2258"
            },
            "talkContentTextMapHash": 2565420866,
            "talkAssetPath": "",
            "talkAssetPathAlter": "",
            "talkAudioName": "",
            "actionBefore": "",
            "actionWhile": "SimpleTalk/Shrug",
            "actionAfter": "",
            "optionIcon": ""
        },
        {
            "id": 622580207,
            "talkRole": {
                "type": "TALK_ROLE_NPC",
                "id": "2258"
            },
            "talkContentTextMapHash": 2600878346,
            "talkAssetPath": "",
            "talkAssetPathAlter": "",
            "talkAudioName": "",
            "actionBefore": "",
            "actionWhile": "",
            "actionAfter": "",
            "optionIcon": ""
        }
    ]
}