{
    "talkId": 6247201,
    "type": "FREE",
    "dialogList": [
        {
            "id": 624720101,
            "talkRole": {
                "type": "TALK_ROLE_NPC",
                "id": "2472"
            },
            "talkContentTextMapHash": 3902958394,
            "talkAssetPath": "",
            "talkAssetPathAlter": "",
            "talkAudioName": "",
            "actionBefore": "",
            "actionWhile": "",
            "actionAfter": "",
            "optionIcon": ""
        }
    ]
}