{
    "talkId": 6248303,
    "type": "FREE",
    "dialogList": [
        {
            "id": 624830301,
            "nextDialogs": [
                624830302
            ],
            "talkShowType": "TALK_SHOW_FORCE_SELECT",
            "talkRole": {
                "type": "TALK_ROLE_PLAYER",
                "id": ""
            },
            "talkContentTextMapHash": 2805210906,
            "talkAssetPath": "",
            "talkAssetPathAlter": "",
            "talkAudioName": "",
            "actionBefore": "",
            "actionWhile": "",
            "actionAfter": "",
            "optionIcon": ""
        },
        {
            "id": 624830302,
            "nextDialogs": [
                624830303
            ],
            "talkRole": {
                "type": "TALK_ROLE_NPC",
                "id": "2483"
            },
            "talkContentTextMapHash": 36405402,
            "talkAssetPath": "",
            "talkAssetPathAlter": "",
            "talkAudioName": "",
            "actionBefore": "",
            "actionWhile": "",
            "actionAfter": "",
            "optionIcon": ""
        },
        {
            "id": 624830303,
            "nextDialogs": [
                624830304
            ],
            "talkRole": {
                "type": "TALK_ROLE_NPC",
                "id": "2483"
            },
            "talkContentTextMapHash": 2854210106,
            "talkAssetPath": "",
            "talkAssetPathAlter": "",
            "talkAudioName": "",
            "actionBefore": "",
            "actionWhile": "",
            "actionAfter": "",
            "optionIcon": ""
        },
        {
            "id": 624830304,
            "nextDialogs": [
                624830305
            ],
            "talkRole": {
                "type": "TALK_ROLE_NPC",
                "id": "2483"
            },
            "talkContentTextMapHash": 942896730,
            "talkAssetPath": "",
            "talkAssetPathAlter": "",
            "talkAudioName": "",
            "actionBefore": "",
            "actionWhile": "",
            "actionAfter": "",
            "optionIcon": ""
        },
        {
            "id": 624830305,
            "nextDialogs": [
                624830306
            ],
            "talkRole": {
                "type": "TALK_ROLE_NPC",
                "id": "2483"
            },
            "talkContentTextMapHash": 4027811178,
            "talkAssetPath": "",
            "talkAssetPathAlter": "",
            "talkAudioName": "",
            "actionBefore": "",
            "actionWhile": "",
            "actionAfter": "",
            "optionIcon": ""
        },
        {
            "id": 624830306,
            "nextDialogs": [
                624830307
            ],
            "talkRole": {
                "type": "TALK_ROLE_NPC",
                "id": "2483"
            },
            "talkContentTextMapHash": 2176701722,
            "talkAssetPath": "",
            "talkAssetPathAlter": "",
            "talkAudioName": "",
            "actionBefore": "",
            "actionWhile": "",
            "actionAfter": "",
            "optionIcon": ""
        },
        {
            "id": 624830307,
            "talkRole": {
                "type": "TALK_ROLE_NPC",
                "id": "2483"
            },
            "talkContentTextMapHash": 3129312458,
            "talkAssetPath": "",
            "talkAssetPathAlter": "",
            "talkAudioName": "",
            "actionBefore": "",
            "actionWhile": "",
            "actionAfter": "",
            "optionIcon": ""
        }
    ]
}