{
    "talkId": 6248803,
    "type": "FREE",
    "dialogList": [
        {
            "id": 624880301,
            "nextDialogs": [
                624880302
            ],
            "talkShowType": "TALK_SHOW_FORCE_SELECT",
            "talkRole": {
                "type": "TALK_ROLE_PLAYER",
                "id": ""
            },
            "talkContentTextMapHash": 2089995466,
            "talkAssetPath": "",
            "talkAssetPathAlter": "",
            "talkAudioName": "",
            "actionBefore": "",
            "actionWhile": "",
            "actionAfter": "",
            "optionIcon": ""
        },
        {
            "id": 624880302,
            "nextDialogs": [
                624880303
            ],
            "talkRole": {
                "type": "TALK_ROLE_NPC",
                "id": "2488"
            },
            "talkContentTextMapHash": 2920482762,
            "talkAssetPath": "",
            "talkAssetPathAlter": "",
            "talkAudioName": "",
            "actionBefore": "",
            "actionWhile": "",
            "actionAfter": "",
            "optionIcon": ""
        },
        {
            "id": 624880303,
            "nextDialogs": [
                624880304
            ],
            "talkRole": {
                "type": "TALK_ROLE_NPC",
                "id": "2488"
            },
            "talkContentTextMapHash": 1398571466,
            "talkAssetPath": "",
            "talkAssetPathAlter": "",
            "talkAudioName": "",
            "actionBefore": "",
            "actionWhile": "",
            "actionAfter": "",
            "optionIcon": ""
        },
        {
            "id": 624880304,
            "nextDialogs": [
                624880305
            ],
            "talkRole": {
                "type": "TALK_ROLE_NPC",
                "id": "2488"
            },
            "talkContentTextMapHash": 494085154,
            "talkAssetPath": "",
            "talkAssetPathAlter": "",
            "talkAudioName": "",
            "actionBefore": "",
            "actionWhile": "",
            "actionAfter": "",
            "optionIcon": ""
        },
        {
            "id": 624880305,
            "nextDialogs": [
                624880306
            ],
            "talkRole": {
                "type": "TALK_ROLE_NPC",
                "id": "2488"
            },
            "talkContentTextMapHash": 3055069658,
            "talkAssetPath": "",
            "talkAssetPathAlter": "",
            "talkAudioName": "",
            "actionBefore": "",
            "actionWhile": "",
            "actionAfter": "",
            "optionIcon": ""
        },
        {
            "id": 624880306,
            "nextDialogs": [
                624880307
            ],
            "talkRole": {
                "type": "TALK_ROLE_NPC",
                "id": "2488"
            },
            "talkContentTextMapHash": 833631314,
            "talkAssetPath": "",
            "talkAssetPathAlter": "",
            "talkAudioName": "",
            "actionBefore": "",
            "actionWhile": "",
            "actionAfter": "",
            "optionIcon": ""
        },
        {
            "id": 624880307,
            "talkRole": {
                "type": "TALK_ROLE_NPC",
                "id": "2488"
            },
            "talkContentTextMapHash": 1031339282,
            "talkAssetPath": "",
            "talkAssetPathAlter": "",
            "talkAudioName": "",
            "actionBefore": "",
            "actionWhile": "",
            "actionAfter": "",
            "optionIcon": ""
        }
    ]
}