{
    "talkId": 6248201,
    "type": "FREE",
    "dialogList": [
        {
            "id": 624820101,
            "talkRole": {
                "type": "TALK_ROLE_NPC",
                "id": "2482"
            },
            "talkContentTextMapHash": 1752717874,
            "talkAssetPath": "",
            "talkAssetPathAlter": "",
            "talkAudioName": "",
            "actionBefore": "",
            "actionWhile": "SimpleTalk/LerpInNpcDailyTalk_Start",
            "actionAfter": "",
            "optionIcon": ""
        }
    ]
}