{
    "talkId": 6249603,
    "type": "FREE",
    "dialogList": [
        {
            "id": 624960301,
            "nextDialogs": [
                624960302
            ],
            "talkShowType": "TALK_SHOW_FORCE_SELECT",
            "talkRole": {
                "type": "TALK_ROLE_PLAYER",
                "id": ""
            },
            "talkContentTextMapHash": 1040512114,
            "talkAssetPath": "",
            "talkAssetPathAlter": "",
            "talkAudioName": "",
            "actionBefore": "",
            "actionWhile": "",
            "actionAfter": "",
            "optionIcon": ""
        },
        {
            "id": 624960302,
            "nextDialogs": [
                624960303
            ],
            "talkRole": {
                "type": "TALK_ROLE_NPC",
                "id": "2496"
            },
            "talkContentTextMapHash": 3186209858,
            "talkAssetPath": "",
            "talkAssetPathAlter": "",
            "talkAudioName": "",
            "actionBefore": "",
            "actionWhile": "SimpleTalk/RandomTalk",
            "actionAfter": "",
            "optionIcon": ""
        },
        {
            "id": 624960303,
            "nextDialogs": [
                624960304
            ],
            "talkRole": {
                "type": "TALK_ROLE_NPC",
                "id": "2496"
            },
            "talkContentTextMapHash": 435197586,
            "talkAssetPath": "",
            "talkAssetPathAlter": "",
            "talkAudioName": "",
            "actionBefore": "",
            "actionWhile": "",
            "actionAfter": "",
            "optionIcon": ""
        },
        {
            "id": 624960304,
            "talkRole": {
                "type": "TALK_ROLE_NPC",
                "id": "2496"
            },
            "talkContentTextMapHash": 996622466,
            "talkAssetPath": "",
            "talkAssetPathAlter": "",
            "talkAudioName": "",
            "actionBefore": "",
            "actionWhile": "SimpleTalk/RandomTalk",
            "actionAfter": "",
            "optionIcon": ""
        }
    ]
}