{
    "talkId": 6251302,
    "type": "FREE",
    "dialogList": [
        {
            "id": 625130201,
            "nextDialogs": [
                625130202
            ],
            "talkShowType": "TALK_SHOW_FORCE_SELECT",
            "talkRole": {
                "type": "TALK_ROLE_PLAYER",
                "id": ""
            },
            "talkContentTextMapHash": 550491042,
            "talkAssetPath": "",
            "talkAssetPathAlter": "",
            "talkAudioName": "",
            "actionBefore": "",
            "actionWhile": "",
            "actionAfter": "",
            "optionIcon": ""
        },
        {
            "id": 625130202,
            "talkRole": {
                "type": "TALK_ROLE_NPC",
                "id": "2513"
            },
            "talkContentTextMapHash": 954821018,
            "talkAssetPath": "",
            "talkAssetPathAlter": "",
            "talkAudioName": "",
            "actionBefore": "",
            "actionWhile": "",
            "actionAfter": "",
            "optionIcon": ""
        }
    ]
}