{
    "talkId": 6251001,
    "type": "FREE",
    "dialogList": [
        {
            "id": 625100101,
            "talkRole": {
                "type": "TALK_ROLE_NPC",
                "id": "2510"
            },
            "talkContentTextMapHash": 648277930,
            "talkAssetPath": "",
            "talkAssetPathAlter": "",
            "talkAudioName": "",
            "actionBefore": "",
            "actionWhile": "SimpleTalk/LerpInNpcNoSteer_Start",
            "actionAfter": "",
            "optionIcon": ""
        }
    ]
}