{
    "talkId": 6445705,
    "type": "FREE",
    "dialogList": [
        {
            "id": 644570501,
            "nextDialogs": [
                644570502
            ],
            "talkShowType": "TALK_SHOW_FORCE_SELECT",
            "talkRole": {
                "type": "TALK_ROLE_PLAYER",
                "id": ""
            },
            "talkContentTextMapHash": 3242134690,
            "talkAssetPath": "",
            "talkAssetPathAlter": "",
            "talkAudioName": "",
            "actionBefore": "",
            "actionWhile": "",
            "actionAfter": "",
            "optionIcon": ""
        },
        {
            "id": 644570502,
            "nextDialogs": [
                644570503
            ],
            "talkRole": {
                "type": "TALK_ROLE_NPC",
                "id": "4457"
            },
            "talkContentTextMapHash": 69168042,
            "talkAssetPath": "",
            "talkAssetPathAlter": "",
            "talkAudioName": "",
            "actionBefore": "",
            "actionWhile": "",
            "actionAfter": "",
            "optionIcon": ""
        },
        {
            "id": 644570503,
            "nextDialogs": [
                644570504
            ],
            "talkRole": {
                "type": "TALK_ROLE_NPC",
                "id": "4457"
            },
            "talkContentTextMapHash": 331901834,
            "talkAssetPath": "",
            "talkAssetPathAlter": "",
            "talkAudioName": "",
            "actionBefore": "",
            "actionWhile": "",
            "actionAfter": "",
            "optionIcon": ""
        },
        {
            "id": 644570504,
            "nextDialogs": [
                644570505
            ],
            "talkRole": {
                "type": "TALK_ROLE_NPC",
                "id": "4457"
            },
            "talkContentTextMapHash": 4002170754,
            "talkAssetPath": "",
            "talkAssetPathAlter": "",
            "talkAudioName": "",
            "actionBefore": "",
            "actionWhile": "",
            "actionAfter": "",
            "optionIcon": ""
        },
        {
            "id": 644570505,
            "talkRole": {
                "type": "TALK_ROLE_NPC",
                "id": "4457"
            },
            "talkContentTextMapHash": 1357026186,
            "talkAssetPath": "",
            "talkAssetPathAlter": "",
            "talkAudioName": "",
            "actionBefore": "",
            "actionWhile": "",
            "actionAfter": "",
            "optionIcon": ""
        }
    ]
}