{
    "talkId": 6500302,
    "type": "FREE",
    "dialogList": [
        {
            "id": 650030201,
            "nextDialogs": [
                650030202
            ],
            "talkShowType": "TALK_SHOW_FORCE_SELECT",
            "talkRole": {
                "type": "TALK_ROLE_PLAYER",
                "id": ""
            },
            "talkContentTextMapHash": 86751818,
            "talkAssetPath": "",
            "talkAssetPathAlter": "",
            "talkAudioName": "",
            "actionBefore": "",
            "actionWhile": "",
            "actionAfter": "SimpleTalk/SteerOnly",
            "optionIcon": ""
        },
        {
            "id": 650030202,
            "nextDialogs": [
                650030203
            ],
            "talkRole": {
                "type": "TALK_ROLE_NPC",
                "id": "5003"
            },
            "talkContentTextMapHash": 471226322,
            "talkAssetPath": "",
            "talkAssetPathAlter": "",
            "talkAudioName": "",
            "actionBefore": "",
            "actionWhile": "",
            "actionAfter": "",
            "optionIcon": ""
        },
        {
            "id": 650030203,
            "talkRole": {
                "type": "TALK_ROLE_NPC",
                "id": "5003"
            },
            "talkContentTextMapHash": 1809590762,
            "talkAssetPath": "",
            "talkAssetPathAlter": "",
            "talkAudioName": "",
            "actionBefore": "",
            "actionWhile": "SimpleTalk/RandomTalk",
            "actionAfter": "",
            "optionIcon": ""
        }
    ]
}