{
    "talkId": 6503004,
    "type": "FREE",
    "dialogList": [
        {
            "id": 650300401,
            "nextDialogs": [
                650300402
            ],
            "talkShowType": "TALK_SHOW_FORCE_SELECT",
            "talkRole": {
                "type": "TALK_ROLE_PLAYER",
                "id": ""
            },
            "talkContentTextMapHash": 3595344250,
            "talkAssetPath": "",
            "talkAssetPathAlter": "",
            "talkAudioName": "",
            "actionBefore": "",
            "actionWhile": "",
            "actionAfter": "",
            "optionIcon": ""
        },
        {
            "id": 650300402,
            "talkRole": {
                "type": "TALK_ROLE_NPC",
                "id": "5030"
            },
            "talkContentTextMapHash": 2475837562,
            "talkAssetPath": "",
            "talkAssetPathAlter": "",
            "talkAudioName": "",
            "actionBefore": "",
            "actionWhile": "",
            "actionAfter": "",
            "optionIcon": ""
        }
    ]
}