{
    "FEOACBMDCKJ": 6505606,
    "JNMCHAGDLOL": "FREE",
    "AAOAAFLLOJI": [
        {
            "CCFPGAKINNB": 650560601,
            "ICCDGHCECJG": "TALK_SHOW_FORCE_SELECT",
            "HJLEMJIGNFE": {
                "type": "TALK_ROLE_PLAYER",
                "id": ""
            },
            "BDOKCLNNDGN": 2485637970,
            "LBIALGEBDEF": "",
            "OHKKBEPEBKH": "",
            "AMNGMAPONHL": "",
            "IANGBGFBILD": "",
            "ADGDAEPIILL": "",
            "DGJCJLLDMON": "GCG/open_GcgLevelPage_Bigworld",
            "DOCDFJJIDNG": "UI_Icon_Intee_GcgZhanDou"
        }
    ]
}