{
    "talkId": 6507306,
    "type": "FREE",
    "dialogList": [
        {
            "id": 650730601,
            "nextDialogs": [
                650730602
            ],
            "talkShowType": "TALK_SHOW_FORCE_SELECT",
            "talkRole": {
                "type": "TALK_ROLE_PLAYER",
                "id": ""
            },
            "talkContentTextMapHash": 3492173778,
            "talkAssetPath": "",
            "talkAssetPathAlter": "",
            "talkAudioName": "",
            "actionBefore": "",
            "actionWhile": "",
            "actionAfter": "SimpleTalk/Standby",
            "optionIcon": ""
        },
        {
            "id": 650730602,
            "nextDialogs": [
                650730603
            ],
            "talkRole": {
                "type": "TALK_ROLE_NPC",
                "id": "5073"
            },
            "talkContentTextMapHash": 2664449058,
            "talkAssetPath": "",
            "talkAssetPathAlter": "",
            "talkAudioName": "",
            "actionBefore": "",
            "actionWhile": "TEST/LerpInNpc",
            "actionAfter": "",
            "optionIcon": ""
        },
        {
            "id": 650730603,
            "nextDialogs": [
                650730604
            ],
            "talkRole": {
                "type": "TALK_ROLE_NPC",
                "id": "5073"
            },
            "talkContentTextMapHash": 4024964594,
            "talkAssetPath": "",
            "talkAssetPathAlter": "",
            "talkAudioName": "",
            "actionBefore": "",
            "actionWhile": "",
            "actionAfter": "",
            "optionIcon": ""
        },
        {
            "id": 650730604,
            "nextDialogs": [
                650730605
            ],
            "talkRole": {
                "type": "TALK_ROLE_NPC",
                "id": "5073"
            },
            "talkContentTextMapHash": 883056922,
            "talkAssetPath": "",
            "talkAssetPathAlter": "",
            "talkAudioName": "",
            "actionBefore": "",
            "actionWhile": "",
            "actionAfter": "",
            "optionIcon": ""
        },
        {
            "id": 650730605,
            "talkRole": {
                "type": "TALK_ROLE_NPC",
                "id": "5073"
            },
            "talkContentTextMapHash": 2037054890,
            "talkAssetPath": "",
            "talkAssetPathAlter": "",
            "talkAudioName": "",
            "actionBefore": "",
            "actionWhile": "",
            "actionAfter": "",
            "optionIcon": ""
        }
    ]
}