{
    "talkId": 6508403,
    "type": "FREE",
    "dialogList": [
        {
            "id": 650840301,
            "nextDialogs": [
                650840302
            ],
            "talkShowType": "TALK_SHOW_FORCE_SELECT",
            "talkRole": {
                "type": "TALK_ROLE_PLAYER",
                "id": ""
            },
            "talkContentTextMapHash": 733807802,
            "talkAssetPath": "",
            "talkAssetPathAlter": "",
            "talkAudioName": "",
            "actionBefore": "",
            "actionWhile": "",
            "actionAfter": "",
            "optionIcon": ""
        },
        {
            "id": 650840302,
            "talkRole": {
                "type": "TALK_ROLE_NPC",
                "id": "5084"
            },
            "talkContentTextMapHash": 1618791298,
            "talkAssetPath": "",
            "talkAssetPathAlter": "",
            "talkAudioName": "",
            "actionBefore": "",
            "actionWhile": "",
            "actionAfter": "",
            "optionIcon": ""
        }
    ]
}