{
    "talkId": 6513503,
    "type": "FREE",
    "dialogList": [
        {
            "id": 651350301,
            "nextDialogs": [
                651350302
            ],
            "talkShowType": "TALK_SHOW_FORCE_SELECT",
            "talkRole": {
                "type": "TALK_ROLE_PLAYER",
                "id": ""
            },
            "talkContentTextMapHash": 2089926642,
            "talkAssetPath": "",
            "talkAssetPathAlter": "",
            "talkAudioName": "",
            "actionBefore": "",
            "actionWhile": "",
            "actionAfter": "",
            "optionIcon": ""
        },
        {
            "id": 651350302,
            "nextDialogs": [
                651350303
            ],
            "talkRole": {
                "type": "TALK_ROLE_NPC",
                "id": "5135"
            },
            "talkContentTextMapHash": 4136463306,
            "talkAssetPath": "",
            "talkAssetPathAlter": "",
            "talkAudioName": "",
            "actionBefore": "",
            "actionWhile": "",
            "actionAfter": "",
            "optionIcon": ""
        },
        {
            "id": 651350303,
            "nextDialogs": [
                651350304
            ],
            "talkRole": {
                "type": "TALK_ROLE_NPC",
                "id": "5135"
            },
            "talkContentTextMapHash": 907744282,
            "talkAssetPath": "",
            "talkAssetPathAlter": "",
            "talkAudioName": "",
            "actionBefore": "",
            "actionWhile": "",
            "actionAfter": "",
            "optionIcon": ""
        },
        {
            "id": 651350304,
            "nextDialogs": [
                651350305
            ],
            "talkRole": {
                "type": "TALK_ROLE_NPC",
                "id": "5135"
            },
            "talkContentTextMapHash": 2311237834,
            "talkAssetPath": "",
            "talkAssetPathAlter": "",
            "talkAudioName": "",
            "actionBefore": "",
            "actionWhile": "",
            "actionAfter": "",
            "optionIcon": ""
        },
        {
            "id": 651350305,
            "talkRole": {
                "type": "TALK_ROLE_NPC",
                "id": "5135"
            },
            "talkContentTextMapHash": 197273346,
            "talkAssetPath": "",
            "talkAssetPathAlter": "",
            "talkAudioName": "",
            "actionBefore": "",
            "actionWhile": "",
            "actionAfter": "",
            "optionIcon": ""
        }
    ]
}