{
    "talkId": 6520806,
    "type": "FREE",
    "dialogList": [
        {
            "id": 652080601,
            "nextDialogs": [
                652080602
            ],
            "talkShowType": "TALK_SHOW_FORCE_SELECT",
            "talkRole": {
                "type": "TALK_ROLE_PLAYER",
                "id": ""
            },
            "talkContentTextMapHash": 601447658,
            "talkAssetPath": "",
            "talkAssetPathAlter": "",
            "talkAudioName": "",
            "actionBefore": "",
            "actionWhile": "",
            "actionAfter": "",
            "optionIcon": ""
        },
        {
            "id": 652080602,
            "nextDialogs": [
                652080603
            ],
            "talkRole": {
                "type": "TALK_ROLE_NPC",
                "id": "5208"
            },
            "talkContentTextMapHash": 3743892346,
            "talkAssetPath": "",
            "talkAssetPathAlter": "",
            "talkAudioName": "",
            "actionBefore": "",
            "actionWhile": "",
            "actionAfter": "",
            "optionIcon": ""
        },
        {
            "id": 652080603,
            "talkRole": {
                "type": "TALK_ROLE_NPC",
                "id": "5208"
            },
            "talkContentTextMapHash": 3026756874,
            "talkAssetPath": "",
            "talkAssetPathAlter": "",
            "talkAudioName": "",
            "actionBefore": "",
            "actionWhile": "",
            "actionAfter": "",
            "optionIcon": ""
        }
    ]
}