{
    "talkId": 6520511,
    "type": "FREE",
    "dialogList": [
        {
            "id": 652051101,
            "nextDialogs": [
                652051102
            ],
            "talkShowType": "TALK_SHOW_FORCE_SELECT",
            "talkRole": {
                "type": "TALK_ROLE_PLAYER",
                "id": ""
            },
            "talkContentTextMapHash": 1648920730,
            "talkAssetPath": "",
            "talkAssetPathAlter": "",
            "talkAudioName": "",
            "actionBefore": "",
            "actionWhile": "",
            "actionAfter": "",
            "optionIcon": ""
        },
        {
            "id": 652051102,
            "talkRole": {
                "type": "TALK_ROLE_NPC",
                "id": "5205"
            },
            "talkContentTextMapHash": 2699646498,
            "talkAssetPath": "",
            "talkAssetPathAlter": "",
            "talkAudioName": "",
            "actionBefore": "",
            "actionWhile": "",
            "actionAfter": "",
            "optionIcon": ""
        }
    ]
}