{
    "talkId": 6521103,
    "type": "FREE",
    "dialogList": [
        {
            "id": 652110301,
            "nextDialogs": [
                652110302
            ],
            "talkShowType": "TALK_SHOW_FORCE_SELECT",
            "talkRole": {
                "type": "TALK_ROLE_PLAYER",
                "id": ""
            },
            "talkContentTextMapHash": 1853527610,
            "talkAssetPath": "",
            "talkAssetPathAlter": "",
            "talkAudioName": "",
            "actionBefore": "",
            "actionWhile": "",
            "actionAfter": "",
            "optionIcon": ""
        },
        {
            "id": 652110302,
            "talkRole": {
                "type": "TALK_ROLE_NPC",
                "id": "5211"
            },
            "talkContentTextMapHash": 694528738,
            "talkAssetPath": "",
            "talkAssetPathAlter": "",
            "talkAudioName": "",
            "actionBefore": "",
            "actionWhile": "",
            "actionAfter": "",
            "optionIcon": ""
        }
    ]
}