{
    "talkId": 6521011,
    "type": "FREE",
    "dialogList": [
        {
            "id": 652101101,
            "nextDialogs": [
                652101102
            ],
            "talkShowType": "TALK_SHOW_FORCE_SELECT",
            "talkRole": {
                "type": "TALK_ROLE_PLAYER",
                "id": ""
            },
            "talkContentTextMapHash": 613052354,
            "talkAssetPath": "",
            "talkAssetPathAlter": "",
            "talkAudioName": "",
            "actionBefore": "",
            "actionWhile": "",
            "actionAfter": "",
            "optionIcon": ""
        },
        {
            "id": 652101102,
            "nextDialogs": [
                652101103
            ],
            "talkRole": {
                "type": "TALK_ROLE_NPC",
                "id": "5210"
            },
            "talkContentTextMapHash": 15457186,
            "talkAssetPath": "",
            "talkAssetPathAlter": "",
            "talkAudioName": "",
            "actionBefore": "",
            "actionWhile": "",
            "actionAfter": "",
            "optionIcon": ""
        },
        {
            "id": 652101103,
            "talkRole": {
                "type": "TALK_ROLE_NPC",
                "id": "5210"
            },
            "talkContentTextMapHash": 3001044714,
            "talkAssetPath": "",
            "talkAssetPathAlter": "",
            "talkAudioName": "",
            "actionBefore": "",
            "actionWhile": "",
            "actionAfter": "",
            "optionIcon": ""
        }
    ]
}