{
    "talkId": 6523704,
    "type": "FREE",
    "dialogList": [
        {
            "id": 652370401,
            "talkRole": {
                "type": "TALK_ROLE_NPC",
                "id": "5237"
            },
            "talkContentTextMapHash": 26129586,
            "talkAssetPath": "",
            "talkAssetPathAlter": "",
            "talkAudioName": "",
            "actionBefore": "",
            "actionWhile": "SimpleTalk/RandomTalk_Start",
            "actionAfter": "",
            "optionIcon": ""
        }
    ]
}