{
    "talkId": 6525106,
    "type": "FREE",
    "dialogList": [
        {
            "id": 652510601,
            "nextDialogs": [
                652510602
            ],
            "talkShowType": "TALK_SHOW_FORCE_SELECT",
            "talkRole": {
                "type": "TALK_ROLE_PLAYER",
                "id": ""
            },
            "talkContentTextMapHash": 2110977610,
            "talkAssetPath": "",
            "talkAssetPathAlter": "",
            "talkAudioName": "",
            "actionBefore": "",
            "actionWhile": "",
            "actionAfter": "",
            "optionIcon": ""
        },
        {
            "id": 652510602,
            "nextDialogs": [
                652510603
            ],
            "talkRole": {
                "type": "TALK_ROLE_NPC",
                "id": "5251"
            },
            "talkContentTextMapHash": 3001235714,
            "talkAssetPath": "",
            "talkAssetPathAlter": "",
            "talkAudioName": "",
            "actionBefore": "",
            "actionWhile": "SimpleTalk/NodHead",
            "actionAfter": "",
            "optionIcon": ""
        },
        {
            "id": 652510603,
            "nextDialogs": [
                652510604
            ],
            "talkRole": {
                "type": "TALK_ROLE_NPC",
                "id": "5251"
            },
            "talkContentTextMapHash": 1016203442,
            "talkAssetPath": "",
            "talkAssetPathAlter": "",
            "talkAudioName": "",
            "actionBefore": "",
            "actionWhile": "SimpleTalk/RandomTalkHold",
            "actionAfter": "",
            "optionIcon": ""
        },
        {
            "id": 652510604,
            "talkRole": {
                "type": "TALK_ROLE_NPC",
                "id": "5251"
            },
            "talkContentTextMapHash": 2671814850,
            "talkAssetPath": "",
            "talkAssetPathAlter": "",
            "talkAudioName": "",
            "actionBefore": "",
            "actionWhile": "",
            "actionAfter": "SimpleTalk/Idle_End",
            "optionIcon": ""
        }
    ]
}