{
    "talkId": 6531901,
    "type": "FREE",
    "dialogList": [
        {
            "id": 653190101,
            "talkRole": {
                "type": "TALK_ROLE_NPC",
                "id": "5319"
            },
            "talkContentTextMapHash": 137174906,
            "talkAssetPath": "",
            "talkAssetPathAlter": "",
            "talkAudioName": "",
            "actionBefore": "",
            "actionWhile": "",
            "actionAfter": "",
            "optionIcon": ""
        }
    ]
}