{
    "talkId": 6908806,
    "type": "FREE",
    "dialogList": [
        {
            "id": 690880601,
            "nextDialogs": [
                690880602
            ],
            "talkShowType": "TALK_SHOW_FORCE_SELECT",
            "talkRole": {
                "type": "TALK_ROLE_PLAYER",
                "id": ""
            },
            "talkContentTextMapHash": 3744767514,
            "talkAssetPath": "",
            "talkAssetPathAlter": "",
            "talkAudioName": "",
            "actionBefore": "",
            "actionWhile": "",
            "actionAfter": "",
            "optionIcon": ""
        },
        {
            "id": 690880602,
            "nextDialogs": [
                690880603
            ],
            "talkRole": {
                "type": "TALK_ROLE_NPC",
                "id": "9088"
            },
            "talkContentTextMapHash": 1806327554,
            "talkAssetPath": "",
            "talkAssetPathAlter": "",
            "talkAudioName": "",
            "actionBefore": "",
            "actionWhile": "",
            "actionAfter": "",
            "optionIcon": ""
        },
        {
            "id": 690880603,
            "nextDialogs": [
                690880604
            ],
            "talkRole": {
                "type": "TALK_ROLE_NPC",
                "id": "9088"
            },
            "talkContentTextMapHash": 19182138,
            "talkAssetPath": "",
            "talkAssetPathAlter": "",
            "talkAudioName": "",
            "actionBefore": "",
            "actionWhile": "",
            "actionAfter": "",
            "optionIcon": ""
        },
        {
            "id": 690880604,
            "talkRole": {
                "type": "TALK_ROLE_NPC",
                "id": "9088"
            },
            "talkContentTextMapHash": 3704219306,
            "talkAssetPath": "",
            "talkAssetPathAlter": "",
            "talkAudioName": "",
            "actionBefore": "",
            "actionWhile": "",
            "actionAfter": "",
            "optionIcon": ""
        }
    ]
}