{
    "FEOACBMDCKJ": 6909010,
    "JNMCHAGDLOL": "FREE",
    "AAOAAFLLOJI": [
        {
            "CCFPGAKINNB": 690900301,
            "FNNPCGIAELE": [
                690900302
            ],
            "ICCDGHCECJG": "TALK_SHOW_FORCE_SELECT",
            "HJLEMJIGNFE": {
                "type": "TALK_ROLE_PLAYER",
                "id": ""
            },
            "BDOKCLNNDGN": 549515354,
            "LBIALGEBDEF": "",
            "OHKKBEPEBKH": "",
            "AMNGMAPONHL": "",
            "IANGBGFBILD": "",
            "ADGDAEPIILL": "",
            "DGJCJLLDMON": "",
            "DOCDFJJIDNG": ""
        },
        {
            "CCFPGAKINNB": 690900302,
            "FNNPCGIAELE": [
                690900303
            ],
            "HJLEMJIGNFE": {
                "type": "TALK_ROLE_NPC",
                "id": "9090"
            },
            "BDOKCLNNDGN": 2230854938,
            "LBIALGEBDEF": "",
            "OHKKBEPEBKH": "",
            "AMNGMAPONHL": "",
            "IANGBGFBILD": "",
            "ADGDAEPIILL": "",
            "DGJCJLLDMON": "",
            "DOCDFJJIDNG": ""
        },
        {
            "CCFPGAKINNB": 690900303,
            "FNNPCGIAELE": [
                690900304
            ],
            "HJLEMJIGNFE": {
                "type": "TALK_ROLE_NPC",
                "id": "9090"
            },
            "BDOKCLNNDGN": 2480077266,
            "LBIALGEBDEF": "",
            "OHKKBEPEBKH": "",
            "AMNGMAPONHL": "",
            "IANGBGFBILD": "",
            "ADGDAEPIILL": "",
            "DGJCJLLDMON": "",
            "DOCDFJJIDNG": ""
        },
        {
            "CCFPGAKINNB": 690900304,
            "FNNPCGIAELE": [
                690900305
            ],
            "HJLEMJIGNFE": {
                "type": "TALK_ROLE_NPC",
                "id": "9090"
            },
            "BDOKCLNNDGN": 3547526754,
            "LBIALGEBDEF": "",
            "OHKKBEPEBKH": "",
            "AMNGMAPONHL": "",
            "IANGBGFBILD": "",
            "ADGDAEPIILL": "",
            "DGJCJLLDMON": "",
            "DOCDFJJIDNG": ""
        },
        {
            "CCFPGAKINNB": 690900305,
            "FNNPCGIAELE": [
                690900306
            ],
            "HJLEMJIGNFE": {
                "type": "TALK_ROLE_NPC",
                "id": "9090"
            },
            "BDOKCLNNDGN": 3371930666,
            "LBIALGEBDEF": "",
            "OHKKBEPEBKH": "",
            "AMNGMAPONHL": "",
            "IANGBGFBILD": "",
            "ADGDAEPIILL": "",
            "DGJCJLLDMON": "",
            "DOCDFJJIDNG": ""
        },
        {
            "CCFPGAKINNB": 690900306,
            "FNNPCGIAELE": [
                690900307
            ],
            "HJLEMJIGNFE": {
                "type": "TALK_ROLE_NPC",
                "id": "9090"
            },
            "BDOKCLNNDGN": 3376329922,
            "LBIALGEBDEF": "",
            "OHKKBEPEBKH": "",
            "AMNGMAPONHL": "",
            "IANGBGFBILD": "",
            "ADGDAEPIILL": "",
            "DGJCJLLDMON": "",
            "DOCDFJJIDNG": ""
        },
        {
            "CCFPGAKINNB": 690900307,
            "FNNPCGIAELE": [
                690900308
            ],
            "HJLEMJIGNFE": {
                "type": "TALK_ROLE_NPC",
                "id": "9090"
            },
            "BDOKCLNNDGN": 3377654634,
            "LBIALGEBDEF": "",
            "OHKKBEPEBKH": "",
            "AMNGMAPONHL": "",
            "IANGBGFBILD": "",
            "ADGDAEPIILL": "",
            "DGJCJLLDMON": "",
            "DOCDFJJIDNG": ""
        },
        {
            "CCFPGAKINNB": 690900308,
            "FNNPCGIAELE": [
                690900309
            ],
            "ICCDGHCECJG": "TALK_SHOW_FORCE_SELECT",
            "HJLEMJIGNFE": {
                "type": "TALK_ROLE_PLAYER",
                "id": ""
            },
            "BDOKCLNNDGN": 3452824386,
            "LBIALGEBDEF": "",
            "OHKKBEPEBKH": "",
            "AMNGMAPONHL": "",
            "IANGBGFBILD": "",
            "ADGDAEPIILL": "",
            "DGJCJLLDMON": "",
            "DOCDFJJIDNG": ""
        },
        {
            "CCFPGAKINNB": 690900309,
            "FNNPCGIAELE": [
                690900310
            ],
            "HJLEMJIGNFE": {
                "type": "TALK_ROLE_NPC",
                "id": "9090"
            },
            "BDOKCLNNDGN": 1084060002,
            "LBIALGEBDEF": "",
            "OHKKBEPEBKH": "",
            "AMNGMAPONHL": "",
            "IANGBGFBILD": "",
            "ADGDAEPIILL": "",
            "DGJCJLLDMON": "",
            "DOCDFJJIDNG": ""
        },
        {
            "CCFPGAKINNB": 690900310,
            "FNNPCGIAELE": [
                690900311
            ],
            "HJLEMJIGNFE": {
                "type": "TALK_ROLE_NPC",
                "id": "9090"
            },
            "BDOKCLNNDGN": 2006946170,
            "LBIALGEBDEF": "",
            "OHKKBEPEBKH": "",
            "AMNGMAPONHL": "",
            "IANGBGFBILD": "",
            "ADGDAEPIILL": "",
            "DGJCJLLDMON": "",
            "DOCDFJJIDNG": ""
        },
        {
            "CCFPGAKINNB": 690900311,
            "FNNPCGIAELE": [
                690900312
            ],
            "HJLEMJIGNFE": {
                "type": "TALK_ROLE_NPC",
                "id": "9090"
            },
            "BDOKCLNNDGN": 3664254066,
            "LBIALGEBDEF": "",
            "OHKKBEPEBKH": "",
            "AMNGMAPONHL": "",
            "IANGBGFBILD": "",
            "ADGDAEPIILL": "",
            "DGJCJLLDMON": "",
            "DOCDFJJIDNG": ""
        },
        {
            "CCFPGAKINNB": 690900312,
            "FNNPCGIAELE": [
                690900313
            ],
            "HJLEMJIGNFE": {
                "type": "TALK_ROLE_NPC",
                "id": "9090"
            },
            "BDOKCLNNDGN": 3018767202,
            "LBIALGEBDEF": "",
            "OHKKBEPEBKH": "",
            "AMNGMAPONHL": "",
            "IANGBGFBILD": "",
            "ADGDAEPIILL": "",
            "DGJCJLLDMON": "",
            "DOCDFJJIDNG": ""
        },
        {
            "CCFPGAKINNB": 690900313,
            "FNNPCGIAELE": [
                690900314
            ],
            "HJLEMJIGNFE": {
                "type": "TALK_ROLE_NPC",
                "id": "9090"
            },
            "BDOKCLNNDGN": 2882267442,
            "LBIALGEBDEF": "",
            "OHKKBEPEBKH": "",
            "AMNGMAPONHL": "",
            "IANGBGFBILD": "",
            "ADGDAEPIILL": "",
            "DGJCJLLDMON": "",
            "DOCDFJJIDNG": ""
        },
        {
            "CCFPGAKINNB": 690900314,
            "FNNPCGIAELE": [
                690900315
            ],
            "HJLEMJIGNFE": {
                "type": "TALK_ROLE_NPC",
                "id": "9090"
            },
            "BDOKCLNNDGN": 1631970082,
            "LBIALGEBDEF": "",
            "OHKKBEPEBKH": "",
            "AMNGMAPONHL": "",
            "IANGBGFBILD": "",
            "ADGDAEPIILL": "",
            "DGJCJLLDMON": "",
            "DOCDFJJIDNG": ""
        },
        {
            "CCFPGAKINNB": 690900315,
            "FNNPCGIAELE": [
                690900316
            ],
            "ICCDGHCECJG": "TALK_SHOW_FORCE_SELECT",
            "HJLEMJIGNFE": {
                "type": "TALK_ROLE_PLAYER",
                "id": ""
            },
            "BDOKCLNNDGN": 2745820314,
            "LBIALGEBDEF": "",
            "OHKKBEPEBKH": "",
            "AMNGMAPONHL": "",
            "IANGBGFBILD": "",
            "ADGDAEPIILL": "",
            "DGJCJLLDMON": "",
            "DOCDFJJIDNG": ""
        },
        {
            "CCFPGAKINNB": 690900316,
            "FNNPCGIAELE": [
                690900317
            ],
            "HJLEMJIGNFE": {
                "type": "TALK_ROLE_NPC",
                "id": "9090"
            },
            "BDOKCLNNDGN": 2271316290,
            "LBIALGEBDEF": "",
            "OHKKBEPEBKH": "",
            "AMNGMAPONHL": "",
            "IANGBGFBILD": "",
            "ADGDAEPIILL": "",
            "DGJCJLLDMON": "",
            "DOCDFJJIDNG": ""
        },
        {
            "CCFPGAKINNB": 690900317,
            "FNNPCGIAELE": [
                690900318
            ],
            "HJLEMJIGNFE": {
                "type": "TALK_ROLE_NPC",
                "id": "9090"
            },
            "BDOKCLNNDGN": 1698982306,
            "LBIALGEBDEF": "",
            "OHKKBEPEBKH": "",
            "AMNGMAPONHL": "",
            "IANGBGFBILD": "",
            "ADGDAEPIILL": "",
            "DGJCJLLDMON": "",
            "DOCDFJJIDNG": ""
        },
        {
            "CCFPGAKINNB": 690900318,
            "FNNPCGIAELE": [
                690900319
            ],
            "ICCDGHCECJG": "TALK_SHOW_FORCE_SELECT",
            "HJLEMJIGNFE": {
                "type": "TALK_ROLE_PLAYER",
                "id": ""
            },
            "BDOKCLNNDGN": 2429812578,
            "LBIALGEBDEF": "",
            "OHKKBEPEBKH": "",
            "AMNGMAPONHL": "",
            "IANGBGFBILD": "",
            "ADGDAEPIILL": "",
            "DGJCJLLDMON": "",
            "DOCDFJJIDNG": ""
        },
        {
            "CCFPGAKINNB": 690900319,
            "FNNPCGIAELE": [
                690900320
            ],
            "HJLEMJIGNFE": {
                "type": "TALK_ROLE_NPC",
                "id": "9090"
            },
            "BDOKCLNNDGN": 1824952890,
            "LBIALGEBDEF": "",
            "OHKKBEPEBKH": "",
            "AMNGMAPONHL": "",
            "IANGBGFBILD": "",
            "ADGDAEPIILL": "",
            "DGJCJLLDMON": "",
            "DOCDFJJIDNG": ""
        },
        {
            "CCFPGAKINNB": 690900320,
            "FNNPCGIAELE": [
                690900321
            ],
            "HJLEMJIGNFE": {
                "type": "TALK_ROLE_NPC",
                "id": "9090"
            },
            "BDOKCLNNDGN": 2159507074,
            "LBIALGEBDEF": "",
            "OHKKBEPEBKH": "",
            "AMNGMAPONHL": "",
            "IANGBGFBILD": "",
            "ADGDAEPIILL": "",
            "DGJCJLLDMON": "",
            "DOCDFJJIDNG": ""
        },
        {
            "CCFPGAKINNB": 690900321,
            "FNNPCGIAELE": [
                690900322
            ],
            "HJLEMJIGNFE": {
                "type": "TALK_ROLE_NPC",
                "id": "9090"
            },
            "BDOKCLNNDGN": 2868947442,
            "LBIALGEBDEF": "",
            "OHKKBEPEBKH": "",
            "AMNGMAPONHL": "",
            "IANGBGFBILD": "",
            "ADGDAEPIILL": "",
            "DGJCJLLDMON": "",
            "DOCDFJJIDNG": ""
        },
        {
            "CCFPGAKINNB": 690900322,
            "HJLEMJIGNFE": {
                "type": "TALK_ROLE_NPC",
                "id": "9090"
            },
            "BDOKCLNNDGN": 2340866522,
            "LBIALGEBDEF": "",
            "OHKKBEPEBKH": "",
            "AMNGMAPONHL": "",
            "IANGBGFBILD": "",
            "ADGDAEPIILL": "",
            "DGJCJLLDMON": "",
            "DOCDFJJIDNG": ""
        }
    ]
}