{
    "talkId": 6954717,
    "type": "FREE",
    "dialogList": [
        {
            "id": 695471701,
            "talkRole": {
                "type": "TALK_ROLE_NPC",
                "id": "9547"
            },
            "talkContentTextMapHash": 3517786986,
            "talkAssetPath": "",
            "talkAssetPathAlter": "",
            "talkAudioName": "",
            "actionBefore": "",
            "actionWhile": "",
            "actionAfter": "",
            "optionIcon": ""
        }
    ]
}