{
    "talkId": 6954913,
    "type": "FREE",
    "dialogList": [
        {
            "id": 695491201,
            "talkRole": {
                "type": "TALK_ROLE_NPC",
                "id": "9549"
            },
            "talkContentTextMapHash": 1200609890,
            "talkAssetPath": "",
            "talkAssetPathAlter": "",
            "talkAudioName": "",
            "actionBefore": "",
            "actionWhile": "",
            "actionAfter": "",
            "optionIcon": ""
        }
    ]
}