{
    "talkId": 6954512,
    "type": "FREE",
    "dialogList": [
        {
            "id": 695451201,
            "talkRole": {
                "type": "TALK_ROLE_NPC",
                "id": "9545"
            },
            "talkContentTextMapHash": 2746488098,
            "talkAssetPath": "",
            "talkAssetPathAlter": "",
            "talkAudioName": "",
            "actionBefore": "",
            "actionWhile": "",
            "actionAfter": "",
            "optionIcon": ""
        }
    ]
}