{
    "talkId": 6955001,
    "type": "FREE",
    "dialogList": [
        {
            "id": 695500101,
            "talkRole": {
                "type": "TALK_ROLE_NPC",
                "id": "9550"
            },
            "talkContentTextMapHash": 360572338,
            "talkAssetPath": "",
            "talkAssetPathAlter": "",
            "talkAudioName": "",
            "actionBefore": "",
            "actionWhile": "",
            "actionAfter": "",
            "optionIcon": ""
        }
    ]
}