{
    "talkId": 6955911,
    "type": "FREE",
    "dialogList": [
        {
            "id": 695591101,
            "talkRole": {
                "type": "TALK_ROLE_NPC",
                "id": "9559"
            },
            "talkContentTextMapHash": 3905358274,
            "talkAssetPath": "",
            "talkAssetPathAlter": "",
            "talkAudioName": "",
            "actionBefore": "",
            "actionWhile": "",
            "actionAfter": "",
            "optionIcon": ""
        }
    ]
}