{
    "talkId": 6955108,
    "type": "FREE",
    "dialogList": [
        {
            "id": 695510801,
            "talkRole": {
                "type": "TALK_ROLE_PLAYER",
                "id": ""
            },
            "talkContentTextMapHash": 1239598402,
            "talkAssetPath": "",
            "talkAssetPathAlter": "",
            "talkAudioName": "",
            "actionBefore": "GCG/open_GcgLevelPage_Invitation",
            "actionWhile": "",
            "actionAfter": "",
            "optionIcon": "UI_Icon_Intee_GcgZhanDou"
        }
    ]
}