{
    "FEOACBMDCKJ": 6955311,
    "JNMCHAGDLOL": "FREE",
    "AAOAAFLLOJI": [
        {
            "CCFPGAKINNB": 695531101,
            "HJLEMJIGNFE": {
                "type": "TALK_ROLE_NPC",
                "id": "9553"
            },
            "BDOKCLNNDGN": 2710752338,
            "LBIALGEBDEF": "",
            "OHKKBEPEBKH": "",
            "AMNGMAPONHL": "",
            "IANGBGFBILD": "",
            "ADGDAEPIILL": "",
            "DGJCJLLDMON": "",
            "DOCDFJJIDNG": ""
        }
    ]
}