{
    "FEOACBMDCKJ": 6955402,
    "JNMCHAGDLOL": "FREE",
    "AAOAAFLLOJI": [
        {
            "CCFPGAKINNB": 695540201,
            "HJLEMJIGNFE": {
                "type": "TALK_ROLE_PLAYER",
                "id": ""
            },
            "BDOKCLNNDGN": 2147791290,
            "LBIALGEBDEF": "",
            "OHKKBEPEBKH": "",
            "AMNGMAPONHL": "",
            "IANGBGFBILD": "",
            "ADGDAEPIILL": "",
            "DGJCJLLDMON": "GCG/open_GcgLevelPage_CatBar",
            "DOCDFJJIDNG": "UI_Icon_Intee_GcgZhanDou"
        }
    ]
}