{
    "talkId": 7111401,
    "type": "FREE",
    "dialogList": [
        {
            "id": 711140101,
            "nextDialogs": [
                711140102
            ],
            "talkRole": {
                "type": "TALK_ROLE_NPC",
                "id": "2526"
            },
            "talkContentTextMapHash": 3388212642,
            "talkAssetPath": "",
            "talkAssetPathAlter": "",
            "talkAudioName": "",
            "actionBefore": "",
            "actionWhile": "",
            "actionAfter": "",
            "optionIcon": ""
        },
        {
            "id": 711140102,
            "nextDialogs": [
                711140103
            ],
            "talkRole": {
                "type": "TALK_ROLE_NPC",
                "id": "2526"
            },
            "talkContentTextMapHash": 70435138,
            "talkAssetPath": "",
            "talkAssetPathAlter": "",
            "talkAudioName": "",
            "actionBefore": "",
            "actionWhile": "",
            "actionAfter": "",
            "optionIcon": ""
        },
        {
            "id": 711140103,
            "nextDialogs": [
                711140104
            ],
            "talkShowType": "TALK_SHOW_FORCE_SELECT",
            "talkRole": {
                "type": "TALK_ROLE_PLAYER",
                "id": ""
            },
            "talkContentTextMapHash": 560021266,
            "talkAssetPath": "",
            "talkAssetPathAlter": "",
            "talkAudioName": "",
            "actionBefore": "",
            "actionWhile": "",
            "actionAfter": "",
            "optionIcon": ""
        },
        {
            "id": 711140104,
            "nextDialogs": [
                711140105
            ],
            "talkRole": {
                "type": "TALK_ROLE_NPC",
                "id": "2526"
            },
            "talkContentTextMapHash": 2437813106,
            "talkAssetPath": "",
            "talkAssetPathAlter": "",
            "talkAudioName": "",
            "actionBefore": "",
            "actionWhile": "",
            "actionAfter": "",
            "optionIcon": ""
        },
        {
            "id": 711140105,
            "nextDialogs": [
                711140106
            ],
            "talkRole": {
                "type": "TALK_ROLE_NPC",
                "id": "2526"
            },
            "talkContentTextMapHash": 3611198770,
            "talkAssetPath": "",
            "talkAssetPathAlter": "",
            "talkAudioName": "",
            "actionBefore": "",
            "actionWhile": "",
            "actionAfter": "",
            "optionIcon": ""
        },
        {
            "id": 711140106,
            "nextDialogs": [
                711140107
            ],
            "talkShowType": "TALK_SHOW_FORCE_SELECT",
            "talkRole": {
                "type": "TALK_ROLE_PLAYER",
                "id": ""
            },
            "talkContentTextMapHash": 2478591754,
            "talkAssetPath": "",
            "talkAssetPathAlter": "",
            "talkAudioName": "",
            "actionBefore": "",
            "actionWhile": "",
            "actionAfter": "",
            "optionIcon": ""
        },
        {
            "id": 711140107,
            "nextDialogs": [
                711140108
            ],
            "talkRole": {
                "type": "TALK_ROLE_NPC",
                "id": "2526"
            },
            "talkContentTextMapHash": 2602782570,
            "talkAssetPath": "",
            "talkAssetPathAlter": "",
            "talkAudioName": "",
            "actionBefore": "",
            "actionWhile": "",
            "actionAfter": "",
            "optionIcon": ""
        },
        {
            "id": 711140108,
            "nextDialogs": [
                711140109
            ],
            "talkRole": {
                "type": "TALK_ROLE_NPC",
                "id": "2526"
            },
            "talkContentTextMapHash": 2111090578,
            "talkAssetPath": "",
            "talkAssetPathAlter": "",
            "talkAudioName": "",
            "actionBefore": "",
            "actionWhile": "",
            "actionAfter": "",
            "optionIcon": ""
        },
        {
            "id": 711140109,
            "nextDialogs": [
                711140110
            ],
            "talkRole": {
                "type": "TALK_ROLE_NPC",
                "id": "1005"
            },
            "talkContentTextMapHash": 413516362,
            "talkAssetPath": "",
            "talkAssetPathAlter": "",
            "talkAudioName": "",
            "actionBefore": "",
            "actionWhile": "",
            "actionAfter": "",
            "optionIcon": ""
        },
        {
            "id": 711140110,
            "nextDialogs": [
                711140111
            ],
            "talkRole": {
                "type": "TALK_ROLE_NPC",
                "id": "2526"
            },
            "talkContentTextMapHash": 2219580474,
            "talkAssetPath": "",
            "talkAssetPathAlter": "",
            "talkAudioName": "",
            "actionBefore": "",
            "actionWhile": "",
            "actionAfter": "",
            "optionIcon": ""
        },
        {
            "id": 711140111,
            "nextDialogs": [
                711140112
            ],
            "talkRole": {
                "type": "TALK_ROLE_NPC",
                "id": "2526"
            },
            "talkContentTextMapHash": 1672041250,
            "talkAssetPath": "",
            "talkAssetPathAlter": "",
            "talkAudioName": "",
            "actionBefore": "",
            "actionWhile": "",
            "actionAfter": "",
            "optionIcon": ""
        },
        {
            "id": 711140112,
            "nextDialogs": [
                711140113
            ],
            "talkRole": {
                "type": "TALK_ROLE_NPC",
                "id": "2526"
            },
            "talkContentTextMapHash": 3031121530,
            "talkAssetPath": "",
            "talkAssetPathAlter": "",
            "talkAudioName": "",
            "actionBefore": "",
            "actionWhile": "",
            "actionAfter": "",
            "optionIcon": ""
        },
        {
            "id": 711140113,
            "nextDialogs": [
                711140114
            ],
            "talkShowType": "TALK_SHOW_FORCE_SELECT",
            "talkRole": {
                "type": "TALK_ROLE_PLAYER",
                "id": ""
            },
            "talkContentTextMapHash": 1611957962,
            "talkAssetPath": "",
            "talkAssetPathAlter": "",
            "talkAudioName": "",
            "actionBefore": "",
            "actionWhile": "",
            "actionAfter": "",
            "optionIcon": ""
        },
        {
            "id": 711140114,
            "nextDialogs": [
                711140115
            ],
            "talkRole": {
                "type": "TALK_ROLE_NPC",
                "id": "2526"
            },
            "talkContentTextMapHash": 1076026450,
            "talkAssetPath": "",
            "talkAssetPathAlter": "",
            "talkAudioName": "",
            "actionBefore": "",
            "actionWhile": "",
            "actionAfter": "",
            "optionIcon": ""
        },
        {
            "id": 711140115,
            "nextDialogs": [
                711140116
            ],
            "talkRole": {
                "type": "TALK_ROLE_NPC",
                "id": "2526"
            },
            "talkContentTextMapHash": 963999450,
            "talkAssetPath": "",
            "talkAssetPathAlter": "",
            "talkAudioName": "",
            "actionBefore": "",
            "actionWhile": "",
            "actionAfter": "",
            "optionIcon": ""
        },
        {
            "id": 711140116,
            "nextDialogs": [
                711140117,
                711140118
            ],
            "talkRole": {
                "type": "TALK_ROLE_NPC",
                "id": "2526"
            },
            "talkContentTextMapHash": 2190670866,
            "talkAssetPath": "",
            "talkAssetPathAlter": "",
            "talkAudioName": "",
            "actionBefore": "",
            "actionWhile": "",
            "actionAfter": "",
            "optionIcon": ""
        },
        {
            "id": 711140117,
            "nextDialogs": [
                711140119
            ],
            "talkShowType": "TALK_SHOW_FORCE_SELECT",
            "talkRole": {
                "type": "TALK_ROLE_PLAYER",
                "id": ""
            },
            "talkContentTextMapHash": 3872556938,
            "talkAssetPath": "",
            "talkAssetPathAlter": "",
            "talkAudioName": "",
            "actionBefore": "",
            "actionWhile": "",
            "actionAfter": "",
            "optionIcon": ""
        },
        {
            "id": 711140119,
            "nextDialogs": [
                711140120
            ],
            "talkRole": {
                "type": "TALK_ROLE_NPC",
                "id": "2526"
            },
            "talkContentTextMapHash": 1911230162,
            "talkAssetPath": "",
            "talkAssetPathAlter": "",
            "talkAudioName": "",
            "actionBefore": "",
            "actionWhile": "",
            "actionAfter": "",
            "optionIcon": ""
        },
        {
            "id": 711140120,
            "nextDialogs": [
                711140121,
                711140122
            ],
            "talkRole": {
                "type": "TALK_ROLE_NPC",
                "id": "2526"
            },
            "talkContentTextMapHash": 1187287834,
            "talkAssetPath": "",
            "talkAssetPathAlter": "",
            "talkAudioName": "",
            "actionBefore": "",
            "actionWhile": "",
            "actionAfter": "",
            "optionIcon": ""
        },
        {
            "id": 711140121,
            "nextDialogs": [
                711140123
            ],
            "talkShowType": "TALK_SHOW_FORCE_SELECT",
            "talkRole": {
                "type": "TALK_ROLE_PLAYER",
                "id": ""
            },
            "talkContentTextMapHash": 1823912482,
            "talkAssetPath": "",
            "talkAssetPathAlter": "",
            "talkAudioName": "",
            "actionBefore": "",
            "actionWhile": "",
            "actionAfter": "",
            "optionIcon": ""
        },
        {
            "id": 711140123,
            "nextDialogs": [
                711140124
            ],
            "talkRole": {
                "type": "TALK_ROLE_NPC",
                "id": "2526"
            },
            "talkContentTextMapHash": 654241202,
            "talkAssetPath": "",
            "talkAssetPathAlter": "",
            "talkAudioName": "",
            "actionBefore": "",
            "actionWhile": "",
            "actionAfter": "",
            "optionIcon": ""
        },
        {
            "id": 711140124,
            "talkRole": {
                "type": "TALK_ROLE_NPC",
                "id": "2526"
            },
            "talkContentTextMapHash": 1362355850,
            "talkAssetPath": "",
            "talkAssetPathAlter": "",
            "talkAudioName": "",
            "actionBefore": "",
            "actionWhile": "",
            "actionAfter": "",
            "optionIcon": ""
        },
        {
            "id": 711140122,
            "nextDialogs": [
                711140123
            ],
            "talkShowType": "TALK_SHOW_FORCE_SELECT",
            "talkRole": {
                "type": "TALK_ROLE_PLAYER",
                "id": ""
            },
            "talkContentTextMapHash": 853900978,
            "talkAssetPath": "",
            "talkAssetPathAlter": "",
            "talkAudioName": "",
            "actionBefore": "",
            "actionWhile": "",
            "actionAfter": "",
            "optionIcon": ""
        },
        {
            "id": 711140118,
            "nextDialogs": [
                711140119
            ],
            "talkShowType": "TALK_SHOW_FORCE_SELECT",
            "talkRole": {
                "type": "TALK_ROLE_NPC",
                "id": ""
            },
            "talkContentTextMapHash": 2687009618,
            "talkAssetPath": "",
            "talkAssetPathAlter": "",
            "talkAudioName": "",
            "actionBefore": "",
            "actionWhile": "",
            "actionAfter": "",
            "optionIcon": ""
        }
    ]
}