{
    "talkId": 7401414,
    "type": "FREE",
    "dialogList": [
        {
            "id": 740141401,
            "talkRole": {
                "type": "TALK_ROLE_NPC",
                "id": "5282"
            },
            "talkContentTextMapHash": 1921018050,
            "talkAssetPath": "",
            "talkAssetPathAlter": "",
            "talkAudioName": "",
            "actionBefore": "",
            "actionWhile": "",
            "actionAfter": "",
            "optionIcon": ""
        }
    ]
}