{
    "talkId": 7410115,
    "type": "FREE",
    "dialogList": [
        {
            "id": 741011501,
            "nextDialogs": [
                741011502
            ],
            "talkRole": {
                "type": "TALK_ROLE_PLAYER",
                "id": ""
            },
            "talkContentTextMapHash": 3632164578,
            "talkAssetPath": "",
            "talkAssetPathAlter": "",
            "talkAudioName": "",
            "actionBefore": "",
            "actionWhile": "",
            "actionAfter": "",
            "optionIcon": ""
        },
        {
            "id": 741011502,
            "talkRole": {
                "type": "TALK_ROLE_NPC",
                "id": "21147"
            },
            "talkContentTextMapHash": 3171296226,
            "talkRoleNameTextMapHash": 2741001131,
            "talkAssetPath": "",
            "talkAssetPathAlter": "",
            "talkAudioName": "",
            "actionBefore": "",
            "actionWhile": "",
            "actionAfter": "",
            "optionIcon": ""
        }
    ]
}