{
  "FEOACBMDCKJ": 6908911,
  "JNMCHAGDLOL": "FREE",
  "AAOAAFLLOJI": [
    {
      "CCFPGAKINNB": 690891101,
      "FNNPCGIAELE": [
        690891102
      ],
      "HJLEMJIGNFE": {
        "_type": "TALK_ROLE_NPC",
        "_id": "9089"
      },
      "BDOKCLNNDGN": 3147432602,
      "LBIALGEBDEF": "",
      "OHKKBEPEBKH": "",
      "AMNGMAPONHL": "",
      "IANGBGFBILD": "",
      "ADGDAEPIILL": "",
      "DGJCJLLDMON": "",
      "DOCDFJJIDNG": ""
    },
    {
      "CCFPGAKINNB": 690891102,
      "FNNPCGIAELE": [
        690891103
      ],
      "HJLEMJIGNFE": {
        "_type": "TALK_ROLE_NPC",
        "_id": "9089"
      },
      "BDOKCLNNDGN": 2481456402,
      "LBIALGEBDEF": "",
      "OHKKBEPEBKH": "",
      "AMNGMAPONHL": "",
      "IANGBGFBILD": "",
      "ADGDAEPIILL": "",
      "DGJCJLLDMON": "",
      "DOCDFJJIDNG": ""
    },
    {
      "CCFPGAKINNB": 690891103,
      "HJLEMJIGNFE": {
        "_type": "TALK_ROLE_NPC",
        "_id": "9089"
      },
      "BDOKCLNNDGN": 3871073522,
      "LBIALGEBDEF": "",
      "OHKKBEPEBKH": "",
      "AMNGMAPONHL": "",
      "IANGBGFBILD": "",
      "ADGDAEPIILL": "",
      "DGJCJLLDMON": "",
      "DOCDFJJIDNG": ""
    }
  ]
}