{
    "luaDataPath": "",
    "isSimpleTalk": true,
    "dontUseDefaultFinish": true,
    "startBlackKeepTime": 0.4000000059604645,
    "entityBan": "",
    "disableNpcLod": true,
    "startFade": {
        "startFadeInDuration": 0.30000001192092896,
        "startFadeOutDuration": 0.30000001192092896
    },
    "endFade": {
        "startFadeOutDuration": 0.0
    },
    "actors": [
        {
            "alias": "Avatar",
            "visible": true,
            "bornPointName": "",
            "relativePosNpcAlias": "",
            "bindMovingTargetKey": ""
        },
        {
            "configID": 203801,
            "alias": "203801",
            "visible": true,
            "bornPointName": "",
            "removeActorType": "REMOVE",
            "relativePosNpcAlias": "",
            "bindMovingTargetKey": ""
        }
    ],
    "group": [
        [
            {
                "$type": "MOOOKOKLLEI",
                "type": "CAMERA_FOCUS",
                "duration": 0.10000000149011612,
                "OMCCMPHDLOO": "",
                "OCFGGGHIKOO": "",
                "LJFHGGJDPHH": "",
                "LPKDFKLNEHL": ""
            },
            {
                "$type": "MoleMole.Config.ConfigTimeProtectAction",
                "type": "TIME_PROTECT",
                "duration": 0.10000000149011612
            },
            {
                "$type": "MoleMole.Config.ConfigMoveToAction",
                "type": "MOVE_TO",
                "aliasList": [
                    "Avatar"
                ],
                "routeList": [
                    {
                        "x": -684.2034301757812,
                        "y": 216.43609619140625,
                        "z": 93.74334716796875
                    }
                ],
                "bindMovingTargetKey": ""
            },
            {
                "$type": "OOMFCPJAJGL",
                "type": "STEER_TO",
                "delayTime": 0.10000000149011612,
                "duration": 0.10000000149011612,
                "aliasList": [
                    "Avatar"
                ],
                "DMGIIHNDNLC": "TO_TARGET",
                "PENAEBFAHCH": true,
                "CKOEAJFMDON": true,
                "OMCCMPHDLOO": "203801",
                "DBLNLMOPEBP": ""
            }
        ],
        [
            {
                "$type": "DLPFECMKEKH",
                "type": "DIALOG",
                "aliasList": [
                    "203801"
                ],
                "NMKEDPFEKBH": 413420501
            }
        ],
        [
            {
                "$type": "DLPFECMKEKH",
                "type": "DIALOG",
                "aliasList": [
                    "203801"
                ],
                "NMKEDPFEKBH": 413420502
            },
            {
                "$type": "ILCGAGEGDJI",
                "type": "BODY_LANG",
                "aliasList": [
                    "203801"
                ],
                "FLBOOPHHFJP": 1290,
                "PMJAMGLAJGK": true,
                "FNDLJGEAMGI": ""
            }
        ],
        [
            {
                "$type": "DLPFECMKEKH",
                "type": "DIALOG",
                "aliasList": [
                    "203801"
                ],
                "NMKEDPFEKBH": 413420503
            }
        ],
        [
            {
                "$type": "ECLBLHOENAG",
                "type": "DIALOG_SELECT",
                "delayTime": 0.4000000059604645,
                "aliasList": [
                    "Avatar"
                ],
                "NDMMOPDPKNF": [
                    413420505,
                    413420506
                ],
                "FPDBIEGHMCD": [
                    420523802,
                    420523802
                ],
                "PKBOIGBGDEG": true
            },
            {
                "$type": "DLPFECMKEKH",
                "type": "DIALOG",
                "aliasList": [
                    "203801"
                ],
                "NMKEDPFEKBH": 413420504
            },
            {
                "$type": "ILCGAGEGDJI",
                "type": "BODY_LANG",
                "aliasList": [
                    "203801"
                ],
                "FLBOOPHHFJP": 1171,
                "PMJAMGLAJGK": true,
                "FNDLJGEAMGI": ""
            }
        ],
        [
            {
                "$type": "DLPFECMKEKH",
                "type": "DIALOG",
                "aliasList": [
                    "203801"
                ],
                "NMKEDPFEKBH": 413420507
            }
        ],
        [
            {
                "$type": "DLPFECMKEKH",
                "type": "DIALOG",
                "aliasList": [
                    "203801"
                ],
                "NMKEDPFEKBH": 413420508
            }
        ],
        [
            {
                "$type": "DLPFECMKEKH",
                "type": "DIALOG",
                "aliasList": [
                    "203801"
                ],
                "NMKEDPFEKBH": 413420509
            }
        ],
        [
            {
                "$type": "MoleMole.Config.ConfigTimeProtectAction",
                "type": "TIME_PROTECT",
                "duration": 3.5999999046325684
            },
            {
                "$type": "MOOOKOKLLEI",
                "type": "CAMERA_MOVE",
                "delayTime": 3.5,
                "duration": 0.10000000149011612,
                "IPHEFBOANAL": "EXIT",
                "DGGAJKMNNKE": "Other",
                "AFODHELHCGB": 30.0,
                "MGMFMGNANHH": 6,
                "NDFGFJFGHKL": "EaseInOutCubic",
                "IBCBGNHCICN": {},
                "OMCCMPHDLOO": "",
                "OCFGGGHIKOO": "",
                "LJFHGGJDPHH": "",
                "LPKDFKLNEHL": ""
            },
            {
                "$type": "MoleMole.Config.ConfigSimpleBlackScreenAction",
                "type": "SIMPLE_BLACK_SCREEN",
                "delayTime": 3.0,
                "durationToBlack": 0.5,
                "durationKeepBlack": 1.0,
                "durationFromBlack": 0.5,
                "textMapID": ""
            },
            {
                "$type": "MoleMole.Config.ConfigMoveToAction",
                "type": "MOVE_TO",
                "duration": 3.5,
                "aliasList": [
                    "203801"
                ],
                "moveType": "WALK",
                "routeList": [
                    {
                        "x": -685.5092163085938,
                        "y": 216.43609619140625,
                        "z": 106.98674011230469
                    }
                ],
                "bindMovingTargetKey": ""
            },
            {
                "$type": "MoleMole.Config.ConfigVisibleInterAction",
                "type": "VISIBLE",
                "delayTime": 3.5,
                "duration": 0.10000000149011612,
                "aliasList": [
                    "203801"
                ],
                "extraParam": ""
            }
        ]
    ],
    "groupId": [
        {
            "grpId": 420523797,
            "nextGrpId": 420523798
        },
        {
            "index": 1,
            "grpId": 420523798,
            "nextGrpId": 420523799
        },
        {
            "index": 2,
            "grpId": 420523799,
            "nextGrpId": 420523800
        },
        {
            "index": 3,
            "grpId": 420523800,
            "nextGrpId": 420523801
        },
        {
            "index": 4,
            "grpId": 420523801,
            "nextGrpId": 420523802
        },
        {
            "index": 5,
            "grpId": 420523802,
            "nextGrpId": 420523803
        },
        {
            "index": 6,
            "grpId": 420523803,
            "nextGrpId": 420523804
        },
        {
            "index": 7,
            "grpId": 420523804,
            "nextGrpId": 420523805
        },
        {
            "index": 8,
            "grpId": 420523805,
            "nextGrpId": 151335867
        }
    ],
    "freeStyleDic": {
        "203801": [
            1290,
            1171
        ]
    }
}