{
    "luaDataPath": "",
    "startBlackKeepTime": 0.5,
    "entityBan": "",
    "disableNpcLod": true,
    "isAutoBanNpc": true,
    "isBanWidgetPet": true,
    "protectNpcMobileLod": true,
    "startFade": {
        "startFadeInDuration": 0.5,
        "startFadeOutDuration": 0.5
    },
    "endFade": {
        "startFadeOutDuration": 0.0
    },
    "actors": [
        {
            "alias": "Avatar",
            "visible": true,
            "bornPointName": "Q3007Day1MerchantBPlayer",
            "relativePosType": "AVATAR_NEW",
            "relativePosNpcAlias": "",
            "bindMovingTargetKey": ""
        },
        {
            "configID": 4018,
            "alias": "4018",
            "visible": true,
            "bornPointName": "Q3007Day1MerchantB",
            "forceCreateDaily": true,
            "relativePosType": "AVATAR_NEW",
            "relativePosNpcAlias": "",
            "bindMovingTargetKey": ""
        },
        {
            "configID": 1005,
            "alias": "1005",
            "visible": true,
            "bornPointName": "Q3007Day1MerchantBPaimon",
            "removeActorType": "REMOVE_WITH_DISAPPEAR",
            "relativePosType": "AVATAR_NEW",
            "relativePosNpcAlias": "",
            "bindMovingTargetKey": ""
        }
    ],
    "group": [
        [
            {
                "$type": "MoleMole.Config.ConfigBlackScreenAction",
                "type": "BLACK_SCREEN",
                "actionId": 174,
                "blackScreenType": "KEEP_BLACK",
                "durationKeepBlack": 1.0,
                "inteePos": "",
                "textMapID": "",
                "useTextFade": true
            },
            {
                "$type": "MoleMole.Config.ConfigTimeProtectAction",
                "type": "TIME_PROTECT",
                "duration": 1.0,
                "actionId": 175
            },
            {
                "$type": "MoleMole.Config.ConfigTeleportToAction",
                "type": "TELEPORT_TO",
                "aliasList": [
                    "Avatar"
                ],
                "actionId": 148,
                "position": {
                    "x": -428.88299560546875,
                    "y": 236.3260040283203,
                    "z": 2745.3798828125
                },
                "forward": {
                    "x": 1.0870000123977661,
                    "z": 0.19699999690055847
                },
                "openLongDisTeleport": true,
                "posBindMovingTargetKey": "",
                "forwardBindMovingTargetKey": ""
            },
            {
                "$type": "EAMBKPBOPIC",
                "type": "LOOK_AT",
                "aliasList": [
                    "Avatar"
                ],
                "actionId": 151,
                "FIDJDPAIFDN": true,
                "useTargetPos": true,
                "GFKIMGBGADJ": true,
                "GMKIJKADNHN": {
                    "x": -426.07598876953125,
                    "y": 238.0290069580078,
                    "z": 2745.958984375
                },
                "BCHGCKLKNEH": 0.5,
                "OMCCMPHDLOO": "",
                "CEBMBGKJACI": "NONE",
                "EOHIIHMKDJC": true,
                "KPCALFDIHMC": "",
                "DBLNLMOPEBP": ""
            },
            {
                "$type": "MoleMole.Config.ConfigTeleportToAction",
                "type": "TELEPORT_TO",
                "aliasList": [
                    "4018"
                ],
                "actionId": 149,
                "position": {
                    "x": -426.0190124511719,
                    "y": 236.3260040283203,
                    "z": 2745.9970703125
                },
                "forward": {
                    "x": -0.8259999752044678,
                    "z": -0.5640000104904175
                },
                "openLongDisTeleport": true,
                "posBindMovingTargetKey": "",
                "forwardBindMovingTargetKey": ""
            },
            {
                "$type": "EAMBKPBOPIC",
                "type": "LOOK_AT",
                "aliasList": [
                    "4018"
                ],
                "actionId": 154,
                "BCHGCKLKNEH": 0.5,
                "OMCCMPHDLOO": "",
                "EOHIIHMKDJC": true,
                "KPCALFDIHMC": "",
                "DBLNLMOPEBP": ""
            },
            {
                "$type": "MoleMole.Config.ConfigTeleportToAction",
                "type": "TELEPORT_TO",
                "aliasList": [
                    "1005"
                ],
                "actionId": 150,
                "position": {
                    "x": -428.4360046386719,
                    "y": 236.3260040283203,
                    "z": 2744.261962890625
                },
                "forward": {
                    "x": 0.9660000205039978,
                    "z": 0.6489999890327454
                },
                "openLongDisTeleport": true,
                "posBindMovingTargetKey": "",
                "forwardBindMovingTargetKey": ""
            },
            {
                "$type": "EAMBKPBOPIC",
                "type": "LOOK_AT",
                "aliasList": [
                    "1005"
                ],
                "actionId": 153,
                "FIDJDPAIFDN": true,
                "useTargetPos": true,
                "GFKIMGBGADJ": true,
                "GMKIJKADNHN": {
                    "x": -426.07598876953125,
                    "y": 238.0290069580078,
                    "z": 2745.958984375
                },
                "BCHGCKLKNEH": 0.5,
                "OMCCMPHDLOO": "",
                "CEBMBGKJACI": "NONE",
                "EOHIIHMKDJC": true,
                "KPCALFDIHMC": "",
                "DBLNLMOPEBP": ""
            }
        ],
        [
            {
                "$type": "MoleMole.Config.ConfigBlackScreenAction",
                "type": "BLACK_SCREEN",
                "actionId": 173,
                "blackScreenType": "FROM_BLACK",
                "durationFromBlack": 0.5,
                "inteePos": "",
                "textMapID": "",
                "useTextFade": true
            },
            {
                "$type": "MOOOKOKLLEI",
                "type": "CAMERA_MOVE",
                "duration": 1.0,
                "actionId": 284,
                "DOKGBCKOLJK": {
                    "x": -430.489990234375,
                    "y": 237.37899780273438,
                    "z": 2743.8310546875
                },
                "HGKCPMDICGG": {
                    "x": -429.6059875488281,
                    "y": 237.44700622558594,
                    "z": 2744.29296875
                },
                "AFODHELHCGB": 25.0,
                "MGMFMGNANHH": 6,
                "NDFGFJFGHKL": "EaseInOutCubic",
                "IBCBGNHCICN": {},
                "BNBBLLBEIDL": true,
                "HCPFCAHMGMO": false,
                "OMCCMPHDLOO": "",
                "FEFNBKOHPOG": true,
                "OCFGGGHIKOO": "",
                "LJFHGGJDPHH": "",
                "LPKDFKLNEHL": ""
            },
            {
                "$type": "DLPFECMKEKH",
                "type": "DIALOG",
                "aliasList": [
                    "4018"
                ],
                "NMKEDPFEKBH": 30090601,
                "JLCHMAJCAPA": 2.4230000972747803
            },
            {
                "$type": "EAMBKPBOPIC",
                "type": "LOOK_AT",
                "aliasList": [
                    "4018"
                ],
                "actionId": 155,
                "FIDJDPAIFDN": true,
                "useTargetPos": true,
                "GFKIMGBGADJ": true,
                "GMKIJKADNHN": {
                    "x": -428.40399169921875,
                    "y": 237.74600219726562,
                    "z": 2744.287109375
                },
                "BCHGCKLKNEH": 0.5,
                "OMCCMPHDLOO": "",
                "CEBMBGKJACI": "NONE",
                "EOHIIHMKDJC": true,
                "KPCALFDIHMC": "",
                "DBLNLMOPEBP": ""
            },
            {
                "$type": "ILCGAGEGDJI",
                "type": "BODY_LANG",
                "aliasList": [
                    "4018"
                ],
                "actionId": 157,
                "FLBOOPHHFJP": 1200,
                "PMJAMGLAJGK": true,
                "LIMPPBIAKGL": false,
                "FNEGLPPEBBF": true,
                "FNDLJGEAMGI": ""
            },
            {
                "$type": "OPCCDGPJCJI",
                "type": "EMO_SYNC",
                "aliasList": [
                    "4018"
                ],
                "IONNJBCBACJ": "Cs_Emo_Avatar_Simple_Common_Set/Cs_Emo_Avatar_Talk/Cs_Emo_Avatar_MainLine/Cs_Emo_Avatar_Sumeru1/Cs_Emo_30090601",
                "HLEJKBCMNNJ": "",
                "JGHLJJLNGPP": "",
                "MANNKIIBOFM": "",
                "COMNAAFDEDH": "",
                "CPGCCLNOCDK": "",
                "HINHCFHAMDI": false,
                "IGEFGCJKCPM": [
                    5282324379950033772,
                    9574084828277814183,
                    5339341596867805274,
                    12422082554571283617
                ]
            },
            {
                "$type": "MOOOKOKLLEI",
                "type": "CAMERA_MOVE",
                "delayTime": 0.10000000149011612,
                "duration": 8.621000289916992,
                "actionId": 172,
                "DOKGBCKOLJK": {
                    "x": -431.05499267578125,
                    "y": 237.3350067138672,
                    "z": 2743.534912109375
                },
                "HGKCPMDICGG": {
                    "x": -430.1709899902344,
                    "y": 237.4029998779297,
                    "z": 2743.9970703125
                },
                "AFODHELHCGB": 25.0,
                "NDFGFJFGHKL": "EaseOutQuad",
                "IBCBGNHCICN": {},
                "BNBBLLBEIDL": true,
                "HCPFCAHMGMO": false,
                "OMCCMPHDLOO": "",
                "FEFNBKOHPOG": true,
                "OCFGGGHIKOO": "",
                "LJFHGGJDPHH": "",
                "LPKDFKLNEHL": ""
            },
            {
                "$type": "ECLBLHOENAG",
                "type": "DIALOG_SELECT",
                "delayTime": 2.4230000972747803,
                "aliasList": [
                    "Avatar"
                ],
                "NDMMOPDPKNF": [
                    30090602,
                    30090603
                ],
                "FPDBIEGHMCD": [
                    1113105450,
                    1113105450
                ],
                "PKBOIGBGDEG": true
            },
            {
                "$type": "ILCGAGEGDJI",
                "type": "BODY_LANG",
                "delayTime": 2.611999988555908,
                "aliasList": [
                    "4018"
                ],
                "actionId": 158,
                "FLBOOPHHFJP": 1120,
                "PMJAMGLAJGK": true,
                "LIMPPBIAKGL": false,
                "FNEGLPPEBBF": true,
                "FNDLJGEAMGI": ""
            },
            {
                "$type": "EAMBKPBOPIC",
                "type": "LOOK_AT",
                "delayTime": 2.6700000762939453,
                "aliasList": [
                    "4018"
                ],
                "actionId": 156,
                "FIDJDPAIFDN": true,
                "useTargetPos": true,
                "GFKIMGBGADJ": true,
                "GMKIJKADNHN": {
                    "x": -428.89599609375,
                    "y": 237.71299743652344,
                    "z": 2745.431884765625
                },
                "BCHGCKLKNEH": 0.5,
                "OMCCMPHDLOO": "",
                "CEBMBGKJACI": "NONE",
                "EOHIIHMKDJC": true,
                "KPCALFDIHMC": "",
                "DBLNLMOPEBP": ""
            },
            {
                "$type": "ILCGAGEGDJI",
                "type": "BODY_LANG",
                "delayTime": 3.0230000019073486,
                "aliasList": [
                    "Avatar"
                ],
                "actionId": 181,
                "FLBOOPHHFJP": 1130,
                "PMJAMGLAJGK": true,
                "LIMPPBIAKGL": false,
                "FNEGLPPEBBF": true,
                "FNDLJGEAMGI": ""
            }
        ],
        [
            {
                "$type": "MOOOKOKLLEI",
                "type": "CAMERA_MOVE",
                "duration": 1.0,
                "actionId": 177,
                "DOKGBCKOLJK": {
                    "x": -427.4200134277344,
                    "y": 237.87100219726562,
                    "z": 2745.593994140625
                },
                "HGKCPMDICGG": {
                    "x": -426.4599914550781,
                    "y": 237.927001953125,
                    "z": 2745.867919921875
                },
                "AFODHELHCGB": 20.0,
                "MGMFMGNANHH": 6,
                "NDFGFJFGHKL": "EaseInOutCubic",
                "IBCBGNHCICN": {},
                "BNBBLLBEIDL": true,
                "HCPFCAHMGMO": false,
                "OMCCMPHDLOO": "",
                "FEFNBKOHPOG": true,
                "OCFGGGHIKOO": "",
                "LJFHGGJDPHH": "",
                "LPKDFKLNEHL": ""
            },
            {
                "$type": "ILCGAGEGDJI",
                "type": "BODY_LANG",
                "aliasList": [
                    "Avatar"
                ],
                "actionId": 180,
                "JLABKFNJCNP": true,
                "PMJAMGLAJGK": true,
                "LIMPPBIAKGL": false,
                "FNEGLPPEBBF": true,
                "FNDLJGEAMGI": ""
            },
            {
                "$type": "DLPFECMKEKH",
                "type": "DIALOG",
                "aliasList": [
                    "4018"
                ],
                "NMKEDPFEKBH": 30090604,
                "JLCHMAJCAPA": 0.5
            },
            {
                "$type": "ILCGAGEGDJI",
                "type": "BODY_LANG",
                "aliasList": [
                    "4018"
                ],
                "actionId": 159,
                "FLBOOPHHFJP": 4030,
                "PMJAMGLAJGK": true,
                "LIMPPBIAKGL": false,
                "FNEGLPPEBBF": true,
                "FNDLJGEAMGI": ""
            },
            {
                "$type": "OPCCDGPJCJI",
                "type": "EMO_SYNC",
                "aliasList": [
                    "4018"
                ],
                "IONNJBCBACJ": "Cs_Emo_Avatar_Simple_Common_Set/Cs_Emo_Avatar_Talk/Cs_Emo_Avatar_MainLine/Cs_Emo_Avatar_Sumeru1/Cs_Emo_30090604",
                "HLEJKBCMNNJ": "",
                "JGHLJJLNGPP": "",
                "MANNKIIBOFM": "",
                "COMNAAFDEDH": "",
                "CPGCCLNOCDK": "",
                "HINHCFHAMDI": false,
                "IGEFGCJKCPM": [
                    2755605908394600938,
                    13325347708591199672,
                    16894354507284254846,
                    9159707096614361819
                ]
            },
            {
                "$type": "ILCGAGEGDJI",
                "type": "BODY_LANG",
                "delayTime": 2.2660000324249268,
                "aliasList": [
                    "4018"
                ],
                "actionId": 160,
                "FLBOOPHHFJP": 1121,
                "PMJAMGLAJGK": true,
                "LIMPPBIAKGL": false,
                "FNEGLPPEBBF": true,
                "FNDLJGEAMGI": ""
            },
            {
                "$type": "ILCGAGEGDJI",
                "type": "BODY_LANG",
                "delayTime": 5.61899995803833,
                "aliasList": [
                    "4018"
                ],
                "actionId": 161,
                "JLABKFNJCNP": true,
                "PMJAMGLAJGK": true,
                "LIMPPBIAKGL": false,
                "FNEGLPPEBBF": true,
                "FNDLJGEAMGI": ""
            },
            {
                "$type": "ILCGAGEGDJI",
                "type": "BODY_LANG",
                "delayTime": 6.23199987411499,
                "aliasList": [
                    "4018"
                ],
                "actionId": 162,
                "FLBOOPHHFJP": 4030,
                "PMJAMGLAJGK": true,
                "LIMPPBIAKGL": false,
                "FNEGLPPEBBF": true,
                "FNDLJGEAMGI": ""
            }
        ],
        [
            {
                "$type": "MOOOKOKLLEI",
                "type": "CAMERA_MOVE",
                "duration": 1.0,
                "actionId": 182,
                "DOKGBCKOLJK": {
                    "x": -428.27398681640625,
                    "y": 237.7760009765625,
                    "z": 2747.18994140625
                },
                "HGKCPMDICGG": {
                    "x": -428.4219970703125,
                    "y": 237.677001953125,
                    "z": 2746.2060546875
                },
                "AFODHELHCGB": 20.0,
                "MGMFMGNANHH": 6,
                "NDFGFJFGHKL": "EaseInOutCubic",
                "IBCBGNHCICN": {},
                "BNBBLLBEIDL": true,
                "HCPFCAHMGMO": false,
                "OMCCMPHDLOO": "",
                "FEFNBKOHPOG": true,
                "OCFGGGHIKOO": "",
                "LJFHGGJDPHH": "",
                "LPKDFKLNEHL": ""
            },
            {
                "$type": "ILCGAGEGDJI",
                "type": "BODY_LANG",
                "aliasList": [
                    "4018"
                ],
                "actionId": 166,
                "JLABKFNJCNP": true,
                "PMJAMGLAJGK": true,
                "LIMPPBIAKGL": false,
                "FNEGLPPEBBF": true,
                "FNDLJGEAMGI": ""
            },
            {
                "$type": "DLPFECMKEKH",
                "type": "DIALOG",
                "aliasList": [
                    "1005"
                ],
                "NMKEDPFEKBH": 30090605,
                "JLCHMAJCAPA": 0.5
            },
            {
                "$type": "ILCGAGEGDJI",
                "type": "BODY_LANG",
                "aliasList": [
                    "1005"
                ],
                "actionId": 163,
                "FLBOOPHHFJP": 1230,
                "PMJAMGLAJGK": true,
                "LIMPPBIAKGL": false,
                "FNEGLPPEBBF": true,
                "FNDLJGEAMGI": ""
            },
            {
                "$type": "OPCCDGPJCJI",
                "type": "EMO_SYNC",
                "aliasList": [
                    "1005"
                ],
                "IONNJBCBACJ": "Cs_Emo_Avatar_Simple_Common_Set/Cs_Emo_Avatar_Talk/Cs_Emo_Avatar_MainLine/Cs_Emo_Avatar_Sumeru1/Cs_Emo_30090605",
                "HLEJKBCMNNJ": "",
                "JGHLJJLNGPP": "",
                "MANNKIIBOFM": "",
                "COMNAAFDEDH": "",
                "CPGCCLNOCDK": "",
                "IGEFGCJKCPM": [
                    14682578004431189621,
                    5067872572351364588,
                    11555876520561598205,
                    17115156116505833337
                ]
            },
            {
                "$type": "ILCGAGEGDJI",
                "type": "BODY_LANG",
                "delayTime": 0.3790000081062317,
                "aliasList": [
                    "4018"
                ],
                "actionId": 168,
                "JLABKFNJCNP": true,
                "PMJAMGLAJGK": true,
                "LIMPPBIAKGL": false,
                "FNEGLPPEBBF": true,
                "FNDLJGEAMGI": ""
            },
            {
                "$type": "ILCGAGEGDJI",
                "type": "BODY_LANG",
                "delayTime": 2.244999885559082,
                "aliasList": [
                    "1005"
                ],
                "actionId": 164,
                "FLBOOPHHFJP": 1170,
                "PMJAMGLAJGK": true,
                "LIMPPBIAKGL": false,
                "FNEGLPPEBBF": true,
                "FNDLJGEAMGI": ""
            },
            {
                "$type": "ILCGAGEGDJI",
                "type": "BODY_LANG",
                "delayTime": 5.044000148773193,
                "aliasList": [
                    "1005"
                ],
                "actionId": 165,
                "JLABKFNJCNP": true,
                "PMJAMGLAJGK": true,
                "LIMPPBIAKGL": false,
                "FNEGLPPEBBF": true,
                "FNDLJGEAMGI": ""
            }
        ],
        [
            {
                "$type": "MOOOKOKLLEI",
                "type": "CAMERA_MOVE",
                "duration": 1.0,
                "actionId": 183,
                "DOKGBCKOLJK": {
                    "x": -439.4330139160156,
                    "y": 238.37100219726562,
                    "z": 2752.239990234375
                },
                "HGKCPMDICGG": {
                    "x": -438.6029968261719,
                    "y": 238.26600646972656,
                    "z": 2751.69189453125
                },
                "AFODHELHCGB": 20.0,
                "MGMFMGNANHH": 6,
                "NDFGFJFGHKL": "EaseInOutCubic",
                "IBCBGNHCICN": {},
                "BNBBLLBEIDL": true,
                "HCPFCAHMGMO": false,
                "OMCCMPHDLOO": "",
                "FEFNBKOHPOG": true,
                "OCFGGGHIKOO": "",
                "LJFHGGJDPHH": "",
                "LPKDFKLNEHL": ""
            },
            {
                "$type": "DLPFECMKEKH",
                "type": "DIALOG",
                "aliasList": [
                    "4018"
                ],
                "NMKEDPFEKBH": 30090606,
                "JLCHMAJCAPA": 0.5
            },
            {
                "$type": "ILCGAGEGDJI",
                "type": "BODY_LANG",
                "aliasList": [
                    "4018"
                ],
                "actionId": 167,
                "FLBOOPHHFJP": 1050,
                "PMJAMGLAJGK": true,
                "LIMPPBIAKGL": false,
                "FNEGLPPEBBF": true,
                "FNDLJGEAMGI": ""
            },
            {
                "$type": "OPCCDGPJCJI",
                "type": "EMO_SYNC",
                "aliasList": [
                    "4018"
                ],
                "IONNJBCBACJ": "Cs_Emo_Avatar_Simple_Common_Set/Cs_Emo_Avatar_Talk/Cs_Emo_Avatar_MainLine/Cs_Emo_Avatar_Sumeru1/Cs_Emo_30090606",
                "HLEJKBCMNNJ": "",
                "JGHLJJLNGPP": "",
                "MANNKIIBOFM": "",
                "COMNAAFDEDH": "",
                "CPGCCLNOCDK": "",
                "IGEFGCJKCPM": [
                    10568009308821712780,
                    15893830544932999073,
                    11638133772062080332,
                    1615551877296781719
                ]
            },
            {
                "$type": "ILCGAGEGDJI",
                "type": "BODY_LANG",
                "delayTime": 0.05400000140070915,
                "aliasList": [
                    "1005"
                ],
                "actionId": 190,
                "JLABKFNJCNP": true,
                "PMJAMGLAJGK": true,
                "LIMPPBIAKGL": false,
                "FNEGLPPEBBF": true,
                "FNDLJGEAMGI": ""
            },
            {
                "$type": "MOOOKOKLLEI",
                "type": "CAMERA_MOVE",
                "delayTime": 0.10000000149011612,
                "duration": 8.324999809265137,
                "actionId": 274,
                "DOKGBCKOLJK": {
                    "x": -439.3970031738281,
                    "y": 238.63099670410156,
                    "z": 2752.2451171875
                },
                "HGKCPMDICGG": {
                    "x": -438.5669860839844,
                    "y": 238.5260009765625,
                    "z": 2751.697998046875
                },
                "AFODHELHCGB": 20.0,
                "NDFGFJFGHKL": "EaseOutQuad",
                "IBCBGNHCICN": {},
                "HCPFCAHMGMO": false,
                "OMCCMPHDLOO": "",
                "FEFNBKOHPOG": true,
                "OCFGGGHIKOO": "",
                "LJFHGGJDPHH": "",
                "LPKDFKLNEHL": ""
            },
            {
                "$type": "ILCGAGEGDJI",
                "type": "BODY_LANG",
                "delayTime": 2.566999912261963,
                "aliasList": [
                    "4018"
                ],
                "actionId": 169,
                "JLABKFNJCNP": true,
                "PMJAMGLAJGK": true,
                "LIMPPBIAKGL": false,
                "FNEGLPPEBBF": true,
                "FNDLJGEAMGI": ""
            },
            {
                "$type": "ILCGAGEGDJI",
                "type": "BODY_LANG",
                "delayTime": 3.6459999084472656,
                "aliasList": [
                    "4018"
                ],
                "actionId": 170,
                "FLBOOPHHFJP": 1110,
                "PMJAMGLAJGK": true,
                "LIMPPBIAKGL": false,
                "FNEGLPPEBBF": true,
                "FNDLJGEAMGI": ""
            },
            {
                "$type": "ILCGAGEGDJI",
                "type": "BODY_LANG",
                "delayTime": 5.833000183105469,
                "aliasList": [
                    "4018"
                ],
                "actionId": 171,
                "JLABKFNJCNP": true,
                "PMJAMGLAJGK": true,
                "LIMPPBIAKGL": false,
                "FNEGLPPEBBF": true,
                "FNDLJGEAMGI": ""
            }
        ],
        [
            {
                "$type": "MOOOKOKLLEI",
                "type": "CAMERA_MOVE",
                "duration": 1.0,
                "actionId": 184,
                "DOKGBCKOLJK": {
                    "x": -427.9010009765625,
                    "y": 237.79200744628906,
                    "z": 2747.39697265625
                },
                "HGKCPMDICGG": {
                    "x": -428.2120056152344,
                    "y": 237.70799255371094,
                    "z": 2746.449951171875
                },
                "AFODHELHCGB": 20.0,
                "MGMFMGNANHH": 6,
                "NDFGFJFGHKL": "EaseInOutCubic",
                "IBCBGNHCICN": {},
                "BNBBLLBEIDL": true,
                "HCPFCAHMGMO": false,
                "OMCCMPHDLOO": "",
                "FEFNBKOHPOG": true,
                "OCFGGGHIKOO": "",
                "LJFHGGJDPHH": "",
                "LPKDFKLNEHL": ""
            },
            {
                "$type": "ILCGAGEGDJI",
                "type": "BODY_LANG",
                "aliasList": [
                    "Avatar"
                ],
                "actionId": 186,
                "FLBOOPHHFJP": 1230,
                "PMJAMGLAJGK": true,
                "LIMPPBIAKGL": false,
                "FNEGLPPEBBF": true,
                "FNDLJGEAMGI": ""
            },
            {
                "$type": "ILCGAGEGDJI",
                "type": "BODY_LANG",
                "aliasList": [
                    "4018"
                ],
                "actionId": 187,
                "JLABKFNJCNP": true,
                "PMJAMGLAJGK": true,
                "LIMPPBIAKGL": false,
                "FNEGLPPEBBF": true,
                "FNDLJGEAMGI": ""
            },
            {
                "$type": "DLPFECMKEKH",
                "type": "DIALOG",
                "aliasList": [
                    "1005"
                ],
                "NMKEDPFEKBH": 30090607,
                "JLCHMAJCAPA": 0.5
            },
            {
                "$type": "ILCGAGEGDJI",
                "type": "BODY_LANG",
                "aliasList": [
                    "1005"
                ],
                "actionId": 185,
                "FLBOOPHHFJP": 1120,
                "PMJAMGLAJGK": true,
                "LIMPPBIAKGL": false,
                "FNEGLPPEBBF": true,
                "FNDLJGEAMGI": ""
            },
            {
                "$type": "MoleMole.Config.ConfigTeleportToAction",
                "type": "TELEPORT_TO",
                "aliasList": [
                    "1005"
                ],
                "actionId": 189,
                "position": {
                    "x": -428.5820007324219,
                    "y": 236.3260040283203,
                    "z": 2744.611083984375
                },
                "forward": {
                    "x": 0.9039999842643738,
                    "z": 0.40700000524520874
                },
                "openLongDisTeleport": true,
                "posBindMovingTargetKey": "",
                "forwardBindMovingTargetKey": ""
            },
            {
                "$type": "OPCCDGPJCJI",
                "type": "EMO_SYNC",
                "aliasList": [
                    "1005"
                ],
                "IONNJBCBACJ": "Cs_Emo_Avatar_Simple_Common_Set/Cs_Emo_Avatar_Talk/Cs_Emo_Avatar_MainLine/Cs_Emo_Avatar_Sumeru1/Cs_Emo_30090607",
                "HLEJKBCMNNJ": "",
                "JGHLJJLNGPP": "",
                "MANNKIIBOFM": "",
                "COMNAAFDEDH": "",
                "CPGCCLNOCDK": "",
                "IGEFGCJKCPM": [
                    15063080740025274436,
                    12924951917297649428,
                    7084999653082807876,
                    14640104058773357479
                ]
            }
        ],
        [
            {
                "$type": "MOOOKOKLLEI",
                "type": "CAMERA_MOVE",
                "duration": 1.0,
                "actionId": 191,
                "DOKGBCKOLJK": {
                    "x": -430.7430114746094,
                    "y": 237.66600036621094,
                    "z": 2746.071044921875
                },
                "HGKCPMDICGG": {
                    "x": -429.7539978027344,
                    "y": 237.68299865722656,
                    "z": 2745.923095703125
                },
                "AFODHELHCGB": 20.0,
                "MGMFMGNANHH": 6,
                "NDFGFJFGHKL": "EaseInOutCubic",
                "IBCBGNHCICN": {},
                "BNBBLLBEIDL": true,
                "HCPFCAHMGMO": false,
                "OMCCMPHDLOO": "",
                "FEFNBKOHPOG": true,
                "OCFGGGHIKOO": "",
                "LJFHGGJDPHH": "",
                "LPKDFKLNEHL": ""
            },
            {
                "$type": "DLPFECMKEKH",
                "type": "DIALOG",
                "aliasList": [
                    "4018"
                ],
                "NMKEDPFEKBH": 30090608,
                "JLCHMAJCAPA": 2.247999906539917
            },
            {
                "$type": "ILCGAGEGDJI",
                "type": "BODY_LANG",
                "aliasList": [
                    "4018"
                ],
                "actionId": 192,
                "FLBOOPHHFJP": 1110,
                "PMJAMGLAJGK": true,
                "LIMPPBIAKGL": false,
                "FNEGLPPEBBF": true,
                "FNDLJGEAMGI": ""
            },
            {
                "$type": "OPCCDGPJCJI",
                "type": "EMO_SYNC",
                "aliasList": [
                    "4018"
                ],
                "IONNJBCBACJ": "Cs_Emo_Avatar_Simple_Common_Set/Cs_Emo_Avatar_Talk/Cs_Emo_Avatar_MainLine/Cs_Emo_Avatar_Sumeru1/Cs_Emo_30090608",
                "HLEJKBCMNNJ": "",
                "JGHLJJLNGPP": "",
                "MANNKIIBOFM": "",
                "COMNAAFDEDH": "",
                "CPGCCLNOCDK": "",
                "IGEFGCJKCPM": [
                    1498060812931863929,
                    463647906227340542,
                    5476047663934294479,
                    13713892464258745756
                ]
            },
            {
                "$type": "ILCGAGEGDJI",
                "type": "BODY_LANG",
                "delayTime": 2.009000062942505,
                "aliasList": [
                    "Avatar"
                ],
                "actionId": 194,
                "JLABKFNJCNP": true,
                "PMJAMGLAJGK": true,
                "LIMPPBIAKGL": false,
                "FNEGLPPEBBF": true,
                "FNDLJGEAMGI": ""
            },
            {
                "$type": "ILCGAGEGDJI",
                "type": "BODY_LANG",
                "delayTime": 2.0889999866485596,
                "aliasList": [
                    "4018"
                ],
                "actionId": 193,
                "JLABKFNJCNP": true,
                "PMJAMGLAJGK": true,
                "LIMPPBIAKGL": false,
                "FNEGLPPEBBF": true,
                "FNDLJGEAMGI": ""
            },
            {
                "$type": "ECLBLHOENAG",
                "type": "DIALOG_SELECT",
                "delayTime": 2.247999906539917,
                "aliasList": [
                    "Avatar"
                ],
                "NDMMOPDPKNF": [
                    30090609,
                    30090610
                ],
                "FPDBIEGHMCD": [
                    1113105455,
                    1113105455
                ],
                "PKBOIGBGDEG": true
            }
        ],
        [
            {
                "$type": "MOOOKOKLLEI",
                "type": "CAMERA_MOVE",
                "duration": 1.0,
                "actionId": 198,
                "DOKGBCKOLJK": {
                    "x": -427.0849914550781,
                    "y": 237.8520050048828,
                    "z": 2746.136962890625
                },
                "HGKCPMDICGG": {
                    "x": -426.1180114746094,
                    "y": 237.91700744628906,
                    "z": 2745.889892578125
                },
                "AFODHELHCGB": 35.0,
                "MGMFMGNANHH": 6,
                "NDFGFJFGHKL": "EaseInOutCubic",
                "IBCBGNHCICN": {},
                "BNBBLLBEIDL": true,
                "HCPFCAHMGMO": false,
                "OMCCMPHDLOO": "",
                "FEFNBKOHPOG": true,
                "OCFGGGHIKOO": "",
                "LJFHGGJDPHH": "",
                "LPKDFKLNEHL": ""
            },
            {
                "$type": "DLPFECMKEKH",
                "type": "DIALOG",
                "aliasList": [
                    "4018"
                ],
                "NMKEDPFEKBH": 30090611,
                "JLCHMAJCAPA": 0.5
            },
            {
                "$type": "ILCGAGEGDJI",
                "type": "BODY_LANG",
                "aliasList": [
                    "4018"
                ],
                "actionId": 195,
                "FLBOOPHHFJP": 1060,
                "PMJAMGLAJGK": true,
                "LIMPPBIAKGL": false,
                "FNEGLPPEBBF": true,
                "FNDLJGEAMGI": ""
            },
            {
                "$type": "OPCCDGPJCJI",
                "type": "EMO_SYNC",
                "aliasList": [
                    "4018"
                ],
                "IONNJBCBACJ": "Cs_Emo_Avatar_Simple_Common_Set/Cs_Emo_Avatar_Talk/Cs_Emo_Avatar_MainLine/Cs_Emo_Avatar_Sumeru1/Cs_Emo_30090611",
                "HLEJKBCMNNJ": "",
                "JGHLJJLNGPP": "",
                "MANNKIIBOFM": "",
                "COMNAAFDEDH": "",
                "CPGCCLNOCDK": "",
                "IGEFGCJKCPM": [
                    11788966078891844004,
                    3009514670422361798,
                    17973306450796100600,
                    10475876720091793865
                ]
            },
            {
                "$type": "ILCGAGEGDJI",
                "type": "BODY_LANG",
                "aliasList": [
                    "1005"
                ],
                "actionId": 199,
                "JLABKFNJCNP": true,
                "PMJAMGLAJGK": true,
                "LIMPPBIAKGL": false,
                "FNEGLPPEBBF": true,
                "FNDLJGEAMGI": ""
            },
            {
                "$type": "MOOOKOKLLEI",
                "type": "CAMERA_MOVE",
                "delayTime": 0.10000000149011612,
                "duration": 9.913000106811523,
                "actionId": 201,
                "DOKGBCKOLJK": {
                    "x": -426.77801513671875,
                    "y": 237.90199279785156,
                    "z": 2746.096923828125
                },
                "HGKCPMDICGG": {
                    "x": -425.8110046386719,
                    "y": 237.9669952392578,
                    "z": 2745.85009765625
                },
                "AFODHELHCGB": 35.0,
                "NDFGFJFGHKL": "EaseOutQuad",
                "IBCBGNHCICN": {},
                "BNBBLLBEIDL": true,
                "HCPFCAHMGMO": false,
                "OMCCMPHDLOO": "",
                "FEFNBKOHPOG": true,
                "OCFGGGHIKOO": "",
                "LJFHGGJDPHH": "",
                "LPKDFKLNEHL": ""
            },
            {
                "$type": "ILCGAGEGDJI",
                "type": "BODY_LANG",
                "delayTime": 1.684000015258789,
                "aliasList": [
                    "4018"
                ],
                "actionId": 196,
                "JLABKFNJCNP": true,
                "PMJAMGLAJGK": true,
                "LIMPPBIAKGL": false,
                "FNEGLPPEBBF": true,
                "FNDLJGEAMGI": ""
            },
            {
                "$type": "ILCGAGEGDJI",
                "type": "BODY_LANG",
                "delayTime": 2.443000078201294,
                "aliasList": [
                    "4018"
                ],
                "actionId": 197,
                "FLBOOPHHFJP": 1173,
                "PMJAMGLAJGK": true,
                "LIMPPBIAKGL": false,
                "FNEGLPPEBBF": true,
                "FNDLJGEAMGI": ""
            }
        ],
        [
            {
                "$type": "MOOOKOKLLEI",
                "type": "CAMERA_MOVE",
                "duration": 1.0,
                "actionId": 200,
                "DOKGBCKOLJK": {
                    "x": -438.6340026855469,
                    "y": 238.15699768066406,
                    "z": 2750.652099609375
                },
                "HGKCPMDICGG": {
                    "x": -437.739990234375,
                    "y": 238.07000732421875,
                    "z": 2750.2119140625
                },
                "AFODHELHCGB": 20.0,
                "MGMFMGNANHH": 6,
                "NDFGFJFGHKL": "EaseInOutCubic",
                "IBCBGNHCICN": {},
                "BNBBLLBEIDL": true,
                "HCPFCAHMGMO": false,
                "OMCCMPHDLOO": "",
                "FEFNBKOHPOG": true,
                "OCFGGGHIKOO": "",
                "LJFHGGJDPHH": "",
                "LPKDFKLNEHL": ""
            },
            {
                "$type": "DLPFECMKEKH",
                "type": "DIALOG",
                "aliasList": [
                    "4018"
                ],
                "NMKEDPFEKBH": 30090612,
                "JLCHMAJCAPA": 0.5
            },
            {
                "$type": "ILCGAGEGDJI",
                "type": "BODY_LANG",
                "aliasList": [
                    "4018"
                ],
                "actionId": 203,
                "FLBOOPHHFJP": 1190,
                "PMJAMGLAJGK": true,
                "LIMPPBIAKGL": false,
                "FNEGLPPEBBF": true,
                "FNDLJGEAMGI": ""
            },
            {
                "$type": "OPCCDGPJCJI",
                "type": "EMO_SYNC",
                "aliasList": [
                    "4018"
                ],
                "IONNJBCBACJ": "Cs_Emo_Avatar_Simple_Common_Set/Cs_Emo_Avatar_Talk/Cs_Emo_Avatar_MainLine/Cs_Emo_Avatar_Sumeru1/Cs_Emo_30090612",
                "HLEJKBCMNNJ": "",
                "JGHLJJLNGPP": "",
                "MANNKIIBOFM": "",
                "COMNAAFDEDH": "",
                "CPGCCLNOCDK": "",
                "IGEFGCJKCPM": [
                    13882249148428308224,
                    14117855265887097803,
                    17027586311722129888,
                    8469687256108196719
                ]
            },
            {
                "$type": "MOOOKOKLLEI",
                "type": "CAMERA_MOVE",
                "delayTime": 0.10000000149011612,
                "duration": 14.357999801635742,
                "actionId": 219,
                "DOKGBCKOLJK": {
                    "x": -438.4129943847656,
                    "y": 238.15699768066406,
                    "z": 2751.075927734375
                },
                "HGKCPMDICGG": {
                    "x": -437.5409851074219,
                    "y": 238.07000732421875,
                    "z": 2750.593994140625
                },
                "AFODHELHCGB": 20.0,
                "NDFGFJFGHKL": "EaseOutQuad",
                "IBCBGNHCICN": {},
                "BNBBLLBEIDL": true,
                "HCPFCAHMGMO": false,
                "OMCCMPHDLOO": "",
                "FEFNBKOHPOG": true,
                "OCFGGGHIKOO": "",
                "LJFHGGJDPHH": "",
                "LPKDFKLNEHL": ""
            }
        ],
        [
            {
                "$type": "MOOOKOKLLEI",
                "type": "CAMERA_MOVE",
                "duration": 1.0,
                "actionId": 202,
                "DOKGBCKOLJK": {
                    "x": -426.7969970703125,
                    "y": 237.6060028076172,
                    "z": 2747.824951171875
                },
                "HGKCPMDICGG": {
                    "x": -427.34100341796875,
                    "y": 237.58700561523438,
                    "z": 2746.986083984375
                },
                "AFODHELHCGB": 20.0,
                "MGMFMGNANHH": 6,
                "NDFGFJFGHKL": "EaseInOutCubic",
                "IBCBGNHCICN": {},
                "BNBBLLBEIDL": true,
                "HCPFCAHMGMO": false,
                "OMCCMPHDLOO": "",
                "FEFNBKOHPOG": true,
                "OCFGGGHIKOO": "",
                "LJFHGGJDPHH": "",
                "LPKDFKLNEHL": ""
            },
            {
                "$type": "DLPFECMKEKH",
                "type": "DIALOG",
                "aliasList": [
                    "1005"
                ],
                "NMKEDPFEKBH": 30090613,
                "JLCHMAJCAPA": 0.5
            },
            {
                "$type": "ILCGAGEGDJI",
                "type": "BODY_LANG",
                "aliasList": [
                    "1005"
                ],
                "actionId": 204,
                "FLBOOPHHFJP": 1100,
                "PMJAMGLAJGK": true,
                "LIMPPBIAKGL": false,
                "FNEGLPPEBBF": true,
                "FNDLJGEAMGI": ""
            },
            {
                "$type": "OPCCDGPJCJI",
                "type": "EMO_SYNC",
                "aliasList": [
                    "1005"
                ],
                "IONNJBCBACJ": "Cs_Emo_Avatar_Simple_Common_Set/Cs_Emo_Avatar_Talk/Cs_Emo_Avatar_MainLine/Cs_Emo_Avatar_Sumeru1/Cs_Emo_30090613",
                "HLEJKBCMNNJ": "",
                "JGHLJJLNGPP": "",
                "MANNKIIBOFM": "",
                "COMNAAFDEDH": "",
                "CPGCCLNOCDK": "",
                "IGEFGCJKCPM": [
                    14961314491803940696,
                    12048477682220912775,
                    7036844964748098713,
                    2268300588159360147
                ]
            }
        ],
        [
            {
                "$type": "MOOOKOKLLEI",
                "type": "CAMERA_MOVE",
                "duration": 1.0,
                "actionId": 205,
                "DOKGBCKOLJK": {
                    "x": -427.031005859375,
                    "y": 238.06199645996094,
                    "z": 2746.364990234375
                },
                "HGKCPMDICGG": {
                    "x": -426.093994140625,
                    "y": 237.97500610351562,
                    "z": 2746.027099609375
                },
                "AFODHELHCGB": 20.0,
                "MGMFMGNANHH": 6,
                "NDFGFJFGHKL": "EaseInOutCubic",
                "IBCBGNHCICN": {},
                "BNBBLLBEIDL": true,
                "HCPFCAHMGMO": false,
                "OMCCMPHDLOO": "",
                "FEFNBKOHPOG": true,
                "OCFGGGHIKOO": "",
                "LJFHGGJDPHH": "",
                "LPKDFKLNEHL": ""
            },
            {
                "$type": "DLPFECMKEKH",
                "type": "DIALOG",
                "aliasList": [
                    "4018"
                ],
                "NMKEDPFEKBH": 30090614,
                "JLCHMAJCAPA": 0.5
            },
            {
                "$type": "ILCGAGEGDJI",
                "type": "BODY_LANG",
                "aliasList": [
                    "4018"
                ],
                "actionId": 207,
                "FLBOOPHHFJP": 4030,
                "PMJAMGLAJGK": true,
                "LIMPPBIAKGL": false,
                "FNEGLPPEBBF": true,
                "FNDLJGEAMGI": ""
            },
            {
                "$type": "OPCCDGPJCJI",
                "type": "EMO_SYNC",
                "aliasList": [
                    "4018"
                ],
                "IONNJBCBACJ": "Cs_Emo_Avatar_Simple_Common_Set/Cs_Emo_Avatar_Talk/Cs_Emo_Avatar_MainLine/Cs_Emo_Avatar_Sumeru1/Cs_Emo_30090614",
                "HLEJKBCMNNJ": "",
                "JGHLJJLNGPP": "",
                "MANNKIIBOFM": "",
                "COMNAAFDEDH": "",
                "CPGCCLNOCDK": "",
                "IGEFGCJKCPM": [
                    16842632462759914736,
                    14018524439499837776,
                    2296721585336668930,
                    931340343922842363
                ]
            },
            {
                "$type": "MOOOKOKLLEI",
                "type": "CAMERA_MOVE",
                "delayTime": 0.10000000149011612,
                "duration": 5.800000190734863,
                "actionId": 275,
                "DOKGBCKOLJK": {
                    "x": -427.21600341796875,
                    "y": 238.0679931640625,
                    "z": 2746.175048828125
                },
                "HGKCPMDICGG": {
                    "x": -426.23199462890625,
                    "y": 237.97799682617188,
                    "z": 2746.02490234375
                },
                "AFODHELHCGB": 20.0,
                "NDFGFJFGHKL": "Linear",
                "IBCBGNHCICN": {},
                "HCPFCAHMGMO": false,
                "OMCCMPHDLOO": "",
                "FEFNBKOHPOG": true,
                "OCFGGGHIKOO": "",
                "LJFHGGJDPHH": "",
                "LPKDFKLNEHL": ""
            },
            {
                "$type": "ILCGAGEGDJI",
                "type": "BODY_LANG",
                "delayTime": 1.684000015258789,
                "aliasList": [
                    "4018"
                ],
                "actionId": 208,
                "JLABKFNJCNP": true,
                "PMJAMGLAJGK": true,
                "LIMPPBIAKGL": false,
                "FNEGLPPEBBF": true,
                "FNDLJGEAMGI": ""
            },
            {
                "$type": "ILCGAGEGDJI",
                "type": "BODY_LANG",
                "delayTime": 2.6440000534057617,
                "aliasList": [
                    "4018"
                ],
                "actionId": 277,
                "FLBOOPHHFJP": 1171,
                "PMJAMGLAJGK": true,
                "LIMPPBIAKGL": false,
                "FNEGLPPEBBF": true,
                "FNDLJGEAMGI": ""
            },
            {
                "$type": "ILCGAGEGDJI",
                "type": "BODY_LANG",
                "delayTime": 5.656000137329102,
                "aliasList": [
                    "4018"
                ],
                "actionId": 210,
                "FLBOOPHHFJP": 1110,
                "PMJAMGLAJGK": true,
                "LIMPPBIAKGL": false,
                "FNEGLPPEBBF": true,
                "FNDLJGEAMGI": ""
            },
            {
                "$type": "MOOOKOKLLEI",
                "type": "CAMERA_MOVE",
                "delayTime": 5.900000095367432,
                "duration": 1.0,
                "actionId": 276,
                "DOKGBCKOLJK": {
                    "x": -426.9259948730469,
                    "y": 237.38099670410156,
                    "z": 2746.18994140625
                },
                "HGKCPMDICGG": {
                    "x": -426.04901123046875,
                    "y": 237.81500244140625,
                    "z": 2745.98291015625
                },
                "AFODHELHCGB": 40.0,
                "MGMFMGNANHH": 6,
                "NDFGFJFGHKL": "EaseInOutCubic",
                "IBCBGNHCICN": {},
                "HCPFCAHMGMO": false,
                "OMCCMPHDLOO": "",
                "FEFNBKOHPOG": true,
                "OCFGGGHIKOO": "",
                "LJFHGGJDPHH": "",
                "LPKDFKLNEHL": ""
            },
            {
                "$type": "MOOOKOKLLEI",
                "type": "CAMERA_MOVE",
                "delayTime": 6.0,
                "duration": 7.436999797821045,
                "actionId": 278,
                "DOKGBCKOLJK": {
                    "x": -427.10699462890625,
                    "y": 237.22900390625,
                    "z": 2746.23095703125
                },
                "HGKCPMDICGG": {
                    "x": -426.2300109863281,
                    "y": 237.66299438476562,
                    "z": 2746.02392578125
                },
                "AFODHELHCGB": 40.0,
                "NDFGFJFGHKL": "EaseOutQuad",
                "IBCBGNHCICN": {},
                "HCPFCAHMGMO": false,
                "OMCCMPHDLOO": "",
                "FEFNBKOHPOG": true,
                "OCFGGGHIKOO": "",
                "LJFHGGJDPHH": "",
                "LPKDFKLNEHL": ""
            }
        ],
        [
            {
                "$type": "MOOOKOKLLEI",
                "type": "CAMERA_MOVE",
                "duration": 1.0,
                "actionId": 206,
                "DOKGBCKOLJK": {
                    "x": -428.32598876953125,
                    "y": 237.86500549316406,
                    "z": 2746.327880859375
                },
                "HGKCPMDICGG": {
                    "x": -428.625,
                    "y": 237.6999969482422,
                    "z": 2745.387939453125
                },
                "AFODHELHCGB": 25.0,
                "MGMFMGNANHH": 6,
                "NDFGFJFGHKL": "EaseInOutCubic",
                "IBCBGNHCICN": {},
                "BNBBLLBEIDL": true,
                "HCPFCAHMGMO": false,
                "OMCCMPHDLOO": "",
                "FEFNBKOHPOG": true,
                "OCFGGGHIKOO": "",
                "LJFHGGJDPHH": "",
                "LPKDFKLNEHL": ""
            },
            {
                "$type": "EAMBKPBOPIC",
                "type": "LOOK_AT",
                "aliasList": [
                    "Avatar"
                ],
                "actionId": 212,
                "FIDJDPAIFDN": true,
                "useTargetPos": true,
                "GFKIMGBGADJ": true,
                "GMKIJKADNHN": {
                    "x": -428.5249938964844,
                    "y": 237.66299438476562,
                    "z": 2744.93603515625
                },
                "BCHGCKLKNEH": 0.5,
                "OMCCMPHDLOO": "",
                "CEBMBGKJACI": "NONE",
                "EOHIIHMKDJC": true,
                "KPCALFDIHMC": "",
                "DBLNLMOPEBP": ""
            },
            {
                "$type": "DLPFECMKEKH",
                "type": "DIALOG",
                "aliasList": [
                    "1005"
                ],
                "NMKEDPFEKBH": 30090615,
                "JLCHMAJCAPA": 0.5
            },
            {
                "$type": "EAMBKPBOPIC",
                "type": "LOOK_AT",
                "aliasList": [
                    "1005"
                ],
                "actionId": 213,
                "FIDJDPAIFDN": true,
                "useTargetPos": true,
                "GFKIMGBGADJ": true,
                "GMKIJKADNHN": {
                    "x": -428.73199462890625,
                    "y": 237.75399780273438,
                    "z": 2745.382080078125
                },
                "BCHGCKLKNEH": 0.5,
                "OMCCMPHDLOO": "",
                "CEBMBGKJACI": "NONE",
                "EOHIIHMKDJC": true,
                "KPCALFDIHMC": "",
                "DBLNLMOPEBP": ""
            },
            {
                "$type": "CJKIHIFAALJ",
                "type": "LOOK_AT_EYECTRL",
                "aliasList": [
                    "1005"
                ],
                "actionId": 220,
                "useTargetPos": false,
                "KOPLMCFNFEH": {
                    "x": -4.0
                },
                "DONDAIFPGMK": {
                    "x": -4.0
                },
                "BJMEKPDGMPA": 0.4000000059604645,
                "OMCCMPHDLOO": "",
                "OPPBKKOPIOB": "Face"
            },
            {
                "$type": "OPCCDGPJCJI",
                "type": "EMO_SYNC",
                "aliasList": [
                    "1005"
                ],
                "IONNJBCBACJ": "Cs_Emo_Avatar_Simple_Common_Set/Cs_Emo_Avatar_Talk/Cs_Emo_Avatar_MainLine/Cs_Emo_Avatar_Sumeru1/Cs_Emo_30090615",
                "HLEJKBCMNNJ": "",
                "JGHLJJLNGPP": "",
                "MANNKIIBOFM": "",
                "COMNAAFDEDH": "",
                "CPGCCLNOCDK": "",
                "IGEFGCJKCPM": [
                    5665368365701148428,
                    12582010245776193950,
                    741139454064157888,
                    2544790258962163812
                ]
            },
            {
                "$type": "ILCGAGEGDJI",
                "type": "BODY_LANG",
                "delayTime": 0.9539999961853027,
                "aliasList": [
                    "1005"
                ],
                "actionId": 214,
                "FLBOOPHHFJP": 1170,
                "PMJAMGLAJGK": true,
                "LIMPPBIAKGL": false,
                "FNEGLPPEBBF": true,
                "FNDLJGEAMGI": ""
            },
            {
                "$type": "EAMBKPBOPIC",
                "type": "LOOK_AT",
                "delayTime": 3.2219998836517334,
                "aliasList": [
                    "Avatar"
                ],
                "actionId": 221,
                "FIDJDPAIFDN": true,
                "useTargetPos": true,
                "GFKIMGBGADJ": true,
                "GMKIJKADNHN": {
                    "x": -426.0880126953125,
                    "y": 238.0229949951172,
                    "z": 2745.989990234375
                },
                "BCHGCKLKNEH": 0.5,
                "OMCCMPHDLOO": "",
                "CEBMBGKJACI": "NONE",
                "EOHIIHMKDJC": true,
                "KPCALFDIHMC": "",
                "DBLNLMOPEBP": ""
            },
            {
                "$type": "CJKIHIFAALJ",
                "type": "LOOK_AT_EYECTRL",
                "delayTime": 3.2219998836517334,
                "aliasList": [
                    "1005"
                ],
                "actionId": 222,
                "useTargetPos": false,
                "BJMEKPDGMPA": 0.4000000059604645,
                "OMCCMPHDLOO": "",
                "OPPBKKOPIOB": "Face"
            },
            {
                "$type": "EAMBKPBOPIC",
                "type": "LOOK_AT",
                "delayTime": 3.2690000534057617,
                "aliasList": [
                    "1005"
                ],
                "actionId": 215,
                "FIDJDPAIFDN": true,
                "useTargetPos": true,
                "GFKIMGBGADJ": true,
                "GMKIJKADNHN": {
                    "x": -426.0880126953125,
                    "y": 238.0229949951172,
                    "z": 2745.989990234375
                },
                "BCHGCKLKNEH": 0.5,
                "OMCCMPHDLOO": "",
                "CEBMBGKJACI": "NONE",
                "EOHIIHMKDJC": true,
                "KPCALFDIHMC": "",
                "DBLNLMOPEBP": ""
            },
            {
                "$type": "ILCGAGEGDJI",
                "type": "BODY_LANG",
                "delayTime": 3.302000045776367,
                "aliasList": [
                    "1005"
                ],
                "actionId": 216,
                "FLBOOPHHFJP": 1180,
                "PMJAMGLAJGK": true,
                "LIMPPBIAKGL": false,
                "FNEGLPPEBBF": true,
                "FNDLJGEAMGI": ""
            },
            {
                "$type": "ILCGAGEGDJI",
                "type": "BODY_LANG",
                "delayTime": 5.139999866485596,
                "aliasList": [
                    "1005"
                ],
                "actionId": 223,
                "JLABKFNJCNP": true,
                "PMJAMGLAJGK": true,
                "LIMPPBIAKGL": false,
                "FNEGLPPEBBF": true,
                "FNDLJGEAMGI": ""
            }
        ],
        [
            {
                "$type": "MOOOKOKLLEI",
                "type": "CAMERA_MOVE",
                "duration": 1.0,
                "actionId": 285,
                "DOKGBCKOLJK": {
                    "x": -430.0880126953125,
                    "y": 237.1999969482422,
                    "z": 2750.8291015625
                },
                "HGKCPMDICGG": {
                    "x": -429.3789978027344,
                    "y": 237.25,
                    "z": 2750.1259765625
                },
                "AFODHELHCGB": 15.0,
                "MGMFMGNANHH": 6,
                "NDFGFJFGHKL": "EaseInOutCubic",
                "IBCBGNHCICN": {},
                "BNBBLLBEIDL": true,
                "HCPFCAHMGMO": false,
                "OMCCMPHDLOO": "",
                "FEFNBKOHPOG": true,
                "OCFGGGHIKOO": "",
                "LJFHGGJDPHH": "",
                "LPKDFKLNEHL": ""
            },
            {
                "$type": "DLPFECMKEKH",
                "type": "DIALOG",
                "aliasList": [
                    "4018"
                ],
                "NMKEDPFEKBH": 30090616,
                "JLCHMAJCAPA": 0.5
            },
            {
                "$type": "ILCGAGEGDJI",
                "type": "BODY_LANG",
                "aliasList": [
                    "4018"
                ],
                "actionId": 218,
                "FLBOOPHHFJP": 1190,
                "PMJAMGLAJGK": true,
                "LIMPPBIAKGL": false,
                "FNEGLPPEBBF": true,
                "FNDLJGEAMGI": ""
            },
            {
                "$type": "OPCCDGPJCJI",
                "type": "EMO_SYNC",
                "aliasList": [
                    "4018"
                ],
                "IONNJBCBACJ": "Cs_Emo_Avatar_Simple_Common_Set/Cs_Emo_Avatar_Talk/Cs_Emo_Avatar_MainLine/Cs_Emo_Avatar_Sumeru1/Cs_Emo_30090616",
                "HLEJKBCMNNJ": "",
                "JGHLJJLNGPP": "",
                "MANNKIIBOFM": "",
                "COMNAAFDEDH": "",
                "CPGCCLNOCDK": "",
                "IGEFGCJKCPM": [
                    1036420208977946801,
                    1697936798697964049,
                    13159100481437571659,
                    2190332523370207497
                ]
            },
            {
                "$type": "ILCGAGEGDJI",
                "type": "BODY_LANG",
                "aliasList": [
                    "1005"
                ],
                "actionId": 224,
                "JLABKFNJCNP": true,
                "PMJAMGLAJGK": true,
                "LIMPPBIAKGL": false,
                "FNEGLPPEBBF": true,
                "FNDLJGEAMGI": ""
            },
            {
                "$type": "MOOOKOKLLEI",
                "type": "CAMERA_MOVE",
                "delayTime": 0.10000000149011612,
                "duration": 15.4399995803833,
                "actionId": 217,
                "DOKGBCKOLJK": {
                    "x": -430.2040100097656,
                    "y": 237.1999969482422,
                    "z": 2750.7119140625
                },
                "HGKCPMDICGG": {
                    "x": -429.4949951171875,
                    "y": 237.25,
                    "z": 2750.009033203125
                },
                "AFODHELHCGB": 15.0,
                "NDFGFJFGHKL": "EaseOutQuad",
                "IBCBGNHCICN": {},
                "BNBBLLBEIDL": true,
                "HCPFCAHMGMO": false,
                "OMCCMPHDLOO": "",
                "FEFNBKOHPOG": true,
                "OCFGGGHIKOO": "",
                "LJFHGGJDPHH": "",
                "LPKDFKLNEHL": ""
            }
        ],
        [
            {
                "$type": "MOOOKOKLLEI",
                "type": "CAMERA_MOVE",
                "duration": 1.0,
                "actionId": 225,
                "DOKGBCKOLJK": {
                    "x": -427.4939880371094,
                    "y": 237.78900146484375,
                    "z": 2746.6279296875
                },
                "HGKCPMDICGG": {
                    "x": -426.6050109863281,
                    "y": 237.84500122070312,
                    "z": 2746.174072265625
                },
                "AFODHELHCGB": 25.0,
                "MGMFMGNANHH": 6,
                "NDFGFJFGHKL": "EaseInOutCubic",
                "IBCBGNHCICN": {},
                "BNBBLLBEIDL": true,
                "HCPFCAHMGMO": false,
                "OMCCMPHDLOO": "",
                "FEFNBKOHPOG": true,
                "OCFGGGHIKOO": "",
                "LJFHGGJDPHH": "",
                "LPKDFKLNEHL": ""
            },
            {
                "$type": "DLPFECMKEKH",
                "type": "DIALOG",
                "aliasList": [
                    "4018"
                ],
                "NMKEDPFEKBH": 30090617,
                "JLCHMAJCAPA": 0.5
            },
            {
                "$type": "ILCGAGEGDJI",
                "type": "BODY_LANG",
                "aliasList": [
                    "4018"
                ],
                "actionId": 226,
                "JLABKFNJCNP": true,
                "PMJAMGLAJGK": true,
                "LIMPPBIAKGL": false,
                "FNEGLPPEBBF": true,
                "FNDLJGEAMGI": ""
            },
            {
                "$type": "OPCCDGPJCJI",
                "type": "EMO_SYNC",
                "aliasList": [
                    "4018"
                ],
                "IONNJBCBACJ": "Cs_Emo_Avatar_Simple_Common_Set/Cs_Emo_Avatar_Talk/Cs_Emo_Avatar_MainLine/Cs_Emo_Avatar_Sumeru1/Cs_Emo_30090617",
                "HLEJKBCMNNJ": "",
                "JGHLJJLNGPP": "",
                "MANNKIIBOFM": "",
                "COMNAAFDEDH": "",
                "CPGCCLNOCDK": "",
                "IGEFGCJKCPM": [
                    8635264340343401964,
                    12213552235439904980,
                    2727420170644302423,
                    3291235374675537991
                ]
            },
            {
                "$type": "ILCGAGEGDJI",
                "type": "BODY_LANG",
                "delayTime": 1.2799999713897705,
                "aliasList": [
                    "4018"
                ],
                "actionId": 227,
                "FLBOOPHHFJP": 1130,
                "PMJAMGLAJGK": true,
                "LIMPPBIAKGL": false,
                "FNEGLPPEBBF": true,
                "FNDLJGEAMGI": ""
            },
            {
                "$type": "ILCGAGEGDJI",
                "type": "BODY_LANG",
                "delayTime": 5.182000160217285,
                "aliasList": [
                    "4018"
                ],
                "actionId": 228,
                "FLBOOPHHFJP": 4030,
                "PMJAMGLAJGK": true,
                "LIMPPBIAKGL": false,
                "FNEGLPPEBBF": true,
                "FNDLJGEAMGI": ""
            }
        ],
        [
            {
                "$type": "MOOOKOKLLEI",
                "type": "CAMERA_MOVE",
                "duration": 1.0,
                "actionId": 231,
                "DOKGBCKOLJK": {
                    "x": -425.7049865722656,
                    "y": 237.92999267578125,
                    "z": 2746.89111328125
                },
                "HGKCPMDICGG": {
                    "x": -426.2640075683594,
                    "y": 237.78900146484375,
                    "z": 2746.073974609375
                },
                "AFODHELHCGB": 20.0,
                "MGMFMGNANHH": 6,
                "NDFGFJFGHKL": "EaseInOutCubic",
                "IBCBGNHCICN": {},
                "HCPFCAHMGMO": false,
                "OMCCMPHDLOO": "",
                "FEFNBKOHPOG": true,
                "OCFGGGHIKOO": "",
                "LJFHGGJDPHH": "",
                "LPKDFKLNEHL": ""
            },
            {
                "$type": "MoleMole.Config.ConfigTeleportToAction",
                "type": "TELEPORT_TO",
                "aliasList": [
                    "Avatar"
                ],
                "actionId": 232,
                "position": {
                    "x": -428.68798828125,
                    "y": 236.3260040283203,
                    "z": 2744.031982421875
                },
                "forward": {
                    "x": 0.9620000123977661,
                    "z": 0.34299999475479126
                },
                "openLongDisTeleport": true,
                "posBindMovingTargetKey": "",
                "forwardBindMovingTargetKey": ""
            },
            {
                "$type": "EAMBKPBOPIC",
                "type": "LOOK_AT",
                "aliasList": [
                    "Avatar"
                ],
                "actionId": 235,
                "FIDJDPAIFDN": true,
                "useTargetPos": true,
                "GFKIMGBGADJ": true,
                "GMKIJKADNHN": {
                    "x": -428.21600341796875,
                    "y": 237.51800537109375,
                    "z": 2743.81103515625
                },
                "BCHGCKLKNEH": 0.5,
                "OMCCMPHDLOO": "",
                "CEBMBGKJACI": "NONE",
                "EOHIIHMKDJC": true,
                "KPCALFDIHMC": "",
                "DBLNLMOPEBP": ""
            },
            {
                "$type": "ILCGAGEGDJI",
                "type": "BODY_LANG",
                "aliasList": [
                    "4018"
                ],
                "actionId": 230,
                "JLABKFNJCNP": true,
                "PMJAMGLAJGK": true,
                "LIMPPBIAKGL": false,
                "FNEGLPPEBBF": true,
                "FNDLJGEAMGI": ""
            },
            {
                "$type": "EAMBKPBOPIC",
                "type": "LOOK_AT",
                "aliasList": [
                    "4018"
                ],
                "actionId": 240,
                "FIDJDPAIFDN": true,
                "useTargetPos": true,
                "GFKIMGBGADJ": true,
                "GMKIJKADNHN": {
                    "x": -428.6549987792969,
                    "y": 237.7169952392578,
                    "z": 2744.027099609375
                },
                "BCHGCKLKNEH": 0.5,
                "OMCCMPHDLOO": "",
                "CEBMBGKJACI": "NONE",
                "EOHIIHMKDJC": true,
                "KPCALFDIHMC": "",
                "DBLNLMOPEBP": ""
            },
            {
                "$type": "DLPFECMKEKH",
                "type": "DIALOG",
                "aliasList": [
                    "1005"
                ],
                "NMKEDPFEKBH": 30090618,
                "JLCHMAJCAPA": 0.5
            },
            {
                "$type": "MoleMole.Config.ConfigTeleportToAction",
                "type": "TELEPORT_TO",
                "aliasList": [
                    "1005"
                ],
                "actionId": 233,
                "position": {
                    "x": -428.1990051269531,
                    "y": 236.3260040283203,
                    "z": 2743.596923828125
                },
                "forward": {
                    "x": 0.9150000214576721,
                    "z": 0.48100000619888306
                },
                "openLongDisTeleport": true,
                "posBindMovingTargetKey": "",
                "forwardBindMovingTargetKey": ""
            },
            {
                "$type": "EAMBKPBOPIC",
                "type": "LOOK_AT",
                "aliasList": [
                    "1005"
                ],
                "actionId": 236,
                "FIDJDPAIFDN": true,
                "useTargetPos": true,
                "GFKIMGBGADJ": true,
                "GMKIJKADNHN": {
                    "x": -428.385009765625,
                    "y": 237.7550048828125,
                    "z": 2744.092041015625
                },
                "BCHGCKLKNEH": 0.5,
                "OMCCMPHDLOO": "",
                "CEBMBGKJACI": "NONE",
                "EOHIIHMKDJC": true,
                "KPCALFDIHMC": "",
                "DBLNLMOPEBP": ""
            },
            {
                "$type": "CJKIHIFAALJ",
                "type": "LOOK_AT_EYECTRL",
                "aliasList": [
                    "1005"
                ],
                "actionId": 238,
                "useTargetPos": false,
                "KOPLMCFNFEH": {
                    "x": -4.0
                },
                "DONDAIFPGMK": {
                    "x": -4.0
                },
                "BJMEKPDGMPA": 0.4000000059604645,
                "OMCCMPHDLOO": "",
                "OPPBKKOPIOB": "Face"
            },
            {
                "$type": "OPCCDGPJCJI",
                "type": "EMO_SYNC",
                "aliasList": [
                    "1005"
                ],
                "IONNJBCBACJ": "Cs_Emo_Avatar_Simple_Common_Set/Cs_Emo_Avatar_Talk/Cs_Emo_Avatar_MainLine/Cs_Emo_Avatar_Sumeru1/Cs_Emo_30090618",
                "HLEJKBCMNNJ": "",
                "JGHLJJLNGPP": "",
                "MANNKIIBOFM": "",
                "COMNAAFDEDH": "",
                "CPGCCLNOCDK": "",
                "IGEFGCJKCPM": [
                    9544210199528254824,
                    2215622521192656158,
                    12099534497985890524,
                    17557136051895819124
                ]
            }
        ],
        [
            {
                "$type": "MOOOKOKLLEI",
                "type": "CAMERA_MOVE",
                "duration": 1.0,
                "actionId": 239,
                "DOKGBCKOLJK": {
                    "x": -427.375,
                    "y": 237.4429931640625,
                    "z": 2745.22705078125
                },
                "HGKCPMDICGG": {
                    "x": -427.95001220703125,
                    "y": 237.51400756835938,
                    "z": 2744.412109375
                },
                "AFODHELHCGB": 25.0,
                "MGMFMGNANHH": 6,
                "NDFGFJFGHKL": "EaseInOutCubic",
                "IBCBGNHCICN": {},
                "BNBBLLBEIDL": true,
                "HCPFCAHMGMO": false,
                "OMCCMPHDLOO": "",
                "FEFNBKOHPOG": true,
                "OCFGGGHIKOO": "",
                "LJFHGGJDPHH": "",
                "LPKDFKLNEHL": ""
            },
            {
                "$type": "DLPFECMKEKH",
                "type": "DIALOG",
                "aliasList": [
                    "1005"
                ],
                "NMKEDPFEKBH": 30090619,
                "JLCHMAJCAPA": 3.4749999046325684
            },
            {
                "$type": "OOMFCPJAJGL",
                "type": "STEER_TO",
                "duration": 1.0,
                "aliasList": [
                    "1005"
                ],
                "actionId": 241,
                "DMGIIHNDNLC": "ABSOLUTE",
                "PLAPKCOMAKJ": {
                    "x": -428.47900390625,
                    "y": 236.3260040283203,
                    "z": 2744.1201171875
                },
                "HCMINPNPFDF": true,
                "OMCCMPHDLOO": "",
                "DBLNLMOPEBP": ""
            },
            {
                "$type": "CJKIHIFAALJ",
                "type": "LOOK_AT_EYECTRL",
                "aliasList": [
                    "1005"
                ],
                "actionId": 242,
                "useTargetPos": false,
                "BJMEKPDGMPA": 1.0,
                "OMCCMPHDLOO": "",
                "OPPBKKOPIOB": "Face"
            },
            {
                "$type": "OPCCDGPJCJI",
                "type": "EMO_SYNC",
                "aliasList": [
                    "1005"
                ],
                "IONNJBCBACJ": "Cs_Emo_Avatar_Simple_Common_Set/Cs_Emo_Avatar_Talk/Cs_Emo_Avatar_MainLine/Cs_Emo_Avatar_Sumeru1/Cs_Emo_30090619",
                "HLEJKBCMNNJ": "",
                "JGHLJJLNGPP": "",
                "MANNKIIBOFM": "",
                "COMNAAFDEDH": "",
                "CPGCCLNOCDK": "",
                "IGEFGCJKCPM": [
                    13449621313125141020,
                    10238926455339836814,
                    11536485489605225979,
                    9351379145808674601
                ]
            },
            {
                "$type": "ILCGAGEGDJI",
                "type": "BODY_LANG",
                "delayTime": 1.159999966621399,
                "aliasList": [
                    "1005"
                ],
                "actionId": 245,
                "FLBOOPHHFJP": 1180,
                "PMJAMGLAJGK": true,
                "LIMPPBIAKGL": false,
                "FNEGLPPEBBF": true,
                "FNDLJGEAMGI": ""
            },
            {
                "$type": "ILCGAGEGDJI",
                "type": "BODY_LANG",
                "delayTime": 2.6480000019073486,
                "aliasList": [
                    "Avatar"
                ],
                "actionId": 243,
                "FLBOOPHHFJP": 1190,
                "PMJAMGLAJGK": true,
                "LIMPPBIAKGL": false,
                "FNEGLPPEBBF": true,
                "FNDLJGEAMGI": ""
            },
            {
                "$type": "EAMBKPBOPIC",
                "type": "LOOK_AT",
                "delayTime": 3.056999921798706,
                "aliasList": [
                    "1005"
                ],
                "actionId": 279,
                "BCHGCKLKNEH": 0.5,
                "OMCCMPHDLOO": "",
                "EOHIIHMKDJC": true,
                "KPCALFDIHMC": "",
                "DBLNLMOPEBP": ""
            },
            {
                "$type": "ILCGAGEGDJI",
                "type": "BODY_LANG",
                "delayTime": 3.1110000610351562,
                "aliasList": [
                    "1005"
                ],
                "actionId": 244,
                "FLBOOPHHFJP": 1190,
                "PMJAMGLAJGK": true,
                "LIMPPBIAKGL": false,
                "FNEGLPPEBBF": true,
                "FNDLJGEAMGI": ""
            },
            {
                "$type": "ECLBLHOENAG",
                "type": "DIALOG_SELECT",
                "delayTime": 3.4749999046325684,
                "aliasList": [
                    "Avatar"
                ],
                "NDMMOPDPKNF": [
                    30090620
                ],
                "FPDBIEGHMCD": [
                    146530575
                ],
                "PKBOIGBGDEG": true
            }
        ],
        [
            {
                "$type": "DLPFECMKEKH",
                "type": "DIALOG",
                "aliasList": [
                    "1005"
                ],
                "NMKEDPFEKBH": 30090621,
                "JLCHMAJCAPA": 6.484000205993652
            },
            {
                "$type": "ILCGAGEGDJI",
                "type": "BODY_LANG",
                "aliasList": [
                    "1005"
                ],
                "actionId": 247,
                "FLBOOPHHFJP": 1170,
                "PMJAMGLAJGK": true,
                "LIMPPBIAKGL": false,
                "FNEGLPPEBBF": true,
                "FNDLJGEAMGI": ""
            },
            {
                "$type": "OPCCDGPJCJI",
                "type": "EMO_SYNC",
                "aliasList": [
                    "1005"
                ],
                "IONNJBCBACJ": "Cs_Emo_Avatar_Simple_Common_Set/Cs_Emo_Avatar_Talk/Cs_Emo_Avatar_MainLine/Cs_Emo_Avatar_Sumeru1/Cs_Emo_30090621",
                "HLEJKBCMNNJ": "",
                "JGHLJJLNGPP": "",
                "MANNKIIBOFM": "",
                "COMNAAFDEDH": "",
                "CPGCCLNOCDK": "",
                "IGEFGCJKCPM": [
                    13801874955118931838,
                    2504515361856960710,
                    3691628766665441096,
                    5451577897137349008
                ]
            },
            {
                "$type": "EAMBKPBOPIC",
                "type": "LOOK_AT",
                "aliasList": [
                    "1005"
                ],
                "actionId": 280,
                "FIDJDPAIFDN": true,
                "useTargetPos": true,
                "GFKIMGBGADJ": true,
                "GMKIJKADNHN": {
                    "x": -428.385009765625,
                    "y": 237.7550048828125,
                    "z": 2744.092041015625
                },
                "BCHGCKLKNEH": 0.5,
                "OMCCMPHDLOO": "",
                "CEBMBGKJACI": "NONE",
                "EOHIIHMKDJC": true,
                "KPCALFDIHMC": "",
                "DBLNLMOPEBP": ""
            },
            {
                "$type": "ILCGAGEGDJI",
                "type": "BODY_LANG",
                "delayTime": 3.7300000190734863,
                "aliasList": [
                    "1005"
                ],
                "actionId": 248,
                "FLBOOPHHFJP": 1110,
                "PMJAMGLAJGK": true,
                "LIMPPBIAKGL": false,
                "FNEGLPPEBBF": true,
                "FNDLJGEAMGI": ""
            },
            {
                "$type": "ILCGAGEGDJI",
                "type": "BODY_LANG",
                "delayTime": 6.348999977111816,
                "aliasList": [
                    "Avatar"
                ],
                "actionId": 249,
                "JLABKFNJCNP": true,
                "PMJAMGLAJGK": true,
                "LIMPPBIAKGL": false,
                "FNEGLPPEBBF": true,
                "FNDLJGEAMGI": ""
            },
            {
                "$type": "ECLBLHOENAG",
                "type": "DIALOG_SELECT",
                "delayTime": 6.484000205993652,
                "aliasList": [
                    "Avatar"
                ],
                "NDMMOPDPKNF": [
                    30090622,
                    30090623
                ],
                "FPDBIEGHMCD": [
                    146530576,
                    146530576
                ],
                "PKBOIGBGDEG": true
            }
        ],
        [
            {
                "$type": "MOOOKOKLLEI",
                "type": "CAMERA_MOVE",
                "duration": 1.0,
                "actionId": 250,
                "DOKGBCKOLJK": {
                    "x": -428.22900390625,
                    "y": 237.72500610351562,
                    "z": 2744.406005859375
                },
                "HGKCPMDICGG": {
                    "x": -428.2309875488281,
                    "y": 237.5959930419922,
                    "z": 2743.4140625
                },
                "AFODHELHCGB": 25.0,
                "MGMFMGNANHH": 6,
                "NDFGFJFGHKL": "EaseInOutCubic",
                "IBCBGNHCICN": {},
                "BNBBLLBEIDL": true,
                "HCPFCAHMGMO": false,
                "OMCCMPHDLOO": "",
                "FEFNBKOHPOG": true,
                "OCFGGGHIKOO": "",
                "LJFHGGJDPHH": "",
                "LPKDFKLNEHL": ""
            },
            {
                "$type": "DLPFECMKEKH",
                "type": "DIALOG",
                "aliasList": [
                    "1005"
                ],
                "NMKEDPFEKBH": 30090624,
                "JLCHMAJCAPA": 0.5
            },
            {
                "$type": "ILCGAGEGDJI",
                "type": "BODY_LANG",
                "aliasList": [
                    "1005"
                ],
                "actionId": 251,
                "FLBOOPHHFJP": 1090,
                "PMJAMGLAJGK": true,
                "LIMPPBIAKGL": false,
                "FNEGLPPEBBF": true,
                "FNDLJGEAMGI": ""
            },
            {
                "$type": "OPCCDGPJCJI",
                "type": "EMO_SYNC",
                "aliasList": [
                    "1005"
                ],
                "IONNJBCBACJ": "Cs_Emo_Avatar_Simple_Common_Set/Cs_Emo_Avatar_Talk/Cs_Emo_Avatar_MainLine/Cs_Emo_Avatar_Sumeru1/Cs_Emo_30090624",
                "HLEJKBCMNNJ": "",
                "JGHLJJLNGPP": "",
                "MANNKIIBOFM": "",
                "COMNAAFDEDH": "",
                "CPGCCLNOCDK": "",
                "IGEFGCJKCPM": [
                    1007295145702395048,
                    10327802291272966819,
                    5042649627405743019,
                    18220953446093063783
                ]
            },
            {
                "$type": "ILCGAGEGDJI",
                "type": "BODY_LANG",
                "delayTime": 2.7820000648498535,
                "aliasList": [
                    "1005"
                ],
                "actionId": 252,
                "FLBOOPHHFJP": 4030,
                "PMJAMGLAJGK": true,
                "LIMPPBIAKGL": false,
                "FNEGLPPEBBF": true,
                "FNDLJGEAMGI": ""
            }
        ],
        [
            {
                "$type": "DLPFECMKEKH",
                "type": "DIALOG",
                "aliasList": [
                    "1005"
                ],
                "NMKEDPFEKBH": 30090625,
                "JLCHMAJCAPA": 0.5
            },
            {
                "$type": "ILCGAGEGDJI",
                "type": "BODY_LANG",
                "aliasList": [
                    "1005"
                ],
                "actionId": 253,
                "FLBOOPHHFJP": 1190,
                "PMJAMGLAJGK": true,
                "LIMPPBIAKGL": false,
                "FNEGLPPEBBF": true,
                "FNDLJGEAMGI": ""
            },
            {
                "$type": "OPCCDGPJCJI",
                "type": "EMO_SYNC",
                "aliasList": [
                    "1005"
                ],
                "IONNJBCBACJ": "Cs_Emo_Avatar_Simple_Common_Set/Cs_Emo_Avatar_Talk/Cs_Emo_Avatar_MainLine/Cs_Emo_Avatar_Sumeru1/Cs_Emo_30090625",
                "HLEJKBCMNNJ": "",
                "JGHLJJLNGPP": "",
                "MANNKIIBOFM": "",
                "COMNAAFDEDH": "",
                "CPGCCLNOCDK": "",
                "HINHCFHAMDI": false,
                "IGEFGCJKCPM": [
                    6440323127496515443,
                    4846053780903643331,
                    3037815052682324932,
                    4211637750181630539
                ]
            },
            {
                "$type": "EAMBKPBOPIC",
                "type": "LOOK_AT",
                "aliasList": [
                    "1005"
                ],
                "actionId": 281,
                "BCHGCKLKNEH": 0.5,
                "OMCCMPHDLOO": "",
                "EOHIIHMKDJC": true,
                "KPCALFDIHMC": "",
                "DBLNLMOPEBP": ""
            },
            {
                "$type": "ILCGAGEGDJI",
                "type": "BODY_LANG",
                "delayTime": 2.688999891281128,
                "aliasList": [
                    "1005"
                ],
                "actionId": 286,
                "JLABKFNJCNP": true,
                "PMJAMGLAJGK": true,
                "LIMPPBIAKGL": false,
                "FNEGLPPEBBF": true,
                "FNDLJGEAMGI": ""
            },
            {
                "$type": "EAMBKPBOPIC",
                "type": "LOOK_AT",
                "delayTime": 2.690999984741211,
                "aliasList": [
                    "1005"
                ],
                "actionId": 282,
                "FIDJDPAIFDN": true,
                "useTargetPos": true,
                "GFKIMGBGADJ": true,
                "GMKIJKADNHN": {
                    "x": -428.385009765625,
                    "y": 237.7550048828125,
                    "z": 2744.092041015625
                },
                "BCHGCKLKNEH": 0.5,
                "OMCCMPHDLOO": "",
                "CEBMBGKJACI": "NONE",
                "EOHIIHMKDJC": true,
                "KPCALFDIHMC": "",
                "DBLNLMOPEBP": ""
            },
            {
                "$type": "ILCGAGEGDJI",
                "type": "BODY_LANG",
                "delayTime": 5.308000087738037,
                "aliasList": [
                    "1005"
                ],
                "actionId": 255,
                "FLBOOPHHFJP": 1260,
                "PMJAMGLAJGK": true,
                "LIMPPBIAKGL": false,
                "FNEGLPPEBBF": true,
                "FNDLJGEAMGI": ""
            }
        ],
        [
            {
                "$type": "MoleMole.Config.ConfigSimpleBlackScreenAction",
                "type": "SIMPLE_BLACK_SCREEN",
                "durationToBlack": 0.5,
                "durationKeepBlack": 1.0,
                "durationFromBlack": 0.5,
                "textMapID": ""
            },
            {
                "$type": "MoleMole.Config.ConfigTimeProtectAction",
                "type": "TIME_PROTECT",
                "duration": 0.699999988079071
            },
            {
                "$type": "MOOOKOKLLEI",
                "type": "CAMERA_MOVE",
                "delayTime": 0.6000000238418579,
                "duration": 0.10000000149011612,
                "actionId": 283,
                "DOKGBCKOLJK": {
                    "x": -432.4949951171875,
                    "y": 237.80999755859375,
                    "z": 2743.464111328125
                },
                "HGKCPMDICGG": {
                    "x": -431.5150146484375,
                    "y": 237.68099975585938,
                    "z": 2743.616943359375
                },
                "MGMFMGNANHH": 6,
                "NDFGFJFGHKL": "EaseInOutCubic",
                "IBCBGNHCICN": {},
                "BNBBLLBEIDL": true,
                "HCPFCAHMGMO": false,
                "OMCCMPHDLOO": "",
                "FEFNBKOHPOG": true,
                "OCFGGGHIKOO": "",
                "LJFHGGJDPHH": "",
                "LPKDFKLNEHL": ""
            }
        ]
    ],
    "groupId": [
        {
            "grpId": 1113105448,
            "nextGrpId": 1113105449
        },
        {
            "index": 1,
            "grpId": 1113105449,
            "nextGrpId": 1113105450
        },
        {
            "index": 2,
            "grpId": 1113105450,
            "nextGrpId": 1113105451
        },
        {
            "index": 3,
            "grpId": 1113105451,
            "nextGrpId": 1113105452
        },
        {
            "index": 4,
            "grpId": 1113105452,
            "nextGrpId": 1113105453
        },
        {
            "index": 5,
            "grpId": 1113105453,
            "nextGrpId": 1113105454
        },
        {
            "index": 6,
            "grpId": 1113105454,
            "nextGrpId": 1113105455
        },
        {
            "index": 7,
            "grpId": 1113105455,
            "nextGrpId": 1113105456
        },
        {
            "index": 8,
            "grpId": 1113105456,
            "nextGrpId": 146530568
        },
        {
            "index": 9,
            "grpId": 146530568,
            "nextGrpId": 146530569
        },
        {
            "index": 10,
            "grpId": 146530569,
            "nextGrpId": 146530570
        },
        {
            "index": 11,
            "grpId": 146530570,
            "nextGrpId": 146530571
        },
        {
            "index": 12,
            "grpId": 146530571,
            "nextGrpId": 146530572
        },
        {
            "index": 13,
            "grpId": 146530572,
            "nextGrpId": 146530573
        },
        {
            "index": 14,
            "grpId": 146530573,
            "nextGrpId": 146530574
        },
        {
            "index": 15,
            "grpId": 146530574,
            "nextGrpId": 146530575
        },
        {
            "index": 16,
            "grpId": 146530575,
            "nextGrpId": 146530576
        },
        {
            "index": 17,
            "grpId": 146530576,
            "nextGrpId": 146530577
        },
        {
            "index": 18,
            "grpId": 146530577,
            "nextGrpId": 146530599
        },
        {
            "index": 19,
            "grpId": 146530599,
            "nextGrpId": 146530600
        }
    ],
    "freeStyleDic": {
        "4018": [
            1200,
            1120,
            4030,
            1121,
            1050,
            1110,
            1060,
            1173,
            1190,
            1171,
            1130
        ]
    }
}