{
    "id": 5900151,
    "beginCond": [
        {
            "type": "QUEST_COND_IS_CUR_BLOSSOM_TALK"
        }
    ],
    "priority": 1,
    "initDialog": 590015101,
    "npcId": [
        5148
    ],
    "performCfg": "",
    "loadType": "TALK_BLOSSOM",
    "assetIndex": 11386553770243392152,
    "prePerformCfg": ""
}