{
    "luaDataPath": "",
    "startBlackKeepTime": 0.5,
    "entityBan": "",
    "disableNpcLod": true,
    "isAutoBanNpc": true,
    "isBanWidgetPet": true,
    "protectNpcMobileLod": true,
    "startFade": {
        "startFadeInDuration": 0.5,
        "startFadeOutDuration": 0.5
    },
    "endFade": {
        "startFadeOutDuration": 0.0
    },
    "actors": [
        {
            "alias": "Avatar",
            "visible": true,
            "bornPointName": "Q7304903_player",
            "relativePosNpcAlias": "",
            "bindMovingTargetKey": ""
        },
        {
            "configID": 20712,
            "alias": "20712",
            "visible": true,
            "bornPointName": "Q7304903_N20712",
            "relativePosNpcAlias": "",
            "bindMovingTargetKey": ""
        },
        {
            "configID": 20713,
            "alias": "20713",
            "visible": true,
            "bornPointName": "Q7304903_N20713",
            "relativePosNpcAlias": "",
            "bindMovingTargetKey": ""
        },
        {
            "configID": 1005,
            "alias": "1005",
            "visible": true,
            "bornPointName": "Q7304903_player",
            "removeActorType": "REMOVE_WITH_DISAPPEAR",
            "relativePosType": "AVATAR_NEW",
            "relativePosNpcAlias": "",
            "bindMovingTargetKey": ""
        }
    ],
    "group": [
        [
            {
                "$type": "MOOOKOKLLEI",
                "type": "CAMERA_MOVE",
                "duration": 1.0,
                "actionId": 152,
                "DOKGBCKOLJK": {
                    "x": -1232.5999755859375,
                    "y": 233.4669952392578,
                    "z": 3740.98095703125
                },
                "HGKCPMDICGG": {
                    "x": -1232.262939453125,
                    "y": 233.4810028076172,
                    "z": 3741.922119140625
                },
                "AFODHELHCGB": 20.0,
                "MGMFMGNANHH": 6,
                "NDFGFJFGHKL": "EaseInOutCubic",
                "IBCBGNHCICN": {},
                "HCPFCAHMGMO": false,
                "OMCCMPHDLOO": "",
                "FEFNBKOHPOG": true,
                "OCFGGGHIKOO": "",
                "LJFHGGJDPHH": "",
                "LPKDFKLNEHL": ""
            },
            {
                "$type": "MoleMole.Config.ConfigBlackScreenAction",
                "type": "BLACK_SCREEN",
                "actionId": 153,
                "blackScreenType": "KEEP_BLACK",
                "durationKeepBlack": 1.0,
                "inteePos": "",
                "textMapID": "",
                "useTextFade": true
            },
            {
                "$type": "MoleMole.Config.ConfigTimeProtectAction",
                "type": "TIME_PROTECT",
                "duration": 1.0,
                "actionId": 158
            },
            {
                "$type": "MoleMole.Config.ConfigTeleportToAction",
                "type": "TELEPORT_TO",
                "aliasList": [
                    "Avatar"
                ],
                "actionId": 154,
                "position": {
                    "x": -1231.9859619140625,
                    "y": 232.22900390625,
                    "z": 3742.7490234375
                },
                "forward": {
                    "x": -7.839000225067139,
                    "y": 1.4429999589920044,
                    "z": 3.3420000076293945
                },
                "openLongDisTeleport": true,
                "posBindMovingTargetKey": "",
                "forwardBindMovingTargetKey": ""
            },
            {
                "$type": "EAMBKPBOPIC",
                "type": "LOOK_AT",
                "aliasList": [
                    "Avatar"
                ],
                "actionId": 159,
                "FIDJDPAIFDN": true,
                "useTargetPos": true,
                "GFKIMGBGADJ": true,
                "GMKIJKADNHN": {
                    "x": -1240.551025390625,
                    "y": 236.15899658203125,
                    "z": 3745.87109375
                },
                "BCHGCKLKNEH": 0.5,
                "OMCCMPHDLOO": "",
                "CEBMBGKJACI": "NONE",
                "EOHIIHMKDJC": true,
                "KPCALFDIHMC": "",
                "DBLNLMOPEBP": ""
            },
            {
                "$type": "MoleMole.Config.ConfigTeleportToAction",
                "type": "TELEPORT_TO",
                "aliasList": [
                    "20712"
                ],
                "actionId": 182,
                "position": {
                    "x": -1248.708984375,
                    "y": 237.18600463867188,
                    "z": 3751.285888671875
                },
                "forward": {
                    "x": 0.6439999938011169,
                    "y": -0.007000000216066837,
                    "z": 0.7639999985694885
                },
                "openLongDisTeleport": true,
                "posBindMovingTargetKey": "",
                "forwardBindMovingTargetKey": ""
            },
            {
                "$type": "EAMBKPBOPIC",
                "type": "LOOK_AT",
                "aliasList": [
                    "20712"
                ],
                "actionId": 229,
                "useTargetPos": true,
                "GFKIMGBGADJ": true,
                "GMKIJKADNHN": {
                    "x": -1248.2449951171875,
                    "y": 238.68099975585938,
                    "z": 3751.5380859375
                },
                "BCHGCKLKNEH": 0.5,
                "OMCCMPHDLOO": "",
                "CEBMBGKJACI": "NONE",
                "KPCALFDIHMC": "",
                "DBLNLMOPEBP": ""
            },
            {
                "$type": "MoleMole.Config.ConfigTeleportToAction",
                "type": "TELEPORT_TO",
                "aliasList": [
                    "20713"
                ],
                "actionId": 197,
                "position": {
                    "x": -1248.4759521484375,
                    "y": 237.16400146484375,
                    "z": 3752.618896484375
                },
                "forward": {
                    "x": -0.2919999957084656,
                    "z": -0.9890000224113464
                },
                "openLongDisTeleport": true,
                "posBindMovingTargetKey": "",
                "forwardBindMovingTargetKey": ""
            },
            {
                "$type": "MoleMole.Config.ConfigTeleportToAction",
                "type": "TELEPORT_TO",
                "aliasList": [
                    "1005"
                ],
                "actionId": 155,
                "position": {
                    "x": -1232.0419921875,
                    "y": 232.18099975585938,
                    "z": 3741.50390625
                },
                "forward": {
                    "x": -7.752999782562256,
                    "y": 1.4910000562667847,
                    "z": 3.9830000400543213
                },
                "openLongDisTeleport": true,
                "posBindMovingTargetKey": "",
                "forwardBindMovingTargetKey": ""
            },
            {
                "$type": "EAMBKPBOPIC",
                "type": "LOOK_AT",
                "aliasList": [
                    "1005"
                ],
                "actionId": 160,
                "FIDJDPAIFDN": true,
                "useTargetPos": true,
                "GFKIMGBGADJ": true,
                "GMKIJKADNHN": {
                    "x": -1241.041015625,
                    "y": 235.8990020751953,
                    "z": 3745.885009765625
                },
                "BCHGCKLKNEH": 0.5,
                "OMCCMPHDLOO": "",
                "CEBMBGKJACI": "NONE",
                "EOHIIHMKDJC": true,
                "KPCALFDIHMC": "",
                "DBLNLMOPEBP": ""
            }
        ],
        [
            {
                "$type": "MoleMole.Config.ConfigTimeProtectAction",
                "type": "TIME_PROTECT",
                "duration": 4.7170000076293945
            },
            {
                "$type": "MOOOKOKLLEI",
                "type": "CAMERA_MOVE",
                "duration": 4.650000095367432,
                "actionId": 149,
                "DOKGBCKOLJK": {
                    "x": -1237.9010009765625,
                    "y": 235.64100646972656,
                    "z": 3744.281005859375
                },
                "HGKCPMDICGG": {
                    "x": -1236.968994140625,
                    "y": 235.34500122070312,
                    "z": 3744.071044921875
                },
                "AFODHELHCGB": 20.0,
                "MGMFMGNANHH": 6,
                "NDFGFJFGHKL": "Linear",
                "IBCBGNHCICN": {},
                "BNBBLLBEIDL": true,
                "HCPFCAHMGMO": false,
                "OMCCMPHDLOO": "",
                "FEFNBKOHPOG": true,
                "OCFGGGHIKOO": "",
                "LJFHGGJDPHH": "",
                "LPKDFKLNEHL": ""
            },
            {
                "$type": "MoleMole.Config.ConfigBlackScreenAction",
                "type": "BLACK_SCREEN",
                "actionId": 150,
                "blackScreenType": "FROM_BLACK",
                "durationFromBlack": 0.5,
                "inteePos": "",
                "textMapID": "",
                "useTextFade": true
            },
            {
                "$type": "MoleMole.Config.ConfigMoveToAction",
                "type": "MOVE_TO",
                "aliasList": [
                    "Avatar"
                ],
                "actionId": 147,
                "moveType": "WALK",
                "routeList": [
                    {
                        "x": -1235.3480224609375,
                        "y": 233.6790008544922,
                        "z": 3743.802978515625
                    }
                ],
                "bindMovingTargetKey": ""
            },
            {
                "$type": "EAMBKPBOPIC",
                "type": "LOOK_AT",
                "aliasList": [
                    "20713"
                ],
                "actionId": 219,
                "FIDJDPAIFDN": true,
                "BCHGCKLKNEH": 0.5,
                "OMCCMPHDLOO": "20712",
                "EOHIIHMKDJC": true,
                "KPCALFDIHMC": "",
                "DBLNLMOPEBP": ""
            },
            {
                "$type": "MoleMole.Config.ConfigMoveToAction",
                "type": "MOVE_TO",
                "aliasList": [
                    "1005"
                ],
                "actionId": 148,
                "moveType": "WALK",
                "routeList": [
                    {
                        "x": -1235.85205078125,
                        "y": 233.69700622558594,
                        "z": 3743.2900390625
                    }
                ],
                "bindMovingTargetKey": ""
            },
            {
                "$type": "MOOOKOKLLEI",
                "type": "CAMERA_MOVE",
                "delayTime": 0.10000000149011612,
                "duration": 4.650000095367432,
                "actionId": 157,
                "DOKGBCKOLJK": {
                    "x": -1238.0059814453125,
                    "y": 235.7030029296875,
                    "z": 3744.05908203125
                },
                "HGKCPMDICGG": {
                    "x": -1237.073974609375,
                    "y": 235.39500427246094,
                    "z": 3743.868896484375
                },
                "AFODHELHCGB": 20.0,
                "NDFGFJFGHKL": "EaseOutQuad",
                "IBCBGNHCICN": {},
                "BNBBLLBEIDL": true,
                "HCPFCAHMGMO": false,
                "OMCCMPHDLOO": "",
                "FEFNBKOHPOG": true,
                "OCFGGGHIKOO": "",
                "LJFHGGJDPHH": "",
                "LPKDFKLNEHL": ""
            }
        ],
        [
            {
                "$type": "MOOOKOKLLEI",
                "type": "CAMERA_MOVE",
                "duration": 0.5,
                "actionId": 163,
                "DOKGBCKOLJK": {
                    "x": -1234.9580078125,
                    "y": 235.14999389648438,
                    "z": 3744.928955078125
                },
                "HGKCPMDICGG": {
                    "x": -1235.43603515625,
                    "y": 235.03599548339844,
                    "z": 3744.05810546875
                },
                "AFODHELHCGB": 20.0,
                "MGMFMGNANHH": 6,
                "NDFGFJFGHKL": "Linear",
                "IBCBGNHCICN": {},
                "BNBBLLBEIDL": true,
                "HCPFCAHMGMO": false,
                "OMCCMPHDLOO": "",
                "FEFNBKOHPOG": true,
                "OCFGGGHIKOO": "",
                "LJFHGGJDPHH": "",
                "LPKDFKLNEHL": ""
            },
            {
                "$type": "OPCCDGPJCJI",
                "type": "EMO_SYNC",
                "aliasList": [
                    "1005"
                ],
                "actionId": 168,
                "IONNJBCBACJ": "",
                "HLEJKBCMNNJ": "Cs_Emo_Pet_Common/Cs_Emo_Paimon_U",
                "JGHLJJLNGPP": "Cs_Emo_Pet_Common/Cs_Emo_Paimon_Surprise01",
                "MANNKIIBOFM": "",
                "COMNAAFDEDH": "",
                "CPGCCLNOCDK": "",
                "MFABDGAFKII": [
                    6991879931433059296,
                    889867491303692357,
                    12176798010635765966,
                    669129326982603178
                ],
                "IPAGHAALIII": [
                    5172069665041538778,
                    3817339641546978999,
                    1481313530412781419,
                    15209838585823257773
                ]
            },
            {
                "$type": "CJKIHIFAALJ",
                "type": "LOOK_AT_EYECTRL",
                "aliasList": [
                    "1005"
                ],
                "actionId": 167,
                "useTargetPos": false,
                "KOPLMCFNFEH": {
                    "z": -3.0
                },
                "DONDAIFPGMK": {
                    "z": -3.0
                },
                "BJMEKPDGMPA": 0.20000000298023224,
                "OMCCMPHDLOO": "",
                "OPPBKKOPIOB": "Face"
            },
            {
                "$type": "OOMFCPJAJGL",
                "type": "STEER_TO",
                "duration": 2.0,
                "aliasList": [
                    "1005"
                ],
                "actionId": 166,
                "DMGIIHNDNLC": "ABSOLUTE",
                "PLAPKCOMAKJ": {
                    "x": -1235.9739990234375,
                    "y": 233.84500122070312,
                    "z": 3744.51611328125
                },
                "OMCCMPHDLOO": "",
                "DBLNLMOPEBP": ""
            },
            {
                "$type": "EAMBKPBOPIC",
                "type": "LOOK_AT",
                "aliasList": [
                    "1005"
                ],
                "actionId": 161,
                "BCHGCKLKNEH": 0.5,
                "OMCCMPHDLOO": "",
                "EOHIIHMKDJC": true,
                "KPCALFDIHMC": "",
                "DBLNLMOPEBP": ""
            },
            {
                "$type": "DLPFECMKEKH",
                "type": "DIALOG",
                "aliasList": [
                    "1005"
                ],
                "NMKEDPFEKBH": 730490317,
                "JLCHMAJCAPA": 4.333000183105469
            },
            {
                "$type": "ILCGAGEGDJI",
                "type": "BODY_LANG",
                "aliasList": [
                    "1005"
                ],
                "actionId": 161,
                "FLBOOPHHFJP": 1440,
                "PMJAMGLAJGK": true,
                "LIMPPBIAKGL": false,
                "FNEGLPPEBBF": true,
                "FNDLJGEAMGI": ""
            },
            {
                "$type": "EAMBKPBOPIC",
                "type": "LOOK_AT",
                "aliasList": [
                    "Avatar"
                ],
                "actionId": 172,
                "FIDJDPAIFDN": true,
                "useTargetPos": true,
                "GFKIMGBGADJ": true,
                "GMKIJKADNHN": {
                    "x": -1236.0240478515625,
                    "y": 235.04800415039062,
                    "z": 3743.47509765625
                },
                "BCHGCKLKNEH": 0.5,
                "OMCCMPHDLOO": "",
                "CEBMBGKJACI": "NONE",
                "EOHIIHMKDJC": true,
                "KPCALFDIHMC": "",
                "DBLNLMOPEBP": ""
            },
            {
                "$type": "MoleMole.Config.ConfigTimeProtectAction",
                "type": "TIME_PROTECT",
                "duration": 5.710000038146973,
                "actionId": 248
            },
            {
                "$type": "CJKIHIFAALJ",
                "type": "LOOK_AT_EYECTRL",
                "delayTime": 1.3910000324249268,
                "aliasList": [
                    "1005"
                ],
                "actionId": 170,
                "useTargetPos": false,
                "KOPLMCFNFEH": {
                    "x": -5.0,
                    "z": -3.0
                },
                "DONDAIFPGMK": {
                    "x": -5.0,
                    "z": -3.0
                },
                "BJMEKPDGMPA": 1.0,
                "OMCCMPHDLOO": "",
                "OPPBKKOPIOB": "Face"
            },
            {
                "$type": "EAMBKPBOPIC",
                "type": "LOOK_AT",
                "delayTime": 1.3990000486373901,
                "aliasList": [
                    "1005"
                ],
                "actionId": 169,
                "FIDJDPAIFDN": true,
                "useTargetPos": true,
                "GFKIMGBGADJ": true,
                "GMKIJKADNHN": {
                    "x": -1236.02099609375,
                    "y": 235.00100708007812,
                    "z": 3743.887939453125
                },
                "BCHGCKLKNEH": 0.5,
                "OMCCMPHDLOO": "",
                "CEBMBGKJACI": "NONE",
                "EOHIIHMKDJC": true,
                "KPCALFDIHMC": "",
                "DBLNLMOPEBP": ""
            },
            {
                "$type": "OPCCDGPJCJI",
                "type": "EMO_SYNC",
                "delayTime": 1.3990000486373901,
                "aliasList": [
                    "1005"
                ],
                "actionId": 171,
                "IONNJBCBACJ": "",
                "HLEJKBCMNNJ": "Cs_Emo_Pet_Common/Cs_Emo_Paimon_Angry01",
                "JGHLJJLNGPP": "Cs_Emo_Pet_Common/Cs_Emo_Paimon_Normal02",
                "MANNKIIBOFM": "",
                "COMNAAFDEDH": "",
                "CPGCCLNOCDK": "",
                "MFABDGAFKII": [
                    8887624181441475292,
                    18209086005751125871,
                    3291038487434063407,
                    2002509548947436691
                ],
                "IPAGHAALIII": [
                    18069355584172837685,
                    15252089842078405392,
                    3912795416900241226,
                    13220211510885340510
                ]
            },
            {
                "$type": "EAMBKPBOPIC",
                "type": "LOOK_AT",
                "delayTime": 1.9129999876022339,
                "aliasList": [
                    "Avatar"
                ],
                "actionId": 173,
                "FIDJDPAIFDN": true,
                "useTargetPos": true,
                "GFKIMGBGADJ": true,
                "GMKIJKADNHN": {
                    "x": -1236.511962890625,
                    "y": 235.31700134277344,
                    "z": 3744.0029296875
                },
                "BCHGCKLKNEH": 0.5,
                "OMCCMPHDLOO": "",
                "CEBMBGKJACI": "NONE",
                "EOHIIHMKDJC": true,
                "KPCALFDIHMC": "",
                "DBLNLMOPEBP": ""
            },
            {
                "$type": "MOOOKOKLLEI",
                "type": "CAMERA_MOVE",
                "delayTime": 2.8329999446868896,
                "duration": 0.5,
                "actionId": 178,
                "DOKGBCKOLJK": {
                    "x": -1241.0579833984375,
                    "y": 237.52200317382812,
                    "z": 3749.570068359375
                },
                "HGKCPMDICGG": {
                    "x": -1242.0,
                    "y": 237.71800231933594,
                    "z": 3749.842041015625
                },
                "AFODHELHCGB": 40.0,
                "MGMFMGNANHH": 6,
                "NDFGFJFGHKL": "Linear",
                "IBCBGNHCICN": {},
                "BNBBLLBEIDL": true,
                "HCPFCAHMGMO": false,
                "OMCCMPHDLOO": "",
                "FEFNBKOHPOG": true,
                "OCFGGGHIKOO": "",
                "LJFHGGJDPHH": "",
                "LPKDFKLNEHL": ""
            },
            {
                "$type": "EAMBKPBOPIC",
                "type": "LOOK_AT",
                "delayTime": 2.9110000133514404,
                "aliasList": [
                    "Avatar"
                ],
                "actionId": 188,
                "FIDJDPAIFDN": true,
                "useTargetPos": true,
                "GFKIMGBGADJ": true,
                "GMKIJKADNHN": {
                    "x": -1237.2060546875,
                    "y": 235.48800659179688,
                    "z": 3744.7490234375
                },
                "BCHGCKLKNEH": 0.5,
                "OMCCMPHDLOO": "",
                "CEBMBGKJACI": "NONE",
                "EOHIIHMKDJC": true,
                "KPCALFDIHMC": "",
                "DBLNLMOPEBP": ""
            },
            {
                "$type": "MOOOKOKLLEI",
                "type": "CAMERA_MOVE",
                "delayTime": 2.933000087738037,
                "duration": 3.86899995803833,
                "actionId": 174,
                "DOKGBCKOLJK": {
                    "x": -1241.0699462890625,
                    "y": 237.5240020751953,
                    "z": 3749.52587890625
                },
                "HGKCPMDICGG": {
                    "x": -1242.011962890625,
                    "y": 237.72000122070312,
                    "z": 3749.798095703125
                },
                "AFODHELHCGB": 40.0,
                "NDFGFJFGHKL": "EaseOutQuad",
                "IBCBGNHCICN": {},
                "BNBBLLBEIDL": true,
                "HCPFCAHMGMO": false,
                "OMCCMPHDLOO": "",
                "FEFNBKOHPOG": true,
                "OCFGGGHIKOO": "",
                "LJFHGGJDPHH": "",
                "LPKDFKLNEHL": ""
            },
            {
                "$type": "EAMBKPBOPIC",
                "type": "LOOK_AT",
                "delayTime": 3.0250000953674316,
                "aliasList": [
                    "1005"
                ],
                "actionId": 193,
                "FIDJDPAIFDN": true,
                "BCHGCKLKNEH": 0.5,
                "OMCCMPHDLOO": "Avatar",
                "EOHIIHMKDJC": true,
                "KPCALFDIHMC": "",
                "DBLNLMOPEBP": ""
            },
            {
                "$type": "ILCGAGEGDJI",
                "type": "BODY_LANG",
                "delayTime": 3.0480000972747803,
                "aliasList": [
                    "1005"
                ],
                "actionId": 192,
                "JLABKFNJCNP": true,
                "PMJAMGLAJGK": true,
                "LIMPPBIAKGL": false,
                "FNEGLPPEBBF": true,
                "FNDLJGEAMGI": ""
            }
        ],
        [
            {
                "$type": "DLPFECMKEKH",
                "type": "DIALOG_CLEAR",
                "actionId": 185
            },
            {
                "$type": "MOOOKOKLLEI",
                "type": "CAMERA_MOVE",
                "duration": 0.5,
                "actionId": 186,
                "DOKGBCKOLJK": {
                    "x": -1237.487060546875,
                    "y": 235.1280059814453,
                    "z": 3743.653076171875
                },
                "HGKCPMDICGG": {
                    "x": -1236.489013671875,
                    "y": 235.06700134277344,
                    "z": 3743.6708984375
                },
                "AFODHELHCGB": 20.0,
                "MGMFMGNANHH": 6,
                "NDFGFJFGHKL": "Linear",
                "IBCBGNHCICN": {},
                "BNBBLLBEIDL": true,
                "HCPFCAHMGMO": false,
                "OMCCMPHDLOO": "",
                "FEFNBKOHPOG": true,
                "OCFGGGHIKOO": "",
                "LJFHGGJDPHH": "",
                "LPKDFKLNEHL": ""
            },
            {
                "$type": "MoleMole.Config.ConfigTimeProtectAction",
                "type": "TIME_PROTECT",
                "duration": 3.5179998874664307,
                "actionId": 199
            },
            {
                "$type": "EAMBKPBOPIC",
                "type": "LOOK_AT",
                "delayTime": 0.49900001287460327,
                "aliasList": [
                    "Avatar"
                ],
                "actionId": 189,
                "FIDJDPAIFDN": true,
                "useTargetPos": true,
                "GFKIMGBGADJ": true,
                "GMKIJKADNHN": {
                    "x": -1236.196044921875,
                    "y": 234.947998046875,
                    "z": 3743.3720703125
                },
                "BCHGCKLKNEH": 0.5,
                "OMCCMPHDLOO": "",
                "CEBMBGKJACI": "NONE",
                "EOHIIHMKDJC": true,
                "KPCALFDIHMC": "",
                "DBLNLMOPEBP": ""
            },
            {
                "$type": "CJKIHIFAALJ",
                "type": "LOOK_AT_EYECTRL",
                "delayTime": 0.5270000100135803,
                "aliasList": [
                    "Avatar"
                ],
                "actionId": 195,
                "useTargetPos": false,
                "KOPLMCFNFEH": {
                    "x": -7.0
                },
                "DONDAIFPGMK": {
                    "x": -7.0
                },
                "BJMEKPDGMPA": 0.30000001192092896,
                "OMCCMPHDLOO": "",
                "OPPBKKOPIOB": "Face"
            },
            {
                "$type": "EAMBKPBOPIC",
                "type": "LOOK_AT",
                "delayTime": 1.5959999561309814,
                "aliasList": [
                    "Avatar"
                ],
                "actionId": 190,
                "FIDJDPAIFDN": true,
                "useTargetPos": true,
                "GFKIMGBGADJ": true,
                "GMKIJKADNHN": {
                    "x": -1236.218994140625,
                    "y": 234.947998046875,
                    "z": 3743.992919921875
                },
                "BCHGCKLKNEH": 0.30000001192092896,
                "OMCCMPHDLOO": "",
                "CEBMBGKJACI": "NONE",
                "EOHIIHMKDJC": true,
                "KPCALFDIHMC": "",
                "DBLNLMOPEBP": ""
            },
            {
                "$type": "EAMBKPBOPIC",
                "type": "LOOK_AT",
                "delayTime": 1.8940000534057617,
                "aliasList": [
                    "Avatar"
                ],
                "actionId": 194,
                "FIDJDPAIFDN": true,
                "useTargetPos": true,
                "GFKIMGBGADJ": true,
                "GMKIJKADNHN": {
                    "x": -1236.2220458984375,
                    "y": 234.947998046875,
                    "z": 3743.7509765625
                },
                "BCHGCKLKNEH": 0.4000000059604645,
                "OMCCMPHDLOO": "",
                "CEBMBGKJACI": "NONE",
                "EOHIIHMKDJC": true,
                "KPCALFDIHMC": "",
                "DBLNLMOPEBP": ""
            },
            {
                "$type": "OOMFCPJAJGL",
                "type": "STEER_TO",
                "delayTime": 2.5350000858306885,
                "duration": 1.0,
                "aliasList": [
                    "Avatar"
                ],
                "actionId": 201,
                "DMGIIHNDNLC": "ABSOLUTE",
                "PLAPKCOMAKJ": {
                    "x": -1236.0589599609375,
                    "y": 234.30799865722656,
                    "z": 3746.10693359375
                },
                "HCMINPNPFDF": true,
                "PENAEBFAHCH": true,
                "CKOEAJFMDON": true,
                "OMCCMPHDLOO": "",
                "DBLNLMOPEBP": ""
            },
            {
                "$type": "EAMBKPBOPIC",
                "type": "LOOK_AT",
                "delayTime": 2.5460000038146973,
                "aliasList": [
                    "Avatar"
                ],
                "actionId": 200,
                "BCHGCKLKNEH": 0.5,
                "OMCCMPHDLOO": "",
                "EOHIIHMKDJC": true,
                "KPCALFDIHMC": "",
                "DBLNLMOPEBP": ""
            }
        ],
        [
            {
                "$type": "MOOOKOKLLEI",
                "type": "CAMERA_MOVE",
                "duration": 0.5,
                "actionId": 206,
                "DOKGBCKOLJK": {
                    "x": -1232.8489990234375,
                    "y": 235.86900329589844,
                    "z": 3739.81298828125
                },
                "HGKCPMDICGG": {
                    "x": -1233.52099609375,
                    "y": 235.8560028076172,
                    "z": 3740.552978515625
                },
                "AFODHELHCGB": 35.0,
                "MGMFMGNANHH": 6,
                "NDFGFJFGHKL": "Linear",
                "IBCBGNHCICN": {},
                "BNBBLLBEIDL": true,
                "HCPFCAHMGMO": false,
                "OMCCMPHDLOO": "",
                "FEFNBKOHPOG": true,
                "OCFGGGHIKOO": "",
                "LJFHGGJDPHH": "",
                "LPKDFKLNEHL": ""
            },
            {
                "$type": "MoleMole.Config.ConfigTimeProtectAction",
                "type": "TIME_PROTECT",
                "duration": 4.454999923706055,
                "actionId": 212
            },
            {
                "$type": "MoleMole.Config.ConfigMoveToAction",
                "type": "MOVE_TO",
                "aliasList": [
                    "Avatar"
                ],
                "actionId": 204,
                "moveType": "RUN",
                "routeList": [
                    {
                        "x": -1236.31494140625,
                        "y": 234.55999755859375,
                        "z": 3747.805908203125
                    }
                ],
                "exactlyMove": true,
                "bindMovingTargetKey": ""
            },
            {
                "$type": "EAMBKPBOPIC",
                "type": "LOOK_AT",
                "aliasList": [
                    "1005"
                ],
                "actionId": 215,
                "FIDJDPAIFDN": true,
                "BCHGCKLKNEH": 0.5,
                "OMCCMPHDLOO": "Avatar",
                "EOHIIHMKDJC": true,
                "KPCALFDIHMC": "",
                "DBLNLMOPEBP": ""
            },
            {
                "$type": "MOOOKOKLLEI",
                "type": "CAMERA_MOVE",
                "delayTime": 0.10000000149011612,
                "duration": 5.39900016784668,
                "actionId": 203,
                "DOKGBCKOLJK": {
                    "x": -1233.656005859375,
                    "y": 237.45799255371094,
                    "z": 3739.10693359375
                },
                "HGKCPMDICGG": {
                    "x": -1234.3280029296875,
                    "y": 237.44500732421875,
                    "z": 3739.846923828125
                },
                "AFODHELHCGB": 35.0,
                "NDFGFJFGHKL": "EaseOutQuad",
                "IBCBGNHCICN": {},
                "BNBBLLBEIDL": true,
                "HCPFCAHMGMO": false,
                "OMCCMPHDLOO": "",
                "FEFNBKOHPOG": true,
                "OCFGGGHIKOO": "",
                "LJFHGGJDPHH": "",
                "LPKDFKLNEHL": ""
            },
            {
                "$type": "MoleMole.Config.ConfigMoveToAction",
                "type": "MOVE_TO",
                "delayTime": 0.4880000054836273,
                "aliasList": [
                    "1005"
                ],
                "actionId": 205,
                "moveType": "RUN",
                "routeList": [
                    {
                        "x": -1236.5,
                        "y": 234.46400451660156,
                        "z": 3746.72900390625
                    }
                ],
                "exactlyMove": true,
                "bindMovingTargetKey": ""
            },
            {
                "$type": "OOMFCPJAJGL",
                "type": "STEER_TO",
                "delayTime": 1.7730000019073486,
                "duration": 1.0,
                "aliasList": [
                    "Avatar"
                ],
                "actionId": 214,
                "DMGIIHNDNLC": "ABSOLUTE",
                "PLAPKCOMAKJ": {
                    "x": -1240.7769775390625,
                    "y": 234.6739959716797,
                    "z": 3748.7548828125
                },
                "HCMINPNPFDF": true,
                "PENAEBFAHCH": true,
                "CKOEAJFMDON": true,
                "OMCCMPHDLOO": "",
                "DBLNLMOPEBP": ""
            },
            {
                "$type": "CJKIHIFAALJ",
                "type": "LOOK_AT_EYECTRL",
                "delayTime": 1.7890000343322754,
                "aliasList": [
                    "Avatar"
                ],
                "actionId": 228,
                "useTargetPos": false,
                "BJMEKPDGMPA": 1.0,
                "OMCCMPHDLOO": "",
                "OPPBKKOPIOB": "Face"
            },
            {
                "$type": "EAMBKPBOPIC",
                "type": "LOOK_AT",
                "delayTime": 1.7899999618530273,
                "aliasList": [
                    "Avatar"
                ],
                "actionId": 217,
                "FIDJDPAIFDN": true,
                "useTargetPos": true,
                "GFKIMGBGADJ": true,
                "GMKIJKADNHN": {
                    "x": -1243.157958984375,
                    "y": 238.0189971923828,
                    "z": 3749.4619140625
                },
                "BCHGCKLKNEH": 0.5,
                "OMCCMPHDLOO": "",
                "CEBMBGKJACI": "NONE",
                "EOHIIHMKDJC": true,
                "KPCALFDIHMC": "",
                "DBLNLMOPEBP": ""
            },
            {
                "$type": "OOMFCPJAJGL",
                "type": "STEER_TO",
                "delayTime": 2.7709999084472656,
                "duration": 1.0,
                "aliasList": [
                    "1005"
                ],
                "actionId": 216,
                "DMGIIHNDNLC": "ABSOLUTE",
                "PLAPKCOMAKJ": {
                    "x": -1240.7769775390625,
                    "y": 234.6739959716797,
                    "z": 3748.7548828125
                },
                "HCMINPNPFDF": true,
                "PENAEBFAHCH": true,
                "CKOEAJFMDON": true,
                "OMCCMPHDLOO": "",
                "DBLNLMOPEBP": ""
            },
            {
                "$type": "EAMBKPBOPIC",
                "type": "LOOK_AT",
                "delayTime": 2.7709999084472656,
                "aliasList": [
                    "1005"
                ],
                "actionId": 218,
                "FIDJDPAIFDN": true,
                "useTargetPos": true,
                "GFKIMGBGADJ": true,
                "GMKIJKADNHN": {
                    "x": -1243.157958984375,
                    "y": 238.0189971923828,
                    "z": 3749.4619140625
                },
                "BCHGCKLKNEH": 0.5,
                "OMCCMPHDLOO": "",
                "CEBMBGKJACI": "NONE",
                "EOHIIHMKDJC": true,
                "KPCALFDIHMC": "",
                "DBLNLMOPEBP": ""
            }
        ],
        [
            {
                "$type": "MOOOKOKLLEI",
                "type": "CAMERA_MOVE",
                "duration": 0.5,
                "actionId": 183,
                "DOKGBCKOLJK": {
                    "x": -1248.2969970703125,
                    "y": 238.64999389648438,
                    "z": 3749.966064453125
                },
                "HGKCPMDICGG": {
                    "x": -1248.468994140625,
                    "y": 238.70599365234375,
                    "z": 3750.948974609375
                },
                "AFODHELHCGB": 20.0,
                "MGMFMGNANHH": 6,
                "NDFGFJFGHKL": "Linear",
                "IBCBGNHCICN": {},
                "BNBBLLBEIDL": true,
                "HCPFCAHMGMO": false,
                "OMCCMPHDLOO": "",
                "FEFNBKOHPOG": true,
                "OCFGGGHIKOO": "",
                "LJFHGGJDPHH": "",
                "LPKDFKLNEHL": ""
            },
            {
                "$type": "DLPFECMKEKH",
                "type": "DIALOG",
                "aliasList": [
                    "20712"
                ],
                "NMKEDPFEKBH": 730490301,
                "JLCHMAJCAPA": 0.5
            }
        ],
        [
            {
                "$type": "DLPFECMKEKH",
                "type": "DIALOG",
                "aliasList": [
                    "20713"
                ],
                "NMKEDPFEKBH": 730490302,
                "JLCHMAJCAPA": 0.5
            },
            {
                "$type": "ILCGAGEGDJI",
                "type": "BODY_LANG",
                "aliasList": [
                    "20713"
                ],
                "actionId": 208,
                "FLBOOPHHFJP": 4030,
                "PMJAMGLAJGK": true,
                "LIMPPBIAKGL": false,
                "FNEGLPPEBBF": true,
                "FNDLJGEAMGI": ""
            }
        ],
        [
            {
                "$type": "MOOOKOKLLEI",
                "type": "CAMERA_MOVE",
                "duration": 0.5,
                "actionId": 209,
                "DOKGBCKOLJK": {
                    "x": -1248.0860595703125,
                    "y": 239.1959991455078,
                    "z": 3750.868896484375
                },
                "HGKCPMDICGG": {
                    "x": -1248.405029296875,
                    "y": 238.98699951171875,
                    "z": 3751.79296875
                },
                "AFODHELHCGB": 20.0,
                "MGMFMGNANHH": 6,
                "NDFGFJFGHKL": "Linear",
                "IBCBGNHCICN": {},
                "BNBBLLBEIDL": true,
                "HCPFCAHMGMO": false,
                "OMCCMPHDLOO": "",
                "FEFNBKOHPOG": true,
                "OCFGGGHIKOO": "",
                "LJFHGGJDPHH": "",
                "LPKDFKLNEHL": ""
            },
            {
                "$type": "DLPFECMKEKH",
                "type": "DIALOG",
                "aliasList": [
                    "20713"
                ],
                "NMKEDPFEKBH": 730490303,
                "JLCHMAJCAPA": 0.5
            },
            {
                "$type": "ILCGAGEGDJI",
                "type": "BODY_LANG",
                "aliasList": [
                    "20713"
                ],
                "actionId": 210,
                "FLBOOPHHFJP": 1171,
                "PMJAMGLAJGK": true,
                "LIMPPBIAKGL": false,
                "FNEGLPPEBBF": true,
                "FNDLJGEAMGI": ""
            }
        ],
        [
            {
                "$type": "MOOOKOKLLEI",
                "type": "CAMERA_MOVE",
                "duration": 0.5,
                "actionId": 222,
                "DOKGBCKOLJK": {
                    "x": -1248.2110595703125,
                    "y": 238.95799255371094,
                    "z": 3754.0869140625
                },
                "HGKCPMDICGG": {
                    "x": -1248.3370361328125,
                    "y": 238.85299682617188,
                    "z": 3753.10107421875
                },
                "AFODHELHCGB": 20.0,
                "MGMFMGNANHH": 6,
                "NDFGFJFGHKL": "Linear",
                "IBCBGNHCICN": {},
                "BNBBLLBEIDL": true,
                "HCPFCAHMGMO": false,
                "OMCCMPHDLOO": "",
                "FEFNBKOHPOG": true,
                "OCFGGGHIKOO": "",
                "LJFHGGJDPHH": "",
                "LPKDFKLNEHL": ""
            },
            {
                "$type": "MoleMole.Config.ConfigTimeProtectAction",
                "type": "TIME_PROTECT",
                "duration": 4.454999923706055,
                "actionId": 224
            },
            {
                "$type": "DLPFECMKEKH",
                "type": "DIALOG",
                "aliasList": [
                    "20712"
                ],
                "NMKEDPFEKBH": 730490304,
                "JLCHMAJCAPA": 0.5
            },
            {
                "$type": "MOOOKOKLLEI",
                "type": "CAMERA_MOVE",
                "delayTime": 0.10000000149011612,
                "duration": 4.368000030517578,
                "actionId": 221,
                "DOKGBCKOLJK": {
                    "x": -1247.4429931640625,
                    "y": 238.95199584960938,
                    "z": 3753.7919921875
                },
                "HGKCPMDICGG": {
                    "x": -1248.0140380859375,
                    "y": 238.94200134277344,
                    "z": 3752.970947265625
                },
                "AFODHELHCGB": 20.0,
                "NDFGFJFGHKL": "EaseInOutQuad",
                "IBCBGNHCICN": {},
                "BNBBLLBEIDL": true,
                "HCPFCAHMGMO": false,
                "OMCCMPHDLOO": "",
                "FEFNBKOHPOG": true,
                "OCFGGGHIKOO": "",
                "LJFHGGJDPHH": "",
                "LPKDFKLNEHL": ""
            }
        ],
        [
            {
                "$type": "MOOOKOKLLEI",
                "type": "CAMERA_MOVE",
                "duration": 0.5,
                "actionId": 225,
                "DOKGBCKOLJK": {
                    "x": -1248.1219482421875,
                    "y": 239.28599548339844,
                    "z": 3752.013916015625
                },
                "HGKCPMDICGG": {
                    "x": -1248.8299560546875,
                    "y": 239.08599853515625,
                    "z": 3751.3369140625
                },
                "AFODHELHCGB": 20.0,
                "MGMFMGNANHH": 6,
                "NDFGFJFGHKL": "Linear",
                "IBCBGNHCICN": {},
                "BNBBLLBEIDL": true,
                "HCPFCAHMGMO": false,
                "OMCCMPHDLOO": "",
                "FEFNBKOHPOG": true,
                "OCFGGGHIKOO": "",
                "LJFHGGJDPHH": "",
                "LPKDFKLNEHL": ""
            },
            {
                "$type": "DLPFECMKEKH",
                "type": "DIALOG",
                "aliasList": [
                    "20712"
                ],
                "NMKEDPFEKBH": 730490305,
                "JLCHMAJCAPA": 0.5
            },
            {
                "$type": "MOOOKOKLLEI",
                "type": "CAMERA_MOVE",
                "delayTime": 0.10000000149011612,
                "duration": 3.444000005722046,
                "actionId": 223,
                "DOKGBCKOLJK": {
                    "x": -1248.2239990234375,
                    "y": 239.2570037841797,
                    "z": 3751.916015625
                },
                "HGKCPMDICGG": {
                    "x": -1248.9320068359375,
                    "y": 239.0570068359375,
                    "z": 3751.239013671875
                },
                "AFODHELHCGB": 20.0,
                "NDFGFJFGHKL": "EaseOutQuad",
                "IBCBGNHCICN": {},
                "BNBBLLBEIDL": true,
                "HCPFCAHMGMO": false,
                "OMCCMPHDLOO": "",
                "FEFNBKOHPOG": true,
                "OCFGGGHIKOO": "",
                "LJFHGGJDPHH": "",
                "LPKDFKLNEHL": ""
            }
        ],
        [
            {
                "$type": "MOOOKOKLLEI",
                "type": "CAMERA_MOVE",
                "duration": 0.5,
                "actionId": 226,
                "DOKGBCKOLJK": {
                    "x": -1248.0760498046875,
                    "y": 239.12100219726562,
                    "z": 3750.9560546875
                },
                "HGKCPMDICGG": {
                    "x": -1248.4200439453125,
                    "y": 238.95899963378906,
                    "z": 3751.881103515625
                },
                "AFODHELHCGB": 20.0,
                "MGMFMGNANHH": 6,
                "NDFGFJFGHKL": "Linear",
                "IBCBGNHCICN": {},
                "BNBBLLBEIDL": true,
                "HCPFCAHMGMO": false,
                "OMCCMPHDLOO": "",
                "FEFNBKOHPOG": true,
                "OCFGGGHIKOO": "",
                "LJFHGGJDPHH": "",
                "LPKDFKLNEHL": ""
            },
            {
                "$type": "DLPFECMKEKH",
                "type": "DIALOG",
                "aliasList": [
                    "20713"
                ],
                "NMKEDPFEKBH": 730490306,
                "JLCHMAJCAPA": 0.5
            }
        ],
        [
            {
                "$type": "MOOOKOKLLEI",
                "type": "CAMERA_MOVE",
                "duration": 0.5,
                "actionId": 231,
                "DOKGBCKOLJK": {
                    "x": -1233.8060302734375,
                    "y": 236.0240020751953,
                    "z": 3746.008056640625
                },
                "HGKCPMDICGG": {
                    "x": -1234.677978515625,
                    "y": 236.07400512695312,
                    "z": 3746.4951171875
                },
                "AFODHELHCGB": 20.0,
                "MGMFMGNANHH": 6,
                "NDFGFJFGHKL": "Linear",
                "IBCBGNHCICN": {},
                "BNBBLLBEIDL": true,
                "HCPFCAHMGMO": false,
                "OMCCMPHDLOO": "",
                "FEFNBKOHPOG": true,
                "OCFGGGHIKOO": "",
                "LJFHGGJDPHH": "",
                "LPKDFKLNEHL": ""
            },
            {
                "$type": "DLPFECMKEKH",
                "type": "DIALOG",
                "aliasList": [
                    "20712"
                ],
                "NMKEDPFEKBH": 730490307,
                "JLCHMAJCAPA": 0.5
            },
            {
                "$type": "MoleMole.Config.ConfigTeleportToAction",
                "type": "TELEPORT_TO",
                "aliasList": [
                    "1005"
                ],
                "actionId": 230,
                "position": {
                    "x": -1236.3289794921875,
                    "y": 234.4810028076172,
                    "z": 3747.096923828125
                },
                "forward": {
                    "x": -0.9039999842643738,
                    "z": 0.42800000309944153
                },
                "openLongDisTeleport": true,
                "posBindMovingTargetKey": "",
                "forwardBindMovingTargetKey": ""
            },
            {
                "$type": "MOOOKOKLLEI",
                "type": "CAMERA_MOVE",
                "delayTime": 0.10000000149011612,
                "duration": 6.913000106811523,
                "actionId": 227,
                "DOKGBCKOLJK": {
                    "x": -1234.0159912109375,
                    "y": 236.031005859375,
                    "z": 3745.631103515625
                },
                "HGKCPMDICGG": {
                    "x": -1234.887939453125,
                    "y": 236.08099365234375,
                    "z": 3746.117919921875
                },
                "AFODHELHCGB": 20.0,
                "NDFGFJFGHKL": "EaseOutQuad",
                "IBCBGNHCICN": {},
                "BNBBLLBEIDL": true,
                "HCPFCAHMGMO": false,
                "OMCCMPHDLOO": "",
                "FEFNBKOHPOG": true,
                "OCFGGGHIKOO": "",
                "LJFHGGJDPHH": "",
                "LPKDFKLNEHL": ""
            }
        ],
        [
            {
                "$type": "DLPFECMKEKH",
                "type": "DIALOG",
                "aliasList": [
                    "20712"
                ],
                "NMKEDPFEKBH": 730490308,
                "JLCHMAJCAPA": 0.5
            }
        ],
        [
            {
                "$type": "MOOOKOKLLEI",
                "type": "CAMERA_MOVE",
                "duration": 0.5,
                "actionId": 253,
                "DOKGBCKOLJK": {
                    "x": -1250.7030029296875,
                    "y": 239.97999572753906,
                    "z": 3751.131103515625
                },
                "HGKCPMDICGG": {
                    "x": -1249.7669677734375,
                    "y": 239.6269989013672,
                    "z": 3751.12890625
                },
                "AFODHELHCGB": 20.0,
                "MGMFMGNANHH": 6,
                "NDFGFJFGHKL": "Linear",
                "IBCBGNHCICN": {},
                "BNBBLLBEIDL": true,
                "HCPFCAHMGMO": false,
                "OMCCMPHDLOO": "",
                "FEFNBKOHPOG": true,
                "OCFGGGHIKOO": "",
                "LJFHGGJDPHH": "",
                "LPKDFKLNEHL": ""
            },
            {
                "$type": "MoleMole.Config.ConfigTeleportToAction",
                "type": "TELEPORT_TO",
                "aliasList": [
                    "Avatar"
                ],
                "actionId": 250,
                "position": {
                    "x": -1236.31494140625,
                    "y": 234.5590057373047,
                    "z": 3747.805908203125
                },
                "forward": {
                    "x": -0.902999997138977,
                    "z": 0.4300000071525574
                },
                "openLongDisTeleport": true,
                "posBindMovingTargetKey": "",
                "forwardBindMovingTargetKey": ""
            },
            {
                "$type": "MoleMole.Config.ConfigTeleportToAction",
                "type": "TELEPORT_TO",
                "aliasList": [
                    "20712"
                ],
                "actionId": 251,
                "position": {
                    "x": -1247.718017578125,
                    "y": 237.18600463867188,
                    "z": 3750.655029296875
                },
                "forward": {
                    "x": 0.6449999809265137,
                    "z": 0.7639999985694885
                },
                "openLongDisTeleport": true,
                "posBindMovingTargetKey": "",
                "forwardBindMovingTargetKey": ""
            },
            {
                "$type": "DLPFECMKEKH",
                "type": "DIALOG",
                "aliasList": [
                    "20713"
                ],
                "NMKEDPFEKBH": 730490309,
                "JLCHMAJCAPA": 0.5
            },
            {
                "$type": "MoleMole.Config.ConfigTeleportToAction",
                "type": "TELEPORT_TO",
                "aliasList": [
                    "20713"
                ],
                "actionId": 252,
                "position": {
                    "x": -1246.574951171875,
                    "y": 237.16400146484375,
                    "z": 3751.758056640625
                },
                "forward": {
                    "x": -0.7839999794960022,
                    "z": -0.6209999918937683
                },
                "openLongDisTeleport": true,
                "posBindMovingTargetKey": "",
                "forwardBindMovingTargetKey": ""
            },
            {
                "$type": "CJKIHIFAALJ",
                "type": "LOOK_AT_EYECTRL",
                "aliasList": [
                    "1005"
                ],
                "actionId": 257,
                "useTargetPos": false,
                "BJMEKPDGMPA": 1.0,
                "OMCCMPHDLOO": "",
                "OPPBKKOPIOB": "Face"
            },
            {
                "$type": "MOOOKOKLLEI",
                "type": "CAMERA_MOVE",
                "delayTime": 0.10000000149011612,
                "duration": 4.760000228881836,
                "actionId": 249,
                "DOKGBCKOLJK": {
                    "x": -1250.7060546875,
                    "y": 239.97300720214844,
                    "z": 3750.779052734375
                },
                "HGKCPMDICGG": {
                    "x": -1249.77001953125,
                    "y": 239.6199951171875,
                    "z": 3750.777099609375
                },
                "AFODHELHCGB": 20.0,
                "NDFGFJFGHKL": "EaseOutQuad",
                "IBCBGNHCICN": {},
                "BNBBLLBEIDL": true,
                "HCPFCAHMGMO": false,
                "OMCCMPHDLOO": "",
                "FEFNBKOHPOG": true,
                "OCFGGGHIKOO": "",
                "LJFHGGJDPHH": "",
                "LPKDFKLNEHL": ""
            }
        ],
        [
            {
                "$type": "MoleMole.Config.ConfigTeleportToAction",
                "type": "TELEPORT_TO",
                "aliasList": [
                    "Avatar"
                ],
                "actionId": 233,
                "position": {
                    "x": -1236.31494140625,
                    "y": 234.5590057373047,
                    "z": 3747.805908203125
                },
                "forward": {
                    "x": -0.902999997138977,
                    "z": 0.4300000071525574
                },
                "openLongDisTeleport": true,
                "posBindMovingTargetKey": "",
                "forwardBindMovingTargetKey": ""
            },
            {
                "$type": "DLPFECMKEKH",
                "type": "DIALOG",
                "aliasList": [
                    "20712"
                ],
                "NMKEDPFEKBH": 730490310,
                "JLCHMAJCAPA": 0.5
            }
        ],
        [
            {
                "$type": "MOOOKOKLLEI",
                "type": "CAMERA_MOVE",
                "duration": 0.5,
                "actionId": 237,
                "DOKGBCKOLJK": {
                    "x": -1246.6070556640625,
                    "y": 239.18099975585938,
                    "z": 3749.208984375
                },
                "HGKCPMDICGG": {
                    "x": -1247.4840087890625,
                    "y": 239.14100646972656,
                    "z": 3749.68798828125
                },
                "AFODHELHCGB": 20.0,
                "MGMFMGNANHH": 6,
                "NDFGFJFGHKL": "Linear",
                "IBCBGNHCICN": {},
                "BNBBLLBEIDL": true,
                "HCPFCAHMGMO": false,
                "OMCCMPHDLOO": "",
                "FEFNBKOHPOG": true,
                "OCFGGGHIKOO": "",
                "LJFHGGJDPHH": "",
                "LPKDFKLNEHL": ""
            },
            {
                "$type": "DLPFECMKEKH",
                "type": "DIALOG",
                "aliasList": [
                    "20712"
                ],
                "NMKEDPFEKBH": 730490311,
                "JLCHMAJCAPA": 0.5
            },
            {
                "$type": "EAMBKPBOPIC",
                "type": "LOOK_AT",
                "aliasList": [
                    "20712"
                ],
                "actionId": 254,
                "FIDJDPAIFDN": true,
                "BCHGCKLKNEH": 0.5,
                "OMCCMPHDLOO": "",
                "CEBMBGKJACI": "CAMERA",
                "EOHIIHMKDJC": true,
                "KPCALFDIHMC": "",
                "DBLNLMOPEBP": ""
            },
            {
                "$type": "MOOOKOKLLEI",
                "type": "CAMERA_MOVE",
                "delayTime": 0.10000000149011612,
                "duration": 0.5,
                "actionId": 236,
                "DOKGBCKOLJK": {
                    "x": -1246.2459716796875,
                    "y": 239.18099975585938,
                    "z": 3749.87109375
                },
                "HGKCPMDICGG": {
                    "x": -1247.123046875,
                    "y": 239.14100646972656,
                    "z": 3750.35009765625
                },
                "AFODHELHCGB": 20.0,
                "NDFGFJFGHKL": "EaseOutQuad",
                "IBCBGNHCICN": {},
                "BNBBLLBEIDL": true,
                "HCPFCAHMGMO": false,
                "OMCCMPHDLOO": "",
                "FEFNBKOHPOG": true,
                "OCFGGGHIKOO": "",
                "LJFHGGJDPHH": "",
                "LPKDFKLNEHL": ""
            }
        ],
        [
            {
                "$type": "MOOOKOKLLEI",
                "type": "CAMERA_MOVE",
                "duration": 0.5,
                "actionId": 238,
                "DOKGBCKOLJK": {
                    "x": -1239.06005859375,
                    "y": 237.07000732421875,
                    "z": 3748.05810546875
                },
                "HGKCPMDICGG": {
                    "x": -1238.1920166015625,
                    "y": 236.6179962158203,
                    "z": 3747.85205078125
                },
                "AFODHELHCGB": 20.0,
                "MGMFMGNANHH": 6,
                "NDFGFJFGHKL": "Linear",
                "IBCBGNHCICN": {},
                "BNBBLLBEIDL": true,
                "HCPFCAHMGMO": false,
                "OMCCMPHDLOO": "",
                "FEFNBKOHPOG": true,
                "OCFGGGHIKOO": "",
                "LJFHGGJDPHH": "",
                "LPKDFKLNEHL": ""
            },
            {
                "$type": "ILCGAGEGDJI",
                "type": "BODY_LANG",
                "aliasList": [
                    "Avatar"
                ],
                "actionId": 240,
                "FLBOOPHHFJP": 1080,
                "PMJAMGLAJGK": true,
                "LIMPPBIAKGL": false,
                "FNEGLPPEBBF": true,
                "FNDLJGEAMGI": ""
            },
            {
                "$type": "EAMBKPBOPIC",
                "type": "LOOK_AT",
                "aliasList": [
                    "20712"
                ],
                "actionId": 255,
                "BCHGCKLKNEH": 0.5,
                "OMCCMPHDLOO": "",
                "CEBMBGKJACI": "CAMERA",
                "EOHIIHMKDJC": true,
                "KPCALFDIHMC": "",
                "DBLNLMOPEBP": ""
            },
            {
                "$type": "EAMBKPBOPIC",
                "type": "LOOK_AT",
                "aliasList": [
                    "20713"
                ],
                "actionId": 242,
                "FIDJDPAIFDN": true,
                "useTargetPos": true,
                "GFKIMGBGADJ": true,
                "GMKIJKADNHN": {
                    "x": -1246.5050048828125,
                    "y": 238.88600158691406,
                    "z": 3750.55810546875
                },
                "BCHGCKLKNEH": 0.5,
                "OMCCMPHDLOO": "",
                "CEBMBGKJACI": "NONE",
                "EOHIIHMKDJC": true,
                "KPCALFDIHMC": "",
                "DBLNLMOPEBP": ""
            },
            {
                "$type": "DLPFECMKEKH",
                "type": "DIALOG",
                "aliasList": [
                    "1005"
                ],
                "NMKEDPFEKBH": 730490312,
                "JLCHMAJCAPA": 0.5
            },
            {
                "$type": "ILCGAGEGDJI",
                "type": "BODY_LANG",
                "aliasList": [
                    "1005"
                ],
                "actionId": 239,
                "FLBOOPHHFJP": 1040,
                "PMJAMGLAJGK": true,
                "LIMPPBIAKGL": false,
                "FNEGLPPEBBF": true,
                "FNDLJGEAMGI": ""
            },
            {
                "$type": "MoleMole.Config.ConfigTeleportToAction",
                "type": "TELEPORT_TO",
                "aliasList": [
                    "1005"
                ],
                "actionId": 256,
                "position": {
                    "x": -1236.7540283203125,
                    "y": 234.572998046875,
                    "z": 3747.383056640625
                },
                "forward": {
                    "x": -0.9039999842643738,
                    "z": 0.42800000309944153
                },
                "openLongDisTeleport": true,
                "posBindMovingTargetKey": "",
                "forwardBindMovingTargetKey": ""
            }
        ],
        [
            {
                "$type": "MOOOKOKLLEI",
                "type": "CAMERA_MOVE",
                "duration": 0.5,
                "actionId": 241,
                "DOKGBCKOLJK": {
                    "x": -1244.5760498046875,
                    "y": 239.38299560546875,
                    "z": 3752.0830078125
                },
                "HGKCPMDICGG": {
                    "x": -1245.5250244140625,
                    "y": 239.2270050048828,
                    "z": 3751.80810546875
                },
                "AFODHELHCGB": 20.0,
                "MGMFMGNANHH": 6,
                "NDFGFJFGHKL": "Linear",
                "IBCBGNHCICN": {},
                "BNBBLLBEIDL": true,
                "HCPFCAHMGMO": false,
                "OMCCMPHDLOO": "",
                "FEFNBKOHPOG": true,
                "OCFGGGHIKOO": "",
                "LJFHGGJDPHH": "",
                "LPKDFKLNEHL": ""
            },
            {
                "$type": "DLPFECMKEKH",
                "type": "DIALOG",
                "aliasList": [
                    "20713"
                ],
                "NMKEDPFEKBH": 730490313,
                "JLCHMAJCAPA": 0.5
            },
            {
                "$type": "EAMBKPBOPIC",
                "type": "LOOK_AT",
                "aliasList": [
                    "20713"
                ],
                "actionId": 243,
                "FIDJDPAIFDN": true,
                "GMKIJKADNHN": {
                    "x": -1246.5050048828125,
                    "y": 238.88600158691406,
                    "z": 3750.55810546875
                },
                "BCHGCKLKNEH": 0.5,
                "OMCCMPHDLOO": "20712",
                "EOHIIHMKDJC": true,
                "KPCALFDIHMC": "",
                "DBLNLMOPEBP": ""
            }
        ],
        [
            {
                "$type": "DLPFECMKEKH",
                "type": "DIALOG",
                "aliasList": [
                    "20713"
                ],
                "NMKEDPFEKBH": 730490314,
                "JLCHMAJCAPA": 0.5
            }
        ],
        [
            {
                "$type": "MOOOKOKLLEI",
                "type": "CAMERA_MOVE",
                "duration": 0.5,
                "actionId": 247,
                "DOKGBCKOLJK": {
                    "x": -1248.1090087890625,
                    "y": 238.97999572753906,
                    "z": 3748.653076171875
                },
                "HGKCPMDICGG": {
                    "x": -1247.7989501953125,
                    "y": 238.9669952392578,
                    "z": 3749.60400390625
                },
                "AFODHELHCGB": 20.0,
                "MGMFMGNANHH": 6,
                "NDFGFJFGHKL": "Linear",
                "IBCBGNHCICN": {},
                "HCPFCAHMGMO": false,
                "OMCCMPHDLOO": "",
                "FEFNBKOHPOG": true,
                "OCFGGGHIKOO": "",
                "LJFHGGJDPHH": "",
                "LPKDFKLNEHL": ""
            },
            {
                "$type": "DLPFECMKEKH",
                "type": "DIALOG",
                "aliasList": [
                    "20712"
                ],
                "NMKEDPFEKBH": 730490315,
                "JLCHMAJCAPA": 0.5
            },
            {
                "$type": "MOOOKOKLLEI",
                "type": "CAMERA_MOVE",
                "delayTime": 0.10000000149011612,
                "duration": 5.236999988555908,
                "actionId": 246,
                "DOKGBCKOLJK": {
                    "x": -1245.8089599609375,
                    "y": 239.08700561523438,
                    "z": 3750.180908203125
                },
                "HGKCPMDICGG": {
                    "x": -1246.7860107421875,
                    "y": 239.08900451660156,
                    "z": 3750.39501953125
                },
                "AFODHELHCGB": 20.0,
                "NDFGFJFGHKL": "EaseInOutCubic",
                "IBCBGNHCICN": {},
                "HCPFCAHMGMO": false,
                "OMCCMPHDLOO": "",
                "FEFNBKOHPOG": true,
                "OCFGGGHIKOO": "",
                "LJFHGGJDPHH": "",
                "LPKDFKLNEHL": ""
            },
            {
                "$type": "EAMBKPBOPIC",
                "type": "LOOK_AT",
                "delayTime": 2.049999952316284,
                "aliasList": [
                    "20712"
                ],
                "actionId": 258,
                "FIDJDPAIFDN": true,
                "useTargetPos": true,
                "GFKIMGBGADJ": true,
                "GMKIJKADNHN": {
                    "x": -1245.907958984375,
                    "y": 238.77200317382812,
                    "z": 3750.180908203125
                },
                "BCHGCKLKNEH": 0.5,
                "OMCCMPHDLOO": "Avatar",
                "CEBMBGKJACI": "NONE",
                "EOHIIHMKDJC": true,
                "KPCALFDIHMC": "",
                "DBLNLMOPEBP": ""
            }
        ],
        [
            {
                "$type": "MoleMole.Config.ConfigSimpleBlackScreenAction",
                "type": "SIMPLE_BLACK_SCREEN",
                "durationToBlack": 0.5,
                "durationKeepBlack": 3.0,
                "durationFromBlack": 0.5,
                "textMapID": "",
                "useTextFade": true,
                "dialogID": 730490316
            },
            {
                "$type": "DLPFECMKEKH",
                "type": "DIALOG_CLEAR"
            }
        ],
        [
            {
                "$type": "MoleMole.Config.ConfigSimpleBlackScreenAction",
                "type": "SIMPLE_BLACK_SCREEN",
                "durationToBlack": 0.5,
                "durationKeepBlack": 1.0,
                "durationFromBlack": 0.5,
                "textMapID": ""
            },
            {
                "$type": "MoleMole.Config.ConfigTimeProtectAction",
                "type": "TIME_PROTECT",
                "duration": 0.699999988079071
            },
            {
                "$type": "MOOOKOKLLEI",
                "type": "CAMERA_MOVE",
                "delayTime": 0.6000000238418579,
                "duration": 0.5,
                "actionId": 259,
                "DOKGBCKOLJK": {
                    "x": -1232.66796875,
                    "y": 237.0189971923828,
                    "z": 3747.009033203125
                },
                "HGKCPMDICGG": {
                    "x": -1233.6190185546875,
                    "y": 236.8159942626953,
                    "z": 3747.243896484375
                },
                "MGMFMGNANHH": 6,
                "NDFGFJFGHKL": "Linear",
                "IBCBGNHCICN": {},
                "BNBBLLBEIDL": true,
                "HCPFCAHMGMO": false,
                "OMCCMPHDLOO": "",
                "FEFNBKOHPOG": true,
                "OCFGGGHIKOO": "",
                "LJFHGGJDPHH": "",
                "LPKDFKLNEHL": ""
            },
            {
                "$type": "ILCGAGEGDJI",
                "type": "BODY_LANG",
                "delayTime": 0.6000000238418579,
                "aliasList": [
                    "Avatar"
                ],
                "actionId": 263,
                "JLABKFNJCNP": true,
                "PMJAMGLAJGK": true,
                "LIMPPBIAKGL": false,
                "FNEGLPPEBBF": true,
                "FNDLJGEAMGI": ""
            },
            {
                "$type": "MoleMole.Config.ConfigVisibleInterAction",
                "type": "VISIBLE",
                "delayTime": 0.6000000238418579,
                "aliasList": [
                    "20712"
                ],
                "actionId": 260,
                "extraParam": ""
            },
            {
                "$type": "MoleMole.Config.ConfigVisibleInterAction",
                "type": "VISIBLE",
                "delayTime": 0.6000000238418579,
                "aliasList": [
                    "20713"
                ],
                "actionId": 261,
                "extraParam": ""
            }
        ]
    ],
    "groupId": [
        {
            "grpId": 2883115592,
            "nextGrpId": 2883115593
        },
        {
            "index": 1,
            "grpId": 2883115593,
            "nextGrpId": 2883115594
        },
        {
            "index": 2,
            "grpId": 2883115594,
            "nextGrpId": 2883115595
        },
        {
            "index": 3,
            "grpId": 2883115595,
            "nextGrpId": 2883115596
        },
        {
            "index": 4,
            "grpId": 2883115596,
            "nextGrpId": 2883115597
        },
        {
            "index": 5,
            "grpId": 2883115597,
            "nextGrpId": 2883115598
        },
        {
            "index": 6,
            "grpId": 2883115598,
            "nextGrpId": 2883115599
        },
        {
            "index": 7,
            "grpId": 2883115599,
            "nextGrpId": 2883115600
        },
        {
            "index": 8,
            "grpId": 2883115600,
            "nextGrpId": 3477237480
        },
        {
            "index": 9,
            "grpId": 3477237480,
            "nextGrpId": 3477237481
        },
        {
            "index": 10,
            "grpId": 3477237481,
            "nextGrpId": 3477237482
        },
        {
            "index": 11,
            "grpId": 3477237482,
            "nextGrpId": 3477237483
        },
        {
            "index": 12,
            "grpId": 3477237483,
            "nextGrpId": 3477237484
        },
        {
            "index": 13,
            "grpId": 3477237484,
            "nextGrpId": 3477237485
        },
        {
            "index": 14,
            "grpId": 3477237485,
            "nextGrpId": 3477237486
        },
        {
            "index": 15,
            "grpId": 3477237486,
            "nextGrpId": 3477237487
        },
        {
            "index": 16,
            "grpId": 3477237487,
            "nextGrpId": 3477237488
        },
        {
            "index": 17,
            "grpId": 3477237488,
            "nextGrpId": 3477237489
        },
        {
            "index": 18,
            "grpId": 3477237489,
            "nextGrpId": 3477237511
        },
        {
            "index": 19,
            "grpId": 3477237511,
            "nextGrpId": 3477237512
        },
        {
            "index": 20,
            "grpId": 3477237512,
            "nextGrpId": 3477237513
        },
        {
            "index": 21,
            "grpId": 3477237513,
            "nextGrpId": 3477237514
        }
    ],
    "freeStyleDic": {
        "20712": [],
        "20713": [
            4030,
            1171
        ]
    }
}