{
    "luaDataPath": "",
    "isSimpleTalk": true,
    "entityBan": "",
    "disableNpcLod": true,
    "startFade": {
        "startFadeOutDuration": 0.0
    },
    "endFade": {
        "startFadeOutDuration": 0.0
    },
    "actors": [
        {
            "alias": "Avatar",
            "visible": true,
            "bornPointName": "",
            "relativePosNpcAlias": "",
            "bindMovingTargetKey": ""
        },
        {
            "configID": 3193,
            "alias": "3193",
            "visible": true,
            "bornPointName": "",
            "forceCreateDaily": true,
            "relativePosNpcAlias": "",
            "bindMovingTargetKey": ""
        },
        {
            "configID": 1005,
            "alias": "1005",
            "visible": true,
            "bornPointName": "",
            "useRelativePos": true,
            "relativePos": {
                "x": 0.5,
                "y": 0.5
            },
            "removeActorType": "REMOVE_WITH_DISAPPEAR",
            "relativePosNpcAlias": "",
            "bindMovingTargetKey": ""
        }
    ],
    "group": [
        [
            {
                "$type": "MoleMole.Config.ConfigTimeProtectAction",
                "type": "TIME_PROTECT",
                "duration": 0.10000000149011612
            },
            {
                "$type": "MOOOKOKLLEI",
                "type": "CAMERA_FOCUS",
                "duration": 0.10000000149011612,
                "OMCCMPHDLOO": "",
                "OCFGGGHIKOO": "",
                "LJFHGGJDPHH": "",
                "LPKDFKLNEHL": ""
            },
            {
                "$type": "OOMFCPJAJGL",
                "type": "STEER_TO",
                "delayTime": 0.30000001192092896,
                "duration": 0.800000011920929,
                "aliasList": [
                    "3193"
                ],
                "DMGIIHNDNLC": "TO_LOCAL_AVATAR_ADVANCED",
                "HCMINPNPFDF": true,
                "PENAEBFAHCH": true,
                "CKOEAJFMDON": true,
                "OMCCMPHDLOO": "",
                "DBLNLMOPEBP": ""
            },
            {
                "$type": "OOMFCPJAJGL",
                "type": "STEER_TO",
                "delayTime": 0.30000001192092896,
                "duration": 0.800000011920929,
                "aliasList": [
                    "Avatar"
                ],
                "DMGIIHNDNLC": "TO_TARGET_ADVANCED",
                "HCMINPNPFDF": true,
                "PENAEBFAHCH": true,
                "CKOEAJFMDON": true,
                "OMCCMPHDLOO": "3193",
                "DBLNLMOPEBP": ""
            }
        ],
        [
            {
                "$type": "DLPFECMKEKH",
                "type": "DIALOG",
                "aliasList": [
                    "3193"
                ],
                "NMKEDPFEKBH": 400610101,
                "JLCHMAJCAPA": 0.5
            }
        ],
        [
            {
                "$type": "DLPFECMKEKH",
                "type": "DIALOG",
                "aliasList": [
                    "1005"
                ],
                "NMKEDPFEKBH": 400610102,
                "JLCHMAJCAPA": 0.5
            }
        ],
        [
            {
                "$type": "DLPFECMKEKH",
                "type": "DIALOG",
                "aliasList": [
                    "3193"
                ],
                "NMKEDPFEKBH": 400610103,
                "JLCHMAJCAPA": 0.5
            }
        ],
        [
            {
                "$type": "DLPFECMKEKH",
                "type": "DIALOG",
                "aliasList": [
                    "3193"
                ],
                "NMKEDPFEKBH": 400610104,
                "JLCHMAJCAPA": 0.5
            }
        ],
        [
            {
                "$type": "DLPFECMKEKH",
                "type": "DIALOG",
                "aliasList": [
                    "3193"
                ],
                "NMKEDPFEKBH": 400610105,
                "JLCHMAJCAPA": 0.5
            }
        ],
        [
            {
                "$type": "DLPFECMKEKH",
                "type": "DIALOG",
                "aliasList": [
                    "1005"
                ],
                "NMKEDPFEKBH": 400610106,
                "JLCHMAJCAPA": 0.5
            }
        ],
        [
            {
                "$type": "DLPFECMKEKH",
                "type": "DIALOG",
                "aliasList": [
                    "3193"
                ],
                "NMKEDPFEKBH": 400610107,
                "JLCHMAJCAPA": 0.5
            }
        ],
        [
            {
                "$type": "DLPFECMKEKH",
                "type": "DIALOG",
                "aliasList": [
                    "3193"
                ],
                "NMKEDPFEKBH": 400610108,
                "JLCHMAJCAPA": 0.5
            }
        ],
        [
            {
                "$type": "DLPFECMKEKH",
                "type": "DIALOG",
                "aliasList": [
                    "3193"
                ],
                "NMKEDPFEKBH": 400610109,
                "JLCHMAJCAPA": 0.5
            }
        ],
        [
            {
                "$type": "DLPFECMKEKH",
                "type": "DIALOG",
                "aliasList": [
                    "1005"
                ],
                "NMKEDPFEKBH": 400610110,
                "JLCHMAJCAPA": 0.5
            }
        ],
        [
            {
                "$type": "DLPFECMKEKH",
                "type": "DIALOG",
                "aliasList": [
                    "1005"
                ],
                "NMKEDPFEKBH": 400610111,
                "JLCHMAJCAPA": 0.5
            }
        ],
        [
            {
                "$type": "MoleMole.Config.ConfigTimeProtectAction",
                "type": "TIME_PROTECT",
                "duration": 0.10000000149011612
            }
        ]
    ],
    "groupId": [
        {
            "grpId": 1917879040,
            "nextGrpId": 1917879041
        },
        {
            "index": 1,
            "grpId": 1917879041,
            "nextGrpId": 1917879042
        },
        {
            "index": 2,
            "grpId": 1917879042,
            "nextGrpId": 1917879043
        },
        {
            "index": 3,
            "grpId": 1917879043,
            "nextGrpId": 1917879044
        },
        {
            "index": 4,
            "grpId": 1917879044,
            "nextGrpId": 1917879045
        },
        {
            "index": 5,
            "grpId": 1917879045,
            "nextGrpId": 1917879046
        },
        {
            "index": 6,
            "grpId": 1917879046,
            "nextGrpId": 1917879047
        },
        {
            "index": 7,
            "grpId": 1917879047,
            "nextGrpId": 1917879048
        },
        {
            "index": 8,
            "grpId": 1917879048,
            "nextGrpId": 3619675440
        },
        {
            "index": 9,
            "grpId": 3619675440,
            "nextGrpId": 3619675441
        },
        {
            "index": 10,
            "grpId": 3619675441,
            "nextGrpId": 3619675442
        },
        {
            "index": 11,
            "grpId": 3619675442,
            "nextGrpId": 3619675443
        },
        {
            "index": 12,
            "grpId": 3619675443,
            "nextGrpId": 3619675444
        }
    ],
    "freeStyleDic": {
        "3193": []
    }
}