{
    "luaDataPath": "",
    "startBlackKeepTime": 0.10000000149011612,
    "entityBan": "",
    "startFade": {
        "startFadeOutDuration": 0.30000001192092896
    },
    "endFade": {
        "startFadeOutDuration": 0.0
    },
    "actors": [
        {
            "alias": "Avatar",
            "visible": true,
            "bornPointName": "Q381Player",
            "relativePosNpcAlias": "",
            "bindMovingTargetKey": ""
        },
        {
            "configID": 1005,
            "alias": "1005",
            "visible": true,
            "bornPointName": "Q381Paimon",
            "relativePosNpcAlias": "",
            "bindMovingTargetKey": ""
        },
        {
            "configID": 1009,
            "alias": "1009",
            "visible": true,
            "bornPointName": "Q381Diluc",
            "relativePosNpcAlias": "",
            "bindMovingTargetKey": ""
        },
        {
            "configID": 1006,
            "alias": "1006",
            "visible": true,
            "bornPointName": "Q381Qin",
            "relativePosNpcAlias": "",
            "bindMovingTargetKey": ""
        }
    ],
    "group": [
        [
            {
                "$type": "MOOOKOKLLEI",
                "type": "CAMERA_MOVE",
                "duration": 1.0,
                "DOKGBCKOLJK": {
                    "x": 171.2196502685547,
                    "y": 83.11199188232422,
                    "z": -20.61306381225586
                },
                "HGKCPMDICGG": {
                    "x": 170.2863006591797,
                    "y": 83.10896301269531,
                    "z": -20.972023010253906
                },
                "AFODHELHCGB": 30.0,
                "MGMFMGNANHH": 6,
                "IBCBGNHCICN": {},
                "OMCCMPHDLOO": "",
                "OCFGGGHIKOO": "",
                "LJFHGGJDPHH": "",
                "LPKDFKLNEHL": ""
            },
            {
                "$type": "MOOOKOKLLEI",
                "type": "CAMERA_MOVE",
                "delayTime": 0.10000000149011612,
                "duration": 5.0,
                "DOKGBCKOLJK": {
                    "x": 171.2180633544922,
                    "y": 83.02372741699219,
                    "z": -20.60422706604004
                },
                "HGKCPMDICGG": {
                    "x": 170.29437255859375,
                    "y": 82.88019561767578,
                    "z": -20.959474563598633
                },
                "AFODHELHCGB": 30.0,
                "IBCBGNHCICN": {},
                "OMCCMPHDLOO": "",
                "OCFGGGHIKOO": "",
                "LJFHGGJDPHH": "",
                "LPKDFKLNEHL": ""
            },
            {
                "$type": "MoleMole.Config.ConfigCameraDOFAction",
                "type": "CAMERA_DOF",
                "enabled": true,
                "focusDistance": 5.0,
                "focusRange": 2.0,
                "quality": 3
            },
            {
                "$type": "EAMBKPBOPIC",
                "type": "LOOK_AT",
                "aliasList": [
                    "Avatar"
                ],
                "FIDJDPAIFDN": true,
                "useTargetPos": true,
                "GFKIMGBGADJ": true,
                "GMKIJKADNHN": {
                    "x": 167.2784881591797,
                    "y": 82.78618621826172,
                    "z": -22.09564208984375
                },
                "BCHGCKLKNEH": 0.10000000149011612,
                "OMCCMPHDLOO": "",
                "KPCALFDIHMC": "",
                "DBLNLMOPEBP": ""
            },
            {
                "$type": "DLPFECMKEKH",
                "type": "DIALOG",
                "aliasList": [
                    "1005"
                ],
                "NMKEDPFEKBH": 3800113
            },
            {
                "$type": "EAMBKPBOPIC",
                "type": "LOOK_AT",
                "aliasList": [
                    "1005"
                ],
                "FIDJDPAIFDN": true,
                "useTargetPos": true,
                "GFKIMGBGADJ": true,
                "GMKIJKADNHN": {
                    "x": 168.69747924804688,
                    "y": 82.98928833007812,
                    "z": -22.2628173828125
                },
                "BCHGCKLKNEH": 0.10000000149011612,
                "OMCCMPHDLOO": "",
                "KPCALFDIHMC": "",
                "DBLNLMOPEBP": ""
            },
            {
                "$type": "ILCGAGEGDJI",
                "type": "BODY_LANG",
                "delayTime": 1.340566635131836,
                "aliasList": [
                    "1005"
                ],
                "FLBOOPHHFJP": 1230,
                "FNDLJGEAMGI": ""
            },
            {
                "$type": "OPCCDGPJCJI",
                "type": "EMO_SYNC",
                "aliasList": [
                    "1005"
                ],
                "IONNJBCBACJ": "Cs_Emo_Avatar_Simple_Common_Set/Cs_Emo_Avatar_Talk/Cs_Emo_Avatar_MainLine/Cs_Emo_Avatar_MengDe/Cs_Emo_3800101",
                "HLEJKBCMNNJ": "",
                "JGHLJJLNGPP": "",
                "MANNKIIBOFM": "",
                "COMNAAFDEDH": "",
                "CPGCCLNOCDK": "",
                "IGEFGCJKCPM": [
                    10560052407276893856,
                    17444827628754642315,
                    16265865750699279390,
                    5024210981269041944
                ]
            },
            {
                "$type": "EAMBKPBOPIC",
                "type": "LOOK_AT",
                "aliasList": [
                    "1009"
                ],
                "FIDJDPAIFDN": true,
                "EFHJCGEOHAF": {
                    "x": -10.0,
                    "y": -55.0
                },
                "EJJGMGKOEKN": -5.0,
                "BCHGCKLKNEH": 0.10000000149011612,
                "OMCCMPHDLOO": "",
                "KPCALFDIHMC": "",
                "DBLNLMOPEBP": ""
            },
            {
                "$type": "ILCGAGEGDJI",
                "type": "BODY_LANG",
                "aliasList": [
                    "1009"
                ],
                "FLBOOPHHFJP": 1190,
                "FNDLJGEAMGI": ""
            },
            {
                "$type": "OOMFCPJAJGL",
                "type": "STEER_TO",
                "aliasList": [
                    "1006"
                ],
                "PLAPKCOMAKJ": {
                    "x": 0.7090780735015869,
                    "z": -0.7051300406455994
                },
                "OMCCMPHDLOO": "",
                "DBLNLMOPEBP": ""
            },
            {
                "$type": "EAMBKPBOPIC",
                "type": "LOOK_AT",
                "aliasList": [
                    "1006"
                ],
                "FIDJDPAIFDN": true,
                "useTargetPos": true,
                "GFKIMGBGADJ": true,
                "GMKIJKADNHN": {
                    "x": 168.69747924804688,
                    "y": 82.98928833007812,
                    "z": -22.2628173828125
                },
                "BCHGCKLKNEH": 0.10000000149011612,
                "OMCCMPHDLOO": "",
                "KPCALFDIHMC": "",
                "DBLNLMOPEBP": ""
            }
        ],
        [
            {
                "$type": "MOOOKOKLLEI",
                "type": "CAMERA_MOVE",
                "delayTime": 0.24166662991046906,
                "duration": 2.0,
                "DOKGBCKOLJK": {
                    "x": 170.6403045654297,
                    "y": 83.10342407226562,
                    "z": -20.52081298828125
                },
                "HGKCPMDICGG": {
                    "x": 169.76226806640625,
                    "y": 82.96583557128906,
                    "z": -20.979217529296875
                },
                "AFODHELHCGB": 25.0,
                "NDFGFJFGHKL": "EaseInOutQuad",
                "IBCBGNHCICN": {},
                "OMCCMPHDLOO": "",
                "OCFGGGHIKOO": "",
                "LJFHGGJDPHH": "",
                "LPKDFKLNEHL": ""
            },
            {
                "$type": "MoleMole.Config.ConfigCameraDOFAction",
                "type": "CAMERA_DOF",
                "duration": 0.30000001192092896,
                "enabled": true,
                "focusDistance": 5.0,
                "focusRange": 8.0,
                "quality": 3
            },
            {
                "$type": "EAMBKPBOPIC",
                "type": "LOOK_AT",
                "delayTime": 0.17500004172325134,
                "aliasList": [
                    "Avatar"
                ],
                "FIDJDPAIFDN": true,
                "useTargetPos": true,
                "GFKIMGBGADJ": true,
                "GMKIJKADNHN": {
                    "x": 165.4019012451172,
                    "y": 83.12193298339844,
                    "z": -23.546525955200195
                },
                "BCHGCKLKNEH": 0.20000000298023224,
                "OMCCMPHDLOO": "",
                "KPCALFDIHMC": "",
                "DBLNLMOPEBP": ""
            },
            {
                "$type": "EAMBKPBOPIC",
                "type": "LOOK_AT",
                "delayTime": 0.20000000298023224,
                "aliasList": [
                    "1005"
                ],
                "FIDJDPAIFDN": true,
                "useTargetPos": true,
                "GFKIMGBGADJ": true,
                "GMKIJKADNHN": {
                    "x": 165.4019012451172,
                    "y": 83.17498779296875,
                    "z": -23.432302474975586
                },
                "BCHGCKLKNEH": 0.30000001192092896,
                "OMCCMPHDLOO": "",
                "KPCALFDIHMC": "",
                "DBLNLMOPEBP": ""
            },
            {
                "$type": "OOMFCPJAJGL",
                "type": "STEER_TO",
                "delayTime": 0.20000000298023224,
                "duration": 0.5,
                "aliasList": [
                    "1005"
                ],
                "ECOLMDAPKKN": true,
                "GDDCAKPOIAD": 50.0,
                "HCMINPNPFDF": true,
                "OMCCMPHDLOO": "",
                "DBLNLMOPEBP": ""
            },
            {
                "$type": "ILCGAGEGDJI",
                "type": "BODY_LANG",
                "delayTime": 0.16636812686920166,
                "aliasList": [
                    "1005"
                ],
                "JLABKFNJCNP": true,
                "FNDLJGEAMGI": ""
            },
            {
                "$type": "DLPFECMKEKH",
                "type": "DIALOG",
                "aliasList": [
                    "1009"
                ],
                "NMKEDPFEKBH": 3800114
            },
            {
                "$type": "EAMBKPBOPIC",
                "type": "LOOK_AT",
                "aliasList": [
                    "1009"
                ],
                "FIDJDPAIFDN": true,
                "useTargetPos": true,
                "GFKIMGBGADJ": true,
                "GMKIJKADNHN": {
                    "x": 167.41250610351562,
                    "y": 82.42020416259766,
                    "z": -21.324283599853516
                },
                "PBEEIPKGGKJ": true,
                "EJJGMGKOEKN": 25.0,
                "BCHGCKLKNEH": 0.30000001192092896,
                "MIMBENELNHD": 0.4000000059604645,
                "OMCCMPHDLOO": "",
                "KPCALFDIHMC": "",
                "DBLNLMOPEBP": ""
            },
            {
                "$type": "ILCGAGEGDJI",
                "type": "BODY_LANG",
                "aliasList": [
                    "1009"
                ],
                "JLABKFNJCNP": true,
                "FNDLJGEAMGI": ""
            },
            {
                "$type": "OPCCDGPJCJI",
                "type": "EMO_SYNC",
                "aliasList": [
                    "1009"
                ],
                "IONNJBCBACJ": "Cs_Emo_Avatar_Simple_Common_Set/Cs_Emo_Avatar_Talk/Cs_Emo_Avatar_MainLine/Cs_Emo_Avatar_MengDe/Cs_Emo_3800102",
                "HLEJKBCMNNJ": "",
                "JGHLJJLNGPP": "",
                "MANNKIIBOFM": "",
                "COMNAAFDEDH": "",
                "CPGCCLNOCDK": "",
                "IGEFGCJKCPM": [
                    18096892007725201803,
                    16694077281061889901,
                    5882324553732307932,
                    14106416269361497140
                ]
            },
            {
                "$type": "EAMBKPBOPIC",
                "type": "LOOK_AT",
                "delayTime": 0.5416666269302368,
                "aliasList": [
                    "1006"
                ],
                "FIDJDPAIFDN": true,
                "useTargetPos": true,
                "GFKIMGBGADJ": true,
                "GMKIJKADNHN": {
                    "x": 165.4019012451172,
                    "y": 83.17498779296875,
                    "z": -23.432302474975586
                },
                "PBEEIPKGGKJ": true,
                "EJJGMGKOEKN": 25.0,
                "BCHGCKLKNEH": 0.30000001192092896,
                "MIMBENELNHD": 0.4000000059604645,
                "OMCCMPHDLOO": "",
                "KPCALFDIHMC": "",
                "DBLNLMOPEBP": ""
            }
        ],
        [
            {
                "$type": "MOOOKOKLLEI",
                "type": "CAMERA_MOVE",
                "duration": 1.0,
                "DOKGBCKOLJK": {
                    "x": 166.91355895996094,
                    "y": 83.01054382324219,
                    "z": -20.89849090576172
                },
                "HGKCPMDICGG": {
                    "x": 166.4093780517578,
                    "y": 83.03751373291016,
                    "z": -21.761669158935547
                },
                "AFODHELHCGB": 10.0,
                "MGMFMGNANHH": 6,
                "NDFGFJFGHKL": "EaseInOutCubic",
                "IBCBGNHCICN": {},
                "OMCCMPHDLOO": "",
                "OCFGGGHIKOO": "",
                "LJFHGGJDPHH": "",
                "LPKDFKLNEHL": ""
            },
            {
                "$type": "MoleMole.Config.ConfigCameraDOFAction",
                "type": "CAMERA_DOF",
                "enabled": true,
                "focusDistance": 3.0,
                "focusRange": 3.0,
                "quality": 3
            },
            {
                "$type": "DLPFECMKEKH",
                "type": "DIALOG",
                "aliasList": [
                    "1009"
                ],
                "NMKEDPFEKBH": 3800115
            },
            {
                "$type": "OPCCDGPJCJI",
                "type": "EMO_SYNC",
                "aliasList": [
                    "1009"
                ],
                "IONNJBCBACJ": "Cs_Emo_Avatar_Simple_Common_Set/Cs_Emo_Avatar_Talk/Cs_Emo_Avatar_MainLine/Cs_Emo_Avatar_MengDe/Cs_Emo_3800103",
                "HLEJKBCMNNJ": "",
                "JGHLJJLNGPP": "",
                "MANNKIIBOFM": "",
                "COMNAAFDEDH": "",
                "CPGCCLNOCDK": "",
                "IGEFGCJKCPM": [
                    4032309729167110246,
                    5355866643833287001,
                    17246587933437109616,
                    2459564062596626275
                ]
            }
        ],
        [
            {
                "$type": "MOOOKOKLLEI",
                "type": "CAMERA_MOVE",
                "delayTime": 0.4000000059604645,
                "duration": 0.30000001192092896,
                "DOKGBCKOLJK": {
                    "x": 171.52841186523438,
                    "y": 83.38256072998047,
                    "z": -21.806901931762695
                },
                "HGKCPMDICGG": {
                    "x": 170.5681915283203,
                    "y": 83.13319396972656,
                    "z": -21.932594299316406
                },
                "MGMFMGNANHH": 6,
                "NDFGFJFGHKL": "EaseInOutCubic",
                "IBCBGNHCICN": {},
                "OMCCMPHDLOO": "",
                "OCFGGGHIKOO": "",
                "LJFHGGJDPHH": "",
                "LPKDFKLNEHL": ""
            },
            {
                "$type": "MoleMole.Config.ConfigBlackScreenAction",
                "type": "BLACK_SCREEN",
                "duration": 1.0,
                "durationToBlack": 0.30000001192092896,
                "durationKeepBlack": 0.4000000059604645,
                "durationFromBlack": 0.30000001192092896,
                "inteePos": "",
                "textMapID": ""
            },
            {
                "$type": "DLPFECMKEKH",
                "type": "DIALOG_CLEAR",
                "delayTime": 0.30000001192092896,
                "JLCHMAJCAPA": 0.19999998807907104
            },
            {
                "$type": "MoleMole.Config.ConfigCameraDOFAction",
                "type": "CAMERA_DOF",
                "delayTime": 0.4000000059604645,
                "focusDistance": 2.0,
                "focusRange": 3.0,
                "quality": 3
            },
            {
                "$type": "MoleMole.Config.ConfigTimeProtectAction",
                "type": "TIME_PROTECT",
                "duration": 1.0
            },
            {
                "$type": "MoleMole.Config.ConfigVisibleInterAction",
                "type": "VISIBLE",
                "delayTime": 0.4000000059604645,
                "aliasList": [
                    "1009"
                ],
                "extraParam": ""
            },
            {
                "$type": "MoleMole.Config.ConfigVisibleInterAction",
                "type": "VISIBLE",
                "delayTime": 0.4000000059604645,
                "aliasList": [
                    "1006"
                ],
                "extraParam": ""
            }
        ],
        [
            {
                "$type": "EAMBKPBOPIC",
                "type": "LOOK_AT",
                "aliasList": [
                    "Avatar"
                ],
                "OMCCMPHDLOO": "",
                "KPCALFDIHMC": "",
                "DBLNLMOPEBP": ""
            },
            {
                "$type": "EAMBKPBOPIC",
                "type": "LOOK_AT",
                "aliasList": [
                    "1005"
                ],
                "OMCCMPHDLOO": "",
                "KPCALFDIHMC": "",
                "DBLNLMOPEBP": ""
            },
            {
                "$type": "EAMBKPBOPIC",
                "type": "LOOK_AT",
                "aliasList": [
                    "1009"
                ],
                "OMCCMPHDLOO": "",
                "KPCALFDIHMC": "",
                "DBLNLMOPEBP": ""
            },
            {
                "$type": "EAMBKPBOPIC",
                "type": "LOOK_AT",
                "aliasList": [
                    "1006"
                ],
                "OMCCMPHDLOO": "",
                "KPCALFDIHMC": "",
                "DBLNLMOPEBP": ""
            }
        ]
    ],
    "groupId": [
        {
            "grpId": 1728062439,
            "nextGrpId": 1728062440
        },
        {
            "index": 1,
            "grpId": 1728062440,
            "nextGrpId": 1728062441
        },
        {
            "index": 2,
            "grpId": 1728062441,
            "nextGrpId": 1728062442
        },
        {
            "index": 3,
            "grpId": 1728062442,
            "nextGrpId": 1728062443
        },
        {
            "index": 4,
            "grpId": 1728062443,
            "nextGrpId": 1728062444
        }
    ],
    "freeStyleDic": {
        "1009": [
            1190
        ],
        "1006": []
    }
}