{
    "luaDataPath": "",
    "entityBan": "",
    "disableNpcLod": true,
    "startFade": {
        "startFadeOutDuration": 0.0
    },
    "endFade": {
        "startFadeOutDuration": 0.0
    },
    "actors": [
        {
            "alias": "Avatar",
            "visible": true,
            "bornPointName": "",
            "relativePosNpcAlias": "",
            "bindMovingTargetKey": ""
        },
        {
            "configID": 9066,
            "alias": "9066",
            "visible": true,
            "bornPointName": "",
            "relativePosNpcAlias": "",
            "bindMovingTargetKey": ""
        }
    ],
    "group": [
        [
            {
                "$type": "OOMFCPJAJGL",
                "type": "STEER_TO",
                "duration": 1.0,
                "aliasList": [
                    "9066"
                ],
                "DMGIIHNDNLC": "TO_LOCAL_AVATAR_ADVANCED",
                "HCMINPNPFDF": true,
                "PENAEBFAHCH": true,
                "CKOEAJFMDON": true,
                "OMCCMPHDLOO": "",
                "DBLNLMOPEBP": ""
            },
            {
                "$type": "OOMFCPJAJGL",
                "type": "STEER_TO",
                "duration": 1.0,
                "aliasList": [
                    "Avatar"
                ],
                "DMGIIHNDNLC": "TO_TARGET_ADVANCED",
                "HCMINPNPFDF": true,
                "PENAEBFAHCH": true,
                "CKOEAJFMDON": true,
                "OMCCMPHDLOO": "9066",
                "DBLNLMOPEBP": ""
            },
            {
                "$type": "CJKIHIFAALJ",
                "type": "LOOK_AT_EYECTRL",
                "aliasList": [
                    "9066"
                ],
                "useTargetPos": false,
                "KOPLMCFNFEH": {
                    "z": 2.0
                },
                "DONDAIFPGMK": {
                    "z": 2.0
                },
                "BJMEKPDGMPA": 1.0,
                "OMCCMPHDLOO": "",
                "OPPBKKOPIOB": "Face"
            },
            {
                "$type": "ILCGAGEGDJI",
                "type": "BODY_LANG",
                "aliasList": [
                    "9066"
                ],
                "JLABKFNJCNP": true,
                "PMJAMGLAJGK": true,
                "LIMPPBIAKGL": false,
                "FNDLJGEAMGI": ""
            },
            {
                "$type": "MoleMole.Config.ConfigTimeProtectAction",
                "type": "TIME_PROTECT",
                "duration": 0.5
            },
            {
                "$type": "MOOOKOKLLEI",
                "type": "CAMERA_FOCUS",
                "duration": 0.10000000149011612,
                "OMCCMPHDLOO": "",
                "OCFGGGHIKOO": "",
                "LJFHGGJDPHH": "",
                "LPKDFKLNEHL": ""
            },
            {
                "$type": "CJKIHIFAALJ",
                "type": "LOOK_AT_EYECTRL",
                "aliasList": [
                    "Avatar"
                ],
                "useTargetPos": false,
                "KOPLMCFNFEH": {
                    "z": -2.0
                },
                "DONDAIFPGMK": {
                    "z": -2.0
                },
                "BJMEKPDGMPA": 1.0,
                "OMCCMPHDLOO": "",
                "OPPBKKOPIOB": "Face"
            },
            {
                "$type": "EAMBKPBOPIC",
                "type": "LOOK_AT",
                "delayTime": 0.10000000149011612,
                "aliasList": [
                    "Avatar"
                ],
                "FIDJDPAIFDN": true,
                "BCHGCKLKNEH": 0.5,
                "OMCCMPHDLOO": "9066",
                "KPCALFDIHMC": "",
                "DBLNLMOPEBP": ""
            },
            {
                "$type": "EAMBKPBOPIC",
                "type": "LOOK_AT",
                "delayTime": 0.10000000149011612,
                "aliasList": [
                    "9066"
                ],
                "FIDJDPAIFDN": true,
                "BCHGCKLKNEH": 0.5,
                "OMCCMPHDLOO": "Avatar",
                "KPCALFDIHMC": "",
                "DBLNLMOPEBP": ""
            }
        ],
        [
            {
                "$type": "OPCCDGPJCJI",
                "type": "EMO_SYNC",
                "aliasList": [
                    "9066"
                ],
                "IONNJBCBACJ": "Cs_Emo_Avatar_Simple_Common_Set/Cs_Emo_Avatar_Talk/Cs_Emo_HomeWorld/Cs_Emo_Avatar_Ayato/Cs_Emo_690660701",
                "HLEJKBCMNNJ": "",
                "JGHLJJLNGPP": "",
                "MANNKIIBOFM": "",
                "COMNAAFDEDH": "",
                "CPGCCLNOCDK": "",
                "IGEFGCJKCPM": [
                    14710832640111202731,
                    4102158596713985318,
                    2479814538813199139,
                    6518492580576411099
                ]
            },
            {
                "$type": "DLPFECMKEKH",
                "type": "DIALOG",
                "aliasList": [
                    "9066"
                ],
                "NMKEDPFEKBH": 690660701,
                "JLCHMAJCAPA": 0.5
            },
            {
                "$type": "EAMBKPBOPIC",
                "type": "LOOK_AT",
                "delayTime": 0.4000000059604645,
                "aliasList": [
                    "9066"
                ],
                "BCHGCKLKNEH": 0.5,
                "OMCCMPHDLOO": "",
                "KPCALFDIHMC": "",
                "DBLNLMOPEBP": ""
            },
            {
                "$type": "ILCGAGEGDJI",
                "type": "BODY_LANG",
                "delayTime": 0.4000000059604645,
                "aliasList": [
                    "9066"
                ],
                "FLBOOPHHFJP": 1190,
                "PMJAMGLAJGK": true,
                "LIMPPBIAKGL": false,
                "FNDLJGEAMGI": ""
            }
        ],
        [
            {
                "$type": "EAMBKPBOPIC",
                "type": "LOOK_AT",
                "aliasList": [
                    "9066"
                ],
                "FIDJDPAIFDN": true,
                "BCHGCKLKNEH": 0.5,
                "OMCCMPHDLOO": "Avatar",
                "KPCALFDIHMC": "",
                "DBLNLMOPEBP": ""
            },
            {
                "$type": "OPCCDGPJCJI",
                "type": "EMO_SYNC",
                "aliasList": [
                    "9066"
                ],
                "IONNJBCBACJ": "Cs_Emo_Avatar_Simple_Common_Set/Cs_Emo_Avatar_Talk/Cs_Emo_HomeWorld/Cs_Emo_Avatar_Ayato/Cs_Emo_690660702",
                "HLEJKBCMNNJ": "",
                "JGHLJJLNGPP": "",
                "MANNKIIBOFM": "",
                "COMNAAFDEDH": "",
                "CPGCCLNOCDK": "",
                "IGEFGCJKCPM": [
                    10007795614505567845,
                    8752289144251096789,
                    15070954441478478736,
                    6710253157880497529
                ]
            },
            {
                "$type": "DLPFECMKEKH",
                "type": "DIALOG",
                "aliasList": [
                    "9066"
                ],
                "NMKEDPFEKBH": 690660702,
                "JLCHMAJCAPA": 0.5
            },
            {
                "$type": "ILCGAGEGDJI",
                "type": "BODY_LANG",
                "aliasList": [
                    "9066"
                ],
                "JLABKFNJCNP": true,
                "PMJAMGLAJGK": true,
                "LIMPPBIAKGL": false,
                "FNDLJGEAMGI": ""
            },
            {
                "$type": "ILCGAGEGDJI",
                "type": "BODY_LANG",
                "delayTime": 1.899999976158142,
                "aliasList": [
                    "9066"
                ],
                "FLBOOPHHFJP": 1170,
                "PMJAMGLAJGK": true,
                "LIMPPBIAKGL": false,
                "FNDLJGEAMGI": ""
            },
            {
                "$type": "ILCGAGEGDJI",
                "type": "BODY_LANG",
                "delayTime": 5.703999996185303,
                "aliasList": [
                    "9066"
                ],
                "JLABKFNJCNP": true,
                "PMJAMGLAJGK": true,
                "LIMPPBIAKGL": false,
                "FNDLJGEAMGI": ""
            }
        ],
        [
            {
                "$type": "OPCCDGPJCJI",
                "type": "EMO_SYNC",
                "aliasList": [
                    "9066"
                ],
                "IONNJBCBACJ": "Cs_Emo_Avatar_Simple_Common_Set/Cs_Emo_Avatar_Talk/Cs_Emo_HomeWorld/Cs_Emo_Avatar_Ayato/Cs_Emo_690660703",
                "HLEJKBCMNNJ": "",
                "JGHLJJLNGPP": "",
                "MANNKIIBOFM": "",
                "COMNAAFDEDH": "",
                "CPGCCLNOCDK": "",
                "IGEFGCJKCPM": [
                    6751308374087575782,
                    2264505267510719652,
                    4032747883691697542,
                    1254797267906943367
                ]
            },
            {
                "$type": "ILCGAGEGDJI",
                "type": "BODY_LANG",
                "aliasList": [
                    "9066"
                ],
                "JLABKFNJCNP": true,
                "PMJAMGLAJGK": true,
                "LIMPPBIAKGL": false,
                "FNDLJGEAMGI": ""
            },
            {
                "$type": "DLPFECMKEKH",
                "type": "DIALOG",
                "aliasList": [
                    "9066"
                ],
                "NMKEDPFEKBH": 690660703,
                "JLCHMAJCAPA": 0.5
            },
            {
                "$type": "ILCGAGEGDJI",
                "type": "BODY_LANG",
                "delayTime": 0.8650000095367432,
                "aliasList": [
                    "9066"
                ],
                "FLBOOPHHFJP": 1171,
                "PMJAMGLAJGK": true,
                "LIMPPBIAKGL": false,
                "FNDLJGEAMGI": ""
            },
            {
                "$type": "ILCGAGEGDJI",
                "type": "BODY_LANG",
                "delayTime": 5.642000198364258,
                "aliasList": [
                    "9066"
                ],
                "FLBOOPHHFJP": 1130,
                "PMJAMGLAJGK": true,
                "LIMPPBIAKGL": false,
                "FNDLJGEAMGI": ""
            }
        ],
        [
            {
                "$type": "CJKIHIFAALJ",
                "type": "LOOK_AT_EYECTRL",
                "aliasList": [
                    "9066"
                ],
                "useTargetPos": false,
                "BJMEKPDGMPA": 1.0,
                "OMCCMPHDLOO": "",
                "OPPBKKOPIOB": "Face"
            },
            {
                "$type": "ILCGAGEGDJI",
                "type": "BODY_LANG",
                "aliasList": [
                    "9066"
                ],
                "JLABKFNJCNP": true,
                "PMJAMGLAJGK": true,
                "LIMPPBIAKGL": false,
                "FNDLJGEAMGI": ""
            },
            {
                "$type": "MoleMole.Config.ConfigTimeProtectAction",
                "type": "TIME_PROTECT",
                "duration": 0.10000000149011612
            }
        ]
    ],
    "groupId": [
        {
            "grpId": 2005778062,
            "nextGrpId": 2005778063
        },
        {
            "index": 1,
            "grpId": 2005778063,
            "nextGrpId": 2005778064
        },
        {
            "index": 2,
            "grpId": 2005778064,
            "nextGrpId": 2005778065
        },
        {
            "index": 3,
            "grpId": 2005778065,
            "nextGrpId": 2005778066
        },
        {
            "index": 4,
            "grpId": 2005778066,
            "nextGrpId": 2005778067
        }
    ],
    "freeStyleDic": {
        "9066": [
            1190,
            1170,
            1130,
            1171
        ]
    }
}