[
    {
        "areaName": "AudioArea_1-1(35846)",
        "AAOKCKCLPCI": 2395913294,
        "areaPoints": [
            {
                "x": -52.1666374206543,
                "y": 189.0,
                "z": 441.4130554199219
            },
            {
                "x": -185.5493621826172,
                "y": 189.0,
                "z": 521.3336181640625
            },
            {
                "x": -173.21173095703125,
                "y": 189.0,
                "z": 628.9933471679688
            },
            {
                "x": -119.21407318115234,
                "y": 189.0,
                "z": 742.9612426757812
            },
            {
                "x": -42.438594818115234,
                "y": 189.0,
                "z": 779.4793090820312
            },
            {
                "x": 130.55560302734375,
                "y": 189.0,
                "z": 732.4715576171875
            },
            {
                "x": 144.51467895507812,
                "y": 189.0,
                "z": 697.9032592773438
            },
            {
                "x": 151.22637939453125,
                "y": 189.0,
                "z": 621.76123046875
            },
            {
                "x": 107.79682922363281,
                "y": 189.0,
                "z": 557.953857421875
            },
            {
                "x": 77.48515319824219,
                "y": 189.0,
                "z": 492.06182861328125
            }
        ],
        "yZeroAnchor": 189.0,
        "areaGroupName": {
            "text": ""
        },
        "enableHeightCheck": true,
        "IGAKAECHAJL": 100.0,
        "PJKHGAJALCD": 130.0,
        "isAmbience": true,
        "enterEvents": [
            {
                "text": "Play_Amb_Dungeon_Xinyan"
            },
            {
                "text": "Stop_Amb_Scene_Homeworld_Interior"
            }
        ],
        "leaveEvents": [
            {
                "text": "Stop_Amb_Dungeon_Xinyan"
            }
        ],
        "isReverb": true,
        "auxBusName": {
            "text": "Aux_SM_Cave_Small"
        }
    }
]