[
    {
        "areaName": "AudioArea_1-1(20131)",
        "AAOKCKCLPCI": 2836797250,
        "areaPoints": [
            {
                "x": 169.9794158935547,
                "y": 19.34908676147461,
                "z": -180.71356201171875
            },
            {
                "x": -112.53382873535156,
                "y": 19.34908676147461,
                "z": -109.13163757324219
            },
            {
                "x": -104.36381530761719,
                "y": 19.34908676147461,
                "z": 118.57169342041016
            },
            {
                "x": 288.7611083984375,
                "y": 19.34908676147461,
                "z": 135.81971740722656
            }
        ],
        "yZeroAnchor": 19.34908676147461,
        "areaGroupName": {
            "text": ""
        },
        "enableHeightCheck": true,
        "IGAKAECHAJL": 138.10000610351562,
        "PJKHGAJALCD": 126.5999984741211,
        "isReverb": true,
        "auxBusName": {
            "text": "Aux_SM_Cave_Small"
        }
    }
]