{
    "globalVolume": {
        "rtpc": {
            "text": "Param_volumeMaster"
        },
        "textMap": "UI_SETTING_AUDIO_CONFIG",
        "eachValues": [
            0.0,
            0.10000000149011612,
            0.20000000298023224,
            0.30000001192092896,
            0.4000000059604645,
            0.5,
            0.6000000238418579,
            0.699999988079071,
            0.800000011920929,
            0.8999999761581421,
            1.0
        ],
        "changeEvent": {
            "text": "Play_ui_button_setting_common"
        }
    },
    "sfxVolume": {
        "rtpc": {
            "text": "Param_volumeSFX"
        },
        "textMap": "UI_SETTING_AUDIO_EFFECT",
        "eachValues": [
            0.0,
            0.10000000149011612,
            0.20000000298023224,
            0.30000001192092896,
            0.4000000059604645,
            0.5,
            0.6000000238418579,
            0.699999988079071,
            0.800000011920929,
            0.8999999761581421,
            1.0
        ],
        "changeEvent": {
            "text": "Play_ui_button_setting_common"
        }
    },
    "musicVolume": {
        "rtpc": {
            "text": "Param_volumeMusic"
        },
        "textMap": "UI_SETTING_AUDIO_MUSIC",
        "eachValues": [
            0.0,
            0.10000000149011612,
            0.20000000298023224,
            0.30000001192092896,
            0.4000000059604645,
            0.5,
            0.6000000238418579,
            0.699999988079071,
            0.800000011920929,
            0.8999999761581421,
            1.0
        ],
        "changeEvent": {
            "text": "Play_ui_button_setting_music"
        }
    },
    "voiceVolume": {
        "rtpc": {
            "text": "Param_volumeVO"
        },
        "textMap": "UI_SETTING_AUDIO_VOICE",
        "eachValues": [
            0.0,
            0.10000000149011612,
            0.20000000298023224,
            0.30000001192092896,
            0.4000000059604645,
            0.5,
            0.6000000238418579,
            0.699999988079071,
            0.800000011920929,
            0.8999999761581421,
            1.0
        ],
        "changeVoiceArray": [
            {
                "voiceTriggerIdentity": {
                    "GameTrigger": "JoinTeam",
                    "gameTriggerArgs": 666
                },
                "repeatCount": 3
            },
            {
                "voiceTriggerIdentity": {
                    "GameTrigger": "JoinTeam",
                    "gameTriggerArgs": 777
                },
                "repeatCount": 1
            }
        ]
    },
    "vibration": {
        "rtpc": {
            "text": "Param_motionEnable"
        }
    },
    "dualSenseRTPC": {
        "text": "Param_dualSense"
    },
    "dynamicRangeRTPCKey": {
        "text": "Param_volumeDynamicRange"
    },
    "outputSettingMap": {
        "0": {
            "name": "立体声",
            "busChannelConfigList": [
                {
                    "bus": {
                        "text": "Amb_Bus"
                    },
                    "channelMask": 3
                },
                {
                    "bus": {
                        "text": "Cinematic_Bus"
                    },
                    "channelMask": 3
                },
                {
                    "bus": {
                        "text": "Effect_Bus"
                    },
                    "channelMask": 3
                },
                {
                    "bus": {
                        "text": "Music_Bus"
                    },
                    "channelMask": 3
                },
                {
                    "bus": {
                        "text": "SFX_Bus"
                    },
                    "channelMask": 3
                },
                {
                    "bus": {
                        "text": "UI_Bus"
                    },
                    "channelMask": 3
                },
                {
                    "bus": {
                        "text": "VO_Bus"
                    },
                    "channelMask": 3
                },
                {
                    "bus": {
                        "text": "VO_NPC"
                    },
                    "channelMask": 3
                }
            ]
        },
        "1": {
            "name": "环绕声",
            "busChannelConfigList": [
                {
                    "bus": {
                        "text": "Amb_Bus"
                    }
                },
                {
                    "bus": {
                        "text": "Cinematic_Bus"
                    },
                    "channelMask": 11
                },
                {
                    "bus": {
                        "text": "Effect_Bus"
                    }
                },
                {
                    "bus": {
                        "text": "Music_Bus"
                    }
                },
                {
                    "bus": {
                        "text": "SFX_Bus"
                    }
                },
                {
                    "bus": {
                        "text": "UI_Bus"
                    },
                    "channelMask": 11
                },
                {
                    "bus": {
                        "text": "VO_Bus"
                    }
                },
                {
                    "bus": {
                        "text": "VO_NPC"
                    },
                    "channelMask": 4
                }
            ]
        }
    },
    "platformSettings": {
        "Android": {
            "audioAPIDefaultOpenSLESRequirements": [
                [
                    {
                        "Info": "DeviceModel",
                        "Values": [
                            "Pixel 6.*"
                        ]
                    }
                ],
                [
                    {
                        "Info": "DeviceModel",
                        "Values": [
                            "IN202[0-5]"
                        ]
                    }
                ],
                [
                    {
                        "Info": "DeviceModel",
                        "Values": [
                            "RMX2202",
                            "RMX3350",
                            "RMX3357",
                            "RMX331[0-2]",
                            "RMX3300",
                            "RMX3031"
                        ]
                    }
                ],
                [
                    {
                        "Info": "DeviceModel",
                        "Values": [
                            "V2238A",
                            "PA2373"
                        ]
                    }
                ]
            ]
        }
    },
    "vibrationLevel": {
        "stateGroup": {
            "text": "StateGroup_motionLevel"
        },
        "BPFEEHAPAEK": "UI_SETTING_INPUT_TYPE_VIBRATION_STATE",
        "AKBCOCNOAKL": [
            "UI_SETTING_INPUT_TYPE_VIBRATION_STATE_FULL",
            "UI_SETTING_INPUT_TYPE_VIBRATION_STATE_INCOMPLETE",
            "UI_SETTING_INPUT_TYPE_VIBRATION_STATE_DISABLE"
        ],
        "ENIOFJOKCNM": {
            "0": {
                "text": "State_High"
            },
            "1": {
                "text": "State_Basic"
            },
            "2": {
                "text": "State_Off"
            }
        }
    },
    "vibrationIntensity": {
        "rtpc": {
            "text": "Param_volumeMotion"
        },
        "textMap": "UI_SETTING_INPUT_TYPE_VIBRATION_SENSITIVITY",
        "minValue": 1,
        "maxValue": 5,
        "eachValues": [
            0.20000000298023224,
            0.4000000059604645,
            0.6000000238418579,
            0.800000011920929,
            1.0
        ]
    },
    "CCAKIKDGOHG": {
        "text": "Param_volumeMinimize"
    }
}