{
    "luaDataPath": "",
    "dontUseDefaultFinish": true,
    "startBlackKeepTime": 0.5,
    "entityBan": "",
    "disableNpcLod": true,
    "isAutoBanNpc": true,
    "isBanWidgetPet": true,
    "protectNpcMobileLod": true,
    "LIICEPFFGMH": 5,
    "startFade": {
        "startFadeInDuration": 0.5,
        "startFadeOutDuration": 0.5
    },
    "endFade": {
        "startFadeOutDuration": 0.5
    },
    "actors": [
        {
            "alias": "Avatar",
            "visible": true,
            "bornPointName": "[3_340100213:3499.830,426.624,4485.469,0.000,342.500,0.000]",
            "relativePosType": "AVATAR_NEW",
            "relativePosNpcAlias": "",
            "bindMovingTargetKey": ""
        },
        {
            "configID": 5062,
            "alias": "5062",
            "visible": true,
            "bornPointName": "[3_340100211:3501.124,426.623,4486.746,0.000,267.400,0.000]",
            "removeActorType": "NEW_REMOVE",
            "forceCreateDaily": true,
            "relativePosType": "AVATAR_NEW",
            "relativePosNpcAlias": "",
            "bindMovingTargetKey": ""
        },
        {
            "configID": 5063,
            "alias": "5063",
            "visible": true,
            "bornPointName": "[3_340100212:3500.759,426.624,4487.457,0.000,216.300,0.000]",
            "removeActorType": "NEW_REMOVE",
            "forceCreateDaily": true,
            "relativePosType": "AVATAR_NEW",
            "relativePosNpcAlias": "",
            "bindMovingTargetKey": ""
        },
        {
            "configID": 5021,
            "alias": "5021",
            "visible": true,
            "bornPointName": "[3_340100092:3500.934,426.624,4485.952,0.000,285.900,0.000]",
            "forceCreateDaily": true,
            "relativePosType": "AVATAR_NEW",
            "relativePosNpcAlias": "",
            "bindMovingTargetKey": ""
        }
    ],
    "group": [
        [
            {
                "$type": "MoleMole.Config.ConfigTimeProtectAction",
                "type": "TIME_PROTECT",
                "duration": 1.0,
                "actionId": 104
            },
            {
                "$type": "MoleMole.Config.ConfigBlackScreenAction",
                "type": "BLACK_SCREEN",
                "duration": 1.0,
                "actionId": 136,
                "blackScreenType": "KEEP_BLACK",
                "durationToBlack": 0.5,
                "durationKeepBlack": 1.0,
                "durationFromBlack": 0.5,
                "inteePos": "",
                "textMapID": "",
                "useTextFade": true
            },
            {
                "$type": "ILCGAGEGDJI",
                "type": "BODY_LANG",
                "aliasList": [
                    "5062"
                ],
                "actionId": 130,
                "JLABKFNJCNP": true,
                "PMJAMGLAJGK": true,
                "LIMPPBIAKGL": false,
                "FNDLJGEAMGI": ""
            },
            {
                "$type": "ILCGAGEGDJI",
                "type": "BODY_LANG",
                "aliasList": [
                    "5063"
                ],
                "actionId": 132,
                "JLABKFNJCNP": true,
                "PMJAMGLAJGK": true,
                "LIMPPBIAKGL": false,
                "FNDLJGEAMGI": ""
            },
            {
                "$type": "ILCGAGEGDJI",
                "type": "BODY_LANG",
                "aliasList": [
                    "5021"
                ],
                "actionId": 134,
                "JLABKFNJCNP": true,
                "PMJAMGLAJGK": true,
                "LIMPPBIAKGL": false,
                "FNDLJGEAMGI": ""
            }
        ],
        [
            {
                "$type": "MoleMole.Config.ConfigBlackScreenAction",
                "type": "BLACK_SCREEN",
                "duration": 0.5,
                "actionId": 137,
                "blackScreenType": "FROM_BLACK",
                "durationToBlack": 0.5,
                "durationKeepBlack": 0.5,
                "durationFromBlack": 0.5,
                "inteePos": "",
                "textMapID": "",
                "useTextFade": true
            },
            {
                "$type": "EAMBKPBOPIC",
                "type": "LOOK_AT",
                "aliasList": [
                    "Avatar"
                ],
                "actionId": 140,
                "flag": 64,
                "FIDJDPAIFDN": true,
                "BCHGCKLKNEH": 0.5,
                "OMCCMPHDLOO": "5062",
                "EOHIIHMKDJC": true,
                "NALDAIJKCML": 60.0,
                "KPCALFDIHMC": "",
                "DBLNLMOPEBP": ""
            },
            {
                "$type": "DLPFECMKEKH",
                "type": "DIALOG",
                "aliasList": [
                    "5062"
                ],
                "actionId": 107,
                "NMKEDPFEKBH": 240050201,
                "JLCHMAJCAPA": 0.5
            },
            {
                "$type": "EAMBKPBOPIC",
                "type": "LOOK_AT",
                "aliasList": [
                    "5063"
                ],
                "actionId": 141,
                "flag": 64,
                "FIDJDPAIFDN": true,
                "BCHGCKLKNEH": 0.5,
                "OMCCMPHDLOO": "5062",
                "EOHIIHMKDJC": true,
                "NALDAIJKCML": 60.0,
                "KPCALFDIHMC": "",
                "DBLNLMOPEBP": ""
            },
            {
                "$type": "EAMBKPBOPIC",
                "type": "LOOK_AT",
                "aliasList": [
                    "5021"
                ],
                "actionId": 142,
                "flag": 64,
                "FIDJDPAIFDN": true,
                "BCHGCKLKNEH": 0.5,
                "OMCCMPHDLOO": "5062",
                "EOHIIHMKDJC": true,
                "NALDAIJKCML": 60.0,
                "KPCALFDIHMC": "",
                "DBLNLMOPEBP": ""
            }
        ],
        [
            {
                "$type": "EAMBKPBOPIC",
                "type": "LOOK_AT",
                "aliasList": [
                    "Avatar"
                ],
                "actionId": 143,
                "flag": 64,
                "FIDJDPAIFDN": true,
                "BCHGCKLKNEH": 0.5,
                "OMCCMPHDLOO": "5063",
                "EOHIIHMKDJC": true,
                "NALDAIJKCML": 60.0,
                "KPCALFDIHMC": "",
                "DBLNLMOPEBP": ""
            },
            {
                "$type": "EAMBKPBOPIC",
                "type": "LOOK_AT",
                "aliasList": [
                    "5062"
                ],
                "actionId": 144,
                "flag": 64,
                "FIDJDPAIFDN": true,
                "BCHGCKLKNEH": 0.5,
                "OMCCMPHDLOO": "5063",
                "EOHIIHMKDJC": true,
                "NALDAIJKCML": 60.0,
                "KPCALFDIHMC": "",
                "DBLNLMOPEBP": ""
            },
            {
                "$type": "DLPFECMKEKH",
                "type": "DIALOG",
                "aliasList": [
                    "5063"
                ],
                "actionId": 109,
                "NMKEDPFEKBH": 240050202,
                "JLCHMAJCAPA": 0.5
            },
            {
                "$type": "ILCGAGEGDJI",
                "type": "BODY_LANG",
                "aliasList": [
                    "5063"
                ],
                "actionId": 139,
                "FLBOOPHHFJP": 1050,
                "PMJAMGLAJGK": true,
                "LIMPPBIAKGL": false,
                "FNEGLPPEBBF": true,
                "FNDLJGEAMGI": ""
            },
            {
                "$type": "EAMBKPBOPIC",
                "type": "LOOK_AT",
                "aliasList": [
                    "5021"
                ],
                "actionId": 145,
                "flag": 64,
                "FIDJDPAIFDN": true,
                "BCHGCKLKNEH": 0.5,
                "OMCCMPHDLOO": "5063",
                "EOHIIHMKDJC": true,
                "NALDAIJKCML": 60.0,
                "KPCALFDIHMC": "",
                "DBLNLMOPEBP": ""
            }
        ],
        [
            {
                "$type": "EAMBKPBOPIC",
                "type": "LOOK_AT",
                "aliasList": [
                    "Avatar"
                ],
                "actionId": 146,
                "flag": 64,
                "FIDJDPAIFDN": true,
                "BCHGCKLKNEH": 0.5,
                "OMCCMPHDLOO": "5062",
                "EOHIIHMKDJC": true,
                "NALDAIJKCML": 60.0,
                "KPCALFDIHMC": "",
                "DBLNLMOPEBP": ""
            },
            {
                "$type": "DLPFECMKEKH",
                "type": "DIALOG",
                "aliasList": [
                    "5062"
                ],
                "actionId": 111,
                "NMKEDPFEKBH": 240050203,
                "JLCHMAJCAPA": 0.5
            },
            {
                "$type": "EAMBKPBOPIC",
                "type": "LOOK_AT",
                "aliasList": [
                    "5063"
                ],
                "actionId": 147,
                "flag": 64,
                "FIDJDPAIFDN": true,
                "BCHGCKLKNEH": 0.5,
                "OMCCMPHDLOO": "5062",
                "EOHIIHMKDJC": true,
                "NALDAIJKCML": 60.0,
                "KPCALFDIHMC": "",
                "DBLNLMOPEBP": ""
            },
            {
                "$type": "ILCGAGEGDJI",
                "type": "BODY_LANG",
                "aliasList": [
                    "5063"
                ],
                "actionId": 164,
                "JLABKFNJCNP": true,
                "PMJAMGLAJGK": true,
                "LIMPPBIAKGL": false,
                "FNEGLPPEBBF": true,
                "FNDLJGEAMGI": ""
            },
            {
                "$type": "EAMBKPBOPIC",
                "type": "LOOK_AT",
                "aliasList": [
                    "5021"
                ],
                "actionId": 148,
                "flag": 64,
                "FIDJDPAIFDN": true,
                "BCHGCKLKNEH": 0.5,
                "OMCCMPHDLOO": "5062",
                "EOHIIHMKDJC": true,
                "NALDAIJKCML": 60.0,
                "KPCALFDIHMC": "",
                "DBLNLMOPEBP": ""
            }
        ],
        [
            {
                "$type": "DLPFECMKEKH",
                "type": "DIALOG",
                "aliasList": [
                    "5062"
                ],
                "actionId": 113,
                "NMKEDPFEKBH": 240050204,
                "JLCHMAJCAPA": 0.5
            },
            {
                "$type": "ILCGAGEGDJI",
                "type": "BODY_LANG",
                "aliasList": [
                    "5062"
                ],
                "actionId": 165,
                "FLBOOPHHFJP": 4040,
                "PMJAMGLAJGK": true,
                "LIMPPBIAKGL": false,
                "FNEGLPPEBBF": true,
                "FNDLJGEAMGI": ""
            }
        ],
        [
            {
                "$type": "EAMBKPBOPIC",
                "type": "LOOK_AT",
                "aliasList": [
                    "Avatar"
                ],
                "actionId": 149,
                "flag": 64,
                "FIDJDPAIFDN": true,
                "BCHGCKLKNEH": 0.5,
                "OMCCMPHDLOO": "5021",
                "EOHIIHMKDJC": true,
                "NALDAIJKCML": 60.0,
                "KPCALFDIHMC": "",
                "DBLNLMOPEBP": ""
            },
            {
                "$type": "EAMBKPBOPIC",
                "type": "LOOK_AT",
                "aliasList": [
                    "5062"
                ],
                "actionId": 150,
                "flag": 64,
                "FIDJDPAIFDN": true,
                "BCHGCKLKNEH": 0.5,
                "OMCCMPHDLOO": "5021",
                "EOHIIHMKDJC": true,
                "NALDAIJKCML": 60.0,
                "KPCALFDIHMC": "",
                "DBLNLMOPEBP": ""
            },
            {
                "$type": "EAMBKPBOPIC",
                "type": "LOOK_AT",
                "aliasList": [
                    "5063"
                ],
                "actionId": 151,
                "flag": 64,
                "FIDJDPAIFDN": true,
                "BCHGCKLKNEH": 0.5,
                "OMCCMPHDLOO": "5021",
                "EOHIIHMKDJC": true,
                "NALDAIJKCML": 60.0,
                "KPCALFDIHMC": "",
                "DBLNLMOPEBP": ""
            },
            {
                "$type": "DLPFECMKEKH",
                "type": "DIALOG",
                "aliasList": [
                    "5021"
                ],
                "actionId": 115,
                "NMKEDPFEKBH": 240050205,
                "JLCHMAJCAPA": 0.5
            },
            {
                "$type": "ILCGAGEGDJI",
                "type": "BODY_LANG",
                "aliasList": [
                    "5021"
                ],
                "actionId": 166,
                "FLBOOPHHFJP": 1171,
                "PMJAMGLAJGK": true,
                "LIMPPBIAKGL": false,
                "FNEGLPPEBBF": true,
                "FNDLJGEAMGI": ""
            }
        ],
        [
            {
                "$type": "EAMBKPBOPIC",
                "type": "LOOK_AT",
                "aliasList": [
                    "Avatar"
                ],
                "actionId": 152,
                "flag": 64,
                "FIDJDPAIFDN": true,
                "BCHGCKLKNEH": 0.5,
                "OMCCMPHDLOO": "5063",
                "EOHIIHMKDJC": true,
                "NALDAIJKCML": 60.0,
                "KPCALFDIHMC": "",
                "DBLNLMOPEBP": ""
            },
            {
                "$type": "EAMBKPBOPIC",
                "type": "LOOK_AT",
                "aliasList": [
                    "5062"
                ],
                "actionId": 153,
                "flag": 64,
                "FIDJDPAIFDN": true,
                "BCHGCKLKNEH": 0.5,
                "OMCCMPHDLOO": "5063",
                "EOHIIHMKDJC": true,
                "NALDAIJKCML": 60.0,
                "KPCALFDIHMC": "",
                "DBLNLMOPEBP": ""
            },
            {
                "$type": "DLPFECMKEKH",
                "type": "DIALOG",
                "aliasList": [
                    "5063"
                ],
                "actionId": 117,
                "NMKEDPFEKBH": 240050206,
                "JLCHMAJCAPA": 0.5
            },
            {
                "$type": "ILCGAGEGDJI",
                "type": "BODY_LANG",
                "aliasList": [
                    "5063"
                ],
                "actionId": 167,
                "FLBOOPHHFJP": 4030,
                "PMJAMGLAJGK": true,
                "LIMPPBIAKGL": false,
                "FNEGLPPEBBF": true,
                "FNDLJGEAMGI": ""
            },
            {
                "$type": "EAMBKPBOPIC",
                "type": "LOOK_AT",
                "aliasList": [
                    "5021"
                ],
                "actionId": 154,
                "flag": 64,
                "FIDJDPAIFDN": true,
                "BCHGCKLKNEH": 0.5,
                "OMCCMPHDLOO": "5063",
                "EOHIIHMKDJC": true,
                "NALDAIJKCML": 60.0,
                "KPCALFDIHMC": "",
                "DBLNLMOPEBP": ""
            },
            {
                "$type": "ILCGAGEGDJI",
                "type": "BODY_LANG",
                "aliasList": [
                    "5021"
                ],
                "actionId": 168,
                "JLABKFNJCNP": true,
                "PMJAMGLAJGK": true,
                "LIMPPBIAKGL": false,
                "FNEGLPPEBBF": true,
                "FNDLJGEAMGI": ""
            }
        ],
        [
            {
                "$type": "DLPFECMKEKH",
                "type": "DIALOG",
                "aliasList": [
                    "5063"
                ],
                "actionId": 119,
                "NMKEDPFEKBH": 240050207,
                "JLCHMAJCAPA": 0.5
            }
        ],
        [
            {
                "$type": "EAMBKPBOPIC",
                "type": "LOOK_AT",
                "aliasList": [
                    "Avatar"
                ],
                "actionId": 155,
                "flag": 64,
                "FIDJDPAIFDN": true,
                "BCHGCKLKNEH": 0.5,
                "OMCCMPHDLOO": "5021",
                "EOHIIHMKDJC": true,
                "NALDAIJKCML": 60.0,
                "KPCALFDIHMC": "",
                "DBLNLMOPEBP": ""
            },
            {
                "$type": "EAMBKPBOPIC",
                "type": "LOOK_AT",
                "aliasList": [
                    "5062"
                ],
                "actionId": 156,
                "flag": 64,
                "FIDJDPAIFDN": true,
                "BCHGCKLKNEH": 0.5,
                "OMCCMPHDLOO": "5021",
                "EOHIIHMKDJC": true,
                "NALDAIJKCML": 60.0,
                "KPCALFDIHMC": "",
                "DBLNLMOPEBP": ""
            },
            {
                "$type": "EAMBKPBOPIC",
                "type": "LOOK_AT",
                "aliasList": [
                    "5063"
                ],
                "actionId": 157,
                "flag": 64,
                "FIDJDPAIFDN": true,
                "BCHGCKLKNEH": 0.5,
                "OMCCMPHDLOO": "5021",
                "EOHIIHMKDJC": true,
                "NALDAIJKCML": 60.0,
                "KPCALFDIHMC": "",
                "DBLNLMOPEBP": ""
            },
            {
                "$type": "DLPFECMKEKH",
                "type": "DIALOG",
                "aliasList": [
                    "5021"
                ],
                "actionId": 121,
                "NMKEDPFEKBH": 240050208,
                "JLCHMAJCAPA": 0.5
            },
            {
                "$type": "ILCGAGEGDJI",
                "type": "BODY_LANG",
                "aliasList": [
                    "5021"
                ],
                "actionId": 169,
                "FLBOOPHHFJP": 1190,
                "PMJAMGLAJGK": true,
                "LIMPPBIAKGL": false,
                "FNEGLPPEBBF": true,
                "FNDLJGEAMGI": ""
            }
        ],
        [
            {
                "$type": "EAMBKPBOPIC",
                "type": "LOOK_AT",
                "aliasList": [
                    "Avatar"
                ],
                "actionId": 158,
                "flag": 64,
                "FIDJDPAIFDN": true,
                "BCHGCKLKNEH": 0.5,
                "OMCCMPHDLOO": "5062",
                "EOHIIHMKDJC": true,
                "NALDAIJKCML": 60.0,
                "KPCALFDIHMC": "",
                "DBLNLMOPEBP": ""
            },
            {
                "$type": "DLPFECMKEKH",
                "type": "DIALOG",
                "aliasList": [
                    "5062"
                ],
                "actionId": 123,
                "NMKEDPFEKBH": 240050209,
                "JLCHMAJCAPA": 0.5
            },
            {
                "$type": "EAMBKPBOPIC",
                "type": "LOOK_AT",
                "aliasList": [
                    "5063"
                ],
                "actionId": 159,
                "flag": 64,
                "FIDJDPAIFDN": true,
                "BCHGCKLKNEH": 0.5,
                "OMCCMPHDLOO": "5062",
                "EOHIIHMKDJC": true,
                "NALDAIJKCML": 60.0,
                "KPCALFDIHMC": "",
                "DBLNLMOPEBP": ""
            },
            {
                "$type": "EAMBKPBOPIC",
                "type": "LOOK_AT",
                "aliasList": [
                    "5021"
                ],
                "actionId": 160,
                "flag": 64,
                "FIDJDPAIFDN": true,
                "BCHGCKLKNEH": 0.5,
                "OMCCMPHDLOO": "5062",
                "EOHIIHMKDJC": true,
                "NALDAIJKCML": 60.0,
                "KPCALFDIHMC": "",
                "DBLNLMOPEBP": ""
            },
            {
                "$type": "ILCGAGEGDJI",
                "type": "BODY_LANG",
                "aliasList": [
                    "5021"
                ],
                "actionId": 170,
                "JLABKFNJCNP": true,
                "PMJAMGLAJGK": true,
                "LIMPPBIAKGL": false,
                "FNEGLPPEBBF": true,
                "FNDLJGEAMGI": ""
            }
        ],
        [
            {
                "$type": "DLPFECMKEKH",
                "type": "DIALOG",
                "aliasList": [
                    "5062"
                ],
                "actionId": 125,
                "NMKEDPFEKBH": 240050210,
                "JLCHMAJCAPA": 0.5
            }
        ],
        [
            {
                "$type": "EAMBKPBOPIC",
                "type": "LOOK_AT",
                "aliasList": [
                    "Avatar"
                ],
                "actionId": 161,
                "flag": 64,
                "FIDJDPAIFDN": true,
                "BCHGCKLKNEH": 0.5,
                "OMCCMPHDLOO": "5021",
                "EOHIIHMKDJC": true,
                "NALDAIJKCML": 60.0,
                "KPCALFDIHMC": "",
                "DBLNLMOPEBP": ""
            },
            {
                "$type": "EAMBKPBOPIC",
                "type": "LOOK_AT",
                "aliasList": [
                    "5062"
                ],
                "actionId": 162,
                "flag": 64,
                "FIDJDPAIFDN": true,
                "BCHGCKLKNEH": 0.5,
                "OMCCMPHDLOO": "5021",
                "EOHIIHMKDJC": true,
                "NALDAIJKCML": 60.0,
                "KPCALFDIHMC": "",
                "DBLNLMOPEBP": ""
            },
            {
                "$type": "EAMBKPBOPIC",
                "type": "LOOK_AT",
                "aliasList": [
                    "5063"
                ],
                "actionId": 163,
                "flag": 64,
                "FIDJDPAIFDN": true,
                "BCHGCKLKNEH": 0.5,
                "OMCCMPHDLOO": "5021",
                "EOHIIHMKDJC": true,
                "NALDAIJKCML": 60.0,
                "KPCALFDIHMC": "",
                "DBLNLMOPEBP": ""
            },
            {
                "$type": "DLPFECMKEKH",
                "type": "DIALOG",
                "aliasList": [
                    "5021"
                ],
                "actionId": 127,
                "NMKEDPFEKBH": 240050211,
                "JLCHMAJCAPA": 0.5
            },
            {
                "$type": "ILCGAGEGDJI",
                "type": "BODY_LANG",
                "aliasList": [
                    "5021"
                ],
                "actionId": 171,
                "FLBOOPHHFJP": 4030,
                "PMJAMGLAJGK": true,
                "LIMPPBIAKGL": false,
                "FNEGLPPEBBF": true,
                "FNDLJGEAMGI": ""
            }
        ],
        [
            {
                "$type": "MoleMole.Config.ConfigTimeProtectAction",
                "type": "TIME_PROTECT",
                "duration": 0.10000000149011612,
                "actionId": 105
            },
            {
                "$type": "MoleMole.Config.ConfigSimpleBlackScreenAction",
                "type": "SIMPLE_BLACK_SCREEN",
                "actionId": 128,
                "durationToBlack": 0.5,
                "durationKeepBlack": 1.5,
                "durationFromBlack": 0.5,
                "textMapID": ""
            },
            {
                "$type": "MoleMole.Config.ConfigTimeProtectAction",
                "type": "TIME_PROTECT",
                "duration": 0.699999988079071,
                "actionId": 129
            },
            {
                "$type": "MOOOKOKLLEI",
                "type": "CAMERA_MOVE",
                "delayTime": 0.5,
                "duration": 0.10000000149011612,
                "actionId": 138,
                "IPHEFBOANAL": "EXIT",
                "HGKCPMDICGG": {
                    "z": 1.0
                },
                "AFODHELHCGB": 30.0,
                "MGMFMGNANHH": 5,
                "NDFGFJFGHKL": "EaseInOutCubic",
                "IBCBGNHCICN": {},
                "HCPFCAHMGMO": false,
                "OMCCMPHDLOO": "",
                "FEFNBKOHPOG": true,
                "OCFGGGHIKOO": "",
                "LJFHGGJDPHH": "",
                "LPKDFKLNEHL": ""
            },
            {
                "$type": "ILCGAGEGDJI",
                "type": "BODY_LANG",
                "delayTime": 0.6000000238418579,
                "aliasList": [
                    "5062"
                ],
                "actionId": 131,
                "JLABKFNJCNP": true,
                "PMJAMGLAJGK": true,
                "LIMPPBIAKGL": false,
                "FNDLJGEAMGI": ""
            },
            {
                "$type": "ILCGAGEGDJI",
                "type": "BODY_LANG",
                "delayTime": 0.6000000238418579,
                "aliasList": [
                    "5063"
                ],
                "actionId": 133,
                "JLABKFNJCNP": true,
                "PMJAMGLAJGK": true,
                "LIMPPBIAKGL": false,
                "FNDLJGEAMGI": ""
            },
            {
                "$type": "ILCGAGEGDJI",
                "type": "BODY_LANG",
                "delayTime": 0.6000000238418579,
                "aliasList": [
                    "5021"
                ],
                "actionId": 135,
                "JLABKFNJCNP": true,
                "PMJAMGLAJGK": true,
                "LIMPPBIAKGL": false,
                "FNDLJGEAMGI": ""
            }
        ]
    ],
    "groupId": [
        {
            "grpId": 891771908,
            "nextGrpId": 891771909
        },
        {
            "index": 1,
            "grpId": 891771909,
            "nextGrpId": 891771910
        },
        {
            "index": 2,
            "grpId": 891771910,
            "nextGrpId": 891771911
        },
        {
            "index": 3,
            "grpId": 891771911,
            "nextGrpId": 891771912
        },
        {
            "index": 4,
            "grpId": 891771912,
            "nextGrpId": 891771913
        },
        {
            "index": 5,
            "grpId": 891771913,
            "nextGrpId": 891771914
        },
        {
            "index": 6,
            "grpId": 891771914,
            "nextGrpId": 891771915
        },
        {
            "index": 7,
            "grpId": 891771915,
            "nextGrpId": 891771916
        },
        {
            "index": 8,
            "grpId": 891771916,
            "nextGrpId": 1875125420
        },
        {
            "index": 9,
            "grpId": 1875125420,
            "nextGrpId": 1875125421
        },
        {
            "index": 10,
            "grpId": 1875125421,
            "nextGrpId": 1875125422
        },
        {
            "index": 11,
            "grpId": 1875125422,
            "nextGrpId": 1875125423
        },
        {
            "index": 12,
            "grpId": 1875125423,
            "nextGrpId": 1875125424
        }
    ],
    "freeStyleDic": {
        "5062": [
            4040
        ],
        "5063": [
            1050,
            4030
        ],
        "5021": [
            1171,
            1190,
            4030
        ]
    },
    "NKMHEOFLONH": {
        "5062": [
            "SitChat01AS",
            "SitPutHand01AS",
            "SitStrikeChest01AS"
        ],
        "5063": [
            "SitChat01AS",
            "SitPutHand01AS",
            "SitStrikeChest01AS"
        ],
        "5021": [
            "SitChat01AS",
            "SitPutHand01AS",
            "SitStrikeChest01AS"
        ]
    }
}