{
    "luaDataPath": "",
    "entityBan": "",
    "disableNpcLod": true,
    "startFade": {
        "startFadeOutDuration": 0.0
    },
    "endFade": {
        "startFadeOutDuration": 0.0
    },
    "actors": [
        {
            "alias": "Avatar",
            "visible": true,
            "bornPointName": "Q1908101player",
            "relativePosNpcAlias": "",
            "bindMovingTargetKey": ""
        },
        {
            "configID": 1027,
            "alias": "1027",
            "visible": true,
            "bornPointName": "",
            "relativePosNpcAlias": "",
            "bindMovingTargetKey": ""
        }
    ],
    "group": [
        [
            {
                "$type": "MOOOKOKLLEI",
                "type": "CAMERA_MOVE",
                "duration": 1.0,
                "IPHEFBOANAL": "RELATIVE_TO_TARGET_ENTITY",
                "DGGAJKMNNKE": "RELATIVE_TO_TARGET_ENTITY",
                "AFODHELHCGB": 30.0,
                "MGMFMGNANHH": 6,
                "NDFGFJFGHKL": "EaseInOutCubic",
                "IBCBGNHCICN": {},
                "HCPFCAHMGMO": false,
                "OMCCMPHDLOO": "1027",
                "OCFGGGHIKOO": "",
                "LJFHGGJDPHH": "",
                "LPKDFKLNEHL": ""
            },
            {
                "$type": "MoleMole.Config.ConfigVisibleInterAction",
                "type": "VISIBLE",
                "aliasList": [
                    "Avatar"
                ],
                "extraParam": ""
            },
            {
                "$type": "DLPFECMKEKH",
                "type": "DIALOG",
                "aliasList": [
                    "1027"
                ],
                "NMKEDPFEKBH": 1908101701,
                "JLCHMAJCAPA": 0.5
            },
            {
                "$type": "MoleMole.Config.ConfigEmotionTemplateAction",
                "type": "EMOTION_TEMPLATE",
                "aliasList": [
                    "1027"
                ],
                "emoTemplateID": 10100
            },
            {
                "$type": "EAMBKPBOPIC",
                "type": "LOOK_AT",
                "aliasList": [
                    "1027"
                ],
                "BCHGCKLKNEH": 0.5,
                "OMCCMPHDLOO": "",
                "KPCALFDIHMC": "",
                "DBLNLMOPEBP": ""
            },
            {
                "$type": "OPCCDGPJCJI",
                "type": "EMO_SYNC",
                "aliasList": [
                    "1027"
                ],
                "IONNJBCBACJ": "Cs_Emo_Avatar_Simple_Common_Set/Cs_Emo_Avatar_Talk/Cs_Emo_Coop_Common/Cs_Emo_Coop_Noel_02/Cs_Emo_1908101701",
                "HLEJKBCMNNJ": "",
                "JGHLJJLNGPP": "",
                "MANNKIIBOFM": "",
                "COMNAAFDEDH": "",
                "CPGCCLNOCDK": "",
                "IGEFGCJKCPM": [
                    10859548154023022028,
                    9095388150226813733,
                    13682357821118895704,
                    11878294340312412639
                ]
            }
        ],
        [
            {
                "$type": "DLPFECMKEKH",
                "type": "DIALOG",
                "aliasList": [
                    "1027"
                ],
                "NMKEDPFEKBH": 1908101702,
                "JLCHMAJCAPA": 0.5
            },
            {
                "$type": "MoleMole.Config.ConfigEmotionTemplateAction",
                "type": "EMOTION_TEMPLATE",
                "aliasList": [
                    "1027"
                ],
                "emoTemplateID": 10601
            },
            {
                "$type": "OPCCDGPJCJI",
                "type": "EMO_SYNC",
                "aliasList": [
                    "1027"
                ],
                "IONNJBCBACJ": "Cs_Emo_Avatar_Simple_Common_Set/Cs_Emo_Avatar_Talk/Cs_Emo_Coop_Common/Cs_Emo_Coop_Noel_02/Cs_Emo_1908101702",
                "HLEJKBCMNNJ": "",
                "JGHLJJLNGPP": "",
                "MANNKIIBOFM": "",
                "COMNAAFDEDH": "",
                "CPGCCLNOCDK": "",
                "IGEFGCJKCPM": [
                    5626360319504653444,
                    578536102344018116,
                    4415454579085145920,
                    11721848131612970933
                ]
            }
        ],
        [
            {
                "$type": "DLPFECMKEKH",
                "type": "DIALOG",
                "aliasList": [
                    "1027"
                ],
                "NMKEDPFEKBH": 1908101703,
                "JLCHMAJCAPA": 0.5
            },
            {
                "$type": "MoleMole.Config.ConfigEmotionTemplateAction",
                "type": "EMOTION_TEMPLATE",
                "aliasList": [
                    "1027"
                ],
                "emoTemplateID": 10401
            },
            {
                "$type": "OPCCDGPJCJI",
                "type": "EMO_SYNC",
                "aliasList": [
                    "1027"
                ],
                "IONNJBCBACJ": "Cs_Emo_Avatar_Simple_Common_Set/Cs_Emo_Avatar_Talk/Cs_Emo_Coop_Common/Cs_Emo_Coop_Noel_02/Cs_Emo_1908101703",
                "HLEJKBCMNNJ": "",
                "JGHLJJLNGPP": "",
                "MANNKIIBOFM": "",
                "COMNAAFDEDH": "",
                "CPGCCLNOCDK": "",
                "IGEFGCJKCPM": [
                    16569943446275166471,
                    69912893999231265,
                    1908779868737347398,
                    11338827212373226532
                ]
            }
        ],
        [
            {
                "$type": "ECLBLHOENAG",
                "type": "DIALOG_SELECT",
                "delayTime": 0.4000000059604645,
                "aliasList": [
                    "Avatar"
                ],
                "NDMMOPDPKNF": [
                    1908101705,
                    1908101706
                ],
                "FPDBIEGHMCD": [
                    2748798422,
                    2748798423
                ],
                "PKBOIGBGDEG": true
            },
            {
                "$type": "DLPFECMKEKH",
                "type": "DIALOG",
                "aliasList": [
                    "1027"
                ],
                "NMKEDPFEKBH": 1908101704,
                "JLCHMAJCAPA": 0.5
            },
            {
                "$type": "MoleMole.Config.ConfigEmotionTemplateAction",
                "type": "EMOTION_TEMPLATE",
                "aliasList": [
                    "1027"
                ],
                "emoTemplateID": 10100
            },
            {
                "$type": "OPCCDGPJCJI",
                "type": "EMO_SYNC",
                "aliasList": [
                    "1027"
                ],
                "IONNJBCBACJ": "Cs_Emo_Avatar_Simple_Common_Set/Cs_Emo_Avatar_Talk/Cs_Emo_Coop_Common/Cs_Emo_Coop_Noel_02/Cs_Emo_1908101704",
                "HLEJKBCMNNJ": "",
                "JGHLJJLNGPP": "",
                "MANNKIIBOFM": "",
                "COMNAAFDEDH": "",
                "CPGCCLNOCDK": "",
                "IGEFGCJKCPM": [
                    11622180361548801411,
                    10201412545425085398,
                    7915094109139553159,
                    16145464062487553241
                ]
            }
        ],
        [
            {
                "$type": "DLPFECMKEKH",
                "type": "DIALOG",
                "aliasList": [
                    "1027"
                ],
                "NMKEDPFEKBH": 1908101707,
                "JLCHMAJCAPA": 0.5
            },
            {
                "$type": "MoleMole.Config.ConfigEmotionTemplateAction",
                "type": "EMOTION_TEMPLATE",
                "aliasList": [
                    "1027"
                ],
                "emoTemplateID": 10701
            },
            {
                "$type": "OPCCDGPJCJI",
                "type": "EMO_SYNC",
                "aliasList": [
                    "1027"
                ],
                "IONNJBCBACJ": "Cs_Emo_Avatar_Simple_Common_Set/Cs_Emo_Avatar_Talk/Cs_Emo_Coop_Common/Cs_Emo_Coop_Noel_02/Cs_Emo_1908101707",
                "HLEJKBCMNNJ": "",
                "JGHLJJLNGPP": "",
                "MANNKIIBOFM": "",
                "COMNAAFDEDH": "",
                "CPGCCLNOCDK": "",
                "IGEFGCJKCPM": [
                    16683533383324703023,
                    13633154384595068801,
                    4470901729558216381,
                    15513918758044241494
                ]
            }
        ],
        [
            {
                "$type": "DLPFECMKEKH",
                "type": "DIALOG",
                "aliasList": [
                    "1027"
                ],
                "NMKEDPFEKBH": 1908101708,
                "JLCHMAJCAPA": 0.5
            },
            {
                "$type": "MoleMole.Config.ConfigEmotionTemplateAction",
                "type": "EMOTION_TEMPLATE",
                "aliasList": [
                    "1027"
                ],
                "emoTemplateID": 10701
            },
            {
                "$type": "OPCCDGPJCJI",
                "type": "EMO_SYNC",
                "aliasList": [
                    "1027"
                ],
                "IONNJBCBACJ": "Cs_Emo_Avatar_Simple_Common_Set/Cs_Emo_Avatar_Talk/Cs_Emo_Coop_Common/Cs_Emo_Coop_Noel_02/Cs_Emo_1908101708",
                "HLEJKBCMNNJ": "",
                "JGHLJJLNGPP": "",
                "MANNKIIBOFM": "",
                "COMNAAFDEDH": "",
                "CPGCCLNOCDK": "",
                "IGEFGCJKCPM": [
                    9362220172083589078,
                    4020925746958693543,
                    418640837809636088,
                    3150534757946546183
                ]
            }
        ],
        [
            {
                "$type": "DLPFECMKEKH",
                "type": "DIALOG",
                "aliasList": [
                    "1027"
                ],
                "NMKEDPFEKBH": 1908101709,
                "JLCHMAJCAPA": 0.5
            },
            {
                "$type": "MoleMole.Config.ConfigEmotionTemplateAction",
                "type": "EMOTION_TEMPLATE",
                "aliasList": [
                    "1027"
                ],
                "emoTemplateID": 10100
            },
            {
                "$type": "OPCCDGPJCJI",
                "type": "EMO_SYNC",
                "aliasList": [
                    "1027"
                ],
                "IONNJBCBACJ": "Cs_Emo_Avatar_Simple_Common_Set/Cs_Emo_Avatar_Talk/Cs_Emo_Coop_Common/Cs_Emo_Coop_Noel_02/Cs_Emo_1908101709",
                "HLEJKBCMNNJ": "",
                "JGHLJJLNGPP": "",
                "MANNKIIBOFM": "",
                "COMNAAFDEDH": "",
                "CPGCCLNOCDK": "",
                "IGEFGCJKCPM": [
                    5487672655520601501,
                    8411623033162546388,
                    9769207324162550555,
                    14960973665450236988
                ]
            }
        ],
        [
            {
                "$type": "MoleMole.Config.ConfigSimpleBlackScreenAction",
                "type": "SIMPLE_BLACK_SCREEN",
                "durationToBlack": 0.5,
                "durationKeepBlack": 1.0,
                "durationFromBlack": 0.5,
                "textMapID": ""
            },
            {
                "$type": "DLPFECMKEKH",
                "type": "DIALOG_CLEAR"
            },
            {
                "$type": "MoleMole.Config.ConfigTimeProtectAction",
                "type": "TIME_PROTECT",
                "duration": 0.699999988079071
            },
            {
                "$type": "MoleMole.Config.ConfigVisibleInterAction",
                "type": "VISIBLE",
                "delayTime": 0.6000000238418579,
                "aliasList": [
                    "Avatar"
                ],
                "isVisible": true,
                "extraParam": ""
            },
            {
                "$type": "MoleMole.Config.ConfigVisibleInterAction",
                "type": "VISIBLE",
                "delayTime": 0.6000000238418579,
                "aliasList": [
                    "1027"
                ],
                "extraParam": ""
            }
        ]
    ],
    "groupId": [
        {
            "grpId": 2748798418,
            "nextGrpId": 2748798419
        },
        {
            "index": 1,
            "grpId": 2748798419,
            "nextGrpId": 2748798420
        },
        {
            "index": 2,
            "grpId": 2748798420,
            "nextGrpId": 2748798421
        },
        {
            "index": 3,
            "grpId": 2748798421,
            "nextGrpId": 2748798422
        },
        {
            "index": 4,
            "grpId": 2748798422,
            "nextGrpId": 2748798424
        },
        {
            "index": 5,
            "grpId": 2748798423,
            "nextGrpId": 2748798424
        },
        {
            "index": 6,
            "grpId": 2748798424,
            "nextGrpId": 2748798425
        },
        {
            "index": 7,
            "grpId": 2748798425,
            "nextGrpId": 2748798426
        }
    ],
    "freeStyleDic": {
        "1027": [
            10100,
            10601,
            10401,
            10701
        ]
    }
}