{
    "luaDataPath": "",
    "startBlackKeepTime": 0.5,
    "entityBan": "",
    "disableNpcLod": true,
    "isAutoBanNpc": true,
    "isBanWidgetPet": true,
    "protectNpcMobileLod": true,
    "startFade": {
        "startFadeInDuration": 0.5,
        "startFadeOutDuration": 0.5
    },
    "endFade": {
        "startFadeOutDuration": 0.0
    },
    "actors": [
        {
            "alias": "Avatar",
            "visible": true,
            "bornPointName": "",
            "relativePosType": "AVATAR_NEW",
            "relativePosNpcAlias": "",
            "bindMovingTargetKey": ""
        },
        {
            "configID": 20606,
            "alias": "20606",
            "visible": true,
            "bornPointName": "",
            "relativePosType": "AVATAR_NEW",
            "relativePosNpcAlias": "",
            "bindMovingTargetKey": ""
        },
        {
            "configID": 20607,
            "alias": "20607",
            "visible": true,
            "bornPointName": "",
            "relativePosType": "AVATAR_NEW",
            "relativePosNpcAlias": "",
            "bindMovingTargetKey": ""
        },
        {
            "configID": 20605,
            "alias": "20605",
            "visible": true,
            "bornPointName": "",
            "relativePosType": "AVATAR_NEW",
            "relativePosNpcAlias": "",
            "bindMovingTargetKey": ""
        }
    ],
    "group": [
        [
            {
                "$type": "MoleMole.Config.ConfigTimeProtectAction",
                "type": "TIME_PROTECT",
                "duration": 0.10000000149011612
            }
        ],
        [
            {
                "$type": "DLPFECMKEKH",
                "type": "DIALOG",
                "aliasList": [
                    "20606"
                ],
                "NMKEDPFEKBH": 730600601,
                "JLCHMAJCAPA": 0.5
            }
        ],
        [
            {
                "$type": "DLPFECMKEKH",
                "type": "DIALOG",
                "aliasList": [
                    "20607"
                ],
                "NMKEDPFEKBH": 730600602,
                "JLCHMAJCAPA": 0.5
            }
        ],
        [
            {
                "$type": "DLPFECMKEKH",
                "type": "DIALOG",
                "aliasList": [
                    "20607"
                ],
                "NMKEDPFEKBH": 730600603,
                "JLCHMAJCAPA": 0.5
            }
        ],
        [
            {
                "$type": "DLPFECMKEKH",
                "type": "DIALOG",
                "aliasList": [
                    "20605"
                ],
                "NMKEDPFEKBH": 730600604,
                "JLCHMAJCAPA": 0.5
            }
        ],
        [
            {
                "$type": "MoleMole.Config.ConfigTimeProtectAction",
                "type": "TIME_PROTECT",
                "duration": 0.10000000149011612
            },
            {
                "$type": "MoleMole.Config.ConfigSimpleBlackScreenAction",
                "type": "SIMPLE_BLACK_SCREEN",
                "durationToBlack": 0.5,
                "durationKeepBlack": 1.0,
                "durationFromBlack": 0.5,
                "textMapID": ""
            },
            {
                "$type": "MoleMole.Config.ConfigTimeProtectAction",
                "type": "TIME_PROTECT",
                "duration": 0.699999988079071
            }
        ]
    ],
    "groupId": [
        {
            "grpId": 3456141661,
            "nextGrpId": 3456141662
        },
        {
            "index": 1,
            "grpId": 3456141662,
            "nextGrpId": 3456141663
        },
        {
            "index": 2,
            "grpId": 3456141663,
            "nextGrpId": 3456141664
        },
        {
            "index": 3,
            "grpId": 3456141664,
            "nextGrpId": 3456141665
        },
        {
            "index": 4,
            "grpId": 3456141665,
            "nextGrpId": 3456141666
        },
        {
            "index": 5,
            "grpId": 3456141666,
            "nextGrpId": 3456141667
        }
    ],
    "freeStyleDic": {
        "20606": [],
        "20607": [],
        "20605": []
    }
}