{
    "radius": 21.299999237060547,
    "height": 5.0,
    "furnitureUnits": [
        {
            "furnitureID": 372329,
            "position": {
                "x": 9.829999923706055,
                "z": 11.520000457763672
            },
            "rotation": {
                "y": 90.0
            }
        },
        {
            "furnitureID": 373130,
            "position": {
                "x": 12.300000190734863,
                "z": -6.050000190734863
            }
        },
        {
            "furnitureID": 373131,
            "position": {
                "x": 6.775000095367432,
                "z": 9.890000343322754
            },
            "rotation": {
                "y": 271.94049072265625
            }
        },
        {
            "furnitureID": 371217,
            "position": {
                "x": 14.059539794921875,
                "z": 3.7701241970062256
            },
            "rotation": {
                "y": 268.3478088378906
            }
        },
        {
            "furnitureID": 371217,
            "position": {
                "x": 13.979999542236328,
                "z": -5.940000057220459
            },
            "rotation": {
                "y": 269.8669738769531
            }
        },
        {
            "furnitureID": 371217,
            "position": {
                "x": 14.1899995803833,
                "z": -4.340000152587891
            },
            "rotation": {
                "y": 271.40478515625
            }
        },
        {
            "furnitureID": 371217,
            "position": {
                "x": 14.027000427246094,
                "z": 6.545000076293945
            },
            "rotation": {
                "y": 270.00018310546875
            }
        },
        {
            "furnitureID": 371217,
            "position": {
                "x": 12.63700008392334,
                "z": 12.855999946594238
            },
            "rotation": {
                "y": 209.89752197265625
            }
        },
        {
            "furnitureID": 373322,
            "position": {
                "x": -6.889999866485596,
                "z": -8.979999542236328
            },
            "rotation": {
                "y": 270.00018310546875
            }
        },
        {
            "furnitureID": 371216,
            "position": {
                "x": 13.977001190185547
            },
            "rotation": {
                "y": 90.0
            }
        },
        {
            "furnitureID": 370610,
            "position": {
                "x": -6.9329986572265625
            },
            "rotation": {
                "y": 90.0
            }
        },
        {
            "furnitureID": 370609,
            "position": {
                "x": 1.0199999809265137,
                "z": 12.069999694824219
            },
            "rotation": {
                "y": 90.0
            }
        },
        {
            "furnitureID": 374109,
            "position": {
                "x": 1.3200000524520874,
                "z": -15.800000190734863
            }
        },
        {
            "furnitureID": 374109,
            "position": {
                "x": -5.829999923706055,
                "z": -11.609999656677246
            },
            "rotation": {
                "y": 2.3340539932250977
            }
        },
        {
            "furnitureID": 374109,
            "position": {
                "x": 9.65999984741211,
                "z": -15.260000228881836
            },
            "rotation": {
                "y": 354.7165222167969
            }
        },
        {
            "furnitureID": 374109,
            "position": {
                "x": 8.819999694824219,
                "z": -12.079999923706055
            },
            "rotation": {
                "y": 358.0791015625
            }
        },
        {
            "furnitureID": 374109,
            "position": {
                "x": -7.159999847412109,
                "z": -15.119999885559082
            },
            "rotation": {
                "y": 7.924563884735107
            }
        },
        {
            "furnitureID": 374109,
            "position": {
                "x": 9.779999732971191,
                "z": -8.6899995803833
            },
            "rotation": {
                "y": 350.3372497558594
            }
        },
        {
            "furnitureID": 371217,
            "position": {
                "x": 13.87399959564209,
                "z": 11.553000450134277
            },
            "rotation": {
                "y": 245.08172607421875
            }
        },
        {
            "furnitureID": 371217,
            "position": {
                "x": 13.885000228881836,
                "z": 5.333725929260254
            },
            "rotation": {
                "x": 1.1182485195604386e-06,
                "y": 269.36724853515625,
                "z": -1.0469860711737056e-07
            }
        },
        {
            "furnitureID": 371217,
            "position": {
                "x": 14.020000457763672,
                "z": 9.95199966430664
            },
            "rotation": {
                "y": 269.7843933105469
            }
        },
        {
            "furnitureID": 371217,
            "position": {
                "x": 14.178999900817871,
                "z": 8.590999603271484
            },
            "rotation": {
                "y": 270.89666748046875
            }
        },
        {
            "furnitureID": 371217,
            "position": {
                "x": 14.050000190734863,
                "z": -3.5899999141693115
            },
            "rotation": {
                "y": 271.40478515625
            }
        }
    ],
    "npcSpawnPoints": [
        {
            "position": {
                "x": 16.91538429260254,
                "z": -4.201508522033691
            }
        },
        {
            "position": {
                "x": 4.641300201416016,
                "z": -9.547060012817383
            }
        },
        {
            "position": {
                "x": 4.386410713195801,
                "z": -2.0076589584350586
            },
            "rotation": {
                "y": 89.99707794189453
            }
        },
        {
            "position": {
                "x": 4.3721137046813965,
                "z": 6.869515419006348
            },
            "rotation": {
                "y": 180.35421752929688
            }
        },
        {
            "position": {
                "x": 12.868439674377441,
                "z": 3.8774802684783936
            },
            "rotation": {
                "y": 262.7661437988281
            }
        }
    ]
}