{
    "HNGDGDECKOD": {
        "1": {
            "$type": "EGNLKABGENB",
            "gadgetId": 70120004,
            "pos": {
                "x": -29.073139190673828,
                "y": 246.15020751953125,
                "z": 24.910499572753906
            },
            "unlocked": true,
            "alias": "",
            "size": {
                "x": 5.0,
                "y": 5.0,
                "z": 5.0
            }
        }
    },
    "entities": {
        "1": {
            "$type": "NBICOEONMPK",
            "gadgetId": 70010006,
            "pos": {
                "x": -39.4192008972168,
                "y": 246.6300048828125,
                "z": -96.25869750976562
            },
            "unlocked": true,
            "alias": "",
            "NMKLJDCLHDM": 500.0,
            "OMDAIBKECIP": "ReturnRegion",
            "shape": {
                "$type": "FBOPNFAKLDG",
                "JAFBDKCDHCO": true,
                "height": 50.0,
                "KPEJJDMAGEN": "Center",
                "width": 500.0,
                "length": 150.0
            },
            "stringParam": "",
            "GBJFIEEMDFH": {}
        },
        "2": {
            "$type": "NBICOEONMPK",
            "gadgetId": 70010006,
            "pos": {
                "x": -151.76400756835938,
                "y": 246.6300048828125,
                "z": -30.742420196533203
            },
            "unlocked": true,
            "alias": "",
            "NMKLJDCLHDM": 500.0,
            "OMDAIBKECIP": "ReturnRegion",
            "shape": {
                "$type": "FBOPNFAKLDG",
                "JAFBDKCDHCO": true,
                "height": 50.0,
                "KPEJJDMAGEN": "Center",
                "width": 100.0,
                "length": 500.0
            },
            "stringParam": "",
            "GBJFIEEMDFH": {}
        },
        "3": {
            "$type": "NBICOEONMPK",
            "gadgetId": 70010006,
            "pos": {
                "x": -32.51808166503906,
                "y": 246.6300048828125,
                "z": 202.89100646972656
            },
            "unlocked": true,
            "alias": "",
            "NMKLJDCLHDM": 500.0,
            "OMDAIBKECIP": "ReturnRegion",
            "shape": {
                "$type": "FBOPNFAKLDG",
                "JAFBDKCDHCO": true,
                "height": 50.0,
                "KPEJJDMAGEN": "Center",
                "width": 500.0,
                "length": 150.0
            },
            "stringParam": "",
            "GBJFIEEMDFH": {}
        },
        "4": {
            "$type": "NBICOEONMPK",
            "gadgetId": 70010006,
            "pos": {
                "x": 202.66290283203125,
                "y": 246.6300048828125,
                "z": 63.160770416259766
            },
            "unlocked": true,
            "alias": "",
            "NMKLJDCLHDM": 500.0,
            "OMDAIBKECIP": "ReturnRegion",
            "shape": {
                "$type": "FBOPNFAKLDG",
                "JAFBDKCDHCO": true,
                "height": 50.0,
                "KPEJJDMAGEN": "Center",
                "width": 150.0,
                "length": 500.0
            },
            "stringParam": "",
            "GBJFIEEMDFH": {}
        }
    },
    "PJOEJDKAIKD": {}
}