{
    "HNGDGDECKOD": {
        "1": {
            "$type": "EGNLKABGENB",
            "gadgetId": 70120004,
            "pos": {
                "x": -0.11257939785718918,
                "y": 514.50927734375,
                "z": -56.65597152709961
            },
            "unlocked": true,
            "alias": "",
            "size": {
                "x": 2.0,
                "y": 2.0,
                "z": 2.0
            }
        }
    },
    "entities": {
        "1": {
            "$type": "NBICOEONMPK",
            "gadgetId": 70010006,
            "pos": {
                "x": -3.1183431148529053,
                "y": 485.97198486328125,
                "z": 79.28428649902344
            },
            "tranPos": {
                "x": -3.117553234100342,
                "y": 0.0017449641600251198,
                "z": -12.171515464782715
            },
            "unlocked": true,
            "alias": "",
            "NMKLJDCLHDM": 200.0,
            "OMDAIBKECIP": "DeadRegion",
            "shape": {
                "$type": "FBOPNFAKLDG",
                "JAFBDKCDHCO": true,
                "height": 30.0,
                "KPEJJDMAGEN": "Center",
                "width": 200.0,
                "length": 123.0
            },
            "stringParam": "",
            "GBJFIEEMDFH": {}
        },
        "2": {
            "$type": "NBICOEONMPK",
            "gadgetId": 70010006,
            "pos": {
                "x": 149.2928009033203,
                "y": 529.2947998046875,
                "z": 7.313697814941406
            },
            "unlocked": true,
            "alias": "",
            "NMKLJDCLHDM": 200.0,
            "OMDAIBKECIP": "DeadRegion",
            "shape": {
                "$type": "FBOPNFAKLDG",
                "JAFBDKCDHCO": true,
                "height": 40.0,
                "KPEJJDMAGEN": "Center",
                "width": 200.0,
                "length": 123.0
            },
            "stringParam": "",
            "GBJFIEEMDFH": {}
        },
        "3": {
            "$type": "NBICOEONMPK",
            "gadgetId": 70010006,
            "pos": {
                "x": -135.2073974609375,
                "y": 523.00830078125,
                "z": -82.28166961669922
            },
            "unlocked": true,
            "alias": "",
            "NMKLJDCLHDM": 200.0,
            "OMDAIBKECIP": "DeadRegion",
            "shape": {
                "$type": "FBOPNFAKLDG",
                "JAFBDKCDHCO": true,
                "height": 30.0,
                "KPEJJDMAGEN": "Center",
                "width": 200.0,
                "length": 123.0
            },
            "stringParam": "",
            "GBJFIEEMDFH": {}
        },
        "4": {
            "$type": "NBICOEONMPK",
            "gadgetId": 70010006,
            "pos": {
                "x": -3.1183431148529053,
                "y": 494.7627868652344,
                "z": -22.95178985595703
            },
            "unlocked": true,
            "alias": "",
            "NMKLJDCLHDM": 200.0,
            "OMDAIBKECIP": "DeadRegion",
            "shape": {
                "$type": "FBOPNFAKLDG",
                "JAFBDKCDHCO": true,
                "height": 30.0,
                "KPEJJDMAGEN": "Center",
                "width": 200.0,
                "length": 123.0
            },
            "stringParam": "",
            "GBJFIEEMDFH": {}
        }
    },
    "PJOEJDKAIKD": {}
}