{
    "HNGDGDECKOD": {
        "1": {
            "$type": "MFLPDFLCJID",
            "gadgetId": 70360001,
            "pos": {
                "x": 210.5054931640625,
                "y": 188.45570373535156,
                "z": 365.0790100097656
            },
            "rot": {
                "y": 270.0
            },
            "alias": "",
            "size": {
                "x": 5.0,
                "y": 20.0,
                "z": 10.0
            }
        },
        "2": {
            "$type": "MFLPDFLCJID",
            "gadgetId": 70360001,
            "pos": {
                "x": 274.7179870605469,
                "y": 160.41619873046875,
                "z": 292.0990905761719
            },
            "rot": {
                "y": 90.0
            },
            "alias": "",
            "size": {
                "x": 8.0,
                "y": 25.0,
                "z": 20.0
            }
        },
        "3": {
            "$type": "MFLPDFLCJID",
            "gadgetId": 70360001,
            "pos": {
                "x": 324.94000244140625,
                "y": 158.0601043701172,
                "z": 330.12701416015625
            },
            "rot": {
                "y": 180.0
            },
            "alias": "",
            "size": {
                "x": 15.0,
                "y": 25.0,
                "z": 8.0
            }
        },
        "4": {
            "$type": "MFLPDFLCJID",
            "gadgetId": 70360001,
            "pos": {
                "x": 278.5404968261719,
                "y": 160.1488037109375,
                "z": 442.0000915527344
            },
            "rot": {
                "y": 90.0
            },
            "alias": "",
            "size": {
                "x": 10.0,
                "y": 25.0,
                "z": 15.0
            }
        },
        "5": {
            "$type": "MFLPDFLCJID",
            "gadgetId": 70360001,
            "pos": {
                "x": 324.360107421875,
                "y": 157.87440490722656,
                "z": 402.6235046386719
            },
            "alias": "",
            "size": {
                "x": 15.0,
                "y": 25.0,
                "z": 15.0
            }
        }
    },
    "entities": {
        "1": {
            "$type": "NBICOEONMPK",
            "gadgetId": 70010006,
            "pos": {
                "x": 136.2165985107422,
                "y": 184.6165008544922,
                "z": 364.9674987792969
            },
            "unlocked": true,
            "alias": "",
            "OMDAIBKECIP": "DeadRegion",
            "shape": {
                "$type": "FBOPNFAKLDG",
                "JAFBDKCDHCO": true,
                "height": 10.0,
                "KPEJJDMAGEN": "Center",
                "width": 110.0,
                "length": 100.0
            },
            "stringParam": "",
            "GBJFIEEMDFH": {}
        },
        "10": {
            "$type": "NBICOEONMPK",
            "gadgetId": 70010006,
            "pos": {
                "x": 325.4537048339844,
                "y": 155.46800231933594,
                "z": 459.8977966308594
            },
            "unlocked": true,
            "alias": "",
            "OMDAIBKECIP": "NoReviveRegion",
            "shape": {
                "$type": "FBOPNFAKLDG",
                "JAFBDKCDHCO": true,
                "height": 10.0,
                "KPEJJDMAGEN": "Center",
                "width": 25.0,
                "length": 20.0
            },
            "stringParam": "",
            "GBJFIEEMDFH": {}
        },
        "11": {
            "$type": "NBICOEONMPK",
            "gadgetId": 70010006,
            "pos": {
                "x": 308.2439880371094,
                "y": 147.552001953125,
                "z": 294.75250244140625
            },
            "unlocked": true,
            "alias": "",
            "OMDAIBKECIP": "DeadRegion",
            "shape": {
                "$type": "FBOPNFAKLDG",
                "JAFBDKCDHCO": true,
                "height": 20.0,
                "KPEJJDMAGEN": "Center",
                "width": 45.0,
                "length": 40.0
            },
            "stringParam": "",
            "GBJFIEEMDFH": {}
        },
        "2": {
            "$type": "NBICOEONMPK",
            "gadgetId": 70010006,
            "pos": {
                "x": 202.160400390625,
                "y": 181.37579345703125,
                "z": 364.9674987792969
            },
            "unlocked": true,
            "alias": "",
            "OMDAIBKECIP": "DeadRegion",
            "shape": {
                "$type": "FBOPNFAKLDG",
                "JAFBDKCDHCO": true,
                "height": 10.0,
                "KPEJJDMAGEN": "Center",
                "width": 22.0,
                "length": 30.0
            },
            "stringParam": "",
            "GBJFIEEMDFH": {}
        },
        "3": {
            "$type": "NBICOEONMPK",
            "gadgetId": 70010006,
            "pos": {
                "x": 293.8663024902344,
                "y": 147.77130126953125,
                "z": 441.69891357421875
            },
            "unlocked": true,
            "alias": "",
            "OMDAIBKECIP": "DeadRegion",
            "shape": {
                "$type": "FBOPNFAKLDG",
                "JAFBDKCDHCO": true,
                "height": 10.0,
                "KPEJJDMAGEN": "Center",
                "width": 40.0,
                "length": 25.0
            },
            "stringParam": "",
            "GBJFIEEMDFH": {}
        },
        "4": {
            "$type": "NBICOEONMPK",
            "gadgetId": 70010006,
            "pos": {
                "x": 325.4537048339844,
                "y": 147.77130126953125,
                "z": 432.6028137207031
            },
            "unlocked": true,
            "alias": "",
            "OMDAIBKECIP": "DeadRegion",
            "shape": {
                "$type": "FBOPNFAKLDG",
                "JAFBDKCDHCO": true,
                "height": 10.0,
                "KPEJJDMAGEN": "Center",
                "width": 25.0,
                "length": 80.0
            },
            "stringParam": "",
            "GBJFIEEMDFH": {}
        },
        "5": {
            "$type": "NBICOEONMPK",
            "gadgetId": 70010006,
            "pos": {
                "x": 318.4115905761719,
                "y": 142.1822052001953,
                "z": 294.75250244140625
            },
            "unlocked": true,
            "alias": "",
            "OMDAIBKECIP": "DeadRegion",
            "shape": {
                "$type": "FBOPNFAKLDG",
                "JAFBDKCDHCO": true,
                "height": 10.0,
                "KPEJJDMAGEN": "Center",
                "width": 40.0,
                "length": 40.0
            },
            "stringParam": "",
            "GBJFIEEMDFH": {}
        },
        "6": {
            "$type": "NBICOEONMPK",
            "gadgetId": 70010006,
            "pos": {
                "x": 136.2165985107422,
                "y": 184.6165008544922,
                "z": 364.9674987792969
            },
            "unlocked": true,
            "alias": "",
            "OMDAIBKECIP": "NoReviveRegion",
            "shape": {
                "$type": "FBOPNFAKLDG",
                "JAFBDKCDHCO": true,
                "height": 10.0,
                "KPEJJDMAGEN": "Center",
                "width": 110.0,
                "length": 100.0
            },
            "stringParam": "",
            "GBJFIEEMDFH": {}
        },
        "7": {
            "$type": "NBICOEONMPK",
            "gadgetId": 70010006,
            "pos": {
                "x": 202.160400390625,
                "y": 181.37579345703125,
                "z": 364.9674987792969
            },
            "unlocked": true,
            "alias": "",
            "OMDAIBKECIP": "NoReviveRegion",
            "shape": {
                "$type": "FBOPNFAKLDG",
                "JAFBDKCDHCO": true,
                "height": 10.0,
                "KPEJJDMAGEN": "Center",
                "width": 22.0,
                "length": 30.0
            },
            "stringParam": "",
            "GBJFIEEMDFH": {}
        },
        "8": {
            "$type": "NBICOEONMPK",
            "gadgetId": 70010006,
            "pos": {
                "x": 293.8663024902344,
                "y": 154.46859741210938,
                "z": 441.69891357421875
            },
            "unlocked": true,
            "alias": "",
            "OMDAIBKECIP": "NoReviveRegion",
            "shape": {
                "$type": "FBOPNFAKLDG",
                "JAFBDKCDHCO": true,
                "height": 10.0,
                "KPEJJDMAGEN": "Center",
                "width": 50.0,
                "length": 25.0
            },
            "stringParam": "",
            "GBJFIEEMDFH": {}
        },
        "9": {
            "$type": "NBICOEONMPK",
            "gadgetId": 70010006,
            "pos": {
                "x": 325.4537048339844,
                "y": 148.0709991455078,
                "z": 432.6028137207031
            },
            "unlocked": true,
            "alias": "",
            "OMDAIBKECIP": "NoReviveRegion",
            "shape": {
                "$type": "FBOPNFAKLDG",
                "JAFBDKCDHCO": true,
                "height": 15.0,
                "KPEJJDMAGEN": "Center",
                "width": 25.0,
                "length": 80.0
            },
            "stringParam": "",
            "GBJFIEEMDFH": {}
        }
    },
    "PJOEJDKAIKD": {}
}