{
    "HNGDGDECKOD": {
        "1": {
            "$type": "EGNLKABGENB",
            "gadgetId": 70120004,
            "pos": {
                "x": 69.24037170410156,
                "y": 77.01000213623047,
                "z": -80.91654205322266
            },
            "alias": "",
            "size": {
                "x": 3.0,
                "y": 3.0,
                "z": 3.0
            }
        },
        "2": {
            "$type": "PHCCBKMJHDC",
            "gadgetId": 70010006,
            "pos": {
                "x": 37.876861572265625,
                "y": 80.41127014160156,
                "z": -81.11029052734375
            },
            "rot": {
                "y": 90.0
            },
            "unlocked": true,
            "alias": "",
            "size": {
                "x": 5.0,
                "y": 10.0,
                "z": 20.0
            }
        }
    },
    "PJOEJDKAIKD": {}
}