{
    "HNGDGDECKOD": {
        "1": {
            "$type": "EGNLKABGENB",
            "gadgetId": 70120004,
            "pos": {
                "x": 0.005843371152877808,
                "y": -0.10831210017204285,
                "z": -18.177629470825195
            },
            "unlocked": true,
            "alias": "",
            "size": {
                "x": 5.0,
                "y": 5.0,
                "z": 5.0
            }
        }
    },
    "entities": {
        "1": {
            "$type": "NBICOEONMPK",
            "gadgetId": 70010006,
            "pos": {
                "x": -0.9124125838279724,
                "y": -5.037683010101318,
                "z": 107.78610229492188
            },
            "unlocked": true,
            "alias": "",
            "NMKLJDCLHDM": 500.0,
            "FEMIHBKHCNH": true,
            "OMDAIBKECIP": "NoReviveRegion",
            "shape": {
                "$type": "FBOPNFAKLDG",
                "JAFBDKCDHCO": true,
                "height": 200.0,
                "KPEJJDMAGEN": "Center",
                "width": 300.0,
                "length": 150.0
            },
            "stringParam": "",
            "GBJFIEEMDFH": {}
        }
    },
    "PJOEJDKAIKD": {}
}