{
    "luaDataPath": "",
    "isSimpleTalk": true,
    "startBlackKeepTime": 1.0,
    "entityBan": "",
    "disableNpcLod": true,
    "startFade": {
        "startFadeInDuration": 0.5,
        "startFadeOutDuration": 0.5
    },
    "endFade": {
        "startFadeOutDuration": 0.0
    },
    "actors": [
        {
            "alias": "Avatar",
            "visible": true,
            "bornPointName": "Q22015Talk2",
            "relativePosNpcAlias": "",
            "bindMovingTargetKey": ""
        },
        {
            "configID": 3042,
            "alias": "3042",
            "visible": true,
            "bornPointName": "Q22019Longer",
            "forceCreateDaily": true,
            "relativePosNpcAlias": "",
            "bindMovingTargetKey": ""
        },
        {
            "configID": 3041,
            "alias": "3041",
            "visible": true,
            "bornPointName": "Q22015_shanhu",
            "relativePosNpcAlias": "",
            "bindMovingTargetKey": ""
        }
    ],
    "group": [
        [
            {
                "$type": "MOOOKOKLLEI",
                "type": "CAMERA_FOCUS",
                "delayTime": 0.30000001192092896,
                "duration": 0.10000000149011612,
                "OMCCMPHDLOO": "",
                "OCFGGGHIKOO": "",
                "LJFHGGJDPHH": "",
                "LPKDFKLNEHL": ""
            },
            {
                "$type": "MoleMole.Config.ConfigTimeProtectAction",
                "type": "TIME_PROTECT",
                "duration": 0.4000000059604645
            }
        ],
        [
            {
                "$type": "DLPFECMKEKH",
                "type": "DIALOG",
                "aliasList": [
                    "3042"
                ],
                "NMKEDPFEKBH": 220190401,
                "JLCHMAJCAPA": 0.5
            },
            {
                "$type": "ILCGAGEGDJI",
                "type": "BODY_LANG",
                "aliasList": [
                    "3042"
                ],
                "FLBOOPHHFJP": 1172,
                "PMJAMGLAJGK": true,
                "LIMPPBIAKGL": false,
                "FNDLJGEAMGI": ""
            }
        ],
        [
            {
                "$type": "DLPFECMKEKH",
                "type": "DIALOG",
                "aliasList": [
                    "3041"
                ],
                "NMKEDPFEKBH": 220190402,
                "JLCHMAJCAPA": 0.5
            },
            {
                "$type": "ILCGAGEGDJI",
                "type": "BODY_LANG",
                "aliasList": [
                    "3041"
                ],
                "FLBOOPHHFJP": 4030,
                "PMJAMGLAJGK": true,
                "LIMPPBIAKGL": false,
                "FNDLJGEAMGI": ""
            }
        ],
        [
            {
                "$type": "ECLBLHOENAG",
                "type": "DIALOG_SELECT",
                "delayTime": 0.4000000059604645,
                "aliasList": [
                    "Avatar"
                ],
                "NDMMOPDPKNF": [
                    220190404,
                    220190405
                ],
                "FPDBIEGHMCD": [
                    1187071898,
                    1187071898
                ],
                "PKBOIGBGDEG": true
            },
            {
                "$type": "DLPFECMKEKH",
                "type": "DIALOG",
                "aliasList": [
                    "3041"
                ],
                "NMKEDPFEKBH": 220190403,
                "JLCHMAJCAPA": 0.5
            }
        ],
        [
            {
                "$type": "ECLBLHOENAG",
                "type": "DIALOG_SELECT",
                "delayTime": 0.4000000059604645,
                "aliasList": [
                    "Avatar"
                ],
                "NDMMOPDPKNF": [
                    220190407,
                    220190409
                ],
                "FPDBIEGHMCD": [
                    1187071899,
                    1187071900
                ],
                "PKBOIGBGDEG": true
            },
            {
                "$type": "DLPFECMKEKH",
                "type": "DIALOG",
                "aliasList": [
                    "3041"
                ],
                "NMKEDPFEKBH": 220190406,
                "JLCHMAJCAPA": 0.5
            }
        ],
        [
            {
                "$type": "DLPFECMKEKH",
                "type": "DIALOG",
                "aliasList": [
                    "3041"
                ],
                "NMKEDPFEKBH": 220190408,
                "JLCHMAJCAPA": 0.5
            },
            {
                "$type": "ILCGAGEGDJI",
                "type": "BODY_LANG",
                "aliasList": [
                    "3041"
                ],
                "FLBOOPHHFJP": 1130,
                "PMJAMGLAJGK": true,
                "LIMPPBIAKGL": false,
                "FNDLJGEAMGI": ""
            }
        ],
        [
            {
                "$type": "DLPFECMKEKH",
                "type": "DIALOG",
                "aliasList": [
                    "3041"
                ],
                "NMKEDPFEKBH": 220190410,
                "JLCHMAJCAPA": 0.5
            },
            {
                "$type": "ILCGAGEGDJI",
                "type": "BODY_LANG",
                "aliasList": [
                    "3041"
                ],
                "FLBOOPHHFJP": 1130,
                "PMJAMGLAJGK": true,
                "LIMPPBIAKGL": false,
                "FNDLJGEAMGI": ""
            }
        ],
        [
            {
                "$type": "DLPFECMKEKH",
                "type": "DIALOG",
                "aliasList": [
                    "3041"
                ],
                "NMKEDPFEKBH": 220190411,
                "JLCHMAJCAPA": 0.5
            }
        ],
        [
            {
                "$type": "DLPFECMKEKH",
                "type": "DIALOG",
                "aliasList": [
                    "3041"
                ],
                "NMKEDPFEKBH": 220190412,
                "JLCHMAJCAPA": 0.5
            }
        ],
        [
            {
                "$type": "DLPFECMKEKH",
                "type": "DIALOG",
                "aliasList": [
                    "3041"
                ],
                "NMKEDPFEKBH": 220190413,
                "JLCHMAJCAPA": 0.5
            }
        ],
        [
            {
                "$type": "ECLBLHOENAG",
                "type": "DIALOG_SELECT",
                "delayTime": 0.4000000059604645,
                "aliasList": [
                    "Avatar"
                ],
                "NDMMOPDPKNF": [
                    220190415,
                    220190417
                ],
                "FPDBIEGHMCD": [
                    2439490396,
                    2439490397
                ],
                "PKBOIGBGDEG": true
            },
            {
                "$type": "DLPFECMKEKH",
                "type": "DIALOG",
                "aliasList": [
                    "3041"
                ],
                "NMKEDPFEKBH": 220190414,
                "JLCHMAJCAPA": 0.5
            },
            {
                "$type": "ILCGAGEGDJI",
                "type": "BODY_LANG",
                "aliasList": [
                    "3041"
                ],
                "FLBOOPHHFJP": 1110,
                "PMJAMGLAJGK": true,
                "LIMPPBIAKGL": false,
                "FNDLJGEAMGI": ""
            }
        ],
        [
            {
                "$type": "DLPFECMKEKH",
                "type": "DIALOG",
                "aliasList": [
                    "3041"
                ],
                "NMKEDPFEKBH": 220190416,
                "JLCHMAJCAPA": 0.5
            }
        ],
        [
            {
                "$type": "DLPFECMKEKH",
                "type": "DIALOG",
                "aliasList": [
                    "3041"
                ],
                "NMKEDPFEKBH": 220190418,
                "JLCHMAJCAPA": 0.5
            }
        ],
        [
            {
                "$type": "DLPFECMKEKH",
                "type": "DIALOG",
                "aliasList": [
                    "3041"
                ],
                "NMKEDPFEKBH": 220190419,
                "JLCHMAJCAPA": 0.5
            }
        ],
        [
            {
                "$type": "ECLBLHOENAG",
                "type": "DIALOG_SELECT",
                "delayTime": 0.4000000059604645,
                "aliasList": [
                    "Avatar"
                ],
                "NDMMOPDPKNF": [
                    220190420
                ],
                "FPDBIEGHMCD": [
                    2439490400
                ],
                "PKBOIGBGDEG": true
            }
        ],
        [
            {
                "$type": "DLPFECMKEKH",
                "type": "DIALOG",
                "aliasList": [
                    "3041"
                ],
                "NMKEDPFEKBH": 220190421,
                "JLCHMAJCAPA": 0.5
            },
            {
                "$type": "ILCGAGEGDJI",
                "type": "BODY_LANG",
                "aliasList": [
                    "3041"
                ],
                "FLBOOPHHFJP": 1172,
                "PMJAMGLAJGK": true,
                "LIMPPBIAKGL": false,
                "FNDLJGEAMGI": ""
            }
        ],
        [
            {
                "$type": "ECLBLHOENAG",
                "type": "DIALOG_SELECT",
                "delayTime": 0.4000000059604645,
                "aliasList": [
                    "Avatar"
                ],
                "NDMMOPDPKNF": [
                    220190423,
                    220190424,
                    220190425
                ],
                "FPDBIEGHMCD": [
                    2439490402,
                    2439490402,
                    2439490402
                ],
                "PKBOIGBGDEG": true
            },
            {
                "$type": "DLPFECMKEKH",
                "type": "DIALOG",
                "aliasList": [
                    "3041"
                ],
                "NMKEDPFEKBH": 220190422,
                "JLCHMAJCAPA": 0.5
            }
        ],
        [
            {
                "$type": "DLPFECMKEKH",
                "type": "DIALOG",
                "aliasList": [
                    "3041"
                ],
                "NMKEDPFEKBH": 220190426,
                "JLCHMAJCAPA": 0.5
            }
        ],
        [
            {
                "$type": "DLPFECMKEKH",
                "type": "DIALOG",
                "aliasList": [
                    "3041"
                ],
                "NMKEDPFEKBH": 220190427,
                "JLCHMAJCAPA": 0.5
            },
            {
                "$type": "ILCGAGEGDJI",
                "type": "BODY_LANG",
                "aliasList": [
                    "3041"
                ],
                "FLBOOPHHFJP": 1130,
                "PMJAMGLAJGK": true,
                "LIMPPBIAKGL": false,
                "FNDLJGEAMGI": ""
            }
        ],
        [
            {
                "$type": "ECLBLHOENAG",
                "type": "DIALOG_SELECT",
                "delayTime": 0.4000000059604645,
                "aliasList": [
                    "Avatar"
                ],
                "NDMMOPDPKNF": [
                    220190429
                ],
                "FPDBIEGHMCD": [
                    2439490426
                ],
                "PKBOIGBGDEG": true
            },
            {
                "$type": "DLPFECMKEKH",
                "type": "DIALOG",
                "aliasList": [
                    "3041"
                ],
                "NMKEDPFEKBH": 220190428,
                "JLCHMAJCAPA": 0.5
            }
        ],
        [
            {
                "$type": "DLPFECMKEKH",
                "type": "DIALOG",
                "aliasList": [
                    "3041"
                ],
                "NMKEDPFEKBH": 220190430,
                "JLCHMAJCAPA": 0.5
            }
        ],
        [
            {
                "$type": "ECLBLHOENAG",
                "type": "DIALOG_SELECT",
                "delayTime": 0.4000000059604645,
                "aliasList": [
                    "Avatar"
                ],
                "NDMMOPDPKNF": [
                    220190432
                ],
                "FPDBIEGHMCD": [
                    2439490428
                ],
                "PKBOIGBGDEG": true
            },
            {
                "$type": "DLPFECMKEKH",
                "type": "DIALOG",
                "aliasList": [
                    "3041"
                ],
                "NMKEDPFEKBH": 220190431,
                "JLCHMAJCAPA": 0.5
            },
            {
                "$type": "ILCGAGEGDJI",
                "type": "BODY_LANG",
                "aliasList": [
                    "3041"
                ],
                "FLBOOPHHFJP": 1173,
                "PMJAMGLAJGK": true,
                "LIMPPBIAKGL": false,
                "FNDLJGEAMGI": ""
            }
        ],
        [
            {
                "$type": "DLPFECMKEKH",
                "type": "DIALOG",
                "aliasList": [
                    "3041"
                ],
                "NMKEDPFEKBH": 220190433,
                "JLCHMAJCAPA": 0.5
            }
        ],
        [
            {
                "$type": "DLPFECMKEKH",
                "type": "DIALOG",
                "aliasList": [
                    "3041"
                ],
                "NMKEDPFEKBH": 220190434,
                "JLCHMAJCAPA": 0.5
            },
            {
                "$type": "ILCGAGEGDJI",
                "type": "BODY_LANG",
                "aliasList": [
                    "3041"
                ],
                "FLBOOPHHFJP": 1190,
                "PMJAMGLAJGK": true,
                "LIMPPBIAKGL": false,
                "FNDLJGEAMGI": ""
            }
        ],
        [
            {
                "$type": "DLPFECMKEKH",
                "type": "DIALOG",
                "aliasList": [
                    "3041"
                ],
                "NMKEDPFEKBH": 220190435,
                "JLCHMAJCAPA": 0.5
            }
        ],
        [
            {
                "$type": "DLPFECMKEKH",
                "type": "DIALOG",
                "aliasList": [
                    "3041"
                ],
                "NMKEDPFEKBH": 220190436,
                "JLCHMAJCAPA": 0.5
            }
        ],
        [
            {
                "$type": "DLPFECMKEKH",
                "type": "DIALOG",
                "aliasList": [
                    "3041"
                ],
                "NMKEDPFEKBH": 220190437,
                "JLCHMAJCAPA": 0.5
            },
            {
                "$type": "ILCGAGEGDJI",
                "type": "BODY_LANG",
                "aliasList": [
                    "3041"
                ],
                "FLBOOPHHFJP": 1130,
                "PMJAMGLAJGK": true,
                "LIMPPBIAKGL": false,
                "FNDLJGEAMGI": ""
            }
        ],
        [
            {
                "$type": "MoleMole.Config.ConfigTimeProtectAction",
                "type": "TIME_PROTECT",
                "duration": 0.10000000149011612
            },
            {
                "$type": "MoleMole.Config.ConfigSimpleBlackScreenAction",
                "type": "SIMPLE_BLACK_SCREEN",
                "durationToBlack": 0.5,
                "durationKeepBlack": 1.0,
                "durationFromBlack": 0.5,
                "textMapID": ""
            },
            {
                "$type": "MoleMole.Config.ConfigTimeProtectAction",
                "type": "TIME_PROTECT",
                "duration": 0.699999988079071
            },
            {
                "$type": "MoleMole.Config.ConfigVisibleInterAction",
                "type": "VISIBLE",
                "delayTime": 1.0,
                "aliasList": [
                    "3042"
                ],
                "extraParam": ""
            },
            {
                "$type": "MoleMole.Config.ConfigVisibleInterAction",
                "type": "VISIBLE",
                "delayTime": 1.0,
                "aliasList": [
                    "3041"
                ],
                "extraParam": ""
            }
        ]
    ],
    "groupId": [
        {
            "grpId": 1187071894,
            "nextGrpId": 1187071895
        },
        {
            "index": 1,
            "grpId": 1187071895,
            "nextGrpId": 1187071896
        },
        {
            "index": 2,
            "grpId": 1187071896,
            "nextGrpId": 1187071897
        },
        {
            "index": 3,
            "grpId": 1187071897,
            "nextGrpId": 1187071898
        },
        {
            "index": 4,
            "grpId": 1187071898,
            "nextGrpId": 1187071899
        },
        {
            "index": 5,
            "grpId": 1187071899,
            "nextGrpId": 1187071902
        },
        {
            "index": 6,
            "grpId": 1187071900,
            "nextGrpId": 1187071901
        },
        {
            "index": 7,
            "grpId": 1187071901,
            "nextGrpId": 1187071902
        },
        {
            "index": 8,
            "grpId": 1187071902,
            "nextGrpId": 2439490394
        },
        {
            "index": 9,
            "grpId": 2439490394,
            "nextGrpId": 2439490395
        },
        {
            "index": 10,
            "grpId": 2439490395,
            "nextGrpId": 2439490396
        },
        {
            "index": 11,
            "grpId": 2439490396,
            "nextGrpId": 2439490398
        },
        {
            "index": 12,
            "grpId": 2439490397,
            "nextGrpId": 2439490398
        },
        {
            "index": 13,
            "grpId": 2439490398,
            "nextGrpId": 2439490399
        },
        {
            "index": 14,
            "grpId": 2439490399,
            "nextGrpId": 2439490400
        },
        {
            "index": 15,
            "grpId": 2439490400,
            "nextGrpId": 2439490401
        },
        {
            "index": 16,
            "grpId": 2439490401,
            "nextGrpId": 2439490402
        },
        {
            "index": 17,
            "grpId": 2439490402,
            "nextGrpId": 2439490403
        },
        {
            "index": 18,
            "grpId": 2439490403,
            "nextGrpId": 2439490425
        },
        {
            "index": 19,
            "grpId": 2439490425,
            "nextGrpId": 2439490426
        },
        {
            "index": 20,
            "grpId": 2439490426,
            "nextGrpId": 2439490427
        },
        {
            "index": 21,
            "grpId": 2439490427,
            "nextGrpId": 2439490428
        },
        {
            "index": 22,
            "grpId": 2439490428,
            "nextGrpId": 2439490429
        },
        {
            "index": 23,
            "grpId": 2439490429,
            "nextGrpId": 2439490430
        },
        {
            "index": 24,
            "grpId": 2439490430,
            "nextGrpId": 2439490431
        },
        {
            "index": 25,
            "grpId": 2439490431,
            "nextGrpId": 2439490432
        },
        {
            "index": 26,
            "grpId": 2439490432,
            "nextGrpId": 2439490433
        },
        {
            "index": 27,
            "grpId": 2439490433,
            "nextGrpId": 2439490434
        }
    ],
    "freeStyleDic": {
        "3042": [
            1172
        ],
        "3041": [
            4030,
            1130,
            1110,
            1172,
            1173,
            1190
        ]
    }
}