{
    "talkId": 283,
    "type": "COOP",
    "dialogList": [
        {
            "id": 190801601,
            "nextDialogs": [
                190801602
            ],
            "talkRole": {
                "type": "TALK_ROLE_NPC",
                "id": "516"
            },
            "talkContentTextMapHash": 2464900514,
            "talkAssetPath": "",
            "talkAssetPathAlter": "",
            "talkAudioName": "",
            "actionBefore": "",
            "actionWhile": "",
            "actionAfter": "",
            "optionIcon": ""
        },
        {
            "id": 190801602,
            "nextDialogs": [
                190801603
            ],
            "talkRole": {
                "type": "TALK_ROLE_NPC",
                "id": "516"
            },
            "talkContentTextMapHash": 3306614506,
            "talkAssetPath": "",
            "talkAssetPathAlter": "",
            "talkAudioName": "",
            "actionBefore": "",
            "actionWhile": "",
            "actionAfter": "",
            "optionIcon": ""
        },
        {
            "id": 190801603,
            "nextDialogs": [
                190801699
            ],
            "talkRole": {
                "type": "TALK_ROLE_NPC",
                "id": "516"
            },
            "talkContentTextMapHash": 1973357874,
            "talkAssetPath": "",
            "talkAssetPathAlter": "",
            "talkAudioName": "",
            "actionBefore": "",
            "actionWhile": "",
            "actionAfter": "",
            "optionIcon": ""
        },
        {
            "id": 190801604,
            "nextDialogs": [
                190801605
            ],
            "talkRole": {
                "type": "TALK_ROLE_NEED_CLICK_BLACK_SCREEN",
                "id": ""
            },
            "talkContentTextMapHash": 2968210106,
            "talkAssetPath": "",
            "talkAssetPathAlter": "",
            "talkAudioName": "",
            "actionBefore": "",
            "actionWhile": "",
            "actionAfter": "",
            "optionIcon": ""
        },
        {
            "id": 190801605,
            "nextDialogs": [
                190801606
            ],
            "talkRole": {
                "type": "TALK_ROLE_NEED_CLICK_BLACK_SCREEN",
                "id": ""
            },
            "talkContentTextMapHash": 261601578,
            "talkAssetPath": "",
            "talkAssetPathAlter": "",
            "talkAudioName": "",
            "actionBefore": "",
            "actionWhile": "",
            "actionAfter": "",
            "optionIcon": ""
        },
        {
            "id": 190801606,
            "nextDialogs": [
                190801607
            ],
            "talkRole": {
                "type": "TALK_ROLE_NEED_CLICK_BLACK_SCREEN",
                "id": ""
            },
            "talkContentTextMapHash": 4131954274,
            "talkAssetPath": "",
            "talkAssetPathAlter": "",
            "talkAudioName": "",
            "actionBefore": "",
            "actionWhile": "",
            "actionAfter": "",
            "optionIcon": ""
        },
        {
            "id": 190801607,
            "nextDialogs": [
                190801698,
                190801697
            ],
            "talkRole": {
                "type": "TALK_ROLE_NPC",
                "id": "2102"
            },
            "talkContentTextMapHash": 2642758794,
            "talkAssetPath": "",
            "talkAssetPathAlter": "",
            "talkAudioName": "",
            "actionBefore": "",
            "actionWhile": "",
            "actionAfter": "",
            "optionIcon": ""
        },
        {
            "id": 190801608,
            "talkRole": {
                "type": "TALK_ROLE_NPC",
                "id": "2102"
            },
            "talkContentTextMapHash": 3330448154,
            "talkAssetPath": "",
            "talkAssetPathAlter": "",
            "talkAudioName": "",
            "actionBefore": "",
            "actionWhile": "",
            "actionAfter": "",
            "optionIcon": ""
        },
        {
            "id": 190801697,
            "nextDialogs": [
                190801608
            ],
            "talkRole": {
                "type": "TALK_ROLE_PLAYER",
                "id": ""
            },
            "talkContentTextMapHash": 2397503346,
            "talkAssetPath": "",
            "talkAssetPathAlter": "",
            "talkAudioName": "",
            "actionBefore": "",
            "actionWhile": "",
            "actionAfter": "",
            "optionIcon": ""
        },
        {
            "id": 190801698,
            "nextDialogs": [
                190801608
            ],
            "talkRole": {
                "type": "TALK_ROLE_PLAYER",
                "id": ""
            },
            "talkContentTextMapHash": 1933891786,
            "talkAssetPath": "",
            "talkAssetPathAlter": "",
            "talkAudioName": "",
            "actionBefore": "",
            "actionWhile": "",
            "actionAfter": "",
            "optionIcon": ""
        },
        {
            "id": 190801699,
            "nextDialogs": [
                190801604
            ],
            "talkShowType": "TALK_SHOW_FORCE_SELECT",
            "talkRole": {
                "type": "TALK_ROLE_PLAYER",
                "id": ""
            },
            "talkContentTextMapHash": 3142735618,
            "talkAssetPath": "",
            "talkAssetPathAlter": "",
            "talkAudioName": "",
            "actionBefore": "",
            "actionWhile": "",
            "actionAfter": "",
            "optionIcon": ""
        }
    ],
    "ELGPLEMBBFA": [
        "[3_4403:-639.000,221.716,280.300,0.000,74.200,0.000]",
        "[3_4404:-636.667,221.716,281.089,0.000,256.350,0.000]"
    ]
}