{
    "talkId": 316,
    "type": "COOP",
    "dialogList": [
        {
            "id": 190940801,
            "nextDialogs": [
                190940802
            ],
            "talkRole": {
                "type": "TALK_ROLE_NPC",
                "id": "516"
            },
            "talkContentTextMapHash": 1409456994,
            "talkAssetPath": "",
            "talkAssetPathAlter": "",
            "talkAudioName": "",
            "actionBefore": "",
            "actionWhile": "",
            "actionAfter": "",
            "optionIcon": ""
        },
        {
            "id": 190940802,
            "nextDialogs": [
                190940899,
                190940898
            ],
            "talkRole": {
                "type": "TALK_ROLE_NPC",
                "id": "502"
            },
            "talkContentTextMapHash": 1713285650,
            "talkAssetPath": "",
            "talkAssetPathAlter": "",
            "talkAudioName": "",
            "actionBefore": "",
            "actionWhile": "",
            "actionAfter": "",
            "optionIcon": ""
        },
        {
            "id": 190940803,
            "nextDialogs": [
                190940804
            ],
            "talkRole": {
                "type": "TALK_ROLE_NPC",
                "id": "502"
            },
            "talkContentTextMapHash": 879336154,
            "talkAssetPath": "",
            "talkAssetPathAlter": "",
            "talkAudioName": "",
            "actionBefore": "",
            "actionWhile": "",
            "actionAfter": "",
            "optionIcon": ""
        },
        {
            "id": 190940804,
            "nextDialogs": [
                190940805
            ],
            "talkRole": {
                "type": "TALK_ROLE_NPC",
                "id": "502"
            },
            "talkContentTextMapHash": 1709531218,
            "talkAssetPath": "",
            "talkAssetPathAlter": "",
            "talkAudioName": "",
            "actionBefore": "",
            "actionWhile": "",
            "actionAfter": "",
            "optionIcon": ""
        },
        {
            "id": 190940805,
            "nextDialogs": [
                190940897,
                190940896
            ],
            "talkRole": {
                "type": "TALK_ROLE_NPC",
                "id": "502"
            },
            "talkContentTextMapHash": 2338507482,
            "talkAssetPath": "",
            "talkAssetPathAlter": "",
            "talkAudioName": "",
            "actionBefore": "",
            "actionWhile": "",
            "actionAfter": "",
            "optionIcon": ""
        },
        {
            "id": 190940806,
            "nextDialogs": [
                190940808
            ],
            "talkRole": {
                "type": "TALK_ROLE_NPC",
                "id": "516"
            },
            "talkContentTextMapHash": 2565490778,
            "talkAssetPath": "",
            "talkAssetPathAlter": "",
            "talkAudioName": "",
            "actionBefore": "",
            "actionWhile": "",
            "actionAfter": "",
            "optionIcon": ""
        },
        {
            "id": 190940807,
            "nextDialogs": [
                190940808
            ],
            "talkRole": {
                "type": "TALK_ROLE_NPC",
                "id": "516"
            },
            "talkContentTextMapHash": 1703698906,
            "talkAssetPath": "",
            "talkAssetPathAlter": "",
            "talkAudioName": "",
            "actionBefore": "",
            "actionWhile": "",
            "actionAfter": "",
            "optionIcon": ""
        },
        {
            "id": 190940808,
            "nextDialogs": [
                190940809
            ],
            "talkRole": {
                "type": "TALK_ROLE_NPC",
                "id": "502"
            },
            "talkContentTextMapHash": 836584026,
            "talkAssetPath": "",
            "talkAssetPathAlter": "",
            "talkAudioName": "",
            "actionBefore": "",
            "actionWhile": "",
            "actionAfter": "",
            "optionIcon": ""
        },
        {
            "id": 190940809,
            "nextDialogs": [
                190940810
            ],
            "talkRole": {
                "type": "TALK_ROLE_NPC",
                "id": "1001"
            },
            "talkContentTextMapHash": 2805465314,
            "talkAssetPath": "",
            "talkAssetPathAlter": "",
            "talkAudioName": "",
            "actionBefore": "",
            "actionWhile": "",
            "actionAfter": "",
            "optionIcon": ""
        },
        {
            "id": 190940810,
            "nextDialogs": [
                190940811
            ],
            "talkRole": {
                "type": "TALK_ROLE_NPC",
                "id": "13354"
            },
            "talkContentTextMapHash": 268427194,
            "talkAssetPath": "",
            "talkAssetPathAlter": "",
            "talkAudioName": "",
            "actionBefore": "",
            "actionWhile": "",
            "actionAfter": "",
            "optionIcon": ""
        },
        {
            "id": 190940811,
            "nextDialogs": [
                190940812
            ],
            "talkRole": {
                "type": "TALK_ROLE_NPC",
                "id": "13354"
            },
            "talkContentTextMapHash": 3891778818,
            "talkAssetPath": "",
            "talkAssetPathAlter": "",
            "talkAudioName": "",
            "actionBefore": "",
            "actionWhile": "",
            "actionAfter": "",
            "optionIcon": ""
        },
        {
            "id": 190940812,
            "nextDialogs": [
                190940813
            ],
            "talkRole": {
                "type": "TALK_ROLE_NPC",
                "id": "13355"
            },
            "talkContentTextMapHash": 1062179962,
            "talkAssetPath": "",
            "talkAssetPathAlter": "",
            "talkAudioName": "",
            "actionBefore": "",
            "actionWhile": "",
            "actionAfter": "",
            "optionIcon": ""
        },
        {
            "id": 190940813,
            "nextDialogs": [
                190940814
            ],
            "talkRole": {
                "type": "TALK_ROLE_NPC",
                "id": "501"
            },
            "talkContentTextMapHash": 668178570,
            "talkAssetPath": "",
            "talkAssetPathAlter": "",
            "talkAudioName": "",
            "actionBefore": "",
            "actionWhile": "",
            "actionAfter": "",
            "optionIcon": ""
        },
        {
            "id": 190940814,
            "nextDialogs": [
                190940815
            ],
            "talkRole": {
                "type": "TALK_ROLE_NPC",
                "id": "1429"
            },
            "talkContentTextMapHash": 3924191458,
            "talkAssetPath": "",
            "talkAssetPathAlter": "",
            "talkAudioName": "",
            "actionBefore": "",
            "actionWhile": "",
            "actionAfter": "",
            "optionIcon": ""
        },
        {
            "id": 190940815,
            "nextDialogs": [
                190940816
            ],
            "talkRole": {
                "type": "TALK_ROLE_NPC",
                "id": "516"
            },
            "talkContentTextMapHash": 616458538,
            "talkAssetPath": "",
            "talkAssetPathAlter": "",
            "talkAudioName": "",
            "actionBefore": "",
            "actionWhile": "",
            "actionAfter": "",
            "optionIcon": ""
        },
        {
            "id": 190940816,
            "nextDialogs": [
                190940817
            ],
            "talkRole": {
                "type": "TALK_ROLE_NPC",
                "id": "1001"
            },
            "talkContentTextMapHash": 4054295058,
            "talkAssetPath": "",
            "talkAssetPathAlter": "",
            "talkAudioName": "",
            "actionBefore": "",
            "actionWhile": "",
            "actionAfter": "",
            "optionIcon": ""
        },
        {
            "id": 190940817,
            "nextDialogs": [
                190940818
            ],
            "talkRole": {
                "type": "TALK_ROLE_NPC",
                "id": "502"
            },
            "talkContentTextMapHash": 3356219626,
            "talkAssetPath": "",
            "talkAssetPathAlter": "",
            "talkAudioName": "",
            "actionBefore": "",
            "actionWhile": "",
            "actionAfter": "",
            "optionIcon": ""
        },
        {
            "id": 190940818,
            "nextDialogs": [
                190940819
            ],
            "talkRole": {
                "type": "TALK_ROLE_NPC",
                "id": "1001"
            },
            "talkContentTextMapHash": 3743395090,
            "talkAssetPath": "",
            "talkAssetPathAlter": "",
            "talkAudioName": "",
            "actionBefore": "",
            "actionWhile": "",
            "actionAfter": "",
            "optionIcon": ""
        },
        {
            "id": 190940819,
            "nextDialogs": [
                190940820
            ],
            "talkRole": {
                "type": "TALK_ROLE_NPC",
                "id": "501"
            },
            "talkContentTextMapHash": 2320372626,
            "talkAssetPath": "",
            "talkAssetPathAlter": "",
            "talkAudioName": "",
            "actionBefore": "",
            "actionWhile": "",
            "actionAfter": "",
            "optionIcon": ""
        },
        {
            "id": 190940820,
            "nextDialogs": [
                190940821
            ],
            "talkRole": {
                "type": "TALK_ROLE_NPC",
                "id": "13355"
            },
            "talkContentTextMapHash": 1793709946,
            "talkAssetPath": "",
            "talkAssetPathAlter": "",
            "talkAudioName": "",
            "actionBefore": "",
            "actionWhile": "",
            "actionAfter": "",
            "optionIcon": ""
        },
        {
            "id": 190940821,
            "nextDialogs": [
                190940822
            ],
            "talkRole": {
                "type": "TALK_ROLE_NPC",
                "id": "1001"
            },
            "talkContentTextMapHash": 4151088026,
            "talkAssetPath": "",
            "talkAssetPathAlter": "",
            "talkAudioName": "",
            "actionBefore": "",
            "actionWhile": "",
            "actionAfter": "",
            "optionIcon": ""
        },
        {
            "id": 190940822,
            "talkRole": {
                "type": "TALK_ROLE_NPC",
                "id": "1001"
            },
            "talkContentTextMapHash": 2407993994,
            "talkAssetPath": "",
            "talkAssetPathAlter": "",
            "talkAudioName": "",
            "actionBefore": "",
            "actionWhile": "",
            "actionAfter": "",
            "optionIcon": ""
        },
        {
            "id": 190940896,
            "nextDialogs": [
                190940807
            ],
            "talkRole": {
                "type": "TALK_ROLE_PLAYER",
                "id": ""
            },
            "talkContentTextMapHash": 3469548802,
            "talkAssetPath": "",
            "talkAssetPathAlter": "",
            "talkAudioName": "",
            "actionBefore": "",
            "actionWhile": "",
            "actionAfter": "",
            "optionIcon": ""
        },
        {
            "id": 190940897,
            "nextDialogs": [
                190940806
            ],
            "talkRole": {
                "type": "TALK_ROLE_PLAYER",
                "id": ""
            },
            "talkContentTextMapHash": 2557587578,
            "talkAssetPath": "",
            "talkAssetPathAlter": "",
            "talkAudioName": "",
            "actionBefore": "",
            "actionWhile": "",
            "actionAfter": "",
            "optionIcon": ""
        },
        {
            "id": 190940898,
            "nextDialogs": [
                190940803
            ],
            "talkRole": {
                "type": "TALK_ROLE_PLAYER",
                "id": ""
            },
            "talkContentTextMapHash": 1796904042,
            "talkAssetPath": "",
            "talkAssetPathAlter": "",
            "talkAudioName": "",
            "actionBefore": "",
            "actionWhile": "",
            "actionAfter": "",
            "optionIcon": ""
        },
        {
            "id": 190940899,
            "nextDialogs": [
                190940803
            ],
            "talkRole": {
                "type": "TALK_ROLE_PLAYER",
                "id": ""
            },
            "talkContentTextMapHash": 3798212474,
            "talkAssetPath": "",
            "talkAssetPathAlter": "",
            "talkAudioName": "",
            "actionBefore": "",
            "actionWhile": "",
            "actionAfter": "",
            "optionIcon": ""
        }
    ],
    "ELGPLEMBBFA": [
        "[3_4218:2317.503,249.990,-759.267,0.000,209.600,0.000]",
        "[3_4537:2314.246,249.990,-760.209,0.000,74.214,0.000]",
        "[3_4538:2314.948,249.990,-761.603,0.000,54.419,0.000]",
        "[3_4539:2317.924,250.140,-763.593,0.000,358.480,0.000]",
        "[3_4540:2319.500,249.920,-763.492,0.000,334.000,0.000]",
        "[3_4541:2321.001,249.990,-761.786,0.000,304.620,0.000]",
        "[3_4542:2321.858,249.990,-760.480,0.000,283.600,0.000]"
    ]
}