{
    "DANPPPLPAEE": 1003,
    "groupId": 220200001,
    "talks": [
        {
            "id": 1400825,
            "beginWay": "TALK_BEGIN_MANUAL",
            "priority": 5,
            "nextTalks": [
                1400826,
                1400827
            ],
            "initDialog": 140082501,
            "performCfg": "",
            "loadType": "TALK_GADGET",
            "assetIndex": 14712928408826545670,
            "prePerformCfg": ""
        },
        {
            "id": 1400826,
            "priority": 5,
            "nextRandomTalks": [
                1400828,
                1400829,
                1400830,
                1400831,
                1400832
            ],
            "DLCGIFNNOLN": 1,
            "MJNLDFLPCNG": true,
            "DHFDAJLCCII": [
                0,
                0,
                0,
                0,
                0
            ],
            "initDialog": 140082601,
            "performCfg": "",
            "loadType": "TALK_GADGET",
            "assetIndex": 14871405555935613483,
            "prePerformCfg": ""
        },
        {
            "id": 1400827,
            "priority": 5,
            "initDialog": 140082701,
            "performCfg": "",
            "loadType": "TALK_GADGET",
            "assetIndex": 17805389725399219414,
            "prePerformCfg": ""
        },
        {
            "id": 1400828,
            "priority": 5,
            "nextTalks": [
                1400826,
                1400827
            ],
            "initDialog": 140082801,
            "performCfg": "",
            "loadType": "TALK_GADGET",
            "assetIndex": 17622544193157832940,
            "prePerformCfg": ""
        },
        {
            "id": 1400829,
            "priority": 5,
            "nextTalks": [
                1400826,
                1400827
            ],
            "initDialog": 140082901,
            "performCfg": "",
            "loadType": "TALK_GADGET",
            "assetIndex": 12413167319906579844,
            "prePerformCfg": ""
        },
        {
            "id": 1400830,
            "priority": 5,
            "nextTalks": [
                1400826,
                1400827
            ],
            "initDialog": 140083001,
            "performCfg": "",
            "loadType": "TALK_GADGET",
            "assetIndex": 86653005337840135,
            "prePerformCfg": ""
        },
        {
            "id": 1400831,
            "priority": 5,
            "nextTalks": [
                1400826,
                1400827
            ],
            "initDialog": 140083101,
            "performCfg": "",
            "loadType": "TALK_GADGET",
            "assetIndex": 16487423625453120665,
            "prePerformCfg": ""
        },
        {
            "id": 1400832,
            "priority": 5,
            "nextTalks": [
                1400826,
                1400827
            ],
            "initDialog": 140083201,
            "performCfg": "",
            "loadType": "TALK_GADGET",
            "assetIndex": 7277199621750756441,
            "prePerformCfg": ""
        }
    ]
}