{
    "DANPPPLPAEE": 102001,
    "groupId": 199002102,
    "talks": [
        {
            "id": 6800358,
            "beginWay": "TALK_BEGIN_MANUAL",
            "activeMode": "PLAY_MODE_ALL",
            "beginCond": [
                {
                    "type": "QUEST_COND_GADGET_TALK_STATE_EQUAL",
                    "param": [
                        "102001",
                        "199002102",
                        "0"
                    ]
                }
            ],
            "initDialog": 680035801,
            "performCfg": "",
            "loadType": "TALK_GADGET",
            "assetIndex": 17186893116232246477,
            "prePerformCfg": "",
            "finishExec": [
                {
                    "type": "TALK_EXEC_SET_GADGET_STATE",
                    "param": [
                        "68003511"
                    ]
                }
            ]
        }
    ]
}