{
    "DANPPPLPAEE": 129003,
    "groupId": 144001129,
    "talks": [
        {
            "id": 6800103,
            "beginWay": "TALK_BEGIN_MANUAL",
            "beginCond": [
                {
                    "type": "QUEST_COND_GADGET_TALK_STATE_EQUAL",
                    "param": [
                        "129003",
                        "144001129",
                        "6800103"
                    ]
                }
            ],
            "priority": 5,
            "initDialog": 680010301,
            "performCfg": "",
            "loadType": "TALK_GADGET",
            "assetIndex": 6988540137440174211,
            "prePerformCfg": "",
            "finishExec": [
                {
                    "type": "TALK_EXEC_SET_GADGET_STATE",
                    "param": [
                        "6800103"
                    ]
                }
            ]
        }
    ]
}