{
    "DANPPPLPAEE": 179005,
    "groupId": 133212179,
    "talks": [
        {
            "id": 7219608,
            "beginWay": "TALK_BEGIN_MANUAL",
            "initDialog": 721960801,
            "performCfg": "",
            "loadType": "TALK_GADGET",
            "assetIndex": 5242038885343902407,
            "prePerformCfg": ""
        }
    ]
}