{
    "DANPPPLPAEE": 18001,
    "groupId": 199003018,
    "talks": [
        {
            "id": 6800239,
            "beginWay": "TALK_BEGIN_MANUAL",
            "activeMode": "PLAY_MODE_ALL",
            "beginCond": [
                {
                    "type": "QUEST_COND_GADGET_TALK_STATE_EQUAL",
                    "param": [
                        "18001",
                        "199003018",
                        "0"
                    ]
                }
            ],
            "initDialog": 680023901,
            "performCfg": "",
            "loadType": "TALK_GADGET",
            "assetIndex": 3909130679054972186,
            "prePerformCfg": "",
            "finishExec": [
                {
                    "type": "TALK_EXEC_SET_GADGET_STATE",
                    "param": [
                        "0"
                    ]
                }
            ]
        }
    ]
}