{
    "DANPPPLPAEE": 46005,
    "groupId": 133303046,
    "talks": [
        {
            "id": 7306403,
            "beginWay": "TALK_BEGIN_MANUAL",
            "activeMode": "PLAY_MODE_ALL",
            "priority": 5,
            "initDialog": 730640301,
            "performCfg": "",
            "loadType": "TALK_GADGET",
            "questId": 73064,
            "assetIndex": 1981976030383377289,
            "prePerformCfg": ""
        }
    ]
}