{
    "DANPPPLPAEE": 52001,
    "groupId": 144001052,
    "talks": [
        {
            "id": 6800204,
            "beginWay": "TALK_BEGIN_MANUAL",
            "activeMode": "PLAY_MODE_ALL",
            "beginCond": [
                {
                    "type": "QUEST_COND_GADGET_TALK_STATE_EQUAL",
                    "param": [
                        "52001",
                        "144001052",
                        "6800204"
                    ]
                }
            ],
            "priority": 5,
            "initDialog": 680020401,
            "performCfg": "",
            "loadType": "TALK_GADGET",
            "assetIndex": 5463025782103854815,
            "prePerformCfg": "",
            "finishExec": [
                {
                    "type": "TALK_EXEC_SET_GADGET_STATE",
                    "param": [
                        "6800204"
                    ]
                }
            ]
        }
    ]
}