{
    "DANPPPLPAEE": 78006,
    "groupId": 199002078,
    "talks": [
        {
            "id": 6801004,
            "beginWay": "TALK_BEGIN_MANUAL",
            "activeMode": "PLAY_MODE_ALL",
            "beginCond": [
                {
                    "type": "QUEST_COND_GADGET_TALK_STATE_EQUAL",
                    "param": [
                        "78006",
                        "199002078",
                        "0"
                    ]
                }
            ],
            "initDialog": 680100403,
            "performCfg": "",
            "loadType": "TALK_GADGET",
            "assetIndex": 16148910386257736573,
            "prePerformCfg": "",
            "finishExec": [
                {
                    "type": "TALK_EXEC_SET_GADGET_STATE",
                    "param": [
                        "0"
                    ]
                }
            ]
        }
    ]
}