{
    "DANPPPLPAEE": 8005,
    "groupId": 201073008,
    "talks": [
        {
            "id": 1907651,
            "beginWay": "TALK_BEGIN_MANUAL",
            "beginCond": [
                {
                    "type": "QUEST_COND_STATE_EQUAL",
                    "param": [
                        "1907604",
                        "2"
                    ]
                }
            ],
            "priority": 5,
            "initDialog": 190765006,
            "performCfg": "",
            "heroTalk": "TALK_HERO_MAIN",
            "loadType": "TALK_GADGET",
            "questId": 19076,
            "assetIndex": 16845722051510450572,
            "prePerformCfg": ""
        }
    ]
}