{
    "luaDataPath": "",
    "dontUseDefaultFinish": true,
    "entityBan": "",
    "disableNpcLod": true,
    "startFade": {
        "startFadeOutDuration": 0.0
    },
    "endFade": {
        "startFadeOutDuration": 0.0
    },
    "actors": [
        {
            "alias": "Avatar",
            "visible": true,
            "bornPointName": "",
            "relativePosNpcAlias": "",
            "bindMovingTargetKey": ""
        },
        {
            "configID": 9053,
            "alias": "9053",
            "visible": true,
            "bornPointName": "",
            "relativePosNpcAlias": "",
            "bindMovingTargetKey": ""
        }
    ],
    "group": [
        [
            {
                "$type": "MOOOKOKLLEI",
                "type": "CAMERA_FOCUS",
                "duration": 0.5,
                "OMCCMPHDLOO": "",
                "OCFGGGHIKOO": "",
                "LJFHGGJDPHH": "",
                "LPKDFKLNEHL": ""
            },
            {
                "$type": "MoleMole.Config.ConfigTimeProtectAction",
                "type": "TIME_PROTECT",
                "duration": 0.5
            },
            {
                "$type": "EAMBKPBOPIC",
                "type": "LOOK_AT",
                "aliasList": [
                    "Avatar"
                ],
                "FIDJDPAIFDN": true,
                "BCHGCKLKNEH": 0.5,
                "OMCCMPHDLOO": "9053",
                "KPCALFDIHMC": "",
                "DBLNLMOPEBP": ""
            },
            {
                "$type": "CJKIHIFAALJ",
                "type": "LOOK_AT_EYECTRL",
                "aliasList": [
                    "Avatar"
                ],
                "useTargetPos": false,
                "KOPLMCFNFEH": {
                    "z": 2.0
                },
                "DONDAIFPGMK": {
                    "z": 2.0
                },
                "BJMEKPDGMPA": 1.0,
                "OMCCMPHDLOO": "",
                "OPPBKKOPIOB": "Face"
            },
            {
                "$type": "OOMFCPJAJGL",
                "type": "STEER_TO",
                "duration": 0.800000011920929,
                "aliasList": [
                    "9053"
                ],
                "DMGIIHNDNLC": "TO_LOCAL_AVATAR_ADVANCED",
                "HCMINPNPFDF": true,
                "PENAEBFAHCH": true,
                "CKOEAJFMDON": true,
                "OMCCMPHDLOO": "",
                "DBLNLMOPEBP": ""
            },
            {
                "$type": "EAMBKPBOPIC",
                "type": "LOOK_AT",
                "aliasList": [
                    "9053"
                ],
                "FIDJDPAIFDN": true,
                "BCHGCKLKNEH": 0.5,
                "OMCCMPHDLOO": "Avatar",
                "KPCALFDIHMC": "",
                "DBLNLMOPEBP": ""
            },
            {
                "$type": "ILCGAGEGDJI",
                "type": "BODY_LANG",
                "aliasList": [
                    "9053"
                ],
                "JLABKFNJCNP": true,
                "PMJAMGLAJGK": true,
                "LIMPPBIAKGL": false,
                "FNDLJGEAMGI": ""
            }
        ],
        [
            {
                "$type": "OOMFCPJAJGL",
                "type": "STEER_TO",
                "delayTime": 0.30000001192092896,
                "duration": 0.800000011920929,
                "aliasList": [
                    "Avatar"
                ],
                "DMGIIHNDNLC": "TO_TARGET_ADVANCED",
                "HCMINPNPFDF": true,
                "PENAEBFAHCH": true,
                "CKOEAJFMDON": true,
                "OMCCMPHDLOO": "9053",
                "DBLNLMOPEBP": ""
            },
            {
                "$type": "DLPFECMKEKH",
                "type": "DIALOG",
                "aliasList": [
                    "9053"
                ],
                "NMKEDPFEKBH": 690530101,
                "JLCHMAJCAPA": 0.5
            },
            {
                "$type": "ILCGAGEGDJI",
                "type": "BODY_LANG",
                "aliasList": [
                    "9053"
                ],
                "FLBOOPHHFJP": 1130,
                "PMJAMGLAJGK": true,
                "LIMPPBIAKGL": false,
                "FNDLJGEAMGI": ""
            },
            {
                "$type": "EAMBKPBOPIC",
                "type": "LOOK_AT",
                "delayTime": 0.20000000298023224,
                "aliasList": [
                    "9053"
                ],
                "FIDJDPAIFDN": true,
                "EFHJCGEOHAF": {
                    "y": -30.0
                },
                "BCHGCKLKNEH": 0.5,
                "OMCCMPHDLOO": "Avatar",
                "CEBMBGKJACI": "NONE",
                "KPCALFDIHMC": "",
                "DBLNLMOPEBP": ""
            },
            {
                "$type": "EAMBKPBOPIC",
                "type": "LOOK_AT",
                "delayTime": 1.7999999523162842,
                "aliasList": [
                    "9053"
                ],
                "FIDJDPAIFDN": true,
                "BCHGCKLKNEH": 0.699999988079071,
                "OMCCMPHDLOO": "Avatar",
                "CEBMBGKJACI": "NONE",
                "KPCALFDIHMC": "",
                "DBLNLMOPEBP": ""
            },
            {
                "$type": "OPCCDGPJCJI",
                "type": "EMO_SYNC",
                "aliasList": [
                    "9053"
                ],
                "IONNJBCBACJ": "Cs_Emo_Avatar_Simple_Common_Set/Cs_Emo_Avatar_Talk/Cs_Emo_HomeWorld/Cs_Emo_Avatar_Sayu/Cs_Emo_690530101",
                "HLEJKBCMNNJ": "",
                "JGHLJJLNGPP": "",
                "MANNKIIBOFM": "",
                "COMNAAFDEDH": "",
                "CPGCCLNOCDK": "",
                "IGEFGCJKCPM": [
                    6517669686888087802,
                    1840401230080317214,
                    5458184428659481499,
                    14780295896673098443
                ]
            }
        ],
        [
            {
                "$type": "DLPFECMKEKH",
                "type": "DIALOG",
                "aliasList": [
                    "9053"
                ],
                "NMKEDPFEKBH": 690530102,
                "JLCHMAJCAPA": 0.5
            },
            {
                "$type": "EAMBKPBOPIC",
                "type": "LOOK_AT",
                "aliasList": [
                    "9053"
                ],
                "FIDJDPAIFDN": true,
                "BCHGCKLKNEH": 0.5,
                "OMCCMPHDLOO": "Avatar",
                "KPCALFDIHMC": "",
                "DBLNLMOPEBP": ""
            },
            {
                "$type": "ILCGAGEGDJI",
                "type": "BODY_LANG",
                "aliasList": [
                    "9053"
                ],
                "JLABKFNJCNP": true,
                "PMJAMGLAJGK": true,
                "LIMPPBIAKGL": false,
                "FNDLJGEAMGI": ""
            },
            {
                "$type": "OPCCDGPJCJI",
                "type": "EMO_SYNC",
                "aliasList": [
                    "9053"
                ],
                "IONNJBCBACJ": "Cs_Emo_Avatar_Simple_Common_Set/Cs_Emo_Avatar_Talk/Cs_Emo_HomeWorld/Cs_Emo_Avatar_Sayu/Cs_Emo_690530102",
                "HLEJKBCMNNJ": "",
                "JGHLJJLNGPP": "",
                "MANNKIIBOFM": "",
                "COMNAAFDEDH": "",
                "CPGCCLNOCDK": "",
                "IGEFGCJKCPM": [
                    16850565710671650342,
                    14200118539102049313,
                    16689105179796425699,
                    9711836327435386492
                ]
            },
            {
                "$type": "ILCGAGEGDJI",
                "type": "BODY_LANG",
                "delayTime": 0.30000001192092896,
                "aliasList": [
                    "9053"
                ],
                "FLBOOPHHFJP": 4030,
                "PMJAMGLAJGK": true,
                "LIMPPBIAKGL": false,
                "FNDLJGEAMGI": ""
            }
        ],
        [
            {
                "$type": "MoleMole.Config.ConfigTimeProtectAction",
                "type": "TIME_PROTECT",
                "duration": 0.10000000149011612
            },
            {
                "$type": "ILCGAGEGDJI",
                "type": "BODY_LANG",
                "aliasList": [
                    "9053"
                ],
                "JLABKFNJCNP": true,
                "PMJAMGLAJGK": true,
                "LIMPPBIAKGL": false,
                "FNDLJGEAMGI": ""
            }
        ]
    ],
    "groupId": [
        {
            "grpId": 2981041046,
            "nextGrpId": 2981041047
        },
        {
            "index": 1,
            "grpId": 2981041047,
            "nextGrpId": 2981041048
        },
        {
            "index": 2,
            "grpId": 2981041048,
            "nextGrpId": 2981041049
        },
        {
            "index": 3,
            "grpId": 2981041049,
            "nextGrpId": 2981041050
        }
    ],
    "freeStyleDic": {
        "9053": [
            1130,
            4030
        ]
    }
}