{
    "talkId": 4012826,
    "type": "ACTIVITY",
    "dialogList": [
        {
            "id": 401282601,
            "talkRole": {
                "type": "TALK_ROLE_NPC",
                "id": "13673"
            },
            "talkContentTextMapHash": 3195861058,
            "talkAssetPath": "",
            "talkAssetPathAlter": "",
            "talkAudioName": "",
            "actionBefore": "",
            "actionWhile": "",
            "actionAfter": "",
            "optionIcon": ""
        }
    ]
}