{
    "talkId": 4014326,
    "type": "ACTIVITY",
    "dialogList": [
        {
            "id": 401432601,
            "nextDialogs": [
                401432602
            ],
            "talkShowType": "TALK_SHOW_FORCE_SELECT",
            "talkRole": {
                "type": "TALK_ROLE_PLAYER",
                "id": ""
            },
            "talkContentTextMapHash": 2687900178,
            "talkAssetPath": "",
            "talkAssetPathAlter": "",
            "talkAudioName": "",
            "actionBefore": "",
            "actionWhile": "",
            "actionAfter": "",
            "optionIcon": ""
        },
        {
            "id": 401432602,
            "talkRole": {
                "type": "TALK_ROLE_NPC",
                "id": "2202"
            },
            "talkContentTextMapHash": 3974736418,
            "talkAssetPath": "",
            "talkAssetPathAlter": "",
            "talkAudioName": "",
            "actionBefore": "",
            "actionWhile": "",
            "actionAfter": "",
            "optionIcon": ""
        }
    ]
}