{
    "talkId": 7352804,
    "type": "ACTIVITY",
    "dialogList": [
        {
            "id": 735280401,
            "talkRole": {
                "type": "TALK_ROLE_NPC",
                "id": "30406"
            },
            "talkContentTextMapHash": 2935103738,
            "talkAssetPath": "",
            "talkAssetPathAlter": "",
            "talkAudioName": "",
            "actionBefore": "",
            "actionWhile": "",
            "actionAfter": "UI/open_PenAdvShuffleBoardLevel_Page1",
            "optionIcon": "UI_Icon_Intee_PenAdvShuffleBoard"
        }
    ]
}